xof 0303txt 0032

template AnimTicksPerSecond {
  <9E415A43-7BA6-4a73-8743-B73D47E88476>
  DWORD AnimTicksPerSecond;
}

template XSkinMeshHeader {
  <3cf169ce-ff7c-44ab-93c0-f78f62d172e2>
  WORD nMaxSkinWeightsPerVertex;
  WORD nMaxSkinWeightsPerFace;
  WORD nBones;
}

template SkinWeights {
  <6f0d123b-bad2-4167-a0d0-80224f25fabb>
  STRING transformNodeName;
  DWORD nWeights;
  array DWORD vertexIndices[nWeights];
  array float weights[nWeights];
  Matrix4x4 matrixOffset;
}

Frame Root {
  FrameTransformMatrix {
     1.000000, 0.000000, 0.000000, 0.000000,
     0.000000, 0.000000, 1.000000, 0.000000,
     0.000000, 1.000000,-0.000000, 0.000000,
     0.000000, 0.000000, 0.000000, 1.000000;;
  }
  Frame armaldo_mat_0 {
    FrameTransformMatrix {
       1.000000, 0.000000, 0.000000, 0.000000,
       0.000000, 1.000000, 0.000000, 0.000000,
       0.000000, 0.000000, 1.000000, 0.000000,
       0.000000, 0.000000, 0.000000, 1.000000;;
    }
    Mesh { //Mesh Mesh
      18;
       0.026054;-0.381035;-0.009480;,
       1.492840;-0.592650;-0.019818;,
       2.458140;-0.493982;-0.018259;,
       0.026054;-0.381035;-0.009480;,
       2.458140;-0.493982;-0.018259;,
       3.887240; 0.013639;-0.003244;,
       0.026054;-0.381035;-0.009480;,
       3.887240; 0.013639;-0.003244;,
      -0.014148; 0.386150; 0.017563;,
       3.887240; 0.013639;-0.003244;,
       3.867140; 0.397232; 0.010278;,
      -0.014148; 0.386150; 0.017563;,
      -0.014148; 0.386150; 0.017563;,
       3.867140; 0.397232; 0.010278;,
       1.422490; 0.749924; 0.027508;,
       3.867140; 0.397232; 0.010278;,
       2.392810; 0.752694; 0.025687;,
       1.422490; 0.749924; 0.027508;;
      6;
      3;0;1;2;,
      3;3;4;5;,
      3;6;7;8;,
      3;9;10;11;,
      3;12;13;14;,
      3;15;16;17;;
      MeshNormals { //Mesh Normals
        18;
         0.001953;-0.035096; 0.999359;,
         0.001953;-0.035096; 0.999359;,
         0.001953;-0.035096; 0.999359;,
         0.001953;-0.035096; 0.999359;,
         0.001953;-0.035096; 0.999359;,
         0.001953;-0.035096; 0.999359;,
         0.001953;-0.035096; 0.999359;,
         0.001953;-0.035096; 0.999359;,
         0.001953;-0.035096; 0.999359;,
         0.001953;-0.035096; 0.999359;,
         0.001953;-0.035096; 0.999359;,
         0.001953;-0.035096; 0.999359;,
         0.001953;-0.035096; 0.999359;,
         0.001953;-0.035096; 0.999359;,
         0.001953;-0.035096; 0.999359;,
         0.001953;-0.035096; 0.999359;,
         0.001953;-0.035127; 0.999359;,
         0.001953;-0.035096; 0.999359;;
        6;
        3;0;1;2;,
        3;3;4;5;,
        3;6;7;8;,
        3;9;10;11;,
        3;12;13;14;,
        3;15;16;17;;
      } //End of Mesh Normals
      MeshMaterialList { //Mesh Material List
        1;
        6;
        0,
        0,
        0,
        0,
        0,
        0;;
        Material mat_0 {
           0.640000; 0.640000; 0.640000; 1.000000;;
           92.156863;
           0.250000; 0.250000; 0.250000;;
           0.000000; 0.000000; 0.000000;;
          TextureFilename {"Textures/armaldo_1_0.tga";}
        }
      } //End of Mesh Material List
      MeshTextureCoords { //Mesh UV Coordinates
        18;
         0.625000; 0.937500;,
         0.375000; 0.906250;,
         1.000000; 0.750000;,
         1.000000; 0.750000;,
         0.375000; 0.906250;,
         0.000000; 0.625000;,
         1.000000; 0.750000;,
         0.000000; 0.625000;,
         1.000000; 0.250000;,
         0.000000; 0.625000;,
         0.000000; 0.375000;,
         1.000000; 0.250000;,
         1.000000; 0.250000;,
         0.000000; 0.375000;,
         0.625000; 0.062500;,
         0.000000; 0.375000;,
         0.375000; 0.093750;,
         0.625000; 0.062500;;
      } //End of Mesh UV Coordinates
    } //End of Mesh Mesh
  } //End of armaldo_mat_0
} //End of Root Frame
