xof 0303txt 0032

template AnimTicksPerSecond {
  <9E415A43-7BA6-4a73-8743-B73D47E88476>
  DWORD AnimTicksPerSecond;
}

template XSkinMeshHeader {
  <3cf169ce-ff7c-44ab-93c0-f78f62d172e2>
  WORD nMaxSkinWeightsPerVertex;
  WORD nMaxSkinWeightsPerFace;
  WORD nBones;
}

template SkinWeights {
  <6f0d123b-bad2-4167-a0d0-80224f25fabb>
  STRING transformNodeName;
  DWORD nWeights;
  array DWORD vertexIndices[nWeights];
  array float weights[nWeights];
  Matrix4x4 matrixOffset;
}

Frame Root {
  FrameTransformMatrix {
     1.000000, 0.000000, 0.000000, 0.000000,
     0.000000, 0.000000, 1.000000, 0.000000,
     0.000000, 1.000000,-0.000000, 0.000000,
     0.000000, 0.000000, 0.000000, 1.000000;;
  }
  Frame haganeil_mat_0 {
    FrameTransformMatrix {
       1.000000, 0.000000, 0.000000, 0.000000,
       0.000000, 1.000000, 0.000000, 0.000000,
       0.000000, 0.000000, 1.000000, 0.000000,
       0.000000, 0.000000, 0.000000, 1.000000;;
    }
    Mesh { //Mesh Mesh
      114;
       1.736240; 1.462680;-5.294650;,
       2.740520;-2.484090;-4.968180;,
       6.426660; 0.871719;-6.388600;,
       6.088520;-3.493710;-5.099230;,
       6.426660; 0.871719;-6.388600;,
       2.740520;-2.484090;-4.968180;,
      -0.313448;-0.456649; 2.101260;,
       0.256428;-2.484090;-2.484090;,
      -0.249270; 2.511190;-1.397580;,
       0.256428;-2.484090;-2.484090;,
       1.736240; 1.462680;-5.294650;,
      -0.249270; 2.511190;-1.397580;,
       1.736240; 1.462680;-5.294650;,
       0.256428;-2.484090;-2.484090;,
       2.740520;-2.484090;-4.968180;,
       5.333580; 1.450110; 4.985850;,
       7.708700;-2.484090; 4.968180;,
       3.384310;-1.520450; 4.886140;,
       7.708700;-2.484090; 4.968180;,
       2.740520;-4.968180; 2.484090;,
       3.384310;-1.520450; 4.886140;,
       2.740520;-4.968180; 2.484090;,
       7.708700;-2.484090; 4.968180;,
       6.527720;-5.880620; 1.046130;,
      10.192800; 2.484090;-2.484090;,
      10.192800;-2.484090;-2.484090;,
      10.493500;-1.973420; 2.652670;,
      10.192800;-2.484090;-2.484090;,
       6.527720;-5.880620; 1.046130;,
      10.493500;-1.973420; 2.652670;,
      10.493500;-1.973420; 2.652670;,
       6.527720;-5.880620; 1.046130;,
       7.708700;-2.484090; 4.968180;,
      10.192800;-2.484090;-2.484090;,
       7.708700;-4.968180;-2.484090;,
       6.527720;-5.880620; 1.046130;,
       0.256428;-2.484090;-2.484090;,
      -0.313448;-0.456649; 2.101260;,
       2.740520;-4.968180; 2.484090;,
      -0.313448;-0.456649; 2.101260;,
       3.384310;-1.520450; 4.886140;,
       2.740520;-4.968180; 2.484090;,
       5.333580; 1.450110; 4.985850;,
       2.740520; 4.968180; 2.484090;,
       8.333640; 3.896940; 2.929820;,
       2.740520; 4.968180; 2.484090;,
       7.708700; 4.968180;-2.484090;,
       8.333640; 3.896940; 2.929820;,
       7.708700;-4.968180;-2.484090;,
      10.192800;-2.484090;-2.484090;,
       6.088520;-3.493710;-5.099230;,
      10.192800;-2.484090;-2.484090;,
       6.426660; 0.871719;-6.388600;,
       6.088520;-3.493710;-5.099230;,
       6.426660; 0.871719;-6.388600;,
      10.192800;-2.484090;-2.484090;,
      10.192800; 2.484090;-2.484090;,
      10.192800; 2.484090;-2.484090;,
       7.708700; 4.968180;-2.484090;,
       6.426660; 0.871719;-6.388600;,
       5.333580; 1.450110; 4.985850;,
       8.333640; 3.896940; 2.929820;,
       7.708700;-2.484090; 4.968180;,
       8.333640; 3.896940; 2.929820;,
      10.493500;-1.973420; 2.652670;,
       7.708700;-2.484090; 4.968180;,
      10.493500;-1.973420; 2.652670;,
       8.333640; 3.896940; 2.929820;,
      10.192800; 2.484090;-2.484090;,
       8.333640; 3.896940; 2.929820;,
       7.708700; 4.968180;-2.484090;,
      10.192800; 2.484090;-2.484090;,
       5.333580; 1.450110; 4.985850;,
       3.384310;-1.520450; 4.886140;,
       2.740520; 4.968180; 2.484090;,
       3.384310;-1.520450; 4.886140;,
      -0.313448;-0.456649; 2.101260;,
       2.740520; 4.968180; 2.484090;,
       2.740520; 4.968180; 2.484090;,
      -0.313448;-0.456649; 2.101260;,
      -0.249270; 2.511190;-1.397580;,
       6.527720;-5.880620; 1.046130;,
       3.217540;-5.768580;-0.648024;,
       2.740520;-4.968180; 2.484090;,
       3.217540;-5.768580;-0.648024;,
       0.256428;-2.484090;-2.484090;,
       2.740520;-4.968180; 2.484090;,
       0.256428;-2.484090;-2.484090;,
       3.217540;-5.768580;-0.648024;,
       2.740520;-2.484090;-4.968180;,
       3.217540;-5.768580;-0.648024;,
       6.088520;-3.493710;-5.099230;,
       2.740520;-2.484090;-4.968180;,
       6.088520;-3.493710;-5.099230;,
       3.217540;-5.768580;-0.648024;,
       7.708700;-4.968180;-2.484090;,
       3.217540;-5.768580;-0.648024;,
       6.527720;-5.880620; 1.046130;,
       7.708700;-4.968180;-2.484090;,
       7.708700; 4.968180;-2.484090;,
       2.740520; 4.968180; 2.484090;,
       2.740520; 4.968180;-2.484090;,
       2.740520; 4.968180; 2.484090;,
      -0.249270; 2.511190;-1.397580;,
       2.740520; 4.968180;-2.484090;,
       2.740520; 4.968180;-2.484090;,
      -0.249270; 2.511190;-1.397580;,
       1.736240; 1.462680;-5.294650;,
       1.736240; 1.462680;-5.294650;,
       6.426660; 0.871719;-6.388600;,
       2.740520; 4.968180;-2.484090;,
       2.740520; 4.968180;-2.484090;,
       6.426660; 0.871719;-6.388600;,
       7.708700; 4.968180;-2.484090;;
      38;
      3;0;1;2;,
      3;3;4;5;,
      3;6;7;8;,
      3;9;10;11;,
      3;12;13;14;,
      3;15;16;17;,
      3;18;19;20;,
      3;21;22;23;,
      3;24;25;26;,
      3;27;28;29;,
      3;30;31;32;,
      3;33;34;35;,
      3;36;37;38;,
      3;39;40;41;,
      3;42;43;44;,
      3;45;46;47;,
      3;48;49;50;,
      3;51;52;53;,
      3;54;55;56;,
      3;57;58;59;,
      3;60;61;62;,
      3;63;64;65;,
      3;66;67;68;,
      3;69;70;71;,
      3;72;73;74;,
      3;75;76;77;,
      3;78;79;80;,
      3;81;82;83;,
      3;84;85;86;,
      3;87;88;89;,
      3;90;91;92;,
      3;93;94;95;,
      3;96;97;98;,
      3;99;100;101;,
      3;102;103;104;,
      3;105;106;107;,
      3;108;109;110;,
      3;111;112;113;;
      MeshNormals { //Mesh Normals
        114;
         0.241646; 0.140904; 0.960051;,
         0.182379; 0.206519; 0.961272;,
         0.185766; 0.202857; 0.961394;,
         0.119572; 0.272683; 0.954619;,
         0.185766; 0.202857; 0.961394;,
         0.182379; 0.206519; 0.961272;,
         0.992828; 0.081484; 0.087344;,
         0.897153; 0.106815; 0.428571;,
         0.959777; 0.036622; 0.278268;,
         0.897153; 0.106815; 0.428571;,
         0.823908; 0.089541; 0.559557;,
         0.959777; 0.036622; 0.278268;,
         0.823908; 0.089541; 0.559557;,
         0.897153; 0.106815; 0.428571;,
         0.687826; 0.231910; 0.687826;,
         0.023041; 0.018403;-0.999542;,
         0.037477; 0.461776;-0.886166;,
         0.091342; 0.330027;-0.939512;,
         0.037477; 0.461776;-0.886166;,
         0.027680; 0.678610;-0.733970;,
         0.091342; 0.330027;-0.939512;,
         0.027680; 0.678610;-0.733970;,
         0.037477; 0.461776;-0.886166;,
        -0.060213; 0.763451;-0.643025;,
        -0.998291;-0.000000; 0.058412;,
        -0.910550; 0.413251; 0.006928;,
        -0.788415; 0.587817;-0.181158;,
        -0.910550; 0.413251; 0.006928;,
        -0.657918; 0.731895;-0.177282;,
        -0.788415; 0.587817;-0.181158;,
        -0.788415; 0.587817;-0.181158;,
        -0.657918; 0.731895;-0.177282;,
        -0.518387; 0.717460;-0.465224;,
        -0.910550; 0.413251; 0.006928;,
        -0.706076; 0.706076;-0.053682;,
        -0.657918; 0.731895;-0.177282;,
         0.825465; 0.546953;-0.139225;,
         0.780114; 0.495682;-0.381664;,
         0.756615; 0.473922;-0.450423;,
         0.780114; 0.495682;-0.381664;,
         0.624836; 0.364360;-0.690481;,
         0.756615; 0.473922;-0.450423;,
        -0.052309;-0.604053;-0.795190;,
        -0.122379;-0.851283;-0.510178;,
        -0.129429;-0.872158;-0.471755;,
        -0.122379;-0.851283;-0.510178;,
        -0.172033;-0.969939;-0.172033;,
        -0.129429;-0.872158;-0.471755;,
        -0.542283; 0.542283; 0.641713;,
        -0.638661; 0.252022; 0.727012;,
        -0.562181; 0.371349; 0.738914;,
        -0.638661; 0.252022; 0.727012;,
        -0.638936;-0.032655; 0.768548;,
        -0.562181; 0.371349; 0.738914;,
        -0.638936;-0.032655; 0.768548;,
        -0.638661; 0.252022; 0.727012;,
        -0.636952;-0.265084; 0.723869;,
        -0.636952;-0.265084; 0.723869;,
        -0.506516;-0.506516; 0.697745;,
        -0.638936;-0.032655; 0.768548;,
        -0.406720;-0.241585;-0.881008;,
        -0.772027;-0.394848;-0.498001;,
        -0.535417;-0.208960;-0.818293;,
        -0.772027;-0.394848;-0.498001;,
        -0.769341;-0.255409;-0.585498;,
        -0.535417;-0.208960;-0.818293;,
        -0.769341;-0.255409;-0.585498;,
        -0.772027;-0.394848;-0.498001;,
        -0.827082;-0.543779;-0.142094;,
        -0.772027;-0.394848;-0.498001;,
        -0.705893;-0.705893;-0.058168;,
        -0.827082;-0.543779;-0.142094;,
         0.453932;-0.269356;-0.849300;,
         0.502884;-0.255745;-0.825617;,
         0.657247;-0.341990;-0.671560;,
         0.502884;-0.255745;-0.825617;,
         0.688833;-0.342692;-0.638783;,
         0.657247;-0.341990;-0.671560;,
         0.657247;-0.341990;-0.671560;,
         0.688833;-0.342692;-0.638783;,
         0.824458;-0.438917;-0.357189;,
         0.004212; 0.998291; 0.057772;,
         0.370556; 0.914975; 0.159520;,
         0.460860; 0.874142;-0.153172;,
         0.370556; 0.914975; 0.159520;,
         0.590167; 0.727561; 0.349712;,
         0.460860; 0.874142;-0.153172;,
         0.590167; 0.727561; 0.349712;,
         0.370556; 0.914975; 0.159520;,
         0.363598; 0.760460; 0.538011;,
         0.370556; 0.914975; 0.159520;,
         0.156407; 0.834925; 0.527604;,
         0.363598; 0.760460; 0.538011;,
         0.156407; 0.834925; 0.527604;,
         0.370556; 0.914975; 0.159520;,
        -0.006073; 0.922025; 0.387036;,
         0.370556; 0.914975; 0.159520;,
         0.004212; 0.998291; 0.057772;,
        -0.006073; 0.922025; 0.387036;,
        -0.000000;-0.869198; 0.494400;,
         0.336863;-0.941527;-0.000000;,
         0.319803;-0.872555; 0.369243;,
         0.336863;-0.941527;-0.000000;,
         0.667776;-0.696738; 0.261910;,
         0.319803;-0.872555; 0.369243;,
         0.319803;-0.872555; 0.369243;,
         0.667776;-0.696738; 0.261910;,
         0.314707;-0.646992; 0.694510;,
         0.314707;-0.646992; 0.694510;,
         0.047151;-0.666585; 0.743889;,
         0.319803;-0.872555; 0.369243;,
         0.319803;-0.872555; 0.369243;,
         0.047151;-0.666585; 0.743889;,
        -0.000000;-0.869198; 0.494400;;
        38;
        3;0;1;2;,
        3;3;4;5;,
        3;6;7;8;,
        3;9;10;11;,
        3;12;13;14;,
        3;15;16;17;,
        3;18;19;20;,
        3;21;22;23;,
        3;24;25;26;,
        3;27;28;29;,
        3;30;31;32;,
        3;33;34;35;,
        3;36;37;38;,
        3;39;40;41;,
        3;42;43;44;,
        3;45;46;47;,
        3;48;49;50;,
        3;51;52;53;,
        3;54;55;56;,
        3;57;58;59;,
        3;60;61;62;,
        3;63;64;65;,
        3;66;67;68;,
        3;69;70;71;,
        3;72;73;74;,
        3;75;76;77;,
        3;78;79;80;,
        3;81;82;83;,
        3;84;85;86;,
        3;87;88;89;,
        3;90;91;92;,
        3;93;94;95;,
        3;96;97;98;,
        3;99;100;101;,
        3;102;103;104;,
        3;105;106;107;,
        3;108;109;110;,
        3;111;112;113;;
      } //End of Mesh Normals
      MeshMaterialList { //Mesh Material List
        1;
        38;
        0,
        0,
        0,
        0,
        0,
        0,
        0,
        0,
        0,
        0,
        0,
        0,
        0,
        0,
        0,
        0,
        0,
        0,
        0,
        0,
        0,
        0,
        0,
        0,
        0,
        0,
        0,
        0,
        0,
        0,
        0,
        0,
        0,
        0,
        0,
        0,
        0,
        0;;
        Material mat_0 {
           0.640000; 0.640000; 0.640000; 1.000000;;
           92.156863;
           0.250000; 0.250000; 0.250000;;
           0.000000; 0.000000; 0.000000;;
          TextureFilename {"Textures/haganeil_0_0.tga";}
        }
      } //End of Mesh Material List
      MeshTextureCoords { //Mesh UV Coordinates
        114;
         0.000000; 1.000000;,
         0.000000; 1.000000;,
         0.000000; 1.000000;,
         0.000000; 1.000000;,
         0.000000; 1.000000;,
         0.000000; 1.000000;,
         0.000000; 1.000000;,
         0.000000; 1.000000;,
         0.000000; 1.000000;,
         0.000000; 1.000000;,
         0.000000; 1.000000;,
         0.000000; 1.000000;,
         0.000000; 1.000000;,
         0.000000; 1.000000;,
         0.000000; 1.000000;,
         0.000000; 1.000000;,
         0.000000; 1.000000;,
         0.000000; 1.000000;,
         0.000000; 1.000000;,
         0.000000; 1.000000;,
         0.000000; 1.000000;,
         0.000000; 1.000000;,
         0.000000; 1.000000;,
         0.000000; 1.000000;,
         0.000000; 1.000000;,
         0.000000; 1.000000;,
         0.000000; 1.000000;,
         0.000000; 1.000000;,
         0.000000; 1.000000;,
         0.000000; 1.000000;,
         0.000000; 1.000000;,
         0.000000; 1.000000;,
         0.000000; 1.000000;,
         0.000000; 1.000000;,
         0.000000; 1.000000;,
         0.000000; 1.000000;,
         0.000000; 1.000000;,
         0.000000; 1.000000;,
         0.000000; 1.000000;,
         0.000000; 1.000000;,
         0.000000; 1.000000;,
         0.000000; 1.000000;,
         0.000000; 1.000000;,
         0.000000; 1.000000;,
         0.000000; 1.000000;,
         0.000000; 1.000000;,
         0.000000; 1.000000;,
         0.000000; 1.000000;,
         0.000000; 1.000000;,
         0.000000; 1.000000;,
         0.000000; 1.000000;,
         0.000000; 1.000000;,
         0.000000; 1.000000;,
         0.000000; 1.000000;,
         0.000000; 1.000000;,
         0.000000; 1.000000;,
         0.000000; 1.000000;,
         0.000000; 1.000000;,
         0.000000; 1.000000;,
         0.000000; 1.000000;,
         0.000000; 1.000000;,
         0.000000; 1.000000;,
         0.000000; 1.000000;,
         0.000000; 1.000000;,
         0.000000; 1.000000;,
         0.000000; 1.000000;,
         0.000000; 1.000000;,
         0.000000; 1.000000;,
         0.000000; 1.000000;,
         0.000000; 1.000000;,
         0.000000; 1.000000;,
         0.000000; 1.000000;,
         0.000000; 1.000000;,
         0.000000; 1.000000;,
         0.000000; 1.000000;,
         0.000000; 1.000000;,
         0.000000; 1.000000;,
         0.000000; 1.000000;,
         0.000000; 1.000000;,
         0.000000; 1.000000;,
         0.000000; 1.000000;,
         0.000000; 1.000000;,
         0.000000; 1.000000;,
         0.000000; 1.000000;,
         0.000000; 1.000000;,
         0.000000; 1.000000;,
         0.000000; 1.000000;,
         0.000000; 1.000000;,
         0.000000; 1.000000;,
         0.000000; 1.000000;,
         0.000000; 1.000000;,
         0.000000; 1.000000;,
         0.000000; 1.000000;,
         0.000000; 1.000000;,
         0.000000; 1.000000;,
         0.000000; 1.000000;,
         0.000000; 1.000000;,
         0.000000; 1.000000;,
         0.000000; 1.000000;,
         0.000000; 1.000000;,
         0.000000; 1.000000;,
         0.000000; 1.000000;,
         0.000000; 1.000000;,
         0.000000; 1.000000;,
         0.000000; 1.000000;,
         0.000000; 1.000000;,
         0.000000; 1.000000;,
         0.000000; 1.000000;,
         0.000000; 1.000000;,
         0.000000; 1.000000;,
         0.000000; 1.000000;,
         0.000000; 1.000000;,
         0.000000; 1.000000;,
         0.000000; 1.000000;;
      } //End of Mesh UV Coordinates
    } //End of Mesh Mesh
  } //End of haganeil_mat_0
} //End of Root Frame
