xof 0303txt 0032

template AnimTicksPerSecond {
  <9E415A43-7BA6-4a73-8743-B73D47E88476>
  DWORD AnimTicksPerSecond;
}

template XSkinMeshHeader {
  <3cf169ce-ff7c-44ab-93c0-f78f62d172e2>
  WORD nMaxSkinWeightsPerVertex;
  WORD nMaxSkinWeightsPerFace;
  WORD nBones;
}

template SkinWeights {
  <6f0d123b-bad2-4167-a0d0-80224f25fabb>
  STRING transformNodeName;
  DWORD nWeights;
  array DWORD vertexIndices[nWeights];
  array float weights[nWeights];
  Matrix4x4 matrixOffset;
}

Frame Root {
  FrameTransformMatrix {
     1.000000, 0.000000, 0.000000, 0.000000,
     0.000000, 0.000000, 1.000000, 0.000000,
     0.000000, 1.000000,-0.000000, 0.000000,
     0.000000, 0.000000, 0.000000, 1.000000;;
  }
  Frame betbeter_mat_0 {
    FrameTransformMatrix {
       1.000000, 0.000000, 0.000000, 0.000000,
       0.000000, 1.000000, 0.000000, 0.000000,
       0.000000, 0.000000, 1.000000, 0.000000,
       0.000000, 0.000000, 0.000000, 1.000000;;
    }
    Mesh { //Mesh Mesh
      90;
       0.289026;-0.117789;-0.889530;,
       0.756680;-0.117789;-0.549760;,
       0.419621; 0.002211;-0.304873;,
       0.289026;-0.117789;-0.889530;,
       0.419621; 0.002211;-0.304873;,
       0.160281; 0.002211;-0.493294;,
       0.289026;-0.117789;-0.889530;,
       0.160281; 0.002211;-0.493294;,
      -0.289026;-0.117789;-0.889530;,
       0.160281; 0.002211;-0.493294;,
      -0.160281; 0.002211;-0.493294;,
      -0.289026;-0.117789;-0.889530;,
      -0.289026;-0.117789;-0.889530;,
      -0.160281; 0.002211;-0.493294;,
      -0.756680;-0.117789;-0.549760;,
      -0.160281; 0.002211;-0.493294;,
      -0.419621; 0.002211;-0.304873;,
      -0.756680;-0.117789;-0.549760;,
      -0.756680;-0.117789;-0.549760;,
      -0.419621; 0.002211;-0.304873;,
      -0.935308;-0.117789; 0.000000;,
      -0.419621; 0.002211;-0.304873;,
      -0.518680; 0.002211; 0.000000;,
      -0.935308;-0.117789; 0.000000;,
      -0.935308;-0.117789; 0.000000;,
      -0.518680; 0.002211; 0.000000;,
      -0.756680;-0.117789; 0.549760;,
      -0.518680; 0.002211; 0.000000;,
      -0.419621; 0.002211; 0.304873;,
      -0.756680;-0.117789; 0.549760;,
      -0.756680;-0.117789; 0.549760;,
      -0.419621; 0.002211; 0.304873;,
      -0.289026;-0.117789; 0.889530;,
      -0.419621; 0.002211; 0.304873;,
      -0.160281; 0.002211; 0.493294;,
      -0.289026;-0.117789; 0.889530;,
      -0.289026;-0.117789; 0.889530;,
      -0.160281; 0.002211; 0.493294;,
       0.289026;-0.117789; 0.889530;,
      -0.160281; 0.002211; 0.493294;,
       0.160281; 0.002211; 0.493294;,
       0.289026;-0.117789; 0.889530;,
       0.289026;-0.117789; 0.889530;,
       0.160281; 0.002211; 0.493294;,
       0.756680;-0.117789; 0.549760;,
       0.160281; 0.002211; 0.493294;,
       0.419621; 0.002211; 0.304873;,
       0.756680;-0.117789; 0.549760;,
       0.756680;-0.117789; 0.549760;,
       0.419621; 0.002211; 0.304873;,
       0.935308;-0.117789; 0.000000;,
       0.419621; 0.002211; 0.304873;,
       0.518680; 0.002211; 0.000000;,
       0.935308;-0.117789; 0.000000;,
       0.935308;-0.117789; 0.000000;,
       0.518680; 0.002211; 0.000000;,
       0.756680;-0.117789;-0.549760;,
       0.518680; 0.002211; 0.000000;,
       0.419621; 0.002211;-0.304873;,
       0.756680;-0.117789;-0.549760;,
       0.000000; 0.062211; 0.000000;,
       0.160281; 0.002211;-0.493294;,
       0.419621; 0.002211;-0.304873;,
       0.000000; 0.062211; 0.000000;,
      -0.160281; 0.002211;-0.493294;,
       0.160281; 0.002211;-0.493294;,
       0.000000; 0.062211; 0.000000;,
      -0.419621; 0.002211;-0.304873;,
      -0.160281; 0.002211;-0.493294;,
       0.000000; 0.062211; 0.000000;,
      -0.518680; 0.002211; 0.000000;,
      -0.419621; 0.002211;-0.304873;,
       0.000000; 0.062211; 0.000000;,
      -0.419621; 0.002211; 0.304873;,
      -0.518680; 0.002211; 0.000000;,
       0.000000; 0.062211; 0.000000;,
      -0.160281; 0.002211; 0.493294;,
      -0.419621; 0.002211; 0.304873;,
       0.000000; 0.062211; 0.000000;,
       0.160281; 0.002211; 0.493294;,
      -0.160281; 0.002211; 0.493294;,
       0.000000; 0.062211; 0.000000;,
       0.419621; 0.002211; 0.304873;,
       0.160281; 0.002211; 0.493294;,
       0.000000; 0.062211; 0.000000;,
       0.518680; 0.002211; 0.000000;,
       0.419621; 0.002211; 0.304873;,
       0.000000; 0.062211; 0.000000;,
       0.419621; 0.002211;-0.304873;,
       0.518680; 0.002211; 0.000000;;
      30;
      3;0;1;2;,
      3;3;4;5;,
      3;6;7;8;,
      3;9;10;11;,
      3;12;13;14;,
      3;15;16;17;,
      3;18;19;20;,
      3;21;22;23;,
      3;24;25;26;,
      3;27;28;29;,
      3;30;31;32;,
      3;33;34;35;,
      3;36;37;38;,
      3;39;40;41;,
      3;42;43;44;,
      3;45;46;47;,
      3;48;49;50;,
      3;51;52;53;,
      3;54;55;56;,
      3;57;58;59;,
      3;60;61;62;,
      3;63;64;65;,
      3;66;67;68;,
      3;69;70;71;,
      3;72;73;74;,
      3;75;76;77;,
      3;78;79;80;,
      3;81;82;83;,
      3;84;85;86;,
      3;87;88;89;;
      MeshNormals { //Mesh Normals
        90;
        -0.085513;-0.960906; 0.263222;,
        -0.223914;-0.960906; 0.162664;,
        -0.171728;-0.977203; 0.124760;,
        -0.085513;-0.960906; 0.263222;,
        -0.171728;-0.977203; 0.124760;,
        -0.065584;-0.977203; 0.201849;,
        -0.085513;-0.960906; 0.263222;,
        -0.065584;-0.977203; 0.201849;,
         0.085513;-0.960906; 0.263222;,
        -0.065584;-0.977203; 0.201849;,
         0.065584;-0.977203; 0.201849;,
         0.085513;-0.960906; 0.263222;,
         0.085513;-0.960906; 0.263222;,
         0.065584;-0.977203; 0.201849;,
         0.223914;-0.960906; 0.162664;,
         0.065584;-0.977203; 0.201849;,
         0.171728;-0.977203; 0.124760;,
         0.223914;-0.960906; 0.162664;,
         0.223914;-0.960906; 0.162664;,
         0.171728;-0.977203; 0.124760;,
         0.276772;-0.960906;-0.000000;,
         0.171728;-0.977203; 0.124760;,
         0.212256;-0.977203;-0.000000;,
         0.276772;-0.960906;-0.000000;,
         0.276772;-0.960906;-0.000000;,
         0.212256;-0.977203;-0.000000;,
         0.223914;-0.960906;-0.162664;,
         0.212256;-0.977203;-0.000000;,
         0.171728;-0.977203;-0.124760;,
         0.223914;-0.960906;-0.162664;,
         0.223914;-0.960906;-0.162664;,
         0.171728;-0.977203;-0.124760;,
         0.085513;-0.960906;-0.263222;,
         0.171728;-0.977203;-0.124760;,
         0.065584;-0.977203;-0.201849;,
         0.085513;-0.960906;-0.263222;,
         0.085513;-0.960906;-0.263222;,
         0.065584;-0.977203;-0.201849;,
        -0.085513;-0.960906;-0.263222;,
         0.065584;-0.977203;-0.201849;,
        -0.065584;-0.977203;-0.201849;,
        -0.085513;-0.960906;-0.263222;,
        -0.085513;-0.960906;-0.263222;,
        -0.065584;-0.977203;-0.201849;,
        -0.223914;-0.960906;-0.162664;,
        -0.065584;-0.977203;-0.201849;,
        -0.171728;-0.977203;-0.124760;,
        -0.223914;-0.960906;-0.162664;,
        -0.223914;-0.960906;-0.162664;,
        -0.171728;-0.977203;-0.124760;,
        -0.276772;-0.960906;-0.000000;,
        -0.171728;-0.977203;-0.124760;,
        -0.212256;-0.977203;-0.000000;,
        -0.276772;-0.960906;-0.000000;,
        -0.276772;-0.960906;-0.000000;,
        -0.212256;-0.977203;-0.000000;,
        -0.223914;-0.960906; 0.162664;,
        -0.212256;-0.977203;-0.000000;,
        -0.171728;-0.977203; 0.124760;,
        -0.223914;-0.960906; 0.162664;,
        -0.000000;-0.999969;-0.000000;,
        -0.065584;-0.977203; 0.201849;,
        -0.171728;-0.977203; 0.124760;,
        -0.000000;-0.999969;-0.000000;,
         0.065584;-0.977203; 0.201849;,
        -0.065584;-0.977203; 0.201849;,
        -0.000000;-0.999969;-0.000000;,
         0.171728;-0.977203; 0.124760;,
         0.065584;-0.977203; 0.201849;,
        -0.000000;-0.999969;-0.000000;,
         0.212256;-0.977203;-0.000000;,
         0.171728;-0.977203; 0.124760;,
        -0.000000;-0.999969;-0.000000;,
         0.171728;-0.977203;-0.124760;,
         0.212256;-0.977203;-0.000000;,
        -0.000000;-0.999969;-0.000000;,
         0.065584;-0.977203;-0.201849;,
         0.171728;-0.977203;-0.124760;,
        -0.000000;-0.999969;-0.000000;,
        -0.065584;-0.977203;-0.201849;,
         0.065584;-0.977203;-0.201849;,
        -0.000000;-0.999969;-0.000000;,
        -0.171728;-0.977203;-0.124760;,
        -0.065584;-0.977203;-0.201849;,
        -0.000000;-0.999969;-0.000000;,
        -0.212256;-0.977203;-0.000000;,
        -0.171728;-0.977203;-0.124760;,
        -0.000000;-0.999969;-0.000000;,
        -0.171728;-0.977203; 0.124760;,
        -0.212256;-0.977203;-0.000000;;
        30;
        3;0;1;2;,
        3;3;4;5;,
        3;6;7;8;,
        3;9;10;11;,
        3;12;13;14;,
        3;15;16;17;,
        3;18;19;20;,
        3;21;22;23;,
        3;24;25;26;,
        3;27;28;29;,
        3;30;31;32;,
        3;33;34;35;,
        3;36;37;38;,
        3;39;40;41;,
        3;42;43;44;,
        3;45;46;47;,
        3;48;49;50;,
        3;51;52;53;,
        3;54;55;56;,
        3;57;58;59;,
        3;60;61;62;,
        3;63;64;65;,
        3;66;67;68;,
        3;69;70;71;,
        3;72;73;74;,
        3;75;76;77;,
        3;78;79;80;,
        3;81;82;83;,
        3;84;85;86;,
        3;87;88;89;;
      } //End of Mesh Normals
      MeshMaterialList { //Mesh Material List
        1;
        30;
        0,
        0,
        0,
        0,
        0,
        0,
        0,
        0,
        0,
        0,
        0,
        0,
        0,
        0,
        0,
        0,
        0,
        0,
        0,
        0,
        0,
        0,
        0,
        0,
        0,
        0,
        0,
        0,
        0,
        0;;
        Material mat_0 {
           0.640000; 0.640000; 0.640000; 1.000000;;
           92.156863;
           0.250000; 0.250000; 0.250000;;
           0.000000; 0.000000; 0.000000;;
          TextureFilename {"Textures/betbeter_0_0.tga";}
        }
      } //End of Mesh Material List
      MeshTextureCoords { //Mesh UV Coordinates
        90;
         0.000000; 0.666667;,
         0.000000; 0.333333;,
         0.100000; 0.666667;,
         0.100000; 0.666667;,
         0.000000; 0.333333;,
         0.100000; 0.333333;,
         0.100000; 0.666667;,
         0.100000; 0.333333;,
         0.200000; 0.666667;,
         0.100000; 0.333333;,
         0.200000; 0.333333;,
         0.200000; 0.666667;,
         0.200000; 0.666667;,
         0.200000; 0.333333;,
         0.300000; 0.666667;,
         0.200000; 0.333333;,
         0.300000; 0.333333;,
         0.300000; 0.666667;,
         0.300000; 0.666667;,
         0.300000; 0.333333;,
         0.400000; 0.666667;,
         0.300000; 0.333333;,
         0.400000; 0.333333;,
         0.400000; 0.666667;,
         0.400000; 0.666667;,
         0.400000; 0.333333;,
         0.500000; 0.666667;,
         0.400000; 0.333333;,
         0.500000; 0.333333;,
         0.500000; 0.666667;,
         0.500000; 0.666667;,
         0.500000; 0.333333;,
         0.600000; 0.666667;,
         0.500000; 0.333333;,
         0.600000; 0.333333;,
         0.600000; 0.666667;,
         0.600000; 0.666667;,
         0.600000; 0.333333;,
         0.700000; 0.666667;,
         0.600000; 0.333333;,
         0.700000; 0.333333;,
         0.700000; 0.666667;,
         0.700000; 0.666667;,
         0.700000; 0.333333;,
         0.800000; 0.666667;,
         0.700000; 0.333333;,
         0.800000; 0.333333;,
         0.800000; 0.666667;,
         0.800000; 0.666667;,
         0.800000; 0.333333;,
         0.900000; 0.666667;,
         0.800000; 0.333333;,
         0.900000; 0.333333;,
         0.900000; 0.666667;,
         0.900000; 0.666667;,
         0.900000; 0.333333;,
         1.000000; 0.666667;,
         0.900000; 0.333333;,
         1.000000; 0.333333;,
         1.000000; 0.666667;,
         0.050000; 0.000000;,
         0.100000; 0.333333;,
         0.000000; 0.333333;,
         0.150000; 0.000000;,
         0.200000; 0.333333;,
         0.100000; 0.333333;,
         0.250000; 0.000000;,
         0.300000; 0.333333;,
         0.200000; 0.333333;,
         0.350000; 0.000000;,
         0.400000; 0.333333;,
         0.300000; 0.333333;,
         0.450000; 0.000000;,
         0.500000; 0.333333;,
         0.400000; 0.333333;,
         0.550000; 0.000000;,
         0.600000; 0.333333;,
         0.500000; 0.333333;,
         0.650000; 0.000000;,
         0.700000; 0.333333;,
         0.600000; 0.333333;,
         0.750000; 0.000000;,
         0.800000; 0.333333;,
         0.700000; 0.333333;,
         0.850000; 0.000000;,
         0.900000; 0.333333;,
         0.800000; 0.333333;,
         0.950000; 0.000000;,
         1.000000; 0.333333;,
         0.900000; 0.333333;;
      } //End of Mesh UV Coordinates
    } //End of Mesh Mesh
  } //End of betbeter_mat_0
} //End of Root Frame
