xof 0303txt 0032

template AnimTicksPerSecond {
  <9E415A43-7BA6-4a73-8743-B73D47E88476>
  DWORD AnimTicksPerSecond;
}

template XSkinMeshHeader {
  <3cf169ce-ff7c-44ab-93c0-f78f62d172e2>
  WORD nMaxSkinWeightsPerVertex;
  WORD nMaxSkinWeightsPerFace;
  WORD nBones;
}

template SkinWeights {
  <6f0d123b-bad2-4167-a0d0-80224f25fabb>
  STRING transformNodeName;
  DWORD nWeights;
  array DWORD vertexIndices[nWeights];
  array float weights[nWeights];
  Matrix4x4 matrixOffset;
}

Frame Root {
  FrameTransformMatrix {
     1.000000, 0.000000, 0.000000, 0.000000,
     0.000000, 0.000000, 1.000000, 0.000000,
     0.000000, 1.000000,-0.000000, 0.000000,
     0.000000, 0.000000, 0.000000, 1.000000;;
  }
  Frame tekkanin_mat_0 {
    FrameTransformMatrix {
       1.000000, 0.000000, 0.000000, 0.000000,
       0.000000, 1.000000, 0.000000, 0.000000,
       0.000000, 0.000000, 1.000000, 0.000000,
       0.000000, 0.000000, 0.000000, 1.000000;;
    }
    Mesh { //Mesh Mesh
      132;
      -0.118597; 0.187091; 0.137946;,
      -0.075211; 0.324439; 0.069316;,
       0.074038; 0.320766; 0.069316;,
      -0.118597; 0.187091; 0.137946;,
       0.074038; 0.320766; 0.069316;,
       0.118037; 0.182865; 0.137946;,
       0.125834;-0.187083; 0.146373;,
       0.088065;-0.324431; 0.086169;,
      -0.061184;-0.320758; 0.086169;,
       0.125834;-0.187083; 0.146373;,
      -0.061184;-0.320758; 0.086169;,
      -0.112422;-0.182857; 0.146373;,
      -0.231339;-0.184234; 0.008044;,
      -0.061184;-0.320758; 0.086169;,
      -0.130511;-0.320294; 0.016087;,
      -0.130511;-0.320294; 0.016087;,
      -0.061184;-0.320758; 0.086169;,
       0.012536;-0.372657; 0.016087;,
       0.012536;-0.372657; 0.016087;,
      -0.061184;-0.320758; 0.086169;,
       0.088065;-0.324431; 0.086169;,
       0.088065;-0.324431; 0.086169;,
       0.155783;-0.321420; 0.016087;,
       0.012536;-0.372657; 0.016087;,
       0.155783;-0.321420; 0.016087;,
       0.088065;-0.324431; 0.086169;,
       0.244003;-0.186183; 0.008044;,
       0.088065;-0.324431; 0.086169;,
       0.125834;-0.187083; 0.146373;,
       0.244003;-0.186183; 0.008044;,
       0.244003;-0.186183; 0.008044;,
       0.125834;-0.187083; 0.146373;,
       0.274323;-0.000977; 0.000000;,
       0.125834;-0.187083; 0.146373;,
       0.136676;-0.001486; 0.147406;,
       0.274323;-0.000977; 0.000000;,
       0.274323;-0.000977; 0.000000;,
       0.136676;-0.001486; 0.147406;,
       0.118037; 0.182865; 0.137946;,
       0.136676;-0.001486; 0.147406;,
      -0.000001; 0.000004; 0.179358;,
       0.118037; 0.182865; 0.137946;,
       0.118037; 0.182865; 0.137946;,
      -0.000001; 0.000004; 0.179358;,
      -0.118597; 0.187091; 0.137946;,
      -0.000001; 0.000004; 0.179358;,
      -0.136677; 0.001494; 0.147406;,
      -0.118597; 0.187091; 0.137946;,
      -0.118597; 0.187091; 0.137946;,
      -0.136677; 0.001494; 0.147406;,
      -0.274325; 0.000984; 0.000000;,
      -0.136677; 0.001494; 0.147406;,
      -0.112422;-0.182857; 0.146373;,
      -0.274325; 0.000984; 0.000000;,
      -0.274325; 0.000984; 0.000000;,
      -0.112422;-0.182857; 0.146373;,
      -0.231339;-0.184234; 0.008044;,
      -0.112422;-0.182857; 0.146373;,
      -0.061184;-0.320758; 0.086169;,
      -0.231339;-0.184234; 0.008044;,
      -0.136677; 0.001494; 0.147406;,
      -0.000001; 0.000004; 0.179358;,
      -0.112422;-0.182857; 0.146373;,
      -0.000001; 0.000004; 0.179358;,
       0.125834;-0.187083; 0.146373;,
      -0.112422;-0.182857; 0.146373;,
       0.125834;-0.187083; 0.146373;,
      -0.000001; 0.000004; 0.179358;,
       0.136676;-0.001486; 0.147406;,
       0.274323;-0.000977; 0.000000;,
       0.118037; 0.182865; 0.137946;,
       0.237765; 0.184242;-0.000383;,
       0.118037; 0.182865; 0.137946;,
       0.074038; 0.320766; 0.069316;,
       0.237765; 0.184242;-0.000383;,
       0.237765; 0.184242;-0.000383;,
       0.074038; 0.320766; 0.069316;,
       0.143365; 0.320302;-0.000766;,
       0.143365; 0.320302;-0.000766;,
       0.074038; 0.320766; 0.069316;,
      -0.006431; 0.372665;-0.008809;,
      -0.006431; 0.372665;-0.008809;,
       0.074038; 0.320766; 0.069316;,
      -0.075211; 0.324439; 0.069316;,
      -0.075211; 0.324439; 0.069316;,
      -0.142929; 0.321427;-0.000766;,
      -0.006431; 0.372665;-0.008809;,
      -0.142929; 0.321427;-0.000766;,
      -0.075211; 0.324439; 0.069316;,
      -0.237576; 0.186191;-0.000383;,
      -0.075211; 0.324439; 0.069316;,
      -0.118597; 0.187091; 0.137946;,
      -0.237576; 0.186191;-0.000383;,
      -0.237576; 0.186191;-0.000383;,
      -0.118597; 0.187091; 0.137946;,
      -0.274325; 0.000984; 0.000000;,
       0.237765; 0.184242;-0.000383;,
       0.038825; 0.000004;-0.443782;,
       0.274323;-0.000977; 0.000000;,
       0.038825; 0.000004;-0.443782;,
       0.244003;-0.186183; 0.008044;,
       0.274323;-0.000977; 0.000000;,
       0.244003;-0.186183; 0.008044;,
       0.038825; 0.000004;-0.443782;,
       0.155783;-0.321420; 0.016087;,
       0.038825; 0.000004;-0.443782;,
       0.012536;-0.372657; 0.016087;,
       0.155783;-0.321420; 0.016087;,
       0.012536;-0.372657; 0.016087;,
       0.038825; 0.000004;-0.443782;,
      -0.130511;-0.320294; 0.016087;,
       0.038825; 0.000004;-0.443782;,
      -0.231339;-0.184234; 0.008044;,
      -0.130511;-0.320294; 0.016087;,
      -0.231339;-0.184234; 0.008044;,
       0.038825; 0.000004;-0.443782;,
      -0.274325; 0.000984; 0.000000;,
       0.038825; 0.000004;-0.443782;,
      -0.237576; 0.186191;-0.000383;,
      -0.274325; 0.000984; 0.000000;,
      -0.237576; 0.186191;-0.000383;,
       0.038825; 0.000004;-0.443782;,
      -0.142929; 0.321427;-0.000766;,
       0.038825; 0.000004;-0.443782;,
      -0.006431; 0.372665;-0.008809;,
      -0.142929; 0.321427;-0.000766;,
      -0.006431; 0.372665;-0.008809;,
       0.038825; 0.000004;-0.443782;,
       0.143365; 0.320302;-0.000766;,
       0.038825; 0.000004;-0.443782;,
       0.237765; 0.184242;-0.000383;,
       0.143365; 0.320302;-0.000766;;
      44;
      3;0;1;2;,
      3;3;4;5;,
      3;6;7;8;,
      3;9;10;11;,
      3;12;13;14;,
      3;15;16;17;,
      3;18;19;20;,
      3;21;22;23;,
      3;24;25;26;,
      3;27;28;29;,
      3;30;31;32;,
      3;33;34;35;,
      3;36;37;38;,
      3;39;40;41;,
      3;42;43;44;,
      3;45;46;47;,
      3;48;49;50;,
      3;51;52;53;,
      3;54;55;56;,
      3;57;58;59;,
      3;60;61;62;,
      3;63;64;65;,
      3;66;67;68;,
      3;69;70;71;,
      3;72;73;74;,
      3;75;76;77;,
      3;78;79;80;,
      3;81;82;83;,
      3;84;85;86;,
      3;87;88;89;,
      3;90;91;92;,
      3;93;94;95;,
      3;96;97;98;,
      3;99;100;101;,
      3;102;103;104;,
      3;105;106;107;,
      3;108;109;110;,
      3;111;112;113;,
      3;114;115;116;,
      3;117;118;119;,
      3;120;121;122;,
      3;123;124;125;,
      3;126;127;128;,
      3;129;130;131;;
      MeshNormals { //Mesh Normals
        132;
         0.408948;-0.322398;-0.853694;,
         0.286508;-0.699026;-0.655141;,
        -0.293191;-0.692496;-0.659139;,
         0.408948;-0.322398;-0.853694;,
        -0.293191;-0.692496;-0.659139;,
        -0.411573;-0.320170;-0.853267;,
        -0.418165; 0.270943;-0.867000;,
        -0.302561; 0.672811;-0.675100;,
         0.293588; 0.668142;-0.683615;,
        -0.418165; 0.270943;-0.867000;,
         0.293588; 0.668142;-0.683615;,
         0.414960; 0.297769;-0.859706;,
         0.721458; 0.279855;-0.633351;,
         0.293588; 0.668142;-0.683615;,
         0.572954; 0.595752;-0.562822;,
         0.572954; 0.595752;-0.562822;,
         0.293588; 0.668142;-0.683615;,
         0.012055; 0.889218;-0.457289;,
         0.012055; 0.889218;-0.457289;,
         0.293588; 0.668142;-0.683615;,
        -0.302561; 0.672811;-0.675100;,
        -0.302561; 0.672811;-0.675100;,
        -0.598865; 0.578417;-0.553819;,
         0.012055; 0.889218;-0.457289;,
        -0.598865; 0.578417;-0.553819;,
        -0.302561; 0.672811;-0.675100;,
        -0.735832; 0.233283;-0.635670;,
        -0.302561; 0.672811;-0.675100;,
        -0.418165; 0.270943;-0.867000;,
        -0.735832; 0.233283;-0.635670;,
        -0.735832; 0.233283;-0.635670;,
        -0.418165; 0.270943;-0.867000;,
        -0.743980;-0.029481;-0.667501;,
        -0.418165; 0.270943;-0.867000;,
        -0.509293;-0.029878;-0.860042;,
        -0.743980;-0.029481;-0.667501;,
        -0.743980;-0.029481;-0.667501;,
        -0.509293;-0.029878;-0.860042;,
        -0.411573;-0.320170;-0.853267;,
        -0.509293;-0.029878;-0.860042;,
         0.001465;-0.022126;-0.999725;,
        -0.411573;-0.320170;-0.853267;,
        -0.411573;-0.320170;-0.853267;,
         0.001465;-0.022126;-0.999725;,
         0.408948;-0.322398;-0.853694;,
         0.001465;-0.022126;-0.999725;,
         0.513962;-0.010285;-0.857723;,
         0.408948;-0.322398;-0.853694;,
         0.408948;-0.322398;-0.853694;,
         0.513962;-0.010285;-0.857723;,
         0.744346;-0.004761;-0.667745;,
         0.513962;-0.010285;-0.857723;,
         0.414960; 0.297769;-0.859706;,
         0.744346;-0.004761;-0.667745;,
         0.744346;-0.004761;-0.667745;,
         0.414960; 0.297769;-0.859706;,
         0.721458; 0.279855;-0.633351;,
         0.414960; 0.297769;-0.859706;,
         0.293588; 0.668142;-0.683615;,
         0.721458; 0.279855;-0.633351;,
         0.513962;-0.010285;-0.857723;,
         0.001465;-0.022126;-0.999725;,
         0.414960; 0.297769;-0.859706;,
         0.001465;-0.022126;-0.999725;,
        -0.418165; 0.270943;-0.867000;,
         0.414960; 0.297769;-0.859706;,
        -0.418165; 0.270943;-0.867000;,
         0.001465;-0.022126;-0.999725;,
        -0.509293;-0.029878;-0.860042;,
        -0.743980;-0.029481;-0.667501;,
        -0.411573;-0.320170;-0.853267;,
        -0.717185;-0.289163;-0.634022;,
        -0.411573;-0.320170;-0.853267;,
        -0.293191;-0.692496;-0.659139;,
        -0.717185;-0.289163;-0.634022;,
        -0.717185;-0.289163;-0.634022;,
        -0.293191;-0.692496;-0.659139;,
        -0.561052;-0.617817;-0.550890;,
        -0.561052;-0.617817;-0.550890;,
        -0.293191;-0.692496;-0.659139;,
         0.002380;-0.906156;-0.422864;,
         0.002380;-0.906156;-0.422864;,
        -0.293191;-0.692496;-0.659139;,
         0.286508;-0.699026;-0.655141;,
         0.286508;-0.699026;-0.655141;,
         0.574999;-0.624287;-0.528764;,
         0.002380;-0.906156;-0.422864;,
         0.574999;-0.624287;-0.528764;,
         0.286508;-0.699026;-0.655141;,
         0.722831;-0.289804;-0.627277;,
         0.286508;-0.699026;-0.655141;,
         0.408948;-0.322398;-0.853694;,
         0.722831;-0.289804;-0.627277;,
         0.722831;-0.289804;-0.627277;,
         0.408948;-0.322398;-0.853694;,
         0.744346;-0.004761;-0.667745;,
        -0.790002;-0.353130; 0.501175;,
        -0.059633; 0.010559; 0.998138;,
        -0.883328;-0.000793; 0.468734;,
        -0.059633; 0.010559; 0.998138;,
        -0.786554; 0.356548; 0.504105;,
        -0.883328;-0.000793; 0.468734;,
        -0.786554; 0.356548; 0.504105;,
        -0.059633; 0.010559; 0.998138;,
        -0.468978; 0.663442; 0.582965;,
        -0.059633; 0.010559; 0.998138;,
         0.008759; 0.776635; 0.629841;,
        -0.468978; 0.663442; 0.582965;,
         0.008759; 0.776635; 0.629841;,
        -0.059633; 0.010559; 0.998138;,
         0.448439; 0.647511; 0.616108;,
        -0.059633; 0.010559; 0.998138;,
         0.719596; 0.376141; 0.583636;,
         0.448439; 0.647511; 0.616108;,
         0.719596; 0.376141; 0.583636;,
        -0.059633; 0.010559; 0.998138;,
         0.816767; 0.026917; 0.576281;,
        -0.059633; 0.010559; 0.998138;,
         0.735771;-0.323954; 0.594684;,
         0.816767; 0.026917; 0.576281;,
         0.735771;-0.323954; 0.594684;,
        -0.059633; 0.010559; 0.998138;,
         0.482162;-0.603107; 0.635395;,
        -0.059633; 0.010559; 0.998138;,
         0.021821;-0.758080; 0.651753;,
         0.482162;-0.603107; 0.635395;,
         0.021821;-0.758080; 0.651753;,
        -0.059633; 0.010559; 0.998138;,
        -0.486343;-0.649556; 0.584399;,
        -0.059633; 0.010559; 0.998138;,
        -0.790002;-0.353130; 0.501175;,
        -0.486343;-0.649556; 0.584399;;
        44;
        3;0;1;2;,
        3;3;4;5;,
        3;6;7;8;,
        3;9;10;11;,
        3;12;13;14;,
        3;15;16;17;,
        3;18;19;20;,
        3;21;22;23;,
        3;24;25;26;,
        3;27;28;29;,
        3;30;31;32;,
        3;33;34;35;,
        3;36;37;38;,
        3;39;40;41;,
        3;42;43;44;,
        3;45;46;47;,
        3;48;49;50;,
        3;51;52;53;,
        3;54;55;56;,
        3;57;58;59;,
        3;60;61;62;,
        3;63;64;65;,
        3;66;67;68;,
        3;69;70;71;,
        3;72;73;74;,
        3;75;76;77;,
        3;78;79;80;,
        3;81;82;83;,
        3;84;85;86;,
        3;87;88;89;,
        3;90;91;92;,
        3;93;94;95;,
        3;96;97;98;,
        3;99;100;101;,
        3;102;103;104;,
        3;105;106;107;,
        3;108;109;110;,
        3;111;112;113;,
        3;114;115;116;,
        3;117;118;119;,
        3;120;121;122;,
        3;123;124;125;,
        3;126;127;128;,
        3;129;130;131;;
      } //End of Mesh Normals
      MeshMaterialList { //Mesh Material List
        1;
        44;
        0,
        0,
        0,
        0,
        0,
        0,
        0,
        0,
        0,
        0,
        0,
        0,
        0,
        0,
        0,
        0,
        0,
        0,
        0,
        0,
        0,
        0,
        0,
        0,
        0,
        0,
        0,
        0,
        0,
        0,
        0,
        0,
        0,
        0,
        0,
        0,
        0,
        0,
        0,
        0,
        0,
        0,
        0,
        0;;
        Material mat_0 {
           0.640000; 0.640000; 0.640000; 1.000000;;
           92.156863;
           0.250000; 0.250000; 0.250000;;
           0.000000; 0.000000; 0.000000;;
          TextureFilename {"Textures/tekkanin_0_0.tga";}
        }
      } //End of Mesh Material List
      MeshTextureCoords { //Mesh UV Coordinates
        132;
         0.311371; 0.077922;,
         0.381078; 0.037601;,
         0.619104; 0.038679;,
         0.311371; 0.077922;,
         0.619104; 0.038679;,
         0.688763; 0.079163;,
         0.689921; 0.187769;,
         0.618922; 0.228090;,
         0.380896; 0.227012;,
         0.689921; 0.187769;,
         0.380896; 0.227012;,
         0.341194; 0.186528;,
         0.151540; 0.186933;,
         0.380896; 0.227012;,
         0.270330; 0.226876;,
         0.380896; 0.227012;,
         0.498465; 0.242248;,
         0.270330; 0.226876;,
         0.498465; 0.242248;,
         0.380896; 0.227012;,
         0.618922; 0.228090;,
         0.618922; 0.228090;,
         0.726921; 0.227206;,
         0.498465; 0.242248;,
         0.726921; 0.227206;,
         0.618922; 0.228090;,
         0.878380; 0.187505;,
         0.618922; 0.228090;,
         0.689921; 0.187769;,
         0.878380; 0.187505;,
         0.878380; 0.187505;,
         0.689921; 0.187769;,
         0.937500; 0.133133;,
         0.689921; 0.187769;,
         0.717976; 0.133283;,
         0.937500; 0.133133;,
         0.937500; 0.133133;,
         0.717976; 0.133283;,
         0.688763; 0.079163;,
         0.717976; 0.133283;,
         0.500000; 0.132846;,
         0.688763; 0.079163;,
         0.688763; 0.079163;,
         0.500000; 0.132846;,
         0.311371; 0.077922;,
         0.500000; 0.132846;,
         0.313274; 0.132408;,
         0.311371; 0.077922;,
         0.311371; 0.077922;,
         0.313274; 0.132408;,
         0.093750; 0.132558;,
         0.313274; 0.132408;,
         0.341194; 0.186528;,
         0.093750; 0.132558;,
         0.093750; 0.132558;,
         0.341194; 0.186528;,
         0.151540; 0.186933;,
         0.341194; 0.186528;,
         0.380896; 0.227012;,
         0.151540; 0.186933;,
         0.313274; 0.132408;,
         0.500000; 0.132846;,
         0.341194; 0.186528;,
         0.500000; 0.132846;,
         0.689921; 0.187769;,
         0.341194; 0.186528;,
         0.689921; 0.187769;,
         0.500000; 0.132846;,
         0.717976; 0.133283;,
         0.937500; 0.133133;,
         0.688763; 0.079163;,
         0.879709; 0.078759;,
         0.688763; 0.079163;,
         0.619104; 0.038679;,
         0.879709; 0.078759;,
         0.879709; 0.078759;,
         0.619104; 0.038679;,
         0.729669; 0.038816;,
         0.729669; 0.038816;,
         0.619104; 0.038679;,
         0.501534; 0.023443;,
         0.501534; 0.023443;,
         0.619104; 0.038679;,
         0.381078; 0.037601;,
         0.381078; 0.037601;,
         0.273078; 0.038485;,
         0.501534; 0.023443;,
         0.273078; 0.038485;,
         0.381078; 0.037601;,
         0.121620; 0.078187;,
         0.381078; 0.037601;,
         0.311371; 0.077922;,
         0.121620; 0.078187;,
         0.121620; 0.078187;,
         0.311371; 0.077922;,
         0.093750; 0.132558;,
         0.156250; 0.179732;,
         0.156250; 0.179732;,
         0.156250; 0.179732;,
         0.156250; 0.179732;,
         0.156250; 0.179732;,
         0.156250; 0.179732;,
         0.156250; 0.179732;,
         0.156250; 0.179732;,
         0.156250; 0.179732;,
         0.156250; 0.179732;,
         0.156250; 0.179732;,
         0.156250; 0.179732;,
         0.156250; 0.179732;,
         0.156250; 0.179732;,
         0.156250; 0.179732;,
         0.156250; 0.179732;,
         0.156250; 0.179732;,
         0.156250; 0.179732;,
         0.156250; 0.179732;,
         0.156250; 0.179732;,
         0.156250; 0.179732;,
         0.156250; 0.179732;,
         0.156250; 0.179732;,
         0.156250; 0.179732;,
         0.156250; 0.179732;,
         0.156250; 0.179732;,
         0.156250; 0.179732;,
         0.156250; 0.179732;,
         0.156250; 0.179732;,
         0.156250; 0.179732;,
         0.156250; 0.179732;,
         0.156250; 0.179732;,
         0.156250; 0.179732;,
         0.156250; 0.179732;,
         0.156250; 0.179732;,
         0.156250; 0.179732;;
      } //End of Mesh UV Coordinates
    } //End of Mesh Mesh
  } //End of tekkanin_mat_0
} //End of Root Frame
