xof 0303txt 0032

template AnimTicksPerSecond {
  <9E415A43-7BA6-4a73-8743-B73D47E88476>
  DWORD AnimTicksPerSecond;
}

template XSkinMeshHeader {
  <3cf169ce-ff7c-44ab-93c0-f78f62d172e2>
  WORD nMaxSkinWeightsPerVertex;
  WORD nMaxSkinWeightsPerFace;
  WORD nBones;
}

template SkinWeights {
  <6f0d123b-bad2-4167-a0d0-80224f25fabb>
  STRING transformNodeName;
  DWORD nWeights;
  array DWORD vertexIndices[nWeights];
  array float weights[nWeights];
  Matrix4x4 matrixOffset;
}

Frame Root {
  FrameTransformMatrix {
     1.000000, 0.000000, 0.000000, 0.000000,
     0.000000, 0.000000, 1.000000, 0.000000,
     0.000000, 1.000000,-0.000000, 0.000000,
     0.000000, 0.000000, 0.000000, 1.000000;;
  }
  Frame foodin_mat_0 {
    FrameTransformMatrix {
       1.000000, 0.000000, 0.000000, 0.000000,
       0.000000, 1.000000, 0.000000, 0.000000,
       0.000000, 0.000000, 1.000000, 0.000000,
       0.000000, 0.000000, 0.000000, 1.000000;;
    }
    Mesh { //Mesh Mesh
      288;
       6.570549; 1.625030; 1.408526;,
       6.672707; 1.391167; 1.704783;,
       6.856647; 1.702691; 1.602668;,
       6.672707; 1.391167; 1.704783;,
       6.820599; 1.457146; 1.820843;,
       6.856647; 1.702691; 1.602668;,
       7.033725; 1.761661; 1.912298;,
       6.856647; 1.702691; 1.602668;,
       6.820599; 1.457146; 1.820843;,
       7.033725; 1.761661; 1.912298;,
       6.820599; 1.457146; 1.820843;,
       6.931003; 1.495220; 2.002750;,
       7.033725; 1.761661; 1.912298;,
       6.931003; 1.495220; 2.002750;,
       7.120776; 1.769693; 2.243091;,
       6.931003; 1.495220; 2.002750;,
       6.988482; 1.500343; 2.222708;,
       7.120776; 1.769693; 2.243091;,
       7.120776; 1.769693; 2.243091;,
       6.988482; 1.500343; 2.222708;,
       7.101267; 1.690377; 2.829469;,
       6.988482; 1.500343; 2.222708;,
       6.980442; 1.449830; 2.616244;,
       7.101267; 1.690377; 2.829469;,
       7.101267; 1.690377; 2.829469;,
       6.980442; 1.449830; 2.616244;,
       6.975421; 1.581118; 3.183307;,
       6.980442; 1.449830; 2.616244;,
       6.909409; 1.377714; 2.904973;,
       6.975421; 1.581118; 3.183307;,
       6.975421; 1.581118; 3.183307;,
       6.909409; 1.377714; 2.904973;,
       6.799926; 1.464845; 3.369212;,
       6.909409; 1.377714; 2.904973;,
       6.786670; 1.300118; 3.003266;,
       6.799926; 1.464845; 3.369212;,
       6.799926; 1.464845; 3.369212;,
       6.786670; 1.300118; 3.003266;,
       6.607949; 1.352724; 3.444144;,
       6.786670; 1.300118; 3.003266;,
       6.650033; 1.221713; 3.044705;,
       6.607949; 1.352724; 3.444144;,
       6.607949; 1.352724; 3.444144;,
       6.650033; 1.221713; 3.044705;,
       6.403105; 1.247818; 3.398586;,
       6.650033; 1.221713; 3.044705;,
       6.506758; 1.147031; 3.023984;,
       6.403105; 1.247818; 3.398586;,
       6.403105; 1.247818; 3.398586;,
       6.506758; 1.147031; 3.023984;,
       6.190974; 1.152094; 3.241372;,
       6.506758; 1.147031; 3.023984;,
       6.365120; 1.080036; 2.945262;,
       6.190974; 1.152094; 3.241372;,
       6.190974; 1.152094; 3.241372;,
       6.365120; 1.080036; 2.945262;,
       5.992133; 1.083779; 2.911566;,
       6.365120; 1.080036; 2.945262;,
       6.234028; 1.041608; 2.671493;,
       5.992133; 1.083779; 2.911566;,
       5.992133; 1.083779; 2.911566;,
       6.234028; 1.041608; 2.671493;,
       5.848692; 1.073976; 2.337249;,
       6.234028; 1.041608; 2.671493;,
       6.142734; 1.037793; 2.285310;,
       5.848692; 1.073976; 2.337249;,
       5.848692; 1.073976; 2.337249;,
       6.142734; 1.037793; 2.285310;,
       5.864293; 1.122085; 1.998858;,
       6.142734; 1.037793; 2.285310;,
       6.152709; 1.069562; 2.060358;,
       5.864293; 1.122085; 1.998858;,
       5.864293; 1.122085; 1.998858;,
       6.152709; 1.069562; 2.060358;,
       5.972991; 1.219409; 1.668075;,
       6.152709; 1.069562; 2.060358;,
       6.222839; 1.130224; 1.865088;,
       5.972991; 1.219409; 1.668075;,
       5.972991; 1.219409; 1.668075;,
       6.222839; 1.130224; 1.865088;,
       6.168581; 1.405188; 1.438280;,
       6.222839; 1.130224; 1.865088;,
       6.343822; 1.211296; 1.729127;,
       6.168581; 1.405188; 1.438280;,
       6.173395; 1.548848; 0.982449;,
       6.348461; 1.490846; 0.959023;,
       5.888761; 1.694738;-1.360451;,
       6.348461; 1.490846; 0.959023;,
       6.035681; 1.655569;-1.387626;,
       5.888761; 1.694738;-1.360451;,
       5.888761; 1.694738;-1.360451;,
       6.035681; 1.655569;-1.387626;,
       5.689595; 1.664123;-2.197442;,
       6.035681; 1.655569;-1.387626;,
       5.957794; 1.554670;-2.183463;,
       5.689595; 1.664123;-2.197442;,
       6.570549; 1.625030; 1.408526;,
       6.168581; 1.405188; 1.438280;,
       6.480124; 1.637757; 1.266108;,
       6.168581; 1.405188; 1.438280;,
       6.189950; 1.479057; 1.287586;,
       6.480124; 1.637757; 1.266108;,
       6.480124; 1.637757; 1.266108;,
       6.189950; 1.479057; 1.287586;,
       6.395808; 1.670487; 0.965986;,
       6.189950; 1.479057; 1.287586;,
       6.173395; 1.548848; 0.982449;,
       6.395808; 1.670487; 0.965986;,
       6.395808; 1.670487; 0.965986;,
       6.173395; 1.548848; 0.982449;,
       6.159352; 1.842727;-1.380480;,
       6.173395; 1.548848; 0.982449;,
       5.888761; 1.694738;-1.360451;,
       6.159352; 1.842727;-1.380480;,
       6.159352; 1.842727;-1.380480;,
       5.888761; 1.694738;-1.360451;,
       6.214821; 1.951372;-2.236320;,
       5.888761; 1.694738;-1.360451;,
       5.689595; 1.664123;-2.197442;,
       6.214821; 1.951372;-2.236320;,
       6.214821; 1.951372;-2.236320;,
       5.689595; 1.664123;-2.197442;,
       6.170307; 1.895810;-2.293905;,
       5.689595; 1.664123;-2.197442;,
       5.756816; 1.669798;-2.264390;,
       6.170307; 1.895810;-2.293905;,
       6.170307; 1.895810;-2.293905;,
       5.756816; 1.669798;-2.264390;,
       6.164740; 1.703077;-2.260267;,
       5.756816; 1.669798;-2.264390;,
       5.950952; 1.586154;-2.244441;,
       6.164740; 1.703077;-2.260267;,
       6.164740; 1.703077;-2.260267;,
       5.950952; 1.586154;-2.244441;,
       6.182075; 1.677666;-2.195456;,
       5.950952; 1.586154;-2.244441;,
       5.957794; 1.554670;-2.183463;,
       6.182075; 1.677666;-2.195456;,
       6.348461; 1.490846; 0.959023;,
       6.395808; 1.670487; 0.965986;,
       6.119467; 1.701392;-1.393828;,
       6.395808; 1.670487; 0.965986;,
       6.159352; 1.842727;-1.380480;,
       6.119467; 1.701392;-1.393828;,
       6.119467; 1.701392;-1.393828;,
       6.159352; 1.842727;-1.380480;,
       6.182075; 1.677666;-2.195456;,
       6.159352; 1.842727;-1.380480;,
       6.214821; 1.951372;-2.236320;,
       6.182075; 1.677666;-2.195456;,
       6.348461; 1.490846; 0.959023;,
       6.119467; 1.701392;-1.393828;,
       6.035681; 1.655569;-1.387626;,
       6.173395; 1.548848; 0.982449;,
       6.189950; 1.479057; 1.287586;,
       6.348461; 1.490846; 0.959023;,
       6.189950; 1.479057; 1.287586;,
       6.403571; 1.430822; 1.260042;,
       6.348461; 1.490846; 0.959023;,
       6.348461; 1.490846; 0.959023;,
       6.403571; 1.430822; 1.260042;,
       6.395808; 1.670487; 0.965986;,
       6.403571; 1.430822; 1.260042;,
       6.480124; 1.637757; 1.266108;,
       6.395808; 1.670487; 0.965986;,
       6.119467; 1.701392;-1.393828;,
       6.182075; 1.677666;-2.195456;,
       5.957794; 1.554670;-2.183463;,
       6.119467; 1.701392;-1.393828;,
       5.957794; 1.554670;-2.183463;,
       6.035681; 1.655569;-1.387626;,
       6.189950; 1.479057; 1.287586;,
       6.168581; 1.405188; 1.438280;,
       6.403571; 1.430822; 1.260042;,
       6.168581; 1.405188; 1.438280;,
       6.343822; 1.211296; 1.729127;,
       6.403571; 1.430822; 1.260042;,
       6.403571; 1.430822; 1.260042;,
       6.343822; 1.211296; 1.729127;,
       6.672707; 1.391167; 1.704783;,
       6.343822; 1.211296; 1.729127;,
       6.615805; 1.178313; 2.261591;,
       6.672707; 1.391167; 1.704783;,
       6.672707; 1.391167; 1.704783;,
       6.615805; 1.178313; 2.261591;,
       6.820599; 1.457146; 1.820843;,
       6.615805; 1.178313; 2.261591;,
       6.931003; 1.495220; 2.002750;,
       6.820599; 1.457146; 1.820843;,
       6.931003; 1.495220; 2.002750;,
       6.615805; 1.178313; 2.261591;,
       6.988482; 1.500343; 2.222708;,
       6.615805; 1.178313; 2.261591;,
       6.980442; 1.449830; 2.616244;,
       6.988482; 1.500343; 2.222708;,
       6.980442; 1.449830; 2.616244;,
       6.615805; 1.178313; 2.261591;,
       6.909409; 1.377714; 2.904973;,
       6.615805; 1.178313; 2.261591;,
       6.786670; 1.300118; 3.003266;,
       6.909409; 1.377714; 2.904973;,
       6.786670; 1.300118; 3.003266;,
       6.615805; 1.178313; 2.261591;,
       6.650033; 1.221713; 3.044705;,
       6.615805; 1.178313; 2.261591;,
       6.506758; 1.147031; 3.023984;,
       6.650033; 1.221713; 3.044705;,
       6.506758; 1.147031; 3.023984;,
       6.615805; 1.178313; 2.261591;,
       6.365120; 1.080036; 2.945262;,
       6.615805; 1.178313; 2.261591;,
       6.234028; 1.041608; 2.671493;,
       6.365120; 1.080036; 2.945262;,
       6.234028; 1.041608; 2.671493;,
       6.615805; 1.178313; 2.261591;,
       6.142734; 1.037793; 2.285310;,
       6.615805; 1.178313; 2.261591;,
       6.152709; 1.069562; 2.060358;,
       6.142734; 1.037793; 2.285310;,
       6.152709; 1.069562; 2.060358;,
       6.615805; 1.178313; 2.261591;,
       6.222839; 1.130224; 1.865088;,
       6.615805; 1.178313; 2.261591;,
       6.343822; 1.211296; 1.729127;,
       6.222839; 1.130224; 1.865088;,
       6.672707; 1.391167; 1.704783;,
       6.570549; 1.625030; 1.408526;,
       6.403571; 1.430822; 1.260042;,
       6.570549; 1.625030; 1.408526;,
       6.480124; 1.637757; 1.266108;,
       6.403571; 1.430822; 1.260042;,
       6.170307; 1.895810;-2.293905;,
       6.164740; 1.703077;-2.260267;,
       6.214821; 1.951372;-2.236320;,
       6.164740; 1.703077;-2.260267;,
       6.182075; 1.677666;-2.195456;,
       6.214821; 1.951372;-2.236320;,
       5.756816; 1.669798;-2.264390;,
       5.689595; 1.664123;-2.197442;,
       5.950952; 1.586154;-2.244441;,
       5.689595; 1.664123;-2.197442;,
       5.957794; 1.554670;-2.183463;,
       5.950952; 1.586154;-2.244441;,
       6.570549; 1.625030; 1.408526;,
       6.856647; 1.702691; 1.602668;,
       6.598791; 1.209923; 2.265300;,
       6.598791; 1.209923; 2.265300;,
       6.168581; 1.405188; 1.438280;,
       6.570549; 1.625030; 1.408526;,
       6.168581; 1.405188; 1.438280;,
       6.598791; 1.209923; 2.265300;,
       5.972991; 1.219409; 1.668075;,
       6.598791; 1.209923; 2.265300;,
       5.864293; 1.122085; 1.998858;,
       5.972991; 1.219409; 1.668075;,
       5.864293; 1.122085; 1.998858;,
       6.598791; 1.209923; 2.265300;,
       5.848692; 1.073976; 2.337249;,
       6.598791; 1.209923; 2.265300;,
       5.992133; 1.083779; 2.911566;,
       5.848692; 1.073976; 2.337249;,
       5.992133; 1.083779; 2.911566;,
       6.598791; 1.209923; 2.265300;,
       6.190974; 1.152094; 3.241372;,
       6.598791; 1.209923; 2.265300;,
       6.403105; 1.247818; 3.398586;,
       6.190974; 1.152094; 3.241372;,
       6.403105; 1.247818; 3.398586;,
       6.598791; 1.209923; 2.265300;,
       6.607949; 1.352724; 3.444144;,
       6.598791; 1.209923; 2.265300;,
       6.799926; 1.464845; 3.369212;,
       6.607949; 1.352724; 3.444144;,
       6.799926; 1.464845; 3.369212;,
       6.598791; 1.209923; 2.265300;,
       6.975421; 1.581118; 3.183307;,
       6.598791; 1.209923; 2.265300;,
       7.101267; 1.690377; 2.829469;,
       6.975421; 1.581118; 3.183307;,
       7.101267; 1.690377; 2.829469;,
       6.598791; 1.209923; 2.265300;,
       7.120776; 1.769693; 2.243091;,
       6.598791; 1.209923; 2.265300;,
       7.033725; 1.761661; 1.912298;,
       7.120776; 1.769693; 2.243091;,
       7.033725; 1.761661; 1.912298;,
       6.598791; 1.209923; 2.265300;,
       6.856647; 1.702691; 1.602668;;
      96;
      3;0;1;2;,
      3;3;4;5;,
      3;6;7;8;,
      3;9;10;11;,
      3;12;13;14;,
      3;15;16;17;,
      3;18;19;20;,
      3;21;22;23;,
      3;24;25;26;,
      3;27;28;29;,
      3;30;31;32;,
      3;33;34;35;,
      3;36;37;38;,
      3;39;40;41;,
      3;42;43;44;,
      3;45;46;47;,
      3;48;49;50;,
      3;51;52;53;,
      3;54;55;56;,
      3;57;58;59;,
      3;60;61;62;,
      3;63;64;65;,
      3;66;67;68;,
      3;69;70;71;,
      3;72;73;74;,
      3;75;76;77;,
      3;78;79;80;,
      3;81;82;83;,
      3;84;85;86;,
      3;87;88;89;,
      3;90;91;92;,
      3;93;94;95;,
      3;96;97;98;,
      3;99;100;101;,
      3;102;103;104;,
      3;105;106;107;,
      3;108;109;110;,
      3;111;112;113;,
      3;114;115;116;,
      3;117;118;119;,
      3;120;121;122;,
      3;123;124;125;,
      3;126;127;128;,
      3;129;130;131;,
      3;132;133;134;,
      3;135;136;137;,
      3;138;139;140;,
      3;141;142;143;,
      3;144;145;146;,
      3;147;148;149;,
      3;150;151;152;,
      3;153;154;155;,
      3;156;157;158;,
      3;159;160;161;,
      3;162;163;164;,
      3;165;166;167;,
      3;168;169;170;,
      3;171;172;173;,
      3;174;175;176;,
      3;177;178;179;,
      3;180;181;182;,
      3;183;184;185;,
      3;186;187;188;,
      3;189;190;191;,
      3;192;193;194;,
      3;195;196;197;,
      3;198;199;200;,
      3;201;202;203;,
      3;204;205;206;,
      3;207;208;209;,
      3;210;211;212;,
      3;213;214;215;,
      3;216;217;218;,
      3;219;220;221;,
      3;222;223;224;,
      3;225;226;227;,
      3;228;229;230;,
      3;231;232;233;,
      3;234;235;236;,
      3;237;238;239;,
      3;240;241;242;,
      3;243;244;245;,
      3;246;247;248;,
      3;249;250;251;,
      3;252;253;254;,
      3;255;256;257;,
      3;258;259;260;,
      3;261;262;263;,
      3;264;265;266;,
      3;267;268;269;,
      3;270;271;272;,
      3;273;274;275;,
      3;276;277;278;,
      3;279;280;281;,
      3;282;283;284;,
      3;285;286;287;;
      MeshNormals { //Mesh Normals
        288;
        -0.508713;-0.813288; 0.282418;,
        -0.569750; 0.710654; 0.412671;,
        -0.451125;-0.693991; 0.561113;,
        -0.569750; 0.710654; 0.412671;,
        -0.681570; 0.638966; 0.356548;,
        -0.451125;-0.693991; 0.561113;,
        -0.523179;-0.795892; 0.304636;,
        -0.451125;-0.693991; 0.561113;,
        -0.681570; 0.638966; 0.356548;,
        -0.523179;-0.795892; 0.304636;,
        -0.681570; 0.638966; 0.356548;,
        -0.761437; 0.595782; 0.255379;,
        -0.523179;-0.795892; 0.304636;,
        -0.761437; 0.595782; 0.255379;,
        -0.598437;-0.801080; 0.010315;,
        -0.761437; 0.595782; 0.255379;,
        -0.796930; 0.590472; 0.127232;,
        -0.598437;-0.801080; 0.010315;,
        -0.598437;-0.801080; 0.010315;,
        -0.796930; 0.590472; 0.127232;,
        -0.608234;-0.733085;-0.304270;,
        -0.796930; 0.590472; 0.127232;,
        -0.788202; 0.615223; 0.014771;,
        -0.608234;-0.733085;-0.304270;,
        -0.608234;-0.733085;-0.304270;,
        -0.788202; 0.615223; 0.014771;,
        -0.527146;-0.610950;-0.590594;,
        -0.788202; 0.615223; 0.014771;,
        -0.734489; 0.669576;-0.110141;,
        -0.527146;-0.610950;-0.590594;,
        -0.527146;-0.610950;-0.590594;,
        -0.734489; 0.669576;-0.110141;,
        -0.282052;-0.395306;-0.874142;,
        -0.734489; 0.669576;-0.110141;,
        -0.579974; 0.795221;-0.176733;,
        -0.282052;-0.395306;-0.874142;,
        -0.282052;-0.395306;-0.874142;,
        -0.579974; 0.795221;-0.176733;,
         0.037660;-0.176550;-0.983551;,
        -0.579974; 0.795221;-0.176733;,
        -0.478835; 0.855800;-0.195654;,
         0.037660;-0.176550;-0.983551;,
         0.037660;-0.176550;-0.983551;,
        -0.478835; 0.855800;-0.195654;,
         0.390149;-0.022370;-0.920469;,
        -0.478835; 0.855800;-0.195654;,
        -0.368175; 0.907682;-0.201300;,
         0.390149;-0.022370;-0.920469;,
         0.390149;-0.022370;-0.920469;,
        -0.368175; 0.907682;-0.201300;,
         0.685354; 0.062502;-0.725486;,
        -0.368175; 0.907682;-0.201300;,
        -0.207709; 0.964934;-0.160375;,
         0.685354; 0.062502;-0.725486;,
         0.685354; 0.062502;-0.725486;,
        -0.207709; 0.964934;-0.160375;,
         0.922697; 0.087771;-0.375378;,
        -0.207709; 0.964934;-0.160375;,
        -0.098300; 0.994690;-0.030183;,
         0.922697; 0.087771;-0.375378;,
         0.922697; 0.087771;-0.375378;,
        -0.098300; 0.994690;-0.030183;,
         0.992767; 0.067293;-0.099216;,
        -0.098300; 0.994690;-0.030183;,
        -0.056581; 0.995605; 0.074404;,
         0.992767; 0.067293;-0.099216;,
         0.992767; 0.067293;-0.099216;,
        -0.056581; 0.995605; 0.074404;,
         0.982757; 0.027375; 0.182836;,
        -0.056581; 0.995605; 0.074404;,
        -0.066042; 0.977447; 0.200476;,
         0.982757; 0.027375; 0.182836;,
         0.982757; 0.027375; 0.182836;,
        -0.066042; 0.977447; 0.200476;,
         0.851466; 0.019501; 0.524033;,
        -0.066042; 0.977447; 0.200476;,
        -0.134922; 0.931883; 0.336650;,
         0.851466; 0.019501; 0.524033;,
         0.851466; 0.019501; 0.524033;,
        -0.134922; 0.931883; 0.336650;,
         0.988159; 0.017731; 0.152379;,
        -0.134922; 0.931883; 0.336650;,
        -0.211219; 0.893887; 0.395367;,
         0.988159; 0.017731; 0.152379;,
         0.995544; 0.040803;-0.084780;,
        -0.469039; 0.861019; 0.196448;,
         0.980712; 0.096133;-0.170080;,
        -0.469039; 0.861019; 0.196448;,
        -0.112369; 0.993622;-0.006531;,
         0.980712; 0.096133;-0.170080;,
         0.980712; 0.096133;-0.170080;,
        -0.112369; 0.993622;-0.006531;,
         0.975524; 0.071841; 0.207709;,
        -0.112369; 0.993622;-0.006531;,
        -0.027924; 0.992004;-0.123020;,
         0.975524; 0.071841; 0.207709;,
        -0.508713;-0.813288; 0.282418;,
         0.988159; 0.017731; 0.152379;,
        -0.546648;-0.823023; 0.154057;,
         0.988159; 0.017731; 0.152379;,
         0.999664; 0.022095; 0.012574;,
        -0.546648;-0.823023; 0.154057;,
        -0.546648;-0.823023; 0.154057;,
         0.999664; 0.022095; 0.012574;,
        -0.586963;-0.809564; 0.008240;,
         0.999664; 0.022095; 0.012574;,
         0.995544; 0.040803;-0.084780;,
        -0.586963;-0.809564; 0.008240;,
        -0.586963;-0.809564; 0.008240;,
         0.995544; 0.040803;-0.084780;,
        -0.594592;-0.798181;-0.096561;,
         0.995544; 0.040803;-0.084780;,
         0.980712; 0.096133;-0.170080;,
        -0.594592;-0.798181;-0.096561;,
        -0.594592;-0.798181;-0.096561;,
         0.980712; 0.096133;-0.170080;,
        -0.533982;-0.787469; 0.307688;,
         0.980712; 0.096133;-0.170080;,
         0.975524; 0.071841; 0.207709;,
        -0.533982;-0.787469; 0.307688;,
        -0.533982;-0.787469; 0.307688;,
         0.975524; 0.071841; 0.207709;,
        -0.206275;-0.405377; 0.890530;,
         0.975524; 0.071841; 0.207709;,
         0.546525; 0.048921; 0.835994;,
        -0.206275;-0.405377; 0.890530;,
        -0.206275;-0.405377; 0.890530;,
         0.546525; 0.048921; 0.835994;,
        -0.551805; 0.407788; 0.727439;,
         0.546525; 0.048921; 0.835994;,
        -0.028016; 0.675314; 0.736961;,
        -0.551805; 0.407788; 0.727439;,
        -0.551805; 0.407788; 0.727439;,
        -0.028016; 0.675314; 0.736961;,
        -0.688620; 0.591174; 0.419843;,
        -0.028016; 0.675314; 0.736961;,
        -0.064608; 0.883694; 0.463515;,
        -0.688620; 0.591174; 0.419843;,
        -0.469039; 0.861019; 0.196448;,
        -0.586963;-0.809564; 0.008240;,
        -0.780602; 0.624622; 0.020997;,
        -0.586963;-0.809564; 0.008240;,
        -0.594592;-0.798181;-0.096561;,
        -0.780602; 0.624622; 0.020997;,
        -0.780602; 0.624622; 0.020997;,
        -0.594592;-0.798181;-0.096561;,
        -0.844752; 0.531114;-0.065218;,
        -0.594592;-0.798181;-0.096561;,
        -0.533982;-0.787469; 0.307688;,
        -0.844752; 0.531114;-0.065218;,
        -0.469039; 0.861019; 0.196448;,
        -0.780602; 0.624622; 0.020997;,
        -0.112369; 0.993622;-0.006531;,
         0.995544; 0.040803;-0.084780;,
         0.999664; 0.022095; 0.012574;,
        -0.469039; 0.861019; 0.196448;,
         0.999664; 0.022095; 0.012574;,
        -0.412549; 0.800165; 0.435316;,
        -0.469039; 0.861019; 0.196448;,
        -0.469039; 0.861019; 0.196448;,
        -0.412549; 0.800165; 0.435316;,
        -0.586963;-0.809564; 0.008240;,
        -0.412549; 0.800165; 0.435316;,
        -0.546648;-0.823023; 0.154057;,
        -0.586963;-0.809564; 0.008240;,
        -0.780602; 0.624622; 0.020997;,
        -0.844752; 0.531114;-0.065218;,
        -0.027924; 0.992004;-0.123020;,
        -0.780602; 0.624622; 0.020997;,
        -0.027924; 0.992004;-0.123020;,
        -0.112369; 0.993622;-0.006531;,
         0.999664; 0.022095; 0.012574;,
         0.988159; 0.017731; 0.152379;,
        -0.412549; 0.800165; 0.435316;,
         0.988159; 0.017731; 0.152379;,
        -0.211219; 0.893887; 0.395367;,
        -0.412549; 0.800165; 0.435316;,
        -0.412549; 0.800165; 0.435316;,
        -0.211219; 0.893887; 0.395367;,
        -0.569750; 0.710654; 0.412671;,
        -0.211219; 0.893887; 0.395367;,
        -0.469497; 0.874722; 0.120029;,
        -0.569750; 0.710654; 0.412671;,
        -0.569750; 0.710654; 0.412671;,
        -0.469497; 0.874722; 0.120029;,
        -0.681570; 0.638966; 0.356548;,
        -0.469497; 0.874722; 0.120029;,
        -0.761437; 0.595782; 0.255379;,
        -0.681570; 0.638966; 0.356548;,
        -0.761437; 0.595782; 0.255379;,
        -0.469497; 0.874722; 0.120029;,
        -0.796930; 0.590472; 0.127232;,
        -0.469497; 0.874722; 0.120029;,
        -0.788202; 0.615223; 0.014771;,
        -0.796930; 0.590472; 0.127232;,
        -0.788202; 0.615223; 0.014771;,
        -0.469497; 0.874722; 0.120029;,
        -0.734489; 0.669576;-0.110141;,
        -0.469497; 0.874722; 0.120029;,
        -0.579974; 0.795221;-0.176733;,
        -0.734489; 0.669576;-0.110141;,
        -0.579974; 0.795221;-0.176733;,
        -0.469497; 0.874722; 0.120029;,
        -0.478835; 0.855800;-0.195654;,
        -0.469497; 0.874722; 0.120029;,
        -0.368175; 0.907682;-0.201300;,
        -0.478835; 0.855800;-0.195654;,
        -0.368175; 0.907682;-0.201300;,
        -0.469497; 0.874722; 0.120029;,
        -0.207709; 0.964934;-0.160375;,
        -0.469497; 0.874722; 0.120029;,
        -0.098300; 0.994690;-0.030183;,
        -0.207709; 0.964934;-0.160375;,
        -0.098300; 0.994690;-0.030183;,
        -0.469497; 0.874722; 0.120029;,
        -0.056581; 0.995605; 0.074404;,
        -0.469497; 0.874722; 0.120029;,
        -0.066042; 0.977447; 0.200476;,
        -0.056581; 0.995605; 0.074404;,
        -0.066042; 0.977447; 0.200476;,
        -0.469497; 0.874722; 0.120029;,
        -0.134922; 0.931883; 0.336650;,
        -0.469497; 0.874722; 0.120029;,
        -0.211219; 0.893887; 0.395367;,
        -0.134922; 0.931883; 0.336650;,
        -0.569750; 0.710654; 0.412671;,
        -0.508713;-0.813288; 0.282418;,
        -0.412549; 0.800165; 0.435316;,
        -0.508713;-0.813288; 0.282418;,
        -0.546648;-0.823023; 0.154057;,
        -0.412549; 0.800165; 0.435316;,
        -0.206275;-0.405377; 0.890530;,
        -0.551805; 0.407788; 0.727439;,
        -0.533982;-0.787469; 0.307688;,
        -0.551805; 0.407788; 0.727439;,
        -0.688620; 0.591174; 0.419843;,
        -0.533982;-0.787469; 0.307688;,
         0.546525; 0.048921; 0.835994;,
         0.975524; 0.071841; 0.207709;,
        -0.028016; 0.675314; 0.736961;,
         0.975524; 0.071841; 0.207709;,
        -0.064608; 0.883694; 0.463515;,
        -0.028016; 0.675314; 0.736961;,
        -0.508713;-0.813288; 0.282418;,
        -0.451125;-0.693991; 0.561113;,
         0.467299;-0.873165;-0.138371;,
         0.467299;-0.873165;-0.138371;,
         0.988159; 0.017731; 0.152379;,
        -0.508713;-0.813288; 0.282418;,
         0.988159; 0.017731; 0.152379;,
         0.467299;-0.873165;-0.138371;,
         0.851466; 0.019501; 0.524033;,
         0.467299;-0.873165;-0.138371;,
         0.982757; 0.027375; 0.182836;,
         0.851466; 0.019501; 0.524033;,
         0.982757; 0.027375; 0.182836;,
         0.467299;-0.873165;-0.138371;,
         0.992767; 0.067293;-0.099216;,
         0.467299;-0.873165;-0.138371;,
         0.922697; 0.087771;-0.375378;,
         0.992767; 0.067293;-0.099216;,
         0.922697; 0.087771;-0.375378;,
         0.467299;-0.873165;-0.138371;,
         0.685354; 0.062502;-0.725486;,
         0.467299;-0.873165;-0.138371;,
         0.390149;-0.022370;-0.920469;,
         0.685354; 0.062502;-0.725486;,
         0.390149;-0.022370;-0.920469;,
         0.467299;-0.873165;-0.138371;,
         0.037660;-0.176550;-0.983551;,
         0.467299;-0.873165;-0.138371;,
        -0.282052;-0.395306;-0.874142;,
         0.037660;-0.176550;-0.983551;,
        -0.282052;-0.395306;-0.874142;,
         0.467299;-0.873165;-0.138371;,
        -0.527146;-0.610950;-0.590594;,
         0.467299;-0.873165;-0.138371;,
        -0.608234;-0.733085;-0.304270;,
        -0.527146;-0.610950;-0.590594;,
        -0.608234;-0.733085;-0.304270;,
         0.467299;-0.873165;-0.138371;,
        -0.598437;-0.801080; 0.010315;,
         0.467299;-0.873165;-0.138371;,
        -0.523179;-0.795892; 0.304636;,
        -0.598437;-0.801080; 0.010315;,
        -0.523179;-0.795892; 0.304636;,
         0.467299;-0.873165;-0.138371;,
        -0.451125;-0.693991; 0.561113;;
        96;
        3;0;1;2;,
        3;3;4;5;,
        3;6;7;8;,
        3;9;10;11;,
        3;12;13;14;,
        3;15;16;17;,
        3;18;19;20;,
        3;21;22;23;,
        3;24;25;26;,
        3;27;28;29;,
        3;30;31;32;,
        3;33;34;35;,
        3;36;37;38;,
        3;39;40;41;,
        3;42;43;44;,
        3;45;46;47;,
        3;48;49;50;,
        3;51;52;53;,
        3;54;55;56;,
        3;57;58;59;,
        3;60;61;62;,
        3;63;64;65;,
        3;66;67;68;,
        3;69;70;71;,
        3;72;73;74;,
        3;75;76;77;,
        3;78;79;80;,
        3;81;82;83;,
        3;84;85;86;,
        3;87;88;89;,
        3;90;91;92;,
        3;93;94;95;,
        3;96;97;98;,
        3;99;100;101;,
        3;102;103;104;,
        3;105;106;107;,
        3;108;109;110;,
        3;111;112;113;,
        3;114;115;116;,
        3;117;118;119;,
        3;120;121;122;,
        3;123;124;125;,
        3;126;127;128;,
        3;129;130;131;,
        3;132;133;134;,
        3;135;136;137;,
        3;138;139;140;,
        3;141;142;143;,
        3;144;145;146;,
        3;147;148;149;,
        3;150;151;152;,
        3;153;154;155;,
        3;156;157;158;,
        3;159;160;161;,
        3;162;163;164;,
        3;165;166;167;,
        3;168;169;170;,
        3;171;172;173;,
        3;174;175;176;,
        3;177;178;179;,
        3;180;181;182;,
        3;183;184;185;,
        3;186;187;188;,
        3;189;190;191;,
        3;192;193;194;,
        3;195;196;197;,
        3;198;199;200;,
        3;201;202;203;,
        3;204;205;206;,
        3;207;208;209;,
        3;210;211;212;,
        3;213;214;215;,
        3;216;217;218;,
        3;219;220;221;,
        3;222;223;224;,
        3;225;226;227;,
        3;228;229;230;,
        3;231;232;233;,
        3;234;235;236;,
        3;237;238;239;,
        3;240;241;242;,
        3;243;244;245;,
        3;246;247;248;,
        3;249;250;251;,
        3;252;253;254;,
        3;255;256;257;,
        3;258;259;260;,
        3;261;262;263;,
        3;264;265;266;,
        3;267;268;269;,
        3;270;271;272;,
        3;273;274;275;,
        3;276;277;278;,
        3;279;280;281;,
        3;282;283;284;,
        3;285;286;287;;
      } //End of Mesh Normals
      MeshMaterialList { //Mesh Material List
        1;
        96;
        0,
        0,
        0,
        0,
        0,
        0,
        0,
        0,
        0,
        0,
        0,
        0,
        0,
        0,
        0,
        0,
        0,
        0,
        0,
        0,
        0,
        0,
        0,
        0,
        0,
        0,
        0,
        0,
        0,
        0,
        0,
        0,
        0,
        0,
        0,
        0,
        0,
        0,
        0,
        0,
        0,
        0,
        0,
        0,
        0,
        0,
        0,
        0,
        0,
        0,
        0,
        0,
        0,
        0,
        0,
        0,
        0,
        0,
        0,
        0,
        0,
        0,
        0,
        0,
        0,
        0,
        0,
        0,
        0,
        0,
        0,
        0,
        0,
        0,
        0,
        0,
        0,
        0,
        0,
        0,
        0,
        0,
        0,
        0,
        0,
        0,
        0,
        0,
        0,
        0,
        0,
        0,
        0,
        0,
        0,
        0;;
        Material mat_0 {
           0.640000; 0.640000; 0.640000; 1.000000;;
           92.156863;
           0.250000; 0.250000; 0.250000;;
           0.000000; 0.000000; 0.000000;;
          TextureFilename {"Textures/foodin_0_0.tga";}
        }
      } //End of Mesh Material List
      MeshTextureCoords { //Mesh UV Coordinates
        288;
         0.510665; 0.936521;,
         0.494990; 0.939260;,
         0.505649; 0.923256;,
         0.494990; 0.939260;,
         0.492102; 0.931792;,
         0.505649; 0.923256;,
         0.494429; 0.915397;,
         0.505649; 0.923256;,
         0.492102; 0.931792;,
         0.492102; 0.931792;,
         0.485614; 0.926821;,
         0.494429; 0.915397;,
         0.494429; 0.915397;,
         0.485614; 0.926821;,
         0.480792; 0.912667;,
         0.485614; 0.926821;,
         0.476539; 0.925028;,
         0.480792; 0.912667;,
         0.480792; 0.912667;,
         0.476539; 0.925028;,
         0.453807; 0.917470;,
         0.476539; 0.925028;,
         0.458510; 0.927971;,
         0.453807; 0.917470;,
         0.453807; 0.917470;,
         0.458510; 0.927971;,
         0.435679; 0.926695;,
         0.458510; 0.927971;,
         0.444230; 0.933743;,
         0.435679; 0.926695;,
         0.435679; 0.926695;,
         0.444230; 0.933743;,
         0.424386; 0.937611;,
         0.444230; 0.933743;,
         0.437775; 0.941176;,
         0.424386; 0.937611;,
         0.424386; 0.937611;,
         0.437775; 0.941176;,
         0.417874; 0.948737;,
         0.437775; 0.941176;,
         0.433681; 0.949019;,
         0.417874; 0.948737;,
         0.417874; 0.948737;,
         0.433681; 0.949019;,
         0.416634; 0.959811;,
         0.433681; 0.949019;,
         0.432307; 0.956836;,
         0.416634; 0.959811;,
         0.416634; 0.959811;,
         0.432307; 0.956836;,
         0.420354; 0.970582;,
         0.432307; 0.956836;,
         0.433597; 0.964194;,
         0.420354; 0.970582;,
         0.420354; 0.970582;,
         0.433597; 0.964194;,
         0.432140; 0.979521;,
         0.433597; 0.964194;,
         0.443929; 0.969729;,
         0.432140; 0.979521;,
         0.432140; 0.979521;,
         0.443929; 0.969729;,
         0.455941; 0.983834;,
         0.443929; 0.969729;,
         0.460017; 0.972344;,
         0.455941; 0.983834;,
         0.455941; 0.983834;,
         0.460017; 0.972344;,
         0.471585; 0.980822;,
         0.460017; 0.972344;,
         0.470410; 0.970363;,
         0.471585; 0.980822;,
         0.471585; 0.980822;,
         0.470410; 0.970363;,
         0.488387; 0.972693;,
         0.470410; 0.970363;,
         0.480425; 0.965234;,
         0.488387; 0.972693;,
         0.488387; 0.972693;,
         0.480425; 0.965234;,
         0.502813; 0.959010;,
         0.480425; 0.965234;,
         0.488565; 0.957659;,
         0.502813; 0.959010;,
         0.524950; 0.953601;,
         0.526497; 0.947721;,
         0.627274; 0.953906;,
         0.526497; 0.947721;,
         0.628239; 0.949143;,
         0.627274; 0.953906;,
         0.627274; 0.953906;,
         0.628239; 0.949143;,
         0.663523; 0.956969;,
         0.628239; 0.949143;,
         0.661563; 0.951493;,
         0.663523; 0.956969;,
         0.510665; 0.936521;,
         0.502813; 0.959010;,
         0.516358; 0.939486;,
         0.502813; 0.959010;,
         0.510689; 0.955720;,
         0.516358; 0.939486;,
         0.516358; 0.939486;,
         0.510689; 0.955720;,
         0.529295; 0.941158;,
         0.510689; 0.955720;,
         0.524950; 0.953601;,
         0.529295; 0.941158;,
         0.529295; 0.941158;,
         0.524950; 0.953601;,
         0.632560; 0.938768;,
         0.524950; 0.953601;,
         0.627274; 0.953906;,
         0.632560; 0.938768;,
         0.632560; 0.938768;,
         0.627274; 0.953906;,
         0.671111; 0.935238;,
         0.627274; 0.953906;,
         0.663523; 0.956969;,
         0.671111; 0.935238;,
         0.671111; 0.935238;,
         0.663523; 0.956969;,
         0.674058; 0.939401;,
         0.663523; 0.956969;,
         0.669334; 0.953009;,
         0.674058; 0.939401;,
         0.674058; 0.939401;,
         0.669334; 0.953009;,
         0.667701; 0.941914;,
         0.669334; 0.953009;,
         0.664289; 0.951686;,
         0.667701; 0.941914;,
         0.667701; 0.941914;,
         0.664289; 0.951686;,
         0.664639; 0.942120;,
         0.664289; 0.951686;,
         0.661563; 0.951493;,
         0.664639; 0.942120;,
         0.526497; 0.947721;,
         0.529295; 0.941158;,
         0.629876; 0.944455;,
         0.529295; 0.941158;,
         0.632560; 0.938768;,
         0.629876; 0.944455;,
         0.629876; 0.944455;,
         0.632560; 0.938768;,
         0.664639; 0.942120;,
         0.632560; 0.938768;,
         0.671111; 0.935238;,
         0.664639; 0.942120;,
         0.526497; 0.947721;,
         0.629876; 0.944455;,
         0.628239; 0.949143;,
         0.524950; 0.953601;,
         0.510689; 0.955720;,
         0.526497; 0.947721;,
         0.510689; 0.955720;,
         0.512873; 0.947970;,
         0.526497; 0.947721;,
         0.526497; 0.947721;,
         0.512873; 0.947970;,
         0.529295; 0.941158;,
         0.512873; 0.947970;,
         0.516358; 0.939486;,
         0.529295; 0.941158;,
         0.629876; 0.944455;,
         0.664639; 0.942120;,
         0.661563; 0.951493;,
         0.629876; 0.944455;,
         0.661563; 0.951493;,
         0.628239; 0.949143;,
         0.510689; 0.955720;,
         0.502813; 0.959010;,
         0.512873; 0.947970;,
         0.502813; 0.959010;,
         0.488565; 0.957659;,
         0.512873; 0.947970;,
         0.512873; 0.947970;,
         0.488565; 0.957659;,
         0.494990; 0.939260;,
         0.488565; 0.957659;,
         0.466973; 0.948951;,
         0.494990; 0.939260;,
         0.494990; 0.939260;,
         0.466973; 0.948951;,
         0.492102; 0.931792;,
         0.466973; 0.948951;,
         0.485614; 0.926821;,
         0.492102; 0.931792;,
         0.485614; 0.926821;,
         0.466973; 0.948951;,
         0.476539; 0.925028;,
         0.466973; 0.948951;,
         0.458510; 0.927971;,
         0.476539; 0.925028;,
         0.458510; 0.927971;,
         0.466973; 0.948951;,
         0.444230; 0.933743;,
         0.466973; 0.948951;,
         0.437775; 0.941176;,
         0.444230; 0.933743;,
         0.437775; 0.941176;,
         0.466973; 0.948951;,
         0.433681; 0.949019;,
         0.466973; 0.948951;,
         0.432307; 0.956836;,
         0.433681; 0.949019;,
         0.432307; 0.956836;,
         0.466973; 0.948951;,
         0.433597; 0.964194;,
         0.466973; 0.948951;,
         0.443929; 0.969729;,
         0.433597; 0.964194;,
         0.443929; 0.969729;,
         0.466973; 0.948951;,
         0.460017; 0.972344;,
         0.466973; 0.948951;,
         0.470410; 0.970363;,
         0.460017; 0.972344;,
         0.470410; 0.970363;,
         0.466973; 0.948951;,
         0.480425; 0.965234;,
         0.466973; 0.948951;,
         0.488565; 0.957659;,
         0.480425; 0.965234;,
         0.494990; 0.939260;,
         0.510665; 0.936521;,
         0.512873; 0.947970;,
         0.510665; 0.936521;,
         0.516358; 0.939486;,
         0.512873; 0.947970;,
         0.674058; 0.939401;,
         0.667701; 0.941914;,
         0.671111; 0.935238;,
         0.667701; 0.941914;,
         0.664639; 0.942120;,
         0.671111; 0.935238;,
         0.669334; 0.953009;,
         0.663523; 0.956969;,
         0.664289; 0.951686;,
         0.663523; 0.956969;,
         0.661563; 0.951493;,
         0.664289; 0.951686;,
         0.510665; 0.936521;,
         0.505649; 0.923256;,
         0.467154; 0.948861;,
         0.467154; 0.948861;,
         0.502813; 0.959010;,
         0.510665; 0.936521;,
         0.502813; 0.959010;,
         0.467154; 0.948861;,
         0.488387; 0.972693;,
         0.467154; 0.948861;,
         0.471585; 0.980822;,
         0.488387; 0.972693;,
         0.471585; 0.980822;,
         0.467154; 0.948861;,
         0.455941; 0.983834;,
         0.467154; 0.948861;,
         0.432140; 0.979521;,
         0.455941; 0.983834;,
         0.432140; 0.979521;,
         0.467154; 0.948861;,
         0.420354; 0.970582;,
         0.467154; 0.948861;,
         0.416634; 0.959811;,
         0.420354; 0.970582;,
         0.416634; 0.959811;,
         0.467154; 0.948861;,
         0.417874; 0.948737;,
         0.467154; 0.948861;,
         0.424386; 0.937611;,
         0.417874; 0.948737;,
         0.424386; 0.937611;,
         0.467154; 0.948861;,
         0.435679; 0.926695;,
         0.467154; 0.948861;,
         0.453807; 0.917470;,
         0.435679; 0.926695;,
         0.453807; 0.917470;,
         0.467154; 0.948861;,
         0.480792; 0.912667;,
         0.467154; 0.948861;,
         0.494429; 0.915397;,
         0.480792; 0.912667;,
         0.494429; 0.915397;,
         0.467154; 0.948861;,
         0.505649; 0.923256;;
      } //End of Mesh UV Coordinates
    } //End of Mesh Mesh
  } //End of foodin_mat_0
} //End of Root Frame
