# Blender v2.66 (sub 1) OBJ File: 'BR_Alakazam-Shiny03.blend'
# www.blender.org
mtllib BR_Alakazam-Shiny03.mtl
o foodin
v 6.820599 1.820843 -1.457146
v 6.615805 2.261591 -1.178313
v 6.672707 1.704783 -1.391167
v 6.931003 2.002750 -1.495220
v 6.988482 2.222708 -1.500343
v 6.980442 2.616244 -1.449830
v 6.909409 2.904973 -1.377714
v 6.786670 3.003266 -1.300118
v 6.650033 3.044705 -1.221713
v 6.506758 3.023984 -1.147031
v 6.365120 2.945262 -1.080036
v 6.234028 2.671493 -1.041608
v 6.142734 2.285310 -1.037793
v 6.152709 2.060358 -1.069562
v 6.222839 1.865088 -1.130224
v 6.343822 1.729127 -1.211296
v 6.856647 1.602668 -1.702691
v 7.033725 1.912298 -1.761661
v 7.120776 2.243091 -1.769693
v 7.101267 2.829469 -1.690377
v 6.975421 3.183307 -1.581118
v 6.799926 3.369212 -1.464845
v 6.607949 3.444144 -1.352724
v 6.403105 3.398586 -1.247818
v 6.190974 3.241372 -1.152094
v 5.992133 2.911566 -1.083779
v 5.848692 2.337249 -1.073976
v 5.864293 1.998858 -1.122085
v 5.972991 1.668075 -1.219409
v 6.168581 1.438280 -1.405188
v 6.598791 2.265300 -1.209923
v 6.189950 1.287586 -1.479057
v 6.035681 -1.387626 -1.655569
v 6.348461 0.959023 -1.490846
v 6.173395 0.982449 -1.548848
v 5.888761 -1.360451 -1.694738
v 6.159352 -1.380480 -1.842727
v 6.395808 0.965986 -1.670487
v 6.119467 -1.393828 -1.701392
v 6.164740 -2.260267 -1.703077
v 6.170307 -2.293905 -1.895810
v 6.214821 -2.236320 -1.951372
v 5.689595 -2.197442 -1.664123
v 5.756816 -2.264390 -1.669798
v 5.950952 -2.244441 -1.586154
v 5.957794 -2.183463 -1.554670
v 5.957794 -2.183463 -1.554670
v 6.182075 -2.195456 -1.677666
v 6.182075 -2.195456 -1.677666
v 6.570549 1.408526 -1.625030
v 6.403571 1.260042 -1.430822
v 6.480124 1.266108 -1.637757
vt 0.505649 0.076744
vt 0.494990 0.060740
vt 0.510665 0.063479
vt 0.492102 0.068208
vt 0.494429 0.084603
vt 0.485614 0.073179
vt 0.480792 0.087333
vt 0.476539 0.074972
vt 0.453807 0.082530
vt 0.458510 0.072029
vt 0.435679 0.073305
vt 0.444230 0.066257
vt 0.424386 0.062389
vt 0.437775 0.058824
vt 0.417874 0.051263
vt 0.433681 0.050981
vt 0.416634 0.040189
vt 0.432307 0.043164
vt 0.420354 0.029418
vt 0.433597 0.035806
vt 0.432140 0.020479
vt 0.443929 0.030271
vt 0.455941 0.016166
vt 0.460017 0.027656
vt 0.471585 0.019178
vt 0.470410 0.029637
vt 0.488387 0.027307
vt 0.480425 0.034766
vt 0.502813 0.040990
vt 0.488565 0.042341
vt 0.627274 0.046094
vt 0.526497 0.052279
vt 0.524950 0.046399
vt 0.628239 0.050857
vt 0.663523 0.043031
vt 0.661563 0.048507
vt 0.516358 0.060514
vt 0.510689 0.044280
vt 0.529295 0.058842
vt 0.632560 0.061232
vt 0.671111 0.064762
vt 0.674058 0.060599
vt 0.669334 0.046991
vt 0.667701 0.058086
vt 0.664289 0.048314
vt 0.664639 0.057880
vt 0.629876 0.055545
vt 0.512873 0.052030
vt 0.466973 0.051049
vt 0.467154 0.051139
usemtl mat_0
s 1
f 17/1 3/2 50/3
f 17/1 1/4 3/2
f 18/5 1/4 17/1
f 4/5 1/6 18/4
f 19/7 4/6 18/5
f 19/7 5/8 4/6
f 20/9 5/8 19/7
f 20/9 6/10 5/8
f 21/11 6/10 20/9
f 21/11 7/12 6/10
f 22/13 7/12 21/11
f 22/13 8/14 7/12
f 23/15 8/14 22/13
f 23/15 9/16 8/14
f 24/17 9/16 23/15
f 24/17 10/18 9/16
f 25/19 10/18 24/17
f 25/19 11/20 10/18
f 26/21 11/20 25/19
f 26/21 12/22 11/20
f 27/23 12/22 26/21
f 27/23 13/24 12/22
f 28/25 13/24 27/23
f 28/25 14/26 13/24
f 29/27 14/26 28/25
f 29/27 15/28 14/26
f 30/29 15/28 29/27
f 30/29 16/30 15/28
f 36/31 34/32 35/33
f 36/31 33/34 34/32
f 43/35 33/34 36/31
f 43/35 47/36 33/34
f 52/37 30/29 50/3
f 52/37 32/38 30/29
f 38/39 32/38 52/37
f 38/39 35/33 32/38
f 37/40 35/33 38/39
f 37/40 36/31 35/33
f 42/41 36/31 37/40
f 42/41 43/35 36/31
f 41/42 43/35 42/41
f 41/42 44/43 43/35
f 40/44 44/43 41/42
f 40/44 45/45 44/43
f 48/46 45/45 40/44
f 48/46 46/36 45/45
f 39/47 38/39 34/32
f 39/47 37/40 38/39
f 49/46 37/40 39/47
f 49/46 42/41 37/40
f 33/34 39/47 34/32
f 34/32 32/38 35/33
f 34/32 51/48 32/38
f 38/39 51/48 34/32
f 38/39 52/37 51/48
f 47/36 49/46 39/47
f 33/34 47/36 39/47
f 51/48 30/29 32/38
f 51/48 16/30 30/29
f 3/2 16/30 51/48
f 3/2 2/49 16/30
f 1/4 2/49 3/2
f 1/4 4/6 2/49
f 5/8 2/49 4/6
f 5/8 6/10 2/49
f 7/12 2/49 6/10
f 7/12 8/14 2/49
f 9/16 2/49 8/14
f 9/16 10/18 2/49
f 11/20 2/49 10/18
f 11/20 12/22 2/49
f 13/24 2/49 12/22
f 13/24 14/26 2/49
f 15/28 2/49 14/26
f 15/28 16/30 2/49
f 51/48 50/3 3/2
f 51/48 52/37 50/3
f 42/41 40/44 41/42
f 42/41 48/46 40/44
f 45/45 43/35 44/43
f 45/45 46/36 43/35
f 50/3 31/50 17/1
f 50/3 30/29 31/50
f 29/27 31/50 30/29
f 29/27 28/25 31/50
f 27/23 31/50 28/25
f 27/23 26/21 31/50
f 25/19 31/50 26/21
f 25/19 24/17 31/50
f 23/15 31/50 24/17
f 23/15 22/13 31/50
f 21/11 31/50 22/13
f 21/11 20/9 31/50
f 19/7 31/50 20/9
f 19/7 18/5 31/50
f 17/1 31/50 18/5
