# Blender v2.66 (sub 1) OBJ File: 'BR_Slugma.blend'
# www.blender.org
mtllib BR_Slugma.mtl
o magmag
v 1.870400 -0.822294 -0.507630
v 0.804328 -2.271560 -0.507630
v 0.924794 -1.413490 -1.075410
v -1.870400 -0.822294 -0.507630
v -1.881780 1.110260 -0.507630
v -1.306300 0.543163 -1.068060
v 1.881780 1.110260 -0.507630
v 1.306300 0.543163 -1.068060
v 0.966233 1.524180 -1.068060
v -0.804328 -2.271560 -0.507630
v -1.562220 -1.997050 0.000000
v 1.562220 -1.997050 0.000000
v 0.000000 2.488880 -0.627362
v 0.000000 2.114380 -1.068060
v -0.966234 1.524180 -1.068060
v -1.048330 2.166710 -0.507630
v 2.247320 0.275017 0.000000
v 1.048330 2.166710 -0.507630
v 1.422940 2.127200 0.000000
v -2.247320 0.275017 0.000000
v 0.000000 -2.918660 -0.507630
v 0.606019 -3.296080 0.000000
v -1.422940 2.127200 0.000000
v -0.606018 -3.296080 0.000000
v 0.000000 -2.122640 -1.070630
v -0.924793 -1.413490 -1.075410
v -2.471500 -1.530120 0.000000
v -2.800750 -0.495272 0.000000
v -2.782640 -1.011510 0.000000
v -1.397510 -3.030150 0.000000
v -1.656040 -2.743760 -0.000001
v -2.672750 0.998318 0.000000
v -2.571230 1.510750 0.000000
v -2.230850 1.822750 0.000000
v 2.672750 0.998318 0.000000
v 2.230850 1.822750 0.000000
v 2.571230 1.510750 0.000000
v 0.000000 3.130900 0.000000
v 0.623364 2.813550 0.000000
v -0.623365 2.813550 0.000000
v 0.303010 -3.930570 0.000000
v 0.000000 -4.186200 0.000000
v -0.303009 -3.930570 0.000000
v 1.656040 -2.743760 -0.000001
v 1.397510 -3.030150 0.000000
v 2.471500 -1.530120 0.000000
v 2.800750 -0.495273 0.000000
v 2.782640 -1.011510 0.000000
v -0.883804 -0.679733 -1.440930
v 0.883804 -0.679733 -1.440930
v 0.772784 0.054024 -1.761520
v 0.000000 -1.163980 -1.623520
v -0.772784 0.054024 -1.761520
v 0.000000 -0.115458 -2.026650
v -0.546247 0.719003 -2.658430
v 0.000000 0.530432 -2.800280
v 0.546247 0.719003 -2.658430
v 0.862198 1.243470 -2.265170
v 0.618581 1.751960 -1.857360
v 0.000000 2.137740 -1.702170
v -0.862198 1.243470 -2.265170
v -0.618582 1.751960 -1.857360
v -0.799744 1.319320 -2.592610
v -0.455484 0.944367 -2.900000
v 0.455484 0.944367 -2.900000
v 0.799744 1.319320 -2.592610
v -1.275600 2.682500 -3.307730
v -1.062710 3.368420 -2.725010
v -1.114430 3.356480 -3.207400
v 1.114430 3.356480 -3.207400
v 1.062710 3.368420 -2.725010
v 1.275600 2.682500 -3.307730
v -1.210270 2.410440 -2.940250
v -1.153790 2.912930 -3.719130
v -1.176030 1.894830 -3.786330
v 1.176030 1.894830 -3.786330
v 1.153790 2.912930 -3.719130
v 1.210270 2.410440 -2.940250
v -0.484831 1.013250 -3.423400
v 0.000000 0.804735 -2.994130
v 0.484831 1.013250 -3.423400
v -0.644340 1.900410 -4.466420
v -1.072260 2.240880 -4.197510
v -0.565527 2.516200 -4.516820
v 0.000000 2.519500 -4.654110
v 0.000000 1.843370 -4.598760
v -0.606376 1.373730 -4.173490
v 0.000000 1.270460 -4.284680
v 0.000000 1.023650 -3.924430
v -0.556268 1.144030 -3.838510
v 0.000000 0.882417 -3.521760
v -0.803770 3.004980 -4.166670
v -0.401639 3.232690 -4.176540
v -0.964956 3.630760 -3.170620
v -0.834092 1.746980 -2.295640
v -0.665027 2.953320 -2.088710
v -0.465238 3.193040 -1.888650
v -0.533587 3.672950 -1.996300
v -0.808475 3.384570 -2.240820
v 0.000000 3.269090 -1.752360
v 0.000000 3.294760 -4.254150
v -0.510501 3.989150 -2.773900
v -0.303495 3.825180 -3.556820
v -0.632871 3.804940 -3.143650
v -0.000001 3.896560 -3.611150
v 0.000000 3.805730 -1.901540
v 0.000000 4.140360 -2.751650
v -0.864815 2.659180 -2.290240
v -1.009200 2.128000 -2.619300
v -0.573823 3.903920 -2.305460
v -1.083360 3.041770 -2.486810
v 0.000000 4.053940 -2.233440
v -0.752044 2.939650 -2.011130
v -0.752026 3.131710 -2.005990
v -0.887227 2.938610 -2.011160
v -0.888494 3.131710 -2.005990
v 0.000000 2.408750 -1.769880
v -0.509472 2.101600 -1.993060
v -0.913520 1.472460 -3.063240
v -1.104590 1.655470 -3.467550
v 0.808475 3.384570 -2.240820
v 1.083360 3.041770 -2.486810
v 0.565526 2.516200 -4.516820
v 0.401638 3.232690 -4.176540
v 0.803769 3.004980 -4.166670
v 0.573822 3.903920 -2.305460
v 0.834092 1.746980 -2.295640
v 0.509471 2.101600 -1.993060
v 0.964956 3.630760 -3.170620
v 0.510500 3.989150 -2.773900
v 0.632870 3.804940 -3.143650
v 0.556267 1.144030 -3.838510
v 0.913520 1.472460 -3.063240
v 1.104590 1.655470 -3.467550
v 0.303495 3.825180 -3.556820
v 0.864815 2.659180 -2.290240
v 1.009200 2.128000 -2.619300
v 0.606375 1.373730 -4.173490
v 1.072250 2.240880 -4.197510
v 0.887227 2.938610 -2.011160
v 0.888493 3.131710 -2.005990
v 0.752025 3.131710 -2.005990
v 0.665026 2.953320 -2.088710
v 0.752044 2.939650 -2.011140
v 0.533586 3.672950 -1.996300
v 0.644339 1.900410 -4.466420
v 0.465238 3.193040 -1.888650
v -0.465238 3.126090 -1.727900
v 0.000000 3.163040 -1.576270
v 0.465238 3.126090 -1.727900
v 0.162118 3.458300 -4.304200
v 0.847268 2.973480 -4.241640
v 1.559030 3.160890 -3.418790
v 1.583430 3.047910 -3.751060
v 0.832276 3.557990 -4.176630
v 1.456900 3.003010 -4.091960
v 1.520050 2.921640 -4.291270
v 1.018480 2.878220 -4.438550
v 0.482565 3.289870 -4.705280
v 1.192160 3.292080 -4.505710
v 0.468226 3.288880 -4.956320
v 0.904395 3.216650 -5.132210
v 0.548561 3.248780 -5.196390
v 0.846392 3.078430 -5.109790
v 1.195670 3.054680 -5.156170
v 1.463330 3.243860 -4.828240
v 1.874910 2.841410 -4.878230
v 1.808280 2.808120 -4.453320
v 1.584290 3.032100 -5.306260
v 1.816490 2.702210 -4.855640
v 1.966400 2.735440 -4.692940
v 1.814470 2.769780 -5.096490
v 1.240450 2.712790 -4.742070
v 1.460910 2.738110 -5.258560
v 2.067780 2.644380 -5.010800
v 1.990060 2.603990 -5.079860
v 1.911210 2.683020 -5.214230
v 2.030480 2.711380 -5.105270
v 2.000090 2.539070 -5.395590
v 1.057250 3.013920 -5.515290
v 0.870642 3.112830 -5.481030
v 0.689387 3.127410 -5.404990
v 0.838909 3.022340 -5.456660
v 0.466110 3.101990 -5.690230
v 0.739712 3.045400 -5.618650
v 0.758554 3.012860 -5.801070
v 1.168510 2.963010 -5.591490
v 1.675310 2.948340 -5.621790
v 1.882630 2.730040 -5.377500
v 2.068210 2.604240 -5.607200
v 1.540850 2.608040 -5.550940
v 1.811530 2.677800 -5.924710
v 1.641660 2.550640 -6.209620
v 1.588590 2.754430 -5.910550
v 2.034480 2.548290 -5.951730
v 1.910310 2.502420 -6.124960
v 1.199810 2.870410 -5.780150
v 1.763310 2.529390 -5.880630
v 1.540370 2.606020 -5.866470
v 1.334350 2.688550 -6.128240
v 1.169690 2.522070 -6.445540
v 1.623770 2.449950 -6.403140
v 1.233870 3.314710 -4.647090
v 1.034450 3.372090 -4.738920
v 1.018790 3.642470 -4.255620
v 0.605712 3.606220 -4.392810
v 0.495647 3.710160 -4.088860
v 0.927548 3.795740 -3.961720
v 0.461188 3.792350 -3.750090
v 0.798663 3.850350 -3.647720
v 0.494031 3.846610 -3.422330
v 0.613961 3.834660 -3.256440
v 1.325220 3.399200 -4.061470
v 1.347080 3.320640 -4.406040
v 1.215150 3.503140 -3.757520
v 1.029480 3.628840 -3.488390
v 0.802585 3.757840 -3.280240
v 0.803981 3.476900 -4.656140
v -0.847285 2.973470 -4.241540
v -0.161263 3.458290 -4.303880
v -0.832270 3.557990 -4.176590
v -1.584380 3.047940 -3.752170
v -1.559960 3.160950 -3.420740
v -1.456900 3.003010 -4.091960
v -1.510700 2.923290 -4.352650
v -0.998132 2.878620 -4.453660
v -0.439163 3.288950 -4.671190
v -1.163880 3.292900 -4.536540
v -0.348209 3.285370 -4.825090
v -0.369660 3.245590 -5.077390
v -0.730766 3.215770 -5.099330
v -0.680601 3.077210 -5.063910
v -1.009100 3.055630 -5.191700
v -1.736180 2.846880 -5.082690
v -1.345600 3.246760 -4.936350
v -1.772280 2.813500 -4.654110
v -1.351260 3.035410 -5.429580
v -1.869620 2.741640 -4.924420
v -1.685660 2.707340 -5.047020
v -1.626230 2.774710 -5.280480
v -1.244550 2.740670 -5.354240
v -1.152840 2.714340 -4.800250
v -1.792700 2.610140 -5.309520
v -1.886130 2.651170 -5.264450
v -1.679350 2.688450 -5.416930
v -1.823780 2.717800 -5.344960
v -1.800140 2.545210 -5.624900
v -0.722819 3.013910 -5.514770
v -0.562993 3.110940 -5.410760
v -0.425150 3.123810 -5.270470
v -0.544106 3.020180 -5.376190
v -0.130809 3.097930 -5.538390
v -0.413275 3.042740 -5.519610
v -0.397612 3.010220 -5.702330
v -0.861260 2.962810 -5.584210
v -1.720080 2.611060 -5.861960
v -1.608540 2.735680 -5.587990
v -1.337310 2.952070 -5.760970
v -1.232010 2.610810 -5.654390
v -1.188880 2.757340 -6.019000
v -1.171140 2.553660 -6.322290
v -1.402650 2.682110 -6.085440
v -1.613740 2.553990 -6.164430
v -1.452480 2.507200 -6.303480
v -0.841139 2.870950 -5.800420
v -1.153370 2.608650 -5.964900
v -1.367140 2.533420 -6.031340
v -0.890858 2.689680 -6.170570
v -0.757561 2.525330 -6.567130
v -1.250060 2.454590 -6.576230
v -1.018820 3.642490 -4.256260
v -1.034450 3.372090 -4.738920
v -1.233870 3.314710 -4.647090
v -0.927577 3.795750 -3.962360
v -0.495676 3.710180 -4.089490
v -0.605712 3.606220 -4.392810
v -0.798663 3.850350 -3.647720
v -0.461188 3.792350 -3.750090
v -0.613960 3.834660 -3.256440
v -0.494031 3.846610 -3.422330
v -1.347110 3.320660 -4.406680
v -1.325220 3.399200 -4.061470
v -1.215150 3.503140 -3.757520
v -1.029480 3.628840 -3.488390
v -0.802614 3.757850 -3.280880
v -0.803981 3.476900 -4.656140
v -1.055280 3.333600 -1.431120
v -0.582005 3.299620 -1.431120
v -1.021300 2.860320 -1.431120
v -0.548025 2.826340 -1.431120
v -1.289950 3.208860 -1.082360
v -1.158660 2.718880 -1.082360
v -1.146440 2.984730 -0.723677
v -0.931265 3.567540 -1.082360
v -1.053600 3.331200 -0.723677
v -0.799976 3.077570 -0.575105
v -0.546347 2.823940 -0.723677
v -0.453513 3.170410 -0.723677
v -0.707142 3.424040 -0.723677
v -0.892811 2.731110 -0.723677
v -0.310002 2.946280 -1.082360
v -0.668688 2.587600 -1.082360
v -0.441291 3.436260 -1.082360
v 0.759112 3.314640 -1.431920
v 1.232390 3.348620 -1.431920
v 1.198410 2.875340 -1.431920
v 0.725133 2.841360 -1.431920
v 1.326500 3.000030 -0.714550
v 1.338720 2.734180 -1.073240
v 1.470000 3.224160 -1.073240
v 1.233660 3.346500 -0.714550
v 1.111320 3.582840 -1.073240
v 0.633568 3.185700 -0.714550
v 0.726402 2.839240 -0.714550
v 0.980031 3.092870 -0.565978
v 0.887197 3.439330 -0.714550
v 1.072870 2.746400 -0.714550
v 0.490058 2.961580 -1.073240
v 0.848743 2.602890 -1.073240
v 0.621346 3.451560 -1.073240
v -1.611260 -0.256563 -1.013600
v -1.867340 0.062938 -0.796814
v -1.519130 0.173773 -0.774993
v -2.091690 -0.271909 -0.568336
v -1.835610 -0.591410 -0.785124
v -1.834830 -0.678577 -0.429578
v -1.937050 -0.270039 -0.883506
v -1.875620 0.162386 -0.444602
v -1.320500 -0.241016 -0.932676
v -1.478350 -0.667191 -0.759969
v -2.033470 -0.263789 -0.271895
v -0.493675 -2.243280 -0.948665
v -0.669354 -2.168180 -0.645117
v -0.637071 -1.934870 -0.834783
v -0.447746 -2.372020 -0.617063
v -0.383179 -1.905410 -0.996396
v -0.193854 -2.342550 -0.778675
v -0.161571 -2.109250 -0.968342
v -0.926957 2.437780 -0.717933
v -1.075860 2.233840 -0.389138
v -0.922546 2.480760 -0.305620
v -0.957387 2.043840 -0.592392
v -0.650754 2.537670 -0.425356
v -0.685594 2.100760 -0.712129
v -0.532278 2.347680 -0.628611
v 1.024840 2.148160 -0.460994
v 1.185850 1.911110 -0.557586
v 1.020680 2.121000 -0.874653
v 1.070080 1.724200 -0.765219
v 0.748070 2.198310 -0.572034
v 0.793310 1.774350 -0.876258
v 0.632304 2.011400 -0.779666
v 1.504590 -1.250460 -0.541208
v 1.517700 -1.486620 -0.352786
v 1.434230 -1.568230 -0.691929
v 1.323650 -1.716360 -0.384567
v 1.297430 -1.244030 -0.761410
v 1.116480 -1.709940 -0.604769
v 1.103370 -1.473770 -0.793191
v 1.335500 0.436168 -0.940488
v 1.693850 0.368793 -0.972952
v 1.472130 0.002999 -1.150980
v 1.774530 -0.338669 -0.550159
v 1.748110 -0.281206 -0.910731
v 1.969830 0.084587 -0.732704
v 1.802380 0.041363 -1.038220
v 1.704790 0.496706 -0.630125
v 1.405230 -0.399207 -0.860522
v 1.185720 -0.011789 -1.055690
v 1.924310 0.109288 -0.434961
v 1.135100 -0.447032 -0.594126
v -0.796332 -0.526805 -0.706201
v 0.192413 -1.045410 -0.649522
v 1.089040 0.669954 -0.595410
v -0.842392 0.590181 -0.707484
v 0.100292 1.188560 -0.652088
v 0.149555 0.824987 -1.242260
v -0.570823 0.041272 -1.285000
v 0.211630 -0.680371 -1.240530
v 0.932007 0.103343 -1.197790
vt 0.913823 1.000000
vt 0.237979 1.000000
vt 0.086177 1.000000
vt 0.762021 1.000000
vt 0.992221 1.000000
vt 0.910849 1.000000
vt 0.388407 1.000000
vt 0.787669 1.000000
vt 0.212331 1.000000
vt 0.611593 1.000000
vt 0.444204 1.000000
vt 0.555796 1.000000
vt 0.939372 1.000000
vt 1.000000 1.000000
vt 0.783542 1.000000
vt 0.735936 1.000000
vt 0.414331 1.315550
vt 0.401745 1.332760
vt 0.351127 1.366570
vt 0.377542 1.343200
vt 0.598255 1.332760
vt 0.585669 1.315550
vt 0.622458 1.343200
vt 0.648873 1.366570
vt 0.250000 1.000000
vt 0.750000 1.000000
vt 0.750000 2.000000
vt 0.250000 2.000000
vt 0.614787 1.000000
vt 0.385213 1.000000
vt 0.500000 1.152930
vt 0.662744 1.205820
vt 0.670292 1.153610
vt 0.500000 1.231900
vt 0.329708 1.153610
vt 0.337256 1.205820
vt 0.500000 1.289480
vt 0.357699 1.251610
vt 0.642301 1.251610
vt 0.500000 1.399990
vt 0.399414 1.379730
vt 0.259458 1.152560
vt 0.341234 1.323550
vt 0.658766 1.323550
vt 0.740542 1.152560
vt 0.600586 1.379730
vt 0.500000 1.243140
vt 0.677923 1.152560
vt 0.613906 1.265300
vt 0.500000 1.152560
vt 0.386094 1.265300
vt 0.322077 1.152560
vt 0.500000 1.464270
vt 0.416127 1.451360
vt 0.583873 1.451360
vt 0.500000 1.707850
vt 0.381351 1.678680
vt 0.395864 1.688240
vt 0.500000 1.697360
vt 0.604136 1.688240
vt 0.618649 1.678680
vt 0.283444 1.581550
vt 0.302554 1.641590
vt 0.388342 1.634840
vt 0.500000 1.650320
vt 0.611658 1.634840
vt 0.697446 1.641590
vt 0.716556 1.581550
vt 0.397569 1.586130
vt 0.500000 1.597940
vt 0.296599 1.535120
vt 0.277139 1.462720
vt 0.340752 1.370850
vt 0.300509 1.400380
vt 0.314166 1.415810
vt 0.331784 1.476690
vt 0.410723 1.526360
vt 0.500000 1.539900
vt 0.602431 1.586130
vt 0.589277 1.526360
vt 0.703401 1.535120
vt 0.668216 1.476690
vt 0.722861 1.462720
vt 0.685834 1.415810
vt 0.699491 1.400380
vt 0.659248 1.370850
vt 0.394336 1.377790
vt 0.500000 1.442400
vt 0.405996 1.445000
vt 0.500000 1.368080
vt 0.500000 1.319740
vt 0.346410 1.368140
vt 0.352735 1.408900
vt 0.653590 1.368140
vt 0.647265 1.408900
vt 0.605664 1.377790
vt 0.594004 1.445000
vt 0.406186 1.326290
vt 0.500000 1.295600
vt 0.500000 1.296380
vt 0.593814 1.326290
vt 0.656016 1.650700
vt 0.664026 1.661290
vt 0.680045 1.682460
vt 0.505254 1.800000
vt 0.482679 1.760000
vt 0.494487 1.800000
vt 0.520000 1.760000
vt 0.505154 1.800000
vt 0.517321 1.760000
vt 0.494489 1.800000
vt 0.480000 1.760000
vt 0.155584 1.072510
vt 0.351891 1.072510
vt 0.153488 1.072510
vt 0.846512 1.072510
vt 0.693040 1.072510
vt 0.500000 1.089610
vt 0.306960 1.072510
vt 0.500000 1.000000
vt 0.973527 1.000000
vt 0.844416 1.072510
vt 0.996665 1.000000
vt 0.648109 1.072510
vt 0.500000 1.072510
vt 0.351993 1.640110
vt 0.287541 1.575850
vt 0.294789 1.504480
vt 0.265110 1.516230
vt 0.304313 1.435650
vt 0.426042 1.642390
vt 0.500000 1.653710
vt 0.444114 1.556170
vt 0.500000 1.564200
vt 0.555886 1.556170
vt 0.616537 1.497090
vt 0.653255 1.643640
vt 0.677688 1.500280
vt 0.787081 1.533920
vt 0.705211 1.504480
vt 0.648007 1.640110
vt 0.712459 1.575850
vt 0.734890 1.516230
vt 0.695687 1.435650
vt 0.573958 1.642390
vt 0.529853 1.661480
vt 0.573983 1.708230
vt 0.563358 1.743170
vt 0.627211 1.773340
vt 0.570287 1.778770
vt 0.603260 1.819200
vt 0.637896 1.827270
vt 0.588578 1.878440
vt 0.628006 1.851970
vt 0.631575 1.823930
vt 0.645738 1.874110
vt 0.672676 1.829000
vt 0.636894 1.778450
vt 0.709041 1.697770
vt 0.689087 1.788430
vt 0.747945 1.749670
vt 0.754782 1.819090
vt 0.803454 1.794320
vt 0.812257 1.829460
vt 0.734185 1.808220
vt 0.843818 1.863340
vt 0.747523 1.850730
vt 0.848690 1.896760
vt 0.797181 1.893870
vt 0.832071 1.924180
vt 0.801845 1.972260
vt 0.807541 1.899340
vt 0.786379 1.943330
vt 0.766785 1.903530
vt 0.738257 2.000000
vt 0.728123 1.940540
vt 0.756425 1.898060
vt 0.692097 1.895930
vt 0.678524 1.854610
vt 0.771335 1.863300
vt 0.710737 1.730030
vt 0.811578 1.760240
vt 0.822857 1.703870
vt 0.775672 1.674360
vt 0.768274 1.629430
vt 0.791573 1.580930
vt 0.322312 1.500280
vt 0.383463 1.497090
vt 0.663608 1.332070
vt 0.638478 1.332070
vt 0.638482 1.332070
vt 0.663375 1.332070
vt 0.821330 1.765390
vt 0.843934 1.741210
vt 0.843222 1.792310
vt 0.829027 1.811950
vt 0.885811 1.821200
vt 0.850731 1.796280
vt 0.857372 1.782460
vt 0.336392 1.332070
vt 0.361522 1.332070
vt 0.361518 1.332070
vt 0.336625 1.332070
vt 0.758820 1.000000
vt 1.000000 1.414210
vt 0.724145 1.000000
vt 0.633975 1.414210
vt 0.275855 1.000000
vt 0.133973 1.414210
vt 0.000000 1.414210
vt 0.146445 1.828430
vt 0.241180 1.828430
vt 0.500000 2.000000
vt 0.594735 1.828430
vt 0.853553 1.828430
vt 0.866026 1.414210
vt 0.366026 1.414210
vt 0.241180 1.000000
vt 0.405265 1.828430
vt 0.758820 1.828430
vt 0.163076 1.500000
vt 0.000000 1.500000
vt 0.500000 1.889050
vt 0.836924 1.500000
vt 1.000000 1.500000
vt 0.500000 1.110950
vt 0.500000 1.500000
vt 0.000000 1.000000
vt 0.163076 1.670950
vt 0.500000 1.670950
vt 0.836924 1.670950
vt 0.974347 0.514091
vt 0.021485 1.000060
vt 0.978515 1.000060
vt 0.025653 0.514092
vt 0.834664 0.196256
vt 0.165335 0.196256
vt 0.500000 0.031186
vt 0.113339 0.283911
vt 0.500000 -0.000011
vt 0.886661 0.283911
vt 1.000000 0.968760
vt 0.000000 0.968761
vt 0.500000 0.866032
vt 0.000000 0.918928
vt 0.000000 0.866032
vt 0.500000 0.918928
vt 1.000000 0.866032
vt 1.000000 0.918928
vt 0.500000 0.813137
vt 0.105078 0.813137
vt 0.894922 0.813137
vt 0.877408 0.971823
vt 0.638578 1.000000
vt 0.361422 1.000000
vt 0.122592 0.971823
vt 0.714420 0.766507
vt 0.500000 0.750000
vt 0.285580 0.766507
usemtl mat_0
s 1
f 17/1 23/2 20/3
f 17/1 19/4 23/2
f 35/5 19/4 17/1
f 35/5 36/6 19/4
f 24/7 12/8 11/9
f 24/7 22/10 12/8
f 43/11 22/10 24/7
f 43/11 41/12 22/10
f 12/8 20/3 11/9
f 12/8 17/1 20/3
f 46/13 17/1 12/8
f 46/13 47/14 17/1
f 11/8 20/1 28/14
f 27/13 11/8 28/14
f 31/15 30/16 24/10
f 11/8 31/15 24/10
f 20/1 23/4 34/6
f 32/5 20/1 34/6
f 97/17 98/18 99/19
f 96/20 97/17 99/19
f 145/21 147/22 143/23
f 121/24 145/21 143/23
f 375/25 372/26 371/27
f 374/28 375/25 371/27
f 23/2 19/4 39/29
f 40/30 23/2 39/29
f 45/16 44/15 12/8
f 22/10 45/16 12/8
f 25/31 50/32 3/33
f 25/31 52/34 50/32
f 26/35 52/34 25/31
f 26/35 49/36 52/34
f 54/37 49/36 53/38
f 54/37 52/34 49/36
f 51/39 52/34 54/37
f 51/39 50/32 52/34
f 53/38 56/40 54/37
f 53/38 55/41 56/40
f 6/42 55/41 53/38
f 6/42 61/43 55/41
f 51/39 58/44 8/45
f 51/39 57/46 58/44
f 54/37 57/46 51/39
f 54/37 56/40 57/46
f 60/47 9/48 59/49
f 60/47 14/50 9/48
f 62/51 14/50 60/47
f 62/51 15/52 14/50
f 80/53 55/41 64/54
f 80/53 56/40 55/41
f 65/55 56/40 80/53
f 65/55 57/46 56/40
f 85/56 82/57 84/58
f 85/56 86/59 82/57
f 123/60 86/59 85/56
f 123/60 146/61 86/59
f 82/57 75/62 83/63
f 82/57 87/64 75/62
f 86/59 87/64 82/57
f 86/59 88/65 87/64
f 146/61 88/65 86/59
f 146/61 138/66 88/65
f 139/67 138/66 146/61
f 139/67 76/68 138/66
f 90/69 88/65 89/70
f 90/69 87/64 88/65
f 120/71 87/64 90/69
f 120/71 75/62 87/64
f 73/72 108/73 111/74
f 73/72 109/75 108/73
f 120/71 109/75 73/72
f 120/71 119/76 109/75
f 90/69 119/76 120/71
f 90/69 79/77 119/76
f 89/70 79/77 90/69
f 89/70 91/78 79/77
f 132/79 91/78 89/70
f 132/79 81/80 91/78
f 134/81 81/80 132/79
f 134/81 133/82 81/80
f 78/83 133/82 134/81
f 78/83 137/84 133/82
f 122/85 137/84 78/83
f 122/85 136/86 137/84
f 110/87 107/88 102/89
f 110/87 112/90 107/88
f 98/18 112/90 110/87
f 98/18 106/91 112/90
f 95/92 109/75 119/76
f 63/93 95/92 119/76
f 132/79 76/68 134/81
f 132/79 138/66 76/68
f 89/70 138/66 132/79
f 89/70 88/65 138/66
f 137/84 127/94 66/95
f 133/82 137/84 66/95
f 126/96 106/91 145/21
f 126/96 112/90 106/91
f 130/97 112/90 126/96
f 130/97 107/88 112/90
f 118/98 148/17 108/20
f 117/99 148/17 118/98
f 117/99 149/100 148/17
f 128/101 149/100 117/99
f 128/101 150/22 149/100
f 136/86 150/23 128/22
f 152/102 158/103 157/104
f 225/104 226/103 219/102
f 116/105 288/106 114/107
f 116/105 287/108 288/106
f 115/109 287/108 116/105
f 115/109 289/110 287/108
f 113/111 289/110 115/109
f 113/111 290/112 289/110
f 114/107 290/112 113/111
f 114/107 288/106 290/112
f 305/108 142/107 304/106
f 305/108 141/105 142/107
f 306/110 141/105 305/108
f 306/110 140/109 141/105
f 307/112 140/109 306/110
f 307/112 144/111 140/109
f 304/106 144/111 307/112
f 304/106 142/107 144/111
f 4/113 10/114 11/9
f 4/113 26/35 10/114
f 6/42 26/35 4/113
f 6/42 49/36 26/35
f 53/38 49/36 6/42
f 5/115 4/113 20/3
f 5/115 6/42 4/113
f 15/52 6/42 5/115
f 15/52 61/43 6/42
f 62/51 61/43 15/52
f 62/51 95/92 61/43
f 118/98 95/92 62/51
f 118/98 108/73 95/92
f 109/75 95/92 108/73
f 63/93 61/43 95/92
f 63/93 55/41 61/43
f 64/54 55/41 63/93
f 63/93 79/77 64/54
f 119/76 79/77 63/93
f 79/77 80/53 64/54
f 79/77 91/78 80/53
f 81/80 80/53 91/78
f 81/80 65/55 80/53
f 66/95 65/55 81/80
f 66/95 57/46 65/55
f 58/44 57/46 66/95
f 66/95 127/94 58/44
f 59/49 58/44 127/94
f 59/49 9/48 58/44
f 8/45 58/44 9/48
f 9/48 7/116 8/45
f 18/117 7/116 9/48
f 18/117 19/4 7/116
f 39/29 19/4 18/117
f 18/117 13/118 39/29
f 9/48 13/118 18/117
f 9/48 14/50 13/118
f 15/52 13/118 14/50
f 15/52 16/119 13/118
f 5/115 16/119 15/52
f 5/115 23/2 16/119
f 40/30 16/119 23/2
f 40/30 13/118 16/119
f 38/120 13/118 40/30
f 38/120 39/29 13/118
f 40/30 39/29 38/120
f 81/80 133/82 66/95
f 36/6 7/116 19/4
f 36/6 37/121 7/116
f 35/5 37/121 36/6
f 35/5 7/116 37/121
f 17/1 7/116 35/5
f 17/1 1/122 7/116
f 47/14 1/122 17/1
f 48/14 1/123 47/122
f 46/13 48/123 47/14
f 46/13 1/122 48/123
f 12/8 1/122 46/13
f 2/8 1/124 12/122
f 44/15 2/124 12/8
f 44/15 45/16 2/124
f 22/10 2/124 45/16
f 22/10 21/125 2/124
f 41/12 21/125 22/10
f 41/12 42/120 21/125
f 43/11 42/120 41/12
f 43/11 21/125 42/120
f 24/7 21/125 43/11
f 24/7 10/114 21/125
f 26/35 21/125 10/114
f 26/35 25/31 21/125
f 3/33 21/125 25/31
f 3/33 2/124 21/125
f 1/122 2/124 3/33
f 8/33 1/45 3/122
f 50/32 8/45 3/33
f 50/32 51/39 8/45
f 7/45 1/116 8/122
f 62/51 117/99 118/98
f 62/51 60/47 117/99
f 59/49 117/99 60/47
f 59/49 128/101 117/99
f 127/94 128/101 59/49
f 127/94 136/86 128/101
f 137/84 136/86 127/94
f 27/13 4/122 11/8
f 27/13 29/123 4/122
f 28/14 29/123 27/13
f 28/14 4/122 29/123
f 20/1 4/122 28/14
f 10/124 31/15 11/8
f 10/124 30/16 31/15
f 24/10 30/16 10/124
f 32/5 5/116 20/1
f 32/5 33/121 5/116
f 34/6 33/121 32/5
f 34/6 5/116 33/121
f 23/4 5/116 34/6
f 83/63 84/58 82/57
f 83/63 92/126 84/58
f 74/127 92/126 83/63
f 74/127 69/128 92/126
f 67/129 69/128 74/127
f 67/129 68/130 69/128
f 73/72 68/130 67/129
f 73/72 111/74 68/130
f 99/19 68/130 111/74
f 99/19 110/87 68/130
f 98/18 110/87 99/19
f 93/131 84/58 92/126
f 93/131 101/132 84/58
f 103/133 101/132 93/131
f 103/133 105/134 101/132
f 102/89 105/134 103/133
f 102/89 107/88 105/134
f 130/97 105/134 107/88
f 130/97 135/135 105/134
f 131/136 135/135 130/97
f 131/136 155/137 135/135
f 129/138 155/137 131/136
f 129/138 153/139 155/137
f 70/140 153/139 129/138
f 70/140 125/141 153/139
f 77/142 125/141 70/140
f 77/142 139/67 125/141
f 76/68 139/67 77/142
f 77/142 72/143 76/68
f 70/140 72/143 77/142
f 70/140 71/144 72/143
f 129/138 71/144 70/140
f 129/138 126/96 71/144
f 130/97 126/96 129/138
f 129/138 131/136 130/97
f 135/135 101/132 105/134
f 135/135 124/145 101/132
f 151/146 124/145 135/135
f 151/146 152/103 124/145
f 159/147 152/103 151/146
f 159/147 158/104 152/103
f 161/148 158/104 159/147
f 161/148 164/149 158/104
f 163/150 164/149 161/148
f 163/150 182/151 164/149
f 181/152 182/151 163/150
f 181/152 184/153 182/151
f 185/154 184/153 181/152
f 185/154 183/155 184/153
f 186/156 183/155 185/154
f 186/156 180/157 183/155
f 181/152 180/157 186/156
f 181/152 162/158 180/157
f 163/150 162/158 181/152
f 163/150 161/148 162/158
f 160/159 162/158 161/148
f 160/159 165/160 162/158
f 166/161 165/160 160/159
f 166/161 169/162 165/160
f 172/163 169/162 166/161
f 172/163 189/164 169/162
f 174/165 189/164 172/163
f 174/165 190/166 189/164
f 191/167 190/166 174/165
f 191/167 195/168 190/166
f 198/169 195/168 191/167
f 198/169 196/170 195/168
f 202/171 196/170 198/169
f 202/171 192/172 196/170
f 193/173 192/172 202/171
f 193/173 194/174 192/172
f 201/175 194/174 193/173
f 201/175 200/176 194/174
f 199/177 200/176 201/175
f 199/177 197/178 200/176
f 191/167 197/178 199/177
f 191/167 187/179 197/178
f 165/160 187/179 191/167
f 165/160 169/162 187/179
f 188/180 187/179 169/162
f 188/180 197/178 187/179
f 194/174 197/178 188/180
f 194/174 200/176 197/178
f 186/156 185/154 181/152
f 155/137 151/146 135/135
f 155/137 159/147 151/146
f 160/159 159/147 155/137
f 160/159 161/148 159/147
f 165/160 180/157 162/158
f 165/160 183/155 180/157
f 164/149 183/155 165/160
f 164/149 182/151 183/155
f 184/153 183/155 182/151
f 165/160 158/104 164/149
f 165/160 173/181 158/104
f 174/165 173/181 165/160
f 174/165 172/163 173/181
f 170/182 173/181 172/163
f 170/182 158/104 173/181
f 168/183 158/104 170/182
f 168/183 157/184 158/104
f 160/159 157/184 168/183
f 160/159 155/137 157/184
f 156/185 157/184 155/137
f 156/185 152/102 157/184
f 125/141 152/102 156/185
f 156/185 154/186 125/141
f 155/137 154/186 156/185
f 155/137 153/139 154/186
f 125/141 154/186 153/139
f 174/165 165/160 191/167
f 189/164 188/180 169/162
f 189/164 190/166 188/180
f 195/168 188/180 190/166
f 195/168 192/172 188/180
f 196/170 192/172 195/168
f 188/180 192/172 194/174
f 199/177 198/169 191/167
f 199/177 193/173 198/169
f 201/175 193/173 199/177
f 193/173 202/171 198/169
f 68/130 94/187 69/128
f 68/130 110/87 94/187
f 102/89 94/187 110/87
f 102/89 104/188 94/187
f 103/133 104/188 102/89
f 101/132 85/56 84/58
f 101/132 123/60 85/56
f 124/145 123/60 101/132
f 124/145 125/141 123/60
f 152/103 125/141 124/145
f 139/67 123/60 125/141
f 139/67 146/61 123/60
f 75/62 74/127 83/63
f 75/62 67/129 74/127
f 73/72 67/129 75/62
f 75/62 120/71 73/72
f 100/100 98/18 97/17
f 100/100 106/91 98/18
f 145/21 106/91 100/100
f 100/100 147/22 145/21
f 76/68 78/83 134/81
f 76/68 72/143 78/83
f 71/144 78/83 72/143
f 71/144 122/85 78/83
f 121/24 122/85 71/144
f 121/24 141/189 122/85
f 142/190 141/189 121/24
f 121/24 143/23 142/190
f 144/191 142/190 143/23
f 143/23 136/86 144/191
f 140/192 144/191 136/86
f 136/86 122/85 140/192
f 141/189 140/192 122/85
f 126/96 121/24 71/144
f 126/96 145/21 121/24
f 219/103 93/145 92/141
f 219/103 220/146 93/145
f 227/147 220/146 219/103
f 227/147 221/137 220/146
f 228/159 221/137 227/147
f 228/159 225/184 221/137
f 236/183 225/184 228/159
f 236/183 226/104 225/184
f 239/182 226/104 236/183
f 239/182 242/181 226/104
f 240/163 242/181 239/182
f 240/163 241/165 242/181
f 257/164 241/165 240/163
f 257/164 256/166 241/165
f 258/180 256/166 257/164
f 258/180 263/168 256/166
f 262/172 263/168 258/180
f 262/172 264/170 263/168
f 270/171 264/170 262/172
f 270/171 267/169 264/170
f 261/173 267/169 270/171
f 261/173 266/177 267/169
f 269/175 266/177 261/173
f 269/175 268/176 266/177
f 260/174 268/176 269/175
f 260/174 265/178 268/176
f 258/180 265/178 260/174
f 258/180 255/179 265/178
f 237/162 255/179 258/180
f 237/162 233/160 255/179
f 235/161 233/160 237/162
f 235/161 228/159 233/160
f 234/193 228/159 235/161
f 234/193 236/183 228/159
f 238/194 236/183 234/193
f 238/194 239/182 236/183
f 243/195 239/182 238/194
f 243/195 245/196 239/182
f 247/197 245/196 243/195
f 247/197 246/198 245/196
f 244/199 246/198 247/197
f 244/199 234/193 246/198
f 238/194 234/193 244/199
f 244/199 243/195 238/194
f 247/197 243/195 244/199
f 245/196 240/163 239/182
f 245/196 246/198 240/163
f 234/193 240/163 246/198
f 234/193 235/161 240/163
f 237/162 240/163 235/161
f 237/162 257/164 240/163
f 258/180 257/164 237/162
f 260/174 262/172 258/180
f 260/174 261/173 262/172
f 269/175 261/173 260/174
f 261/173 270/171 262/172
f 265/178 266/177 268/176
f 265/178 259/167 266/177
f 255/179 259/167 265/178
f 255/179 233/160 259/167
f 241/165 259/167 233/160
f 241/165 256/166 259/167
f 263/168 259/167 256/166
f 263/168 267/169 259/167
f 264/170 267/169 263/168
f 259/167 267/169 266/177
f 233/160 242/181 241/165
f 233/160 226/104 242/181
f 232/149 226/104 233/160
f 232/149 229/148 226/104
f 230/150 229/148 232/149
f 230/150 231/158 229/148
f 249/152 231/158 230/150
f 249/152 248/157 231/158
f 254/156 248/157 249/152
f 254/156 251/155 248/157
f 253/154 251/155 254/156
f 253/154 252/153 251/155
f 249/152 252/153 253/154
f 249/152 250/151 252/153
f 230/150 250/151 249/152
f 230/150 232/149 250/151
f 251/155 250/151 232/149
f 251/155 252/153 250/151
f 249/152 253/154 254/156
f 233/160 251/155 232/149
f 233/160 248/157 251/155
f 231/158 248/157 233/160
f 233/160 228/159 231/158
f 229/148 231/158 228/159
f 228/159 227/147 229/148
f 226/104 229/148 227/147
f 227/147 219/103 226/104
f 220/146 103/135 93/145
f 220/146 221/137 103/135
f 104/136 103/135 221/137
f 221/137 94/138 104/136
f 223/139 94/138 221/137
f 223/139 69/140 94/138
f 92/141 69/140 223/139
f 223/139 222/186 92/141
f 221/137 222/186 223/139
f 221/137 224/185 222/186
f 225/184 224/185 221/137
f 225/184 219/102 224/185
f 92/141 224/185 219/102
f 92/141 222/186 224/185
f 116/200 99/19 111/74
f 116/200 114/201 99/19
f 96/20 99/19 114/201
f 114/201 113/202 96/20
f 108/73 96/20 113/202
f 113/202 115/203 108/73
f 111/74 108/73 115/203
f 115/203 116/200 111/74
f 160/159 167/193 166/161
f 160/159 168/183 167/193
f 171/194 167/193 168/183
f 171/194 175/199 167/193
f 176/195 175/199 171/194
f 176/195 179/197 175/199
f 177/196 179/197 176/195
f 177/196 178/198 179/197
f 172/163 178/198 177/196
f 172/163 167/193 178/198
f 166/161 167/193 172/163
f 170/182 171/194 168/183
f 170/182 176/195 171/194
f 177/196 176/195 170/182
f 170/182 172/163 177/196
f 175/199 178/198 167/193
f 175/199 179/197 178/198
f 290/204 302/205 289/206
f 290/204 301/207 302/205
f 288/208 301/207 290/204
f 288/208 303/209 301/207
f 294/210 303/209 288/208
f 294/210 299/211 303/209
f 295/212 299/211 294/210
f 295/212 296/213 299/211
f 293/214 296/213 295/212
f 293/214 300/215 296/213
f 292/216 300/215 293/214
f 292/216 302/205 300/215
f 289/206 302/205 292/216
f 292/216 291/217 289/206
f 293/214 291/217 292/216
f 293/214 295/212 291/217
f 294/210 291/217 295/212
f 294/210 287/218 291/217
f 288/208 287/218 294/210
f 291/217 287/218 289/206
f 296/213 298/219 299/211
f 296/213 297/220 298/219
f 300/215 297/220 296/213
f 300/215 302/205 297/220
f 301/207 297/220 302/205
f 301/207 298/219 297/220
f 303/209 298/219 301/207
f 303/209 299/211 298/219
f 306/206 319/205 307/204
f 306/206 309/216 319/205
f 310/217 309/216 306/206
f 310/217 308/214 309/216
f 311/212 308/214 310/217
f 311/212 315/213 308/214
f 316/211 315/213 311/212
f 316/211 313/219 315/213
f 320/209 313/219 316/211
f 320/209 318/207 313/219
f 304/208 318/207 320/209
f 304/208 307/204 318/207
f 319/205 318/207 307/204
f 319/205 314/220 318/207
f 317/215 314/220 319/205
f 317/215 315/213 314/220
f 308/214 315/213 317/215
f 317/215 309/216 308/214
f 319/205 309/216 317/215
f 313/219 314/220 315/213
f 313/219 318/207 314/220
f 305/218 310/217 306/206
f 305/218 312/210 310/217
f 304/208 312/210 305/218
f 304/208 320/209 312/210
f 316/211 312/210 320/209
f 316/211 311/212 312/210
f 310/217 312/210 311/212
f 330/28 321/221 329/222
f 330/28 325/223 321/221
f 326/27 325/223 330/28
f 326/27 324/224 325/223
f 331/225 324/224 326/27
f 331/225 328/26 324/224
f 322/226 324/224 328/26
f 322/226 327/227 324/224
f 321/221 327/227 322/226
f 321/221 325/223 327/227
f 324/224 327/227 325/223
f 323/25 322/226 328/26
f 323/25 321/221 322/226
f 329/222 321/221 323/25
f 334/26 332/227 333/225
f 334/26 336/25 332/227
f 338/222 332/227 336/25
f 338/222 337/28 332/227
f 335/27 332/227 337/28
f 335/27 333/225 332/227
f 341/26 339/227 340/225
f 341/26 343/25 339/227
f 345/222 339/227 343/25
f 345/222 344/28 339/227
f 342/27 339/227 344/28
f 342/27 340/225 339/227
f 347/225 348/227 346/27
f 347/225 349/26 348/227
f 351/25 348/227 349/26
f 351/25 352/222 348/227
f 350/28 348/227 352/222
f 350/28 346/27 348/227
f 354/225 355/227 353/27
f 354/225 356/26 355/227
f 358/25 355/227 356/26
f 358/25 359/222 355/227
f 357/28 355/227 359/222
f 357/28 353/27 355/227
f 369/228 362/229 368/25
f 369/228 360/25 362/229
f 361/230 362/229 360/25
f 361/230 366/213 362/229
f 365/231 366/213 361/230
f 365/231 364/230 366/213
f 363/26 364/230 365/231
f 363/26 368/25 364/230
f 362/229 364/230 368/25
f 362/229 366/213 364/230
f 365/231 370/14 363/26
f 365/231 367/26 370/14
f 361/230 367/26 365/231
f 361/230 360/25 367/26
f 372/26 373/225 371/27
f 372/26 379/224 373/225
f 378/226 379/224 372/26
f 372/26 375/25 378/226
f 377/221 378/226 375/25
f 375/25 376/222 377/221
f 374/28 376/222 375/25
f 374/28 377/221 376/222
f 380/223 377/221 374/28
f 374/28 371/27 380/223
f 379/224 380/223 371/27
f 371/27 373/225 379/224
usemtl mat_1
f 143/232 108/233 136/234
f 143/232 96/235 108/233
f 147/236 96/235 143/232
f 147/236 97/237 96/235
f 147/236 100/238 97/237
usemtl mat_2
f 148/239 149/240 150/241
f 148/239 150/241 136/242
f 108/243 148/239 136/242
usemtl mat_3
f 208/244 206/245 207/246
f 208/244 205/247 206/245
f 215/248 205/247 208/244
f 215/248 213/249 205/247
f 210/250 207/246 209/251
f 210/250 208/244 207/246
f 216/252 208/244 210/250
f 216/252 215/248 208/244
f 271/247 275/246 276/245
f 271/247 274/244 275/246
f 282/249 274/244 271/247
f 282/249 283/248 274/244
f 274/244 278/251 275/246
f 274/244 277/250 278/251
f 283/248 277/250 274/244
f 283/248 284/252 277/250
f 214/253 205/247 213/249
f 214/253 203/254 205/247
f 204/255 205/247 203/254
f 204/255 218/256 205/247
f 206/245 205/247 218/256
f 210/250 217/257 216/252
f 210/250 212/258 217/257
f 211/259 212/258 210/250
f 210/250 209/251 211/259
f 271/247 281/253 282/249
f 271/247 273/254 281/253
f 272/255 273/254 271/247
f 271/247 286/256 272/255
f 276/245 286/256 271/247
f 285/257 277/250 284/252
f 285/257 279/258 277/250
f 280/259 277/250 279/258
f 280/259 278/251 277/250
