xof 0303txt 0032

template AnimTicksPerSecond {
  <9E415A43-7BA6-4a73-8743-B73D47E88476>
  DWORD AnimTicksPerSecond;
}

template XSkinMeshHeader {
  <3cf169ce-ff7c-44ab-93c0-f78f62d172e2>
  WORD nMaxSkinWeightsPerVertex;
  WORD nMaxSkinWeightsPerFace;
  WORD nBones;
}

template SkinWeights {
  <6f0d123b-bad2-4167-a0d0-80224f25fabb>
  STRING transformNodeName;
  DWORD nWeights;
  array DWORD vertexIndices[nWeights];
  array float weights[nWeights];
  Matrix4x4 matrixOffset;
}

Frame Root {
  FrameTransformMatrix {
     1.000000, 0.000000, 0.000000, 0.000000,
     0.000000, 0.000000, 1.000000, 0.000000,
     0.000000, 1.000000,-0.000000, 0.000000,
     0.000000, 0.000000, 0.000000, 1.000000;;
  }
  Frame wakasyamo_mat_0 {
    FrameTransformMatrix {
       1.000000, 0.000000, 0.000000, 0.000000,
       0.000000, 1.000000, 0.000000, 0.000000,
       0.000000, 0.000000, 1.000000, 0.000000,
       0.000000, 0.000000, 0.000000, 1.000000;;
    }
    Mesh { //Mesh Mesh
      48;
       3.463040; 0.072763;-1.069200;,
       0.179934;-0.134776;-0.813021;,
       3.463040;-0.687238; 0.000000;,
       0.179934;-0.134776;-0.813021;,
      -0.064066;-0.722377; 0.000000;,
       3.463040;-0.687238; 0.000000;,
       3.463040; 0.072763; 1.069200;,
       3.463040;-0.687238; 0.000000;,
      -0.064066;-0.722377; 0.000000;,
      -0.064066;-0.722377; 0.000000;,
       0.179934;-0.134776; 0.865021;,
       3.463040; 0.072763; 1.069200;,
       0.179934;-0.134776;-0.813021;,
      -3.051170;-0.795521; 0.000000;,
      -0.064066;-0.722377; 0.000000;,
      -3.051170;-0.795521; 0.000000;,
       0.179934;-0.134776; 0.865021;,
      -0.064066;-0.722377; 0.000000;,
       0.179934;-0.134776; 0.865021;,
      -3.051170;-0.795521; 0.000000;,
      -1.361870; 0.480410; 0.000000;,
      -3.051170;-0.795521; 0.000000;,
       0.179934;-0.134776;-0.813021;,
      -1.361870; 0.480410; 0.000000;,
      -1.361870; 0.480410; 0.000000;,
       0.179934;-0.134776;-0.813021;,
       0.491795; 0.908454; 0.000000;,
       0.179934;-0.134776;-0.813021;,
       3.463040; 0.072763;-1.069200;,
       0.491795; 0.908454; 0.000000;,
       3.463040; 0.948441; 0.000000;,
       0.491795; 0.908454; 0.000000;,
       3.463040; 0.072763;-1.069200;,
       3.463040; 0.072763;-1.069200;,
       3.463040;-0.687238; 0.000000;,
       3.463040; 0.948441; 0.000000;,
       3.463040; 0.948441; 0.000000;,
       3.463040;-0.687238; 0.000000;,
       3.463040; 0.072763; 1.069200;,
       3.463040; 0.072763; 1.069200;,
       0.491795; 0.908454; 0.000000;,
       3.463040; 0.948441; 0.000000;,
       0.179934;-0.134776; 0.865021;,
       0.491795; 0.908454; 0.000000;,
       3.463040; 0.072763; 1.069200;,
       0.179934;-0.134776; 0.865021;,
      -1.361870; 0.480410; 0.000000;,
       0.491795; 0.908454; 0.000000;;
      16;
      3;0;1;2;,
      3;3;4;5;,
      3;6;7;8;,
      3;9;10;11;,
      3;12;13;14;,
      3;15;16;17;,
      3;18;19;20;,
      3;21;22;23;,
      3;24;25;26;,
      3;27;28;29;,
      3;30;31;32;,
      3;33;34;35;,
      3;36;37;38;,
      3;39;40;41;,
      3;42;43;44;,
      3;45;46;47;;
      MeshNormals { //Mesh Normals
        48;
        -0.553087; 0.023011; 0.832789;,
         0.107334; 0.122410; 0.986633;,
        -0.600452; 0.799646; 0.000427;,
         0.107334; 0.122410; 0.986633;,
        -0.020142; 0.999695; 0.013581;,
        -0.600452; 0.799646; 0.000427;,
        -0.555437; 0.022492;-0.831233;,
        -0.600452; 0.799646; 0.000427;,
        -0.020142; 0.999695; 0.013581;,
        -0.020142; 0.999695; 0.013581;,
         0.105716; 0.122044;-0.986847;,
        -0.555437; 0.022492;-0.831233;,
         0.107334; 0.122410; 0.986633;,
         0.957366; 0.288736; 0.005036;,
        -0.020142; 0.999695; 0.013581;,
         0.957366; 0.288736; 0.005036;,
         0.105716; 0.122044;-0.986847;,
        -0.020142; 0.999695; 0.013581;,
         0.105716; 0.122044;-0.986847;,
         0.957366; 0.288736; 0.005036;,
         0.490310;-0.871426; 0.012909;,
         0.957366; 0.288736; 0.005036;,
         0.107334; 0.122410; 0.986633;,
         0.490310;-0.871426; 0.012909;,
         0.490310;-0.871426; 0.012909;,
         0.107334; 0.122410; 0.986633;,
         0.154210;-0.987945; 0.011322;,
         0.107334; 0.122410; 0.986633;,
        -0.553087; 0.023011; 0.832789;,
         0.154210;-0.987945; 0.011322;,
        -0.583453;-0.812128;-0.000000;,
         0.154210;-0.987945; 0.011322;,
        -0.553087; 0.023011; 0.832789;,
        -0.553087; 0.023011; 0.832789;,
        -0.600452; 0.799646; 0.000427;,
        -0.583453;-0.812128;-0.000000;,
        -0.583453;-0.812128;-0.000000;,
        -0.600452; 0.799646; 0.000427;,
        -0.555437; 0.022492;-0.831233;,
        -0.555437; 0.022492;-0.831233;,
         0.154210;-0.987945; 0.011322;,
        -0.583453;-0.812128;-0.000000;,
         0.105716; 0.122044;-0.986847;,
         0.154210;-0.987945; 0.011322;,
        -0.555437; 0.022492;-0.831233;,
         0.105716; 0.122044;-0.986847;,
         0.490310;-0.871426; 0.012909;,
         0.154210;-0.987945; 0.011322;;
        16;
        3;0;1;2;,
        3;3;4;5;,
        3;6;7;8;,
        3;9;10;11;,
        3;12;13;14;,
        3;15;16;17;,
        3;18;19;20;,
        3;21;22;23;,
        3;24;25;26;,
        3;27;28;29;,
        3;30;31;32;,
        3;33;34;35;,
        3;36;37;38;,
        3;39;40;41;,
        3;42;43;44;,
        3;45;46;47;;
      } //End of Mesh Normals
      MeshMaterialList { //Mesh Material List
        1;
        16;
        0,
        0,
        0,
        0,
        0,
        0,
        0,
        0,
        0,
        0,
        0,
        0,
        0,
        0,
        0,
        0;;
        Material mat_0 {
           0.640000; 0.640000; 0.640000; 1.000000;;
           92.156863;
           0.250000; 0.250000; 0.250000;;
           0.000000; 0.000000; 0.000000;;
          TextureFilename {"Textures/wakasyamo_0_0.tga";}
        }
      } //End of Mesh Material List
      MeshTextureCoords { //Mesh UV Coordinates
        48;
         0.891983; 0.563991;,
         0.861593; 0.841721;,
         0.531191; 0.546865;,
         0.861593; 0.841721;,
         0.526056; 0.825794;,
         0.531191; 0.546865;,
         0.170399; 0.529739;,
         0.531191; 0.546865;,
         0.526056; 0.825794;,
         0.526056; 0.825794;,
         0.190520; 0.809867;,
         0.170399; 0.529739;,
         0.861593; 0.841721;,
         0.523465; 0.966539;,
         0.526056; 0.825794;,
         0.523465; 0.966539;,
         0.190520; 0.809867;,
         0.526056; 0.825794;,
         0.190520; 0.809867;,
         0.523465; 0.966539;,
         0.525041; 0.880952;,
         0.523465; 0.966539;,
         0.861593; 0.841721;,
         0.525041; 0.880952;,
         0.525041; 0.880952;,
         0.861593; 0.841721;,
         0.527846; 0.728579;,
         0.861593; 0.841721;,
         0.891983; 0.563991;,
         0.527846; 0.728579;,
         0.527846; 0.728579;,
         0.891983; 0.563991;,
         0.531191; 0.546865;,
         0.891983; 0.563991;,
         0.531191; 0.546865;,
         0.531191; 0.546865;,
         0.531191; 0.546865;,
         0.531191; 0.546865;,
         0.170399; 0.529739;,
         0.170399; 0.529739;,
         0.527846; 0.728579;,
         0.531191; 0.546865;,
         0.527846; 0.728579;,
         0.170399; 0.529739;,
         0.190520; 0.809867;,
         0.190520; 0.809867;,
         0.525041; 0.880952;,
         0.527846; 0.728579;;
      } //End of Mesh UV Coordinates
    } //End of Mesh Mesh
  } //End of wakasyamo_mat_0
} //End of Root Frame
