# Blender v2.66 (sub 1) OBJ File: 'BR_Combusken-Shiny03.blend'
# www.blender.org
mtllib BR_Combusken-Shiny03.mtl
o wakasyamo_f_c
v 0.491795 0.000000 -0.908454
v -1.361870 0.000000 -0.480410
v 0.179934 0.865021 0.134776
v -3.051170 0.000000 0.795521
v -0.064066 0.000000 0.722377
v 0.179934 -0.813021 0.134776
v 3.463040 -1.069200 -0.072763
v 3.463040 0.000000 0.687238
v 3.463040 0.000000 -0.948441
v 3.463040 1.069200 -0.072763
vt 0.531191 0.453135
vt 0.861593 0.158279
vt 0.891983 0.436009
vt 0.526056 0.174206
vt 0.170399 0.470261
vt 0.190520 0.190133
vt 0.523465 0.033461
vt 0.525041 0.119048
vt 0.527846 0.271421
usemtl mat_0
s 1
f 8/1 6/2 7/3
f 8/1 5/4 6/2
f 10/5 5/4 8/1
f 10/5 3/6 5/4
f 5/4 4/7 6/2
f 5/4 3/6 4/7
f 2/8 4/7 3/6
f 2/8 6/2 4/7
f 1/9 6/2 2/8
f 1/9 7/3 6/2
f 7/1 1/3 9/9
f 9/1 8/1 7/3
f 10/5 8/1 9/1
f 9/1 1/9 10/5
f 10/6 1/5 3/9
f 1/9 2/8 3/6
