# Blender MTL File: 'BR_Combusken-Shiny03.blend'
# Material Count: 1

newmtl mat_0
Ns 96.078431
Ka 0.000000 0.000000 0.000000
Kd 0.800000 0.800000 0.800000
Ks 0.500000 0.500000 0.500000
Ni 1.000000
d 1.000000
illum 2
map_Kd Textures\wakasyamo_f_c_3_0.tga
map_d Textures\wakasyamo_f_c_3_0.tga
