xof 0303txt 0032

template AnimTicksPerSecond {
  <9E415A43-7BA6-4a73-8743-B73D47E88476>
  DWORD AnimTicksPerSecond;
}

template XSkinMeshHeader {
  <3cf169ce-ff7c-44ab-93c0-f78f62d172e2>
  WORD nMaxSkinWeightsPerVertex;
  WORD nMaxSkinWeightsPerFace;
  WORD nBones;
}

template SkinWeights {
  <6f0d123b-bad2-4167-a0d0-80224f25fabb>
  STRING transformNodeName;
  DWORD nWeights;
  array DWORD vertexIndices[nWeights];
  array float weights[nWeights];
  Matrix4x4 matrixOffset;
}

Frame Root {
  FrameTransformMatrix {
     1.000000, 0.000000, 0.000000, 0.000000,
     0.000000, 0.000000, 1.000000, 0.000000,
     0.000000, 1.000000,-0.000000, 0.000000,
     0.000000, 0.000000, 0.000000, 1.000000;;
  }
  Frame suikun_mat_0 {
    FrameTransformMatrix {
       1.000000, 0.000000, 0.000000, 0.000000,
       0.000000, 1.000000, 0.000000, 0.000000,
       0.000000, 0.000000, 1.000000, 0.000000,
       0.000000, 0.000000, 0.000000, 1.000000;;
    }
    Mesh { //Mesh Mesh
      324;
      -0.430484; 0.859418;-0.806568;,
       0.426906; 0.860734;-0.807278;,
      -0.450799; 0.404216;-0.319923;,
       0.426906; 0.860734;-0.807278;,
       0.449201; 0.405594;-0.320673;,
      -0.450799; 0.404216;-0.319923;,
      -0.298991;-0.000346; 0.000189;,
      -0.450799; 0.404216;-0.319923;,
       0.449201; 0.405594;-0.320673;,
      -0.298991;-0.000346; 0.000189;,
       0.449201; 0.405594;-0.320673;,
       0.298991; 0.000346;-0.000188;,
      -0.430484; 0.859418;-0.806568;,
      -0.382138; 1.296880;-1.362180;,
       0.377210; 1.298260;-1.362930;,
      -0.430484; 0.859418;-0.806568;,
       0.377210; 1.298260;-1.362930;,
       0.426906; 0.860734;-0.807278;,
       2.795660; 0.515822;-3.698130;,
       2.462720; 0.876091;-3.923860;,
       1.139200; 0.793626;-2.311270;,
       2.795660; 0.515822;-3.698130;,
       1.139200; 0.793626;-2.311270;,
       0.989634;-0.007446;-1.312570;,
      -0.991906;-0.010546;-1.310890;,
      -1.145060; 0.790124;-2.309360;,
      -2.471500; 0.868528;-3.919770;,
      -0.991906;-0.010546;-1.310890;,
      -2.471500; 0.868528;-3.919770;,
      -2.802960; 0.507242;-3.693490;,
       0.549339; 0.565643;-4.697810;,
       0.696075; 0.294443;-7.141750;,
       1.153760; 1.094880;-7.332850;,
      -0.557581; 0.563947;-4.696890;,
      -0.707831; 0.292290;-7.140590;,
      -1.165710;-0.475514;-7.219310;,
       2.071610; 1.076920;-7.603430;,
      -0.009434; 0.595123;-10.424200;,
      -0.008742;-0.244712;-11.126500;,
      -0.001446;-0.357201;-2.643550;,
      -0.000070;-0.219722;-0.728368;,
       1.880650;-0.182958;-4.270030;,
       1.153760; 1.094880;-7.332850;,
       0.991458; 1.352670;-4.629620;,
       0.549339; 0.565643;-4.697810;,
       0.549339; 0.565643;-4.697810;,
       0.993934;-0.202168;-4.518010;,
       1.156240;-0.471955;-7.221240;,
       0.549339; 0.565643;-4.697810;,
       0.991458; 1.352670;-4.629620;,
      -0.003920; 1.413640;-2.487160;,
       0.989634;-0.007446;-1.312570;,
       2.322770; 0.604069;-4.201850;,
       1.880650;-0.182958;-4.270030;,
       2.322770; 0.604069;-4.201850;,
       0.989634;-0.007446;-1.312570;,
       1.139200; 0.793626;-2.311270;,
       1.878180; 1.407880;-4.381650;,
       0.991458; 1.352670;-4.629620;,
       1.153760; 1.094880;-7.332850;,
      -0.006959;-0.923714;-10.312600;,
      -0.005869;-0.718877;-8.796430;,
       1.156240;-0.471955;-7.221240;,
       0.989634;-0.007446;-1.312570;,
       0.298991; 0.000346;-0.000188;,
       0.449201; 0.405594;-0.320673;,
       1.139200; 0.793626;-2.311270;,
       1.878180; 1.407880;-4.381650;,
       2.322770; 0.604069;-4.201850;,
       1.880650;-0.182958;-4.270030;,
       2.322770; 0.604069;-4.201850;,
       2.074090;-0.489915;-7.491820;,
       2.795660; 0.515822;-3.698130;,
       0.989634;-0.007446;-1.312570;,
       0.449201; 0.405594;-0.320673;,
       2.829160; 0.779356;-3.649880;,
       2.662690; 0.959489;-3.762760;,
       2.462720; 0.876091;-3.923860;,
      -0.382138; 1.296880;-1.362180;,
      -0.003920; 1.413640;-2.487160;,
       0.377210; 1.298260;-1.362930;,
      -0.298991;-0.000346; 0.000189;,
       0.298991; 0.000346;-0.000188;,
      -0.000070;-0.219722;-0.728368;,
      -1.885880;-0.188731;-4.266910;,
      -2.330300; 0.596937;-4.197990;,
      -0.991906;-0.010546;-1.310890;,
      -1.145060; 0.790124;-2.309360;,
      -0.991906;-0.010546;-1.310890;,
      -2.330300; 0.596937;-4.197990;,
      -1.165710;-0.475514;-7.219310;,
      -0.005869;-0.718877;-8.796430;,
      -0.006959;-0.923714;-10.312600;,
      -0.991906;-0.010546;-1.310890;,
      -0.450799; 0.404216;-0.319923;,
      -0.298991;-0.000346; 0.000189;,
      -2.330300; 0.596937;-4.197990;,
      -1.888360; 1.402100;-4.378520;,
      -1.145060; 0.790124;-2.309360;,
      -2.083950;-0.496290;-7.488370;,
      -2.330300; 0.596937;-4.197990;,
      -1.885880;-0.188731;-4.266910;,
      -2.802960; 0.507242;-3.693490;,
      -0.450799; 0.404216;-0.319923;,
      -0.991906;-0.010546;-1.310890;,
      -2.471500; 0.868528;-3.919770;,
      -2.671460; 0.951313;-3.758330;,
      -2.837190; 0.770668;-3.645190;,
      -0.006959;-0.923714;-10.312600;,
       1.156240;-0.471955;-7.221240;,
       2.074090;-0.489915;-7.491820;,
       1.156240;-0.471955;-7.221240;,
       1.880650;-0.182958;-4.270030;,
       2.074090;-0.489915;-7.491820;,
       1.880650;-0.182958;-4.270030;,
       1.156240;-0.471955;-7.221240;,
       0.993934;-0.202168;-4.518010;,
       0.993934;-0.202168;-4.518010;,
      -0.001446;-0.357201;-2.643550;,
       1.880650;-0.182958;-4.270030;,
      -0.001446;-0.357201;-2.643550;,
       0.993934;-0.202168;-4.518010;,
       0.549339; 0.565643;-4.697810;,
       0.549339; 0.565643;-4.697810;,
      -0.003372; 0.411478;-3.472970;,
      -0.001446;-0.357201;-2.643550;,
      -0.001446;-0.357201;-2.643550;,
      -0.003372; 0.411478;-3.472970;,
      -0.557581; 0.563947;-4.696890;,
      -0.003920; 1.413640;-2.487160;,
      -0.003372; 0.411478;-3.472970;,
       0.549339; 0.565643;-4.697810;,
      -0.003372; 0.411478;-3.472970;,
      -0.003920; 1.413640;-2.487160;,
      -0.557581; 0.563947;-4.696890;,
      -0.003920; 1.413640;-2.487160;,
      -1.002000; 1.349610;-4.627970;,
      -0.557581; 0.563947;-4.696890;,
      -1.002000; 1.349610;-4.627970;,
      -0.003920; 1.413640;-2.487160;,
      -1.888360; 1.402100;-4.378520;,
      -0.003920; 1.413640;-2.487160;,
      -0.382138; 1.296880;-1.362180;,
      -1.888360; 1.402100;-4.378520;,
      -1.888360; 1.402100;-4.378520;,
      -0.382138; 1.296880;-1.362180;,
      -1.145060; 0.790124;-2.309360;,
      -0.382138; 1.296880;-1.362180;,
      -0.430484; 0.859418;-0.806568;,
      -1.145060; 0.790124;-2.309360;,
       0.549339; 0.565643;-4.697810;,
       1.156240;-0.471955;-7.221240;,
       0.696075; 0.294443;-7.141750;,
       1.156240;-0.471955;-7.221240;,
      -0.006562; 0.200958;-8.094160;,
       0.696075; 0.294443;-7.141750;,
      -0.006562; 0.200958;-8.094160;,
       1.156240;-0.471955;-7.221240;,
      -0.005869;-0.718877;-8.796430;,
      -0.557581; 0.563947;-4.696890;,
      -1.168190; 1.091320;-7.330920;,
      -0.707831; 0.292290;-7.140590;,
      -1.168190; 1.091320;-7.330920;,
      -0.006562; 0.200958;-8.094160;,
      -0.707831; 0.292290;-7.140590;,
      -0.006562; 0.200958;-8.094160;,
      -1.168190; 1.091320;-7.330920;,
      -0.008344; 0.835958;-8.908040;,
      -1.168190; 1.091320;-7.330920;,
      -0.009434; 0.595123;-10.424200;,
      -0.008344; 0.835958;-8.908040;,
      -0.009434; 0.595123;-10.424200;,
      -1.168190; 1.091320;-7.330920;,
      -2.086430; 1.070540;-7.599980;,
      -1.168190; 1.091320;-7.330920;,
      -1.888360; 1.402100;-4.378520;,
      -2.086430; 1.070540;-7.599980;,
      -2.086430; 1.070540;-7.599980;,
      -1.888360; 1.402100;-4.378520;,
      -2.330300; 0.596937;-4.197990;,
      -2.330300; 0.596937;-4.197990;,
      -2.544310; 0.250739;-7.678700;,
      -2.086430; 1.070540;-7.599980;,
      -2.544310; 0.250739;-7.678700;,
      -2.330300; 0.596937;-4.197990;,
      -2.083950;-0.496290;-7.488370;,
      -2.083950;-0.496290;-7.488370;,
      -0.008742;-0.244712;-11.126500;,
      -2.544310; 0.250739;-7.678700;,
      -0.008742;-0.244712;-11.126500;,
      -2.083950;-0.496290;-7.488370;,
      -0.006959;-0.923714;-10.312600;,
      -2.083950;-0.496290;-7.488370;,
      -1.165710;-0.475514;-7.219310;,
      -0.006959;-0.923714;-10.312600;,
      -1.165710;-0.475514;-7.219310;,
      -2.083950;-0.496290;-7.488370;,
      -1.885880;-0.188731;-4.266910;,
      -1.885880;-0.188731;-4.266910;,
      -0.999522;-0.205224;-4.516360;,
      -1.165710;-0.475514;-7.219310;,
      -1.165710;-0.475514;-7.219310;,
      -0.999522;-0.205224;-4.516360;,
      -0.557581; 0.563947;-4.696890;,
      -0.999522;-0.205224;-4.516360;,
      -0.001446;-0.357201;-2.643550;,
      -0.557581; 0.563947;-4.696890;,
      -0.001446;-0.357201;-2.643550;,
      -0.999522;-0.205224;-4.516360;,
      -1.885880;-0.188731;-4.266910;,
      -0.008742;-0.244712;-11.126500;,
      -0.006959;-0.923714;-10.312600;,
       2.074090;-0.489915;-7.491820;,
      -2.544310; 0.250739;-7.678700;,
      -0.008742;-0.244712;-11.126500;,
      -2.086430; 1.070540;-7.599980;,
      -0.008742;-0.244712;-11.126500;,
      -0.009434; 0.595123;-10.424200;,
      -2.086430; 1.070540;-7.599980;,
       0.298991; 0.000346;-0.000188;,
       0.989634;-0.007446;-1.312570;,
      -0.000070;-0.219722;-0.728368;,
       0.989634;-0.007446;-1.312570;,
       1.880650;-0.182958;-4.270030;,
      -0.000070;-0.219722;-0.728368;,
       1.878180; 1.407880;-4.381650;,
       1.139200; 0.793626;-2.311270;,
       0.377210; 1.298260;-1.362930;,
       1.139200; 0.793626;-2.311270;,
       0.426906; 0.860734;-0.807278;,
       0.377210; 1.298260;-1.362930;,
       2.795660; 0.515822;-3.698130;,
       0.449201; 0.405594;-0.320673;,
       2.829160; 0.779356;-3.649880;,
       2.829160; 0.779356;-3.649880;,
       2.462720; 0.876091;-3.923860;,
       2.795660; 0.515822;-3.698130;,
       0.991458; 1.352670;-4.629620;,
       1.878180; 1.407880;-4.381650;,
      -0.003920; 1.413640;-2.487160;,
       1.878180; 1.407880;-4.381650;,
       0.377210; 1.298260;-1.362930;,
      -0.003920; 1.413640;-2.487160;,
       2.829160; 0.779356;-3.649880;,
       0.449201; 0.405594;-0.320673;,
       0.426906; 0.860734;-0.807278;,
       0.426906; 0.860734;-0.807278;,
       2.662690; 0.959489;-3.762760;,
       2.829160; 0.779356;-3.649880;,
       2.662690; 0.959489;-3.762760;,
       0.426906; 0.860734;-0.807278;,
       1.139200; 0.793626;-2.311270;,
       1.139200; 0.793626;-2.311270;,
       2.462720; 0.876091;-3.923860;,
       2.662690; 0.959489;-3.762760;,
       0.696075; 0.294443;-7.141750;,
      -0.006562; 0.200958;-8.094160;,
       1.153760; 1.094880;-7.332850;,
      -0.006562; 0.200958;-8.094160;,
      -0.008344; 0.835958;-8.908040;,
       1.153760; 1.094880;-7.332850;,
       1.153760; 1.094880;-7.332850;,
      -0.008344; 0.835958;-8.908040;,
      -0.009434; 0.595123;-10.424200;,
      -0.009434; 0.595123;-10.424200;,
       2.071610; 1.076920;-7.603430;,
       1.153760; 1.094880;-7.332850;,
       1.153760; 1.094880;-7.332850;,
       2.071610; 1.076920;-7.603430;,
       1.878180; 1.407880;-4.381650;,
       2.071610; 1.076920;-7.603430;,
       2.322770; 0.604069;-4.201850;,
       1.878180; 1.407880;-4.381650;,
       2.322770; 0.604069;-4.201850;,
       2.071610; 1.076920;-7.603430;,
       2.531780; 0.258522;-7.682910;,
       2.071610; 1.076920;-7.603430;,
      -0.008742;-0.244712;-11.126500;,
       2.531780; 0.258522;-7.682910;,
       2.531780; 0.258522;-7.682910;,
      -0.008742;-0.244712;-11.126500;,
       2.074090;-0.489915;-7.491820;,
       2.074090;-0.489915;-7.491820;,
       2.322770; 0.604069;-4.201850;,
       2.531780; 0.258522;-7.682910;,
      -0.001446;-0.357201;-2.643550;,
      -1.885880;-0.188731;-4.266910;,
      -0.000070;-0.219722;-0.728368;,
      -1.885880;-0.188731;-4.266910;,
      -0.991906;-0.010546;-1.310890;,
      -0.000070;-0.219722;-0.728368;,
      -0.000070;-0.219722;-0.728368;,
      -0.991906;-0.010546;-1.310890;,
      -0.298991;-0.000346; 0.000189;,
      -2.837190; 0.770668;-3.645190;,
      -0.450799; 0.404216;-0.319923;,
      -2.802960; 0.507242;-3.693490;,
      -2.802960; 0.507242;-3.693490;,
      -2.471500; 0.868528;-3.919770;,
      -2.837190; 0.770668;-3.645190;,
      -0.557581; 0.563947;-4.696890;,
      -1.002000; 1.349610;-4.627970;,
      -1.168190; 1.091320;-7.330920;,
      -1.002000; 1.349610;-4.627970;,
      -1.888360; 1.402100;-4.378520;,
      -1.168190; 1.091320;-7.330920;,
      -0.430484; 0.859418;-0.806568;,
      -0.450799; 0.404216;-0.319923;,
      -2.837190; 0.770668;-3.645190;,
      -2.837190; 0.770668;-3.645190;,
      -2.671460; 0.951313;-3.758330;,
      -0.430484; 0.859418;-0.806568;,
      -0.430484; 0.859418;-0.806568;,
      -2.671460; 0.951313;-3.758330;,
      -1.145060; 0.790124;-2.309360;,
      -2.671460; 0.951313;-3.758330;,
      -2.471500; 0.868528;-3.919770;,
      -1.145060; 0.790124;-2.309360;,
      -0.707831; 0.292290;-7.140590;,
      -0.006562; 0.200958;-8.094160;,
      -1.165710;-0.475514;-7.219310;,
      -0.006562; 0.200958;-8.094160;,
      -0.005869;-0.718877;-8.796430;,
      -1.165710;-0.475514;-7.219310;;
      108;
      3;0;1;2;,
      3;3;4;5;,
      3;6;7;8;,
      3;9;10;11;,
      3;12;13;14;,
      3;15;16;17;,
      3;18;19;20;,
      3;21;22;23;,
      3;24;25;26;,
      3;27;28;29;,
      3;30;31;32;,
      3;33;34;35;,
      3;36;37;38;,
      3;39;40;41;,
      3;42;43;44;,
      3;45;46;47;,
      3;48;49;50;,
      3;51;52;53;,
      3;54;55;56;,
      3;57;58;59;,
      3;60;61;62;,
      3;63;64;65;,
      3;66;67;68;,
      3;69;70;71;,
      3;72;73;74;,
      3;75;76;77;,
      3;78;79;80;,
      3;81;82;83;,
      3;84;85;86;,
      3;87;88;89;,
      3;90;91;92;,
      3;93;94;95;,
      3;96;97;98;,
      3;99;100;101;,
      3;102;103;104;,
      3;105;106;107;,
      3;108;109;110;,
      3;111;112;113;,
      3;114;115;116;,
      3;117;118;119;,
      3;120;121;122;,
      3;123;124;125;,
      3;126;127;128;,
      3;129;130;131;,
      3;132;133;134;,
      3;135;136;137;,
      3;138;139;140;,
      3;141;142;143;,
      3;144;145;146;,
      3;147;148;149;,
      3;150;151;152;,
      3;153;154;155;,
      3;156;157;158;,
      3;159;160;161;,
      3;162;163;164;,
      3;165;166;167;,
      3;168;169;170;,
      3;171;172;173;,
      3;174;175;176;,
      3;177;178;179;,
      3;180;181;182;,
      3;183;184;185;,
      3;186;187;188;,
      3;189;190;191;,
      3;192;193;194;,
      3;195;196;197;,
      3;198;199;200;,
      3;201;202;203;,
      3;204;205;206;,
      3;207;208;209;,
      3;210;211;212;,
      3;213;214;215;,
      3;216;217;218;,
      3;219;220;221;,
      3;222;223;224;,
      3;225;226;227;,
      3;228;229;230;,
      3;231;232;233;,
      3;234;235;236;,
      3;237;238;239;,
      3;240;241;242;,
      3;243;244;245;,
      3;246;247;248;,
      3;249;250;251;,
      3;252;253;254;,
      3;255;256;257;,
      3;258;259;260;,
      3;261;262;263;,
      3;264;265;266;,
      3;267;268;269;,
      3;270;271;272;,
      3;273;274;275;,
      3;276;277;278;,
      3;279;280;281;,
      3;282;283;284;,
      3;285;286;287;,
      3;288;289;290;,
      3;291;292;293;,
      3;294;295;296;,
      3;297;298;299;,
      3;300;301;302;,
      3;303;304;305;,
      3;306;307;308;,
      3;309;310;311;,
      3;312;313;314;,
      3;315;316;317;,
      3;318;319;320;,
      3;321;322;323;;
      MeshNormals { //Mesh Normals
        324;
         0.341075;-0.735923;-0.584826;,
        -0.339854;-0.736808;-0.584460;,
         0.515397;-0.467483;-0.718192;,
        -0.339854;-0.736808;-0.584460;,
        -0.515244;-0.468856;-0.717399;,
         0.515397;-0.467483;-0.718192;,
         0.380932; 0.302164;-0.873806;,
         0.515397;-0.467483;-0.718192;,
        -0.515244;-0.468856;-0.717399;,
         0.380932; 0.302164;-0.873806;,
        -0.515244;-0.468856;-0.717399;,
        -0.383068; 0.301309;-0.873165;,
         0.341075;-0.735923;-0.584826;,
         0.358562;-0.849818;-0.386303;,
        -0.356945;-0.850673;-0.385876;,
         0.341075;-0.735923;-0.584826;,
        -0.356945;-0.850673;-0.385876;,
        -0.339854;-0.736808;-0.584460;,
        -0.576098; 0.738945; 0.349284;,
         0.300546;-0.198981; 0.932768;,
         0.565203; 0.612690; 0.552355;,
        -0.576098; 0.738945; 0.349284;,
         0.565203; 0.612690; 0.552355;,
         0.571886; 0.595965; 0.563677;,
        -0.586169; 0.606708; 0.536882;,
        -0.627003; 0.557970; 0.543596;,
        -0.273904;-0.217322; 0.936857;,
        -0.586169; 0.606708; 0.536882;,
        -0.273904;-0.217322; 0.936857;,
         0.596149; 0.721152; 0.352824;,
         0.965178;-0.008087; 0.261391;,
         0.958495; 0.001556;-0.285043;,
         0.398724;-0.917051; 0.003998;,
        -0.964751;-0.011048; 0.262825;,
        -0.958983;-0.001312;-0.283364;,
        -0.372478; 0.901456;-0.220435;,
        -0.530198;-0.809351; 0.252571;,
         0.001770;-0.775628; 0.631153;,
         0.000732; 0.105777; 0.994385;,
        -0.001434; 0.997711; 0.067354;,
        -0.001648; 0.986236;-0.165288;,
        -0.539842; 0.830683;-0.135899;,
         0.398724;-0.917051; 0.003998;,
         0.452956;-0.874996; 0.170751;,
         0.965178;-0.008087; 0.261391;,
         0.965178;-0.008087; 0.261391;,
         0.418683; 0.901578; 0.108737;,
         0.369335; 0.902585;-0.221076;,
         0.965178;-0.008087; 0.261391;,
         0.452956;-0.874996; 0.170751;,
         0.001648;-0.998840; 0.047578;,
        -0.688101; 0.596912;-0.412488;,
        -0.968871;-0.046724;-0.243019;,
        -0.539842; 0.830683;-0.135899;,
        -0.968871;-0.046724;-0.243019;,
        -0.688101; 0.596912;-0.412488;,
        -0.549852;-0.785333;-0.284341;,
        -0.510636;-0.853938;-0.099979;,
         0.452956;-0.874996; 0.170751;,
         0.398724;-0.917051; 0.003998;,
        -0.000946; 0.897397; 0.441176;,
        -0.001709; 0.956847;-0.290475;,
         0.369335; 0.902585;-0.221076;,
        -0.688101; 0.596912;-0.412488;,
        -0.383068; 0.301309;-0.873165;,
        -0.515244;-0.468856;-0.717399;,
        -0.549852;-0.785333;-0.284341;,
        -0.510636;-0.853938;-0.099979;,
        -0.968871;-0.046724;-0.243019;,
        -0.539842; 0.830683;-0.135899;,
        -0.968871;-0.046724;-0.243019;,
        -0.547472; 0.834132; 0.066591;,
        -0.576098; 0.738945; 0.349284;,
        -0.688101; 0.596912;-0.412488;,
        -0.515244;-0.468856;-0.717399;,
        -0.958373;-0.283944; 0.029298;,
        -0.477645;-0.803552; 0.355144;,
         0.300546;-0.198981; 0.932768;,
         0.358562;-0.849818;-0.386303;,
         0.001648;-0.998840; 0.047578;,
        -0.356945;-0.850673;-0.385876;,
         0.380932; 0.302164;-0.873806;,
        -0.383068; 0.301309;-0.873165;,
        -0.001648; 0.986236;-0.165288;,
         0.537034; 0.832392;-0.136662;,
         0.968657;-0.043794;-0.244484;,
         0.685720; 0.598865;-0.413648;,
         0.551439;-0.783990;-0.284951;,
         0.685720; 0.598865;-0.413648;,
         0.968657;-0.043794;-0.244484;,
        -0.372478; 0.901456;-0.220435;,
        -0.001709; 0.956847;-0.290475;,
        -0.000946; 0.897397; 0.441176;,
         0.685720; 0.598865;-0.413648;,
         0.515397;-0.467483;-0.718192;,
         0.380932; 0.302164;-0.873806;,
         0.968657;-0.043794;-0.244484;,
         0.513016;-0.852412;-0.100742;,
         0.551439;-0.783990;-0.284951;,
         0.545000; 0.835841; 0.065615;,
         0.968657;-0.043794;-0.244484;,
         0.537034; 0.832392;-0.136662;,
         0.596149; 0.721152; 0.352824;,
         0.515397;-0.467483;-0.718192;,
         0.685720; 0.598865;-0.413648;,
        -0.273904;-0.217322; 0.936857;,
         0.480667;-0.802087; 0.354320;,
         0.959288;-0.280984; 0.027741;,
        -0.000946; 0.897397; 0.441176;,
         0.369335; 0.902585;-0.221076;,
        -0.547472; 0.834132; 0.066591;,
         0.369335; 0.902585;-0.221076;,
        -0.539842; 0.830683;-0.135899;,
        -0.547472; 0.834132; 0.066591;,
        -0.539842; 0.830683;-0.135899;,
         0.369335; 0.902585;-0.221076;,
         0.418683; 0.901578; 0.108737;,
         0.418683; 0.901578; 0.108737;,
        -0.001434; 0.997711; 0.067354;,
        -0.539842; 0.830683;-0.135899;,
        -0.001434; 0.997711; 0.067354;,
         0.418683; 0.901578; 0.108737;,
         0.965178;-0.008087; 0.261391;,
         0.965178;-0.008087; 0.261391;,
        -0.000305; 0.185766; 0.982574;,
        -0.001434; 0.997711; 0.067354;,
        -0.001434; 0.997711; 0.067354;,
        -0.000305; 0.185766; 0.982574;,
        -0.964751;-0.011048; 0.262825;,
         0.001648;-0.998840; 0.047578;,
        -0.000305; 0.185766; 0.982574;,
         0.965178;-0.008087; 0.261391;,
        -0.000305; 0.185766; 0.982574;,
         0.001648;-0.998840; 0.047578;,
        -0.964751;-0.011048; 0.262825;,
         0.001648;-0.998840; 0.047578;,
        -0.450026;-0.876370; 0.171484;,
        -0.964751;-0.011048; 0.262825;,
        -0.450026;-0.876370; 0.171484;,
         0.001648;-0.998840; 0.047578;,
         0.513016;-0.852412;-0.100742;,
         0.001648;-0.998840; 0.047578;,
         0.358562;-0.849818;-0.386303;,
         0.513016;-0.852412;-0.100742;,
         0.513016;-0.852412;-0.100742;,
         0.358562;-0.849818;-0.386303;,
         0.551439;-0.783990;-0.284951;,
         0.358562;-0.849818;-0.386303;,
         0.341075;-0.735923;-0.584826;,
         0.551439;-0.783990;-0.284951;,
         0.965178;-0.008087; 0.261391;,
         0.369335; 0.902585;-0.221076;,
         0.958495; 0.001556;-0.285043;,
         0.369335; 0.902585;-0.221076;,
        -0.000641;-0.106021;-0.994354;,
         0.958495; 0.001556;-0.285043;,
        -0.000641;-0.106021;-0.994354;,
         0.369335; 0.902585;-0.221076;,
        -0.001709; 0.956847;-0.290475;,
        -0.964751;-0.011048; 0.262825;,
        -0.395917;-0.918241; 0.004700;,
        -0.958983;-0.001312;-0.283364;,
        -0.395917;-0.918241; 0.004700;,
        -0.000641;-0.106021;-0.994354;,
        -0.958983;-0.001312;-0.283364;,
        -0.000641;-0.106021;-0.994354;,
        -0.395917;-0.918241; 0.004700;,
         0.001495;-0.999908;-0.011200;,
        -0.395917;-0.918241; 0.004700;,
         0.001770;-0.775628; 0.631153;,
         0.001495;-0.999908;-0.011200;,
         0.001770;-0.775628; 0.631153;,
        -0.395917;-0.918241; 0.004700;,
         0.533067;-0.807764; 0.251625;,
        -0.395917;-0.918241; 0.004700;,
         0.513016;-0.852412;-0.100742;,
         0.533067;-0.807764; 0.251625;,
         0.533067;-0.807764; 0.251625;,
         0.513016;-0.852412;-0.100742;,
         0.968657;-0.043794;-0.244484;,
         0.968657;-0.043794;-0.244484;,
         0.959593; 0.030274; 0.279641;,
         0.533067;-0.807764; 0.251625;,
         0.959593; 0.030274; 0.279641;,
         0.968657;-0.043794;-0.244484;,
         0.545000; 0.835841; 0.065615;,
         0.545000; 0.835841; 0.065615;,
         0.000732; 0.105777; 0.994385;,
         0.959593; 0.030274; 0.279641;,
         0.000732; 0.105777; 0.994385;,
         0.545000; 0.835841; 0.065615;,
        -0.000946; 0.897397; 0.441176;,
         0.545000; 0.835841; 0.065615;,
        -0.372478; 0.901456;-0.220435;,
        -0.000946; 0.897397; 0.441176;,
        -0.372478; 0.901456;-0.220435;,
         0.545000; 0.835841; 0.065615;,
         0.537034; 0.832392;-0.136662;,
         0.537034; 0.832392;-0.136662;,
        -0.421339; 0.900266; 0.109409;,
        -0.372478; 0.901456;-0.220435;,
        -0.372478; 0.901456;-0.220435;,
        -0.421339; 0.900266; 0.109409;,
        -0.964751;-0.011048; 0.262825;,
        -0.421339; 0.900266; 0.109409;,
        -0.001434; 0.997711; 0.067354;,
        -0.964751;-0.011048; 0.262825;,
        -0.001434; 0.997711; 0.067354;,
        -0.421339; 0.900266; 0.109409;,
         0.537034; 0.832392;-0.136662;,
         0.000732; 0.105777; 0.994385;,
        -0.000946; 0.897397; 0.441176;,
        -0.547472; 0.834132; 0.066591;,
         0.959593; 0.030274; 0.279641;,
         0.000732; 0.105777; 0.994385;,
         0.533067;-0.807764; 0.251625;,
         0.000732; 0.105777; 0.994385;,
         0.001770;-0.775628; 0.631153;,
         0.533067;-0.807764; 0.251625;,
        -0.383068; 0.301309;-0.873165;,
        -0.688101; 0.596912;-0.412488;,
        -0.001648; 0.986236;-0.165288;,
        -0.688101; 0.596912;-0.412488;,
        -0.539842; 0.830683;-0.135899;,
        -0.001648; 0.986236;-0.165288;,
        -0.510636;-0.853938;-0.099979;,
        -0.549852;-0.785333;-0.284341;,
        -0.356945;-0.850673;-0.385876;,
        -0.549852;-0.785333;-0.284341;,
        -0.339854;-0.736808;-0.584460;,
        -0.356945;-0.850673;-0.385876;,
        -0.576098; 0.738945; 0.349284;,
        -0.515244;-0.468856;-0.717399;,
        -0.958373;-0.283944; 0.029298;,
        -0.958373;-0.283944; 0.029298;,
         0.300546;-0.198981; 0.932768;,
        -0.576098; 0.738945; 0.349284;,
         0.452956;-0.874996; 0.170751;,
        -0.510636;-0.853938;-0.099979;,
         0.001648;-0.998840; 0.047578;,
        -0.510636;-0.853938;-0.099979;,
        -0.356945;-0.850673;-0.385876;,
         0.001648;-0.998840; 0.047578;,
        -0.958373;-0.283944; 0.029298;,
        -0.515244;-0.468856;-0.717399;,
        -0.339854;-0.736808;-0.584460;,
        -0.339854;-0.736808;-0.584460;,
        -0.477645;-0.803552; 0.355144;,
        -0.958373;-0.283944; 0.029298;,
        -0.477645;-0.803552; 0.355144;,
        -0.339854;-0.736808;-0.584460;,
        -0.549852;-0.785333;-0.284341;,
        -0.549852;-0.785333;-0.284341;,
         0.300546;-0.198981; 0.932768;,
        -0.477645;-0.803552; 0.355144;,
         0.958495; 0.001556;-0.285043;,
        -0.000641;-0.106021;-0.994354;,
         0.398724;-0.917051; 0.003998;,
        -0.000641;-0.106021;-0.994354;,
         0.001495;-0.999908;-0.011200;,
         0.398724;-0.917051; 0.003998;,
         0.398724;-0.917051; 0.003998;,
         0.001495;-0.999908;-0.011200;,
         0.001770;-0.775628; 0.631153;,
         0.001770;-0.775628; 0.631153;,
        -0.530198;-0.809351; 0.252571;,
         0.398724;-0.917051; 0.003998;,
         0.398724;-0.917051; 0.003998;,
        -0.530198;-0.809351; 0.252571;,
        -0.510636;-0.853938;-0.099979;,
        -0.530198;-0.809351; 0.252571;,
        -0.968871;-0.046724;-0.243019;,
        -0.510636;-0.853938;-0.099979;,
        -0.968871;-0.046724;-0.243019;,
        -0.530198;-0.809351; 0.252571;,
        -0.959197; 0.027375; 0.281320;,
        -0.530198;-0.809351; 0.252571;,
         0.000732; 0.105777; 0.994385;,
        -0.959197; 0.027375; 0.281320;,
        -0.959197; 0.027375; 0.281320;,
         0.000732; 0.105777; 0.994385;,
        -0.547472; 0.834132; 0.066591;,
        -0.547472; 0.834132; 0.066591;,
        -0.968871;-0.046724;-0.243019;,
        -0.959197; 0.027375; 0.281320;,
        -0.001434; 0.997711; 0.067354;,
         0.537034; 0.832392;-0.136662;,
        -0.001648; 0.986236;-0.165288;,
         0.537034; 0.832392;-0.136662;,
         0.685720; 0.598865;-0.413648;,
        -0.001648; 0.986236;-0.165288;,
        -0.001648; 0.986236;-0.165288;,
         0.685720; 0.598865;-0.413648;,
         0.380932; 0.302164;-0.873806;,
         0.959288;-0.280984; 0.027741;,
         0.515397;-0.467483;-0.718192;,
         0.596149; 0.721152; 0.352824;,
         0.596149; 0.721152; 0.352824;,
        -0.273904;-0.217322; 0.936857;,
         0.959288;-0.280984; 0.027741;,
        -0.964751;-0.011048; 0.262825;,
        -0.450026;-0.876370; 0.171484;,
        -0.395917;-0.918241; 0.004700;,
        -0.450026;-0.876370; 0.171484;,
         0.513016;-0.852412;-0.100742;,
        -0.395917;-0.918241; 0.004700;,
         0.341075;-0.735923;-0.584826;,
         0.515397;-0.467483;-0.718192;,
         0.959288;-0.280984; 0.027741;,
         0.959288;-0.280984; 0.027741;,
         0.480667;-0.802087; 0.354320;,
         0.341075;-0.735923;-0.584826;,
         0.341075;-0.735923;-0.584826;,
         0.480667;-0.802087; 0.354320;,
         0.551439;-0.783990;-0.284951;,
         0.480667;-0.802087; 0.354320;,
        -0.273904;-0.217322; 0.936857;,
         0.551439;-0.783990;-0.284951;,
        -0.958983;-0.001312;-0.283364;,
        -0.000641;-0.106021;-0.994354;,
        -0.372478; 0.901456;-0.220435;,
        -0.000641;-0.106021;-0.994354;,
        -0.001709; 0.956847;-0.290475;,
        -0.372478; 0.901456;-0.220435;;
        108;
        3;0;1;2;,
        3;3;4;5;,
        3;6;7;8;,
        3;9;10;11;,
        3;12;13;14;,
        3;15;16;17;,
        3;18;19;20;,
        3;21;22;23;,
        3;24;25;26;,
        3;27;28;29;,
        3;30;31;32;,
        3;33;34;35;,
        3;36;37;38;,
        3;39;40;41;,
        3;42;43;44;,
        3;45;46;47;,
        3;48;49;50;,
        3;51;52;53;,
        3;54;55;56;,
        3;57;58;59;,
        3;60;61;62;,
        3;63;64;65;,
        3;66;67;68;,
        3;69;70;71;,
        3;72;73;74;,
        3;75;76;77;,
        3;78;79;80;,
        3;81;82;83;,
        3;84;85;86;,
        3;87;88;89;,
        3;90;91;92;,
        3;93;94;95;,
        3;96;97;98;,
        3;99;100;101;,
        3;102;103;104;,
        3;105;106;107;,
        3;108;109;110;,
        3;111;112;113;,
        3;114;115;116;,
        3;117;118;119;,
        3;120;121;122;,
        3;123;124;125;,
        3;126;127;128;,
        3;129;130;131;,
        3;132;133;134;,
        3;135;136;137;,
        3;138;139;140;,
        3;141;142;143;,
        3;144;145;146;,
        3;147;148;149;,
        3;150;151;152;,
        3;153;154;155;,
        3;156;157;158;,
        3;159;160;161;,
        3;162;163;164;,
        3;165;166;167;,
        3;168;169;170;,
        3;171;172;173;,
        3;174;175;176;,
        3;177;178;179;,
        3;180;181;182;,
        3;183;184;185;,
        3;186;187;188;,
        3;189;190;191;,
        3;192;193;194;,
        3;195;196;197;,
        3;198;199;200;,
        3;201;202;203;,
        3;204;205;206;,
        3;207;208;209;,
        3;210;211;212;,
        3;213;214;215;,
        3;216;217;218;,
        3;219;220;221;,
        3;222;223;224;,
        3;225;226;227;,
        3;228;229;230;,
        3;231;232;233;,
        3;234;235;236;,
        3;237;238;239;,
        3;240;241;242;,
        3;243;244;245;,
        3;246;247;248;,
        3;249;250;251;,
        3;252;253;254;,
        3;255;256;257;,
        3;258;259;260;,
        3;261;262;263;,
        3;264;265;266;,
        3;267;268;269;,
        3;270;271;272;,
        3;273;274;275;,
        3;276;277;278;,
        3;279;280;281;,
        3;282;283;284;,
        3;285;286;287;,
        3;288;289;290;,
        3;291;292;293;,
        3;294;295;296;,
        3;297;298;299;,
        3;300;301;302;,
        3;303;304;305;,
        3;306;307;308;,
        3;309;310;311;,
        3;312;313;314;,
        3;315;316;317;,
        3;318;319;320;,
        3;321;322;323;;
      } //End of Mesh Normals
      MeshMaterialList { //Mesh Material List
        1;
        108;
        0,
        0,
        0,
        0,
        0,
        0,
        0,
        0,
        0,
        0,
        0,
        0,
        0,
        0,
        0,
        0,
        0,
        0,
        0,
        0,
        0,
        0,
        0,
        0,
        0,
        0,
        0,
        0,
        0,
        0,
        0,
        0,
        0,
        0,
        0,
        0,
        0,
        0,
        0,
        0,
        0,
        0,
        0,
        0,
        0,
        0,
        0,
        0,
        0,
        0,
        0,
        0,
        0,
        0,
        0,
        0,
        0,
        0,
        0,
        0,
        0,
        0,
        0,
        0,
        0,
        0,
        0,
        0,
        0,
        0,
        0,
        0,
        0,
        0,
        0,
        0,
        0,
        0,
        0,
        0,
        0,
        0,
        0,
        0,
        0,
        0,
        0,
        0,
        0,
        0,
        0,
        0,
        0,
        0,
        0,
        0,
        0,
        0,
        0,
        0,
        0,
        0,
        0,
        0,
        0,
        0,
        0,
        0;;
        Material mat_0 {
           0.640000; 0.640000; 0.640000; 1.000000;;
           92.156863;
           0.250000; 0.250000; 0.250000;;
           0.000000; 0.000000; 0.000000;;
          TextureFilename {"Textures/suikun_0_0.tga";}
        }
      } //End of Mesh Material List
      MeshTextureCoords { //Mesh UV Coordinates
        324;
         0.000000; 0.000000;,
         0.000000; 1.000000;,
         0.000000; 1.000000;,
         0.000000; 1.000000;,
         0.000000; 0.000000;,
         0.000000; 1.000000;,
         0.000000; 0.000000;,
         0.000000; 1.000000;,
         0.000000; 0.000000;,
         0.000000; 0.000000;,
         0.000000; 1.000000;,
         0.000000; 0.000000;,
         0.000000; 1.000000;,
         0.000000; 0.000000;,
         0.000000; 1.000000;,
         0.000000; 1.000000;,
         0.000000; 1.000000;,
         0.000000; 0.000000;,
         0.000000; 0.000000;,
         0.000000; 1.000000;,
         0.000000; 0.000000;,
         0.000000; 0.000000;,
         0.000000; 0.000000;,
         0.000000; 1.000000;,
         0.000000; 1.000000;,
         0.000000; 0.000000;,
         0.000000; 1.000000;,
         0.000000; 1.000000;,
         0.000000; 1.000000;,
         0.000000; 0.000000;,
         0.000000; 0.000000;,
         0.000000; 1.000000;,
         0.000000; 0.000000;,
         0.000000; 1.000000;,
         0.000000; 0.000000;,
         0.000000; 1.000000;,
         0.000000; 1.000000;,
         0.000000; 0.000000;,
         0.000000; 1.000000;,
         0.000000; 0.000000;,
         0.000000; 1.000000;,
         0.000000; 0.000000;,
         0.000000; 1.000000;,
         0.000000; 0.000000;,
         0.000000; 1.000000;,
         0.000000; 0.000000;,
         0.000000; 1.000000;,
         0.000000; 0.000000;,
         0.000000; 0.000000;,
         0.000000; 1.000000;,
         0.000000; 0.000000;,
         0.000000; 0.000000;,
         0.000000; 1.000000;,
         0.000000; 0.000000;,
         0.000000; 0.000000;,
         0.000000; 1.000000;,
         0.000000; 0.000000;,
         0.000000; 0.000000;,
         0.000000; 1.000000;,
         0.000000; 0.000000;,
         0.000000; 0.000000;,
         0.000000; 1.000000;,
         0.000000; 0.000000;,
         0.000000; 0.000000;,
         0.000000; 1.000000;,
         0.000000; 0.000000;,
         0.000000; 1.000000;,
         0.000000; 0.000000;,
         0.000000; 1.000000;,
         0.000000; 1.000000;,
         0.000000; 0.000000;,
         0.000000; 1.000000;,
         0.000000; 1.000000;,
         0.000000; 0.000000;,
         0.000000; 1.000000;,
         0.000000; 0.000000;,
         0.000000; 1.000000;,
         0.000000; 0.000000;,
         0.000000; 0.000000;,
         0.000000; 1.000000;,
         0.000000; 0.000000;,
         0.000000; 1.000000;,
         0.000000; 0.000000;,
         0.000000; 1.000000;,
         0.000000; 1.000000;,
         0.000000; 0.000000;,
         0.000000; 1.000000;,
         0.000000; 1.000000;,
         0.000000; 0.000000;,
         0.000000; 1.000000;,
         0.000000; 1.000000;,
         0.000000; 0.000000;,
         0.000000; 1.000000;,
         0.000000; 1.000000;,
         0.000000; 1.000000;,
         0.000000; 0.000000;,
         0.000000; 0.000000;,
         0.000000; 1.000000;,
         0.000000; 0.000000;,
         0.000000; 0.000000;,
         0.000000; 1.000000;,
         0.000000; 0.000000;,
         0.000000; 0.000000;,
         0.000000; 0.000000;,
         0.000000; 1.000000;,
         0.000000; 1.000000;,
         0.000000; 0.000000;,
         0.000000; 1.000000;,
         0.000000; 1.000000;,
         0.000000; 1.000000;,
         0.000000; 0.000000;,
         0.000000; 1.000000;,
         0.000000; 1.000000;,
         0.000000; 0.000000;,
         0.000000; 1.000000;,
         0.000000; 1.000000;,
         0.000000; 0.000000;,
         0.000000; 0.000000;,
         0.000000; 1.000000;,
         0.000000; 1.000000;,
         0.000000; 1.000000;,
         0.000000; 0.000000;,
         0.000000; 1.000000;,
         0.000000; 1.000000;,
         0.000000; 0.000000;,
         0.000000; 1.000000;,
         0.000000; 1.000000;,
         0.000000; 0.000000;,
         0.000000; 1.000000;,
         0.000000; 1.000000;,
         0.000000; 0.000000;,
         0.000000; 1.000000;,
         0.000000; 1.000000;,
         0.000000; 0.000000;,
         0.000000; 0.000000;,
         0.000000; 0.000000;,
         0.000000; 1.000000;,
         0.000000; 0.000000;,
         0.000000; 1.000000;,
         0.000000; 0.000000;,
         0.000000; 0.000000;,
         0.000000; 0.000000;,
         0.000000; 1.000000;,
         0.000000; 0.000000;,
         0.000000; 0.000000;,
         0.000000; 1.000000;,
         0.000000; 0.000000;,
         0.000000; 1.000000;,
         0.000000; 0.000000;,
         0.000000; 0.000000;,
         0.000000; 1.000000;,
         0.000000; 1.000000;,
         0.000000; 0.000000;,
         0.000000; 1.000000;,
         0.000000; 0.000000;,
         0.000000; 0.000000;,
         0.000000; 0.000000;,
         0.000000; 1.000000;,
         0.000000; 1.000000;,
         0.000000; 0.000000;,
         0.000000; 0.000000;,
         0.000000; 1.000000;,
         0.000000; 0.000000;,
         0.000000; 0.000000;,
         0.000000; 1.000000;,
         0.000000; 0.000000;,
         0.000000; 0.000000;,
         0.000000; 1.000000;,
         0.000000; 0.000000;,
         0.000000; 0.000000;,
         0.000000; 1.000000;,
         0.000000; 0.000000;,
         0.000000; 0.000000;,
         0.000000; 1.000000;,
         0.000000; 0.000000;,
         0.000000; 0.000000;,
         0.000000; 1.000000;,
         0.000000; 1.000000;,
         0.000000; 0.000000;,
         0.000000; 1.000000;,
         0.000000; 1.000000;,
         0.000000; 0.000000;,
         0.000000; 1.000000;,
         0.000000; 0.000000;,
         0.000000; 1.000000;,
         0.000000; 1.000000;,
         0.000000; 1.000000;,
         0.000000; 1.000000;,
         0.000000; 0.000000;,
         0.000000; 1.000000;,
         0.000000; 1.000000;,
         0.000000; 0.000000;,
         0.000000; 1.000000;,
         0.000000; 0.000000;,
         0.000000; 0.000000;,
         0.000000; 0.000000;,
         0.000000; 1.000000;,
         0.000000; 0.000000;,
         0.000000; 0.000000;,
         0.000000; 1.000000;,
         0.000000; 0.000000;,
         0.000000; 0.000000;,
         0.000000; 1.000000;,
         0.000000; 0.000000;,
         0.000000; 1.000000;,
         0.000000; 0.000000;,
         0.000000; 0.000000;,
         0.000000; 0.000000;,
         0.000000; 1.000000;,
         0.000000; 0.000000;,
         0.000000; 1.000000;,
         0.000000; 0.000000;,
         0.000000; 1.000000;,
         0.000000; 1.000000;,
         0.000000; 0.000000;,
         0.000000; 0.000000;,
         0.000000; 0.000000;,
         0.000000; 1.000000;,
         0.000000; 0.000000;,
         0.000000; 1.000000;,
         0.000000; 1.000000;,
         0.000000; 1.000000;,
         0.000000; 1.000000;,
         0.000000; 1.000000;,
         0.000000; 1.000000;,
         0.000000; 1.000000;,
         0.000000; 1.000000;,
         0.000000; 0.000000;,
         0.000000; 1.000000;,
         0.000000; 1.000000;,
         0.000000; 0.000000;,
         0.000000; 0.000000;,
         0.000000; 0.000000;,
         0.000000; 1.000000;,
         0.000000; 0.000000;,
         0.000000; 1.000000;,
         0.000000; 1.000000;,
         0.000000; 0.000000;,
         0.000000; 1.000000;,
         0.000000; 1.000000;,
         0.000000; 1.000000;,
         0.000000; 1.000000;,
         0.000000; 1.000000;,
         0.000000; 0.000000;,
         0.000000; 1.000000;,
         0.000000; 1.000000;,
         0.000000; 1.000000;,
         0.000000; 0.000000;,
         0.000000; 1.000000;,
         0.000000; 0.000000;,
         0.000000; 1.000000;,
         0.000000; 0.000000;,
         0.000000; 0.000000;,
         0.000000; 1.000000;,
         0.000000; 0.000000;,
         0.000000; 0.000000;,
         0.000000; 1.000000;,
         0.000000; 1.000000;,
         0.000000; 1.000000;,
         0.000000; 0.000000;,
         0.000000; 1.000000;,
         0.000000; 1.000000;,
         0.000000; 0.000000;,
         0.000000; 1.000000;,
         0.000000; 1.000000;,
         0.000000; 0.000000;,
         0.000000; 1.000000;,
         0.000000; 1.000000;,
         0.000000; 0.000000;,
         0.000000; 1.000000;,
         0.000000; 0.000000;,
         0.000000; 0.000000;,
         0.000000; 1.000000;,
         0.000000; 0.000000;,
         0.000000; 0.000000;,
         0.000000; 1.000000;,
         0.000000; 0.000000;,
         0.000000; 0.000000;,
         0.000000; 1.000000;,
         0.000000; 1.000000;,
         0.000000; 0.000000;,
         0.000000; 0.000000;,
         0.000000; 0.000000;,
         0.000000; 0.000000;,
         0.000000; 1.000000;,
         0.000000; 1.000000;,
         0.000000; 1.000000;,
         0.000000; 0.000000;,
         0.000000; 1.000000;,
         0.000000; 0.000000;,
         0.000000; 0.000000;,
         0.000000; 0.000000;,
         0.000000; 0.000000;,
         0.000000; 1.000000;,
         0.000000; 1.000000;,
         0.000000; 1.000000;,
         0.000000; 0.000000;,
         0.000000; 0.000000;,
         0.000000; 0.000000;,
         0.000000; 1.000000;,
         0.000000; 1.000000;,
         0.000000; 0.000000;,
         0.000000; 1.000000;,
         0.000000; 0.000000;,
         0.000000; 1.000000;,
         0.000000; 1.000000;,
         0.000000; 0.000000;,
         0.000000; 1.000000;,
         0.000000; 0.000000;,
         0.000000; 0.000000;,
         0.000000; 1.000000;,
         0.000000; 0.000000;,
         0.000000; 0.000000;,
         0.000000; 1.000000;,
         0.000000; 1.000000;,
         0.000000; 1.000000;,
         0.000000; 0.000000;,
         0.000000; 1.000000;,
         0.000000; 1.000000;,
         0.000000; 1.000000;,
         0.000000; 0.000000;,
         0.000000; 1.000000;,
         0.000000; 0.000000;,
         0.000000; 0.000000;;
      } //End of Mesh UV Coordinates
    } //End of Mesh Mesh
  } //End of suikun_mat_0
} //End of Root Frame
