# Blender v2.66 (sub 1) OBJ File: 'BR_Lumineon-Shiny03.blend'
# www.blender.org
mtllib BR_Lumineon-Shiny03.mtl
o neolant
v 1.146315 3.392626 0.132521
v 1.369575 3.392626 -0.007229
v 0.150433 3.392626 -1.742661
v 0.083369 3.392626 -1.697378
v -1.146315 3.392626 0.132521
v -1.369575 3.392626 -0.007229
v -0.083369 3.392626 -1.697378
v -0.150433 3.392626 -1.742661
v 4.848516 0.761426 -7.231182
v 4.848516 0.761426 -7.231182
v 4.903487 0.737316 -6.747883
v 4.903487 0.737316 -6.747883
v 4.789281 0.793072 -6.449455
v 4.789281 0.793072 -6.449455
v 5.648336 0.314689 -11.089882
v 5.648336 0.314689 -11.089882
v 5.768342 0.255965 -10.844570
v 5.768342 0.255965 -10.844570
v 5.749063 0.259615 -11.000340
v 5.749063 0.259615 -11.000340
v 4.149312 0.640949 -0.279157
v 4.149312 0.640949 -0.279157
v 4.050336 0.698782 -0.030419
v 4.050336 0.698782 -0.030419
v 4.142779 0.641882 -0.146164
v 4.142779 0.641882 -0.146164
v 3.325739 1.172385 -2.173277
v 3.325739 1.172385 -2.173277
v 0.977534 4.370251 -3.488594
v 1.032925 4.279672 -3.917995
v 1.042396 4.453311 -3.648479
v 1.069497 4.409054 -3.916470
v 0.988679 4.310731 -4.401814
v 1.044870 4.452816 -4.236889
v 0.897399 4.502518 -4.710663
v 0.984849 4.551909 -4.436783
v 0.837512 4.668877 -4.706314
v 0.911471 4.719900 -4.438892
v 0.749389 4.898671 -4.411476
v 0.905669 4.805519 -4.242687
v 0.750586 4.946640 -3.922409
v 0.919913 4.850438 -3.922699
v 0.793137 4.881792 -3.472370
v 0.927064 4.806393 -3.653282
v 0.833695 4.728078 -3.274445
v 0.952058 4.690524 -3.454845
v 0.915334 4.530258 -3.271816
v 0.993675 4.566283 -3.453114
v 1.036240 4.641400 -3.917854
v 0.698447 5.042613 -3.887577
v 0.512600 5.372171 -3.809067
v 0.667429 5.042613 -3.091175
v 0.657958 4.425322 -2.473494
v 0.349072 4.426008 -2.082790
v 0.275682 5.031242 -5.309093
v 0.289538 4.846863 -5.511787
v 0.000000 4.843320 -5.607792
v 0.000000 5.031257 -5.412189
v 0.000000 5.920598 -3.665867
v 0.000000 5.965656 -3.537167
v 0.097351 5.943229 -3.537315
v 0.107787 5.901571 -3.652859
v 0.212289 5.842304 -3.337784
v 0.092133 5.910115 -3.304359
v 0.247074 5.725997 -3.105671
v 0.112198 5.806854 -3.106094
v 0.568708 5.223385 -4.294220
v 0.161801 5.616578 -4.214512
v 0.212250 5.431139 -4.661388
v 0.000000 5.466648 -4.705898
v 0.000000 5.642693 -4.242107
v 0.276885 5.042613 -2.438335
v 0.517307 5.042613 -2.728958
v 0.382703 5.413899 -2.888523
v 0.651883 5.032825 -4.486805
v 0.482187 5.376256 -3.101910
v 0.886343 4.429189 -3.068867
v 0.820244 4.442081 -4.910160
v 0.734703 4.840141 -4.716774
v 0.391622 5.657420 -3.536018
v 0.220263 5.838954 -3.626457
v 0.209417 5.877395 -3.537468
v 0.311052 5.540413 -4.141506
v 0.384965 5.354125 -4.582611
v 0.483220 5.031219 -5.054802
v 0.525377 4.844818 -5.246277
v 0.442480 5.450082 -4.006851
v 0.746314 4.846653 -3.082684
v 0.580722 4.844481 -2.640200
v 0.307443 4.840291 -2.299648
v 0.600208 4.449309 -5.531139
v 0.320917 4.449309 -5.841011
v 0.000000 4.449308 -5.954926
v 0.000000 5.839957 -3.106621
v 0.000000 5.933619 -3.299633
v 0.000000 5.042613 -2.335127
v 0.199569 5.459586 -2.740398
v 0.000000 4.841663 -2.184019
v 0.000000 4.426694 -1.918650
v 0.261917 5.684234 -3.756962
v 0.115985 5.759550 -3.767639
v 0.000000 5.776270 -3.778316
v 0.000000 5.476138 -2.705196
v -0.977534 4.370251 -3.488594
v -1.042396 4.453311 -3.648479
v -1.032925 4.279672 -3.917995
v -1.069497 4.409054 -3.916470
v -0.988679 4.310731 -4.401814
v -1.044870 4.452816 -4.236889
v -0.897399 4.502518 -4.710663
v -0.984849 4.551909 -4.436783
v -0.837512 4.668877 -4.706314
v -0.911471 4.719900 -4.438892
v -0.749389 4.898671 -4.411476
v -0.905669 4.805519 -4.242687
v -0.750586 4.946640 -3.922409
v -0.919913 4.850438 -3.922699
v -0.793137 4.881792 -3.472370
v -0.927064 4.806393 -3.653282
v -0.833695 4.728078 -3.274445
v -0.952058 4.690524 -3.454845
v -0.915334 4.530258 -3.271816
v -0.993675 4.566283 -3.453114
v -1.036240 4.641400 -3.917854
v -0.512600 5.372171 -3.809067
v -0.667429 5.042613 -3.091175
v -0.482187 5.376256 -3.101910
v -0.349072 4.426008 -2.082790
v -0.657958 4.425322 -2.473494
v -0.275682 5.031242 -5.309093
v -0.289538 4.846863 -5.511787
v -0.107787 5.901571 -3.652859
v -0.097351 5.943229 -3.537315
v -0.212289 5.842304 -3.337784
v -0.247074 5.725997 -3.105671
v -0.092133 5.910115 -3.304359
v -0.112198 5.806854 -3.106094
v -0.442480 5.450082 -4.006851
v -0.568708 5.223385 -4.294220
v -0.161801 5.616578 -4.214512
v -0.212250 5.431139 -4.661388
v -0.276885 5.042613 -2.438335
v -0.382703 5.413899 -2.888523
v -0.517307 5.042613 -2.728958
v -0.651883 5.032825 -4.486805
v -0.698447 5.042613 -3.887577
v -0.886343 4.429189 -3.068867
v -0.820244 4.442081 -4.910160
v -0.734703 4.840141 -4.716774
v -0.391622 5.657420 -3.536018
v -0.209417 5.877395 -3.537468
v -0.220263 5.838954 -3.626457
v -0.311052 5.540413 -4.141506
v -0.384965 5.354125 -4.582611
v -0.483220 5.031219 -5.054802
v -0.525377 4.844818 -5.246277
v -0.746314 4.846653 -3.082684
v -0.580722 4.844481 -2.640200
v -0.307443 4.840291 -2.299648
v -0.600208 4.449309 -5.531139
v -0.320917 4.449309 -5.841011
v -0.199569 5.459586 -2.740398
v -0.261917 5.684234 -3.756962
v -0.115985 5.759550 -3.767639
v 0.000000 -7.623738 -4.176250
v 0.280600 -7.546632 -4.167522
v 0.363437 -7.631372 -3.975140
v 0.000000 -7.732180 -3.979504
v 0.000000 -7.732181 -3.590328
v 0.364192 -7.631372 -3.594776
v 0.282111 -7.546633 -3.406796
v 0.000000 -7.623739 -3.397896
v 0.465104 -7.347939 -4.180576
v 0.568984 -7.347939 -3.991627
v 0.466669 -7.347939 -3.396263
v 0.573695 -7.347939 -3.589512
v 0.000000 -7.347939 -3.378025
v 0.000000 -7.347939 -4.198723
v 0.622013 -7.347939 -3.782757
v 0.387564 -7.663918 -3.782757
v 0.000000 -7.780658 -3.782761
v -0.363437 -7.631372 -3.975140
v -0.280600 -7.546632 -4.167522
v -0.282111 -7.546633 -3.406796
v -0.364192 -7.631372 -3.594776
v -0.465104 -7.347939 -4.180576
v -0.568984 -7.347939 -3.991627
v -0.573695 -7.347939 -3.589512
v -0.466669 -7.347939 -3.396263
v -0.622013 -7.347939 -3.782757
v -0.387564 -7.663918 -3.782757
v -4.903487 0.737316 -6.747883
v -4.903487 0.737316 -6.747883
v -4.848516 0.761426 -7.231182
v -4.848516 0.761426 -7.231182
v -4.789281 0.793072 -6.449455
v -4.789281 0.793072 -6.449455
v -5.648336 0.314689 -11.089882
v -5.648336 0.314689 -11.089882
v -5.768342 0.255965 -10.844570
v -5.768342 0.255965 -10.844570
v -5.749063 0.259615 -11.000340
v -5.749063 0.259615 -11.000340
v -4.149312 0.640949 -0.279157
v -4.149312 0.640949 -0.279157
v -4.050336 0.698782 -0.030419
v -4.050336 0.698782 -0.030419
v -4.142779 0.641882 -0.146164
v -4.142779 0.641882 -0.146164
v -3.325739 1.172385 -2.173277
v -3.325739 1.172385 -2.173277
v 1.475627 3.392626 -0.372381
v 0.768932 3.392626 0.072268
v 1.374488 3.392626 -0.771141
v 0.436041 3.392626 -0.183880
v 1.101562 3.392626 -1.133785
v 0.238181 3.392626 -0.582232
v 0.717978 3.392626 -1.445267
v 0.114423 3.392626 -1.059191
v -0.768932 3.392626 0.072268
v -1.475627 3.392626 -0.372381
v -0.436041 3.392626 -0.183880
v -1.374488 3.392626 -0.771141
v -0.238181 3.392626 -0.582232
v -1.101562 3.392626 -1.133785
v -0.114423 3.392626 -1.059191
v -0.717978 3.392626 -1.445267
v 0.812766 2.723139 -6.120075
v 0.812766 2.723139 -6.120075
v 0.812766 2.723139 -6.120071
v 0.812766 2.723139 -6.120071
v 0.411667 2.723138 -6.463688
v 0.000000 2.723138 -6.616161
v 0.000000 3.040606 -6.558189
v 0.397182 3.040606 -6.408279
v 1.291828 2.723138 -3.851151
v 1.208834 2.723138 -4.604267
v 1.100071 2.723138 -5.362171
v 0.416276 3.559752 -1.795624
v 0.770366 3.559752 -2.261204
v 1.164575 3.040606 -4.568878
v 1.245858 3.040606 -3.832447
v 1.060630 3.040606 -5.331612
v 1.075561 3.559752 -3.045826
v 0.865046 2.723138 -2.205030
v 1.201214 2.723138 -3.032040
v 0.812766 2.723139 -6.120075
v 0.773224 3.040606 -6.059628
v 0.996132 3.559752 -5.226234
v 0.716470 3.559752 -5.946487
v 0.373203 3.559752 -6.273178
v 0.000000 3.559752 -6.418903
v 0.445652 3.040606 -1.722158
v 0.829118 3.040606 -2.211773
v 1.170685 3.559752 -3.793003
v 1.092199 3.559752 -4.493298
v 1.153533 3.040606 -3.036266
v 0.463616 2.723138 -1.706978
v 0.000000 3.559752 -1.590424
v 0.000000 3.040606 -1.497564
v 0.000000 2.723138 -1.467104
v -0.411667 2.723138 -6.463688
v -0.397182 3.040606 -6.408279
v -1.291828 2.723138 -3.851151
v -1.208834 2.723138 -4.604267
v -1.100071 2.723138 -5.362171
v -0.770366 3.559752 -2.261204
v -0.416276 3.559752 -1.795624
v -1.245858 3.040606 -3.832447
v -1.164575 3.040606 -4.568878
v -1.060630 3.040606 -5.331612
v -1.075561 3.559752 -3.045826
v -0.865046 2.723138 -2.205030
v -1.201214 2.723138 -3.032040
v -0.812766 2.723139 -6.120075
v -0.773224 3.040606 -6.059628
v -0.716470 3.559752 -5.946487
v -0.996132 3.559752 -5.226234
v -0.373203 3.559752 -6.273178
v -0.829118 3.040606 -2.211773
v -0.445652 3.040606 -1.722158
v -1.170685 3.559752 -3.793003
v -1.092199 3.559752 -4.493298
v -1.153533 3.040606 -3.036266
v -0.463616 2.723138 -1.706978
v -0.812766 2.723139 -6.120075
v -0.812766 2.723139 -6.120075
v -0.812766 2.723139 -6.120071
v -0.812766 2.723139 -6.120071
v 1.308904 2.495066 -6.994795
v 1.308904 2.495066 -6.994795
v 1.398444 2.406504 -6.806156
v 1.486019 2.364692 -6.564426
v 2.980103 1.590436 -8.806362
v 2.462829 1.849822 -8.123857
v 2.275805 2.021363 -8.425499
v 2.275805 2.021363 -8.425499
v 2.755485 1.773101 -9.076256
v 2.755485 1.773101 -9.076256
v 1.432970 2.478959 -6.807371
v 1.520545 2.437147 -6.565641
v 3.036163 1.707143 -8.808254
v 2.525637 1.981177 -8.126028
v 1.984122 2.089869 -7.492237
v 1.831889 2.251116 -7.800543
v 1.831889 2.251116 -7.800543
v 2.053174 2.234779 -7.494667
v 1.523444 2.349315 -6.262423
v 1.513675 2.357256 -6.042755
v 1.557970 2.421769 -6.263638
v 1.550638 2.436632 -6.043970
v 1.455590 2.388751 -5.877314
v 1.372065 2.434373 -5.659212
v 1.232030 2.555991 -5.336580
v 1.232030 2.555991 -5.336580
v 2.858347 1.674538 -6.537443
v 1.406591 2.506828 -5.660425
v 1.490116 2.461205 -5.878527
v 2.921154 1.805891 -6.539614
v 2.303173 2.120400 -6.407200
v 1.995062 2.278376 -5.237070
v 1.651293 2.388844 -4.674437
v 1.651293 2.388844 -4.674437
v 1.937782 2.160157 -5.234640
v 2.234122 1.975492 -6.404770
v 2.199116 1.765475 -3.963726
v 2.099865 1.927376 -5.043837
v 2.099865 1.927376 -5.043837
v 1.873829 1.966906 -4.443039
v 2.288342 1.904491 -3.963047
v 1.963065 2.105932 -4.442341
v 4.522296 0.809766 -10.456158
v 4.338105 0.962417 -10.591431
v 4.338105 0.962417 -10.591431
v 4.741399 0.761298 -10.862862
v 4.741399 0.761298 -10.862862
v 4.877659 0.626507 -10.653255
v 5.162282 0.556295 -11.071079
v 5.162282 0.556295 -11.071079
v 5.254548 0.434662 -10.846878
v 5.448035 0.351080 -10.909286
v 5.339164 0.462789 -11.118923
v 5.339164 0.462789 -11.118923
v 5.514977 0.375621 -11.125648
v 5.514977 0.375621 -11.125648
v 5.603848 0.283773 -10.959545
v 4.574811 0.921083 -10.457962
v 4.928942 0.735825 -10.653309
v 5.305918 0.543941 -10.846935
v 5.483722 0.447312 -10.906738
v 5.640893 0.361896 -10.959602
v 5.044630 0.618091 -10.355782
v 5.044630 0.618091 -10.355782
v 5.454682 0.408241 -10.476688
v 5.454682 0.408241 -10.476688
v 5.603786 0.333478 -10.565300
v 5.603786 0.333478 -10.565300
v 5.718722 0.275848 -10.688801
v 5.718722 0.275848 -10.688801
v 3.666811 1.304830 -10.050568
v 3.666811 1.304830 -10.050568
v 4.159851 1.023459 -9.019737
v 3.824392 1.162858 -9.706833
v 4.448516 0.935655 -9.221821
v 4.448516 0.935655 -9.221821
v 4.538677 0.883579 -9.831123
v 4.538677 0.883579 -9.831123
v 4.677440 0.802856 -10.291203
v 4.677440 0.802856 -10.291203
v 4.194587 1.096384 -9.020893
v 3.875255 1.268285 -9.708504
v 4.483224 0.909665 -9.560913
v 4.483224 0.909665 -9.560913
v 3.418186 1.389180 -7.801830
v 3.919272 1.176873 -8.172125
v 3.969286 1.156342 -7.868460
v 3.474245 1.505886 -7.803715
v 4.420359 0.964566 -8.542419
v 4.420359 0.964566 -8.542419
v 3.997316 1.214695 -7.869402
v 3.947302 1.235226 -8.173067
v 3.532862 1.349338 -6.680805
v 3.588921 1.466044 -6.682693
v 2.764355 1.709660 -7.389950
v 2.827162 1.841014 -7.392118
v 2.228324 2.151155 -7.011208
v 2.159273 2.006246 -7.008778
v 3.436626 1.410716 -5.840107
v 3.243345 1.517466 -5.137032
v 3.492684 1.527423 -5.841995
v 3.299405 1.634172 -5.138924
v 2.801945 1.712288 -5.905197
v 2.878286 1.709357 -4.437443
v 2.648713 1.796310 -5.395424
v 2.386492 1.935929 -4.863054
v 2.393353 2.036010 -3.669472
v 2.393353 2.036010 -3.669472
v 2.007956 2.219258 -4.162802
v 2.007956 2.219258 -4.162802
v 3.285449 1.518051 -4.088581
v 3.670987 1.378492 -4.897633
v 3.670987 1.378492 -4.897633
v 3.780427 1.322780 -4.480927
v 3.780427 1.322780 -4.480927
v 3.103841 1.681986 -3.373726
v 3.103841 1.681986 -3.373726
v 3.422054 1.521372 -3.456120
v 3.422054 1.521372 -3.456120
v 2.782760 1.835981 -3.414139
v 2.782760 1.835981 -3.414139
v 3.686443 1.381655 -3.709961
v 3.686443 1.381655 -3.709961
v 3.807353 1.315388 -4.126213
v 3.807353 1.315388 -4.126213
v 3.689267 1.362803 -5.287556
v 3.689267 1.362803 -5.287556
v 2.864750 1.843641 -5.907366
v 2.711520 1.927663 -5.397593
v 2.934346 1.826061 -4.439331
v 2.449299 2.067281 -4.865225
v 3.330595 1.611068 -4.090019
v 2.584583 1.544392 -3.516470
v 2.810274 1.485545 -4.445044
v 2.810274 1.485545 -4.445044
v 2.658580 1.659684 -3.515842
v 4.393782 0.933223 -6.797234
v 4.336613 1.027441 -5.909679
v 4.336613 1.027441 -5.909679
v 4.596019 0.896784 -6.116928
v 4.596019 0.896784 -6.116928
v 3.934862 1.155037 -6.735170
v 4.441657 1.032165 -6.798786
v 4.015289 1.249104 -6.740740
v 4.043441 1.175105 -5.690365
v 4.043441 1.175105 -5.690365
v 3.831717 1.289443 -5.537777
v 3.831717 1.289443 -5.537777
v 4.520387 0.923503 -7.935089
v 4.520387 0.923503 -7.935089
v 4.688246 0.830322 -7.603287
v 4.688246 0.830322 -7.603287
v 3.211148 1.538965 -9.594809
v 3.211148 1.538965 -9.594809
v 3.402247 1.376647 -9.288115
v 3.455709 1.487714 -9.289896
v 2.283635 2.136282 -5.967865
v 2.167466 2.199272 -5.636978
v 2.098414 2.054364 -5.634552
v 2.214584 1.991374 -5.965435
v 3.013345 1.298478 -3.018978
v 3.641665 0.980960 -3.239483
v 3.641665 0.980960 -3.239483
v 3.645467 0.976789 -2.838306
v 3.645467 0.976789 -2.838306
v 2.833951 1.465304 -2.026077
v 2.833951 1.465304 -2.026077
v 2.591506 1.614131 -2.048857
v 2.591506 1.614131 -2.048857
v 2.484524 1.689589 -4.722176
v 2.484524 1.689589 -4.722176
v 3.070401 1.387381 -3.018410
v 3.502191 1.067520 -2.439812
v 3.502191 1.067520 -2.439812
v 3.172611 1.258582 -4.136784
v 3.172611 1.258582 -4.136784
v 3.517891 1.048644 -3.646515
v 3.517891 1.048644 -3.646515
v 3.066618 1.325210 -2.061201
v 3.066618 1.325210 -2.061201
v 4.117192 0.666240 -0.420759
v 4.117192 0.666240 -0.420759
v 4.000066 0.682305 -0.180273
v 3.438093 1.013469 -0.540177
v 3.673935 0.941597 -0.928427
v 3.673935 0.941597 -0.928427
v 3.872940 0.820186 -0.802275
v 3.872940 0.820186 -0.802275
v 3.640558 0.890881 -0.416702
v 3.835871 0.771760 -0.280702
v 3.715017 0.912816 -0.002818
v 3.715017 0.912816 -0.002818
v 3.493787 1.048521 -0.090578
v 3.493787 1.048521 -0.090578
v 3.887338 0.802647 0.022676
v 3.887338 0.802647 0.022676
v 4.043571 0.749474 -0.178932
v 3.500021 1.109979 -0.538880
v 3.697746 0.982392 -0.416124
v 3.895095 0.862128 -0.280605
v 4.045777 0.717433 -0.596093
v 4.045777 0.717433 -0.596093
v 3.284269 1.178784 -0.230755
v 3.284269 1.178784 -0.230755
v 3.292246 1.244051 -0.667873
v 3.464816 1.069179 -1.015289
v 3.464816 1.069179 -1.015289
v 3.068529 1.315831 -0.398406
v 3.068529 1.315831 -0.398406
v 3.225338 1.142287 -0.669928
v 2.026231 1.913962 -2.690727
v 2.073204 1.987079 -2.690344
v 1.762440 2.033702 -3.204689
v 1.565111 2.158077 -4.897938
v 1.734800 2.153052 -5.349113
v 1.734800 2.153052 -5.349113
v 1.552060 2.164720 -3.863075
v 1.336734 2.289064 -4.487926
v 1.319803 2.409641 -5.696112
v 1.319803 2.409641 -5.696112
v 1.234347 2.406503 -5.435242
v 1.124740 2.472189 -5.158590
v 1.851643 2.172553 -3.203960
v 1.654357 2.297112 -4.897221
v 1.641311 2.303683 -3.862347
v 1.426030 2.428134 -4.487198
v 1.273792 2.489760 -5.450190
v 1.161638 2.559497 -5.196405
v 1.377819 2.371825 -3.611010
v 1.377819 2.371825 -3.611010
v 1.558168 2.259165 -2.936535
v 1.558168 2.259165 -2.936535
v 1.206657 2.478746 -4.251129
v 1.206657 2.478746 -4.251129
v 1.033430 2.578561 -5.014446
v 1.033430 2.578561 -5.014446
v 2.223253 1.755331 -1.747138
v 2.441035 1.704255 -1.852917
v 2.441035 1.704255 -1.852917
v 2.593953 1.609662 -1.585603
v 2.593953 1.609662 -1.585603
v 2.378898 1.657333 -1.461827
v 2.251692 1.820248 -1.338896
v 2.251692 1.820248 -1.338896
v 2.073088 1.930161 -1.642805
v 2.073088 1.930161 -1.642805
v 1.739827 2.141762 -2.435957
v 1.739827 2.141762 -2.435957
v 1.921487 2.024358 -1.935381
v 1.921487 2.024358 -1.935381
v 2.297451 1.872817 -1.747033
v 2.453128 1.776390 -1.461343
v 2.868623 1.519479 -1.002430
v 2.631388 1.664728 -1.226163
v 2.429232 1.708962 -1.076460
v 2.429232 1.708962 -1.076460
v 2.653109 1.571078 -0.814637
v 2.653109 1.571078 -0.814637
v 2.790808 1.399503 -1.005676
v 2.555524 1.545252 -1.227906
v 2.762769 1.503651 -1.387444
v 2.762769 1.503651 -1.387444
v 2.988722 1.365152 -1.207937
v 2.988722 1.365152 -1.207937
v 3.205860 1.230165 -1.097281
v 3.205860 1.230165 -1.097281
v 3.061830 1.393861 -0.849845
v 2.838654 1.455641 -0.620814
v 2.838654 1.455641 -0.620814
v 2.988989 1.282192 -0.852548
v 2.099346 1.834996 -2.029892
v 2.319649 1.780772 -2.119038
v 2.319649 1.780772 -2.119038
v 2.173515 1.951029 -2.030138
v 0.418095 2.114133 -6.490225
v 0.000000 2.114133 -6.645195
v 0.000000 0.133728 -6.269840
v 0.347092 0.133728 -6.156040
v 0.484687 1.508026 -1.733913
v 0.907189 1.508026 -2.255186
v 0.903943 2.114133 -2.193689
v 0.483688 2.114133 -1.687557
v 1.193568 0.133728 -3.817665
v 1.146312 0.133728 -4.465710
v 1.343984 2.114133 -3.848312
v 1.268570 2.114133 -4.616940
v 0.989783 0.133728 -5.128181
v 1.120794 2.114133 -5.395823
v 0.437872 0.133728 -1.952700
v 0.814295 0.133728 -2.458378
v 0.864785 0.807105 -2.343611
v 0.463485 0.807105 -1.825602
v 1.278251 1.508026 -4.607018
v 1.343161 1.508026 -3.853188
v 1.287508 0.807105 -3.833351
v 1.217961 0.807105 -4.539619
v 1.097445 1.508026 -5.376137
v 1.048581 0.807105 -5.260876
v 0.000000 1.508026 -6.609612
v 0.408089 1.508026 -6.458256
v 0.379099 0.807105 -6.320610
v 0.000000 0.807105 -6.464458
v 1.252667 2.114133 -3.023619
v 1.121006 0.133728 -3.144714
v 1.202281 0.807105 -3.092621
v 0.816090 2.114133 -6.169901
v 0.787380 1.508026 -6.129906
v 0.765913 0.807105 -6.008511
v 0.736469 0.133728 -5.826569
v 0.000000 1.508026 -1.470819
v 0.000000 2.114133 -1.451645
v 0.000000 0.133728 -1.732952
v 0.000000 0.807105 -1.582415
v 1.254727 1.508026 -3.055378
v -0.418095 2.114133 -6.490225
v -0.347092 0.133728 -6.156040
v -0.484687 1.508026 -1.733913
v -0.483688 2.114133 -1.687557
v -0.903943 2.114133 -2.193689
v -0.907189 1.508026 -2.255186
v -1.193568 0.133728 -3.817665
v -1.146312 0.133728 -4.465710
v -1.268570 2.114133 -4.616940
v -1.343984 2.114133 -3.848312
v -0.989783 0.133728 -5.128181
v -1.120794 2.114133 -5.395823
v -0.437872 0.133728 -1.952700
v -0.463485 0.807105 -1.825602
v -0.864785 0.807105 -2.343611
v -0.814295 0.133728 -2.458378
v -1.278251 1.508026 -4.607018
v -1.217961 0.807105 -4.539619
v -1.287508 0.807105 -3.833351
v -1.343161 1.508026 -3.853188
v -1.097445 1.508026 -5.376137
v -1.048581 0.807105 -5.260876
v -0.379099 0.807105 -6.320610
v -0.408089 1.508026 -6.458256
v -1.252667 2.114133 -3.023619
v -1.121006 0.133728 -3.144714
v -1.202281 0.807105 -3.092621
v -0.787380 1.508026 -6.129906
v -0.816090 2.114133 -6.169901
v -0.736469 0.133728 -5.826569
v -0.765913 0.807105 -6.008511
v -1.254727 1.508026 -3.055378
v 0.327148 -0.598951 -5.810921
v 0.000000 -0.598951 -5.903862
v 0.365917 -1.305346 -2.499418
v 0.663850 -1.305346 -2.854088
v 0.752247 -0.598950 -2.629627
v 0.409192 -0.598951 -2.190838
v 1.082173 -0.598951 -3.786945
v 1.024418 -0.598950 -4.350243
v 0.885533 -0.598950 -4.924639
v 0.000000 -1.305346 -5.463867
v 0.295381 -1.305346 -5.384113
v 0.868574 -1.305346 -4.163010
v 0.751878 -1.305346 -4.646160
v 0.909485 -1.305346 -3.764896
v 1.019885 -0.598951 -3.234406
v 0.854576 -1.305346 -3.376007
v 0.674844 -0.598951 -5.479637
v 0.589889 -1.305346 -5.114822
v 0.000000 -1.305346 -2.361153
v 0.000000 -0.598950 -2.008421
v -0.327148 -0.598951 -5.810921
v -0.365917 -1.305346 -2.499418
v -0.409192 -0.598951 -2.190838
v -0.752247 -0.598950 -2.629627
v -0.663850 -1.305346 -2.854088
v -1.024418 -0.598950 -4.350243
v -1.082173 -0.598951 -3.786945
v -0.885533 -0.598950 -4.924639
v -0.295381 -1.305346 -5.384113
v -0.868574 -1.305346 -4.163010
v -0.751878 -1.305346 -4.646160
v -0.909485 -1.305346 -3.764896
v -1.019885 -0.598951 -3.234406
v -0.854576 -1.305346 -3.376007
v -0.589889 -1.305346 -5.114822
v -0.674844 -0.598951 -5.479637
v 0.000000 -2.660117 -4.365524
v 0.000000 -2.475409 -4.557034
v 0.202691 -2.475409 -4.462662
v 0.159732 -2.660117 -4.298489
v 0.249223 -2.475410 -3.240387
v 0.208815 -2.660117 -3.376167
v 0.365311 -2.660117 -3.568180
v 0.433583 -2.475410 -3.452507
v 0.443106 -2.660117 -3.785309
v 0.517180 -2.475410 -3.782413
v 0.399304 -2.660117 -3.940292
v 0.288359 -2.660117 -4.145138
v 0.339707 -2.475409 -4.305073
v 0.457779 -2.475410 -4.037800
v 0.252893 -1.951358 -4.883522
v 0.000000 -1.951358 -4.971348
v 0.699257 -1.951358 -3.952877
v 0.610986 -1.951358 -4.340433
v 0.718480 -1.951358 -3.774570
v 0.556004 -1.951358 -3.184486
v 0.312231 -1.951358 -2.900768
v 0.692680 -1.951358 -3.600391
v 0.468405 -1.951358 -4.667744
v 0.000000 -2.475410 -3.138813
v 0.000000 -1.951358 -2.782761
v 0.000000 -2.660117 -3.286110
v -0.159732 -2.660117 -4.298489
v -0.202691 -2.475409 -4.462662
v -0.249223 -2.475410 -3.240387
v -0.433583 -2.475410 -3.452507
v -0.365311 -2.660117 -3.568180
v -0.208815 -2.660117 -3.376167
v -0.443106 -2.660117 -3.785309
v -0.517180 -2.475410 -3.782413
v -0.399304 -2.660117 -3.940292
v -0.457779 -2.475410 -4.037800
v -0.339707 -2.475409 -4.305073
v -0.288359 -2.660117 -4.145138
v -0.252893 -1.951358 -4.883522
v -0.610986 -1.951358 -4.340433
v -0.699257 -1.951358 -3.952877
v -0.718480 -1.951358 -3.774570
v -0.312231 -1.951358 -2.900768
v -0.556004 -1.951358 -3.184486
v -0.692680 -1.951358 -3.600391
v -0.468405 -1.951358 -4.667744
v 0.390701 4.011725 -1.920715
v 0.719216 4.011725 -2.351019
v 1.032250 3.989763 -4.419865
v 0.919679 4.000744 -5.102840
v 1.007679 4.011725 -3.057819
v 1.106769 4.000744 -3.754852
v 0.658792 4.011725 -5.760895
v 0.000000 4.011725 -6.233263
v 0.352296 4.011725 -6.091181
v 0.000000 4.011725 -1.732399
v -0.390701 4.011725 -1.920715
v -0.719216 4.011725 -2.351019
v -1.032250 3.989763 -4.419865
v -1.007679 4.011725 -3.057819
v -1.106769 4.000744 -3.754852
v -0.919679 4.000744 -5.102840
v -0.658792 4.011725 -5.760895
v -0.352296 4.011725 -6.091181
v 0.000000 -3.936345 -4.132420
v 0.331236 -3.936345 -4.069229
v 0.444758 -3.936345 -3.925995
v 0.440992 -3.936345 -3.638168
v 0.323703 -3.936345 -3.493576
v 0.000000 -3.936345 -3.443024
v 0.499571 -3.936345 -3.782761
v -0.331236 -3.936345 -4.069229
v -0.444758 -3.936345 -3.925995
v -0.440992 -3.936345 -3.638168
v -0.323703 -3.936345 -3.493576
v -0.499571 -3.936345 -3.782761
v 0.000000 -2.826319 -4.104416
v 0.242155 -2.826319 -4.012405
v 0.332804 -2.826319 -3.897583
v 0.325957 -2.826319 -3.670609
v 0.228460 -2.826319 -3.558460
v 0.000000 -2.826319 -3.461105
v 0.364744 -2.826319 -3.782761
v -0.242155 -2.826319 -4.012405
v -0.332804 -2.826319 -3.897583
v -0.228460 -2.826319 -3.558460
v -0.325957 -2.826319 -3.670609
v -0.364744 -2.826319 -3.782761
v 0.000000 -6.949389 -4.218670
v 0.540301 -6.949389 -4.199455
v 0.660924 -6.949389 -3.991108
v 0.661745 -6.949389 -3.581898
v 0.541943 -6.949389 -3.381035
v 0.000000 -6.949389 -3.360394
v 0.000000 -6.205544 -4.219746
v 0.576662 -6.205544 -4.200615
v 0.692703 -6.205544 -3.991554
v 0.701396 -6.205544 -3.594711
v 0.578317 -6.205544 -3.369045
v 0.000000 -6.205544 -3.352303
v 0.467896 -5.074450 -4.140400
v 0.000000 -5.074450 -4.191086
v 0.583349 -5.074450 -3.961578
v 0.584144 -5.074450 -3.604172
v 0.469486 -5.074450 -3.425583
v 0.000000 -5.074450 -3.382004
v 0.640093 -5.074450 -3.782761
v 0.750034 -6.205544 -3.782494
v 0.722837 -6.949389 -3.782761
v -0.540301 -6.949389 -4.199455
v -0.660924 -6.949389 -3.991108
v -0.661745 -6.949389 -3.581898
v -0.541943 -6.949389 -3.381035
v -0.576662 -6.205544 -4.200615
v -0.692703 -6.205544 -3.991554
v -0.701396 -6.205544 -3.594711
v -0.578317 -6.205544 -3.369045
v -0.467896 -5.074450 -4.140400
v -0.583349 -5.074450 -3.961578
v -0.584144 -5.074450 -3.604172
v -0.469486 -5.074450 -3.425583
v -0.640093 -5.074450 -3.782761
v -0.750034 -6.205544 -3.782494
v -0.722837 -6.949389 -3.782761
v -1.398444 2.406504 -6.806156
v -1.308904 2.495066 -6.994795
v -1.308904 2.495066 -6.994795
v -1.486019 2.364692 -6.564426
v -2.980103 1.590436 -8.806362
v -2.462829 1.849822 -8.123857
v -2.275805 2.021363 -8.425499
v -2.275805 2.021363 -8.425499
v -2.755485 1.773101 -9.076256
v -2.755485 1.773101 -9.076256
v -1.432970 2.478959 -6.807371
v -1.520545 2.437147 -6.565641
v -3.036163 1.707143 -8.808254
v -2.525637 1.981177 -8.126028
v -1.984122 2.089869 -7.492237
v -1.831889 2.251116 -7.800543
v -1.831889 2.251116 -7.800543
v -2.053174 2.234779 -7.494667
v -1.523444 2.349315 -6.262423
v -1.513675 2.357256 -6.042755
v -1.557970 2.421769 -6.263638
v -1.550638 2.436632 -6.043970
v -1.372065 2.434373 -5.659212
v -1.455590 2.388751 -5.877314
v -1.232030 2.555991 -5.336580
v -1.232030 2.555991 -5.336580
v -2.858347 1.674538 -6.537443
v -1.490116 2.461205 -5.878527
v -1.406591 2.506828 -5.660425
v -2.921154 1.805891 -6.539614
v -2.303173 2.120400 -6.407200
v -1.995062 2.278376 -5.237070
v -1.651293 2.388844 -4.674437
v -1.651293 2.388844 -4.674437
v -1.937782 2.160157 -5.234640
v -2.234122 1.975492 -6.404770
v -2.199116 1.765475 -3.963726
v -1.873829 1.966906 -4.443039
v -2.099865 1.927376 -5.043837
v -2.099865 1.927376 -5.043837
v -2.288342 1.904491 -3.963047
v -1.963065 2.105932 -4.442341
v -4.522296 0.809766 -10.456158
v -4.877659 0.626507 -10.653255
v -4.741399 0.761298 -10.862862
v -4.741399 0.761298 -10.862862
v -4.338105 0.962417 -10.591431
v -4.338105 0.962417 -10.591431
v -5.254548 0.434662 -10.846878
v -5.162282 0.556295 -11.071079
v -5.162282 0.556295 -11.071079
v -5.448035 0.351080 -10.909286
v -5.603848 0.283773 -10.959545
v -5.514977 0.375621 -11.125648
v -5.514977 0.375621 -11.125648
v -5.339164 0.462789 -11.118923
v -5.339164 0.462789 -11.118923
v -4.574811 0.921083 -10.457962
v -4.928942 0.735825 -10.653309
v -5.305918 0.543941 -10.846935
v -5.640893 0.361896 -10.959602
v -5.483722 0.447312 -10.906738
v -5.044630 0.618091 -10.355782
v -5.044630 0.618091 -10.355782
v -5.454682 0.408241 -10.476688
v -5.454682 0.408241 -10.476688
v -5.603786 0.333478 -10.565300
v -5.603786 0.333478 -10.565300
v -5.718722 0.275848 -10.688801
v -5.718722 0.275848 -10.688801
v -3.666811 1.304830 -10.050568
v -3.666811 1.304830 -10.050568
v -4.159851 1.023459 -9.019737
v -4.448516 0.935655 -9.221821
v -4.448516 0.935655 -9.221821
v -3.824392 1.162858 -9.706833
v -4.538677 0.883579 -9.831123
v -4.538677 0.883579 -9.831123
v -4.677440 0.802856 -10.291203
v -4.677440 0.802856 -10.291203
v -4.194587 1.096384 -9.020893
v -3.875255 1.268285 -9.708504
v -4.483224 0.909665 -9.560913
v -4.483224 0.909665 -9.560913
v -3.418186 1.389180 -7.801830
v -3.919272 1.176873 -8.172125
v -3.969286 1.156342 -7.868460
v -3.474245 1.505886 -7.803715
v -4.420359 0.964566 -8.542419
v -4.420359 0.964566 -8.542419
v -3.997316 1.214695 -7.869402
v -3.947302 1.235226 -8.173067
v -2.764355 1.709660 -7.389950
v -2.827162 1.841014 -7.392118
v -2.228324 2.151155 -7.011208
v -2.159273 2.006246 -7.008778
v -3.532862 1.349338 -6.680805
v -3.588921 1.466044 -6.682693
v -3.436626 1.410716 -5.840107
v -3.243345 1.517466 -5.137032
v -3.492684 1.527423 -5.841995
v -3.299405 1.634172 -5.138924
v -2.801945 1.712288 -5.905197
v -2.648713 1.796310 -5.395424
v -2.878286 1.709357 -4.437443
v -2.386492 1.935929 -4.863054
v -2.393353 2.036010 -3.669472
v -2.393353 2.036010 -3.669472
v -2.007956 2.219258 -4.162802
v -2.007956 2.219258 -4.162802
v -3.285449 1.518051 -4.088581
v -3.780427 1.322780 -4.480927
v -3.780427 1.322780 -4.480927
v -3.670987 1.378492 -4.897633
v -3.670987 1.378492 -4.897633
v -3.103841 1.681986 -3.373726
v -3.103841 1.681986 -3.373726
v -3.422054 1.521372 -3.456120
v -3.422054 1.521372 -3.456120
v -2.782760 1.835981 -3.414139
v -2.782760 1.835981 -3.414139
v -3.686443 1.381655 -3.709961
v -3.686443 1.381655 -3.709961
v -3.807353 1.315388 -4.126213
v -3.807353 1.315388 -4.126213
v -3.689267 1.362803 -5.287556
v -3.689267 1.362803 -5.287556
v -2.864750 1.843641 -5.907366
v -2.934346 1.826061 -4.439331
v -2.711520 1.927663 -5.397593
v -2.449299 2.067281 -4.865225
v -3.330595 1.611068 -4.090019
v -2.584583 1.544392 -3.516470
v -2.810274 1.485545 -4.445044
v -2.810274 1.485545 -4.445044
v -2.658580 1.659684 -3.515842
v -4.393782 0.933223 -6.797234
v -4.336613 1.027441 -5.909679
v -4.336613 1.027441 -5.909679
v -4.596019 0.896784 -6.116928
v -4.596019 0.896784 -6.116928
v -3.934862 1.155037 -6.735170
v -4.441657 1.032165 -6.798786
v -4.015289 1.249104 -6.740740
v -4.043441 1.175105 -5.690365
v -4.043441 1.175105 -5.690365
v -3.831717 1.289443 -5.537777
v -3.831717 1.289443 -5.537777
v -4.688246 0.830322 -7.603287
v -4.688246 0.830322 -7.603287
v -4.520387 0.923503 -7.935089
v -4.520387 0.923503 -7.935089
v -3.211148 1.538965 -9.594809
v -3.211148 1.538965 -9.594809
v -3.402247 1.376647 -9.288115
v -3.455709 1.487714 -9.289896
v -2.283635 2.136282 -5.967865
v -2.167466 2.199272 -5.636978
v -2.098414 2.054364 -5.634552
v -2.214584 1.991374 -5.965435
v -3.013345 1.298478 -3.018978
v -3.645467 0.976789 -2.838306
v -3.645467 0.976789 -2.838306
v -3.641665 0.980960 -3.239483
v -3.641665 0.980960 -3.239483
v -2.833951 1.465304 -2.026077
v -2.833951 1.465304 -2.026077
v -2.591506 1.614131 -2.048857
v -2.591506 1.614131 -2.048857
v -2.484524 1.689589 -4.722176
v -2.484524 1.689589 -4.722176
v -3.070401 1.387381 -3.018410
v -3.502191 1.067520 -2.439812
v -3.502191 1.067520 -2.439812
v -3.172611 1.258582 -4.136784
v -3.172611 1.258582 -4.136784
v -3.517891 1.048644 -3.646515
v -3.517891 1.048644 -3.646515
v -3.066618 1.325210 -2.061201
v -3.066618 1.325210 -2.061201
v -4.117192 0.666240 -0.420759
v -4.117192 0.666240 -0.420759
v -4.000066 0.682305 -0.180273
v -3.438093 1.013469 -0.540177
v -3.640558 0.890881 -0.416702
v -3.872940 0.820186 -0.802275
v -3.872940 0.820186 -0.802275
v -3.673935 0.941597 -0.928427
v -3.673935 0.941597 -0.928427
v -3.835871 0.771760 -0.280702
v -3.493787 1.048521 -0.090578
v -3.493787 1.048521 -0.090578
v -3.715017 0.912816 -0.002818
v -3.715017 0.912816 -0.002818
v -3.887338 0.802647 0.022676
v -3.887338 0.802647 0.022676
v -4.043571 0.749474 -0.178932
v -3.697746 0.982392 -0.416124
v -3.500021 1.109979 -0.538880
v -3.895095 0.862128 -0.280605
v -4.045777 0.717433 -0.596093
v -4.045777 0.717433 -0.596093
v -3.284269 1.178784 -0.230755
v -3.284269 1.178784 -0.230755
v -3.464816 1.069179 -1.015289
v -3.464816 1.069179 -1.015289
v -3.292246 1.244051 -0.667873
v -3.068529 1.315831 -0.398406
v -3.068529 1.315831 -0.398406
v -3.225338 1.142287 -0.669928
v -2.026231 1.913962 -2.690727
v -2.073204 1.987079 -2.690344
v -1.762440 2.033702 -3.204689
v -1.565111 2.158077 -4.897938
v -1.734800 2.153052 -5.349113
v -1.734800 2.153052 -5.349113
v -1.552060 2.164720 -3.863075
v -1.336734 2.289064 -4.487926
v -1.234347 2.406503 -5.435242
v -1.319803 2.409641 -5.696112
v -1.319803 2.409641 -5.696112
v -1.124740 2.472189 -5.158590
v -1.851643 2.172553 -3.203960
v -1.654357 2.297112 -4.897221
v -1.641311 2.303683 -3.862347
v -1.426030 2.428134 -4.487198
v -1.273792 2.489760 -5.450190
v -1.161638 2.559497 -5.196405
v -1.377819 2.371825 -3.611010
v -1.377819 2.371825 -3.611010
v -1.558168 2.259165 -2.936535
v -1.558168 2.259165 -2.936535
v -1.206657 2.478746 -4.251129
v -1.206657 2.478746 -4.251129
v -1.033430 2.578561 -5.014446
v -1.033430 2.578561 -5.014446
v -2.223253 1.755331 -1.747138
v -2.378898 1.657333 -1.461827
v -2.593953 1.609662 -1.585603
v -2.593953 1.609662 -1.585603
v -2.441035 1.704255 -1.852917
v -2.441035 1.704255 -1.852917
v -2.073088 1.930161 -1.642805
v -2.073088 1.930161 -1.642805
v -2.251692 1.820248 -1.338896
v -2.251692 1.820248 -1.338896
v -1.921487 2.024358 -1.935381
v -1.921487 2.024358 -1.935381
v -1.739827 2.141762 -2.435957
v -1.739827 2.141762 -2.435957
v -2.453128 1.776390 -1.461343
v -2.297451 1.872817 -1.747033
v -2.868623 1.519479 -1.002430
v -2.653109 1.571078 -0.814637
v -2.653109 1.571078 -0.814637
v -2.429232 1.708962 -1.076460
v -2.429232 1.708962 -1.076460
v -2.631388 1.664728 -1.226163
v -2.790808 1.399503 -1.005676
v -2.555524 1.545252 -1.227906
v -2.988722 1.365152 -1.207937
v -2.988722 1.365152 -1.207937
v -2.762769 1.503651 -1.387444
v -2.762769 1.503651 -1.387444
v -3.205860 1.230165 -1.097281
v -3.205860 1.230165 -1.097281
v -3.061830 1.393861 -0.849845
v -2.838654 1.455641 -0.620814
v -2.838654 1.455641 -0.620814
v -2.988989 1.282192 -0.852548
v -2.099346 1.834996 -2.029892
v -2.319649 1.780772 -2.119038
v -2.319649 1.780772 -2.119038
v -2.173515 1.951029 -2.030138
vt 0.552032 0.335817
vt 0.562245 0.306653
vt 0.586796 0.307988
vt 0.531692 0.332717
vt 0.541819 0.367190
vt 0.525247 0.365064
vt 0.558390 0.369316
vt 0.568280 0.340079
vt 0.585623 0.365208
vt 0.538137 0.303450
vt 0.098750 0.037448
vt 0.091753 0.026308
vt 0.096473 0.029262
vt 0.083811 0.028048
vt 0.096400 0.046082
vt 0.076562 0.033668
vt 0.090631 0.053748
vt 0.072380 0.042089
vt 0.082202 0.061129
vt 0.069443 0.052967
vt 0.070204 0.067415
vt 0.068787 0.066458
vt 0.406759 0.965770
vt 0.379314 0.939067
vt 0.363851 0.955884
vt 0.415352 0.946395
vt 0.441167 0.971538
vt 0.449979 0.951458
vt 0.459666 0.969459
vt 0.466797 0.952610
vt 0.474932 0.967743
vt 0.480341 0.953537
vt 0.415027 0.946380
vt 0.378984 0.939040
vt 0.449661 0.951440
vt 0.465836 0.952544
vt 0.480134 0.953520
vt 0.423858 0.919864
vt 0.394180 0.920352
vt 0.457006 0.921346
vt 0.472135 0.928568
vt 0.483798 0.934136
vt 0.159721 0.709362
vt 0.216980 0.666265
vt 0.211480 0.734962
vt 0.164250 0.665736
vt 0.101343 0.679457
vt 0.103607 0.657644
vt 0.210113 0.628143
vt 0.161272 0.634224
vt 0.102118 0.641888
vt 0.195655 0.591969
vt 0.150477 0.610794
vt 0.096721 0.630173
vt 0.171925 0.554496
vt 0.135182 0.584158
vt 0.089074 0.616855
vt 0.135350 0.505339
vt 0.106791 0.539210
vt 0.074878 0.594381
vt 0.172258 0.554528
vt 0.135565 0.584190
vt 0.089265 0.616871
vt 0.195988 0.592000
vt 0.150860 0.610826
vt 0.096913 0.630189
vt 0.210446 0.628174
vt 0.161655 0.634256
vt 0.102310 0.641904
vt 0.216964 0.666265
vt 0.164633 0.665767
vt 0.103799 0.657659
vt 0.211813 0.734961
vt 0.160104 0.709393
vt 0.101534 0.679472
vt 0.188668 0.788614
vt 0.146729 0.744656
vt 0.094847 0.697104
vt 0.170995 0.810848
vt 0.131815 0.768897
vt 0.087390 0.709224
vt 0.188335 0.788583
vt 0.146347 0.744625
vt 0.094656 0.697088
vt 0.210084 0.323033
vt 0.174249 0.418278
vt 0.228858 0.390019
vt 0.159464 0.370238
vt 0.168318 0.254663
vt 0.125640 0.318409
vt 0.140781 0.227008
vt 0.103744 0.294054
vt 0.335805 0.103651
vt 0.306614 0.083426
vt 0.324166 0.106142
vt 0.320579 0.074339
vt 0.343018 0.100900
vt 0.327490 0.070861
vt 0.351634 0.097613
vt 0.335747 0.066707
vt 0.355328 0.096204
vt 0.339286 0.064925
vt 0.359733 0.094524
vt 0.343508 0.062801
vt 0.363694 0.093013
vt 0.347303 0.060891
vt 0.367463 0.091576
vt 0.350915 0.059074
vt 0.379770 0.080220
vt 0.366690 0.053933
vt 0.392077 0.068864
vt 0.382465 0.048792
vt 0.288670 0.064691
vt 0.304828 0.054616
vt 0.312082 0.051600
vt 0.320747 0.047996
vt 0.324999 0.046228
vt 0.330070 0.044119
vt 0.334630 0.042224
vt 0.338968 0.040419
vt 0.356610 0.036554
vt 0.374251 0.032689
vt 0.159459 0.370239
vt 0.210079 0.323035
vt 0.125638 0.318409
vt 0.168317 0.254663
vt 0.320564 0.074274
vt 0.306579 0.083396
vt 0.327486 0.070810
vt 0.335754 0.066671
vt 0.339299 0.064896
vt 0.343527 0.062780
vt 0.347328 0.060878
vt 0.350945 0.059067
vt 0.366687 0.053927
vt 0.382429 0.048787
vt 0.286399 0.360242
vt 0.263415 0.273298
vt 0.213287 0.187495
vt 0.179805 0.156364
vt 0.263422 0.273294
vt 0.213286 0.187495
vt 0.088713 0.394242
vt 0.106668 0.423811
vt 0.078819 0.373555
vt 0.115047 0.449978
vt 0.108136 0.422323
vt 0.090657 0.390254
vt 0.293652 0.091826
vt 0.313408 0.108443
vt 0.273735 0.074003
vt 0.293706 0.091824
vt 0.027235 0.221964
vt 0.031553 0.225906
vt 0.027235 0.224855
vt 0.031553 0.223048
vt 0.027235 0.218768
vt 0.031553 0.219784
vt 0.027198 0.206404
vt 0.031553 0.207213
vt 0.027160 0.194044
vt 0.031553 0.194641
vt 0.027197 0.188326
vt 0.031553 0.188652
vt 0.027235 0.182608
vt 0.031553 0.182663
vt 0.027235 0.169932
vt 0.031553 0.169413
vt 0.027235 0.166042
vt 0.031553 0.165376
vt 0.027235 0.162151
vt 0.031553 0.161339
vt 0.134108 0.053415
vt 0.131436 0.052387
vt 0.134108 0.052394
vt 0.131436 0.053403
vt 0.134108 0.051218
vt 0.131436 0.051227
vt 0.134108 0.046836
vt 0.131436 0.046758
vt 0.134108 0.042454
vt 0.131436 0.042289
vt 0.134108 0.040277
vt 0.131436 0.040160
vt 0.134108 0.038101
vt 0.131436 0.038031
vt 0.134108 0.033522
vt 0.131436 0.033321
vt 0.134108 0.032036
vt 0.131436 0.031886
vt 0.134108 0.030550
vt 0.131436 0.030451
vt 0.146009 0.050186
vt 0.142795 0.051080
vt 0.146009 0.049167
vt 0.142795 0.052167
vt 0.146009 0.048149
vt 0.142795 0.049992
vt 0.146009 0.045111
vt 0.142795 0.046199
vt 0.146009 0.042072
vt 0.142795 0.042405
vt 0.146009 0.040529
vt 0.142795 0.040473
vt 0.146009 0.038986
vt 0.142795 0.038540
vt 0.146009 0.035694
vt 0.142795 0.034675
vt 0.146009 0.034622
vt 0.142795 0.033328
vt 0.146009 0.033458
vt 0.142795 0.031982
vt 0.155051 0.043366
vt 0.154241 0.043765
vt 0.155051 0.042932
vt 0.154241 0.044456
vt 0.155051 0.042499
vt 0.154241 0.043074
vt 0.155051 0.041555
vt 0.154241 0.042022
vt 0.155051 0.040972
vt 0.154241 0.040970
vt 0.155051 0.039877
vt 0.154241 0.039146
vt 0.155051 0.039294
vt 0.154241 0.038638
vt 0.155051 0.038854
vt 0.154241 0.038066
vt 0.177834 0.041818
vt 0.176862 0.042624
vt 0.177068 0.041799
vt 0.177468 0.042662
vt 0.175901 0.041918
vt 0.175901 0.042773
vt 0.174510 0.041982
vt 0.174510 0.042990
vt 0.171247 0.041921
vt 0.171247 0.042871
vt 0.166285 0.041758
vt 0.166285 0.042542
vt 0.160649 0.041602
vt 0.160649 0.042230
vt 0.155780 0.041477
vt 0.155780 0.041981
vt 0.177468 0.039285
vt 0.177068 0.040149
vt 0.176862 0.039324
vt 0.177834 0.040129
vt 0.175901 0.039184
vt 0.175901 0.040079
vt 0.174510 0.038982
vt 0.174510 0.039978
vt 0.171247 0.039094
vt 0.171247 0.040119
vt 0.166285 0.039407
vt 0.166285 0.040190
vt 0.160649 0.039705
vt 0.160649 0.040339
vt 0.155780 0.039990
vt 0.155780 0.040482
vt 0.149108 0.036676
vt 0.149108 0.035870
vt 0.149108 0.039416
vt 0.149108 0.040583
vt 0.149108 0.041751
vt 0.149108 0.044062
vt 0.149108 0.046372
vt 0.149108 0.047324
vt 0.149108 0.048275
vt 0.149108 0.034881
vt 0.136767 0.033722
vt 0.136767 0.032185
vt 0.136767 0.038170
vt 0.136767 0.040395
vt 0.136767 0.042619
vt 0.136767 0.046914
vt 0.136767 0.051210
vt 0.136767 0.052401
vt 0.136767 0.053428
vt 0.136767 0.030648
vt 0.020172 0.170782
vt 0.014023 0.168079
vt 0.020172 0.167131
vt 0.014023 0.171522
vt 0.020172 0.182518
vt 0.014023 0.182440
vt 0.020073 0.187793
vt 0.014023 0.187349
vt 0.019975 0.193067
vt 0.014023 0.192259
vt 0.020074 0.205082
vt 0.014023 0.203959
vt 0.020172 0.217106
vt 0.014023 0.215660
vt 0.020172 0.220192
vt 0.014023 0.218649
vt 0.020172 0.223136
vt 0.014023 0.221639
vt 0.020172 0.163480
vt 0.014023 0.164636
vt 0.088088 0.938767
vt 0.080228 0.937130
vt 0.088088 0.934792
vt 0.080241 0.940429
vt 0.088091 0.945993
vt 0.080169 0.945844
vt 0.033593 0.899443
vt 0.027213 0.882193
vt 0.033473 0.889944
vt 0.027213 0.890895
vt 0.033541 0.880686
vt 0.027213 0.873492
vt 0.057192 0.049682
vt 0.054092 0.051252
vt 0.057150 0.048790
vt 0.053979 0.051991
vt 0.057107 0.047897
vt 0.054206 0.050512
vt 0.072824 0.040912
vt 0.067181 0.044486
vt 0.066515 0.043620
vt 0.073957 0.041599
vt 0.084476 0.032868
vt 0.087684 0.032868
vt 0.151942 0.046167
vt 0.151942 0.045359
vt 0.151942 0.044551
vt 0.151942 0.042936
vt 0.151942 0.041320
vt 0.151942 0.040797
vt 0.151942 0.040274
vt 0.151942 0.038040
vt 0.151942 0.037399
vt 0.151942 0.036639
vt 0.174510 0.038892
vt 0.175901 0.039077
vt 0.171247 0.039018
vt 0.166285 0.039216
vt 0.139841 0.032768
vt 0.139841 0.034208
vt 0.139841 0.038359
vt 0.139841 0.040434
vt 0.139841 0.042510
vt 0.139841 0.046549
vt 0.139841 0.050589
vt 0.139841 0.051727
vt 0.139841 0.052785
vt 0.139841 0.031328
vt 0.045889 0.040244
vt 0.040331 0.040244
vt 0.034702 0.032868
vt 0.045819 0.032868
vt 0.060009 0.045282
vt 0.060207 0.046328
vt 0.065850 0.042754
vt 0.071691 0.040226
vt 0.081269 0.032868
vt 0.027213 0.850459
vt 0.033795 0.860314
vt 0.027215 0.860067
vt 0.034052 0.847561
vt 0.027213 0.842311
vt 0.034006 0.838279
vt 0.027213 0.834162
vt 0.033960 0.828997
vt 0.056404 0.153417
vt 0.050438 0.146721
vt 0.056404 0.144118
vt 0.050438 0.155448
vt 0.056404 0.183712
vt 0.050438 0.183498
vt 0.056372 0.197379
vt 0.050354 0.196104
vt 0.056341 0.211045
vt 0.050271 0.208711
vt 0.056372 0.240586
vt 0.050355 0.237427
vt 0.056404 0.270137
vt 0.050438 0.266165
vt 0.056404 0.277776
vt 0.050438 0.273540
vt 0.056404 0.284685
vt 0.050438 0.280576
vt 0.056404 0.134819
vt 0.050438 0.137995
vt 0.080077 0.959028
vt 0.072104 0.951452
vt 0.080096 0.955994
vt 0.072065 0.954068
vt 0.080111 0.962096
vt 0.072134 0.956752
vt 0.088088 0.963988
vt 0.088088 0.960537
vt 0.088088 0.967440
vt 0.072393 0.942092
vt 0.072247 0.945695
vt 0.072367 0.939469
vt 0.072341 0.936846
vt 0.080215 0.933832
vt 0.088088 0.930817
vt 0.060405 0.047374
vt 0.155780 0.040974
vt 0.160649 0.040974
vt 0.166285 0.040974
vt 0.171247 0.040972
vt 0.174510 0.040974
vt 0.175901 0.040974
vt 0.177274 0.040974
vt 0.178200 0.040974
vt 0.042965 0.649552
vt 0.292980 0.923470
vt 0.307552 0.898300
vt 0.384681 0.906373
vt 0.375181 0.892394
vt 0.356183 0.864437
vt 0.333061 0.847926
vt 0.270769 0.867207
vt 0.312127 0.787098
vt 0.233986 0.836114
vt 0.267589 0.762606
vt 0.273875 0.678598
vt 0.311887 0.684313
vt 0.263168 0.630717
vt 0.322171 0.617928
vt 0.308142 0.602154
vt 0.294113 0.586381
vt 0.244751 0.571658
vt 0.287322 0.548248
vt 0.250208 0.492312
vt 0.293611 0.522927
vt 0.298899 0.501634
vt 0.286833 0.454591
vt 0.251300 0.429408
vt 0.225770 0.431813
vt 0.200240 0.434219
vt 0.211907 0.522476
vt 0.166210 0.468739
vt 0.213332 0.856178
vt 0.253156 0.889824
vt 0.360913 0.827327
vt 0.365643 0.790216
vt 0.316665 0.776420
vt 0.353989 0.687245
vt 0.349645 0.631085
vt 0.373954 0.642727
vt 0.387415 0.668099
vt 0.399496 0.690868
vt 0.390259 0.741827
vt 0.378692 0.764564
vt 0.483619 0.960527
vt 0.491471 0.954005
vt 0.487634 0.944070
vt 0.307316 0.898268
vt 0.270511 0.867175
vt 0.233707 0.836082
vt 0.267507 0.762608
vt 0.311988 0.787082
vt 0.316526 0.776404
vt 0.353776 0.687213
vt 0.262889 0.630686
vt 0.273596 0.678592
vt 0.332867 0.847905
vt 0.244473 0.571627
vt 0.211629 0.522445
vt 0.250016 0.492280
vt 0.394577 0.056573
vt 0.397078 0.044282
vt 0.385665 0.038486
vt 0.338787 0.324846
vt 0.312329 0.233977
vt 0.397058 0.285474
vt 0.366729 0.190243
vt 0.425542 0.216424
vt 0.419334 0.184434
vt 0.413126 0.152444
vt 0.400481 0.142937
vt 0.387836 0.133430
vt 0.375870 0.124433
vt 0.362546 0.114416
vt 0.339377 0.111600
vt 0.260685 0.150071
vt 0.226770 0.115184
vt 0.042716 0.488709
vt 0.312324 0.233974
vt 0.260686 0.150071
vt 0.366727 0.190233
vt 0.659149 0.406131
vt 0.715784 0.301965
vt 0.714955 0.433889
vt 0.639004 0.304372
vt 0.603343 0.413495
vt 0.580867 0.391406
vt 0.385032 0.469966
vt 0.465145 0.320298
vt 0.399623 0.320298
vt 0.465145 0.469966
vt 0.389910 0.568393
vt 0.465145 0.568393
vt 0.399997 0.621130
vt 0.465145 0.621130
vt 0.424748 0.647421
vt 0.465145 0.657624
vt 0.031699 0.032868
vt 0.038833 0.040616
vt 0.045959 0.047619
vt 0.045967 0.048363
vt 0.037336 0.041079
vt 0.028695 0.032868
vt 0.045976 0.049289
vt 0.071962 0.032868
vt 0.067173 0.036547
vt 0.063591 0.040915
vt 0.061332 0.039075
vt 0.062656 0.032868
vt 0.155780 0.042385
vt 0.155780 0.039563
vt 0.160649 0.039483
vt 0.160649 0.042507
vt 0.166285 0.042765
vt 0.890628 0.830156
vt 0.860443 0.856319
vt 0.838315 0.815321
vt 0.905212 0.898024
vt 0.951439 0.847400
vt 0.949980 0.939728
vt 0.813054 0.837657
vt 0.826436 0.856319
vt 0.813054 0.770446
vt 0.832043 0.772533
vt 0.869865 0.812450
vt 0.865314 0.775721
vt 0.890887 0.809739
vt 0.879089 0.775262
vt 0.912983 0.770526
vt 0.892635 0.748517
vt 0.918622 0.706129
vt 0.898448 0.705869
vt 0.892570 0.670382
vt 0.870135 0.706099
vt 0.876283 0.644548
vt 0.858659 0.644920
vt 0.885364 0.620724
vt 0.856142 0.622397
vt 0.838824 0.582336
vt 0.813054 0.583067
vt 0.834525 0.651041
vt 0.843598 0.671356
vt 0.839318 0.707153
vt 0.846382 0.749691
vt 0.824512 0.707573
vt 0.813054 0.703235
vt 0.952897 0.768587
vt 0.951439 0.667148
vt 0.907253 0.653006
vt 0.949980 0.579224
vt 0.894531 0.580780
usemtl mat_0
s 1
f 64/1 66/2 65/3
f 64/1 95/4 66/2
f 61/5 95/4 64/1
f 61/5 60/6 95/4
f 133/5 95/4 60/6
f 133/5 136/1 95/4
f 151/7 136/1 133/5
f 151/7 134/8 136/1
f 150/9 134/8 151/7
f 150/9 135/3 134/8
f 136/1 134/8 135/3
f 135/3 137/2 136/1
f 95/4 136/1 137/2
f 137/2 94/10 95/4
f 66/2 95/4 94/10
f 64/1 82/7 61/5
f 64/1 63/8 82/7
f 65/3 63/8 64/1
f 65/3 80/9 63/8
f 82/7 63/8 80/9
usemtl mat_1
f 212/11 1/12 2/13
f 213/11 1/14 212/12
f 214/15 213/14 212/11
f 214/15 215/16 213/14
f 216/17 215/16 214/15
f 216/17 217/18 215/16
f 218/19 217/18 216/17
f 218/19 219/20 217/18
f 3/21 219/20 218/19
f 3/21 4/22 219/20
f 220/14 6/13 5/12
f 220/14 221/11 6/13
f 222/16 221/11 220/14
f 222/16 223/15 221/11
f 224/18 223/15 222/16
f 224/18 225/17 223/15
f 226/20 225/17 224/18
f 226/20 227/19 225/17
f 7/22 227/19 226/20
f 7/22 8/21 227/19
f 335/23 332/24 333/25
f 335/23 337/26 332/24
f 338/27 337/26 335/23
f 338/27 340/28 337/26
f 342/29 340/28 338/27
f 342/29 341/30 340/28
f 344/31 341/30 342/29
f 344/31 346/32 341/30
f 348/33 334/25 347/34
f 348/33 336/23 334/25
f 349/35 336/23 348/33
f 349/35 339/27 336/23
f 350/36 339/27 349/35
f 350/36 343/29 339/27
f 351/37 343/29 350/36
f 351/37 345/31 343/29
f 352/38 347/34 369/39
f 352/38 348/33 347/34
f 354/40 348/33 352/38
f 354/40 349/35 348/33
f 356/41 349/35 354/40
f 356/41 350/36 349/35
f 358/42 350/36 356/41
f 358/42 351/37 350/36
f 357/41 346/32 359/42
f 357/41 341/30 346/32
f 355/40 341/30 357/41
f 355/40 340/28 341/30
f 353/38 340/28 355/40
f 353/38 337/26 340/28
f 368/39 337/26 353/38
f 368/39 332/24 337/26
f 386/43 319/44 385/45
f 386/43 320/46 319/44
f 301/47 320/46 386/43
f 301/47 310/48 320/46
f 320/46 417/49 319/44
f 320/46 446/50 417/49
f 310/48 446/50 320/46
f 310/48 311/51 446/50
f 446/50 418/52 417/49
f 446/50 447/53 418/52
f 311/51 447/53 446/50
f 311/51 318/54 447/53
f 447/53 420/55 418/52
f 447/53 321/56 420/55
f 318/54 321/56 447/53
f 318/54 317/57 321/56
f 321/56 399/58 420/55
f 321/56 322/59 399/58
f 317/57 322/59 321/56
f 317/57 315/60 322/59
f 323/59 395/61 398/58
f 323/59 324/62 395/61
f 314/60 324/62 323/59
f 314/60 313/63 324/62
f 324/62 394/64 395/61
f 324/62 448/65 394/64
f 313/63 448/65 324/62
f 313/63 312/66 448/65
f 448/65 392/67 394/64
f 448/65 449/68 392/67
f 312/66 449/68 448/65
f 312/66 309/69 449/68
f 449/68 316/70 392/67
f 449/68 325/71 316/70
f 309/69 325/71 449/68
f 309/69 308/72 325/71
f 325/71 384/73 316/70
f 325/71 387/74 384/73
f 308/72 387/74 325/71
f 308/72 293/75 387/74
f 387/74 295/76 384/73
f 387/74 304/77 295/76
f 293/75 304/77 387/74
f 293/75 292/78 304/77
f 304/77 296/79 295/76
f 304/77 305/80 296/79
f 292/78 305/80 304/77
f 292/78 290/81 305/80
f 306/80 303/82 297/79
f 306/80 307/83 303/82
f 291/81 307/83 306/80
f 291/81 300/84 307/83
f 307/83 385/45 303/82
f 307/83 386/43 385/45
f 300/84 386/43 307/83
f 300/84 301/47 386/43
f 329/85 504/86 327/87
f 329/85 503/88 504/86
f 506/89 503/88 329/85
f 506/89 507/90 503/88
f 518/91 507/90 506/89
f 518/91 522/92 507/90
f 529/93 526/94 527/95
f 529/93 531/96 526/94
f 550/97 531/96 529/93
f 550/97 549/98 531/96
f 552/99 549/98 550/97
f 552/99 548/100 549/98
f 555/101 548/100 552/99
f 555/101 559/102 548/100
f 496/103 559/102 555/101
f 496/103 499/104 559/102
f 474/105 499/104 496/103
f 474/105 473/106 499/104
f 476/107 473/106 474/105
f 476/107 478/108 473/106
f 490/109 478/108 476/107
f 490/109 479/110 478/108
f 470/111 479/110 490/109
f 470/111 472/112 479/110
f 531/96 534/113 526/94
f 531/96 532/114 534/113
f 549/98 532/114 531/96
f 549/98 545/115 532/114
f 548/100 545/115 549/98
f 548/100 547/116 545/115
f 559/102 547/116 548/100
f 559/102 558/117 547/116
f 499/104 558/117 559/102
f 499/104 498/118 558/117
f 473/106 498/118 499/104
f 473/106 492/119 498/118
f 478/108 492/119 473/106
f 478/108 482/120 492/119
f 479/110 482/120 478/108
f 479/110 480/121 482/120
f 472/112 480/121 479/110
f 472/112 484/122 480/121
f 513/123 328/87 505/86
f 513/123 331/124 328/87
f 515/125 331/124 513/123
f 515/125 514/126 331/124
f 523/92 514/126 515/125
f 523/92 519/91 514/126
f 541/127 528/95 540/128
f 541/127 530/93 528/95
f 543/129 530/93 541/127
f 543/129 551/97 530/93
f 542/130 551/97 543/129
f 542/130 553/99 551/97
f 556/131 553/99 542/130
f 556/131 554/101 553/99
f 494/132 554/101 556/131
f 494/132 495/103 554/101
f 487/133 495/103 494/132
f 487/133 475/105 495/103
f 488/134 475/105 487/133
f 488/134 477/107 475/105
f 489/135 477/107 488/134
f 489/135 491/109 477/107
f 486/136 491/109 489/135
f 486/136 471/111 491/109
f 533/114 540/128 535/113
f 533/114 541/127 540/128
f 544/115 541/127 533/114
f 544/115 543/129 541/127
f 546/116 543/129 544/115
f 546/116 542/130 543/129
f 557/117 542/130 546/116
f 557/117 556/131 542/130
f 497/118 556/131 557/117
f 497/118 494/132 556/131
f 493/119 494/132 497/118
f 493/119 487/133 494/132
f 483/120 487/133 493/119
f 483/120 488/134 487/133
f 481/121 488/134 483/120
f 481/121 489/135 488/134
f 485/122 489/135 481/121
f 485/122 486/136 489/135
f 331/124 460/137 328/87
f 331/124 330/138 460/137
f 514/126 330/138 331/124
f 514/126 512/139 330/138
f 519/91 512/139 514/126
f 519/91 521/140 512/139
f 326/141 327/87 459/137
f 326/141 329/85 327/87
f 502/142 329/85 326/141
f 502/142 506/89 329/85
f 520/140 506/89 502/142
f 520/140 518/91 506/89
f 517/143 513/123 516/144
f 517/143 515/125 513/123
f 525/145 515/125 517/143
f 525/145 523/92 515/125
f 516/144 513/123 505/86
f 509/146 516/144 505/86
f 503/88 508/146 504/86
f 503/88 510/147 508/146
f 507/90 510/147 503/88
f 507/90 511/148 510/147
f 522/92 511/148 507/90
f 522/92 524/145 511/148
f 563/149 528/95 562/150
f 563/149 540/128 528/95
f 538/151 540/128 563/149
f 538/151 535/113 540/128
f 560/152 534/113 539/151
f 560/152 526/94 534/113
f 561/150 526/94 560/152
f 561/150 527/95 526/94
f 235/153 233/154 234/155
f 235/153 232/156 233/154
f 248/157 232/156 235/153
f 248/157 247/158 232/156
f 243/159 247/158 248/157
f 243/159 238/160 247/158
f 241/161 238/160 243/159
f 241/161 237/162 238/160
f 242/163 237/162 241/161
f 242/163 236/164 237/162
f 257/165 236/164 242/163
f 257/165 246/166 236/164
f 254/167 246/166 257/165
f 254/167 245/168 246/166
f 253/169 245/168 254/167
f 253/169 258/170 245/168
f 260/171 258/170 253/169
f 260/171 261/172 258/170
f 281/169 261/172 260/171
f 281/169 285/170 261/172
f 280/167 285/170 281/169
f 280/167 273/168 285/170
f 284/165 273/168 280/167
f 284/165 274/166 273/168
f 269/163 274/166 284/165
f 269/163 264/164 274/166
f 270/161 264/164 269/163
f 270/161 265/162 264/164
f 271/159 265/162 270/161
f 271/159 266/160 265/162
f 276/157 266/160 271/159
f 276/157 275/158 266/160
f 263/153 275/158 276/157
f 263/153 262/156 275/158
f 234/155 262/156 263/153
f 234/155 233/154 262/156
f 565/173 232/174 564/175
f 565/173 233/176 232/174
f 604/175 233/176 565/173
f 604/175 262/174 233/176
f 632/177 262/174 604/175
f 632/177 275/178 262/174
f 615/179 275/178 632/177
f 615/179 266/180 275/178
f 612/181 266/180 615/179
f 612/181 265/182 266/180
f 613/183 265/182 612/181
f 613/183 264/184 265/182
f 628/185 264/184 613/183
f 628/185 274/186 264/184
f 608/187 274/186 628/185
f 608/187 273/188 274/186
f 607/189 273/188 608/187
f 607/189 285/190 273/188
f 600/191 285/190 607/189
f 600/191 261/192 285/190
f 571/189 261/192 600/191
f 571/189 258/190 261/192
f 570/187 258/190 571/189
f 570/187 245/188 258/190
f 592/185 245/188 570/187
f 592/185 246/186 245/188
f 574/183 246/186 592/185
f 574/183 236/184 246/186
f 575/181 236/184 574/183
f 575/181 237/182 236/184
f 577/179 237/182 575/181
f 577/179 238/180 237/182
f 595/177 238/180 577/179
f 595/177 247/178 238/180
f 564/175 247/178 595/177
f 564/175 232/174 247/178
f 637/193 567/194 636/195
f 637/193 566/196 567/194
f 656/195 566/196 637/193
f 656/195 605/194 566/196
f 671/197 605/194 656/195
f 671/197 633/198 605/194
f 663/199 633/198 671/197
f 663/199 614/200 633/198
f 661/201 614/200 663/199
f 661/201 611/202 614/200
f 662/203 611/202 661/201
f 662/203 610/204 611/202
f 668/205 610/204 662/203
f 668/205 629/206 610/204
f 659/207 629/206 668/205
f 659/207 619/208 629/206
f 658/209 619/208 659/207
f 658/209 616/210 619/208
f 655/211 616/210 658/209
f 655/211 601/212 616/210
f 641/209 601/212 655/211
f 641/209 578/210 601/212
f 640/207 578/210 641/209
f 640/207 579/208 578/210
f 650/205 579/208 640/207
f 650/205 593/206 579/208
f 642/203 593/206 650/205
f 642/203 572/204 593/206
f 643/201 572/204 642/203
f 643/201 573/202 572/204
f 644/199 573/202 643/201
f 644/199 576/200 573/202
f 652/197 576/200 644/199
f 652/197 598/198 576/200
f 636/195 598/198 652/197
f 636/195 567/194 598/198
f 672/213 674/214 675/215
f 672/213 673/216 674/214
f 698/215 673/216 672/213
f 698/215 699/214 673/216
f 709/217 699/214 698/215
f 709/217 708/218 699/214
f 706/219 708/218 709/217
f 706/219 707/220 708/218
f 704/221 707/220 706/219
f 704/221 705/222 707/220
f 702/223 705/222 704/221
f 702/223 701/224 705/222
f 703/225 701/224 702/223
f 703/225 700/226 701/224
f 697/227 700/226 703/225
f 697/227 695/228 700/226
f 677/225 695/228 697/227
f 677/225 676/226 695/228
f 678/223 676/226 677/225
f 678/223 679/224 676/226
f 680/221 679/224 678/223
f 680/221 681/222 679/224
f 682/219 681/222 680/221
f 682/219 685/220 681/222
f 683/217 685/220 682/219
f 683/217 684/218 685/220
f 675/215 684/218 683/217
f 675/215 674/214 684/218
f 168/229 166/230 167/231
f 168/229 165/232 166/230
f 182/231 165/232 168/229
f 182/231 183/230 165/232
f 187/233 183/230 182/231
f 187/233 186/234 183/230
f 782/235 186/234 187/233
f 782/235 781/236 186/234
f 786/237 781/236 782/235
f 786/237 785/238 781/236
f 790/239 785/238 786/237
f 790/239 789/240 785/238
f 744/241 789/240 790/239
f 744/241 743/242 789/240
f 756/243 743/242 744/241
f 756/243 755/244 743/242
f 172/245 170/246 171/247
f 172/245 169/248 170/246
f 184/247 169/248 172/245
f 184/247 185/246 169/248
f 189/249 185/246 184/247
f 189/249 188/250 185/246
f 784/251 188/250 189/249
f 784/251 783/252 188/250
f 788/253 783/252 784/251
f 788/253 787/254 783/252
f 792/255 787/254 788/253
f 792/255 791/256 787/254
f 746/257 791/256 792/255
f 746/257 745/258 791/256
f 757/259 745/258 746/257
f 757/259 758/260 745/258
f 639/261 641/209 638/262
f 639/261 640/207 641/209
f 651/263 640/207 639/261
f 651/263 650/205 640/207
f 649/264 650/205 651/263
f 649/264 642/203 650/205
f 647/265 642/203 649/264
f 647/265 643/201 642/203
f 648/266 643/201 647/265
f 648/266 644/199 643/201
f 653/267 644/199 648/266
f 653/267 652/197 644/199
f 646/268 652/197 653/267
f 646/268 636/195 652/197
f 645/269 636/195 646/268
f 645/269 637/193 636/195
f 664/268 637/193 645/269
f 664/268 656/195 637/193
f 670/267 656/195 664/268
f 670/267 671/197 656/195
f 666/266 671/197 670/267
f 666/266 663/199 671/197
f 665/265 663/199 666/266
f 665/265 661/201 663/199
f 667/264 661/201 665/265
f 667/264 662/203 661/201
f 669/263 662/203 667/264
f 669/263 668/205 662/203
f 660/261 668/205 669/263
f 660/261 659/207 668/205
f 657/262 659/207 660/261
f 657/262 658/209 659/207
f 654/270 658/209 657/262
f 654/270 655/211 658/209
f 638/262 655/211 654/270
f 638/262 641/209 655/211
f 569/271 571/189 568/272
f 569/271 570/187 571/189
f 603/273 570/187 569/271
f 603/273 592/185 570/187
f 583/274 592/185 603/273
f 583/274 574/183 592/185
f 582/275 574/183 583/274
f 582/275 575/181 574/183
f 586/276 575/181 582/275
f 586/276 577/179 575/181
f 596/277 577/179 586/276
f 596/277 595/177 577/179
f 589/278 595/177 596/277
f 589/278 564/175 595/177
f 588/279 564/175 589/278
f 588/279 565/173 564/175
f 627/278 565/173 588/279
f 627/278 604/175 565/173
f 631/277 604/175 627/278
f 631/277 632/177 604/175
f 624/276 632/177 631/277
f 624/276 615/179 632/177
f 620/275 615/179 624/276
f 620/275 612/181 615/179
f 623/274 612/181 620/275
f 623/274 613/183 612/181
f 635/273 613/183 623/274
f 635/273 628/185 613/183
f 609/271 628/185 635/273
f 609/271 608/187 628/185
f 606/272 608/187 609/271
f 606/272 607/189 608/187
f 599/280 607/189 606/272
f 599/280 600/191 607/189
f 568/272 600/191 599/280
f 568/272 571/189 600/191
f 240/281 718/282 239/283
f 240/281 719/284 718/282
f 244/285 719/284 240/281
f 244/285 722/286 719/284
f 255/287 722/286 244/285
f 255/287 723/288 722/286
f 256/289 723/288 255/287
f 256/289 720/290 723/288
f 249/291 720/290 256/289
f 249/291 721/292 720/290
f 250/293 721/292 249/291
f 250/293 724/294 721/292
f 251/295 724/294 250/293
f 251/295 726/296 724/294
f 252/297 726/296 251/295
f 252/297 725/298 726/296
f 279/295 725/298 252/297
f 279/295 735/296 725/298
f 277/293 735/296 279/295
f 277/293 734/294 735/296
f 278/291 734/294 277/293
f 278/291 733/292 734/294
f 283/289 733/292 278/291
f 283/289 730/290 733/292
f 282/287 730/290 283/289
f 282/287 732/288 730/290
f 272/285 732/288 282/287
f 272/285 731/286 732/288
f 267/281 731/286 272/285
f 267/281 729/284 731/286
f 268/283 729/284 267/281
f 268/283 728/282 729/284
f 259/299 728/282 268/283
f 259/299 727/300 728/282
f 239/283 727/300 259/299
f 239/283 718/282 727/300
f 719/301 54/302 718/303
f 719/301 53/304 54/302
f 722/305 53/304 719/301
f 722/305 77/306 53/304
f 57/307 55/308 56/309
f 57/307 58/310 55/308
f 131/309 58/310 57/307
f 131/309 130/308 58/310
f 156/311 130/308 131/309
f 156/311 155/312 130/308
f 59/313 61/314 62/315
f 59/313 60/316 61/314
f 132/315 60/316 59/313
f 132/315 133/314 60/316
f 152/317 133/314 132/315
f 152/317 151/318 133/314
f 69/319 71/320 68/321
f 69/319 70/322 71/320
f 55/323 70/322 69/319
f 55/323 58/324 70/322
f 738/241 749/244 750/243
f 738/241 737/242 749/244
f 774/239 737/242 738/241
f 774/239 772/240 737/242
f 768/237 772/240 774/239
f 768/237 767/238 772/240
f 762/235 767/238 768/237
f 762/235 761/236 767/238
f 174/233 761/236 762/235
f 174/233 173/234 761/236
f 167/231 173/234 174/233
f 167/231 166/230 173/234
f 740/257 751/260 752/259
f 740/257 739/258 751/260
f 776/255 739/258 740/257
f 776/255 775/256 739/258
f 770/253 775/256 776/255
f 770/253 769/254 775/256
f 764/251 769/254 770/253
f 764/251 763/252 769/254
f 175/249 763/252 764/251
f 175/249 176/250 763/252
f 171/247 176/250 175/249
f 171/247 170/246 176/250
f 646/268 687/325 645/269
f 646/268 686/326 687/325
f 653/267 686/326 646/268
f 653/267 694/327 686/326
f 648/266 694/327 653/267
f 648/266 689/328 694/327
f 647/265 689/328 648/266
f 647/265 688/329 689/328
f 649/264 688/329 647/265
f 649/264 690/330 688/329
f 651/263 690/330 649/264
f 651/263 693/331 690/330
f 639/261 693/331 651/263
f 639/261 691/332 693/331
f 638/262 691/332 639/261
f 638/262 692/333 691/332
f 654/270 692/333 638/262
f 654/270 696/334 692/333
f 657/262 696/334 654/270
f 657/262 714/333 696/334
f 660/261 714/333 657/262
f 660/261 715/332 714/333
f 669/263 715/332 660/261
f 669/263 716/331 715/332
f 667/264 716/331 669/263
f 667/264 713/330 716/331
f 665/265 713/330 667/264
f 665/265 712/329 713/330
f 666/266 712/329 665/265
f 666/266 711/328 712/329
f 670/267 711/328 666/266
f 670/267 717/327 711/328
f 664/268 717/327 670/267
f 664/268 710/326 717/327
f 645/269 710/326 664/268
f 645/269 687/325 710/326
f 692/333 679/224 691/332
f 692/333 676/226 679/224
f 696/334 676/226 692/333
f 696/334 695/228 676/226
f 714/333 695/228 696/334
f 714/333 700/226 695/228
f 715/332 700/226 714/333
f 715/332 701/224 700/226
f 765/335 175/249 764/251
f 765/335 177/336 175/249
f 784/251 177/336 765/335
f 784/251 189/249 177/336
f 771/337 764/251 770/253
f 771/337 765/335 764/251
f 788/253 765/335 771/337
f 788/253 784/251 765/335
f 777/338 770/253 776/255
f 777/338 771/337 770/253
f 792/255 771/337 777/338
f 792/255 788/253 771/337
f 579/208 581/339 578/210
f 579/208 580/340 581/339
f 593/206 580/340 579/208
f 593/206 594/341 580/340
f 572/204 594/341 593/206
f 572/204 584/342 594/341
f 573/202 584/342 572/204
f 573/202 585/343 584/342
f 576/200 585/343 573/202
f 576/200 587/344 585/343
f 598/198 587/344 576/200
f 598/198 597/345 587/344
f 567/194 597/345 598/198
f 567/194 590/346 597/345
f 566/196 590/346 567/194
f 566/196 591/347 590/346
f 605/194 591/347 566/196
f 605/194 626/346 591/347
f 633/198 626/346 605/194
f 633/198 634/345 626/346
f 614/200 634/345 633/198
f 614/200 625/344 634/345
f 611/202 625/344 614/200
f 611/202 621/343 625/344
f 610/204 621/343 611/202
f 610/204 622/342 621/343
f 629/206 622/342 610/204
f 629/206 630/341 622/342
f 619/208 630/341 629/206
f 619/208 618/340 630/341
f 616/210 618/340 619/208
f 616/210 617/339 618/340
f 601/212 617/339 616/210
f 601/212 602/348 617/339
f 578/210 602/348 601/212
f 578/210 581/339 602/348
f 583/274 585/343 582/275
f 583/274 584/342 585/343
f 603/273 584/342 583/274
f 603/273 594/341 584/342
f 569/271 594/341 603/273
f 569/271 580/340 594/341
f 568/272 580/340 569/271
f 568/272 581/339 580/340
f 599/280 581/339 568/272
f 599/280 602/348 581/339
f 606/272 602/348 599/280
f 606/272 617/339 602/348
f 609/271 617/339 606/272
f 609/271 618/340 617/339
f 635/273 618/340 609/271
f 635/273 630/341 618/340
f 623/274 630/341 635/273
f 623/274 622/342 630/341
f 620/275 622/342 623/274
f 620/275 621/343 622/342
f 624/276 621/343 620/275
f 624/276 625/344 621/343
f 631/277 625/344 624/276
f 631/277 634/345 625/344
f 627/278 634/345 631/277
f 627/278 626/346 634/345
f 588/279 626/346 627/278
f 588/279 591/347 626/346
f 589/278 591/347 588/279
f 589/278 590/346 591/347
f 596/277 590/346 589/278
f 596/277 597/345 590/346
f 586/276 597/345 596/277
f 586/276 587/344 597/345
f 582/275 587/344 586/276
f 582/275 585/343 587/344
f 76/349 74/350 73/351
f 52/352 76/349 73/351
f 144/351 143/350 127/349
f 126/352 144/351 127/349
f 81/317 61/314 82/318
f 81/317 62/315 61/314
f 100/353 62/315 81/317
f 100/353 101/354 62/315
f 83/355 101/354 100/353
f 83/355 68/321 101/354
f 84/356 68/321 83/355
f 84/356 69/319 68/321
f 85/357 69/319 84/356
f 85/357 55/323 69/319
f 86/311 56/309 55/308
f 85/312 86/311 55/308
f 694/327 674/214 686/326
f 694/327 684/218 674/214
f 689/328 684/218 694/327
f 689/328 685/220 684/218
f 73/358 88/359 52/360
f 73/358 89/361 88/359
f 72/362 89/361 73/358
f 72/362 90/363 89/361
f 96/364 90/363 72/362
f 96/364 98/365 90/363
f 142/362 98/365 96/364
f 142/362 159/363 98/365
f 144/358 159/363 142/362
f 144/358 158/361 159/363
f 126/360 158/361 144/358
f 126/360 157/359 158/361
f 254/366 239/367 253/368
f 254/366 240/369 239/367
f 257/370 240/369 254/366
f 257/370 244/371 240/369
f 242/372 244/371 257/370
f 242/372 255/373 244/371
f 241/374 255/373 242/372
f 241/374 256/375 255/373
f 243/376 256/375 241/374
f 243/376 249/377 256/375
f 248/378 249/377 243/376
f 248/378 250/379 249/377
f 235/380 250/379 248/378
f 235/380 251/381 250/379
f 234/382 251/381 235/380
f 234/382 252/383 251/381
f 263/380 252/383 234/382
f 263/380 279/381 252/383
f 276/378 279/381 263/380
f 276/378 277/379 279/381
f 271/376 277/379 276/378
f 271/376 278/377 277/379
f 270/374 278/377 271/376
f 270/374 283/375 278/377
f 269/372 283/375 270/374
f 269/372 282/373 283/375
f 284/370 282/373 269/372
f 284/370 272/371 282/373
f 280/366 272/371 284/370
f 280/366 267/369 272/371
f 281/368 267/369 280/366
f 281/368 268/367 267/369
f 260/384 268/367 281/368
f 260/384 259/385 268/367
f 253/368 259/385 260/384
f 253/368 239/367 259/385
f 92/386 86/387 91/388
f 92/386 56/389 86/387
f 93/390 56/389 92/386
f 93/390 57/391 56/389
f 161/386 57/391 93/390
f 161/386 131/389 57/391
f 160/388 131/389 161/386
f 160/388 156/387 131/389
f 726/392 91/388 724/393
f 726/392 92/386 91/388
f 725/394 92/386 726/392
f 725/394 93/390 92/386
f 735/392 93/390 725/394
f 735/392 161/386 93/390
f 734/393 161/386 735/392
f 734/393 160/388 161/386
f 89/395 77/306 88/396
f 89/395 53/304 77/306
f 90/397 53/304 89/395
f 90/397 54/302 53/304
f 98/398 54/302 90/397
f 98/398 99/399 54/302
f 159/397 99/399 98/398
f 159/397 128/302 99/399
f 158/395 128/302 159/397
f 158/395 129/304 128/302
f 157/396 129/304 158/395
f 157/396 147/306 129/304
f 99/399 718/303 54/302
f 99/399 727/400 718/303
f 128/302 727/400 99/399
f 128/302 728/303 727/400
f 129/304 728/303 128/302
f 129/304 729/301 728/303
f 147/306 729/301 129/304
f 147/306 731/305 729/301
f 101/354 59/313 62/315
f 101/354 102/401 59/313
f 68/321 102/401 101/354
f 68/321 71/320 102/401
f 754/402 738/241 750/243
f 754/402 742/403 738/241
f 751/260 742/403 754/402
f 751/260 739/258 742/403
f 778/404 738/241 742/403
f 778/404 774/239 738/241
f 779/405 774/239 778/404
f 779/405 768/237 774/239
f 780/406 768/237 779/405
f 780/406 762/235 768/237
f 179/407 762/235 780/406
f 179/407 174/233 762/235
f 180/408 174/233 179/407
f 180/408 167/231 174/233
f 181/409 167/231 180/408
f 181/409 168/229 167/231
f 191/408 168/229 181/409
f 191/408 182/231 168/229
f 190/407 182/231 191/408
f 190/407 187/233 182/231
f 795/406 187/233 190/407
f 795/406 782/235 187/233
f 794/405 782/235 795/406
f 794/405 786/237 782/235
f 793/404 786/237 794/405
f 793/404 790/239 786/237
f 747/403 790/239 793/404
f 747/403 744/241 790/239
f 759/402 744/241 747/403
f 759/402 756/243 744/241
f 169/248 180/408 170/246
f 169/248 181/409 180/408
f 185/246 181/409 169/248
f 185/246 191/408 181/409
f 188/250 191/408 185/246
f 188/250 190/407 191/408
f 783/252 190/407 188/250
f 783/252 795/406 190/407
f 787/254 795/406 783/252
f 787/254 794/405 795/406
f 791/256 794/405 787/254
f 791/256 793/404 794/405
f 745/258 793/404 791/256
f 745/258 747/403 793/404
f 758/260 747/403 745/258
f 758/260 759/402 747/403
f 179/407 170/246 180/408
f 179/407 176/250 170/246
f 780/406 176/250 179/407
f 780/406 763/252 176/250
f 779/405 763/252 780/406
f 779/405 769/254 763/252
f 778/404 769/254 779/405
f 778/404 775/256 769/254
f 742/403 775/256 778/404
f 742/403 739/258 775/256
f 70/322 140/321 71/320
f 70/322 141/319 140/321
f 58/324 141/319 70/322
f 58/324 130/323 141/319
f 141/319 153/355 140/321
f 141/319 154/356 153/355
f 130/323 154/356 141/319
f 130/323 155/357 154/356
f 708/218 710/326 699/214
f 708/218 717/327 710/326
f 707/220 717/327 708/218
f 707/220 711/328 717/327
f 164/354 152/317 132/315
f 164/354 163/353 152/317
f 140/321 163/353 164/354
f 140/321 153/355 163/353
f 102/401 132/315 59/313
f 102/401 164/354 132/315
f 71/320 164/354 102/401
f 71/320 140/321 164/354
f 673/216 686/326 674/214
f 673/216 687/325 686/326
f 699/214 687/325 673/216
f 699/214 710/326 687/325
f 839/26 842/25 838/24
f 839/26 840/23 842/25
f 844/28 840/23 839/26
f 844/28 845/27 840/23
f 847/30 845/27 844/28
f 847/30 851/29 845/27
f 848/32 851/29 847/30
f 848/32 849/31 851/29
f 841/23 853/34 843/25
f 841/23 854/33 853/34
f 846/27 854/33 841/23
f 846/27 855/35 854/33
f 852/29 855/35 846/27
f 852/29 857/36 855/35
f 850/31 857/36 852/29
f 850/31 856/37 857/36
f 854/33 875/39 853/34
f 854/33 858/38 875/39
f 855/35 858/38 854/33
f 855/35 860/40 858/38
f 857/36 860/40 855/35
f 857/36 862/41 860/40
f 856/37 862/41 857/36
f 856/37 864/42 862/41
f 847/30 865/42 848/32
f 847/30 863/41 865/42
f 844/28 863/41 847/30
f 844/28 861/40 863/41
f 839/26 861/40 844/28
f 839/26 859/38 861/40
f 838/24 859/38 839/26
f 838/24 874/39 859/38
f 826/46 889/45 825/44
f 826/46 890/43 889/45
f 816/48 890/43 826/46
f 816/48 807/47 890/43
f 952/50 825/44 923/49
f 952/50 826/46 825/44
f 817/51 826/46 952/50
f 817/51 816/48 826/46
f 953/53 923/49 925/52
f 953/53 952/50 923/49
f 823/54 952/50 953/53
f 823/54 817/51 952/50
f 827/56 925/52 926/55
f 827/56 953/53 925/52
f 824/57 953/53 827/56
f 824/57 823/54 953/53
f 828/59 926/55 905/58
f 828/59 827/56 926/55
f 821/60 827/56 828/59
f 821/60 824/57 827/56
f 830/62 904/58 901/61
f 830/62 829/59 904/58
f 818/63 829/59 830/62
f 818/63 820/60 829/59
f 954/65 901/61 899/64
f 954/65 830/62 901/61
f 819/66 830/62 954/65
f 819/66 818/63 830/62
f 955/68 899/64 898/67
f 955/68 954/65 899/64
f 815/69 954/65 955/68
f 815/69 819/66 954/65
f 831/71 898/67 822/70
f 831/71 955/68 898/67
f 814/72 955/68 831/71
f 814/72 815/69 955/68
f 891/74 822/70 888/73
f 891/74 831/71 822/70
f 799/75 831/71 891/74
f 799/75 814/72 831/71
f 810/77 888/73 801/76
f 810/77 891/74 888/73
f 796/78 891/74 810/77
f 796/78 799/75 891/74
f 811/80 801/76 802/79
f 811/80 810/77 801/76
f 797/81 810/77 811/80
f 797/81 796/78 810/77
f 813/83 803/79 809/82
f 813/83 812/80 803/79
f 806/84 812/80 813/83
f 806/84 798/81 812/80
f 890/43 809/82 889/45
f 890/43 813/83 809/82
f 807/47 813/83 890/43
f 807/47 806/84 813/83
f 1009/88 834/87 1010/86
f 1009/88 833/85 834/87
f 1013/90 833/85 1009/88
f 1013/90 1012/89 833/85
f 1028/92 1012/89 1013/90
f 1028/92 1024/91 1012/89
f 1033/96 1036/95 1032/94
f 1033/96 1034/93 1036/95
f 1055/98 1034/93 1033/96
f 1055/98 1058/97 1034/93
f 1054/100 1058/97 1055/98
f 1054/100 1056/99 1058/97
f 1065/102 1056/99 1054/100
f 1065/102 1061/101 1056/99
f 1005/104 1061/101 1065/102
f 1005/104 1001/103 1061/101
f 979/106 1001/103 1005/104
f 979/106 983/105 1001/103
f 980/108 983/105 979/106
f 980/108 981/107 983/105
f 985/110 981/107 980/108
f 985/110 996/109 981/107
f 978/112 996/109 985/110
f 978/112 976/111 996/109
f 1040/114 1032/94 1038/113
f 1040/114 1033/96 1032/94
f 1052/115 1033/96 1040/114
f 1052/115 1055/98 1033/96
f 1050/116 1055/98 1052/115
f 1050/116 1054/100 1055/98
f 1064/117 1054/100 1050/116
f 1064/117 1065/102 1054/100
f 1004/118 1065/102 1064/117
f 1004/118 1005/104 1065/102
f 998/119 1005/104 1004/118
f 998/119 979/106 1005/104
f 986/120 979/106 998/119
f 986/120 980/108 979/106
f 988/121 980/108 986/120
f 988/121 985/110 980/108
f 990/122 985/110 988/121
f 990/122 978/112 985/110
f 837/124 1011/86 835/87
f 837/124 1019/123 1011/86
f 1020/126 1019/123 837/124
f 1020/126 1021/125 1019/123
f 1025/91 1021/125 1020/126
f 1025/91 1029/92 1021/125
f 1035/93 1047/128 1037/95
f 1035/93 1046/127 1047/128
f 1059/97 1046/127 1035/93
f 1059/97 1053/129 1046/127
f 1057/99 1053/129 1059/97
f 1057/99 1048/130 1053/129
f 1060/101 1048/130 1057/99
f 1060/101 1062/131 1048/130
f 1000/103 1062/131 1060/101
f 1000/103 1002/132 1062/131
f 984/105 1002/132 1000/103
f 984/105 994/133 1002/132
f 982/107 994/133 984/105
f 982/107 993/134 994/133
f 997/109 993/134 982/107
f 997/109 995/135 993/134
f 977/111 995/135 997/109
f 977/111 992/136 995/135
f 1046/127 1039/113 1047/128
f 1046/127 1041/114 1039/113
f 1053/129 1041/114 1046/127
f 1053/129 1051/115 1041/114
f 1048/130 1051/115 1053/129
f 1048/130 1049/116 1051/115
f 1062/131 1049/116 1048/130
f 1062/131 1063/117 1049/116
f 1002/132 1063/117 1062/131
f 1002/132 1003/118 1063/117
f 994/133 1003/118 1002/132
f 994/133 999/119 1003/118
f 993/134 999/119 994/133
f 993/134 987/120 999/119
f 995/135 987/120 993/134
f 995/135 989/121 987/120
f 992/136 989/121 995/135
f 992/136 991/122 989/121
f 836/138 835/87 966/137
f 836/138 837/124 835/87
f 1018/139 837/124 836/138
f 1018/139 1020/126 837/124
f 1027/140 1020/126 1018/139
f 1027/140 1025/91 1020/126
f 833/85 965/137 834/87
f 833/85 832/141 965/137
f 1012/89 832/141 833/85
f 1012/89 1008/142 832/141
f 1024/91 1008/142 1012/89
f 1024/91 1026/140 1008/142
f 1021/125 1022/144 1019/123
f 1021/125 1023/143 1022/144
f 1029/92 1023/143 1021/125
f 1029/92 1031/145 1023/143
f 1011/86 1019/123 1022/144
f 1016/146 1011/86 1022/144
f 1014/147 1010/86 1015/146
f 1014/147 1009/88 1010/86
f 1017/148 1009/88 1014/147
f 1017/148 1013/90 1009/88
f 1030/145 1013/90 1017/148
f 1030/145 1028/92 1013/90
f 1047/128 1068/150 1037/95
f 1047/128 1069/149 1068/150
f 1039/113 1069/149 1047/128
f 1039/113 1042/151 1069/149
f 1032/94 1043/151 1038/113
f 1032/94 1066/152 1043/151
f 1036/95 1066/152 1032/94
f 1036/95 1067/150 1066/152
f 292/78 228/410 290/81
f 292/78 293/75 228/410
f 308/72 228/410 293/75
f 308/72 309/69 228/410
f 312/66 228/410 309/69
f 312/66 313/63 228/410
f 314/60 228/410 313/63
f 332/24 360/411 333/25
f 332/24 363/412 360/411
f 368/39 363/412 332/24
f 368/39 366/413 363/412
f 373/414 363/412 366/413
f 373/414 364/415 363/412
f 362/416 363/412 364/415
f 362/416 444/417 363/412
f 375/418 444/417 362/416
f 375/418 294/419 444/417
f 374/420 294/419 375/418
f 374/420 295/76 294/419
f 384/73 295/76 374/420
f 374/420 382/421 384/73
f 431/422 382/421 374/420
f 431/422 388/423 382/421
f 435/424 388/423 431/422
f 435/424 437/425 388/423
f 415/426 388/423 437/425
f 415/426 389/427 388/423
f 401/428 389/427 415/426
f 401/428 400/429 389/427
f 403/430 400/429 401/428
f 403/430 413/431 400/429
f 411/432 400/429 413/431
f 411/432 407/433 400/429
f 405/434 400/429 407/433
f 405/434 409/435 400/429
f 393/436 400/429 409/435
f 393/436 389/427 400/429
f 394/64 389/427 393/436
f 394/64 392/67 389/427
f 388/423 389/427 392/67
f 392/67 316/70 388/423
f 382/421 388/423 316/70
f 316/70 384/73 382/421
f 393/436 395/61 394/64
f 393/436 398/58 395/61
f 396/437 398/58 393/436
f 393/436 409/435 396/437
f 296/79 294/419 295/76
f 296/79 298/438 294/419
f 444/417 294/419 298/438
f 298/438 442/439 444/417
f 363/412 444/417 442/439
f 442/439 360/411 363/412
f 379/440 362/416 364/415
f 379/440 375/418 362/416
f 438/441 375/418 379/440
f 438/441 376/442 375/418
f 426/443 376/442 438/441
f 426/443 431/422 376/442
f 435/424 431/422 426/443
f 426/443 427/444 435/424
f 429/445 427/444 426/443
f 426/443 13/446 429/445
f 11/447 13/446 426/443
f 426/443 9/448 11/447
f 440/449 9/448 426/443
f 426/443 438/441 440/449
f 374/420 376/442 431/422
f 374/420 375/418 376/442
f 15/450 346/32 344/31
f 15/450 20/451 346/32
f 18/452 346/32 20/451
f 18/452 359/42 346/32
f 229/410 300/84 291/81
f 229/410 301/47 300/84
f 310/48 301/47 229/410
f 229/410 311/51 310/48
f 318/54 311/51 229/410
f 229/410 317/57 318/54
f 315/60 317/57 229/410
f 361/411 347/34 334/25
f 361/411 371/453 347/34
f 443/439 371/453 361/411
f 443/439 445/454 371/453
f 299/438 445/454 443/439
f 299/438 302/455 445/454
f 297/79 302/455 299/438
f 297/79 303/82 302/455
f 377/456 302/455 303/82
f 377/456 381/457 302/455
f 380/458 381/457 377/456
f 380/458 439/441 381/457
f 432/459 439/441 380/458
f 432/459 441/449 439/441
f 10/448 441/449 432/459
f 432/459 12/447 10/448
f 14/446 12/447 432/459
f 432/459 430/445 14/446
f 428/444 430/445 432/459
f 432/459 434/424 428/444
f 433/422 434/424 432/459
f 433/422 390/460 434/424
f 383/461 390/460 433/422
f 383/461 319/44 390/460
f 385/45 319/44 383/461
f 383/461 377/456 385/45
f 433/422 377/456 383/461
f 433/422 380/458 377/456
f 432/459 380/458 433/422
f 377/456 303/82 385/45
f 381/457 445/454 302/455
f 381/457 370/462 445/454
f 378/440 370/462 381/457
f 378/440 365/415 370/462
f 371/453 370/462 365/415
f 371/453 445/454 370/462
f 378/440 381/457 439/441
f 417/49 390/460 319/44
f 417/49 391/463 390/460
f 418/52 391/463 417/49
f 418/52 419/464 391/463
f 420/55 419/464 418/52
f 420/55 399/58 419/464
f 397/437 419/464 399/58
f 397/437 410/435 419/464
f 421/465 419/464 410/435
f 421/465 391/463 419/464
f 402/428 391/463 421/465
f 402/428 416/426 391/463
f 390/460 391/463 416/426
f 416/426 436/425 390/460
f 434/424 390/460 436/425
f 421/465 404/430 402/428
f 421/465 414/431 404/430
f 412/432 414/431 421/465
f 421/465 408/433 412/432
f 406/434 408/433 421/465
f 421/465 410/435 406/434
f 371/453 369/39 347/34
f 371/453 367/413 369/39
f 372/414 367/413 371/453
f 371/453 365/415 372/414
f 351/37 16/450 345/31
f 351/37 19/451 16/450
f 17/452 19/451 351/37
f 351/37 358/42 17/452
f 21/466 472/112 470/111
f 21/466 26/467 472/112
f 23/468 472/112 26/467
f 23/468 484/122 472/112
f 423/469 326/141 459/137
f 423/469 422/470 326/141
f 465/471 422/470 423/469
f 465/471 450/472 422/470
f 467/473 450/472 465/471
f 467/473 451/474 450/472
f 453/475 450/472 451/474
f 453/475 463/476 450/472
f 28/477 450/472 463/476
f 28/477 469/478 450/472
f 455/479 450/472 469/478
f 455/479 457/480 450/472
f 561/150 450/472 457/480
f 561/150 500/481 450/472
f 560/152 500/481 561/150
f 560/152 537/482 500/481
f 539/151 537/482 560/152
f 500/481 422/470 450/472
f 500/481 502/142 422/470
f 537/482 502/142 500/481
f 537/482 520/140 502/142
f 422/470 502/142 326/141
f 510/147 230/483 508/146
f 510/147 511/148 230/483
f 524/145 230/483 511/148
f 486/136 22/466 471/111
f 486/136 25/467 22/466
f 24/468 25/467 486/136
f 486/136 485/122 24/468
f 330/138 424/469 460/137
f 330/138 425/484 424/469
f 512/139 425/484 330/138
f 512/139 501/485 425/484
f 536/482 501/485 512/139
f 536/482 563/149 501/485
f 538/151 563/149 536/482
f 536/482 512/139 521/140
f 425/484 464/471 424/469
f 425/484 461/486 464/471
f 501/485 461/486 425/484
f 501/485 562/150 461/486
f 563/149 562/150 501/485
f 461/486 466/473 464/471
f 461/486 452/474 466/473
f 454/475 452/474 461/486
f 461/486 462/476 454/475
f 27/477 462/476 461/486
f 461/486 468/478 27/477
f 456/479 468/478 461/486
f 461/486 458/480 456/479
f 562/150 458/480 461/486
f 231/483 516/144 509/146
f 231/483 517/143 516/144
f 525/145 517/143 231/483
f 51/487 52/488 50/489
f 51/487 76/490 52/488
f 80/9 76/490 51/487
f 80/9 65/3 76/490
f 100/491 80/9 51/487
f 100/491 81/492 80/9
f 82/7 80/9 81/492
f 767/493 773/494 772/495
f 767/493 766/496 773/494
f 761/497 766/496 767/493
f 761/497 760/498 766/496
f 173/499 760/498 761/497
f 173/499 178/500 760/498
f 166/501 178/500 173/499
f 166/501 165/502 178/500
f 183/501 178/500 165/502
f 183/501 186/499 178/500
f 760/498 178/500 186/499
f 186/499 781/497 760/498
f 766/496 760/498 781/497
f 781/497 785/493 766/496
f 773/494 766/496 785/493
f 785/493 789/495 773/494
f 74/350 72/503 73/351
f 74/350 97/504 72/503
f 65/505 97/504 74/350
f 65/505 66/506 97/504
f 103/507 97/504 66/506
f 103/507 96/508 97/504
f 162/504 96/508 103/507
f 162/504 142/503 96/508
f 143/350 142/503 162/504
f 143/350 144/351 142/503
f 96/508 72/503 97/504
f 74/350 76/349 65/505
f 94/509 103/507 66/506
f 94/509 137/506 103/507
f 162/504 103/507 137/506
f 137/506 135/505 162/504
f 143/350 162/504 135/505
f 135/505 127/349 143/350
f 84/356 75/510 85/357
f 84/356 67/511 75/510
f 87/512 67/511 84/356
f 87/512 51/513 67/511
f 100/353 51/513 87/512
f 87/512 83/355 100/353
f 84/356 83/355 87/512
f 50/514 67/511 51/513
f 50/514 75/510 67/511
f 177/336 171/247 175/249
f 177/336 172/245 171/247
f 184/247 172/245 177/336
f 177/336 189/249 184/247
f 152/492 150/9 151/7
f 152/492 163/491 150/9
f 125/487 150/9 163/491
f 125/487 127/490 150/9
f 126/488 127/490 125/487
f 125/487 146/489 126/488
f 127/490 135/3 150/9
f 145/510 154/356 155/357
f 145/510 139/511 154/356
f 146/514 139/511 145/510
f 146/514 125/513 139/511
f 138/512 139/511 125/513
f 138/512 154/356 139/511
f 153/355 154/356 138/512
f 138/512 163/353 153/355
f 125/513 163/353 138/512
f 707/220 712/329 711/328
f 707/220 705/222 712/329
f 713/330 712/329 705/222
f 705/222 716/331 713/330
f 701/224 716/331 705/222
f 701/224 715/332 716/331
f 688/329 685/220 689/328
f 688/329 681/222 685/220
f 690/330 681/222 688/329
f 690/330 693/331 681/222
f 679/224 681/222 693/331
f 693/331 691/332 679/224
f 286/410 796/78 797/81
f 286/410 799/75 796/78
f 814/72 799/75 286/410
f 286/410 815/69 814/72
f 819/66 815/69 286/410
f 286/410 818/63 819/66
f 820/60 818/63 286/410
f 866/411 838/24 842/25
f 866/411 871/412 838/24
f 948/439 871/412 866/411
f 948/439 950/417 871/412
f 804/438 950/417 948/439
f 804/438 800/419 950/417
f 802/79 800/419 804/438
f 802/79 801/76 800/419
f 880/420 800/419 801/76
f 880/420 881/418 800/419
f 882/442 881/418 880/420
f 882/442 946/441 881/418
f 932/443 946/441 882/442
f 932/443 944/449 946/441
f 194/448 944/449 932/443
f 932/443 192/447 194/448
f 196/446 192/447 932/443
f 932/443 935/445 196/446
f 933/444 935/445 932/443
f 932/443 941/424 933/444
f 937/422 941/424 932/443
f 937/422 894/423 941/424
f 892/421 894/423 937/422
f 892/421 822/70 894/423
f 888/73 822/70 892/421
f 892/421 880/420 888/73
f 937/422 880/420 892/421
f 937/422 882/442 880/420
f 932/443 882/442 937/422
f 801/76 888/73 880/420
f 881/418 950/417 800/419
f 881/418 868/416 950/417
f 885/440 868/416 881/418
f 885/440 869/415 868/416
f 871/412 868/416 869/415
f 871/412 950/417 868/416
f 885/440 881/418 946/441
f 898/67 894/423 822/70
f 898/67 895/427 894/423
f 899/64 895/427 898/67
f 899/64 900/436 895/427
f 901/61 900/436 899/64
f 901/61 904/58 900/436
f 902/437 900/436 904/58
f 902/437 915/435 900/436
f 906/429 900/436 915/435
f 906/429 895/427 900/436
f 909/428 895/427 906/429
f 909/428 921/426 895/427
f 894/423 895/427 921/426
f 921/426 943/425 894/423
f 941/424 894/423 943/425
f 906/429 907/430 909/428
f 906/429 919/431 907/430
f 917/432 919/431 906/429
f 906/429 913/433 917/432
f 911/434 913/433 906/429
f 906/429 915/435 911/434
f 871/412 874/39 838/24
f 871/412 872/413 874/39
f 879/414 872/413 871/412
f 871/412 869/415 879/414
f 848/32 198/450 849/31
f 848/32 203/451 198/450
f 201/452 203/451 848/32
f 848/32 865/42 201/452
f 806/84 287/410 798/81
f 806/84 807/47 287/410
f 816/48 287/410 807/47
f 816/48 817/51 287/410
f 823/54 287/410 817/51
f 823/54 824/57 287/410
f 821/60 287/410 824/57
f 853/34 867/411 843/25
f 853/34 877/453 867/411
f 875/39 877/453 853/34
f 875/39 873/413 877/453
f 878/414 877/453 873/413
f 878/414 870/415 877/453
f 876/462 877/453 870/415
f 876/462 951/454 877/453
f 887/457 951/454 876/462
f 887/457 808/455 951/454
f 883/456 808/455 887/457
f 883/456 809/82 808/455
f 889/45 809/82 883/456
f 883/456 893/461 889/45
f 939/422 893/461 883/456
f 939/422 896/460 893/461
f 940/424 896/460 939/422
f 940/424 942/425 896/460
f 922/426 896/460 942/425
f 922/426 897/463 896/460
f 910/428 897/463 922/426
f 910/428 927/465 897/463
f 908/430 927/465 910/428
f 908/430 920/431 927/465
f 918/432 927/465 920/431
f 918/432 914/433 927/465
f 912/434 927/465 914/433
f 912/434 916/435 927/465
f 924/464 927/465 916/435
f 924/464 897/463 927/465
f 925/52 897/463 924/464
f 925/52 923/49 897/463
f 896/460 897/463 923/49
f 923/49 825/44 896/460
f 893/461 896/460 825/44
f 825/44 889/45 893/461
f 924/464 926/55 925/52
f 924/464 905/58 926/55
f 903/437 905/58 924/464
f 924/464 916/435 903/437
f 803/79 808/455 809/82
f 803/79 805/438 808/455
f 951/454 808/455 805/438
f 805/438 949/439 951/454
f 877/453 951/454 949/439
f 949/439 867/411 877/453
f 884/440 876/462 870/415
f 884/440 887/457 876/462
f 947/441 887/457 884/440
f 947/441 886/458 887/457
f 938/459 886/458 947/441
f 938/459 939/422 886/458
f 940/424 939/422 938/459
f 938/459 934/444 940/424
f 936/445 934/444 938/459
f 938/459 197/446 936/445
f 193/447 197/446 938/459
f 938/459 195/448 193/447
f 945/449 195/448 938/459
f 938/459 947/441 945/449
f 883/456 886/458 939/422
f 883/456 887/457 886/458
f 199/450 856/37 850/31
f 199/450 202/451 856/37
f 200/452 856/37 202/451
f 200/452 864/42 856/37
f 978/112 204/466 976/111
f 978/112 209/467 204/466
f 206/468 209/467 978/112
f 978/112 990/122 206/468
f 832/141 929/469 965/137
f 832/141 928/470 929/469
f 1008/142 928/470 832/141
f 1008/142 1006/481 928/470
f 1045/482 1006/481 1008/142
f 1045/482 1066/152 1006/481
f 1043/151 1066/152 1045/482
f 1045/482 1008/142 1026/140
f 1067/150 1006/481 1066/152
f 1067/150 956/472 1006/481
f 963/480 956/472 1067/150
f 963/480 961/479 956/472
f 975/478 956/472 961/479
f 975/478 211/477 956/472
f 969/476 956/472 211/477
f 969/476 957/475 956/472
f 959/474 956/472 957/475
f 959/474 973/473 956/472
f 971/471 956/472 973/473
f 971/471 928/470 956/472
f 929/469 928/470 971/471
f 956/472 928/470 1006/481
f 288/483 1014/147 1015/146
f 288/483 1017/148 1014/147
f 1030/145 1017/148 288/483
f 205/466 992/136 977/111
f 205/466 208/467 992/136
f 207/468 992/136 208/467
f 207/468 991/122 992/136
f 930/469 836/138 966/137
f 930/469 931/484 836/138
f 970/471 931/484 930/469
f 970/471 967/486 931/484
f 972/473 967/486 970/471
f 972/473 960/474 967/486
f 958/475 967/486 960/474
f 958/475 968/476 967/486
f 210/477 967/486 968/476
f 210/477 974/478 967/486
f 962/479 967/486 974/478
f 962/479 964/480 967/486
f 1068/150 967/486 964/480
f 1068/150 1007/485 967/486
f 1069/149 1007/485 1068/150
f 1069/149 1044/482 1007/485
f 1042/151 1044/482 1069/149
f 1007/485 931/484 967/486
f 1007/485 1018/139 931/484
f 1044/482 1018/139 1007/485
f 1044/482 1027/140 1018/139
f 1018/139 836/138 931/484
f 1022/144 289/483 1016/146
f 1022/144 1023/143 289/483
f 1031/145 289/483 1023/143
f 748/515 749/244 737/242
f 748/515 675/215 749/244
f 672/213 675/215 748/515
f 748/515 698/215 672/213
f 755/244 698/215 748/515
f 755/244 709/217 698/215
f 706/219 709/217 755/244
f 755/244 756/243 706/219
f 759/402 706/219 756/243
f 759/402 704/221 706/219
f 702/223 704/221 759/402
f 759/402 758/260 702/223
f 757/259 702/223 758/260
f 757/259 703/225 702/223
f 753/516 703/225 757/259
f 753/516 697/227 703/225
f 677/225 697/227 753/516
f 753/516 752/259 677/225
f 740/257 752/259 753/516
f 753/516 741/517 740/257
f 746/257 741/517 753/516
f 746/257 792/255 741/517
f 777/338 741/517 792/255
f 777/338 776/255 741/517
f 740/257 741/517 776/255
f 746/257 753/516 757/259
f 752/259 678/223 677/225
f 752/259 751/260 678/223
f 754/402 678/223 751/260
f 754/402 680/221 678/223
f 682/219 680/221 754/402
f 754/402 750/243 682/219
f 749/244 682/219 750/243
f 749/244 683/217 682/219
f 675/215 683/217 749/244
f 748/515 743/242 755/244
f 748/515 736/518 743/242
f 737/242 736/518 748/515
f 737/242 772/240 736/518
f 773/519 736/518 772/240
f 773/519 789/240 736/518
f 743/242 736/518 789/240
usemtl mat_2
f 78/520 86/521 79/522
f 78/520 91/523 86/521
f 721/524 91/523 78/520
f 721/524 724/525 91/523
f 160/523 149/522 156/521
f 160/523 148/520 149/522
f 734/525 148/520 160/523
f 734/525 733/524 148/520
f 85/526 79/522 86/527
f 85/526 75/528 79/522
f 39/529 79/522 75/528
f 39/529 37/530 79/522
f 38/531 37/530 39/529
f 38/531 35/532 37/530
f 36/533 35/532 38/531
f 36/533 33/534 35/532
f 34/535 33/534 36/533
f 34/535 30/536 33/534
f 32/537 30/536 34/535
f 32/537 31/538 30/536
f 49/539 31/538 32/537
f 49/539 48/540 31/538
f 46/541 48/540 49/539
f 46/541 47/542 48/540
f 45/543 47/542 46/541
f 45/543 88/544 47/542
f 52/545 88/544 45/543
f 45/543 43/546 52/545
f 46/541 43/546 45/543
f 46/541 44/547 43/546
f 49/539 44/547 46/541
f 49/539 42/548 44/547
f 40/549 42/548 49/539
f 40/549 39/529 42/548
f 38/531 39/529 40/549
f 40/549 49/539 38/531
f 36/533 38/531 49/539
f 49/539 34/535 36/533
f 32/537 34/535 49/539
f 42/548 43/546 44/547
f 42/548 41/550 43/546
f 39/529 41/550 42/548
f 39/529 50/551 41/550
f 75/528 50/551 39/529
f 50/551 43/546 41/550
f 50/551 52/545 43/546
f 37/530 78/520 79/522
f 37/530 35/532 78/520
f 721/524 78/520 35/532
f 35/532 720/552 721/524
f 33/534 720/552 35/532
f 33/534 30/536 720/552
f 723/553 720/552 30/536
f 30/536 29/554 723/553
f 31/538 29/554 30/536
f 31/538 48/540 29/554
f 47/542 29/554 48/540
f 47/542 722/555 29/554
f 77/556 722/555 47/542
f 47/542 88/544 77/556
f 723/553 29/554 722/555
f 149/522 155/526 156/527
f 149/522 145/528 155/526
f 114/529 145/528 149/522
f 114/529 146/551 145/528
f 116/550 146/551 114/529
f 116/550 118/546 146/551
f 117/548 118/546 116/550
f 117/548 119/547 118/546
f 124/539 119/547 117/548
f 124/539 121/541 119/547
f 123/540 121/541 124/539
f 123/540 122/542 121/541
f 104/554 122/542 123/540
f 104/554 731/555 122/542
f 732/553 731/555 104/554
f 104/554 106/536 732/553
f 105/538 106/536 104/554
f 105/538 107/537 106/536
f 124/539 107/537 105/538
f 124/539 109/535 107/537
f 111/533 109/535 124/539
f 111/533 108/534 109/535
f 110/532 108/534 111/533
f 110/532 730/552 108/534
f 733/524 730/552 110/532
f 110/532 148/520 733/524
f 112/530 148/520 110/532
f 112/530 149/522 148/520
f 114/529 149/522 112/530
f 112/530 113/531 114/529
f 110/532 113/531 112/530
f 110/532 111/533 113/531
f 124/539 113/531 111/533
f 124/539 115/549 113/531
f 117/548 115/549 124/539
f 117/548 114/529 115/549
f 116/550 114/529 117/548
f 114/529 113/531 115/549
f 109/535 106/536 107/537
f 109/535 108/534 106/536
f 730/552 106/536 108/534
f 730/552 732/553 106/536
f 121/541 118/546 119/547
f 121/541 120/543 118/546
f 122/542 120/543 121/541
f 122/542 157/544 120/543
f 147/556 157/544 122/542
f 122/542 731/555 147/556
f 123/540 105/538 104/554
f 123/540 124/539 105/538
f 118/546 126/545 146/551
f 118/546 120/543 126/545
f 157/544 126/545 120/543
