xof 0303txt 0032

template AnimTicksPerSecond {
  <9E415A43-7BA6-4a73-8743-B73D47E88476>
  DWORD AnimTicksPerSecond;
}

template XSkinMeshHeader {
  <3cf169ce-ff7c-44ab-93c0-f78f62d172e2>
  WORD nMaxSkinWeightsPerVertex;
  WORD nMaxSkinWeightsPerFace;
  WORD nBones;
}

template SkinWeights {
  <6f0d123b-bad2-4167-a0d0-80224f25fabb>
  STRING transformNodeName;
  DWORD nWeights;
  array DWORD vertexIndices[nWeights];
  array float weights[nWeights];
  Matrix4x4 matrixOffset;
}

Frame Root {
  FrameTransformMatrix {
     1.000000, 0.000000, 0.000000, 0.000000,
     0.000000, 0.000000, 1.000000, 0.000000,
     0.000000, 1.000000,-0.000000, 0.000000,
     0.000000, 0.000000, 0.000000, 1.000000;;
  }
  Frame ordile_mat_0 {
    FrameTransformMatrix {
       1.000000, 0.000000, 0.000000, 0.000000,
       0.000000, 1.000000, 0.000000, 0.000000,
       0.000000, 0.000000, 1.000000, 0.000000,
       0.000000, 0.000000, 0.000000, 1.000000;;
    }
    Mesh { //Mesh Mesh
      60;
       1.743774;12.707248;11.557977;,
       1.527804;11.446723;12.988420;,
       0.000000;13.060037;11.864969;,
       1.527804;11.446723;12.988420;,
       0.000000;11.895853;13.357399;,
       0.000000;13.060037;11.864969;,
      -1.743774;12.707248;11.557977;,
       0.000000;13.060037;11.864969;,
       0.000000;11.895853;13.357399;,
       0.000000;11.895853;13.357399;,
      -1.527804;11.446723;12.988420;,
      -1.743774;12.707248;11.557977;,
       1.527804;11.446723;12.988420;,
       1.743774;12.707248;11.557977;,
       0.000000;11.135152;12.726670;,
       1.743774;12.707248;11.557977;,
       0.000000;12.395541;11.296269;,
       0.000000;11.135152;12.726670;,
       0.000000;11.135152;12.726670;,
       0.000000;12.395541;11.296269;,
      -1.527804;11.446723;12.988420;,
       0.000000;12.395541;11.296269;,
      -1.743774;12.707248;11.557977;,
      -1.527804;11.446723;12.988420;,
       0.546642;10.480230;14.219177;,
       1.527804;11.446723;12.988420;,
       0.000000;10.480230;14.219177;,
       1.527804;11.446723;12.988420;,
       0.000000;11.135152;12.726670;,
       0.000000;10.480230;14.219177;,
       0.000000;10.480230;14.219177;,
       0.000000;11.135152;12.726670;,
      -0.546642;10.480230;14.219177;,
       0.000000;11.135152;12.726670;,
      -1.527804;11.446723;12.988420;,
      -0.546642;10.480230;14.219177;,
       1.527804;11.446723;12.988420;,
       0.546642;10.480230;14.219177;,
       0.000000;11.895853;13.357399;,
       0.546642;10.480230;14.219177;,
       0.000000;10.480230;14.219177;,
       0.000000;11.895853;13.357399;,
       0.000000;11.895853;13.357399;,
       0.000000;10.480230;14.219177;,
      -1.527804;11.446723;12.988420;,
       0.000000;10.480230;14.219177;,
      -0.546642;10.480230;14.219177;,
      -1.527804;11.446723;12.988420;,
       1.743774;12.707248;11.557977;,
       0.000000;14.963987; 9.029685;,
       0.000000;12.395541;11.296269;,
       0.000000;12.395541;11.296269;,
       0.000000;14.963987; 9.029685;,
      -1.743774;12.707248;11.557977;,
       1.743774;12.707248;11.557977;,
       0.000000;13.060037;11.864969;,
       0.000000;14.963987; 9.029685;,
       0.000000;14.963987; 9.029685;,
       0.000000;13.060037;11.864969;,
      -1.743774;12.707248;11.557977;;
      20;
      3;0;1;2;,
      3;3;4;5;,
      3;6;7;8;,
      3;9;10;11;,
      3;12;13;14;,
      3;15;16;17;,
      3;18;19;20;,
      3;21;22;23;,
      3;24;25;26;,
      3;27;28;29;,
      3;30;31;32;,
      3;33;34;35;,
      3;36;37;38;,
      3;39;40;41;,
      3;42;43;44;,
      3;45;46;47;,
      3;48;49;50;,
      3;51;52;53;,
      3;54;55;56;,
      3;57;58;59;;
      MeshNormals { //Mesh Normals
        60;
        -0.258889;-0.749138;-0.609668;,
        -0.325907;-0.671499;-0.665426;,
        -0.011750;-0.802057;-0.597095;,
        -0.325907;-0.671499;-0.665426;,
         0.002930;-0.676473;-0.736442;,
        -0.011750;-0.802057;-0.597095;,
         0.283731;-0.758995;-0.585986;,
        -0.011750;-0.802057;-0.597095;,
         0.002930;-0.676473;-0.736442;,
         0.002930;-0.676473;-0.736442;,
         0.325571;-0.632832;-0.702475;,
         0.283731;-0.758995;-0.585986;,
        -0.236671; 0.799066; 0.552660;,
        -0.234291; 0.698355; 0.676290;,
        -0.008301; 0.834376; 0.551073;,
        -0.234291; 0.698355; 0.676290;,
         0.003479; 0.710501; 0.703665;,
        -0.008301; 0.834376; 0.551073;,
        -0.008301; 0.834376; 0.551073;,
         0.003479; 0.710501; 0.703665;,
         0.247902; 0.782586; 0.571001;,
         0.003479; 0.710501; 0.703665;,
         0.226844; 0.704703; 0.672201;,
         0.247902; 0.782586; 0.571001;,
        -0.000000; 0.786462; 0.617603;,
        -0.236671; 0.799066; 0.552660;,
        -0.063570; 0.886502; 0.458296;,
        -0.236671; 0.799066; 0.552660;,
        -0.008301; 0.834376; 0.551073;,
        -0.063570; 0.886502; 0.458296;,
        -0.063570; 0.886502; 0.458296;,
        -0.008301; 0.834376; 0.551073;,
         0.107944; 0.895199; 0.432356;,
        -0.008301; 0.834376; 0.551073;,
         0.247902; 0.782586; 0.571001;,
         0.107944; 0.895199; 0.432356;,
        -0.325907;-0.671499;-0.665426;,
        -0.152348;-0.556169;-0.816950;,
         0.002930;-0.676473;-0.736442;,
        -0.152348;-0.556169;-0.816950;,
         0.090304;-0.592059;-0.800775;,
         0.002930;-0.676473;-0.736442;,
         0.002930;-0.676473;-0.736442;,
         0.090304;-0.592059;-0.800775;,
         0.325571;-0.632832;-0.702475;,
         0.090304;-0.592059;-0.800775;,
        -0.000000;-0.786462;-0.617603;,
         0.325571;-0.632832;-0.702475;,
        -0.234291; 0.698355; 0.676290;,
        -0.000000; 0.661672; 0.749779;,
         0.003479; 0.710501; 0.703665;,
         0.003479; 0.710501; 0.703665;,
        -0.000000; 0.661672; 0.749779;,
         0.226844; 0.704703; 0.672201;,
        -0.258889;-0.749138;-0.609668;,
        -0.011750;-0.802057;-0.597095;,
        -0.000000;-0.830164;-0.557482;,
        -0.000000;-0.830164;-0.557482;,
        -0.011750;-0.802057;-0.597095;,
         0.283731;-0.758995;-0.585986;;
        20;
        3;0;1;2;,
        3;3;4;5;,
        3;6;7;8;,
        3;9;10;11;,
        3;12;13;14;,
        3;15;16;17;,
        3;18;19;20;,
        3;21;22;23;,
        3;24;25;26;,
        3;27;28;29;,
        3;30;31;32;,
        3;33;34;35;,
        3;36;37;38;,
        3;39;40;41;,
        3;42;43;44;,
        3;45;46;47;,
        3;48;49;50;,
        3;51;52;53;,
        3;54;55;56;,
        3;57;58;59;;
      } //End of Mesh Normals
      MeshMaterialList { //Mesh Material List
        1;
        20;
        0,
        0,
        0,
        0,
        0,
        0,
        0,
        0,
        0,
        0,
        0,
        0,
        0,
        0,
        0,
        0,
        0,
        0,
        0,
        0;;
        Material mat_0 {
           0.640000; 0.640000; 0.640000; 1.000000;;
           92.156863;
           0.250000; 0.250000; 0.250000;;
           0.000000; 0.000000; 0.000000;;
          TextureFilename {"Textures/ordile_0_0.tga";}
        }
      } //End of Mesh Material List
      MeshTextureCoords { //Mesh UV Coordinates
        60;
         0.154069; 0.878098;,
         0.247030; 0.861599;,
         0.156064; 0.932584;,
         0.247030; 0.861599;,
         0.240342; 0.931808;,
         0.156064; 0.932584;,
         0.154069; 0.878098;,
         0.156064; 0.932584;,
         0.240342; 0.931808;,
         0.240342; 0.931808;,
         0.247030; 0.861599;,
         0.154069; 0.878098;,
         0.247030; 0.861599;,
         0.154069; 0.878098;,
         0.240342; 0.931808;,
         0.154069; 0.878098;,
         0.156064; 0.932584;,
         0.240342; 0.931808;,
         0.240342; 0.931808;,
         0.156064; 0.932584;,
         0.247030; 0.861599;,
         0.156064; 0.932584;,
         0.154069; 0.878098;,
         0.247030; 0.861599;,
         0.274704; 0.907753;,
         0.247030; 0.861599;,
         0.274704; 0.927927;,
         0.247030; 0.861599;,
         0.240342; 0.931808;,
         0.274704; 0.927927;,
         0.274704; 0.927927;,
         0.240342; 0.931808;,
         0.274704; 0.907753;,
         0.240342; 0.931808;,
         0.247030; 0.861599;,
         0.274704; 0.907753;,
         0.247030; 0.861599;,
         0.274704; 0.907753;,
         0.240342; 0.931808;,
         0.274704; 0.907753;,
         0.274704; 0.927927;,
         0.240342; 0.931808;,
         0.240342; 0.931808;,
         0.274704; 0.927927;,
         0.247030; 0.861599;,
         0.274704; 0.927927;,
         0.274704; 0.907753;,
         0.247030; 0.861599;,
         0.154069; 0.878098;,
         0.127413; 0.934913;,
         0.156064; 0.932584;,
         0.127413; 0.934913;,
         0.154069; 0.878098;,
         0.156064; 0.932584;,
         0.154069; 0.878098;,
         0.156064; 0.932584;,
         0.127413; 0.934913;,
         0.127413; 0.934913;,
         0.156064; 0.932584;,
         0.154069; 0.878098;;
      } //End of Mesh UV Coordinates
    } //End of Mesh Mesh
  } //End of ordile_mat_0
} //End of Root Frame
