# Blender v2.66 (sub 1) OBJ File: 'BR_Feraligatr-Shiny01.blend'
# www.blender.org
mtllib BR_Feraligatr-Shiny01.mtl
o ordile
v 0.000000 9.029685 -14.963987
v 0.000000 9.029685 -14.963987
v 1.743774 11.557977 -12.707248
v 1.743774 11.557977 -12.707248
v 0.000000 11.296269 -12.395541
v 0.000000 11.864969 -13.060037
v -1.743774 11.557977 -12.707248
v -1.743774 11.557977 -12.707248
v 0.000000 13.357399 -11.895853
v 1.527804 12.988420 -11.446723
v 1.527804 12.988420 -11.446723
v 0.000000 12.726670 -11.135152
v -1.527804 12.988420 -11.446723
v -1.527804 12.988420 -11.446723
v 0.546642 14.219177 -10.480230
v 0.546642 14.219177 -10.480230
v 0.000000 14.219177 -10.480230
v 0.000000 14.219177 -10.480230
v -0.546642 14.219177 -10.480230
v -0.546642 14.219177 -10.480230
vt 0.156064 0.067416
vt 0.247030 0.138401
vt 0.154069 0.121902
vt 0.240342 0.068192
vt 0.274704 0.072073
vt 0.274704 0.092247
vt 0.127413 0.065087
usemtl mat_0
s 1
f 6/1 10/2 4/3
f 6/1 9/4 10/2
f 8/3 9/4 6/1
f 8/3 13/2 9/4
f 12/4 3/3 11/2
f 12/4 5/1 3/3
f 14/2 5/1 12/4
f 14/2 7/3 5/1
f 17/5 11/2 15/6
f 17/5 12/4 11/2
f 19/6 12/4 17/5
f 19/6 14/2 12/4
f 9/4 16/6 10/2
f 9/4 18/5 16/6
f 13/2 18/5 9/4
f 13/2 20/6 18/5
f 5/1 1/7 3/3
f 7/1 1/3 5/7
f 2/7 6/1 4/3
f 2/7 8/3 6/1
