# Blender v2.66 (sub 1) OBJ File: 'BR_Kecleon-Shiny01.blend'
# www.blender.org
mtllib BR_Kecleon-Shiny01.mtl
o kakureon
v 0.011834 -1.636379 -1.178166
v 0.643678 0.191981 -1.345918
v 0.012573 0.361767 -1.251980
v 1.461907 -1.137914 -1.964046
v 1.160684 -1.710554 -2.156325
v -0.616527 0.191981 -1.358522
v -1.422231 -1.137913 -1.992890
v -1.086146 -1.710554 -2.178796
v 0.883918 1.166380 -6.577812
v 0.923038 1.241792 -6.531158
v 1.050707 0.929601 -6.474552
v 0.505642 1.658129 -6.690713
v 0.468257 1.595365 -6.438883
v 0.858994 1.181609 -6.302948
v 0.471201 1.573241 -6.734876
v 0.067516 1.927261 -6.745687
v 0.064992 1.862666 -6.493307
v 0.068047 1.824744 -6.798731
v 1.603582 0.075402 -6.470500
v 0.072455 1.625480 -7.239583
v 0.582675 1.262158 -7.386247
v 0.998137 0.829530 -7.499679
v -1.473747 0.075402 -6.501277
v -1.207874 0.520759 -7.001868
v -0.371622 1.658129 -6.699487
v -0.792126 1.241793 -6.548312
v -0.339282 1.595365 -6.446959
v -0.732659 1.181610 -6.318867
v -0.336305 1.573241 -6.742951
v -0.434729 1.262159 -7.396422
v -0.661066 1.247144 -6.858243
v -0.847840 0.829530 -7.518141
v -0.752081 1.166381 -6.594174
v -0.920902 0.929601 -6.494270
v 1.347774 0.520759 -6.976309
v -0.800394 1.080198 -6.843424
v -0.923993 0.937656 -6.778694
v 0.937208 1.080197 -6.826046
v 1.059487 0.937660 -6.758857
v 0.798204 1.247143 -6.843649
v 1.520346 -2.163636 -7.805809
v 1.877863 -1.259884 -6.522650
v 1.628390 -2.007985 -6.530413
v 0.934955 -2.770688 -7.833444
v 0.862226 -2.187829 -5.881116
v 0.059499 -2.357347 -5.944143
v 1.332513 -0.374748 -5.650785
v 1.176724 -2.176399 -8.646011
v 1.176724 -2.176399 -8.646011
v 0.704077 -2.766493 -7.803416
v 0.704077 -2.766493 -7.803416
v 0.078618 -2.866276 -7.855935
v 0.070052 -2.854631 -6.999393
v 0.070052 -2.854631 -6.999393
v 0.070052 -2.854631 -6.999393
v 0.070052 -2.854631 -6.999393
v 0.065679 -2.749778 -6.562088
v 1.004189 -2.486850 -6.543859
v 1.383638 -2.197260 -8.570536
v 0.089102 -2.190262 -8.904106
v 0.591678 -1.368841 -6.796807
v 0.584370 -0.934999 -6.174231
v 0.062524 -0.952736 -6.246619
v 1.090389 -0.879154 -6.082287
v 0.967807 -1.173109 -6.502206
v 0.069239 -1.460059 -6.918058
v 0.728008 0.572580 -8.461316
v 0.728008 0.572580 -8.461316
v 0.090206 0.029724 -9.014446
v 0.083114 0.947698 -8.305369
v 1.242025 -1.354398 -8.851475
v 1.242025 -1.354398 -8.851475
v 1.183686 0.327657 -8.168181
v 1.573937 -0.069696 -7.624199
v 1.451609 -1.157883 -5.748780
v 1.271455 -1.816720 -5.826707
v 1.808382 -1.309599 -7.753843
v 0.916016 0.505775 -8.483342
v 1.106706 -0.243106 -8.761765
v 1.106706 -0.243106 -8.761765
v 0.092049 -1.309411 -9.198769
v 1.422147 -1.392120 -8.793235
v 1.248219 -0.258280 -8.713542
v -1.421034 -0.069696 -7.654152
v -1.746925 -1.259884 -6.558902
v -1.363823 -2.163635 -7.834654
v -1.497353 -2.007984 -6.561674
v -0.777996 -2.770688 -7.850575
v -0.744328 -2.187829 -5.897183
v -1.219127 -0.374748 -5.676304
v -0.547765 -2.766493 -7.815936
v -0.547765 -2.766493 -7.815936
v -1.003465 -2.176399 -8.667815
v -1.003465 -2.176399 -8.667815
v -0.873008 -2.486850 -6.562634
v -1.211847 -2.197259 -8.596494
v -0.455520 -1.368841 -6.807280
v -0.460665 -0.934999 -6.184682
v -0.968417 -0.879154 -6.102878
v -0.837422 -1.238593 -6.524654
v -0.558531 0.572581 -8.474183
v -0.558531 0.572581 -8.474183
v -1.064643 -1.354398 -8.874544
v -1.064643 -1.354398 -8.874544
v -1.019976 0.327658 -8.190221
v -1.073594 -0.258279 -8.736762
v -1.336240 -1.157882 -5.776661
v -1.154563 -1.816719 -5.850970
v -1.652839 -1.309603 -7.788459
v -0.746062 0.505775 -8.499965
v -0.931145 -0.243105 -8.782146
v -0.931145 -0.243105 -8.782146
v -1.245894 -1.392119 -8.819918
v 0.599000 1.301169 -5.878678
v 0.653934 0.734711 -5.646852
v 1.110031 0.449579 -5.927893
v 1.466641 0.030296 -6.091665
v 0.736896 -0.051927 -5.554480
v 0.062056 1.852102 -6.199711
v 0.663761 1.402087 -6.162322
v 0.651988 1.394884 -5.949904
v 0.055273 0.040629 -5.521522
v 0.056024 0.844853 -5.596637
v 1.338686 0.159405 -6.100226
v 1.149140 0.484256 -5.996915
v -0.991147 0.449580 -5.948907
v -0.540762 0.734711 -5.658800
v -0.481202 1.301169 -5.889482
v -1.216304 0.159405 -6.125779
v -0.625555 -0.051927 -5.568106
v -0.540277 1.402088 -6.174363
v -1.029526 0.510494 -6.169009
v -1.344411 0.030297 -6.119778
v 0.059014 1.694556 -5.895542
v -1.028867 0.484257 -6.018697
v -0.532754 1.394884 -5.961753
v 0.059651 1.785821 -5.959257
v 3.901615 -0.832131 -4.920122
v 3.825440 -0.525889 -4.666558
v 3.872748 -1.186116 -4.666110
v 4.376561 -0.389822 -4.714582
v 4.437883 -1.245670 -4.714005
v 4.593785 -0.974692 -4.483968
v 4.245114 -0.808257 -4.438365
v 4.566641 -0.595836 -4.484225
v 4.330143 -0.474299 -4.415495
v 4.514212 -0.790063 -4.850313
v 0.021370 -11.363554 -1.900117
v 0.019615 -12.146278 -2.084808
v -0.377676 -12.503542 -1.319792
v 0.404953 -12.503542 -1.311965
v 0.415231 -11.429405 -0.992416
v -0.393519 -11.429405 -1.000504
v 1.518083 -0.539267 0.020337
v 0.938511 -0.353517 0.014548
v 0.734189 -0.498835 0.012499
v 0.786541 -0.839730 0.013010
v 0.786541 -0.839730 0.013010
v 1.068988 -1.412632 0.015813
v 1.068988 -1.412632 0.015813
v 0.811641 -0.422159 -0.104045
v 1.439530 -0.468483 -0.104366
v 1.474951 -0.838992 0.019895
v 1.474951 -0.838992 0.019895
v 1.129282 -0.345944 -0.118423
v 0.943261 -1.854791 -4.000935
v 0.663893 -2.048182 -4.033313
v 1.447978 -1.515414 -3.923117
v 1.379202 -0.462157 -3.786778
v 1.001797 0.238380 -3.710034
v 0.036885 0.555746 -3.682934
v 0.040806 -2.206454 -4.075031
v -0.582991 -2.048182 -4.045784
v -0.862950 -1.854791 -4.018999
v -1.369123 -1.515414 -3.951291
v -1.303087 -0.462157 -3.813604
v -0.927292 0.238381 -3.729327
v 0.565814 -1.844005 -4.885369
v 0.845257 -1.682555 -4.840670
v 0.845257 -1.682555 -4.840670
v 0.876620 0.024942 -4.446692
v 0.731944 -0.198576 -5.007354
v 0.049606 0.027768 -4.954946
v 0.049339 -1.909837 -4.928277
v 0.044135 0.306549 -4.407849
v -0.467890 -1.844005 -4.895707
v -0.748171 -1.682555 -4.856606
v -0.748171 -1.682555 -4.856606
v -0.787406 0.024942 -4.463334
v -0.631541 -0.198576 -5.020991
v 0.507441 -1.565720 -5.362811
v 0.053904 -0.322826 -5.384716
v 0.527774 -0.503930 -5.442611
v 0.052994 -1.759614 -5.293756
v 0.448243 -1.527755 -5.541703
v 0.055389 -1.660818 -5.533161
v 0.661527 -0.721218 -5.473369
v -0.399980 -1.565720 -5.371886
v -1.062601 -0.845348 -4.581987
v -1.062601 -0.845348 -4.581987
v -0.418713 -0.503930 -5.452077
v -0.337216 -1.527754 -5.549558
v -0.551823 -0.721218 -5.485504
v 1.032807 -1.285854 -0.701009
v 1.579940 -0.838998 -0.747554
v 0.735951 -0.659816 -0.652226
v 1.108976 0.001570 -0.715260
v 2.420527 -1.042387 -5.125933
v 2.412228 -0.538630 -4.772388
v 1.390892 -0.540564 -4.955116
v 0.023683 0.784863 -2.362907
v 1.104162 0.410283 -2.393055
v 1.534333 -0.269775 -2.496447
v 1.641409 -1.320215 -2.722886
v 0.030183 -2.438104 -3.012842
v 0.813992 -2.094946 -2.908823
v -1.055976 0.410284 -2.414659
v -1.483994 -0.269775 -2.526634
v -1.586519 -1.320215 -2.755169
v -0.755550 -2.094945 -2.924520
v 0.365857 -0.645919 -1.038579
v 0.365857 -0.645919 -1.038579
v 0.934651 -1.465998 -0.973816
v 1.578498 -0.953704 -1.397333
v 0.808698 -1.796154 -1.184125
v 1.194421 -3.679992 -8.463896
v 1.194421 -3.679992 -8.463896
v -0.251214 -12.721985 -4.512814
v 0.041669 -12.619635 -4.624557
v 0.331587 -12.735957 -4.508538
v 0.035557 -12.859380 -3.957286
v 0.316074 -12.506731 -4.105138
v 0.038897 -13.016605 -4.188866
v 0.032267 -12.373297 -4.141206
v -0.253884 -12.506731 -4.110838
v -0.249348 -13.372415 -4.950829
v 0.037288 -13.452971 -4.469445
v -0.274044 -14.226756 -4.864417
v 0.374152 -14.226756 -4.857934
v 0.050151 -13.354795 -5.088368
v 0.346294 -13.372415 -4.944871
v 0.038744 -13.857415 -4.359046
v 0.460060 -3.657954 -1.029295
v -0.033127 -4.255451 -2.249081
v -0.035150 -5.078793 -2.065835
v -0.536519 -5.273299 -0.828170
v -0.550522 -3.657953 -1.039402
v 0.443195 -5.273299 -0.818372
v -0.296539 -14.621285 -4.323314
v 0.041249 -14.047646 -4.020774
v -0.310996 -14.669428 -3.280019
v 0.391485 -14.669428 -3.272999
v 0.404211 -14.621285 -4.316306
v 0.034521 -14.036838 -3.475147
v -0.326071 -14.141067 -2.482948
v 0.028276 -13.626431 -2.901874
v -0.351807 -13.397430 -1.839835
v 0.391615 -13.397430 -1.832395
v 0.378145 -14.141067 -2.475905
v 0.023867 -13.099702 -2.524721
v -0.423395 -9.265410 -0.525761
v 0.437597 -9.265410 -0.517150
v 0.425411 -10.478774 -0.645881
v -0.409460 -10.478773 -0.654230
v 0.016929 -9.375752 -1.513029
v 0.015561 -10.173302 -1.582232
v -0.437495 -8.172198 -0.575025
v 0.018621 -8.036233 -1.610776
v 0.016022 -6.926353 -1.709922
v -0.467298 -6.637772 -0.626930
v 0.449618 -8.172199 -0.566153
v 0.481550 -6.637773 -0.617441
v -0.325287 -12.721674 -3.486496
v 0.022449 -12.696927 -3.370393
v 0.027733 -12.398418 -3.548381
v 0.372435 -12.721674 -3.479518
v 0.344213 -12.496221 -3.627030
v -0.289627 -12.496221 -3.633369
v -0.148216 -13.182002 -3.473290
v 0.029783 -13.516420 -3.752024
v 0.025652 -13.204758 -3.415237
v 0.200644 -13.182002 -3.469801
v 0.033820 -13.290462 -4.082609
v -4.281285 -0.389818 -4.801175
v -4.342612 -1.245663 -4.801820
v -4.503084 -0.974685 -4.574946
v -4.290563 -1.167965 -4.501737
v -4.475934 -0.595834 -4.574661
v -4.240858 -0.474296 -4.501214
v -4.237895 -0.345514 -4.597142
v -4.305983 -1.295755 -4.597863
v -4.416199 -0.790061 -4.939626
v -3.731240 -0.525883 -4.742133
v -3.802324 -0.832129 -4.997174
v -3.778548 -1.186115 -4.742631
v -3.706609 -0.839023 -4.544090
v -1.474951 -0.838991 -0.009608
v -1.474951 -0.838991 -0.009608
v -1.068988 -1.412632 -0.005569
v -1.068988 -1.412632 -0.005569
v -0.786535 -0.839730 -0.002723
v -0.786535 -0.839730 -0.002723
v -0.809294 -0.422158 -0.120256
v -0.734189 -0.498834 -0.002187
v -1.518083 -0.539267 -0.010028
v -1.437051 -0.468482 -0.133135
v -1.281317 -0.340827 -0.007653
v -1.126585 -0.345943 -0.140984
v -1.564570 -0.838997 -0.779002
v -0.722656 -0.659816 -0.666813
v -1.094345 0.001571 -0.737296
v -2.362677 -1.400271 -4.731373
v -2.317421 -1.042386 -5.173318
v -2.336065 -0.539372 -4.823170
v -2.416109 -0.844519 -4.475513
v -0.914885 -1.465998 -0.992314
v -1.550132 -0.953703 -1.428623
v -0.784751 -1.796154 -1.200061
v -0.507906 -0.639992 -0.892515
v 0.615534 -2.099784 -1.363157
v -0.588045 -2.099783 -1.375194
v 0.768413 -2.134502 -2.348875
v 0.027369 -2.577790 -2.731470
v -0.721179 -2.134502 -2.363773
v 4.379843 -1.167972 -4.415024
v 4.397182 -1.295757 -4.510818
v 4.839319 -1.193527 -4.242483
v 3.796858 -0.839029 -4.469048
v 4.329093 -0.345517 -4.511463
v 4.781459 -0.386035 -4.243031
v 4.904530 -0.762942 -4.319702
v 1.281317 -0.340829 0.017977
v 1.574203 -0.219500 0.020910
v 1.064512 -1.302023 -0.402980
v 0.801529 -0.713648 -0.394396
v 1.513323 -0.788607 -0.389497
v 1.111016 -0.173446 -0.351222
v 1.072590 -0.009037 -1.116326
v 0.525758 -0.639992 -0.882177
v 1.581535 -2.429016 -3.857646
v 1.204377 -2.118570 -4.350271
v 1.296980 -2.051518 -5.055667
v 2.070435 -2.512844 -4.900487
v 1.390857 -2.035340 -5.601908
v 1.418854 -1.563596 -4.789837
v 0.615887 -1.231222 -5.589169
v 0.804974 -1.206214 -5.524749
v 1.292847 -1.159508 -5.382337
v 1.518430 -0.856808 -4.493816
v 1.120901 -0.096725 0.016381
v 0.688222 -0.220539 0.012049
v 1.154132 -0.845348 -4.559817
v 1.154132 -0.845348 -4.559817
v 0.932080 -0.520914 -5.080817
v 0.932080 -0.520914 -5.080817
v 0.055379 -0.501826 -5.532169
v 0.055379 -0.501826 -5.532169
v 0.056860 -1.560828 -5.680305
v 0.056860 -1.560828 -5.680305
v 0.535557 -1.243435 -5.643368
v 0.535557 -1.243435 -5.643368
v 0.451771 -0.796468 -5.604667
v 0.451771 -0.796468 -5.604667
v -0.422479 -1.243435 -5.652950
v -0.422479 -1.243435 -5.652950
v -0.339484 -0.796467 -5.612580
v -0.339484 -0.796467 -5.612580
v -0.503877 -1.231222 -5.600368
v 2.716167 -0.815912 -4.422776
v 2.731709 -0.533641 -4.756533
v 2.628910 -1.376978 -4.682324
v 2.498076 -0.831990 -4.424514
v 2.744445 -0.985294 -5.057519
v 2.695429 -1.366590 -4.666918
v 1.015226 -0.072708 -1.462762
v 0.010247 -0.434316 -1.019392
v 1.152805 0.510494 -6.147183
v 1.293973 -2.871300 -8.666772
v 1.293973 -2.871300 -8.666772
v 1.709375 -3.053056 -9.489758
v 1.709375 -3.053056 -9.489758
v 1.522752 -2.170445 -9.202407
v 1.522752 -2.170445 -9.202407
v 0.901598 -3.127138 -7.993330
v 0.901598 -3.127138 -7.993330
v 1.907952 -2.117331 -10.004527
v 1.907952 -2.117331 -10.004527
v 1.618055 -1.321640 -9.495447
v 1.618055 -1.321640 -9.495447
v 1.783530 -1.027562 -10.214423
v 1.783530 -1.027562 -10.214423
v 1.401768 -0.428787 -9.532210
v 1.401768 -0.428787 -9.532210
v 1.331535 0.198296 -10.111958
v 1.331535 0.198296 -10.111958
v 1.331535 0.198296 -10.111958
v -4.155395 -0.808250 -4.522378
v -4.695539 -0.386031 -4.337811
v -4.753398 -1.193525 -4.338420
v -4.817047 -0.762940 -4.416928
v -1.056136 -1.302023 -0.424189
v -0.793378 -0.713647 -0.410348
v -1.505127 -0.788607 -0.419684
v -1.103666 -0.173445 -0.373372
v -1.018477 -1.285854 -0.721524
v -1.049945 -0.009037 -1.137554
v -1.503963 -2.429015 -3.888504
v -1.117028 -2.118569 -4.373487
v -1.971908 -2.512843 -4.940915
v -1.195504 -2.051517 -5.080595
v -1.278438 -2.035339 -5.628604
v -1.184839 -1.159508 -5.407116
v -0.694215 -1.206214 -5.539742
v -1.291407 -0.540569 -4.981942
v -1.322671 -1.563595 -4.817255
v -1.428147 -0.856807 -4.523285
v -0.938512 -0.353517 -0.004225
v -0.688222 -0.220539 -0.001717
v -1.120901 -0.096724 -0.006039
v -1.574203 -0.219499 -0.010577
v -0.830173 -0.520914 -5.098442
v -0.830173 -0.520914 -5.098442
v -2.576392 -0.844519 -4.475514
v -2.762310 -0.528889 -4.809498
v -2.442455 -1.395106 -4.721387
v -2.587079 -1.004834 -5.112238
v -0.344909 -0.645919 -1.045687
v -0.344909 -0.645919 -1.045687
v -0.985664 -0.072708 -1.482773
v -1.120275 -2.871300 -8.690917
v -1.120275 -2.871300 -8.690917
v -1.024801 -3.679992 -8.486091
v -1.024801 -3.679992 -8.486091
v -0.741448 -3.127137 -8.009762
v -0.741448 -3.127137 -8.009762
v -1.519134 -3.053055 -9.522047
v -1.519134 -3.053055 -9.522047
v -1.338291 -2.170444 -9.231020
v -1.338291 -2.170444 -9.231020
v -1.707371 -2.117331 -10.040685
v -1.707371 -2.117331 -10.040685
v -1.427718 -1.321639 -9.525908
v -1.427718 -1.321639 -9.525908
v -1.578776 -1.027562 -10.248050
v -1.578776 -1.027562 -10.248050
v -1.210739 -0.428787 -9.558338
v -1.210739 -0.428787 -9.558338
v -1.128925 0.198297 -10.136565
v -1.128925 0.198297 -10.136565
v -1.128925 0.198297 -10.136565
vt 0.847143 0.447658
vt 0.838423 0.433731
vt 0.848638 0.445880
vt 0.836578 0.431504
vt 0.847097 0.448362
vt 0.836002 0.431615
vt 0.828143 0.465403
vt 0.806944 0.449147
vt 0.821834 0.477805
vt 0.812994 0.444032
vt 0.830231 0.462552
vt 0.816471 0.443171
vt 0.835230 0.455506
vt 0.823491 0.443199
vt 0.834163 0.434879
vt 0.564669 0.267791
vt 0.589657 0.316729
vt 0.564669 0.314010
vt 0.589657 0.267791
vt 0.846255 0.457168
vt 0.614644 0.267791
vt 0.614644 0.319448
vt 0.785739 0.292427
vt 0.514694 0.267791
vt 0.493533 0.267791
vt 0.472373 0.267791
vt 0.451212 0.267791
vt 0.430052 0.267791
vt 0.393950 0.267791
vt 0.357849 0.267791
vt 0.328813 0.267791
vt 0.299777 0.267791
vt 0.273317 0.267791
vt 0.876806 0.285531
vt 0.847526 0.268528
vt 0.872014 0.297144
vt 0.879845 0.279664
vt 0.851957 0.265908
vt 0.809198 0.272196
vt 0.809259 0.280470
vt 0.827719 0.317116
vt 0.836691 0.288503
vt 0.873737 0.275496
vt 0.848130 0.263021
vt 0.817397 0.271584
vt 0.827581 0.253918
vt 0.842262 0.257481
vt 0.841083 0.241271
vt 0.862559 0.237941
vt 0.859572 0.223076
vt 0.865417 0.223288
vt 0.861364 0.222819
vt 0.848434 0.240757
vt 0.836675 0.218851
vt 0.829015 0.243205
vt 0.826433 0.217548
vt 0.848917 0.252923
vt 0.870874 0.255691
vt 0.773270 0.347865
vt 0.514694 0.308573
vt 0.493533 0.306534
vt 0.472373 0.304495
vt 0.451212 0.302455
vt 0.430052 0.300416
vt 0.393950 0.297698
vt 0.357849 0.294979
vt 0.328813 0.292260
vt 0.299777 0.289541
vt 0.272949 0.288182
vt 0.246857 0.267791
vt 0.246121 0.286822
vt 0.230536 0.271869
vt 0.230168 0.303815
vt 0.214215 0.275947
vt 0.214215 0.320807
vt 0.200470 0.282744
vt 0.186725 0.289541
vt 0.201758 0.265327
vt 0.188933 0.268356
vt 0.185106 0.292260
vt 0.188197 0.312055
vt 0.183487 0.294979
vt 0.186210 0.281668
vt 0.246489 0.264394
vt 0.230536 0.263346
vt 0.214583 0.262297
vt 0.791658 0.415518
vt 0.773466 0.405892
vt 0.796539 0.409974
vt 0.785400 0.429505
vt 0.798508 0.455398
vt 0.772544 0.455052
vt 0.787977 0.460006
vt 0.802580 0.452637
vt 0.788598 0.490774
vt 0.809363 0.479031
vt 0.793999 0.449474
vt 0.801788 0.473016
vt 0.813362 0.487138
vt 0.805470 0.484674
vt 0.807055 0.489445
vt 0.819587 0.492241
vt 0.819290 0.489682
vt 0.839881 0.491967
vt 0.842869 0.481294
vt 0.852685 0.477465
vt 0.845798 0.465855
vt 0.860740 0.458752
vt 0.856793 0.476147
vt 0.847305 0.492695
vt 0.819281 0.486690
vt 0.834454 0.438052
vt 0.865879 0.456090
vt 0.714449 0.728557
vt 0.709821 0.991071
vt 0.500000 0.991071
vt 0.991071 0.986607
vt 0.921194 0.574711
vt 0.991071 0.004464
vt 0.921607 0.328118
vt 0.713744 0.006659
vt 0.714006 0.330786
vt 0.500002 0.004129
vt 0.502232 0.330357
vt 0.285999 0.330786
vt 0.285556 0.728557
vt 0.078672 0.574711
vt 0.008929 0.991071
vt 0.006696 0.011161
vt 0.078398 0.328118
vt 0.286260 0.006659
vt 0.500002 0.749824
vt 0.283482 0.991071
vt 0.793750 0.684375
vt 0.690104 0.661458
vt 0.548828 1.042970
vt 0.872641 0.096413
vt 0.703684 0.079996
vt 0.837582 0.099696
vt 0.720689 0.069070
vt 0.479688 0.864062
vt 0.556641 0.701172
vt 0.345703 0.996094
vt 0.333984 0.839844
vt 0.357422 0.669922
vt 0.151737 0.876005
vt 0.205729 0.721354
vt 0.238281 0.587891
vt 0.381250 0.440625
vt 0.250836 0.420441
vt 0.418750 0.132813
vt 0.315104 0.127604
vt 0.518044 0.076499
vt 0.418670 0.072540
vt 0.501849 0.059238
vt 0.370372 0.074321
vt 0.446306 0.046875
vt 0.348821 0.070404
vt 0.241667 0.119271
vt 0.278305 0.120822
vt 0.196875 0.417188
vt 0.126885 0.568391
vt 0.001953 0.482422
vt 0.122289 0.412076
vt 0.175781 0.251953
vt 0.052083 0.710938
vt 0.643783 0.081475
vt 0.591793 0.058024
vt 0.624694 0.061245
vt 0.484793 0.830099
vt 0.665708 0.933238
vt 0.609000 0.705948
vt 0.878258 0.970144
vt 0.642344 0.966211
vt 0.499649 0.952559
vt 0.499249 0.917458
vt 0.668011 0.686414
vt 0.499247 0.686536
vt 0.690304 0.254714
vt 0.500223 0.243269
vt 0.690964 0.041687
vt 0.500264 0.013295
vt 0.309509 0.041687
vt 0.310058 0.254714
vt 0.120382 0.100105
vt 0.145916 0.327248
vt 0.330772 0.686414
vt 0.332854 0.933238
vt 0.124407 0.709207
vt 0.572383 0.992238
vt 0.357009 0.966211
vt 0.121313 0.970144
vt 0.875610 0.709207
vt 0.854650 0.327248
vt 0.880091 0.100105
vt 0.808726 0.708381
vt 0.670347 0.750753
vt 0.698817 0.952846
vt 0.672592 0.353464
vt 0.870297 0.317709
vt 0.775100 0.157391
vt 0.855846 0.172242
vt 0.679903 -0.002926
vt 0.675333 0.219818
vt 0.500528 0.263299
vt 0.500528 0.375837
vt 0.328464 0.353464
vt 0.380508 0.763847
vt 0.327563 0.750537
vt 0.192404 0.708381
vt 0.124054 0.317709
vt 0.222640 0.157391
vt 0.325750 0.219818
vt 0.321226 -0.002926
vt 0.302312 0.952846
vt 0.618229 0.763855
vt 0.500315 0.761852
vt 0.624256 0.968747
vt 0.500565 0.934627
vt 0.375876 0.968747
vt 0.134472 0.172242
vt 0.323661 0.727679
vt 0.238674 0.915155
vt 0.394019 0.343250
vt 0.658482 0.314732
vt 0.438136 0.124823
vt 0.774806 0.008350
vt 0.658582 0.234451
vt 0.703906 0.158061
vt 0.500000 0.270146
vt 0.810260 -0.000001
vt 0.818559 0.164001
vt 0.779310 0.322645
vt 0.946503 0.080786
vt 0.894107 0.291522
vt 0.804788 0.497502
vt 1.000000 0.246613
vt 0.921231 0.459813
vt 0.761953 0.724374
vt 0.985232 0.473543
vt 0.864515 0.647294
vt 0.670104 0.915386
vt 0.870799 0.741046
vt 0.296094 0.158061
vt 0.341418 0.234451
vt 0.189740 -0.000001
vt 0.181442 0.164001
vt 0.220690 0.322645
vt 0.053497 0.080786
vt 0.105893 0.291522
vt 0.195212 0.497502
vt -0.000000 0.246613
vt 0.078769 0.459813
vt 0.238047 0.724374
vt 0.014768 0.473543
vt 0.135484 0.647294
vt 0.329896 0.915386
vt 0.129201 0.741046
vt 0.500000 0.210135
vt 0.500000 0.318224
vt 0.500000 0.482930
vt 0.500000 0.707064
vt 0.500000 0.999999
vt 0.385241 0.092534
vt 0.395590 0.115302
vt 0.295764 0.456335
vt 0.156248 0.304422
vt 0.512984 0.748380
vt 0.097658 0.999993
vt 0.535714 0.399554
vt 0.858145 0.070244
vt 0.610119 0.529740
vt 0.402037 0.996011
vt 0.457589 0.799107
vt 0.246078 0.437030
vt 0.412946 0.404018
vt 0.433036 0.140625
vt 0.929856 -0.000002
vt 0.607143 0.529018
vt 0.906250 0.303334
vt 0.669643 0.013393
vt 0.062498 0.241922
vt 0.233264 0.550085
vt 0.725446 0.111607
vt 0.546875 0.725446
vt 0.475446 0.915179
vt 0.475446 0.810268
vt 0.609375 0.558036
vt 0.765625 0.008929
vt 0.453125 0.450893
vt 0.246078 0.468280
vt 0.843750 0.365834
vt 0.622768 0.531250
vt 0.484375 0.421875
vt 0.902344 0.631348
vt 0.816130 0.595171
vt 0.825521 0.610677
vt 0.930335 0.621609
vt 0.992188 0.658203
vt 0.991508 0.631063
vt 0.840828 0.502901
vt 0.897344 0.531578
vt 0.729167 0.502604
vt 0.995366 0.540698
vt 0.533854 0.528646
vt 0.736979 0.588542
vt 0.473958 0.524740
vt 0.653991 0.524060
vt 0.657967 0.507747
vt 0.894787 0.545169
vt 0.994177 0.555735
vt 0.722005 0.607910
vt 0.575521 0.619792
vt 0.677083 0.666016
vt 0.375000 0.664063
vt 0.509678 0.710938
vt 0.342272 0.755859
vt 0.549479 0.743490
vt 0.625000 0.748698
vt 0.828125 0.666016
vt 0.788411 0.624512
vt 0.826172 0.624512
vt 0.992188 0.666016
vt 0.853516 0.741211
vt 0.023438 0.744141
vt 0.046875 0.660807
vt 0.101563 0.567057
vt 0.473958 0.573568
vt 0.151042 0.502604
vt 0.695313 0.539714
vt 0.895034 0.562326
vt 0.988914 0.572341
vt 0.814740 0.573297
vt 0.930441 0.599630
vt 0.992187 0.611157
vt 0.775382 0.624147
vt 0.588705 0.739949
vt 0.398101 0.855159
vt 0.874831 0.513591
vt 0.597051 0.523049
vt 0.368923 0.587881
vt 0.753715 0.191797
vt 0.466564 0.358085
vt 0.227852 0.408291
vt 0.462249 0.039790
vt 0.323921 0.248585
vt 0.126059 0.535608
vt 0.290958 0.371251
vt 0.323535 0.247215
vt 0.143923 0.558022
vt 0.480362 0.062779
vt 0.463117 0.366845
vt 0.384865 0.607340
vt 0.764092 0.204733
vt 0.603864 0.519783
vt 0.583104 0.746810
vt 0.893784 0.535594
vt 0.742303 0.661096
vt 0.416564 0.876871
vt 0.575522 0.853834
vt 0.631801 0.863355
vt 0.596539 0.862590
vt 0.656156 0.851398
vt 0.580906 0.833294
vt 0.651719 0.833339
vt 0.615300 0.878063
vt 0.661928 0.870665
vt 0.570793 0.870603
vt 0.348281 0.833339
vt 0.390039 0.798775
vt 0.419093 0.833294
vt 0.368198 0.863355
vt 0.403461 0.862590
vt 0.384699 0.878063
vt 0.343844 0.851398
vt 0.338071 0.870665
vt 0.424478 0.853834
vt 0.429207 0.870603
vt 0.609960 0.798775
usemtl mat_0
s 1
f 370/1 328/2 139/3
f 370/1 369/4 328/2
f 209/5 369/4 370/1
f 209/5 372/6 369/4
f 208/7 345/8 348/9
f 208/7 371/10 345/8
f 373/11 371/10 208/7
f 373/11 374/12 371/10
f 138/13 374/12 373/11
f 138/13 140/14 374/12
f 369/4 140/14 328/2
f 369/4 374/12 140/14
f 372/6 374/12 369/4
f 372/6 371/10 374/12
f 349/15 371/10 372/6
f 349/15 345/8 371/10
f 370/1 373/11 208/7
f 209/5 370/1 208/7
f 270/16 245/17 269/18
f 270/16 246/19 245/17
f 272/16 246/19 270/16
f 272/16 248/19 246/19
f 269/18 248/19 272/16
f 269/18 245/17 248/19
f 423/4 293/3 296/2
f 423/4 424/1 293/3
f 315/6 424/1 423/4
f 315/6 314/5 424/1
f 416/15 314/5 315/6
f 416/15 414/20 314/5
f 313/7 415/8 312/10
f 313/7 412/9 415/8
f 314/5 412/9 313/7
f 314/5 414/20 412/9
f 312/10 426/11 313/7
f 312/10 425/12 426/11
f 315/6 425/12 312/10
f 315/6 423/4 425/12
f 295/14 423/4 296/2
f 295/14 425/12 423/4
f 294/13 425/12 295/14
f 294/13 426/11 425/12
f 293/3 426/11 294/13
f 293/3 424/1 426/11
f 312/10 415/8 416/15
f 315/6 312/10 416/15
f 424/1 314/5 313/7
f 426/11 424/1 313/7
f 243/21 245/17 244/22
f 243/21 248/19 245/17
f 247/21 248/19 243/21
f 247/21 246/19 248/19
f 244/22 246/19 247/21
f 244/22 245/17 246/19
f 321/23 247/21 243/21
f 320/23 321/23 243/21
f 267/24 272/16 270/16
f 267/24 271/24 272/16
f 261/25 271/24 267/24
f 261/25 262/25 271/24
f 264/26 262/25 261/25
f 264/26 263/26 262/25
f 153/27 263/26 264/26
f 153/27 152/27 263/26
f 150/28 152/27 153/27
f 150/28 151/28 152/27
f 257/29 151/28 150/28
f 257/29 258/29 151/28
f 255/30 258/29 257/29
f 255/30 259/30 258/29
f 251/31 259/30 255/30
f 251/31 252/31 259/30
f 249/32 252/31 251/31
f 249/32 253/32 252/31
f 238/33 253/32 249/32
f 238/33 239/33 253/32
f 2/34 221/35 375/36
f 2/34 3/37 221/35
f 376/38 221/35 3/37
f 376/38 1/39 221/35
f 427/35 1/39 376/38
f 318/35 1/40 427/39
f 321/23 1/39 318/40
f 320/23 1/23 321/39
f 225/40 1/39 320/23
f 221/40 1/35 225/39
f 3/37 427/35 376/38
f 3/37 6/34 427/35
f 429/36 427/35 6/34
f 4/41 225/40 320/23
f 4/41 224/42 225/40
f 375/36 224/42 4/41
f 375/36 338/43 224/42
f 222/35 338/43 375/36
f 222/35 339/44 338/43
f 223/45 339/44 222/35
f 223/45 204/46 339/44
f 205/47 204/46 223/45
f 205/47 336/48 204/46
f 337/49 336/48 205/47
f 337/49 162/50 336/48
f 165/51 162/50 337/49
f 337/49 161/52 165/51
f 335/53 161/52 337/49
f 335/53 157/54 161/52
f 334/55 157/54 335/53
f 334/55 159/56 157/54
f 163/54 159/56 334/55
f 334/55 336/48 163/54
f 204/46 336/48 334/55
f 334/55 335/53 204/46
f 206/57 204/46 335/53
f 206/57 339/44 204/46
f 338/43 339/44 206/57
f 206/57 207/58 338/43
f 337/49 207/58 206/57
f 337/49 205/47 207/58
f 338/43 207/58 205/47
f 205/47 224/42 338/43
f 223/45 224/42 205/47
f 223/45 225/40 224/42
f 222/35 225/40 223/45
f 336/48 162/50 163/54
f 206/57 335/53 337/49
f 318/40 7/41 321/23
f 318/40 317/42 7/41
f 316/45 317/42 318/40
f 316/45 309/47 317/42
f 405/46 309/47 316/45
f 405/46 403/48 309/47
f 401/55 403/48 405/46
f 401/55 298/54 403/48
f 300/56 298/54 401/55
f 401/55 302/54 300/56
f 402/53 302/54 401/55
f 402/53 303/52 302/54
f 404/49 303/52 402/53
f 404/49 308/51 303/52
f 306/50 308/51 404/49
f 404/49 403/48 306/50
f 309/47 403/48 404/49
f 404/49 311/58 309/47
f 310/57 311/58 404/49
f 310/57 406/43 311/58
f 319/44 406/43 310/57
f 319/44 428/35 406/43
f 316/45 428/35 319/44
f 316/45 318/40 428/35
f 306/50 403/48 298/54
f 402/53 310/57 404/49
f 402/53 405/46 310/57
f 401/55 405/46 402/53
f 406/43 309/47 311/58
f 406/43 317/42 309/47
f 429/36 317/42 406/43
f 429/36 7/41 317/42
f 429/36 406/43 428/35
f 319/44 405/46 316/45
f 319/44 310/57 405/46
f 370/1 138/13 373/11
f 370/1 139/3 138/13
f 323/59 247/21 321/23
f 323/59 244/22 247/21
f 243/21 244/22 323/59
f 323/59 320/23 243/21
f 271/24 269/18 272/16
f 271/24 268/60 269/18
f 262/25 268/60 271/24
f 262/25 265/61 268/60
f 263/26 265/61 262/25
f 263/26 266/62 265/61
f 152/27 266/62 263/26
f 152/27 148/63 266/62
f 151/28 148/63 152/27
f 151/28 149/64 148/63
f 258/29 149/64 151/28
f 258/29 260/65 149/64
f 259/30 260/65 258/29
f 259/30 256/66 260/65
f 252/31 256/66 259/30
f 252/31 254/67 256/66
f 253/32 254/67 252/31
f 253/32 250/68 254/67
f 239/33 250/68 253/32
f 239/33 242/69 250/68
f 241/70 242/69 239/33
f 241/70 237/71 242/69
f 230/72 237/71 241/70
f 230/72 233/73 237/71
f 232/74 233/73 230/72
f 232/74 231/75 233/73
f 277/76 231/75 232/74
f 277/76 276/77 231/75
f 275/78 276/77 277/76
f 275/78 274/79 276/77
f 273/77 274/79 275/78
f 273/77 279/80 274/79
f 231/75 279/80 273/77
f 231/75 283/81 279/80
f 282/80 283/81 231/75
f 282/80 280/82 283/81
f 281/83 280/82 282/80
f 281/83 279/80 280/82
f 274/79 279/80 281/83
f 281/83 282/80 274/79
f 276/77 274/79 282/80
f 282/80 231/75 276/77
f 283/81 280/82 279/80
f 269/18 267/24 270/16
f 269/18 268/60 267/24
f 261/25 267/24 268/60
f 268/60 265/61 261/25
f 264/26 261/25 265/61
f 265/61 266/62 264/26
f 153/27 264/26 266/62
f 266/62 148/63 153/27
f 150/28 153/27 148/63
f 148/63 149/64 150/28
f 257/29 150/28 149/64
f 149/64 260/65 257/29
f 255/30 257/29 260/65
f 260/65 256/66 255/30
f 251/31 255/30 256/66
f 256/66 254/67 251/31
f 249/32 251/31 254/67
f 254/67 250/68 249/32
f 238/33 249/32 250/68
f 250/68 242/69 238/33
f 236/70 238/33 242/69
f 236/70 240/84 238/33
f 229/85 240/84 236/70
f 229/85 241/70 240/84
f 230/72 241/70 229/85
f 229/85 234/86 230/72
f 228/72 234/86 229/85
f 228/72 235/74 234/86
f 233/73 235/74 228/72
f 233/73 231/75 235/74
f 278/76 235/74 231/75
f 278/76 234/86 235/74
f 275/78 234/86 278/76
f 275/78 277/76 234/86
f 232/74 234/86 277/76
f 232/74 230/72 234/86
f 273/77 278/76 231/75
f 273/77 275/78 278/76
f 237/71 236/70 242/69
f 237/71 228/72 236/70
f 233/73 228/72 237/71
f 236/70 228/72 229/85
f 239/33 240/84 241/70
f 239/33 238/33 240/84
f 167/87 340/88 166/89
f 167/87 341/90 340/88
f 178/91 341/90 167/87
f 178/91 343/92 341/90
f 342/93 343/92 178/91
f 342/93 179/94 343/92
f 344/95 179/94 342/93
f 344/95 178/91 179/94
f 342/93 178/91 344/95
f 179/94 341/90 343/92
f 179/94 166/89 341/90
f 340/88 341/90 166/89
f 178/91 191/96 179/94
f 178/91 184/97 191/96
f 194/98 191/96 184/97
f 194/98 195/99 191/96
f 196/100 195/99 194/98
f 196/100 358/101 195/99
f 202/99 358/101 196/100
f 202/99 364/102 358/101
f 368/103 364/102 202/99
f 368/103 366/104 364/102
f 203/105 366/104 368/103
f 203/105 201/106 366/104
f 421/107 201/106 203/105
f 421/107 190/108 201/106
f 192/109 201/106 190/108
f 192/109 356/110 201/106
f 193/106 356/110 192/109
f 193/106 362/104 356/110
f 197/105 362/104 193/106
f 197/105 346/103 362/104
f 347/111 346/103 197/105
f 347/111 191/96 346/103
f 348/9 191/96 347/111
f 348/9 345/8 191/96
f 180/94 191/96 345/8
f 345/8 353/112 180/94
f 349/15 353/112 345/8
f 349/15 210/20 353/112
f 372/6 210/20 349/15
f 372/6 209/5 210/20
f 208/7 210/20 209/5
f 208/7 348/9 210/20
f 355/107 210/20 348/9
f 355/107 353/112 210/20
f 201/106 356/110 366/104
f 195/99 346/103 191/96
f 195/99 360/102 346/103
f 358/101 360/102 195/99
f 362/104 346/103 360/102
f 197/105 348/9 347/111
f 197/105 355/107 348/9
f 194/98 202/99 196/100
f 194/98 198/96 202/99
f 184/97 198/96 194/98
f 184/97 186/91 198/96
f 187/94 198/96 186/91
f 186/91 411/95 187/94
f 410/93 411/95 186/91
f 410/93 187/94 411/95
f 409/92 187/94 410/93
f 409/92 408/90 187/94
f 186/91 408/90 409/92
f 186/91 173/87 408/90
f 407/88 408/90 173/87
f 407/88 174/89 408/90
f 173/87 174/89 407/88
f 409/92 410/93 186/91
f 187/94 408/90 174/89
f 198/96 368/103 202/99
f 198/96 413/111 368/103
f 412/9 413/111 198/96
f 412/9 203/105 413/111
f 422/107 203/105 412/9
f 412/9 414/20 422/107
f 200/112 422/107 414/20
f 414/20 416/15 200/112
f 415/8 200/112 416/15
f 415/8 188/94 200/112
f 198/96 188/94 415/8
f 415/8 412/9 198/96
f 413/111 203/105 368/103
f 193/106 354/107 197/105
f 193/106 182/108 354/107
f 192/109 182/108 193/106
f 192/109 183/113 182/108
f 190/108 183/113 192/109
usemtl mat_1
f 61/114 13/115 17/116
f 61/114 14/117 13/115
f 65/118 14/117 61/114
f 65/118 377/119 14/117
f 64/120 377/119 65/118
f 64/120 120/121 377/119
f 62/122 120/121 64/120
f 62/122 119/123 120/121
f 63/124 119/123 62/122
f 63/124 98/125 119/123
f 97/126 98/125 63/124
f 97/126 100/127 98/125
f 28/128 100/127 97/126
f 28/128 132/129 100/127
f 99/130 100/127 132/129
f 99/130 98/125 100/127
f 131/131 98/125 99/130
f 131/131 119/123 98/125
f 131/131 99/130 132/129
f 65/118 62/122 64/120
f 65/118 61/114 62/122
f 63/124 62/122 61/114
f 61/114 66/132 63/124
f 17/116 66/132 61/114
f 17/116 97/126 66/132
f 27/133 97/126 17/116
f 27/133 28/128 97/126
f 97/126 63/124 66/132
usemtl mat_2
f 67/134 78/135 396/136
f 123/137 118/138 115/139
f 123/137 122/140 118/138
f 127/139 122/140 123/137
f 127/139 130/138 122/140
f 110/135 101/134 450/136
f 78/135 393/141 395/136
f 78/135 83/142 393/141
f 391/143 393/141 83/142
f 83/142 389/144 391/143
f 82/145 389/144 83/142
f 82/145 387/146 389/144
f 383/147 387/146 82/145
f 82/145 59/148 383/147
f 77/149 59/148 82/145
f 77/149 41/150 59/148
f 42/151 41/150 77/149
f 42/151 43/152 41/150
f 75/153 43/152 42/151
f 75/153 76/154 43/152
f 361/155 76/154 75/153
f 361/155 45/156 76/154
f 359/157 45/156 361/155
f 359/157 46/158 45/156
f 89/156 46/158 359/157
f 89/156 57/159 46/158
f 95/160 57/159 89/156
f 95/160 88/161 57/159
f 87/152 88/161 95/160
f 87/152 86/150 88/161
f 85/151 86/150 87/152
f 85/151 109/149 86/150
f 96/148 86/150 109/149
f 96/148 88/161 86/150
f 431/162 88/161 96/148
f 431/162 433/163 88/161
f 434/164 88/161 433/163
f 434/164 54/165 88/161
f 57/159 88/161 54/165
f 54/165 44/161 57/159
f 384/164 44/161 54/165
f 384/164 227/163 44/161
f 379/162 44/161 227/163
f 379/162 59/148 44/161
f 381/166 59/148 379/162
f 381/166 383/147 59/148
f 41/150 44/161 59/148
f 41/150 43/152 44/161
f 58/160 44/161 43/152
f 58/160 57/159 44/161
f 45/156 57/159 58/160
f 45/156 46/158 57/159
f 76/154 58/160 43/152
f 76/154 45/156 58/160
f 47/167 75/153 42/151
f 47/167 363/168 75/153
f 118/138 363/168 47/167
f 118/138 357/169 363/168
f 122/140 357/169 118/138
f 122/140 130/138 357/169
f 367/168 357/169 130/138
f 130/138 90/167 367/168
f 127/139 90/167 130/138
f 75/153 363/168 361/155
f 115/139 118/138 47/167
f 96/148 437/166 431/162
f 96/148 439/147 437/166
f 113/145 439/147 96/148
f 113/145 441/146 439/147
f 443/144 441/146 113/145
f 113/145 106/142 443/144
f 445/143 443/144 106/142
f 106/142 447/141 445/143
f 110/135 447/141 106/142
f 110/135 449/136 447/141
f 96/148 109/149 113/145
f 365/155 89/156 359/157
f 365/155 108/154 89/156
f 107/153 108/154 365/155
f 107/153 87/152 108/154
f 85/151 87/152 107/153
f 107/153 90/167 85/151
f 367/168 90/167 107/153
f 107/153 365/155 367/168
f 95/160 108/154 87/152
f 95/160 89/156 108/154
usemtl mat_3
f 352/170 181/171 169/172
f 352/170 354/173 181/171
f 182/174 181/171 354/173
f 182/174 183/175 181/171
f 185/176 181/171 183/175
f 185/176 170/177 181/171
f 171/178 170/177 185/176
f 171/178 212/179 170/177
f 211/180 212/179 171/178
f 211/180 2/181 212/179
f 3/182 2/181 211/180
f 211/180 6/183 3/182
f 217/184 6/183 211/180
f 217/184 429/185 6/183
f 218/186 429/185 217/184
f 217/184 177/187 218/186
f 171/178 177/187 217/184
f 171/178 185/176 177/187
f 189/188 177/187 185/176
f 189/188 176/189 177/187
f 199/170 176/189 189/188
f 189/188 421/190 199/170
f 171/178 217/184 211/180
f 218/186 177/187 176/189
f 183/175 189/188 185/176
f 183/175 190/191 189/188
f 421/192 189/188 190/191
f 170/177 169/193 181/171
f 170/177 213/194 169/193
f 212/179 213/194 170/177
f 212/179 375/195 213/194
f 2/181 375/195 212/179
usemtl mat_4
f 168/196 166/197 179/198
f 168/196 216/199 166/197
f 214/200 216/199 168/196
f 214/200 5/201 216/199
f 4/202 5/201 214/200
f 4/202 320/203 5/201
f 322/204 5/201 320/203
f 322/204 216/199 5/201
f 323/205 216/199 322/204
f 323/205 215/206 216/199
f 220/207 215/206 323/205
f 220/207 173/208 215/206
f 174/209 173/208 220/207
f 220/207 175/210 174/209
f 219/211 175/210 220/207
f 220/207 8/212 219/211
f 324/213 8/212 220/207
f 324/213 321/214 8/212
f 323/205 321/214 324/213
f 324/213 220/207 323/205
f 322/204 320/203 323/205
f 175/210 187/215 174/209
f 216/199 167/216 166/197
f 216/199 215/206 167/216
f 172/217 167/216 215/206
f 172/217 178/218 167/216
f 184/219 178/218 172/217
f 172/217 186/220 184/219
f 173/208 186/220 172/217
f 172/217 215/206 173/208
f 7/221 8/212 321/214
f 7/221 219/211 8/212
usemtl mat_5
f 352/170 168/222 179/223
f 352/170 169/172 168/222
f 214/224 168/222 169/172
f 169/172 213/225 214/224
f 4/226 214/224 213/225
f 213/225 375/227 4/226
f 175/222 199/170 187/223
f 175/222 176/172 199/170
f 219/224 176/172 175/222
f 219/224 218/225 176/172
f 7/226 218/225 219/224
f 7/226 429/227 218/225
usemtl mat_6
f 51/228 385/229 55/230
f 51/228 226/231 385/229
f 378/232 226/231 51/228
f 51/228 49/233 378/232
f 380/234 378/232 49/233
f 49/233 382/235 380/234
f 72/236 382/235 49/233
f 72/236 386/237 382/235
f 388/238 386/237 72/236
f 72/236 80/239 388/238
f 390/240 388/238 80/239
f 80/239 392/241 390/240
f 68/242 392/241 80/239
f 68/242 394/243 392/241
f 435/244 92/245 56/230
f 435/244 432/246 92/245
f 430/247 92/245 432/246
f 430/247 94/248 92/245
f 436/249 94/248 430/247
f 436/249 438/250 94/248
f 104/251 94/248 438/250
f 438/250 440/252 104/251
f 442/253 104/251 440/252
f 442/253 112/254 104/251
f 444/255 112/254 442/253
f 444/255 446/256 112/254
f 102/257 112/254 446/256
f 446/256 448/258 102/257
f 50/228 52/259 48/233
f 50/228 53/230 52/259
f 91/245 52/259 53/230
f 91/245 93/248 52/259
f 60/260 52/259 93/248
f 60/260 48/233 52/259
f 71/236 48/233 60/260
f 60/260 81/261 71/236
f 103/251 81/261 60/260
f 103/251 111/254 81/261
f 69/262 81/261 111/254
f 69/262 79/239 81/261
f 67/242 79/239 69/262
f 69/262 70/263 67/242
f 101/257 70/263 69/262
f 69/262 111/254 101/257
f 81/261 79/239 71/236
f 103/251 60/260 93/248
usemtl mat_7
f 144/264 146/265 139/266
f 328/267 144/264 139/266
f 139/266 141/268 138/269
f 139/266 329/270 141/268
f 146/265 329/270 139/266
f 146/265 330/271 329/270
f 145/272 330/271 146/265
f 145/272 141/268 330/271
f 147/273 141/268 145/272
f 147/273 138/269 141/268
f 142/274 138/269 147/273
f 142/274 140/275 138/269
f 326/276 140/275 142/274
f 326/276 325/277 140/275
f 327/278 325/277 326/276
f 327/278 143/279 325/277
f 142/274 143/279 327/278
f 142/274 147/273 143/279
f 331/280 143/279 147/273
f 331/280 144/264 143/279
f 145/272 144/264 331/280
f 145/272 146/265 144/264
f 331/280 147/273 145/272
f 330/271 141/268 329/270
f 327/278 326/276 142/274
f 144/264 325/277 143/279
f 144/264 328/267 325/277
f 140/275 325/277 328/267
usemtl mat_8
f 397/281 296/282 293/283
f 289/284 397/281 293/283
f 294/269 284/285 293/283
f 294/269 292/286 284/285
f 285/287 292/286 294/269
f 285/287 286/288 292/286
f 399/278 286/288 285/287
f 399/278 287/289 286/288
f 291/290 287/289 399/278
f 291/290 295/291 287/289
f 285/287 295/291 291/290
f 285/287 294/269 295/291
f 291/290 399/278 285/287
f 296/282 287/289 295/291
f 296/282 397/281 287/289
f 286/288 287/289 397/281
f 397/281 400/292 286/288
f 288/293 400/292 397/281
f 288/293 292/286 400/292
f 284/285 292/286 288/293
f 288/293 398/271 284/285
f 289/284 398/271 288/293
f 289/284 290/294 398/271
f 293/283 290/294 289/284
f 293/283 284/285 290/294
f 398/271 290/294 284/285
f 288/293 397/281 289/284
f 400/292 292/286 286/288
usemtl mat_9
f 15/295 10/296 9/297
f 15/295 12/298 10/296
f 18/299 12/298 15/295
f 18/299 16/300 12/298
f 29/295 16/300 18/299
f 29/295 25/298 16/300
f 33/297 25/298 29/295
f 33/297 26/296 25/298
f 123/301 128/302 127/303
f 123/301 134/304 128/302
f 115/303 134/304 123/301
f 115/303 114/302 134/304
f 129/305 26/296 34/306
f 133/307 129/305 34/306
f 10/296 124/305 117/307
f 11/306 10/296 117/307
f 128/302 135/308 126/309
f 128/302 136/310 135/308
f 134/304 136/310 128/302
f 134/304 137/311 136/310
f 114/302 137/311 134/304
f 114/302 121/310 137/311
f 116/309 121/310 114/302
f 116/309 125/308 121/310
f 11/306 9/297 10/296
f 11/306 39/312 9/297
f 35/313 39/312 11/306
f 35/313 22/314 39/312
f 74/315 22/314 35/313
f 74/315 73/316 22/314
f 83/317 73/316 74/315
f 83/317 78/318 73/316
f 22/314 73/316 78/318
f 78/318 67/319 22/314
f 21/320 22/314 67/319
f 21/320 38/321 22/314
f 40/322 38/321 21/320
f 40/322 9/297 38/321
f 15/295 9/297 40/322
f 40/322 21/320 15/295
f 18/299 15/295 21/320
f 21/320 20/323 18/299
f 67/319 20/323 21/320
f 67/319 70/324 20/323
f 101/319 20/323 70/324
f 101/319 30/320 20/323
f 32/314 30/320 101/319
f 32/314 36/321 30/320
f 37/312 36/321 32/314
f 37/312 33/297 36/321
f 34/306 33/297 37/312
f 34/306 26/296 33/297
f 30/320 18/299 20/323
f 30/320 29/295 18/299
f 31/322 29/295 30/320
f 31/322 33/297 29/295
f 36/321 33/297 31/322
f 31/322 30/320 36/321
f 38/321 39/312 22/314
f 38/321 9/297 39/312
f 74/315 82/325 83/317
f 74/315 77/326 82/325
f 42/327 77/326 74/315
f 74/315 19/328 42/327
f 35/313 19/328 74/315
f 35/313 11/306 19/328
f 117/307 19/328 11/306
f 117/307 42/327 19/328
f 47/329 42/327 117/307
f 117/307 116/309 47/329
f 124/305 116/309 117/307
f 124/305 125/308 116/309
f 377/330 125/308 124/305
f 377/330 121/310 125/308
f 120/331 121/310 377/330
f 120/331 119/332 121/310
f 137/311 121/310 119/332
f 119/332 136/310 137/311
f 131/331 136/310 119/332
f 131/331 135/308 136/310
f 132/330 135/308 131/331
f 132/330 129/305 135/308
f 28/333 129/305 132/330
f 28/333 26/296 129/305
f 27/334 26/296 28/333
f 27/334 25/298 26/296
f 17/335 25/298 27/334
f 17/335 16/300 25/298
f 12/298 16/300 17/335
f 17/335 13/334 12/298
f 10/296 12/298 13/334
f 13/334 14/333 10/296
f 124/305 10/296 14/333
f 14/333 377/330 124/305
f 110/318 32/314 101/319
f 110/318 105/316 32/314
f 106/317 105/316 110/318
f 106/317 84/315 105/316
f 113/325 84/315 106/317
f 113/325 109/326 84/315
f 85/327 84/315 109/326
f 85/327 23/328 84/315
f 133/307 23/328 85/327
f 133/307 34/306 23/328
f 24/313 23/328 34/306
f 24/313 84/315 23/328
f 32/314 84/315 24/313
f 32/314 105/316 84/315
f 24/313 37/312 32/314
f 24/313 34/306 37/312
f 90/329 133/307 85/327
f 90/329 126/309 133/307
f 127/303 126/309 90/329
f 127/303 128/302 126/309
f 126/309 129/305 133/307
f 126/309 135/308 129/305
f 116/309 115/303 47/329
f 116/309 114/302 115/303
usemtl mat_10
f 156/336 161/337 157/338
f 156/336 351/339 161/337
f 155/340 161/337 351/339
f 155/340 165/341 161/337
f 350/342 165/341 155/340
f 350/342 332/343 165/341
f 162/344 165/341 332/343
f 332/343 333/345 162/344
f 154/346 162/344 333/345
f 154/346 163/347 162/344
f 303/348 304/349 302/350
f 303/348 418/351 304/349
f 417/352 418/351 303/348
f 303/348 308/353 417/352
f 419/354 417/352 308/353
f 308/353 307/355 419/354
f 306/356 307/355 308/353
f 306/356 420/357 307/355
f 305/358 420/357 306/356
f 306/356 298/359 305/358
usemtl mat_11
f 156/360 332/361 155/362
f 156/360 154/363 332/361
f 158/364 154/363 156/360
f 158/364 164/365 154/363
f 155/362 332/361 350/366
f 332/361 154/363 333/367
f 156/360 155/362 351/368
f 297/369 299/370 301/371
f 307/372 417/373 419/374
f 305/375 307/372 420/376
f 417/373 304/377 418/378
f 158/364 160/379 164/365
f 305/375 417/373 307/372
f 305/375 304/377 417/373
f 297/369 304/377 305/375
f 297/369 301/371 304/377
