# Blender v2.66 (sub 1) OBJ File: 'BR_Stantler.blend'
# www.blender.org
mtllib BR_Stantler.mtl
o odoshishi
v 0.395000 0.000001 0.395000
v -0.395000 0.000001 -0.395000
v 0.000000 1.000000 0.000000
v 0.000000 0.000000 0.000000
vt 1.000000 1.000000
vt 0.000000 1.000000
vt 0.000000 0.000000
vt 1.000000 0.000000
usemtl mat_0
s 1
f 2/1 3/2 4/3
f 1/4 2/1 4/3
