xof 0303txt 0032

template AnimTicksPerSecond {
  <9E415A43-7BA6-4a73-8743-B73D47E88476>
  DWORD AnimTicksPerSecond;
}

template XSkinMeshHeader {
  <3cf169ce-ff7c-44ab-93c0-f78f62d172e2>
  WORD nMaxSkinWeightsPerVertex;
  WORD nMaxSkinWeightsPerFace;
  WORD nBones;
}

template SkinWeights {
  <6f0d123b-bad2-4167-a0d0-80224f25fabb>
  STRING transformNodeName;
  DWORD nWeights;
  array DWORD vertexIndices[nWeights];
  array float weights[nWeights];
  Matrix4x4 matrixOffset;
}

Frame Root {
  FrameTransformMatrix {
     1.000000, 0.000000, 0.000000, 0.000000,
     0.000000, 0.000000, 1.000000, 0.000000,
     0.000000, 1.000000,-0.000000, 0.000000,
     0.000000, 0.000000, 0.000000, 1.000000;;
  }
  Frame ruriri_mat_0 {
    FrameTransformMatrix {
       1.000000, 0.000000, 0.000000, 0.000000,
       0.000000, 1.000000, 0.000000, 0.000000,
       0.000000, 0.000000, 1.000000, 0.000000,
       0.000000, 0.000000, 0.000000, 1.000000;;
    }
    Mesh { //Mesh Mesh
      240;
       0.337043; 0.090782;-0.035186;,
       0.325968; 0.094626; 0.056905;,
       0.164130; 0.134561;-0.109637;,
       0.325968; 0.094626; 0.056905;,
       0.144452; 0.147345; 0.055356;,
       0.164130; 0.134561;-0.109637;,
      -0.080309; 0.163662;-0.162637;,
       0.164130; 0.134561;-0.109637;,
       0.144452; 0.147345; 0.055356;,
       0.144452; 0.147345; 0.055356;,
      -0.103246; 0.180562; 0.030139;,
      -0.080309; 0.163662;-0.162637;,
      -0.080309; 0.163662;-0.162637;,
      -0.103246; 0.180562; 0.030139;,
      -0.328801; 0.130725;-0.172025;,
      -0.103246; 0.180562; 0.030139;,
      -0.348478; 0.143508;-0.007032;,
      -0.328801; 0.130725;-0.172025;,
      -0.328801; 0.130725;-0.172025;,
      -0.348478; 0.143508;-0.007032;,
      -0.516614; 0.096899;-0.141368;,
      -0.348478; 0.143508;-0.007032;,
      -0.527689; 0.100743;-0.049278;,
      -0.516614; 0.096899;-0.141368;,
       0.325968; 0.094626; 0.056905;,
       0.315845; 0.066131; 0.133814;,
       0.144452; 0.147345; 0.055356;,
       0.315845; 0.066131; 0.133814;,
       0.125732; 0.089908; 0.196498;,
       0.144452; 0.147345; 0.055356;,
       0.144452; 0.147345; 0.055356;,
       0.125732; 0.089908; 0.196498;,
      -0.103246; 0.180562; 0.030139;,
       0.125732; 0.089908; 0.196498;,
      -0.125885; 0.110661; 0.200732;,
      -0.103246; 0.180562; 0.030139;,
      -0.103246; 0.180562; 0.030139;,
      -0.125885; 0.110661; 0.200732;,
      -0.348478; 0.143508;-0.007032;,
      -0.125885; 0.110661; 0.200732;,
      -0.367199; 0.086072; 0.134110;,
      -0.348478; 0.143508;-0.007032;,
      -0.348478; 0.143508;-0.007032;,
      -0.367199; 0.086072; 0.134110;,
      -0.527689; 0.100743;-0.049278;,
      -0.367199; 0.086072; 0.134110;,
      -0.537812; 0.072249; 0.027632;,
      -0.527689; 0.100743;-0.049278;,
       0.315845; 0.066131; 0.133814;,
       0.309199;-0.019245; 0.169153;,
       0.125732; 0.089908; 0.196498;,
       0.309199;-0.019245; 0.169153;,
       0.117492;-0.027461; 0.237696;,
       0.125732; 0.089908; 0.196498;,
       0.125732; 0.089908; 0.196498;,
       0.117492;-0.027461; 0.237696;,
      -0.125885; 0.110661; 0.200732;,
       0.117492;-0.027461; 0.237696;,
      -0.135100;-0.040813; 0.254372;,
      -0.125885; 0.110661; 0.200732;,
      -0.125885; 0.110661; 0.200732;,
      -0.135100;-0.040813; 0.254372;,
      -0.367199; 0.086072; 0.134110;,
      -0.135100;-0.040813; 0.254372;,
      -0.375439;-0.031297; 0.175308;,
      -0.367199; 0.086072; 0.134110;,
      -0.367199; 0.086072; 0.134110;,
      -0.375439;-0.031297; 0.175308;,
      -0.537812; 0.072249; 0.027632;,
      -0.375439;-0.031297; 0.175308;,
      -0.544459;-0.013129; 0.062971;,
      -0.537812; 0.072249; 0.027632;,
       0.309199;-0.019245; 0.169153;,
       0.314316;-0.090944; 0.110711;,
       0.117492;-0.027461; 0.237696;,
       0.314316;-0.090944; 0.110711;,
       0.123456;-0.143911; 0.162107;,
       0.117492;-0.027461; 0.237696;,
       0.117492;-0.027461; 0.237696;,
       0.123456;-0.143911; 0.162107;,
      -0.135100;-0.040813; 0.254372;,
       0.123456;-0.143911; 0.162107;,
      -0.117764;-0.151167; 0.159538;,
      -0.135100;-0.040813; 0.254372;,
      -0.135100;-0.040813; 0.254372;,
      -0.117764;-0.151167; 0.159538;,
      -0.375439;-0.031297; 0.175308;,
      -0.117764;-0.151167; 0.159538;,
      -0.369475;-0.147749; 0.099718;,
      -0.375439;-0.031297; 0.175308;,
      -0.375439;-0.031297; 0.175308;,
      -0.369475;-0.147749; 0.099718;,
      -0.544459;-0.013129; 0.062971;,
      -0.369475;-0.147749; 0.099718;,
      -0.539341;-0.084827; 0.004529;,
      -0.544459;-0.013129; 0.062971;,
       0.341591; 0.018424;-0.089104;,
       0.337043; 0.090782;-0.035186;,
       0.172004; 0.035933;-0.196914;,
       0.337043; 0.090782;-0.035186;,
       0.164130; 0.134561;-0.109637;,
       0.172004; 0.035933;-0.196914;,
       0.172004; 0.035933;-0.196914;,
       0.164130; 0.134561;-0.109637;,
      -0.069784; 0.035144;-0.266378;,
      -0.069784; 0.035144;-0.266378;,
       0.164130; 0.134561;-0.109637;,
      -0.080309; 0.163662;-0.162637;,
      -0.069784; 0.035144;-0.266378;,
      -0.080309; 0.163662;-0.162637;,
      -0.320926; 0.032096;-0.259303;,
      -0.080309; 0.163662;-0.162637;,
      -0.328801; 0.130725;-0.172025;,
      -0.320926; 0.032096;-0.259303;,
      -0.320926; 0.032096;-0.259303;,
      -0.328801; 0.130725;-0.172025;,
      -0.512066; 0.024541;-0.195286;,
      -0.328801; 0.130725;-0.172025;,
      -0.516614; 0.096899;-0.141368;,
      -0.512066; 0.024541;-0.195286;,
       0.314316;-0.090944; 0.110711;,
       0.323958;-0.111894; 0.026529;,
       0.123456;-0.143911; 0.162107;,
       0.323958;-0.111894; 0.026529;,
       0.141322;-0.174244; 0.008055;,
       0.123456;-0.143911; 0.162107;,
       0.123456;-0.143911; 0.162107;,
       0.141322;-0.174244; 0.008055;,
      -0.117764;-0.151167; 0.159538;,
       0.141322;-0.174244; 0.008055;,
      -0.096135;-0.185030;-0.026317;,
      -0.117764;-0.151167; 0.159538;,
      -0.117764;-0.151167; 0.159538;,
      -0.096135;-0.185030;-0.026317;,
      -0.369475;-0.147749; 0.099718;,
      -0.096135;-0.185030;-0.026317;,
      -0.351609;-0.178081;-0.054333;,
      -0.369475;-0.147749; 0.099718;,
      -0.369475;-0.147749; 0.099718;,
      -0.351609;-0.178081;-0.054333;,
      -0.539341;-0.084827; 0.004529;,
      -0.351609;-0.178081;-0.054333;,
      -0.529700;-0.105777;-0.079653;,
      -0.539341;-0.084827; 0.004529;,
       0.323958;-0.111894; 0.026529;,
       0.335514;-0.066293;-0.058289;,
       0.141322;-0.174244; 0.008055;,
       0.335514;-0.066293;-0.058289;,
       0.161853;-0.099258;-0.144028;,
       0.141322;-0.174244; 0.008055;,
       0.141322;-0.174244; 0.008055;,
       0.161853;-0.099258;-0.144028;,
      -0.096135;-0.185030;-0.026317;,
       0.161853;-0.099258;-0.144028;,
      -0.072187;-0.098166;-0.203831;,
      -0.096135;-0.185030;-0.026317;,
      -0.096135;-0.185030;-0.026317;,
      -0.072187;-0.098166;-0.203831;,
      -0.351609;-0.178081;-0.054333;,
      -0.072187;-0.098166;-0.203831;,
      -0.331077;-0.103095;-0.206416;,
      -0.351609;-0.178081;-0.054333;,
      -0.351609;-0.178081;-0.054333;,
      -0.331077;-0.103095;-0.206416;,
      -0.529700;-0.105777;-0.079653;,
      -0.331077;-0.103095;-0.206416;,
      -0.518144;-0.060176;-0.164472;,
      -0.529700;-0.105777;-0.079653;,
       0.335514;-0.066293;-0.058289;,
       0.341591; 0.018424;-0.089104;,
       0.161853;-0.099258;-0.144028;,
       0.341591; 0.018424;-0.089104;,
       0.172004; 0.035933;-0.196914;,
       0.161853;-0.099258;-0.144028;,
       0.161853;-0.099258;-0.144028;,
       0.172004; 0.035933;-0.196914;,
      -0.072187;-0.098166;-0.203831;,
       0.172004; 0.035933;-0.196914;,
      -0.069784; 0.035144;-0.266378;,
      -0.072187;-0.098166;-0.203831;,
      -0.072187;-0.098166;-0.203831;,
      -0.069784; 0.035144;-0.266378;,
      -0.331077;-0.103095;-0.206416;,
      -0.069784; 0.035144;-0.266378;,
      -0.320926; 0.032096;-0.259303;,
      -0.331077;-0.103095;-0.206416;,
      -0.331077;-0.103095;-0.206416;,
      -0.320926; 0.032096;-0.259303;,
      -0.518144;-0.060176;-0.164472;,
      -0.320926; 0.032096;-0.259303;,
      -0.512066; 0.024541;-0.195286;,
      -0.518144;-0.060176;-0.164472;,
      -0.516614; 0.096899;-0.141368;,
      -0.594636; 0.007114;-0.071332;,
      -0.512066; 0.024541;-0.195286;,
      -0.512066; 0.024541;-0.195286;,
      -0.594636; 0.007114;-0.071332;,
      -0.518144;-0.060176;-0.164472;,
      -0.518144;-0.060176;-0.164472;,
      -0.594636; 0.007114;-0.071332;,
      -0.529700;-0.105777;-0.079653;,
      -0.529700;-0.105777;-0.079653;,
      -0.594636; 0.007114;-0.071332;,
      -0.539341;-0.084827; 0.004529;,
      -0.539341;-0.084827; 0.004529;,
      -0.594636; 0.007114;-0.071332;,
      -0.544459;-0.013129; 0.062971;,
      -0.544459;-0.013129; 0.062971;,
      -0.594636; 0.007114;-0.071332;,
      -0.537812; 0.072249; 0.027632;,
      -0.537812; 0.072249; 0.027632;,
      -0.594636; 0.007114;-0.071332;,
      -0.527689; 0.100743;-0.049278;,
      -0.527689; 0.100743;-0.049278;,
      -0.594636; 0.007114;-0.071332;,
      -0.516614; 0.096899;-0.141368;,
       0.337043; 0.090782;-0.035186;,
       0.391056;-0.002647; 0.050880;,
       0.325968; 0.094626; 0.056905;,
       0.391056;-0.002647; 0.050880;,
       0.315845; 0.066131; 0.133814;,
       0.325968; 0.094626; 0.056905;,
       0.315845; 0.066131; 0.133814;,
       0.391056;-0.002647; 0.050880;,
       0.309199;-0.019245; 0.169153;,
       0.391056;-0.002647; 0.050880;,
       0.314316;-0.090944; 0.110711;,
       0.309199;-0.019245; 0.169153;,
       0.314316;-0.090944; 0.110711;,
       0.391056;-0.002647; 0.050880;,
       0.323958;-0.111894; 0.026529;,
       0.391056;-0.002647; 0.050880;,
       0.335514;-0.066293;-0.058289;,
       0.323958;-0.111894; 0.026529;,
       0.335514;-0.066293;-0.058289;,
       0.391056;-0.002647; 0.050880;,
       0.341591; 0.018424;-0.089104;,
       0.391056;-0.002647; 0.050880;,
       0.337043; 0.090782;-0.035186;,
       0.341591; 0.018424;-0.089104;;
      80;
      3;0;1;2;,
      3;3;4;5;,
      3;6;7;8;,
      3;9;10;11;,
      3;12;13;14;,
      3;15;16;17;,
      3;18;19;20;,
      3;21;22;23;,
      3;24;25;26;,
      3;27;28;29;,
      3;30;31;32;,
      3;33;34;35;,
      3;36;37;38;,
      3;39;40;41;,
      3;42;43;44;,
      3;45;46;47;,
      3;48;49;50;,
      3;51;52;53;,
      3;54;55;56;,
      3;57;58;59;,
      3;60;61;62;,
      3;63;64;65;,
      3;66;67;68;,
      3;69;70;71;,
      3;72;73;74;,
      3;75;76;77;,
      3;78;79;80;,
      3;81;82;83;,
      3;84;85;86;,
      3;87;88;89;,
      3;90;91;92;,
      3;93;94;95;,
      3;96;97;98;,
      3;99;100;101;,
      3;102;103;104;,
      3;105;106;107;,
      3;108;109;110;,
      3;111;112;113;,
      3;114;115;116;,
      3;117;118;119;,
      3;120;121;122;,
      3;123;124;125;,
      3;126;127;128;,
      3;129;130;131;,
      3;132;133;134;,
      3;135;136;137;,
      3;138;139;140;,
      3;141;142;143;,
      3;144;145;146;,
      3;147;148;149;,
      3;150;151;152;,
      3;153;154;155;,
      3;156;157;158;,
      3;159;160;161;,
      3;162;163;164;,
      3;165;166;167;,
      3;168;169;170;,
      3;171;172;173;,
      3;174;175;176;,
      3;177;178;179;,
      3;180;181;182;,
      3;183;184;185;,
      3;186;187;188;,
      3;189;190;191;,
      3;192;193;194;,
      3;195;196;197;,
      3;198;199;200;,
      3;201;202;203;,
      3;204;205;206;,
      3;207;208;209;,
      3;210;211;212;,
      3;213;214;215;,
      3;216;217;218;,
      3;219;220;221;,
      3;222;223;224;,
      3;225;226;227;,
      3;228;229;230;,
      3;231;232;233;,
      3;234;235;236;,
      3;237;238;239;;
      MeshNormals { //Mesh Normals
        240;
        -0.649739;-0.708853; 0.274392;,
        -0.560259;-0.806787;-0.187536;,
        -0.284921;-0.864345; 0.414319;,
        -0.560259;-0.806787;-0.187536;,
        -0.188543;-0.966247;-0.175420;,
        -0.284921;-0.864345; 0.414319;,
        -0.057863;-0.883084; 0.465590;,
        -0.284921;-0.864345; 0.414319;,
        -0.188543;-0.966247;-0.175420;,
        -0.188543;-0.966247;-0.175420;,
         0.025025;-0.988647;-0.148076;,
        -0.057863;-0.883084; 0.465590;,
        -0.057863;-0.883084; 0.465590;,
         0.025025;-0.988647;-0.148076;,
         0.170904;-0.864345; 0.472915;,
         0.025025;-0.988647;-0.148076;,
         0.209082;-0.968993;-0.131443;,
         0.170904;-0.864345; 0.472915;,
         0.170904;-0.864345; 0.472915;,
         0.209082;-0.968993;-0.131443;,
         0.522996;-0.735099; 0.431349;,
         0.209082;-0.968993;-0.131443;,
         0.546464;-0.835170;-0.061708;,
         0.522996;-0.735099; 0.431349;,
        -0.560259;-0.806787;-0.187536;,
        -0.556810;-0.576067;-0.598376;,
        -0.188543;-0.966247;-0.175420;,
        -0.556810;-0.576067;-0.598376;,
        -0.182531;-0.654408;-0.733726;,
        -0.188543;-0.966247;-0.175420;,
        -0.188543;-0.966247;-0.175420;,
        -0.182531;-0.654408;-0.733726;,
         0.025025;-0.988647;-0.148076;,
        -0.182531;-0.654408;-0.733726;,
         0.095889;-0.686453;-0.720817;,
         0.025025;-0.988647;-0.148076;,
         0.025025;-0.988647;-0.148076;,
         0.095889;-0.686453;-0.720817;,
         0.209082;-0.968993;-0.131443;,
         0.095889;-0.686453;-0.720817;,
         0.351665;-0.657216;-0.666585;,
         0.209082;-0.968993;-0.131443;,
         0.209082;-0.968993;-0.131443;,
         0.351665;-0.657216;-0.666585;,
         0.546464;-0.835170;-0.061708;,
         0.351665;-0.657216;-0.666585;,
         0.644612;-0.612964;-0.456832;,
         0.546464;-0.835170;-0.061708;,
        -0.556810;-0.576067;-0.598376;,
        -0.563372; 0.132450;-0.815485;,
        -0.182531;-0.654408;-0.733726;,
        -0.563372; 0.132450;-0.815485;,
        -0.202185; 0.115513;-0.972472;,
        -0.182531;-0.654408;-0.733726;,
        -0.182531;-0.654408;-0.733726;,
        -0.202185; 0.115513;-0.972472;,
         0.095889;-0.686453;-0.720817;,
        -0.202185; 0.115513;-0.972472;,
         0.137822; 0.178625;-0.974181;,
         0.095889;-0.686453;-0.720817;,
         0.095889;-0.686453;-0.720817;,
         0.137822; 0.178625;-0.974181;,
         0.351665;-0.657216;-0.666585;,
         0.137822; 0.178625;-0.974181;,
         0.417982; 0.117893;-0.900754;,
         0.351665;-0.657216;-0.666585;,
         0.351665;-0.657216;-0.666585;,
         0.417982; 0.117893;-0.900754;,
         0.644612;-0.612964;-0.456832;,
         0.417982; 0.117893;-0.900754;,
         0.752373; 0.073916;-0.654530;,
         0.644612;-0.612964;-0.456832;,
        -0.563372; 0.132450;-0.815485;,
        -0.570574; 0.667653;-0.478164;,
        -0.202185; 0.115513;-0.972472;,
        -0.570574; 0.667653;-0.478164;,
        -0.191473; 0.806177;-0.559801;,
        -0.202185; 0.115513;-0.972472;,
        -0.202185; 0.115513;-0.972472;,
        -0.191473; 0.806177;-0.559801;,
         0.137822; 0.178625;-0.974181;,
        -0.191473; 0.806177;-0.559801;,
         0.071596; 0.854366;-0.514664;,
         0.137822; 0.178625;-0.974181;,
         0.137822; 0.178625;-0.974181;,
         0.071596; 0.854366;-0.514664;,
         0.417982; 0.117893;-0.900754;,
         0.071596; 0.854366;-0.514664;,
         0.315012; 0.804376;-0.503708;,
         0.417982; 0.117893;-0.900754;,
         0.417982; 0.117893;-0.900754;,
         0.315012; 0.804376;-0.503708;,
         0.752373; 0.073916;-0.654530;,
         0.315012; 0.804376;-0.503708;,
         0.703055; 0.641407;-0.307016;,
         0.752373; 0.073916;-0.654530;,
        -0.742332;-0.087008; 0.664327;,
        -0.649739;-0.708853; 0.274392;,
        -0.387341;-0.159825; 0.907956;,
        -0.649739;-0.708853; 0.274392;,
        -0.284921;-0.864345; 0.414319;,
        -0.387341;-0.159825; 0.907956;,
        -0.387341;-0.159825; 0.907956;,
        -0.284921;-0.864345; 0.414319;,
        -0.132389;-0.125645; 0.983184;,
        -0.132389;-0.125645; 0.983184;,
        -0.284921;-0.864345; 0.414319;,
        -0.057863;-0.883084; 0.465590;,
        -0.132389;-0.125645; 0.983184;,
        -0.057863;-0.883084; 0.465590;,
         0.166601;-0.165716; 0.971984;,
        -0.057863;-0.883084; 0.465590;,
         0.170904;-0.864345; 0.472915;,
         0.166601;-0.165716; 0.971984;,
         0.166601;-0.165716; 0.971984;,
         0.170904;-0.864345; 0.472915;,
         0.550249;-0.137822; 0.823511;,
         0.170904;-0.864345; 0.472915;,
         0.522996;-0.735099; 0.431349;,
         0.550249;-0.137822; 0.823511;,
        -0.570574; 0.667653;-0.478164;,
        -0.594714; 0.802759; 0.042604;,
        -0.191473; 0.806177;-0.559801;,
        -0.594714; 0.802759; 0.042604;,
        -0.196631; 0.975188; 0.101413;,
        -0.191473; 0.806177;-0.559801;,
        -0.191473; 0.806177;-0.559801;,
        -0.196631; 0.975188; 0.101413;,
         0.071596; 0.854366;-0.514664;,
        -0.196631; 0.975188; 0.101413;,
        -0.024720; 0.990478; 0.135197;,
         0.071596; 0.854366;-0.514664;,
         0.071596; 0.854366;-0.514664;,
        -0.024720; 0.990478; 0.135197;,
         0.315012; 0.804376;-0.503708;,
        -0.024720; 0.990478; 0.135197;,
         0.184301; 0.972533; 0.141942;,
         0.315012; 0.804376;-0.503708;,
         0.315012; 0.804376;-0.503708;,
         0.184301; 0.972533; 0.141942;,
         0.703055; 0.641407;-0.307016;,
         0.184301; 0.972533; 0.141942;,
         0.611164; 0.771386; 0.177190;,
         0.703055; 0.641407;-0.307016;,
        -0.594714; 0.802759; 0.042604;,
        -0.673879; 0.539140; 0.505112;,
        -0.196631; 0.975188; 0.101413;,
        -0.673879; 0.539140; 0.505112;,
        -0.303964; 0.666829; 0.680380;,
        -0.196631; 0.975188; 0.101413;,
        -0.196631; 0.975188; 0.101413;,
        -0.303964; 0.666829; 0.680380;,
        -0.024720; 0.990478; 0.135197;,
        -0.303964; 0.666829; 0.680380;,
        -0.107120; 0.684530; 0.721030;,
        -0.024720; 0.990478; 0.135197;,
        -0.024720; 0.990478; 0.135197;,
        -0.107120; 0.684530; 0.721030;,
         0.184301; 0.972533; 0.141942;,
        -0.107120; 0.684530; 0.721030;,
         0.139805; 0.665731; 0.732933;,
         0.184301; 0.972533; 0.141942;,
         0.184301; 0.972533; 0.141942;,
         0.139805; 0.665731; 0.732933;,
         0.611164; 0.771386; 0.177190;,
         0.139805; 0.665731; 0.732933;,
         0.567492; 0.500137; 0.654042;,
         0.611164; 0.771386; 0.177190;,
        -0.673879; 0.539140; 0.505112;,
        -0.742332;-0.087008; 0.664327;,
        -0.303964; 0.666829; 0.680380;,
        -0.742332;-0.087008; 0.664327;,
        -0.387341;-0.159825; 0.907956;,
        -0.303964; 0.666829; 0.680380;,
        -0.303964; 0.666829; 0.680380;,
        -0.387341;-0.159825; 0.907956;,
        -0.107120; 0.684530; 0.721030;,
        -0.387341;-0.159825; 0.907956;,
        -0.132389;-0.125645; 0.983184;,
        -0.107120; 0.684530; 0.721030;,
        -0.107120; 0.684530; 0.721030;,
        -0.132389;-0.125645; 0.983184;,
         0.139805; 0.665731; 0.732933;,
        -0.132389;-0.125645; 0.983184;,
         0.166601;-0.165716; 0.971984;,
         0.139805; 0.665731; 0.732933;,
         0.139805; 0.665731; 0.732933;,
         0.166601;-0.165716; 0.971984;,
         0.567492; 0.500137; 0.654042;,
         0.166601;-0.165716; 0.971984;,
         0.550249;-0.137822; 0.823511;,
         0.567492; 0.500137; 0.654042;,
         0.522996;-0.735099; 0.431349;,
         0.993561;-0.042329; 0.104831;,
         0.550249;-0.137822; 0.823511;,
         0.550249;-0.137822; 0.823511;,
         0.993561;-0.042329; 0.104831;,
         0.567492; 0.500137; 0.654042;,
         0.567492; 0.500137; 0.654042;,
         0.993561;-0.042329; 0.104831;,
         0.611164; 0.771386; 0.177190;,
         0.611164; 0.771386; 0.177190;,
         0.993561;-0.042329; 0.104831;,
         0.703055; 0.641407;-0.307016;,
         0.703055; 0.641407;-0.307016;,
         0.993561;-0.042329; 0.104831;,
         0.752373; 0.073916;-0.654530;,
         0.752373; 0.073916;-0.654530;,
         0.993561;-0.042329; 0.104831;,
         0.644612;-0.612964;-0.456832;,
         0.644612;-0.612964;-0.456832;,
         0.993561;-0.042329; 0.104831;,
         0.546464;-0.835170;-0.061708;,
         0.546464;-0.835170;-0.061708;,
         0.993561;-0.042329; 0.104831;,
         0.522996;-0.735099; 0.431349;,
        -0.649739;-0.708853; 0.274392;,
        -0.990600; 0.012421;-0.136052;,
        -0.560259;-0.806787;-0.187536;,
        -0.990600; 0.012421;-0.136052;,
        -0.556810;-0.576067;-0.598376;,
        -0.560259;-0.806787;-0.187536;,
        -0.556810;-0.576067;-0.598376;,
        -0.990600; 0.012421;-0.136052;,
        -0.563372; 0.132450;-0.815485;,
        -0.990600; 0.012421;-0.136052;,
        -0.570574; 0.667653;-0.478164;,
        -0.563372; 0.132450;-0.815485;,
        -0.570574; 0.667653;-0.478164;,
        -0.990600; 0.012421;-0.136052;,
        -0.594714; 0.802759; 0.042604;,
        -0.990600; 0.012421;-0.136052;,
        -0.673879; 0.539140; 0.505112;,
        -0.594714; 0.802759; 0.042604;,
        -0.673879; 0.539140; 0.505112;,
        -0.990600; 0.012421;-0.136052;,
        -0.742332;-0.087008; 0.664327;,
        -0.990600; 0.012421;-0.136052;,
        -0.649739;-0.708853; 0.274392;,
        -0.742332;-0.087008; 0.664327;;
        80;
        3;0;1;2;,
        3;3;4;5;,
        3;6;7;8;,
        3;9;10;11;,
        3;12;13;14;,
        3;15;16;17;,
        3;18;19;20;,
        3;21;22;23;,
        3;24;25;26;,
        3;27;28;29;,
        3;30;31;32;,
        3;33;34;35;,
        3;36;37;38;,
        3;39;40;41;,
        3;42;43;44;,
        3;45;46;47;,
        3;48;49;50;,
        3;51;52;53;,
        3;54;55;56;,
        3;57;58;59;,
        3;60;61;62;,
        3;63;64;65;,
        3;66;67;68;,
        3;69;70;71;,
        3;72;73;74;,
        3;75;76;77;,
        3;78;79;80;,
        3;81;82;83;,
        3;84;85;86;,
        3;87;88;89;,
        3;90;91;92;,
        3;93;94;95;,
        3;96;97;98;,
        3;99;100;101;,
        3;102;103;104;,
        3;105;106;107;,
        3;108;109;110;,
        3;111;112;113;,
        3;114;115;116;,
        3;117;118;119;,
        3;120;121;122;,
        3;123;124;125;,
        3;126;127;128;,
        3;129;130;131;,
        3;132;133;134;,
        3;135;136;137;,
        3;138;139;140;,
        3;141;142;143;,
        3;144;145;146;,
        3;147;148;149;,
        3;150;151;152;,
        3;153;154;155;,
        3;156;157;158;,
        3;159;160;161;,
        3;162;163;164;,
        3;165;166;167;,
        3;168;169;170;,
        3;171;172;173;,
        3;174;175;176;,
        3;177;178;179;,
        3;180;181;182;,
        3;183;184;185;,
        3;186;187;188;,
        3;189;190;191;,
        3;192;193;194;,
        3;195;196;197;,
        3;198;199;200;,
        3;201;202;203;,
        3;204;205;206;,
        3;207;208;209;,
        3;210;211;212;,
        3;213;214;215;,
        3;216;217;218;,
        3;219;220;221;,
        3;222;223;224;,
        3;225;226;227;,
        3;228;229;230;,
        3;231;232;233;,
        3;234;235;236;,
        3;237;238;239;;
      } //End of Mesh Normals
      MeshMaterialList { //Mesh Material List
        1;
        80;
        0,
        0,
        0,
        0,
        0,
        0,
        0,
        0,
        0,
        0,
        0,
        0,
        0,
        0,
        0,
        0,
        0,
        0,
        0,
        0,
        0,
        0,
        0,
        0,
        0,
        0,
        0,
        0,
        0,
        0,
        0,
        0,
        0,
        0,
        0,
        0,
        0,
        0,
        0,
        0,
        0,
        0,
        0,
        0,
        0,
        0,
        0,
        0,
        0,
        0,
        0,
        0,
        0,
        0,
        0,
        0,
        0,
        0,
        0,
        0,
        0,
        0,
        0,
        0,
        0,
        0,
        0,
        0,
        0,
        0,
        0,
        0,
        0,
        0,
        0,
        0,
        0,
        0,
        0,
        0;;
        Material mat_0 {
           0.640000; 0.640000; 0.640000; 1.000000;;
           92.156863;
           0.250000; 0.250000; 0.250000;;
           0.000000; 0.000000; 0.000000;;
          TextureFilename {"Textures/ruriri_0_0.tga";}
        }
      } //End of Mesh Material List
      MeshTextureCoords { //Mesh UV Coordinates
        240;
         0.723147; 0.245575;,
         0.716835; 0.235060;,
         0.624595; 0.125826;,
         0.716835; 0.235060;,
         0.613380; 0.090858;,
         0.624595; 0.125826;,
         0.485277; 0.046226;,
         0.624595; 0.125826;,
         0.613380; 0.090858;,
         0.613380; 0.090858;,
         0.472203; 0.000000;,
         0.485277; 0.046226;,
         0.485277; 0.046226;,
         0.472203; 0.000000;,
         0.343648; 0.136320;,
         0.472203; 0.000000;,
         0.332433; 0.101353;,
         0.343648; 0.136320;,
         0.343648; 0.136320;,
         0.332433; 0.101353;,
         0.236604; 0.228842;,
         0.332433; 0.101353;,
         0.230291; 0.218328;,
         0.236604; 0.228842;,
         0.716835; 0.235060;,
         0.711066; 0.313001;,
         0.613380; 0.090858;,
         0.711066; 0.313001;,
         0.602710; 0.247965;,
         0.613380; 0.090858;,
         0.613380; 0.090858;,
         0.602710; 0.247965;,
         0.472203; 0.000000;,
         0.602710; 0.247965;,
         0.459300; 0.191198;,
         0.472203; 0.000000;,
         0.472203; 0.000000;,
         0.459300; 0.191198;,
         0.332433; 0.101353;,
         0.459300; 0.191198;,
         0.321763; 0.258459;,
         0.332433; 0.101353;,
         0.332433; 0.101353;,
         0.321763; 0.258459;,
         0.230291; 0.218328;,
         0.321763; 0.258459;,
         0.224521; 0.296268;,
         0.230291; 0.218328;,
         0.711066; 0.313001;,
         0.707278; 0.546532;,
         0.602710; 0.247965;,
         0.707278; 0.546532;,
         0.598014; 0.569002;,
         0.602710; 0.247965;,
         0.602710; 0.247965;,
         0.598014; 0.569002;,
         0.459300; 0.191198;,
         0.598014; 0.569002;,
         0.454048; 0.605526;,
         0.459300; 0.191198;,
         0.459300; 0.191198;,
         0.454048; 0.605526;,
         0.321763; 0.258459;,
         0.454048; 0.605526;,
         0.317066; 0.579497;,
         0.321763; 0.258459;,
         0.321763; 0.258459;,
         0.317066; 0.579497;,
         0.224521; 0.296268;,
         0.317066; 0.579497;,
         0.220733; 0.529801;,
         0.224521; 0.296268;,
         0.707278; 0.546532;,
         0.710194; 0.742647;,
         0.598014; 0.569002;,
         0.710194; 0.742647;,
         0.601413; 0.887529;,
         0.598014; 0.569002;,
         0.598014; 0.569002;,
         0.601413; 0.887529;,
         0.454048; 0.605526;,
         0.601413; 0.887529;,
         0.463929; 0.907376;,
         0.454048; 0.605526;,
         0.454048; 0.605526;,
         0.463929; 0.907376;,
         0.317066; 0.579497;,
         0.463929; 0.907376;,
         0.320465; 0.898026;,
         0.317066; 0.579497;,
         0.317066; 0.579497;,
         0.320465; 0.898026;,
         0.220733; 0.529801;,
         0.320465; 0.898026;,
         0.223650; 0.725915;,
         0.220733; 0.529801;,
         0.725740; 0.443495;,
         0.723147; 0.245575;,
         0.629083; 0.395604;,
         0.723147; 0.245575;,
         0.624595; 0.125826;,
         0.629083; 0.395604;,
         0.629083; 0.395604;,
         0.624595; 0.125826;,
         0.491276; 0.397761;,
         0.491276; 0.397761;,
         0.624595; 0.125826;,
         0.485277; 0.046226;,
         0.491276; 0.397761;,
         0.485277; 0.046226;,
         0.348136; 0.406099;,
         0.485277; 0.046226;,
         0.343648; 0.136320;,
         0.348136; 0.406099;,
         0.348136; 0.406099;,
         0.343648; 0.136320;,
         0.239196; 0.426763;,
         0.343648; 0.136320;,
         0.236604; 0.228842;,
         0.239196; 0.426763;,
         0.710194; 0.742647;,
         0.715690; 0.799952;,
         0.601413; 0.887529;,
         0.715690; 0.799952;,
         0.611596; 0.970498;,
         0.601413; 0.887529;,
         0.601413; 0.887529;,
         0.611596; 0.970498;,
         0.463929; 0.907376;,
         0.611596; 0.970498;,
         0.476257; 1.000000;,
         0.463929; 0.907376;,
         0.463929; 0.907376;,
         0.476257; 1.000000;,
         0.320465; 0.898026;,
         0.476257; 1.000000;,
         0.330648; 0.980994;,
         0.320465; 0.898026;,
         0.320465; 0.898026;,
         0.330648; 0.980994;,
         0.223650; 0.725915;,
         0.330648; 0.980994;,
         0.229145; 0.783221;,
         0.223650; 0.725915;,
         0.715690; 0.799952;,
         0.722276; 0.675220;,
         0.611596; 0.970498;,
         0.722276; 0.675220;,
         0.623298; 0.765391;,
         0.611596; 0.970498;,
         0.611596; 0.970498;,
         0.623298; 0.765391;,
         0.476257; 1.000000;,
         0.623298; 0.765391;,
         0.489906; 0.762401;,
         0.476257; 1.000000;,
         0.476257; 1.000000;,
         0.489906; 0.762401;,
         0.330648; 0.980994;,
         0.489906; 0.762401;,
         0.342351; 0.775886;,
         0.330648; 0.980994;,
         0.330648; 0.980994;,
         0.342351; 0.775886;,
         0.229145; 0.783221;,
         0.342351; 0.775886;,
         0.235732; 0.658489;,
         0.229145; 0.783221;,
         0.722276; 0.675220;,
         0.725740; 0.443495;,
         0.623298; 0.765391;,
         0.725740; 0.443495;,
         0.629083; 0.395604;,
         0.623298; 0.765391;,
         0.623298; 0.765391;,
         0.629083; 0.395604;,
         0.489906; 0.762401;,
         0.629083; 0.395604;,
         0.491276; 0.397761;,
         0.489906; 0.762401;,
         0.489906; 0.762401;,
         0.491276; 0.397761;,
         0.342351; 0.775886;,
         0.491276; 0.397761;,
         0.348136; 0.406099;,
         0.342351; 0.775886;,
         0.342351; 0.775886;,
         0.348136; 0.406099;,
         0.235732; 0.658489;,
         0.348136; 0.406099;,
         0.239196; 0.426763;,
         0.235732; 0.658489;,
         0.236604; 0.228842;,
         0.192135; 0.474432;,
         0.239196; 0.426763;,
         0.192135; 0.474432;,
         0.235732; 0.658489;,
         0.239196; 0.426763;,
         0.235732; 0.658489;,
         0.192135; 0.474432;,
         0.229145; 0.783221;,
         0.192135; 0.474432;,
         0.223650; 0.725915;,
         0.229145; 0.783221;,
         0.223650; 0.725915;,
         0.192135; 0.474432;,
         0.220733; 0.529801;,
         0.192135; 0.474432;,
         0.224521; 0.296268;,
         0.220733; 0.529801;,
         0.224521; 0.296268;,
         0.192135; 0.474432;,
         0.230291; 0.218328;,
         0.192135; 0.474432;,
         0.236604; 0.228842;,
         0.230291; 0.218328;,
         0.723147; 0.245575;,
         0.753933; 0.501130;,
         0.716835; 0.235060;,
         0.753933; 0.501130;,
         0.711066; 0.313001;,
         0.716835; 0.235060;,
         0.711066; 0.313001;,
         0.753933; 0.501130;,
         0.707278; 0.546532;,
         0.753933; 0.501130;,
         0.710194; 0.742647;,
         0.707278; 0.546532;,
         0.710194; 0.742647;,
         0.753933; 0.501130;,
         0.715690; 0.799952;,
         0.753933; 0.501130;,
         0.722276; 0.675220;,
         0.715690; 0.799952;,
         0.722276; 0.675220;,
         0.753933; 0.501130;,
         0.725740; 0.443495;,
         0.753933; 0.501130;,
         0.723147; 0.245575;,
         0.725740; 0.443495;;
      } //End of Mesh UV Coordinates
    } //End of Mesh Mesh
  } //End of ruriri_mat_0
} //End of Root Frame
