# Blender v2.66 (sub 1) OBJ File: 'BR_Crobat-Shiny01.blend'
# www.blender.org
mtllib BR_Crobat-Shiny01.mtl
o crobat
v 1.198340 -2.127130 1.841040
v 1.698620 -1.079850 2.108820
v 0.000000 -1.214150 2.466510
v 2.134550 -2.653990 -0.051040
v 2.998160 -0.397323 0.526351
v 2.600800 -0.778642 1.363130
v -1.957190 -0.569580 -4.883860
v 0.000000 -1.197320 -4.986720
v 0.000000 -2.378540 -4.013320
v -2.416230 -1.570490 -3.854060
v -1.182680 -0.261724 2.376130
v -1.698620 -1.079850 2.108820
v 1.957190 -0.569580 -4.883860
v 0.000000 0.283468 -5.570500
v 1.816970 1.122150 -5.477690
v 0.000000 1.389820 -5.529920
v 0.000000 -2.506750 1.732160
v 0.000000 -3.537760 -0.284316
v 1.871950 -2.520330 0.907399
v 0.000000 -3.410550 -1.698130
v 2.375550 -2.542060 -1.423990
v 0.000000 -3.114920 -2.935910
v 2.416230 -1.570490 -3.854060
v 2.396480 -2.249240 -2.680600
v 2.645830 1.826240 -4.768740
v -2.645830 1.826240 -4.768740
v -1.816970 1.122150 -5.477690
v 1.462560 3.252320 -1.851870
v 1.380310 3.256260 -1.728860
v 1.988150 2.697540 -1.234280
v 0.000000 3.985600 -2.510320
v 0.000000 4.044740 -2.283750
v 0.658703 3.793960 -2.109250
v 0.000000 0.331937 -2.058810
v -1.380310 3.256260 -1.728860
v -1.988150 2.697540 -1.234280
v -2.396480 -2.249240 -2.680600
v -2.375550 -2.542060 -1.423990
v -3.256320 -0.252865 -1.334370
v 1.731910 3.081520 -4.285630
v 0.970925 2.489670 -5.223400
v 0.000000 2.652230 -5.158050
v -2.600800 -0.778642 1.363130
v 2.736070 1.511740 -1.283070
v 2.109180 1.315980 1.021810
v 0.000000 1.296490 1.987320
v 0.000000 2.220960 1.340450
v -2.109180 1.315980 1.021810
v -1.827450 0.564501 1.735240
v 1.182680 -0.261724 2.376130
v 0.000000 0.035859 2.457770
v 3.043460 0.657979 -0.539455
v -0.216489 3.360700 -4.170460
v 0.216489 3.360700 -4.170460
v -0.716142 3.709770 -2.269240
v -0.737174 3.594660 -2.384310
v -1.451240 3.174650 -1.940390
v 0.000000 -3.199370 0.729701
v -1.198340 -2.127130 1.841040
v 1.827450 0.564501 1.735240
v -2.134550 -2.653990 -0.051040
v -3.069530 -0.925105 -0.844760
v 3.208020 0.369535 -1.303470
v -2.289840 2.703310 -3.613600
v -1.731910 3.081520 -4.285630
v 3.256320 -0.252865 -1.334370
v 0.716142 3.709770 -2.269240
v 1.451210 3.174540 -1.939830
v 0.000000 3.825050 -2.617580
v 0.737174 3.594660 -2.384310
v 1.507660 3.406590 -3.084790
v 3.069530 -0.925105 -0.844760
v -2.998160 -0.397323 0.526351
v -1.507660 3.406590 -3.084790
v -0.725489 3.763500 -2.709860
v -1.462560 3.252320 -1.851870
v -0.658703 3.793960 -2.109250
v 0.725489 3.763500 -2.709860
v -0.456777 3.547850 -3.551570
v -1.431800 3.103310 -3.975860
v 1.431800 3.103310 -3.975860
v 0.456777 3.547850 -3.551570
v -1.871950 -2.520330 0.907399
v 2.289840 2.703310 -3.613600
v 2.800680 1.799710 -3.089860
v -2.736070 1.511740 -1.283070
v 0.000000 3.713430 -3.400870
v -0.970925 2.489670 -5.223400
v -2.800680 1.799710 -3.089860
v -3.043460 0.657979 -0.539455
v -3.208020 0.369535 -1.303470
v 3.333400 -0.182399 -0.270101
v 3.234100 -0.168338 -0.230470
v -3.234100 -0.168338 -0.230470
v -3.333400 -0.182400 -0.270100
v 3.198590 0.392441 -0.539430
v 3.143620 -0.529661 -0.747213
v 3.361170 0.030065 -1.033360
v 3.326340 -0.136636 -0.261560
v 4.597410 -0.328398 -0.676089
v 4.412590 -0.760601 -0.299348
v 4.296770 -0.446570 0.180084
v 4.476620 -0.037417 -0.218686
v 5.242510 -0.710350 1.006060
v 5.468290 -1.097860 0.243097
v 5.798110 -0.662513 -0.390165
v 5.577910 -0.197687 0.228889
v 8.091930 -0.798092 0.315146
v 8.016430 -1.267320 1.556420
v 8.146180 -0.788950 2.733200
v 7.304750 -0.791046 2.893090
v 6.306610 -0.543322 1.906610
v 6.076380 -0.749371 2.081400
v 6.522150 -0.742695 3.370470
v 6.509030 -1.080260 1.798870
v 7.133730 -1.279700 1.519200
v 7.937790 -0.092616 1.483890
v 6.993950 -0.094515 1.561810
v 8.849090 0.060771 1.939350
v 9.391570 -0.548645 1.016920
v 9.136220 -0.436706 2.954630
v 9.160030 -0.960418 1.949380
v 10.076700 0.077068 3.550240
v 10.287600 -0.022861 2.055750
v 10.333200 -0.211607 2.971680
v 10.079100 0.370090 3.006820
v 10.807800 0.422305 3.295150
v 11.013200 0.718351 4.665840
v -1.858930 -4.616890 2.528290
v -1.632990 -2.560780 0.606765
v -1.131870 -3.018230 0.389502
v -1.129510 -2.619420 1.103030
v -0.881351 -2.208610 0.147501
v -0.549787 -2.845360 0.762350
v -1.528180 -3.644680 2.003600
v -1.314080 -3.064320 1.574420
v -1.644140 -2.557630 0.606041
v -0.538757 -2.848020 0.764787
v -0.870681 -3.109870 0.778419
v -1.154680 -2.711370 1.110070
v -2.732470 -4.439380 1.292380
v -1.684710 -2.910070 0.271220
v -2.008620 -3.320890 0.454796
v -2.394310 -3.882100 0.790373
v -0.887426 -2.199550 0.187910
v -1.154680 -2.711370 1.110070
v -0.891566 -2.216070 0.198755
v -0.717735 -4.968650 1.581720
v -1.496680 -2.945420 0.688519
v -0.562405 -3.700810 0.662489
v -0.588144 -3.198150 0.428705
v -0.598636 -4.353820 1.048250
v -3.308920 -1.062750 -2.365290
v -3.202820 0.033374 -3.096500
v -3.279590 -0.290679 -2.436990
v -2.771150 -1.216030 -3.319600
v -3.129820 -0.327132 -3.701200
v -3.237510 -0.471229 -3.610440
v -3.562530 -1.200320 -3.206730
v -3.161490 -1.113230 -3.547960
v -3.742070 -0.547391 -3.263380
v -3.632390 -0.848386 -4.467440
v -3.982260 -1.034000 -4.286500
v -3.808110 -1.592450 -4.027570
v -3.382190 -1.337870 -4.337730
v -4.194550 -2.491360 -7.617280
v -4.595230 -2.560210 -7.494900
v -4.710870 -2.889960 -7.370170
v -5.183150 -3.679650 -7.011380
v -4.212360 -2.948660 -7.346360
v -6.515950 -3.955090 -12.019200
v -6.139810 -3.990410 -12.358100
v -6.745180 -3.247040 -12.193700
v -6.758980 -3.691880 -11.955700
v -6.171190 -3.329470 -12.631000
v -6.429640 -3.130430 -12.241800
v -5.963560 -2.826960 -12.366100
v -6.298110 -2.984700 -11.956500
v -5.590260 -2.987370 -11.777000
v -5.513660 -2.835120 -12.267800
v -5.763120 -2.970860 -12.697500
v -5.599370 -3.267450 -12.451100
v -9.013810 -6.513720 -8.303730
v -7.824580 -5.490800 -8.372390
v -5.780660 -3.610530 -12.077200
v -5.514770 -3.017480 -11.246100
v -6.581170 -4.479800 -8.114540
v -5.318080 -2.627690 -12.500000
v -6.193760 -3.322990 -13.388500
v -6.026970 -3.196460 -13.064600
v -6.167570 -3.587400 -12.816100
v -6.346120 -3.152810 -12.605000
v -6.292670 -2.959990 -13.208000
v -5.906350 -2.934880 -13.587800
v -6.614740 -3.732530 -13.089200
v -6.443820 -3.104320 -13.508500
v -6.741150 -3.279840 -13.279700
v -6.741570 -3.077650 -12.793000
v -9.192440 -2.943580 -14.627900
v -8.872010 -3.074480 -14.948200
v -9.065590 -3.471140 -14.872700
v -10.160400 -4.460890 -12.542100
v -9.525100 -5.273920 -10.345100
v -13.163100 -3.867200 -15.581100
v -11.420800 -4.079470 -14.116600
v -3.198590 0.392441 -0.539430
v -3.143620 -0.529661 -0.747213
v -3.361170 0.030065 -1.033360
v -3.326340 -0.136636 -0.261560
v -4.412590 -0.760601 -0.299348
v -4.597410 -0.328398 -0.676088
v -4.296770 -0.446570 0.180084
v -4.476620 -0.037417 -0.218685
v -5.242510 -0.710351 1.006060
v -5.468290 -1.097860 0.243098
v -5.798110 -0.662513 -0.390165
v -5.577910 -0.197687 0.228889
v -8.091930 -0.798093 0.315146
v -7.304750 -0.791047 2.893090
v -8.146180 -0.788951 2.733200
v -8.016430 -1.267320 1.556420
v -6.076390 -0.749372 2.081400
v -6.306610 -0.543323 1.906610
v -7.133730 -1.279700 1.519200
v -6.509030 -1.080270 1.798870
v -6.522150 -0.742695 3.370470
v -7.937790 -0.092617 1.483890
v -6.993950 -0.094516 1.561810
v -9.391570 -0.548647 1.016920
v -8.849090 0.060770 1.939360
v -9.136220 -0.436707 2.954630
v -9.160030 -0.960419 1.949380
v -10.076700 0.077066 3.550240
v -10.287600 -0.022862 2.055750
v -10.333200 -0.211609 2.971680
v -10.079100 0.370089 3.006830
v -10.807800 0.422304 3.295150
v -11.013200 0.718350 4.665840
v 1.131870 -3.018230 0.389502
v 1.632990 -2.560780 0.606765
v 1.858930 -4.616890 2.528290
v 0.881351 -2.208610 0.147501
v 1.129510 -2.619420 1.103030
v 0.549787 -2.845360 0.762350
v 1.528180 -3.644680 2.003600
v 1.314090 -3.064320 1.574430
v 1.644140 -2.557630 0.606041
v 0.538757 -2.848020 0.764787
v 2.732470 -4.439380 1.292380
v 1.154680 -2.711370 1.110070
v 0.870681 -3.109870 0.778419
v 2.008620 -3.320890 0.454796
v 1.684710 -2.910070 0.271220
v 2.394310 -3.882100 0.790373
v 0.887426 -2.199550 0.187910
v 1.154680 -2.711370 1.110070
v 0.891566 -2.216080 0.198755
v 1.496680 -2.945420 0.688519
v 0.717735 -4.968650 1.581720
v 0.588144 -3.198160 0.428705
v 0.562405 -3.700810 0.662489
v 0.598637 -4.353820 1.048250
v 3.308920 -1.062750 -2.365290
v 3.279590 -0.290679 -2.436990
v 3.202820 0.033374 -3.096500
v 2.771150 -1.216030 -3.319600
v 3.129820 -0.327132 -3.701200
v 3.237510 -0.471228 -3.610440
v 3.562530 -1.200320 -3.206730
v 3.161490 -1.113230 -3.547960
v 3.742070 -0.547390 -3.263380
v 3.632390 -0.848386 -4.467440
v 3.982260 -1.034000 -4.286500
v 3.808110 -1.592450 -4.027570
v 3.382190 -1.337870 -4.337730
v 4.595230 -2.560210 -7.494900
v 4.194550 -2.491360 -7.617280
v 4.710870 -2.889960 -7.370170
v 5.183150 -3.679650 -7.011380
v 4.212360 -2.948660 -7.346360
v 6.139800 -3.990410 -12.358100
v 6.515950 -3.955090 -12.019200
v 6.758980 -3.691880 -11.955700
v 6.745180 -3.247040 -12.193700
v 5.963560 -2.826960 -12.366100
v 6.429640 -3.130430 -12.241800
v 6.171190 -3.329470 -12.631000
v 5.513660 -2.835120 -12.267800
v 5.590260 -2.987370 -11.777000
v 6.298110 -2.984700 -11.956500
v 5.599370 -3.267440 -12.451100
v 5.763120 -2.970860 -12.697500
v 7.824580 -5.490800 -8.372390
v 9.013810 -6.513720 -8.303730
v 5.514770 -3.017480 -11.246100
v 5.780660 -3.610530 -12.077200
v 6.581170 -4.479800 -8.114540
v 5.318080 -2.627690 -12.500000
v 6.167570 -3.587400 -12.816100
v 6.026970 -3.196460 -13.064600
v 6.193760 -3.322990 -13.388500
v 6.292670 -2.959990 -13.208000
v 6.346120 -3.152810 -12.605000
v 5.906350 -2.934870 -13.587800
v 6.614740 -3.732530 -13.089200
v 6.741570 -3.077650 -12.793000
v 6.741150 -3.279840 -13.279700
v 6.443820 -3.104320 -13.508500
v 9.192440 -2.943580 -14.627900
v 8.872010 -3.074480 -14.948200
v 9.065590 -3.471140 -14.872700
v 10.160400 -4.460890 -12.542100
v 9.525100 -5.273920 -10.345100
v 11.420800 -4.079470 -14.116600
v 13.163100 -3.867200 -15.581100
v -1.349630 3.172990 -1.155450
v -0.721272 3.451190 -1.102130
v -0.580104 3.228220 -0.698755
v 0.000000 3.221700 -0.155601
v 0.000000 3.420790 -0.632548
v 0.000000 3.604890 -1.040640
v -1.486680 2.840090 -0.613816
v -1.389750 3.152490 -0.966684
v 0.000000 3.627440 -0.789704
v 1.389750 3.152490 -0.966684
v 0.580104 3.228220 -0.698755
v 1.349630 3.172990 -1.155450
v 0.721272 3.451190 -1.102130
v 1.486680 2.840090 -0.613816
v 1.398470 2.953900 -0.882872
v -1.398470 2.953900 -0.882872
v -0.543521 3.384080 -2.033300
v -0.659413 3.227590 -2.087560
v -0.659413 2.921320 -1.204380
v -0.543521 3.077810 -1.150110
v 0.543521 3.384080 -2.033300
v 0.000000 3.567270 -1.969770
v 0.000000 3.261000 -1.086580
v 0.543521 3.077810 -1.150110
v 0.659413 2.921320 -1.204380
v 0.659413 3.227590 -2.087560
v 0.380085 3.309430 -2.323540
v 0.000000 3.497480 -2.208200
v -0.380085 3.309430 -2.323540
v 0.852115 3.257550 -1.995930
v 0.658785 3.202610 -2.014980
v 0.658785 2.898960 -1.139360
v 0.852115 2.953900 -1.120310
v 1.700750 2.622320 -2.216210
v 1.353450 3.031780 -2.074220
v 1.353460 2.728130 -1.198600
v 1.700750 2.318670 -1.340590
v 1.688370 2.128290 -1.406610
v 1.688370 2.431940 -2.282230
v 1.470310 2.663610 -2.423010
v 1.263990 2.980560 -2.271170
v 0.876852 3.107830 -2.268960
v -0.852115 2.953900 -1.120310
v -0.658785 2.898960 -1.139360
v -0.658785 3.202610 -2.014980
v -0.852115 3.257550 -1.995930
v -1.700750 2.318670 -1.340590
v -1.353460 2.728130 -1.198600
v -1.353460 3.031780 -2.074220
v -1.700750 2.622320 -2.216210
v -1.688370 2.431940 -2.282230
v -1.688370 2.128290 -1.406610
v -1.470310 2.663610 -2.423010
v -1.263990 2.980560 -2.271170
v -0.876852 3.107830 -2.268960
v 1.239670 3.798120 -3.671790
v 1.675240 3.607340 -3.511000
v 1.899190 3.053960 -3.348230
v 1.113730 3.914930 -3.247780
v 1.116650 3.583360 -2.896190
v 1.507660 3.406590 -3.084790
v -1.239670 3.798120 -3.671790
v -1.675240 3.607340 -3.511000
v -1.899190 3.053960 -3.348230
v -1.113730 3.914930 -3.247780
v -1.116650 3.583360 -2.896190
v -1.507660 3.406590 -3.084790
v -2.955950 1.974760 -7.271740
v -3.258030 1.266260 -8.576960
v -3.600030 1.228520 -8.827470
v -3.588260 1.145910 -8.357340
v -3.652100 1.069260 -8.978310
v 3.258030 1.266260 -8.576960
v 2.955950 1.974760 -7.271740
v 3.588260 1.145910 -8.357340
v 3.600030 1.228520 -8.827470
v 3.652100 1.069260 -8.978310
vt 0.321610 1.256080
vt 0.303790 1.275450
vt 0.321610 1.275460
vt 0.299610 1.255620
vt 0.321610 1.236180
vt 0.299790 1.234270
vt 0.321610 1.214800
vt 0.299981 1.212590
vt 0.339430 1.275450
vt 0.321610 1.289180
vt 0.331300 1.288500
vt 0.343609 1.255620
vt 0.343429 1.234270
vt 0.343239 1.212590
vt 0.321610 1.291490
vt 0.311919 1.288500
vt 0.304971 1.168470
vt 0.321610 1.179510
vt 0.302406 1.182360
vt 0.321610 1.166250
vt 0.310841 1.155570
vt 0.321610 1.155020
vt 0.340813 1.182360
vt 0.338248 1.168470
vt 0.332378 1.155570
vt 0.322065 1.191370
vt 0.308791 1.151490
vt 0.291961 1.178480
vt 0.345700 1.280020
vt 0.338153 1.289900
vt 0.297520 1.280020
vt 0.305066 1.289900
vt 0.291961 1.217290
vt 0.293662 1.207330
vt 0.302175 1.189460
vt 0.294312 1.185960
vt 0.297930 1.171020
vt 0.306144 1.157800
vt 0.321610 1.151490
vt 0.310699 1.159420
vt 0.321610 1.160210
vt 0.321610 1.175000
vt 0.332520 1.159420
vt 0.338654 1.173880
vt 0.337075 1.157800
vt 0.345290 1.171020
vt 0.348908 1.185960
vt 0.349320 1.206540
vt 0.346521 1.221210
vt 0.339711 1.223610
vt 0.347109 1.252030
vt 0.350818 1.218460
vt 0.293899 1.206540
vt 0.296698 1.221210
vt 0.303508 1.223610
vt 0.296110 1.252030
vt 0.292401 1.218460
vt 0.330450 1.289370
vt 0.321610 1.288730
vt 0.312769 1.289370
vt 0.305841 1.275380
vt 0.319639 1.274220
vt 0.323581 1.274220
vt 0.337378 1.275380
vt 0.300761 1.263190
vt 0.351258 1.217290
vt 0.349557 1.207330
vt 0.341044 1.189460
vt 0.321610 1.190950
vt 0.304566 1.173880
vt 0.342458 1.263190
vt 0.347089 1.203390
vt 0.300564 1.291490
vt 0.351258 1.248250
vt 0.293893 1.249700
vt 0.339916 1.151490
vt 0.299452 1.203010
vt 0.295378 1.199000
vt 0.291961 1.243670
vt 0.351258 1.269160
vt 0.298938 1.257700
vt 0.302993 1.291490
vt 0.342568 1.218570
vt 0.331446 1.151490
vt 0.291961 1.218600
vt 0.308434 1.182520
vt 0.320837 1.291490
vt 0.291961 1.211710
vt 0.331937 1.261420
vt 0.351258 1.230280
vt 0.323307 1.151490
vt 0.296140 1.293560
vt 0.297542 1.282250
vt 0.297269 1.297850
vt 0.292791 1.280050
vt 0.292791 1.290390
vt 0.289443 1.293560
vt 0.288041 1.282250
vt 0.288313 1.297850
vt 0.152085 0.642145
vt 0.125001 0.654985
vt 0.191106 0.654115
vt 0.125001 0.641949
vt 0.125001 0.682659
vt 0.097917 0.642145
vt 0.061621 0.669287
vt 0.059709 0.641809
vt 0.037330 0.642636
vt 0.058896 0.654115
vt 0.058896 0.655620
vt 0.056022 0.794605
vt 0.088137 0.793471
vt 0.125001 0.793279
vt 0.161865 0.793471
vt 0.188381 0.669287
vt 0.190293 0.641809
vt 0.191106 0.655620
vt 0.212672 0.642636
vt 0.193980 0.794605
vt 0.335862 1.241500
vt 0.329003 1.160440
vt 0.349846 1.271980
vt 0.350107 1.287490
vt 0.351258 1.291490
vt 0.342543 1.279650
vt 0.310672 1.179490
vt 0.226301 0.632437
vt 0.213425 0.686968
vt 0.195336 0.632437
vt 0.125364 0.651412
vt 0.177050 0.703888
vt 0.158575 0.632437
vt 0.125016 0.738383
vt 0.125016 0.626556
vt 0.091463 0.632437
vt 0.075615 0.711367
vt 0.125015 0.654327
vt 0.060252 0.640709
vt 0.072345 0.643339
vt 0.036380 0.687363
vt 0.023738 0.632437
vt 0.054703 0.632437
vt 0.189787 0.640709
vt 0.177592 0.642832
vt 0.125201 0.655412
vt -0.000181 1.159740
vt -0.038818 0.959621
vt 0.000000 1.160710
vt 0.116667 0.888889
vt 0.240179 0.957143
vt 0.183333 0.683333
vt 0.269296 0.520344
vt 0.203961 0.520372
vt 0.138625 0.520399
vt 0.062500 0.687500
vt 0.073290 0.520427
vt 0.007813 0.520312
vt 0.007955 0.520455
vt 0.316231 1.237260
vt 0.299375 1.240130
vt 0.291961 1.151490
vt 0.326308 1.291490
vt 0.351258 1.268140
vt 0.334212 1.286450
vt 0.324094 1.241150
vt 0.303642 1.243550
vt 0.330144 1.208410
vt 0.346730 1.210990
vt 0.305955 1.499830
vt 0.369136 1.647390
vt 0.286324 1.627330
vt 0.340619 1.602010
vt 0.305934 1.665520
vt 0.340393 1.723490
vt 0.351308 1.724830
vt 0.362248 1.706390
vt 0.369136 1.627330
vt 0.286324 1.647390
vt 0.349505 1.499830
vt 0.293175 1.706390
vt 0.304152 1.724830
vt 0.314841 1.602010
vt 0.315167 1.723490
vt 0.349383 1.664780
vt 0.311247 1.160250
vt 0.351258 1.175090
vt 0.338050 1.154110
vt 0.335906 1.188720
vt 0.314916 1.229030
vt 0.328133 1.216020
vt 0.332807 1.231470
vt 0.306122 1.291490
vt 0.293083 1.237040
vt 0.328394 1.204370
vt 0.291961 1.189400
vt 0.340793 1.151490
vt 0.292273 1.224200
vt 0.305886 1.280000
vt 0.297549 1.291490
vt 0.329729 1.254070
vt 0.351258 1.226510
vt 0.319605 1.151490
vt 0.301254 1.185340
vt 0.332174 1.253530
vt 0.291961 1.253120
vt 0.369136 1.653100
vt 0.327734 1.724830
vt 0.327730 1.499830
vt 0.327518 1.702540
vt 0.327730 1.578970
vt 0.286324 1.653100
vt 0.327730 1.536410
vt 0.327730 1.510970
vt 0.499999 1.093660
vt 0.105632 0.126549
vt 0.008727 0.286986
vt 0.270636 0.015135
vt 0.500005 -0.017941
vt 0.729374 0.015135
vt 0.894377 0.126549
vt 0.991282 0.286986
vt 0.119807 0.022348
vt 0.499999 1.464520
vt 0.015624 0.191116
vt 0.277767 -0.081387
vt 0.499999 -0.110497
vt 0.722232 -0.081387
vt 0.880192 0.022348
vt 0.984374 0.191116
vt 0.045862 -0.542699
vt 0.333929 -0.178571
vt 0.210938 0.971875
vt 0.024219 0.978125
vt 0.050014 -0.078373
vt 0.050435 -0.077883
vt 0.081200 0.052093
vt -0.003472 0.614583
vt -0.012325 0.042318
vt 0.111111 0.638889
vt 0.173611 0.034722
vt 0.190972 0.635417
vt 0.272569 0.194444
vt 0.329861 0.503472
vt 0.355903 0.027778
vt 0.427083 0.156250
vt 0.498264 0.194444
vt 0.428819 0.590278
vt 0.515625 0.597222
vt 0.390248 1.000000
vt 0.544959 0.936036
vt 0.668403 0.836806
vt 0.626736 0.569444
vt 0.835069 0.631944
vt 0.850694 0.392361
vt 0.697917 0.222222
vt 0.586806 0.218750
vt 0.185606 0.979893
vt 0.079248 0.990899
vt 0.005308 1.006940
vt 0.255208 0.017361
vt 0.072266 1.130860
vt -0.169922 1.067380
vt -0.041667 1.385420
vt 0.284970 0.641369
vt 0.533482 0.611607
vt 0.370536 -0.013393
vt 0.495536 -0.026786
vt 0.846726 -0.010417
vt 0.695313 0.602431
vt 0.988750 0.306250
vt 0.956875 0.656250
vt 0.859375 0.827500
vt 0.550347 1.116900
vt 0.144345 -0.016369
vt 0.113095 0.483631
vt -0.027530 0.007440
vt -0.055060 0.337798
vt -0.090774 0.004464
vt -0.280506 0.687500
vt -0.291667 0.395833
vt 0.000000 0.000000
vt -0.260417 -0.010417
vt -0.008681 0.274306
vt -0.268229 1.000000
vt -0.020833 0.621528
vt 0.223958 0.805556
vt 0.253472 0.715278
vt 0.585069 0.732639
vt 0.418403 0.006944
vt 0.464286 -0.004464
vt 0.572917 -0.138889
vt 0.720486 -0.069444
vt 0.850694 -0.034722
vt 0.845486 0.638889
vt 0.940972 -0.090278
vt 0.996528 0.322917
vt 0.857639 0.770833
vt 0.647186 1.046120
vt 0.605903 0.805556
vt 0.572783 1.027420
vt 0.594257 1.031300
vt 0.625416 1.065360
vt 0.256944 0.000000
vt 0.248264 0.989583
vt 0.596932 1.553990
vt 0.674993 1.641660
vt 0.401625 1.131980
vt 0.609704 1.619350
vt 0.602727 1.684380
vt 0.643702 1.696900
vt 0.578978 1.720170
vt 0.637233 1.731320
vt 0.689211 1.709970
vt 0.697458 1.670700
vt 0.679003 1.043450
vt 0.694631 1.025980
vt 0.660565 0.993544
vt 0.707578 1.116110
vt 0.735557 1.111830
vt 0.725432 0.998564
vt 0.755448 1.114950
vt 0.748276 1.038540
vt 0.897569 0.756944
vt 0.743091 1.206750
vt 0.690618 1.672910
vt 0.612557 1.585240
vt 0.417250 1.163230
vt 0.625329 1.650600
vt 0.618352 1.715630
vt 0.659327 1.728150
vt 0.713083 1.701950
vt 0.704836 1.741220
vt 0.652858 1.762570
vt 0.594603 1.751420
vt 0.180556 0.013889
vt 0.000000 0.392361
vt -0.005208 -0.003472
vt 0.237847 0.663194
vt 0.300347 0.000000
vt 0.625000 0.732639
vt 0.432292 0.003472
vt 0.557292 0.006944
vt 0.664931 0.006944
vt 0.815972 0.010417
vt 0.835069 0.621528
vt 0.640925 0.859861
vt 0.716099 1.004760
vt 0.730157 1.120870
vt 0.685308 1.044320
vt 0.669668 1.134520
vt 0.645089 1.099540
vt 0.623768 1.006090
vt 0.185764 0.895833
vt 0.554798 1.013510
vt 0.596287 1.060910
vt 0.629545 1.134580
vt -0.015625 0.715278
vt 1.005210 0.305556
vt 0.939236 0.003472
vt 1.367370 -0.434844
vt 1.313350 -0.404831
vt 1.337100 -0.440620
vt 1.371610 -0.393681
vt 0.087875 0.000000
vt 0.000000 0.789145
vt 0.087875 0.789145
vt 0.500000 0.000000
vt 0.500000 0.789145
vt 0.912125 0.000000
vt 0.912125 0.789145
vt 1.000000 0.000000
vt 1.000000 0.789145
vt -0.000000 0.816050
vt 0.087875 0.816050
vt 0.500000 0.816050
vt 0.912125 0.816050
vt 1.000000 0.816050
vt 0.788200 1.000000
vt 0.500000 0.960019
vt 0.211800 1.000000
vt 0.500000 0.965120
usemtl mat_0
s 1
f 9/1 7/2 8/3
f 9/1 10/4 7/2
f 22/5 10/4 9/1
f 22/5 37/6 10/4
f 20/7 37/6 22/5
f 20/7 38/8 37/6
f 13/9 14/10 15/11
f 13/9 8/3 14/10
f 23/12 8/3 13/9
f 23/12 9/1 8/3
f 24/13 9/1 23/12
f 24/13 22/5 9/1
f 21/14 22/5 24/13
f 21/14 20/7 22/5
f 14/11 16/10 15/15
f 8/10 7/3 27/2
f 14/16 8/10 27/2
f 49/17 47/18 48/19
f 49/17 46/20 47/18
f 11/21 46/20 49/17
f 11/21 51/22 46/20
f 46/20 45/23 47/18
f 46/20 60/24 45/23
f 51/22 60/24 46/20
f 51/22 50/25 60/24
f 16/15 14/10 27/16
f 383/26 65/27 88/28
f 41/28 40/27 389/26
f 25/29 13/9 15/30
f 25/29 23/12 13/9
f 7/2 26/31 27/32
f 7/2 10/4 26/31
f 38/8 39/33 37/6
f 38/8 62/34 39/33
f 61/35 62/34 38/8
f 61/35 73/36 62/34
f 43/37 73/36 61/35
f 43/37 48/19 73/36
f 49/17 48/19 43/37
f 43/37 11/21 49/17
f 12/38 11/21 43/37
f 12/38 3/39 11/21
f 59/40 3/39 12/38
f 59/40 17/41 3/39
f 58/42 17/41 59/40
f 58/42 1/43 17/41
f 19/44 1/43 58/42
f 2/44 1/45 19/43
f 6/46 2/45 19/44
f 6/46 50/25 2/45
f 60/24 50/25 6/46
f 6/46 45/23 60/24
f 5/47 45/23 6/46
f 5/47 52/48 45/23
f 44/49 45/23 52/48
f 44/49 30/50 45/23
f 85/51 30/50 44/49
f 63/52 44/49 52/48
f 1/43 3/39 17/41
f 1/43 2/45 3/39
f 50/25 3/39 2/45
f 50/25 51/22 3/39
f 11/21 3/39 51/22
f 48/19 90/53 73/36
f 48/19 86/54 90/53
f 36/55 86/54 48/19
f 36/55 89/56 86/54
f 90/53 86/54 91/57
f 16/15 41/58 15/30
f 16/15 42/59 41/58
f 88/60 42/59 16/15
f 88/60 65/61 42/59
f 53/62 42/59 65/61
f 53/62 54/63 42/59
f 40/64 42/59 54/63
f 40/64 41/58 42/59
f 16/15 27/32 88/60
f 26/31 64/65 65/61
f 26/31 89/56 64/65
f 66/66 21/14 24/13
f 66/66 72/67 21/14
f 4/68 21/14 72/67
f 4/68 18/69 21/14
f 19/44 18/69 4/68
f 19/44 58/42 18/69
f 83/70 18/69 58/42
f 83/70 61/35 18/69
f 43/37 61/35 83/70
f 83/70 12/38 43/37
f 59/40 12/38 83/70
f 83/70 58/42 59/40
f 4/68 6/46 19/44
f 4/68 5/47 6/46
f 72/67 5/47 4/68
f 38/8 18/69 61/35
f 38/8 20/7 18/69
f 21/14 18/69 20/7
f 25/29 84/71 85/51
f 25/29 40/64 84/71
f 101/72 98/73 100/74
f 101/72 97/75 98/73
f 102/76 97/75 101/72
f 102/76 99/77 97/75
f 92/78 97/75 99/77
f 99/77 96/79 92/78
f 106/80 101/81 100/82
f 106/80 105/83 101/81
f 104/84 101/81 105/83
f 104/84 102/85 101/81
f 160/86 162/87 158/88
f 160/86 165/89 162/87
f 164/90 165/89 160/86
f 160/86 159/91 164/90
f 208/73 210/72 211/74
f 208/73 207/75 210/72
f 212/76 210/72 207/75
f 207/75 209/77 212/76
f 95/78 209/77 207/75
f 95/78 206/79 209/77
f 210/81 216/80 211/82
f 210/81 215/83 216/80
f 214/84 215/83 210/81
f 210/81 212/85 214/84
f 272/87 270/86 268/88
f 272/87 275/89 270/86
f 274/90 270/86 275/89
f 274/90 269/91 270/86
f 329/92 45/93 30/94
f 329/92 47/95 45/93
f 319/96 47/95 329/92
f 319/96 322/97 47/95
f 48/98 47/95 322/97
f 322/97 36/99 48/98
f 326/100 319/101 329/102
f 326/100 320/103 319/101
f 324/104 320/103 326/100
f 324/104 318/105 320/103
f 323/106 318/105 324/104
f 323/106 331/107 318/105
f 36/108 331/107 323/106
f 36/108 322/109 331/107
f 318/105 319/101 320/103
f 318/105 322/110 319/101
f 331/107 322/110 318/105
f 323/106 316/111 36/108
f 323/106 317/112 316/111
f 324/104 317/112 323/106
f 324/104 321/113 317/112
f 328/114 321/113 324/104
f 324/104 325/115 328/114
f 326/100 325/115 324/104
f 326/100 330/116 325/115
f 329/117 330/116 326/100
f 329/117 30/118 330/116
f 325/115 330/116 30/118
f 30/118 327/119 325/115
f 328/114 325/115 327/119
f 383/120 26/121 65/26
f 383/120 386/122 26/121
f 385/123 386/122 383/120
f 385/123 387/124 386/122
f 384/125 387/124 385/123
f 384/125 27/126 387/124
f 88/28 27/126 384/125
f 384/125 383/120 88/28
f 385/123 383/120 384/125
f 27/126 386/122 387/124
f 27/126 26/121 386/122
f 25/121 389/120 40/26
f 25/121 390/122 389/120
f 15/126 390/122 25/121
f 15/126 392/124 390/122
f 388/125 392/124 15/126
f 388/125 391/123 392/124
f 389/120 391/123 388/125
f 389/120 390/122 391/123
f 392/124 391/123 390/122
f 388/125 41/28 389/120
f 388/125 15/126 41/28
f 30/127 28/128 29/129
f 30/127 68/130 28/128
f 67/131 28/128 68/130
f 67/131 33/132 28/128
f 31/133 33/132 67/131
f 31/133 32/134 33/132
f 77/135 32/134 31/133
f 31/133 55/136 77/135
f 69/137 55/136 31/133
f 69/137 56/138 55/136
f 75/139 56/138 69/137
f 75/139 57/130 56/138
f 55/136 56/138 57/130
f 57/130 76/140 55/136
f 36/141 76/140 57/130
f 36/141 35/142 76/140
f 77/135 76/140 35/142
f 77/135 55/136 76/140
f 33/132 29/129 28/128
f 67/131 69/137 31/133
f 67/131 70/143 69/137
f 68/130 70/143 67/131
f 68/130 78/144 70/143
f 69/137 70/143 78/144
f 78/144 87/145 69/137
f 75/139 69/137 87/145
f 53/146 87/147 54/148
f 53/146 377/149 87/147
f 65/150 377/149 53/146
f 65/150 378/151 377/149
f 64/152 378/151 65/150
f 64/152 379/153 378/151
f 382/154 378/151 379/153
f 382/154 380/155 378/151
f 381/156 380/155 382/154
f 381/156 75/157 380/155
f 87/147 380/155 75/157
f 87/147 377/149 380/155
f 378/151 380/155 377/149
f 371/149 54/148 87/147
f 371/149 40/150 54/148
f 372/151 40/150 371/149
f 372/151 84/152 40/150
f 373/153 84/152 372/151
f 372/151 376/154 373/153
f 374/155 376/154 372/151
f 374/155 375/156 376/154
f 78/158 375/156 374/155
f 374/155 87/147 78/158
f 371/149 87/147 374/155
f 374/155 372/151 371/149
f 96/159 52/160 5/161
f 96/159 63/162 52/160
f 98/163 63/162 96/159
f 98/163 66/164 63/162
f 97/165 66/164 98/163
f 97/165 72/166 66/164
f 5/161 72/166 97/165
f 97/165 93/167 5/161
f 92/168 93/167 97/165
f 92/168 96/159 93/167
f 5/161 93/167 96/159
f 140/169 141/170 139/171
f 140/169 137/172 141/170
f 145/173 137/172 140/169
f 145/173 142/174 137/172
f 139/171 142/174 145/173
f 139/171 143/175 142/174
f 144/176 143/175 139/171
f 144/176 137/172 143/175
f 141/170 137/172 144/176
f 144/176 139/171 141/170
f 137/172 142/174 143/175
f 149/177 148/178 146/179
f 149/177 152/180 148/178
f 150/181 152/180 149/177
f 150/181 138/182 152/180
f 151/183 138/182 150/181
f 151/183 147/184 138/182
f 149/177 147/184 151/183
f 151/183 150/181 149/177
f 138/182 148/178 152/180
f 138/182 146/179 148/178
f 147/184 146/179 138/182
f 86/185 153/186 91/187
f 86/185 155/188 153/186
f 89/189 155/188 86/185
f 89/189 154/190 155/188
f 157/191 154/190 89/189
f 89/189 26/192 157/191
f 10/193 157/191 26/192
f 10/193 156/194 157/191
f 37/195 156/194 10/193
f 37/195 39/196 156/194
f 153/186 156/194 39/196
f 39/196 91/187 153/186
f 156/197 158/198 157/199
f 156/197 160/200 158/198
f 159/201 160/200 156/197
f 156/197 153/202 159/201
f 155/203 159/201 153/202
f 155/203 161/204 159/201
f 154/205 161/204 155/203
f 154/205 158/198 161/204
f 157/199 158/198 154/205
f 206/159 73/161 90/160
f 206/159 94/167 73/161
f 95/168 94/167 206/159
f 95/168 207/165 94/167
f 73/161 94/167 207/165
f 207/165 62/166 73/161
f 39/164 62/166 207/165
f 207/165 208/163 39/164
f 91/162 39/164 208/163
f 208/163 206/159 91/162
f 90/160 91/162 206/159
f 251/171 249/170 250/169
f 251/171 254/176 249/170
f 252/175 254/176 251/171
f 252/175 247/172 254/176
f 253/174 247/172 252/175
f 253/174 255/173 247/172
f 251/171 255/173 253/174
f 253/174 252/175 251/171
f 247/172 249/170 254/176
f 247/172 250/169 249/170
f 255/173 250/169 247/172
f 256/179 259/178 258/177
f 256/179 248/182 259/178
f 257/184 248/182 256/179
f 257/184 260/183 248/182
f 258/177 260/183 257/184
f 258/177 261/181 260/183
f 262/180 261/181 258/177
f 262/180 248/182 261/181
f 259/178 248/182 262/180
f 262/180 258/177 259/178
f 248/182 260/183 261/181
f 63/187 263/186 44/185
f 63/187 66/196 263/186
f 266/194 263/186 66/196
f 66/196 24/195 266/194
f 23/193 266/194 24/195
f 23/193 267/191 266/194
f 25/192 267/191 23/193
f 25/192 85/189 267/191
f 265/190 267/191 85/189
f 85/189 264/188 265/190
f 44/185 264/188 85/189
f 44/185 263/186 264/188
f 267/199 268/198 266/197
f 267/199 265/205 268/198
f 271/204 268/198 265/205
f 265/205 264/203 271/204
f 269/201 271/204 264/203
f 264/203 263/202 269/201
f 266/197 269/201 263/202
f 266/197 270/200 269/201
f 268/198 270/200 266/197
f 130/206 131/207 129/208
f 130/206 133/209 131/207
f 132/210 133/209 130/206
f 132/210 134/211 133/209
f 136/212 134/211 132/210
f 136/212 135/213 134/211
f 130/206 135/213 136/212
f 130/206 129/208 135/213
f 134/211 135/213 129/208
f 129/208 131/207 134/211
f 133/209 134/211 131/207
f 130/206 136/212 132/210
f 240/206 241/208 239/207
f 240/206 245/213 241/208
f 246/212 245/213 240/206
f 246/212 244/211 245/213
f 243/210 244/211 246/212
f 243/210 242/209 244/211
f 240/206 242/209 243/210
f 240/206 239/207 242/209
f 244/211 242/209 239/207
f 239/207 241/208 244/211
f 245/213 244/211 241/208
f 243/210 246/212 240/206
usemtl mat_1
f 34/214 35/215 36/216
f 34/214 77/217 35/215
f 32/218 77/217 34/214
f 34/214 33/219 32/218
f 29/220 33/219 34/214
f 34/214 30/221 29/220
f 316/222 34/223 36/224
f 316/222 317/225 34/223
f 321/226 34/223 317/225
f 321/226 328/227 34/223
f 327/228 34/223 328/227
f 327/228 30/229 34/223
usemtl mat_2
f 84/152 30/230 85/231
f 84/152 71/154 30/230
f 81/232 71/154 84/152
f 81/232 82/233 71/154
f 78/158 71/154 82/233
f 78/158 68/234 71/154
f 30/230 71/154 68/234
f 36/230 64/152 89/231
f 36/230 74/154 64/152
f 57/235 74/154 36/230
f 57/235 75/157 74/154
f 79/233 74/154 75/157
f 79/233 80/232 74/154
f 64/152 74/154 80/232
usemtl mat_3
f 102/236 96/237 99/238
f 102/236 103/239 96/237
f 104/240 103/239 102/236
f 104/240 107/241 103/239
f 112/242 107/241 104/240
f 112/242 118/243 107/241
f 114/244 118/243 112/242
f 114/244 111/245 118/243
f 110/246 118/243 111/245
f 110/246 117/247 118/243
f 119/248 117/247 110/246
f 119/248 108/249 117/247
f 120/250 108/249 119/248
f 119/248 124/251 120/250
f 126/252 124/251 119/248
f 126/252 127/253 124/251
f 128/254 127/253 126/252
f 126/252 123/255 128/254
f 119/248 123/255 126/252
f 119/248 121/256 123/255
f 110/246 121/256 119/248
f 117/247 107/241 118/243
f 117/247 108/249 107/241
f 106/257 107/241 108/249
f 106/257 103/239 107/241
f 100/258 103/239 106/257
f 100/258 98/259 103/239
f 96/237 103/239 98/259
f 113/260 112/242 104/240
f 113/260 114/244 112/242
f 206/237 212/236 209/238
f 206/237 213/239 212/236
f 208/259 213/239 206/237
f 208/259 211/258 213/239
f 216/257 213/239 211/258
f 216/257 217/241 213/239
f 218/249 217/241 216/257
f 218/249 227/247 217/241
f 230/248 227/247 218/249
f 230/248 220/246 227/247
f 231/256 220/246 230/248
f 230/248 233/255 231/256
f 236/252 233/255 230/248
f 236/252 238/254 233/255
f 237/253 238/254 236/252
f 236/252 234/251 237/253
f 230/248 234/251 236/252
f 230/248 229/250 234/251
f 218/249 229/250 230/248
f 213/239 214/240 212/236
f 213/239 217/241 214/240
f 223/242 214/240 217/241
f 223/242 222/260 214/240
f 226/244 222/260 223/242
f 223/242 228/243 226/244
f 217/241 228/243 223/242
f 217/241 227/247 228/243
f 220/246 228/243 227/247
f 220/246 219/245 228/243
f 226/244 228/243 219/245
usemtl mat_4
f 108/261 105/262 106/263
f 108/261 109/264 105/262
f 122/265 109/264 108/261
f 122/265 110/266 109/264
f 121/267 110/266 122/265
f 122/265 123/268 121/267
f 125/269 123/268 122/265
f 125/269 128/270 123/268
f 127/271 128/270 125/269
f 125/269 124/272 127/271
f 122/265 124/272 125/269
f 122/265 120/273 124/272
f 108/261 120/273 122/265
f 111/274 109/264 110/266
f 111/274 116/275 109/264
f 114/276 116/275 111/274
f 114/276 115/277 116/275
f 113/278 115/277 114/276
f 113/278 105/262 115/277
f 104/279 105/262 113/278
f 116/275 105/262 109/264
f 116/275 115/277 105/262
f 215/262 218/261 216/263
f 215/262 221/264 218/261
f 224/275 221/264 215/262
f 224/275 219/274 221/264
f 226/276 219/274 224/275
f 224/275 225/277 226/276
f 215/262 225/277 224/275
f 215/262 222/278 225/277
f 214/279 222/278 215/262
f 222/278 226/276 225/277
f 220/266 221/264 219/274
f 220/266 232/265 221/264
f 231/267 232/265 220/266
f 231/267 233/268 232/265
f 235/269 232/265 233/268
f 235/269 234/272 232/265
f 237/271 234/272 235/269
f 235/269 238/270 237/271
f 233/268 238/270 235/269
f 232/265 218/261 221/264
f 232/265 229/273 218/261
f 234/272 229/273 232/265
usemtl mat_5
f 161/280 164/281 159/282
f 161/280 163/283 164/281
f 158/284 163/283 161/280
f 158/284 162/285 163/283
f 167/286 163/283 162/285
f 167/286 168/287 163/283
f 174/288 168/287 167/286
f 174/288 187/289 168/287
f 184/290 187/289 174/288
f 174/288 183/291 184/290
f 203/292 183/291 174/288
f 174/288 202/293 203/292
f 199/294 202/293 174/288
f 199/294 205/295 202/293
f 204/296 205/295 199/294
f 199/294 200/297 204/296
f 198/298 200/297 199/294
f 199/294 173/299 198/298
f 174/288 173/299 199/294
f 174/288 167/286 173/299
f 178/300 173/299 167/286
f 178/300 176/301 173/299
f 192/302 173/299 176/301
f 192/302 198/298 173/299
f 168/287 164/281 163/283
f 168/287 169/303 164/281
f 187/289 169/303 168/287
f 166/304 167/286 162/285
f 166/304 178/300 167/286
f 186/305 178/306 166/307
f 186/305 179/308 178/306
f 180/309 178/306 179/308
f 180/309 177/310 178/306
f 188/311 177/310 180/309
f 188/311 181/312 177/310
f 175/313 177/310 181/312
f 175/313 176/314 177/310
f 178/306 177/310 176/314
f 175/315 192/316 176/317
f 175/315 190/318 192/316
f 193/319 192/316 190/318
f 193/319 198/320 192/316
f 196/321 198/320 193/319
f 196/321 197/322 198/320
f 200/323 198/320 197/322
f 194/324 193/319 190/318
f 194/324 196/321 193/319
f 274/281 271/280 269/282
f 274/281 273/283 271/280
f 278/287 273/283 274/281
f 278/287 276/286 273/283
f 283/288 276/286 278/287
f 283/288 284/299 276/286
f 309/294 284/299 283/288
f 309/294 306/298 284/299
f 310/297 306/298 309/294
f 309/294 315/296 310/297
f 314/295 315/296 309/294
f 309/294 312/293 314/295
f 283/288 312/293 309/294
f 283/288 313/292 312/293
f 294/291 313/292 283/288
f 283/288 293/290 294/291
f 297/289 293/290 283/288
f 283/288 278/287 297/289
f 279/303 297/289 278/287
f 278/287 274/281 279/303
f 273/283 268/284 271/280
f 273/283 272/285 268/284
f 276/286 272/285 273/283
f 276/286 277/304 272/285
f 290/300 277/304 276/286
f 276/286 284/299 290/300
f 286/301 290/300 284/299
f 284/299 303/302 286/301
f 306/298 303/302 284/299
f 290/325 295/326 277/327
f 290/325 289/328 295/326
f 288/329 289/328 290/325
f 290/325 285/330 288/329
f 286/331 285/330 290/325
f 286/331 287/332 285/330
f 292/333 285/330 287/332
f 292/333 298/334 285/330
f 288/329 285/330 298/334
f 303/316 287/315 286/317
f 303/316 300/318 287/315
f 302/319 300/318 303/316
f 302/319 304/324 300/318
f 308/321 304/324 302/319
f 302/319 306/320 308/321
f 303/316 306/320 302/319
f 306/320 307/322 308/321
f 306/320 310/323 307/322
usemtl mat_6
f 169/335 165/336 164/337
f 169/335 170/338 165/336
f 187/339 170/338 169/335
f 187/339 171/340 170/338
f 184/341 171/340 187/339
f 184/341 183/342 171/340
f 203/343 171/340 183/342
f 203/343 202/344 171/340
f 201/345 171/340 202/344
f 201/345 172/346 171/340
f 195/347 172/346 201/345
f 195/347 189/348 172/346
f 196/321 189/348 195/347
f 196/321 194/324 189/348
f 190/318 189/348 194/324
f 190/318 191/349 189/348
f 175/315 191/349 190/318
f 175/315 172/346 191/349
f 181/350 172/346 175/315
f 181/350 182/351 172/346
f 185/352 172/346 182/351
f 185/352 166/353 172/346
f 186/354 166/353 185/352
f 185/352 179/355 186/354
f 180/356 179/355 185/352
f 185/352 182/351 180/356
f 191/349 172/346 189/348
f 172/346 170/338 171/340
f 172/346 166/353 170/338
f 165/336 170/338 166/353
f 166/353 162/357 165/336
f 195/347 197/322 196/321
f 195/347 200/323 197/322
f 201/345 200/323 195/347
f 201/345 204/358 200/323
f 205/359 204/358 201/345
f 201/345 202/344 205/359
f 182/360 188/361 180/362
f 182/360 181/363 188/361
f 275/336 279/335 274/337
f 275/336 280/338 279/335
f 277/353 280/338 275/336
f 277/353 281/346 280/338
f 296/352 281/346 277/353
f 296/352 291/351 281/346
f 288/356 291/351 296/352
f 296/352 289/355 288/356
f 295/354 289/355 296/352
f 296/352 277/353 295/354
f 275/336 272/357 277/353
f 292/350 281/346 291/351
f 292/350 287/315 281/346
f 299/349 281/346 287/315
f 299/349 301/348 281/346
f 300/318 301/348 299/349
f 300/318 304/324 301/348
f 308/321 301/348 304/324
f 308/321 305/347 301/348
f 307/322 305/347 308/321
f 307/322 310/323 305/347
f 311/345 305/347 310/323
f 311/345 281/346 305/347
f 282/340 281/346 311/345
f 282/340 280/338 281/346
f 297/339 280/338 282/340
f 297/339 279/335 280/338
f 305/347 281/346 301/348
f 287/315 300/318 299/349
f 282/340 293/341 297/339
f 282/340 294/342 293/341
f 313/343 294/342 282/340
f 282/340 312/344 313/343
f 311/345 312/344 282/340
f 311/345 314/359 312/344
f 315/358 314/359 311/345
f 311/345 310/323 315/358
f 298/361 291/360 288/362
f 298/361 292/363 291/360
usemtl mat_7
f 335/364 333/365 334/281
f 335/364 332/366 333/365
f 338/367 332/366 335/364
f 338/367 337/368 332/366
f 339/369 337/368 338/367
f 339/369 336/370 337/368
f 340/371 336/370 339/369
f 340/371 341/372 336/370
f 348/364 346/373 347/281
f 348/364 345/374 346/373
f 351/367 345/374 348/364
f 351/367 350/375 345/374
f 352/369 350/375 351/367
f 352/369 349/376 350/375
f 353/371 349/376 352/369
f 353/371 354/377 349/376
f 361/374 359/281 360/373
f 361/374 358/364 359/281
f 364/375 358/364 361/374
f 364/375 363/367 358/364
f 365/376 363/367 364/375
f 365/376 362/369 363/367
f 366/377 362/369 365/376
f 366/377 367/371 362/369
f 342/378 336/370 341/372
f 342/378 343/379 336/370
f 344/380 343/379 342/378
f 344/380 332/366 343/379
f 333/365 332/366 344/380
f 337/368 343/379 332/366
f 337/368 336/370 343/379
f 355/378 349/376 354/377
f 355/378 356/381 349/376
f 357/380 356/381 355/378
f 357/380 345/374 356/381
f 346/373 345/374 357/380
f 350/375 356/381 345/374
f 350/375 349/376 356/381
f 365/376 368/378 366/377
f 365/376 369/381 368/378
f 364/375 369/381 365/376
f 364/375 361/374 369/381
f 370/380 369/381 361/374
f 370/380 368/378 369/381
f 361/374 360/373 370/380
