xof 0303txt 0032

template AnimTicksPerSecond {
  <9E415A43-7BA6-4a73-8743-B73D47E88476>
  DWORD AnimTicksPerSecond;
}

template XSkinMeshHeader {
  <3cf169ce-ff7c-44ab-93c0-f78f62d172e2>
  WORD nMaxSkinWeightsPerVertex;
  WORD nMaxSkinWeightsPerFace;
  WORD nBones;
}

template SkinWeights {
  <6f0d123b-bad2-4167-a0d0-80224f25fabb>
  STRING transformNodeName;
  DWORD nWeights;
  array DWORD vertexIndices[nWeights];
  array float weights[nWeights];
  Matrix4x4 matrixOffset;
}

Frame Root {
  FrameTransformMatrix {
     1.000000, 0.000000, 0.000000, 0.000000,
     0.000000, 0.000000, 1.000000, 0.000000,
     0.000000, 1.000000,-0.000000, 0.000000,
     0.000000, 0.000000, 0.000000, 1.000000;;
  }
  Frame dugtrio_mat_0 {
    FrameTransformMatrix {
       1.000000, 0.000000, 0.000000, 0.000000,
       0.000000, 1.000000, 0.000000, 0.000000,
       0.000000, 0.000000, 1.000000, 0.000000,
       0.000000, 0.000000, 0.000000, 1.000000;;
    }
    Mesh { //Mesh Mesh
      84;
      -0.105829; 0.892127; 0.074151;,
       0.332909; 0.750924;-0.313401;,
       0.309342; 0.802708; 0.369675;,
       0.332909; 0.750924;-0.313401;,
       0.992718; 0.540802; 0.397611;,
       0.309342; 0.802708; 0.369675;,
       0.992718; 0.540802; 0.397611;,
       0.332909; 0.750924;-0.313401;,
       1.041716; 0.329294;-0.400386;,
       0.332909; 0.750924;-0.313401;,
       0.367747; 0.568162;-0.781895;,
       1.041716; 0.329294;-0.400386;,
       1.041716; 0.329294;-0.400386;,
       0.367747; 0.568162;-0.781895;,
       0.546027;-0.000000;-1.208161;,
       0.546027;-0.000000;-1.208161;,
       1.294510;-0.000000;-0.660063;,
       1.041716; 0.329294;-0.400386;,
       0.992718; 0.540802; 0.397611;,
       1.041716; 0.329294;-0.400386;,
       1.347605;-0.000000; 0.632191;,
       1.041716; 0.329294;-0.400386;,
       1.294510;-0.000000;-0.660063;,
       1.347605;-0.000000; 0.632191;,
      -0.105829; 0.892127; 0.074151;,
      -0.870832; 0.529655; 0.529387;,
      -0.731560; 0.584767;-0.266372;,
      -0.870832; 0.529655; 0.529387;,
      -1.065811;-0.000000;-0.473857;,
      -0.731560; 0.584767;-0.266372;,
      -0.731560; 0.584767;-0.266372;,
      -1.065811;-0.000000;-0.473857;,
      -0.323639; 0.379830;-0.897470;,
      -0.323639; 0.379830;-0.897470;,
      -1.065811;-0.000000;-0.473857;,
      -0.540175;-0.000000;-1.222586;,
      -0.995760;-0.000000; 0.534922;,
      -1.065811;-0.000000;-0.473857;,
      -0.870832; 0.529655; 0.529387;,
      -0.870832; 0.529655; 0.529387;,
      -0.309431;-0.000000; 1.296670;,
      -0.995760;-0.000000; 0.534922;,
      -0.309431;-0.000000; 1.296670;,
      -0.870832; 0.529655; 0.529387;,
      -0.228243; 0.533875; 0.817047;,
      -0.870832; 0.529655; 0.529387;,
      -0.105829; 0.892127; 0.074151;,
      -0.228243; 0.533875; 0.817047;,
      -0.228243; 0.533875; 0.817047;,
      -0.105829; 0.892127; 0.074151;,
       0.309342; 0.802708; 0.369675;,
       0.309342; 0.802708; 0.369675;,
       0.478904; 0.459997; 0.983222;,
      -0.228243; 0.533875; 0.817047;,
      -0.228243; 0.533875; 0.817047;,
       0.478904; 0.459997; 0.983222;,
      -0.309431;-0.000000; 1.296670;,
       0.478904; 0.459997; 0.983222;,
       0.570515;-0.000000; 1.237544;,
      -0.309431;-0.000000; 1.296670;,
       0.570515;-0.000000; 1.237544;,
       0.478904; 0.459997; 0.983222;,
       1.347605;-0.000000; 0.632191;,
       0.478904; 0.459997; 0.983222;,
       0.992718; 0.540802; 0.397611;,
       1.347605;-0.000000; 0.632191;,
       0.992718; 0.540802; 0.397611;,
       0.478904; 0.459997; 0.983222;,
       0.309342; 0.802708; 0.369675;,
      -0.105829; 0.892127; 0.074151;,
      -0.731560; 0.584767;-0.266372;,
       0.332909; 0.750924;-0.313401;,
      -0.731560; 0.584767;-0.266372;,
      -0.323639; 0.379830;-0.897470;,
       0.332909; 0.750924;-0.313401;,
       0.332909; 0.750924;-0.313401;,
      -0.323639; 0.379830;-0.897470;,
       0.367747; 0.568162;-0.781895;,
      -0.323639; 0.379830;-0.897470;,
       0.546027;-0.000000;-1.208161;,
       0.367747; 0.568162;-0.781895;,
       0.546027;-0.000000;-1.208161;,
      -0.323639; 0.379830;-0.897470;,
      -0.540175;-0.000000;-1.222586;;
      28;
      3;0;1;2;,
      3;3;4;5;,
      3;6;7;8;,
      3;9;10;11;,
      3;12;13;14;,
      3;15;16;17;,
      3;18;19;20;,
      3;21;22;23;,
      3;24;25;26;,
      3;27;28;29;,
      3;30;31;32;,
      3;33;34;35;,
      3;36;37;38;,
      3;39;40;41;,
      3;42;43;44;,
      3;45;46;47;,
      3;48;49;50;,
      3;51;52;53;,
      3;54;55;56;,
      3;57;58;59;,
      3;60;61;62;,
      3;63;64;65;,
      3;66;67;68;,
      3;69;70;71;,
      3;72;73;74;,
      3;75;76;77;,
      3;78;79;80;,
      3;81;82;83;;
      MeshNormals { //Mesh Normals
        84;
        -0.253700;-0.965117; 0.064394;,
        -0.404218;-0.898618; 0.170446;,
        -0.318033;-0.946104; 0.060732;,
        -0.404218;-0.898618; 0.170446;,
        -0.665639;-0.737327; 0.115055;,
        -0.318033;-0.946104; 0.060732;,
        -0.665639;-0.737327; 0.115055;,
        -0.404218;-0.898618; 0.170446;,
        -0.621204;-0.733329; 0.276193;,
        -0.404218;-0.898618; 0.170446;,
        -0.513871;-0.729789; 0.450880;,
        -0.621204;-0.733329; 0.276193;,
        -0.621204;-0.733329; 0.276193;,
        -0.513871;-0.729789; 0.450880;,
        -0.494675;-0.655385; 0.570727;,
        -0.494675;-0.655385; 0.570727;,
        -0.399426;-0.736808; 0.545457;,
        -0.621204;-0.733329; 0.276193;,
        -0.665639;-0.737327; 0.115055;,
        -0.621204;-0.733329; 0.276193;,
        -0.829218;-0.554643; 0.068758;,
        -0.621204;-0.733329; 0.276193;,
        -0.780419;-0.624409; 0.032044;,
        -0.829218;-0.554643; 0.068758;,
         0.434797;-0.900388; 0.013733;,
         0.691000;-0.630512;-0.353435;,
         0.561602;-0.769494; 0.304056;,
         0.691000;-0.630512;-0.353435;,
         0.774865;-0.546373; 0.317820;,
         0.561602;-0.769494; 0.304056;,
         0.561602;-0.769494; 0.304056;,
         0.774865;-0.546373; 0.317820;,
         0.265084;-0.758354; 0.595447;,
         0.265084;-0.758354; 0.595447;,
         0.774865;-0.546373; 0.317820;,
         0.590869;-0.691916; 0.414808;,
         0.904416;-0.217139;-0.367199;,
         0.774865;-0.546373; 0.317820;,
         0.691000;-0.630512;-0.353435;,
         0.691000;-0.630512;-0.353435;,
         0.260109;-0.567156;-0.781426;,
         0.904416;-0.217139;-0.367199;,
         0.260109;-0.567156;-0.781426;,
         0.691000;-0.630512;-0.353435;,
         0.169317;-0.791620;-0.587054;,
         0.691000;-0.630512;-0.353435;,
         0.138218;-0.900784;-0.411603;,
         0.169317;-0.791620;-0.587054;,
         0.169317;-0.791620;-0.587054;,
         0.138218;-0.900784;-0.411603;,
        -0.053407;-0.896268;-0.440260;,
        -0.053407;-0.896268;-0.440260;,
        -0.233711;-0.704611;-0.669973;,
         0.169317;-0.791620;-0.587054;,
         0.169317;-0.791620;-0.587054;,
        -0.233711;-0.704611;-0.669973;,
         0.260109;-0.567156;-0.781426;,
        -0.233711;-0.704611;-0.669973;,
        -0.306040;-0.506577;-0.806024;,
         0.260109;-0.567156;-0.781426;,
        -0.306040;-0.506577;-0.806024;,
        -0.233711;-0.704611;-0.669973;,
        -0.548235;-0.564501;-0.616993;,
        -0.233711;-0.704611;-0.669973;,
        -0.468947;-0.720450;-0.510849;,
        -0.548235;-0.564501;-0.616993;,
        -0.468947;-0.720450;-0.510849;,
        -0.233711;-0.704611;-0.669973;,
        -0.053407;-0.896268;-0.440260;,
         0.155583;-0.858364; 0.488845;,
         0.561602;-0.769494; 0.304056;,
         0.167669;-0.893094; 0.417402;,
         0.561602;-0.769494; 0.304056;,
         0.265084;-0.758354; 0.595447;,
         0.167669;-0.893094; 0.417402;,
         0.167669;-0.893094; 0.417402;,
         0.265084;-0.758354; 0.595447;,
         0.117435;-0.795770; 0.594073;,
         0.265084;-0.758354; 0.595447;,
         0.012787;-0.615345; 0.788141;,
         0.117435;-0.795770; 0.594073;,
         0.012787;-0.615345; 0.788141;,
         0.265084;-0.758354; 0.595447;,
        -0.010102;-0.646870; 0.762505;;
        28;
        3;0;1;2;,
        3;3;4;5;,
        3;6;7;8;,
        3;9;10;11;,
        3;12;13;14;,
        3;15;16;17;,
        3;18;19;20;,
        3;21;22;23;,
        3;24;25;26;,
        3;27;28;29;,
        3;30;31;32;,
        3;33;34;35;,
        3;36;37;38;,
        3;39;40;41;,
        3;42;43;44;,
        3;45;46;47;,
        3;48;49;50;,
        3;51;52;53;,
        3;54;55;56;,
        3;57;58;59;,
        3;60;61;62;,
        3;63;64;65;,
        3;66;67;68;,
        3;69;70;71;,
        3;72;73;74;,
        3;75;76;77;,
        3;78;79;80;,
        3;81;82;83;;
      } //End of Mesh Normals
      MeshMaterialList { //Mesh Material List
        1;
        28;
        0,
        0,
        0,
        0,
        0,
        0,
        0,
        0,
        0,
        0,
        0,
        0,
        0,
        0,
        0,
        0,
        0,
        0,
        0,
        0,
        0,
        0,
        0,
        0,
        0,
        0,
        0,
        0;;
        Material mat_0 {
           0.640000; 0.640000; 0.640000; 1.000000;;
           92.156863;
           0.250000; 0.250000; 0.250000;;
           0.000000; 0.000000; 0.000000;;
          TextureFilename {"Textures/dugtrio_1_0.tga";}
        }
      } //End of Mesh Material List
      MeshTextureCoords { //Mesh UV Coordinates
        84;
         0.147711; 0.877885;,
         0.114194; 0.866883;,
         0.130025; 0.894769;,
         0.114194; 0.866883;,
         0.100249; 0.910140;,
         0.130025; 0.894769;,
         0.100249; 0.910140;,
         0.114194; 0.866883;,
         0.080998; 0.878336;,
         0.114194; 0.866883;,
         0.101841; 0.852997;,
         0.080998; 0.878336;,
         0.080998; 0.878336;,
         0.101841; 0.852997;,
         0.083170; 0.835715;,
         0.083170; 0.835715;,
         0.062500; 0.873741;,
         0.080998; 0.878336;,
         0.100249; 0.910140;,
         0.080998; 0.878336;,
         0.088224; 0.928531;,
         0.080998; 0.878336;,
         0.062500; 0.873741;,
         0.088224; 0.928531;,
         0.147711; 0.877885;,
         0.171833; 0.882540;,
         0.148723; 0.852710;,
         0.171833; 0.882540;,
         0.168657; 0.832332;,
         0.148723; 0.852710;,
         0.148723; 0.852710;,
         0.168657; 0.832332;,
         0.129248; 0.833800;,
         0.168657; 0.832332;,
         0.129852; 0.812500;,
         0.129248; 0.833800;,
         0.168657; 0.832332;,
         0.171833; 0.882540;,
         0.187500; 0.875699;,
         0.171833; 0.882540;,
         0.174323; 0.921635;,
         0.187500; 0.875699;,
         0.174323; 0.921635;,
         0.171833; 0.882540;,
         0.160754; 0.904057;,
         0.171833; 0.882540;,
         0.147711; 0.877885;,
         0.160754; 0.904057;,
         0.160754; 0.904057;,
         0.147711; 0.877885;,
         0.130025; 0.894769;,
         0.130025; 0.894769;,
         0.133762; 0.925684;,
         0.160754; 0.904057;,
         0.160754; 0.904057;,
         0.133762; 0.925684;,
         0.174323; 0.921635;,
         0.133762; 0.925684;,
         0.134971; 0.937500;,
         0.174323; 0.921635;,
         0.134971; 0.937500;,
         0.133762; 0.925684;,
         0.088224; 0.928531;,
         0.133762; 0.925684;,
         0.100249; 0.910140;,
         0.088224; 0.928531;,
         0.100249; 0.910140;,
         0.133762; 0.925684;,
         0.130025; 0.894769;,
         0.147711; 0.877885;,
         0.148723; 0.852710;,
         0.114194; 0.866883;,
         0.148723; 0.852710;,
         0.129248; 0.833800;,
         0.114194; 0.866883;,
         0.114194; 0.866883;,
         0.129248; 0.833800;,
         0.101841; 0.852997;,
         0.129248; 0.833800;,
         0.083170; 0.835715;,
         0.101841; 0.852997;,
         0.083170; 0.835715;,
         0.129248; 0.833800;,
         0.129852; 0.812500;;
      } //End of Mesh UV Coordinates
    } //End of Mesh Mesh
  } //End of dugtrio_mat_0
} //End of Root Frame
