xof 0303txt 0032

template AnimTicksPerSecond {
  <9E415A43-7BA6-4a73-8743-B73D47E88476>
  DWORD AnimTicksPerSecond;
}

template XSkinMeshHeader {
  <3cf169ce-ff7c-44ab-93c0-f78f62d172e2>
  WORD nMaxSkinWeightsPerVertex;
  WORD nMaxSkinWeightsPerFace;
  WORD nBones;
}

template SkinWeights {
  <6f0d123b-bad2-4167-a0d0-80224f25fabb>
  STRING transformNodeName;
  DWORD nWeights;
  array DWORD vertexIndices[nWeights];
  array float weights[nWeights];
  Matrix4x4 matrixOffset;
}

Frame Root {
  FrameTransformMatrix {
     1.000000, 0.000000, 0.000000, 0.000000,
     0.000000, 0.000000, 1.000000, 0.000000,
     0.000000, 1.000000,-0.000000, 0.000000,
     0.000000, 0.000000, 0.000000, 1.000000;;
  }
  Frame urimoo_mat_0 {
    FrameTransformMatrix {
       1.000000, 0.000000, 0.000000, 0.000000,
       0.000000, 1.000000, 0.000000, 0.000000,
       0.000000, 0.000000, 1.000000, 0.000000,
       0.000000, 0.000000, 0.000000, 1.000000;;
    }
    Mesh { //Mesh Mesh
      84;
      -1.351220; 0.176230; 1.030820;,
      -1.172410; 0.027219; 0.989099;,
      -1.524070;-0.124773; 1.245400;,
      -1.351220; 0.176230; 1.030820;,
      -1.524070;-0.124773; 1.245400;,
      -1.297570; 0.065962; 0.530143;,
      -1.351220; 0.176230; 1.030820;,
      -1.297570; 0.065962; 0.530143;,
      -1.154520; 0.285009; 0.548025;,
      -1.297570; 0.065962; 0.530143;,
      -0.987631; 0.118116; 0.369211;,
      -1.154520; 0.285009; 0.548025;,
      -1.154520; 0.285009; 0.548025;,
      -0.987631; 0.118116; 0.369211;,
      -0.820738; 0.285009; 0.548025;,
      -0.987631; 0.118116; 0.369211;,
      -0.677687; 0.065962; 0.530143;,
      -0.820738; 0.285009; 0.548025;,
      -0.820738; 0.285009; 0.548025;,
      -0.677687; 0.065962; 0.530143;,
      -0.624043; 0.176230; 1.030820;,
      -0.677687; 0.065962; 0.530143;,
      -0.451189;-0.124773; 1.245400;,
      -0.624043; 0.176230; 1.030820;,
      -0.624043; 0.176230; 1.030820;,
      -0.451189;-0.124773; 1.245400;,
      -0.802856; 0.027219; 0.989099;,
      -0.451189;-0.124773; 1.245400;,
      -0.659805;-0.130734; 0.834127;,
      -0.802856; 0.027219; 0.989099;,
      -0.802856; 0.027219; 0.989099;,
      -0.659805;-0.130734; 0.834127;,
      -0.987631;-0.147125; 0.732799;,
      -0.659805;-0.130734; 0.834127;,
      -0.677687; 0.065962; 0.530143;,
      -0.987631;-0.147125; 0.732799;,
      -0.987631;-0.147125; 0.732799;,
      -0.677687; 0.065962; 0.530143;,
      -0.987631; 0.118116; 0.369211;,
      -0.987631; 0.118116; 0.369211;,
      -1.297570; 0.065962; 0.530143;,
      -0.987631;-0.147125; 0.732799;,
      -0.987631;-0.147125; 0.732799;,
      -1.297570; 0.065962; 0.530143;,
      -1.315460;-0.130734; 0.834127;,
      -1.297570; 0.065962; 0.530143;,
      -1.524070;-0.124773; 1.245400;,
      -1.315460;-0.130734; 0.834127;,
      -1.315460;-0.130734; 0.834127;,
      -1.524070;-0.124773; 1.245400;,
      -1.172410; 0.027219; 0.989099;,
      -1.315460;-0.130734; 0.834127;,
      -1.172410; 0.027219; 0.989099;,
      -0.987631;-0.147125; 0.732799;,
      -0.987631;-0.147125; 0.732799;,
      -1.172410; 0.027219; 0.989099;,
      -0.987631;-0.117323; 1.299040;,
      -0.987631;-0.117323; 1.299040;,
      -1.172410; 0.027219; 0.989099;,
      -0.987631; 0.252226; 0.929495;,
      -0.987631;-0.117323; 1.299040;,
      -0.987631; 0.252226; 0.929495;,
      -0.802856; 0.027219; 0.989099;,
      -0.987631; 0.252226; 0.929495;,
      -0.624043; 0.176230; 1.030820;,
      -0.802856; 0.027219; 0.989099;,
      -0.624043; 0.176230; 1.030820;,
      -0.987631; 0.252226; 0.929495;,
      -0.820738; 0.285009; 0.548025;,
      -0.987631; 0.252226; 0.929495;,
      -1.154520; 0.285009; 0.548025;,
      -0.820738; 0.285009; 0.548025;,
      -1.154520; 0.285009; 0.548025;,
      -0.987631; 0.252226; 0.929495;,
      -1.351220; 0.176230; 1.030820;,
      -0.987631; 0.252226; 0.929495;,
      -1.172410; 0.027219; 0.989099;,
      -1.351220; 0.176230; 1.030820;,
      -0.987631;-0.147125; 0.732799;,
      -0.987631;-0.117323; 1.299040;,
      -0.802856; 0.027219; 0.989099;,
      -0.659805;-0.130734; 0.834127;,
      -0.451189;-0.124773; 1.245400;,
      -0.677687; 0.065962; 0.530143;;
      28;
      3;0;1;2;,
      3;3;4;5;,
      3;6;7;8;,
      3;9;10;11;,
      3;12;13;14;,
      3;15;16;17;,
      3;18;19;20;,
      3;21;22;23;,
      3;24;25;26;,
      3;27;28;29;,
      3;30;31;32;,
      3;33;34;35;,
      3;36;37;38;,
      3;39;40;41;,
      3;42;43;44;,
      3;45;46;47;,
      3;48;49;50;,
      3;51;52;53;,
      3;54;55;56;,
      3;57;58;59;,
      3;60;61;62;,
      3;63;64;65;,
      3;66;67;68;,
      3;69;70;71;,
      3;72;73;74;,
      3;75;76;77;,
      3;78;79;80;,
      3;81;82;83;;
      MeshNormals { //Mesh Normals
        84;
         0.422773;-0.732902;-0.532945;,
         0.049562; 0.346843;-0.936583;,
         0.530717; 0.372753;-0.761162;,
         0.422773;-0.732902;-0.532945;,
         0.530717; 0.372753;-0.761162;,
         0.730583; 0.156285; 0.664663;,
         0.422773;-0.732902;-0.532945;,
         0.730583; 0.156285; 0.664663;,
         0.390179;-0.835047; 0.387799;,
         0.730583; 0.156285; 0.664663;,
        -0.000000; 0.077120; 0.997009;,
         0.390179;-0.835047; 0.387799;,
         0.390179;-0.835047; 0.387799;,
        -0.000000; 0.077120; 0.997009;,
        -0.390179;-0.835047; 0.387799;,
        -0.000000; 0.077120; 0.997009;,
        -0.730583; 0.156285; 0.664663;,
        -0.390179;-0.835047; 0.387799;,
        -0.390179;-0.835047; 0.387799;,
        -0.730583; 0.156285; 0.664663;,
        -0.422773;-0.732933;-0.532975;,
        -0.730583; 0.156285; 0.664663;,
        -0.530717; 0.372753;-0.761162;,
        -0.422773;-0.732933;-0.532975;,
        -0.422773;-0.732933;-0.532975;,
        -0.530717; 0.372753;-0.761162;,
        -0.049562; 0.346843;-0.936583;,
        -0.530717; 0.372753;-0.761162;,
        -0.276193; 0.955321; 0.105167;,
        -0.049562; 0.346843;-0.936583;,
        -0.049562; 0.346843;-0.936583;,
        -0.276193; 0.955321; 0.105167;,
        -0.000000; 0.982788; 0.184606;,
        -0.276193; 0.955321; 0.105167;,
        -0.730583; 0.156285; 0.664663;,
        -0.000000; 0.982788; 0.184606;,
        -0.000000; 0.982788; 0.184606;,
        -0.730583; 0.156285; 0.664663;,
        -0.000000; 0.077120; 0.997009;,
        -0.000000; 0.077120; 0.997009;,
         0.730583; 0.156285; 0.664663;,
        -0.000000; 0.982788; 0.184606;,
        -0.000000; 0.982788; 0.184606;,
         0.730583; 0.156285; 0.664663;,
         0.276193; 0.955321; 0.105167;,
         0.730583; 0.156285; 0.664663;,
         0.530717; 0.372753;-0.761162;,
         0.276193; 0.955321; 0.105167;,
         0.276193; 0.955321; 0.105167;,
         0.530717; 0.372753;-0.761162;,
         0.049562; 0.346843;-0.936583;,
         0.276193; 0.955321; 0.105167;,
         0.049562; 0.346843;-0.936583;,
        -0.000000; 0.982788; 0.184606;,
        -0.000000; 0.982788; 0.184606;,
         0.049562; 0.346843;-0.936583;,
        -0.000000; 0.377453;-0.926023;,
        -0.000000; 0.377453;-0.926023;,
         0.049562; 0.346843;-0.936583;,
        -0.000000;-0.860073;-0.510117;,
        -0.000000; 0.377453;-0.926023;,
        -0.000000;-0.860073;-0.510117;,
        -0.049562; 0.346843;-0.936583;,
        -0.000000;-0.860073;-0.510117;,
        -0.422773;-0.732933;-0.532975;,
        -0.049562; 0.346843;-0.936583;,
        -0.422773;-0.732933;-0.532975;,
        -0.000000;-0.860073;-0.510117;,
        -0.390179;-0.835047; 0.387799;,
        -0.000000;-0.860073;-0.510117;,
         0.390179;-0.835047; 0.387799;,
        -0.390179;-0.835047; 0.387799;,
         0.390179;-0.835047; 0.387799;,
        -0.000000;-0.860073;-0.510117;,
         0.422773;-0.732902;-0.532945;,
        -0.000000;-0.860073;-0.510117;,
         0.049562; 0.346843;-0.936583;,
         0.422773;-0.732902;-0.532945;,
        -0.000000; 0.982788; 0.184606;,
        -0.000000; 0.377453;-0.926023;,
        -0.049562; 0.346843;-0.936583;,
        -0.276193; 0.955321; 0.105167;,
        -0.530717; 0.372753;-0.761162;,
        -0.730583; 0.156285; 0.664663;;
        28;
        3;0;1;2;,
        3;3;4;5;,
        3;6;7;8;,
        3;9;10;11;,
        3;12;13;14;,
        3;15;16;17;,
        3;18;19;20;,
        3;21;22;23;,
        3;24;25;26;,
        3;27;28;29;,
        3;30;31;32;,
        3;33;34;35;,
        3;36;37;38;,
        3;39;40;41;,
        3;42;43;44;,
        3;45;46;47;,
        3;48;49;50;,
        3;51;52;53;,
        3;54;55;56;,
        3;57;58;59;,
        3;60;61;62;,
        3;63;64;65;,
        3;66;67;68;,
        3;69;70;71;,
        3;72;73;74;,
        3;75;76;77;,
        3;78;79;80;,
        3;81;82;83;;
      } //End of Mesh Normals
      MeshMaterialList { //Mesh Material List
        1;
        28;
        0,
        0,
        0,
        0,
        0,
        0,
        0,
        0,
        0,
        0,
        0,
        0,
        0,
        0,
        0,
        0,
        0,
        0,
        0,
        0,
        0,
        0,
        0,
        0,
        0,
        0,
        0,
        0;;
        Material mat_0 {
           0.640000; 0.640000; 0.640000; 1.000000;;
           92.156863;
           0.250000; 0.250000; 0.250000;;
           0.000000; 0.000000; 0.000000;;
          TextureFilename {"Textures/urimoo_0_0.tga";}
        }
      } //End of Mesh Material List
      MeshTextureCoords { //Mesh UV Coordinates
        84;
         0.326614; 0.303930;,
         0.000000; 1.142921;,
         0.160042; 0.317372;,
         0.160042; 0.317372;,
         0.000000; 1.142921;,
         0.210120;-1.013840;,
         0.160042; 0.317372;,
         0.210120;-1.013840;,
         0.343930;-1.136710;,
         0.210120;-1.013840;,
         0.500000;-1.522910;,
         0.343930;-1.136710;,
         0.343930;-1.136710;,
         0.500000;-1.522910;,
         0.656070;-1.136710;,
         0.500000;-1.522910;,
         0.789881;-1.013840;,
         0.656070;-1.136710;,
         0.656070;-1.136710;,
         0.789881;-1.013840;,
         0.839958; 0.317372;,
         0.789881;-1.013840;,
         1.000000; 1.142922;,
         0.839958; 0.317372;,
         0.839958; 0.317372;,
         1.000000; 1.142922;,
         0.673386; 0.303930;,
         1.000000; 1.142922;,
         0.805961;-0.004510;,
         0.673386; 0.303930;,
         0.673386; 0.303930;,
         0.805961;-0.004510;,
         0.500006;-0.283100;,
         0.805961;-0.004510;,
         0.789881;-1.013840;,
         0.500006;-0.283100;,
         0.500006;-0.283100;,
         0.789881;-1.013840;,
         0.500000;-1.522910;,
         0.500000;-1.522910;,
         0.210120;-1.013840;,
         0.500006;-0.283100;,
         0.500006;-0.283100;,
         0.210120;-1.013840;,
         0.194039;-0.004510;,
         0.210120;-1.013840;,
         0.000000; 1.142921;,
         0.194039;-0.004510;,
         0.194039;-0.004510;,
         0.000000; 1.142921;,
         0.326614; 0.303930;,
         0.326614; 0.303930;,
         0.500006;-0.283100;,
         0.194039;-0.004510;,
         0.500006;-0.283100;,
         0.326614; 0.303930;,
         0.500001; 1.302385;,
         0.326614; 0.303930;,
         0.500003;-0.019010;,
         0.500001; 1.302385;,
         0.500001; 1.302385;,
         0.500003;-0.019010;,
         0.673386; 0.303930;,
         0.500003;-0.019010;,
         0.839958; 0.317372;,
         0.673386; 0.303930;,
         0.839958; 0.317372;,
         0.500003;-0.019010;,
         0.656070;-1.136710;,
         0.500003;-0.019010;,
         0.343930;-1.136710;,
         0.656070;-1.136710;,
         0.343930;-1.136710;,
         0.500003;-0.019010;,
         0.160042; 0.317372;,
         0.500003;-0.019010;,
         0.326614; 0.303930;,
         0.160042; 0.317372;,
         0.500006;-0.283100;,
         0.500001; 1.302385;,
         0.673386; 0.303930;,
         0.805961;-0.004510;,
         1.000000; 1.142922;,
         0.789881;-1.013840;;
      } //End of Mesh UV Coordinates
    } //End of Mesh Mesh
  } //End of urimoo_mat_0
} //End of Root Frame
