# Blender v2.66 (sub 1) OBJ File: 'BR_Swinub.blend'
# www.blender.org
mtllib BR_Swinub.mtl
o urimoo
v -1.172410 0.989099 -0.027219
v -1.351220 1.030820 -0.176230
v -1.524070 1.245400 0.124773
v -1.315460 0.834127 0.130734
v -0.820738 0.548025 -0.285009
v -0.677687 0.530143 -0.065962
v -0.987631 0.369211 -0.118116
v -0.987631 0.732799 0.147125
v -1.297570 0.530143 -0.065962
v -0.987631 0.929495 -0.252226
v -1.154520 0.548025 -0.285009
v -0.624043 1.030820 -0.176230
v -0.802856 0.989099 -0.027219
v -0.451189 1.245400 0.124773
v -0.659805 0.834127 0.130734
v -0.987631 1.299040 0.117323
vt 0.160042 0.682628
vt 0.000000 -0.142921
vt 0.326614 0.696070
vt 0.210120 2.013840
vt 0.343930 2.136710
vt 0.500000 2.522910
vt 0.656070 2.136710
vt 0.789881 2.013840
vt 0.839958 0.682628
vt 1.000000 -0.142922
vt 0.673386 0.696070
vt 0.805961 1.004510
vt 0.500006 1.283100
vt 0.194039 1.004510
vt 0.500001 -0.302385
vt 0.500003 1.019010
usemtl mat_0
s 1
f 3/1 1/2 2/3
f 2/1 9/4 3/2
f 11/5 9/4 2/1
f 11/5 7/6 9/4
f 5/7 7/6 11/5
f 5/7 6/8 7/6
f 12/9 6/8 5/7
f 12/9 14/10 6/8
f 13/11 14/10 12/9
f 13/11 15/12 14/10
f 8/13 15/12 13/11
f 8/13 6/8 15/12
f 7/6 6/8 8/13
f 8/13 9/4 7/6
f 4/14 9/4 8/13
f 4/14 3/2 9/4
f 1/3 3/2 4/14
f 8/14 1/13 4/3
f 16/15 1/3 8/13
f 10/15 1/16 16/3
f 13/11 10/16 16/15
f 13/11 12/9 10/16
f 5/7 10/16 12/9
f 5/7 11/5 10/16
f 2/1 10/16 11/5
f 2/1 1/3 10/16
f 13/11 16/15 8/13
f 6/8 14/10 15/12
