# Blender v2.66 (sub 1) OBJ File: 'BR_Sudowoodo-Shiny01.blend'
# www.blender.org
mtllib BR_Sudowoodo-Shiny01.mtl
o usokkie
v 0.000000 0.919613 -1.589590
v 0.798985 0.506943 -1.589200
v 0.798985 0.696038 -2.156010
v 0.000000 0.442065 -1.218370
v 0.399317 0.314479 -1.237200
v 0.798985 -0.683119 -2.156010
v 0.798984 -0.491564 -1.589200
v 0.000000 -0.865671 -1.589580
v 0.525136 -0.030596 -1.309110
v 0.000000 -0.429145 -1.218370
v 0.000000 -0.720936 -3.746900
v 0.000000 -0.959114 -2.460760
v -0.913805 -0.590733 -2.722820
v -0.798985 -0.683119 -2.156010
v -0.739912 -0.504041 -3.746900
v 0.000000 1.010780 -2.460760
v -0.887981 0.641660 -2.729750
v -0.798986 0.696038 -2.156010
v 0.000000 0.915658 -3.746900
v -0.739912 0.543225 -3.746900
v -0.798985 0.506943 -1.589200
v -0.525137 -0.030596 -1.309110
v -0.399317 0.314479 -1.237200
v -1.079400 0.009545 -3.197470
v -1.046390 0.019592 -3.746900
v 0.000000 0.006460 -1.155240
v 0.913805 -0.590733 -2.722820
v 0.739912 -0.504041 -3.746900
v 0.887981 0.641660 -2.729750
v 0.739912 0.543225 -3.746900
v 1.079400 0.009545 -3.197470
v 1.046390 0.019592 -3.746900
v -0.798985 -0.491564 -1.589200
v -0.747917 -0.002232 -1.142010
v -0.760287 -0.381642 -1.192980
v -0.817932 0.281236 -1.429630
v -0.797126 -0.063488 -0.911583
v -1.433190 0.291316 -1.912790
v -1.165600 -0.023975 -1.164900
v -1.105490 -0.089910 -0.922147
v -1.164910 -0.343790 -1.188840
v -1.348220 -0.214139 -2.741140
v -1.348220 0.303419 -2.683550
v -1.433190 -0.394034 -1.989050
v -0.897835 0.595211 -2.054080
v -0.835650 -0.366487 -0.928051
v -1.107800 -0.354475 -0.938349
v -1.206890 -0.042356 -0.483602
v -1.037010 -0.415470 -0.537027
v -0.977123 0.081120 -0.634276
v -0.748596 -0.043766 -0.490527
v -1.194360 1.208670 -0.014032
v -1.450410 0.606783 -0.283827
v -1.402530 0.420645 0.013856
v -0.785513 1.209120 -0.014078
v -0.995924 1.417230 -0.198858
v -1.189690 0.719465 -0.517520
v -0.726091 -0.238188 -0.218479
v -0.588435 0.606783 -0.283885
v -0.771715 0.719142 -0.525954
v -1.093880 -0.507957 -0.275925
v -1.327380 -0.224111 -0.218979
v -0.786265 -0.270467 0.031540
v -1.258040 -0.256390 0.031029
v -0.682313 0.420645 0.013807
v 0.760287 -0.381650 -1.192990
v 0.747916 -0.002241 -1.142010
v 0.817932 0.281229 -1.429630
v 0.797126 -0.063498 -0.911582
v 1.165600 -0.023983 -1.164900
v 1.433190 0.291312 -1.912790
v 1.164910 -0.343799 -1.188840
v 1.105490 -0.089920 -0.922146
v 1.348220 0.303420 -2.683550
v 1.348220 -0.214138 -2.741140
v 1.433190 -0.394037 -1.989050
v 0.897835 0.595208 -2.054070
v 0.835649 -0.366495 -0.928049
v 1.107800 -0.354483 -0.938347
v 1.206890 -0.042359 -0.483603
v 1.037010 -0.415473 -0.537024
v 0.748595 -0.043768 -0.490528
v 0.977122 0.081116 -0.634278
v 1.402530 0.420650 0.013854
v 1.450410 0.606783 -0.283831
v 1.194350 1.208670 -0.014050
v 0.995922 1.417230 -0.198883
v 0.785508 1.209130 -0.014102
v 1.189700 0.719461 -0.517530
v 0.726089 -0.238187 -0.218482
v 0.771719 0.719138 -0.525971
v 0.588434 0.606783 -0.283904
v 1.327380 -0.224110 -0.218971
v 1.093880 -0.507957 -0.275917
v 1.258030 -0.256385 0.031036
v 0.786259 -0.270462 0.031538
v 0.682307 0.420650 0.013793
v -0.000001 0.813940 -5.262820
v -0.000001 -0.786783 -5.262820
v -1.058800 0.013579 -5.262820
v 1.058800 0.013578 -5.262820
v -0.748687 0.579520 -5.262820
v 0.748686 0.579520 -5.262820
v 0.748686 -0.552363 -5.262820
v -0.748687 -0.552362 -5.262820
v -1.025690 0.374867 -6.021170
v -1.094640 0.025607 -5.860710
v 1.094640 0.025606 -5.860710
v 1.025690 0.374867 -6.021170
v -0.798634 -0.607925 -6.460800
v -0.000001 0.880879 -7.164500
v -0.798634 0.624124 -6.474490
v 0.798633 0.624124 -6.474490
v -1.129850 0.009158 -6.925290
v -1.129850 0.009705 -7.162060
v -0.798634 -0.606305 -7.161400
v -0.000001 -0.861466 -7.160870
v -0.798634 0.625719 -7.163970
v 0.798633 0.625719 -7.163970
v 0.798633 -0.607925 -6.460800
v 0.798633 -0.606305 -7.161400
v -1.025690 -0.322915 -6.019720
v 1.025690 -0.322915 -6.019720
v 1.129850 0.009158 -6.925290
v 1.129850 0.009705 -7.162060
v -2.682710 0.062086 -6.089270
v -2.685320 -0.242415 -6.288270
v -1.569140 -0.303919 -6.413160
v -1.564880 -0.025344 -6.007300
v -1.569140 0.316839 -6.413160
v -2.688060 0.049250 -6.525840
v -1.572330 0.006460 -6.716500
v -2.685480 0.271787 -6.303810
v -2.829530 0.043566 -6.100670
v -3.900180 0.068922 -6.051800
v -3.853620 -0.134210 -6.362800
v -3.853620 0.314208 -6.376820
v -3.899570 0.052854 -6.656590
v -4.583010 -0.018047 -7.745150
v -4.583010 -0.018047 -7.745150
v -4.494700 -0.199764 -6.615290
v -4.354850 0.436791 -6.374810
v -4.516960 0.053249 -4.916960
v -4.516960 0.053249 -4.916960
v -5.640670 -0.009751 -6.301870
v -4.494700 -0.186979 -6.108140
v -3.924930 0.568881 -7.522680
v -3.822000 0.479648 -7.980690
v -4.394680 0.843069 -7.926790
v -3.809720 -0.048668 -7.274930
v -3.664150 -0.174863 -7.922660
v -4.116540 -0.647826 -7.328690
v -4.013600 -0.737059 -7.786700
v -4.665650 -0.877615 -7.652460
v -4.326290 0.671119 -7.277860
v -4.377320 0.095918 -6.928700
v -4.517890 -0.545588 -7.083870
v -4.790950 0.726471 -7.389640
v -5.034460 0.174198 -7.086790
v -4.982560 -0.490236 -7.195650
v -5.046740 0.702514 -7.792550
v -5.396190 0.140317 -7.656590
v -5.238340 -0.514193 -7.598560
v -4.943800 0.613280 -8.250560
v -5.250620 0.014122 -8.304320
v -5.135410 -0.603427 -8.056570
v -4.542450 0.511043 -8.495380
v -4.683020 -0.130464 -8.650550
v -4.734050 -0.705664 -8.301400
v -4.077780 0.455690 -8.383600
v -4.025880 -0.208744 -8.492460
v -4.269390 -0.761017 -8.189610
v -4.394680 0.843070 -4.781780
v -3.822000 0.479649 -4.727890
v -3.924930 0.568882 -5.185900
v -3.664150 -0.174862 -4.785920
v -3.809720 -0.048667 -5.433640
v -4.013600 -0.737059 -4.921870
v -4.116540 -0.647825 -5.379890
v -4.665650 -0.877614 -5.056120
v -4.326290 0.671119 -5.430720
v -4.377320 0.095918 -5.779870
v -4.517890 -0.545588 -5.624710
v -4.790950 0.726472 -5.318940
v -5.034460 0.174199 -5.621790
v -4.982560 -0.490235 -5.512920
v -5.046740 0.702514 -4.916030
v -5.396190 0.140318 -5.051990
v -5.238340 -0.514193 -5.110010
v -4.943800 0.613281 -4.458020
v -5.250620 0.014123 -4.404260
v -5.135410 -0.603426 -4.652000
v -4.542450 0.511044 -4.213200
v -4.683020 -0.130463 -4.058030
v -4.734050 -0.705664 -4.407180
v -4.077780 0.455691 -4.324980
v -4.025880 -0.208743 -4.216120
v -4.269390 -0.761016 -4.518970
v -5.675750 0.849525 -6.384200
v -5.104130 0.480471 -6.384200
v -5.285390 0.514205 -6.825040
v -4.961850 -0.180154 -6.384200
v -5.218190 -0.132447 -7.007640
v -5.332260 -0.745365 -6.384200
v -5.513520 -0.711631 -6.825040
v -5.998380 -0.884069 -6.384200
v -5.722990 0.595646 -7.007640
v -5.837060 -0.017272 -7.265880
v -5.951130 -0.630190 -7.007640
v -6.160600 0.677087 -6.825040
v -6.455930 0.097903 -7.007640
v -6.388740 -0.548749 -6.825040
v -6.341860 0.710821 -6.384200
v -6.712280 0.145610 -6.384200
v -6.570000 -0.515015 -6.384200
v -6.160600 0.677087 -5.943360
v -6.455930 0.097903 -5.760760
v -6.388740 -0.548749 -5.943360
v -5.723000 0.595646 -5.760760
v -5.837060 -0.017272 -5.502520
v -5.951130 -0.630190 -5.760760
v -5.285390 0.514205 -5.943360
v -5.218190 -0.132447 -5.760760
v -5.513520 -0.711631 -5.943360
v 1.569140 -0.303919 -6.413160
v 2.685320 -0.242416 -6.288270
v 2.682710 0.062086 -6.089270
v 1.569140 0.316839 -6.413160
v 1.564880 -0.025344 -6.007300
v 1.572330 0.006460 -6.716500
v 2.688060 0.049249 -6.525840
v 2.685480 0.271787 -6.303800
v 3.852600 -0.134210 -6.369870
v 3.902110 0.068922 -6.059320
v 2.831040 0.043566 -6.098030
v 3.852460 0.314207 -6.383890
v 3.895760 0.052853 -6.664070
v 4.493710 -0.199765 -6.625530
v 4.582020 -0.018048 -7.755390
v 4.582020 -0.018048 -7.755390
v 4.353860 0.436790 -6.385040
v 4.515980 0.053248 -4.927200
v 4.515980 0.053248 -4.927200
v 4.493710 -0.186980 -6.118380
v 5.639690 -0.009752 -6.312110
v 4.393700 0.843068 -7.937030
v 3.821010 0.479647 -7.990930
v 3.923950 0.568880 -7.532920
v 3.663160 -0.174863 -7.932900
v 3.808730 -0.048668 -7.285170
v 4.012620 -0.737060 -7.796940
v 4.115550 -0.647826 -7.338930
v 4.664670 -0.877615 -7.662700
v 4.325300 0.671118 -7.288090
v 4.376330 0.095917 -6.938940
v 4.516900 -0.545589 -7.094110
v 4.789970 0.726470 -7.399880
v 5.033470 0.174197 -7.097030
v 4.981570 -0.490237 -7.205890
v 5.045750 0.702513 -7.802790
v 5.395210 0.140316 -7.666830
v 5.237360 -0.514194 -7.608800
v 4.942820 0.613279 -8.260800
v 5.249630 0.014121 -8.314560
v 5.134420 -0.603428 -8.066810
v 4.541460 0.511042 -8.505620
v 4.682030 -0.130464 -8.660790
v 4.733070 -0.705665 -8.311640
v 4.076800 0.455690 -8.393840
v 4.024890 -0.208744 -8.502700
v 4.268400 -0.761017 -8.199850
v 3.923950 0.568881 -5.196140
v 3.821010 0.479647 -4.738130
v 4.393700 0.843068 -4.792020
v 3.808730 -0.048668 -5.443880
v 3.663160 -0.174863 -4.796150
v 4.115550 -0.647826 -5.390130
v 4.012620 -0.737059 -4.932110
v 4.664670 -0.877615 -5.066360
v 4.325300 0.671118 -5.440960
v 4.376330 0.095917 -5.790110
v 4.516900 -0.545589 -5.634950
v 4.789970 0.726470 -5.329180
v 5.033470 0.174197 -5.632020
v 4.981570 -0.490237 -5.523160
v 5.045750 0.702513 -4.926270
v 5.395210 0.140316 -5.062230
v 5.237360 -0.514194 -5.120250
v 4.942820 0.613280 -4.468250
v 5.249630 0.014121 -4.414500
v 5.134420 -0.603427 -4.662240
v 4.541460 0.511042 -4.223430
v 4.682030 -0.130464 -4.068270
v 4.733070 -0.705665 -4.417420
v 4.076800 0.455690 -4.335220
v 4.024890 -0.208744 -4.226360
v 4.268400 -0.761017 -4.529200
v 5.284400 0.514204 -6.835280
v 5.103140 0.480470 -6.394440
v 5.674760 0.849524 -6.394440
v 5.217210 -0.132448 -7.017880
v 4.960870 -0.180155 -6.394440
v 5.512540 -0.711632 -6.835280
v 5.331280 -0.745366 -6.394440
v 5.997390 -0.884070 -6.394440
v 5.722010 0.595644 -7.017880
v 5.836080 -0.017274 -7.276120
v 5.950140 -0.630191 -7.017880
v 6.159620 0.677085 -6.835280
v 6.454950 0.097901 -7.017880
v 6.387750 -0.548751 -6.835280
v 6.340880 0.710819 -6.394440
v 6.711290 0.145608 -6.394440
v 6.569010 -0.515017 -6.394440
v 6.159620 0.677085 -5.953600
v 6.454950 0.097901 -5.771000
v 6.387750 -0.548751 -5.953600
v 5.722010 0.595645 -5.771000
v 5.836080 -0.017273 -5.512760
v 5.950150 -0.630191 -5.771000
v 5.284400 0.514204 -5.953600
v 5.217210 -0.132448 -5.771000
v 5.512540 -0.711632 -5.953600
v -0.123996 0.159108 -9.953900
v 0.123994 0.159108 -9.953900
v 0.612140 -0.510809 -9.805480
v 1.122420 0.015213 -9.484950
v 0.793667 0.569648 -9.484950
v 0.828022 0.664775 -8.507610
v 0.828022 -0.665868 -8.507610
v 0.793667 -0.539222 -9.484950
v 0.893281 0.006420 -9.797230
v -0.000001 -0.768877 -9.484950
v -0.000001 0.799302 -9.484950
v 0.670535 0.551017 -9.736440
v -0.612141 -0.510809 -9.805480
v -0.793669 0.569648 -9.484950
v -0.828024 0.664775 -8.507610
v -0.670537 0.551018 -9.736440
v -0.893282 0.006420 -9.797230
v -1.122420 0.015213 -9.484950
v -0.828024 -0.665868 -8.507610
v -0.793669 -0.539222 -9.484950
v -0.000001 0.940360 -8.507610
v 1.171220 -0.000547 -8.507270
v 0.000000 -0.941454 -8.507610
v -1.171220 -0.000546 -8.507270
v 0.208746 0.597204 -9.777580
v -0.210260 0.597204 -9.777580
v -0.000001 0.639172 -10.940800
v 0.234370 0.232716 -10.695200
v 0.234370 0.505159 -10.695200
v -0.234371 0.505159 -10.695200
v -0.234371 0.232716 -10.695200
v 1.602190 0.192532 -11.445400
v 1.479280 0.045928 -11.832900
v 1.390740 0.364735 -12.089100
v 1.479280 0.652273 -11.832900
v 1.602190 0.537831 -11.445400
v -1.418710 0.655572 -11.835100
v -1.549220 0.541588 -11.452300
v -1.319550 0.364735 -12.086700
v -0.000001 0.098703 -10.864600
v -1.418710 0.049226 -11.835100
v -0.000001 0.364735 -11.089300
v -1.549220 0.196288 -11.452300
vt 1.000000 0.262000
vt 0.500000 0.000000
vt 1.000000 0.000000
vt 0.500000 0.402390
vt 1.000000 0.526000
vt 1.000000 1.000000
vt 0.500000 1.000000
vt 0.000000 1.000000
vt 0.000000 0.518000
vt 0.000000 0.262000
vt 0.000000 0.000000
vt 1.000000 0.523000
vt 0.000000 0.523000
vt 0.669060 0.550047
vt 0.500000 0.617265
vt 0.330940 0.550047
vt 0.687318 0.248000
vt 0.989583 0.521760
vt 0.992188 0.223958
vt 0.628096 0.506693
vt 0.265248 0.248000
vt 0.309614 0.506693
vt 0.054500 0.234000
vt 0.015625 0.527457
vt 0.625000 -0.011500
vt 0.296000 -0.011500
vt 0.354584 0.150631
vt 0.795466 0.150411
vt 0.546399 -0.018261
vt 0.847824 0.436866
vt 0.288065 0.899791
vt 0.795515 0.906613
vt 0.194892 0.436866
vt 0.072659 0.436866
vt 0.170170 0.840141
vt 0.925769 0.436866
vt 0.838905 0.846963
vt 0.614812 0.932673
vt 0.621226 0.856845
vt 0.428700 0.856845
vt 0.194975 0.949216
vt 0.168876 0.856845
vt 1.000000 0.500000
vt 0.500000 0.500000
vt 0.244486 0.463969
vt 0.500000 0.411731
vt 0.755514 0.463969
vt 0.500000 0.704000
vt 0.007506 0.984945
vt 0.000000 0.500000
vt 0.495850 0.984945
vt 0.993454 0.984945
vt 0.988515 0.516198
vt 0.283236 0.643797
vt 0.500000 0.648515
vt 0.500000 0.442981
vt 0.716763 0.643797
vt 0.493000 0.859000
vt 0.023500 0.984000
vt 0.477750 0.990000
vt 0.055000 0.797000
vt 0.510652 0.004317
vt 0.009201 -0.010145
vt 0.507000 0.020000
vt 0.901957 -0.067281
vt 0.886478 0.021463
vt 0.039000 -0.044000
vt 0.055000 0.046500
vt 0.011520 0.021463
vt 0.005000 0.243000
vt 0.008000 -0.013000
vt 0.500000 0.696000
vt 0.989583 0.080729
vt 0.989583 -0.007813
vt 0.009000 0.990000
vt 0.305000 0.827750
vt 0.024000 0.826000
vt 0.304688 0.984375
vt 0.635417 0.986111
vt 0.680000 0.859000
vt 0.992250 0.984000
vt 0.992000 0.859000
vt 0.999736 -0.011595
vt 0.336250 -0.016000
vt 0.148750 0.202750
vt 0.023750 0.827750
vt -0.007500 0.015250
vt 0.154411 0.150411
vt 0.580724 0.150411
vt 0.322876 0.436866
vt 0.199658 0.715636
vt 0.481067 0.620705
vt 0.764210 0.436866
vt 0.889888 0.153750
vt 0.803495 0.715636
vt 0.462304 0.959920
vt 0.433552 0.976435
vt 0.270271 0.398393
vt 0.000000 0.646250
vt 0.514500 0.242142
vt 0.764500 0.398392
vt 1.000000 0.618750
vt 0.500000 0.812500
vt 0.258839 0.399920
vt 0.494447 0.243671
vt 0.744447 0.306171
vt 1.000000 0.659000
vt 0.500000 0.781250
vt 0.499884 -0.157711
vt 0.407561 -0.063961
vt 0.305343 -0.621581
vt 0.662479 -0.063961
vt 0.840353 -0.659260
vt 0.722561 -0.504893
vt 0.366359 -0.063961
vt 0.357740 0.856845
vt 0.342149 0.972007
vt -0.083075 -0.628010
vt 0.034881 -0.379893
vt 0.335918 -0.458020
vt 0.229404 1.767950
vt 0.357856 1.803900
vt 0.075455 2.192870
vt 0.459847 2.238280
vt 0.660738 1.767950
vt 0.780503 2.097800
vt 0.440898 1.803900
vt 0.465870 2.252910
vt 0.238844 2.192870
vt 0.344212 2.971970
vt 0.157000 0.257000
vt 0.575750 0.612000
vt 0.428571 0.609375
vt 0.868000 0.257000
vt 0.512730 0.003071
vt 1.002230 0.002232
vt 0.004464 0.000000
vt 0.985000 0.278000
vt 0.500000 0.086750
vt 1.040180 0.084822
vt 0.771000 0.574000
vt 0.256250 0.559500
vt 0.015000 0.278000
vt -0.040179 0.087053
vt 0.508929 0.975446
vt 0.510733 -0.011478
vt 0.012850 0.253670
vt -0.007644 -0.011478
vt 0.509925 0.253670
vt 0.987270 0.253670
vt 0.767000 0.628250
vt 0.991876 -0.011478
vt 0.517000 0.815750
vt 0.021000 0.730250
vt 0.503996 -0.009793
vt 0.014000 0.261000
vt 0.014147 -0.009793
vt 0.502000 0.261000
vt 0.981000 0.261000
vt 0.975000 0.747000
vt 1.000320 -0.009793
vt 0.231750 0.612000
vt 0.006250 0.984375
vt 0.517000 0.472000
vt 0.512500 0.987500
vt 0.017000 0.478000
vt 0.512000 0.494000
vt 0.984375 0.906250
vt 0.506250 0.890625
vt 0.975000 0.497000
vt 0.429000 0.484000
vt 0.501469 0.784125
vt 0.085938 0.651042
vt 0.607000 0.487000
vt 0.973958 0.651042
vt 0.229000 0.574000
vt 0.491534 0.980965
vt 0.246000 0.835000
vt 0.758508 0.846711
vt 0.994792 0.984375
vt 0.010417 0.984375
vt 0.500000 0.984375
vt 1.000000 0.778000
vt 1.000000 0.784000
vt 0.000000 0.784000
vt 0.000000 0.747000
vt 0.863908 0.665729
vt 0.862756 0.820844
vt 0.833480 0.720456
vt 0.905311 0.807698
vt 0.781011 0.678308
vt 0.810288 0.778696
vt 0.709179 0.591066
vt 0.724070 0.667662
vt 0.671602 0.625514
vt 0.531764 0.627447
vt 0.598619 0.693387
vt 0.546150 0.651239
vt 0.435589 0.753559
vt 0.530613 0.782562
vt 0.478144 0.740414
vt 0.476993 0.895529
vt 0.559890 0.882949
vt 0.507421 0.840801
vt 0.631721 0.970191
vt 0.669299 0.935744
vt 0.616830 0.893596
vt 0.809136 0.933811
vt 0.794751 0.910019
vt 0.742282 0.867871
vt 0.924528 0.157685
vt 0.929844 0.308635
vt 0.898940 0.255916
vt 0.966031 0.169714
vt 0.856355 0.072114
vt 0.869621 0.048700
vt 0.734357 0.049331
vt 0.697089 0.016479
vt 0.629998 0.102681
vt 0.549503 0.091928
vt 0.604410 0.200913
vt 0.513316 0.230848
vt 0.672583 0.286483
vt 0.609727 0.351863
vt 0.794581 0.309266
vt 0.782258 0.384083
vt 0.849349 0.297881
vt 0.874937 0.199650
vt 0.806764 0.114079
vt 0.684766 0.091296
vt 0.580407 0.144646
vt 0.554819 0.242878
vt 0.622992 0.328448
vt 0.744990 0.351231
vt 0.511365 0.541234
vt 0.479360 0.677005
vt 0.458636 0.637487
vt 0.553931 0.540883
vt 0.455636 0.445877
vt 0.475119 0.406028
vt 0.324095 0.407275
vt 0.289090 0.351436
vt 0.193796 0.448041
vt 0.104819 0.409087
vt 0.141066 0.544293
vt 0.030249 0.545209
vt 0.196795 0.639650
vt 0.109062 0.680064
vt 0.328337 0.678252
vt 0.295090 0.734655
vt 0.390384 0.638051
vt 0.443113 0.541798
vt 0.387384 0.446441
vt 0.255843 0.407839
vt 0.125544 0.448604
vt 0.072815 0.544857
vt 0.128543 0.640214
vt 0.260085 0.678816
vt 0.547049 0.803994
vt 0.541553 0.648940
vt 0.573506 0.703092
vt 0.504137 0.791637
vt 0.617536 0.891891
vt 0.603821 0.915942
vt 0.743676 0.915293
vt 0.782209 0.949038
vt 0.851578 0.860493
vt 0.934806 0.871539
vt 0.878034 0.759591
vt 0.972221 0.728842
vt 0.807548 0.671694
vt 0.872538 0.604538
vt 0.681408 0.648292
vt 0.694149 0.571441
vt 0.624780 0.659986
vt 0.598324 0.760888
vt 0.668811 0.848785
vt 0.794950 0.872188
vt 0.902852 0.817387
vt 0.929309 0.716485
vt 0.858822 0.628589
vt 0.732682 0.605186
vt 0.508237 0.292291
vt 0.509350 0.141281
vt 0.537665 0.239012
vt 0.468193 0.154078
vt 0.588412 0.280044
vt 0.560096 0.182314
vt 0.657884 0.364977
vt 0.643483 0.290409
vt 0.694229 0.331441
vt 0.829474 0.329560
vt 0.764815 0.265365
vt 0.815561 0.306397
vt 0.922492 0.206785
vt 0.830588 0.178550
vt 0.881334 0.219582
vt 0.882447 0.068572
vt 0.802272 0.080819
vt 0.853019 0.121852
vt 0.732800 -0.004114
vt 0.696455 0.029422
vt 0.747202 0.070454
vt 0.561209 0.031304
vt 0.575123 0.054466
vt 0.625869 0.095498
vt 0.087382 0.653439
vt 0.051135 0.518233
vt 0.106864 0.613589
vt 0.008570 0.518584
vt 0.175116 0.613026
vt 0.119387 0.517669
vt 0.273410 0.708031
vt 0.238405 0.652192
vt 0.306657 0.651628
vt 0.457681 0.650380
vt 0.368705 0.611426
vt 0.436956 0.610862
vt 0.532251 0.514258
vt 0.421434 0.515173
vt 0.489686 0.514610
vt 0.453438 0.379403
vt 0.365705 0.419817
vt 0.433957 0.419253
vt 0.267411 0.324811
vt 0.234163 0.381214
vt 0.302415 0.380651
vt 0.083140 0.382462
vt 0.103864 0.421980
vt 0.172116 0.421416
vt 0.707551 0.810432
vt 0.633349 0.750826
vt 0.774739 0.170607
vt 0.704607 0.229955
vt 0.340351 0.542647
vt 0.243828 0.543444
vt 0.701922 0.790720
vt 0.774436 0.729759
vt 0.659459 0.151417
vt 0.731225 0.209446
vt 0.222149 0.516820
vt 0.318672 0.516022
vt 0.000000 0.750000
vt 1.000000 0.916667
vt 0.000000 0.916667
vt 1.000000 0.750000
vt 1.000000 0.666667
vt 0.000000 0.888889
vt 0.000000 0.666667
vt 1.000000 0.888889
vt 0.833000 -0.063000
vt -0.261000 0.749000
vt 0.083000 -0.059000
vt 0.466000 1.280000
vt 1.161000 0.773000
usemtl mat_0
s 1
f 3/1 1/2 2/3
f 16/1 1/4 3/2
f 29/5 16/4 3/1
f 29/5 30/6 16/4
f 19/7 16/4 30/6
f 19/7 20/8 16/4
f 17/9 16/4 20/8
f 17/9 18/10 16/4
f 1/2 16/4 18/10
f 21/10 1/11 18/2
f 8/2 6/10 7/11
f 8/2 12/4 6/10
f 14/1 12/4 8/2
f 14/1 13/12 12/4
f 11/7 12/4 13/12
f 11/7 27/13 12/4
f 28/8 27/13 11/7
f 13/12 15/6 11/7
f 27/13 6/10 12/4
f 8/2 33/3 14/1
usemtl mat_1
f 1/7 5/14 2/6
f 1/7 4/15 5/14
f 4/8 1/15 21/7
f 21/8 23/16 4/15
f 44/17 13/18 14/19
f 44/17 42/20 13/18
f 38/21 42/20 44/17
f 38/21 43/22 42/20
f 45/23 43/22 38/21
f 45/23 17/24 43/22
f 38/21 44/17 41/25
f 39/26 38/21 41/25
f 52/27 55/28 56/29
f 65/30 64/31 63/32
f 65/30 54/33 64/31
f 55/28 54/33 65/30
f 55/28 52/27 54/33
f 53/34 62/35 64/31
f 54/33 53/34 64/31
f 65/30 59/36 55/28
f 65/30 63/32 58/37
f 59/36 65/30 58/37
f 75/20 6/19 27/18
f 75/20 76/17 6/19
f 74/22 76/17 75/20
f 74/22 71/21 76/17
f 29/24 71/21 74/22
f 29/24 77/23 71/21
f 76/17 71/21 70/26
f 72/25 76/17 70/26
f 87/29 88/28 86/27
f 95/31 97/30 96/32
f 95/31 84/33 97/30
f 93/35 84/33 95/31
f 93/35 85/34 84/33
f 88/28 97/30 84/33
f 86/27 88/28 84/33
f 88/28 92/36 97/30
f 96/32 97/30 92/36
f 90/37 96/32 92/36
f 133/38 131/39 137/40
f 226/41 231/42 233/40
f 115/2 118/3 338/43
f 347/44 115/2 338/43
f 22/45 23/16 21/8
f 22/45 26/46 23/16
f 4/15 23/16 26/46
f 26/46 5/14 4/15
f 9/47 5/14 26/46
f 9/47 2/6 5/14
f 24/48 15/49 13/50
f 24/48 25/51 15/49
f 20/52 25/51 24/48
f 24/48 17/53 20/52
f 9/54 8/7 7/8
f 9/54 10/55 8/7
f 26/56 10/55 9/54
f 26/56 22/57 10/55
f 8/7 10/55 22/57
f 22/57 33/6 8/7
f 37/58 35/59 34/60
f 37/58 46/61 35/59
f 51/62 46/61 37/58
f 51/62 49/63 46/61
f 22/64 35/65 33/66
f 22/64 34/67 35/65
f 36/68 34/67 22/64
f 22/64 21/69 36/68
f 18/70 36/68 21/69
f 18/70 45/23 36/68
f 17/24 45/23 18/70
f 38/21 36/68 45/23
f 38/21 39/26 36/68
f 34/71 36/68 39/26
f 24/72 43/22 17/24
f 24/72 42/20 43/22
f 13/18 42/20 24/72
f 41/25 33/73 35/74
f 41/25 44/17 33/73
f 14/19 33/73 44/17
f 34/75 40/76 37/77
f 34/75 39/78 40/76
f 41/79 40/76 39/78
f 41/79 47/80 40/76
f 35/81 47/80 41/79
f 35/81 46/82 47/80
f 49/83 47/80 46/82
f 49/83 48/84 47/80
f 40/76 47/80 48/84
f 48/84 50/85 40/76
f 37/86 40/76 50/85
f 50/85 51/87 37/86
f 52/88 53/34 54/33
f 52/88 56/89 53/34
f 57/90 53/34 56/89
f 57/90 48/91 53/34
f 50/92 48/91 57/90
f 57/90 60/93 50/92
f 56/89 60/93 57/90
f 56/89 59/36 60/93
f 55/94 59/36 56/89
f 60/93 51/95 50/92
f 60/93 59/36 51/95
f 58/37 51/95 59/36
f 58/37 49/96 51/95
f 61/97 49/96 58/37
f 61/97 62/35 49/96
f 64/31 62/35 61/97
f 61/97 63/32 64/31
f 58/37 63/32 61/97
f 62/35 48/91 49/96
f 62/35 53/34 48/91
f 66/59 69/58 67/60
f 66/59 78/61 69/58
f 82/62 69/58 78/61
f 78/61 81/63 82/62
f 66/65 9/64 7/66
f 66/65 67/67 9/64
f 68/68 9/64 67/67
f 68/68 2/69 9/64
f 3/70 2/69 68/68
f 68/68 77/23 3/70
f 71/21 77/23 68/68
f 68/68 70/26 71/21
f 67/71 70/26 68/68
f 29/24 3/70 77/23
f 7/73 72/25 66/74
f 7/73 76/17 72/25
f 6/19 76/17 7/73
f 73/76 67/75 69/77
f 73/76 70/78 67/75
f 72/79 70/78 73/76
f 73/76 79/80 72/79
f 80/84 79/80 73/76
f 80/84 81/83 79/80
f 78/82 79/80 81/83
f 78/82 66/81 79/80
f 72/79 79/80 66/81
f 73/76 83/85 80/84
f 73/76 69/86 83/85
f 82/87 83/85 69/86
f 85/34 86/88 84/33
f 85/34 87/89 86/88
f 89/90 87/89 85/34
f 89/90 91/93 87/89
f 83/92 91/93 89/90
f 83/92 82/95 91/93
f 92/36 91/93 82/95
f 92/36 87/89 91/93
f 88/94 87/89 92/36
f 89/90 80/91 83/92
f 89/90 85/34 80/91
f 93/35 80/91 85/34
f 93/35 81/96 80/91
f 94/97 81/96 93/35
f 94/97 90/37 81/96
f 96/32 90/37 94/97
f 94/97 95/31 96/32
f 93/35 95/31 94/97
f 90/37 82/95 81/96
f 90/37 92/36 82/95
f 30/11 101/7 103/8
f 30/11 32/2 101/7
f 28/3 101/7 32/2
f 28/3 104/6 101/7
f 15/11 100/7 105/8
f 15/11 25/2 100/7
f 20/3 100/7 25/2
f 20/3 102/6 100/7
f 103/11 109/98 113/99
f 103/11 101/2 109/98
f 108/100 109/98 101/2
f 101/2 123/101 108/100
f 104/3 123/101 101/2
f 104/3 120/102 123/101
f 124/103 119/8 113/99
f 124/103 125/7 119/8
f 121/6 125/7 124/103
f 124/103 120/102 121/6
f 105/11 122/104 110/99
f 105/11 100/2 122/104
f 107/105 122/104 100/2
f 100/2 106/106 107/105
f 102/3 106/106 100/2
f 102/3 112/107 106/106
f 118/6 114/108 112/107
f 118/6 115/7 114/108
f 116/8 114/108 115/7
f 116/8 110/99 114/108
f 131/40 127/42 136/41
f 131/40 128/109 127/42
f 132/110 128/109 131/40
f 132/110 114/111 128/109
f 130/112 114/111 132/110
f 130/112 112/113 114/111
f 106/114 112/113 130/112
f 130/112 129/115 106/114
f 126/116 129/115 130/112
f 126/116 128/109 129/115
f 127/42 128/109 126/116
f 131/40 130/112 132/110
f 131/40 133/39 130/112
f 126/116 130/112 133/39
f 133/39 134/117 126/116
f 137/38 134/117 133/39
f 110/118 128/109 114/111
f 110/118 122/119 128/109
f 129/115 128/109 122/119
f 122/119 107/120 129/115
f 106/114 129/115 107/120
f 134/117 127/41 126/116
f 134/117 136/121 127/41
f 135/122 136/121 134/117
f 135/122 146/123 136/121
f 144/124 146/123 135/122
f 137/125 135/122 134/117
f 137/125 142/126 135/122
f 138/127 142/126 137/125
f 138/127 140/128 142/126
f 141/129 142/126 140/128
f 141/129 145/130 142/126
f 146/123 145/130 141/129
f 146/123 142/126 145/130
f 143/124 142/126 146/123
f 143/124 135/122 142/126
f 141/129 136/121 146/123
f 141/129 138/127 136/121
f 139/128 138/127 141/129
f 131/40 138/127 137/125
f 131/40 136/121 138/127
f 231/40 232/39 236/38
f 231/40 228/112 232/39
f 230/110 228/112 231/40
f 230/110 124/111 228/112
f 225/109 124/111 230/110
f 225/109 120/118 124/111
f 123/119 120/118 225/109
f 225/109 229/115 123/119
f 227/116 229/115 225/109
f 227/116 228/112 229/115
f 232/39 228/112 227/116
f 231/40 225/109 230/110
f 231/40 226/42 225/109
f 227/116 225/109 226/42
f 113/113 228/112 124/111
f 113/113 109/114 228/112
f 229/115 228/112 109/114
f 109/114 108/120 229/115
f 123/119 229/115 108/120
f 235/116 232/38 227/39
f 235/116 236/125 232/38
f 226/116 235/121 227/117
f 226/116 233/41 235/121
f 238/129 237/127 239/128
f 238/129 233/121 237/127
f 244/123 233/121 238/129
f 244/123 234/122 233/121
f 243/124 234/122 244/123
f 234/122 235/117 233/121
f 234/122 236/125 235/117
f 241/126 236/125 234/122
f 241/126 237/127 236/125
f 240/128 237/127 241/126
f 241/126 238/129 240/128
f 245/130 238/129 241/126
f 245/130 244/123 238/129
f 241/126 244/123 245/130
f 241/126 242/124 244/123
f 234/122 242/124 241/126
f 237/127 231/40 236/125
f 237/127 233/121 231/40
f 326/131 324/132 325/133
f 326/131 336/134 324/132
f 333/135 336/134 326/131
f 333/135 343/136 336/134
f 326/131 331/137 333/135
f 329/50 327/7 328/8
f 329/50 345/44 327/7
f 125/2 345/44 329/50
f 125/2 330/43 345/44
f 121/3 330/43 125/2
f 329/50 119/11 125/2
f 330/43 327/7 345/44
f 330/43 331/6 327/7
f 335/138 334/139 328/140
f 335/138 348/141 334/139
f 349/142 334/139 348/141
f 349/142 339/143 334/139
f 337/144 334/139 339/143
f 333/145 342/43 343/6
f 333/145 346/44 342/43
f 330/50 346/44 333/145
f 330/50 117/2 346/44
f 121/11 117/2 330/50
f 333/145 331/8 330/50
f 117/2 342/43 346/44
f 117/2 116/3 342/43
f 327/146 335/147 328/148
f 327/146 332/149 335/147
f 326/150 332/149 327/146
f 326/150 325/151 332/149
f 327/146 331/152 326/150
f 325/153 335/147 332/149
f 325/153 348/154 335/147
f 341/7 338/43 337/6
f 341/7 347/44 338/43
f 342/50 347/44 341/7
f 342/50 115/2 347/44
f 116/11 115/2 342/50
f 341/7 343/8 342/50
f 341/155 336/156 343/157
f 341/155 340/158 336/156
f 339/159 340/158 341/155
f 339/159 324/153 340/158
f 349/160 324/153 339/159
f 341/155 337/161 339/159
f 336/156 340/158 324/162
f 352/163 325/164 351/165
f 352/163 348/166 325/164
f 324/167 353/168 354/169
f 324/167 349/170 353/168
f 362/44 363/3 364/43
f 362/44 365/2 363/3
f 357/44 363/11 365/2
f 357/44 356/50 363/11
f 363/11 366/44 364/50
f 363/11 354/2 366/44
f 353/3 366/44 354/2
f 353/3 361/43 366/44
f 362/43 350/2 365/3
f 362/43 360/44 350/2
f 361/50 350/2 360/44
f 361/50 353/11 350/2
f 350/2 357/50 365/11
f 350/2 358/44 357/50
f 359/43 358/44 350/2
f 350/2 352/3 359/43
f 355/44 363/3 356/43
f 355/44 351/2 363/3
f 352/11 351/2 355/44
f 355/44 359/50 352/11
f 325/171 363/172 351/173
f 325/171 324/174 363/172
f 354/175 363/172 324/174
f 349/176 350/177 353/178
f 349/176 348/141 350/177
f 352/179 350/177 348/141
f 31/72 27/18 28/180
f 31/72 75/20 27/18
f 74/22 75/20 31/72
f 31/72 29/24 74/22
f 30/181 29/24 31/72
f 31/72 32/182 30/181
f 28/180 32/182 31/72
usemtl mat_2
f 20/11 98/7 102/8
f 20/11 19/2 98/7
f 30/3 98/7 19/2
f 30/3 103/6 98/7
f 28/11 99/7 104/8
f 28/11 11/2 99/7
f 15/3 99/7 11/2
f 15/3 105/6 99/7
usemtl mat_3
f 110/183 99/2 105/3
f 110/183 117/7 99/2
f 116/6 117/7 110/183
f 111/7 113/184 119/6
f 111/7 98/2 113/184
f 112/185 98/2 111/7
f 112/185 102/11 98/2
f 98/2 103/3 113/184
f 111/7 118/8 112/185
f 99/2 120/186 104/11
f 99/2 117/7 120/186
f 121/8 120/186 117/7
usemtl mat_4
f 150/187 148/188 147/189
f 150/187 151/190 148/188
f 152/191 151/190 150/187
f 152/191 153/192 151/190
f 156/193 147/189 155/194
f 156/193 150/187 147/189
f 157/195 150/187 156/193
f 157/195 152/191 150/187
f 159/196 155/194 158/197
f 159/196 156/193 155/194
f 160/198 156/193 159/196
f 160/198 157/195 156/193
f 162/199 158/197 161/200
f 162/199 159/196 158/197
f 163/201 159/196 162/199
f 163/201 160/198 159/196
f 165/202 161/200 164/203
f 165/202 162/199 161/200
f 166/204 162/199 165/202
f 166/204 163/201 162/199
f 168/205 164/203 167/206
f 168/205 165/202 164/203
f 169/207 165/202 168/205
f 169/207 166/204 165/202
f 171/208 167/206 170/209
f 171/208 168/205 167/206
f 172/210 168/205 171/208
f 172/210 169/207 168/205
f 151/190 170/209 148/188
f 151/190 171/208 170/209
f 153/192 171/208 151/190
f 153/192 172/210 171/208
f 174/211 177/212 175/213
f 174/211 176/214 177/212
f 196/215 176/214 174/211
f 196/215 197/216 176/214
f 193/217 197/216 196/215
f 193/217 194/218 197/216
f 190/219 194/218 193/217
f 190/219 191/220 194/218
f 187/221 191/220 190/219
f 187/221 188/222 191/220
f 184/223 188/222 187/221
f 184/223 185/224 188/222
f 181/225 185/224 184/223
f 181/225 182/226 185/224
f 175/213 182/226 181/225
f 175/213 177/212 182/226
f 176/214 179/227 177/212
f 176/214 178/228 179/227
f 197/216 178/228 176/214
f 197/216 198/229 178/228
f 194/218 198/229 197/216
f 194/218 195/230 198/229
f 191/220 195/230 194/218
f 191/220 192/231 195/230
f 188/222 192/231 191/220
f 188/222 189/232 192/231
f 185/224 189/232 188/222
f 185/224 186/233 189/232
f 182/226 186/233 185/224
f 182/226 183/234 186/233
f 177/212 183/234 182/226
f 177/212 179/227 183/234
f 200/235 203/236 201/237
f 200/235 202/238 203/236
f 222/239 202/238 200/235
f 222/239 223/240 202/238
f 219/241 223/240 222/239
f 219/241 220/242 223/240
f 216/243 220/242 219/241
f 216/243 217/244 220/242
f 213/245 217/244 216/243
f 213/245 214/246 217/244
f 210/247 214/246 213/245
f 210/247 211/248 214/246
f 207/249 211/248 210/247
f 207/249 208/250 211/248
f 201/237 208/250 207/249
f 201/237 203/236 208/250
f 202/238 205/251 203/236
f 202/238 204/252 205/251
f 223/240 204/252 202/238
f 223/240 224/253 204/252
f 220/242 224/253 223/240
f 220/242 221/254 224/253
f 217/244 221/254 220/242
f 217/244 218/255 221/254
f 214/246 218/255 217/244
f 214/246 215/256 218/255
f 211/248 215/256 214/246
f 211/248 212/257 215/256
f 208/250 212/257 211/248
f 208/250 209/258 212/257
f 203/236 209/258 208/250
f 203/236 205/251 209/258
f 247/259 250/260 248/261
f 247/259 249/262 250/260
f 269/263 249/262 247/259
f 269/263 270/264 249/262
f 266/265 270/264 269/263
f 266/265 267/266 270/264
f 263/267 267/266 266/265
f 263/267 264/268 267/266
f 260/269 264/268 263/267
f 260/269 261/270 264/268
f 257/271 261/270 260/269
f 257/271 258/272 261/270
f 254/273 258/272 257/271
f 254/273 255/274 258/272
f 248/261 255/274 254/273
f 248/261 250/260 255/274
f 249/262 252/275 250/260
f 249/262 251/276 252/275
f 270/264 251/276 249/262
f 270/264 271/277 251/276
f 267/266 271/277 270/264
f 267/266 268/278 271/277
f 264/268 268/278 267/266
f 264/268 265/279 268/278
f 261/270 265/279 264/268
f 261/270 262/280 265/279
f 258/272 262/280 261/270
f 258/272 259/281 262/280
f 255/274 259/281 258/272
f 255/274 256/282 259/281
f 250/260 256/282 255/274
f 250/260 252/275 256/282
f 275/283 273/284 272/285
f 275/283 276/286 273/284
f 277/287 276/286 275/283
f 277/287 278/288 276/286
f 281/289 272/285 280/290
f 281/289 275/283 272/285
f 282/291 275/283 281/289
f 282/291 277/287 275/283
f 284/292 280/290 283/293
f 284/292 281/289 280/290
f 285/294 281/289 284/292
f 285/294 282/291 281/289
f 287/295 283/293 286/296
f 287/295 284/292 283/293
f 288/297 284/292 287/295
f 288/297 285/294 284/292
f 290/298 286/296 289/299
f 290/298 287/295 286/296
f 291/300 287/295 290/298
f 291/300 288/297 287/295
f 293/301 289/299 292/302
f 293/301 290/298 289/299
f 294/303 290/298 293/301
f 294/303 291/300 290/298
f 296/304 292/302 295/305
f 296/304 293/301 292/302
f 297/306 293/301 296/304
f 297/306 294/303 293/301
f 276/286 295/305 273/284
f 276/286 296/304 295/305
f 278/288 296/304 276/286
f 278/288 297/306 296/304
f 301/307 299/308 298/309
f 301/307 302/310 299/308
f 303/311 302/310 301/307
f 303/311 304/312 302/310
f 307/313 298/309 306/314
f 307/313 301/307 298/309
f 308/315 301/307 307/313
f 308/315 303/311 301/307
f 310/316 306/314 309/317
f 310/316 307/313 306/314
f 311/318 307/313 310/316
f 311/318 308/315 307/313
f 313/319 309/317 312/320
f 313/319 310/316 309/317
f 314/321 310/316 313/319
f 314/321 311/318 310/316
f 316/322 312/320 315/323
f 316/322 313/319 312/320
f 317/324 313/319 316/322
f 317/324 314/321 313/319
f 319/325 315/323 318/326
f 319/325 316/322 315/323
f 320/327 316/322 319/325
f 320/327 317/324 316/322
f 322/328 318/326 321/329
f 322/328 319/325 318/326
f 323/330 319/325 322/328
f 323/330 320/327 319/325
f 302/310 321/329 299/308
f 302/310 322/328 321/329
f 304/312 322/328 302/310
f 304/312 323/330 322/328
f 148/188 149/331 147/189
f 148/188 170/209 149/331
f 167/206 149/331 170/209
f 167/206 164/203 149/331
f 161/200 149/331 164/203
f 161/200 158/197 149/331
f 155/194 149/331 158/197
f 155/194 147/189 149/331
f 152/191 154/332 153/192
f 152/191 157/195 154/332
f 160/198 154/332 157/195
f 160/198 163/201 154/332
f 166/204 154/332 163/201
f 166/204 169/207 154/332
f 172/210 154/332 169/207
f 172/210 153/192 154/332
f 175/213 173/333 174/211
f 175/213 181/225 173/333
f 184/223 173/333 181/225
f 184/223 187/221 173/333
f 190/219 173/333 187/221
f 190/219 193/217 173/333
f 196/215 173/333 193/217
f 196/215 174/211 173/333
f 178/228 180/334 179/227
f 178/228 198/229 180/334
f 195/230 180/334 198/229
f 195/230 192/231 180/334
f 189/232 180/334 192/231
f 189/232 186/233 180/334
f 183/234 180/334 186/233
f 183/234 179/227 180/334
f 201/237 199/335 200/235
f 201/237 207/249 199/335
f 210/247 199/335 207/249
f 210/247 213/245 199/335
f 216/243 199/335 213/245
f 216/243 219/241 199/335
f 222/239 199/335 219/241
f 222/239 200/235 199/335
f 204/252 206/336 205/251
f 204/252 224/253 206/336
f 221/254 206/336 224/253
f 221/254 218/255 206/336
f 215/256 206/336 218/255
f 215/256 212/257 206/336
f 209/258 206/336 212/257
f 209/258 205/251 206/336
f 248/261 246/337 247/259
f 248/261 254/273 246/337
f 257/271 246/337 254/273
f 257/271 260/269 246/337
f 263/267 246/337 260/269
f 263/267 266/265 246/337
f 269/263 246/337 266/265
f 269/263 247/259 246/337
f 251/276 253/338 252/275
f 251/276 271/277 253/338
f 268/278 253/338 271/277
f 268/278 265/279 253/338
f 262/280 253/338 265/279
f 262/280 259/281 253/338
f 256/282 253/338 259/281
f 256/282 252/275 253/338
f 273/284 274/339 272/285
f 273/284 295/305 274/339
f 292/302 274/339 295/305
f 292/302 289/299 274/339
f 286/296 274/339 289/299
f 286/296 283/293 274/339
f 280/290 274/339 283/293
f 280/290 272/285 274/339
f 277/287 279/340 278/288
f 277/287 282/291 279/340
f 285/294 279/340 282/291
f 285/294 288/297 279/340
f 291/300 279/340 288/297
f 291/300 294/303 279/340
f 297/306 279/340 294/303
f 297/306 278/288 279/340
f 299/308 300/341 298/309
f 299/308 321/329 300/341
f 318/326 300/341 321/329
f 318/326 315/323 300/341
f 312/320 300/341 315/323
f 312/320 309/317 300/341
f 306/314 300/341 309/317
f 306/314 298/309 300/341
f 303/311 305/342 304/312
f 303/311 308/315 305/342
f 311/318 305/342 308/315
f 311/318 314/321 305/342
f 317/324 305/342 314/321
f 317/324 320/327 305/342
f 323/330 305/342 320/327
f 323/330 304/312 305/342
usemtl mat_5
f 338/343 334/344 337/345
f 338/343 344/346 334/344
f 329/343 334/344 344/346
f 329/343 328/345 334/344
usemtl mat_6
f 111/347 338/348 118/349
f 111/347 344/350 338/348
f 329/348 344/350 111/347
f 111/347 119/349 329/348
usemtl mat_7
f 356/351 359/352 355/353
f 356/351 358/354 359/352
f 357/355 358/354 356/351
f 362/355 361/352 360/354
f 362/355 366/353 361/352
f 364/351 366/353 362/355
