xof 0303txt 0032

template AnimTicksPerSecond {
  <9E415A43-7BA6-4a73-8743-B73D47E88476>
  DWORD AnimTicksPerSecond;
}

template XSkinMeshHeader {
  <3cf169ce-ff7c-44ab-93c0-f78f62d172e2>
  WORD nMaxSkinWeightsPerVertex;
  WORD nMaxSkinWeightsPerFace;
  WORD nBones;
}

template SkinWeights {
  <6f0d123b-bad2-4167-a0d0-80224f25fabb>
  STRING transformNodeName;
  DWORD nWeights;
  array DWORD vertexIndices[nWeights];
  array float weights[nWeights];
  Matrix4x4 matrixOffset;
}

Frame Root {
  FrameTransformMatrix {
     1.000000, 0.000000, 0.000000, 0.000000,
     0.000000, 0.000000, 1.000000, 0.000000,
     0.000000, 1.000000,-0.000000, 0.000000,
     0.000000, 0.000000, 0.000000, 1.000000;;
  }
  Frame marumine_mat_0 {
    FrameTransformMatrix {
       1.000000, 0.000000, 0.000000, 0.000000,
       0.000000, 1.000000, 0.000000, 0.000000,
       0.000000, 0.000000, 1.000000, 0.000000,
       0.000000, 0.000000, 0.000000, 1.000000;;
    }
    Mesh { //Mesh Mesh
      180;
       2.165060;-2.500000;-3.750000;,
       1.250000;-4.330120;-2.165060;,
       2.500000;-4.330120; 0.000000;,
       2.165060;-2.500000;-3.750000;,
       2.500000;-4.330120; 0.000000;,
       4.330130;-2.500000; 0.000000;,
       2.165060;-2.500000;-3.750000;,
       4.330130;-2.500000; 0.000000;,
       2.500000; 0.000002;-4.330130;,
       4.330130;-2.500000; 0.000000;,
       5.000000; 0.000002; 0.000000;,
       2.500000; 0.000002;-4.330130;,
       2.500000; 0.000002;-4.330130;,
       5.000000; 0.000002; 0.000000;,
       2.165060; 2.500000;-3.750000;,
       5.000000; 0.000002; 0.000000;,
       4.330130; 2.500000; 0.000000;,
       2.165060; 2.500000;-3.750000;,
       2.165060; 2.500000;-3.750000;,
       4.330130; 2.500000; 0.000000;,
       1.250000; 4.330130;-2.165060;,
       4.330130; 2.500000; 0.000000;,
       2.500000; 4.330130; 0.000000;,
       1.250000; 4.330130;-2.165060;,
      -1.250000;-4.330120;-2.165060;,
       1.250000;-4.330120;-2.165060;,
      -2.165060;-2.500000;-3.750000;,
      -2.165060;-2.500000;-3.750000;,
       1.250000;-4.330120;-2.165060;,
       2.165060;-2.500000;-3.750000;,
      -2.165060;-2.500000;-3.750000;,
       2.165060;-2.500000;-3.750000;,
      -2.500000; 0.000002;-4.330130;,
       2.165060;-2.500000;-3.750000;,
       2.500000; 0.000002;-4.330130;,
      -2.500000; 0.000002;-4.330130;,
      -2.500000; 0.000002;-4.330130;,
       2.500000; 0.000002;-4.330130;,
      -2.165060; 2.500000;-3.750000;,
       2.500000; 0.000002;-4.330130;,
       2.165060; 2.500000;-3.750000;,
      -2.165060; 2.500000;-3.750000;,
      -2.165060; 2.500000;-3.750000;,
       2.165060; 2.500000;-3.750000;,
      -1.250000; 4.330130;-2.165060;,
       2.165060; 2.500000;-3.750000;,
       1.250000; 4.330130;-2.165060;,
      -1.250000; 4.330130;-2.165060;,
      -2.500000;-4.330120; 0.000001;,
      -1.250000;-4.330120;-2.165060;,
      -4.330130;-2.500000; 0.000001;,
      -1.250000;-4.330120;-2.165060;,
      -2.165060;-2.500000;-3.750000;,
      -4.330130;-2.500000; 0.000001;,
      -4.330130;-2.500000; 0.000001;,
      -2.165060;-2.500000;-3.750000;,
      -5.000000; 0.000002; 0.000001;,
      -2.165060;-2.500000;-3.750000;,
      -2.500000; 0.000002;-4.330130;,
      -5.000000; 0.000002; 0.000001;,
      -5.000000; 0.000002; 0.000001;,
      -2.500000; 0.000002;-4.330130;,
      -4.330130; 2.500000; 0.000001;,
      -2.500000; 0.000002;-4.330130;,
      -2.165060; 2.500000;-3.750000;,
      -4.330130; 2.500000; 0.000001;,
      -4.330130; 2.500000; 0.000001;,
      -2.165060; 2.500000;-3.750000;,
      -2.500000; 4.330130; 0.000000;,
      -2.165060; 2.500000;-3.750000;,
      -1.250000; 4.330130;-2.165060;,
      -2.500000; 4.330130; 0.000000;,
      -1.250000;-4.330120; 2.165060;,
      -2.500000;-4.330120; 0.000001;,
      -2.165060;-2.500000; 3.750000;,
      -2.500000;-4.330120; 0.000001;,
      -4.330130;-2.500000; 0.000001;,
      -2.165060;-2.500000; 3.750000;,
      -2.165060;-2.500000; 3.750000;,
      -4.330130;-2.500000; 0.000001;,
      -2.500000; 0.000002; 4.330130;,
      -4.330130;-2.500000; 0.000001;,
      -5.000000; 0.000002; 0.000001;,
      -2.500000; 0.000002; 4.330130;,
      -2.500000; 0.000002; 4.330130;,
      -5.000000; 0.000002; 0.000001;,
      -2.165060; 2.500000; 3.750000;,
      -5.000000; 0.000002; 0.000001;,
      -4.330130; 2.500000; 0.000001;,
      -2.165060; 2.500000; 3.750000;,
      -2.165060; 2.500000; 3.750000;,
      -4.330130; 2.500000; 0.000001;,
      -1.250000; 4.330130; 2.165060;,
      -4.330130; 2.500000; 0.000001;,
      -2.500000; 4.330130; 0.000000;,
      -1.250000; 4.330130; 2.165060;,
       1.250000;-4.330120; 2.165060;,
      -1.250000;-4.330120; 2.165060;,
       2.165070;-2.500000; 3.750000;,
      -1.250000;-4.330120; 2.165060;,
      -2.165060;-2.500000; 3.750000;,
       2.165070;-2.500000; 3.750000;,
       2.165070;-2.500000; 3.750000;,
      -2.165060;-2.500000; 3.750000;,
       2.500000; 0.000002; 4.330130;,
      -2.165060;-2.500000; 3.750000;,
      -2.500000; 0.000002; 4.330130;,
       2.500000; 0.000002; 4.330130;,
       2.500000; 0.000002; 4.330130;,
      -2.500000; 0.000002; 4.330130;,
       2.165060; 2.500000; 3.750000;,
      -2.500000; 0.000002; 4.330130;,
      -2.165060; 2.500000; 3.750000;,
       2.165060; 2.500000; 3.750000;,
       2.165060; 2.500000; 3.750000;,
      -2.165060; 2.500000; 3.750000;,
       1.250000; 4.330130; 2.165060;,
      -2.165060; 2.500000; 3.750000;,
      -1.250000; 4.330130; 2.165060;,
       1.250000; 4.330130; 2.165060;,
       4.330130;-2.500000; 0.000000;,
       2.500000;-4.330120; 0.000000;,
       1.250000;-4.330120; 2.165060;,
       1.250000;-4.330120; 2.165060;,
       2.165070;-2.500000; 3.750000;,
       4.330130;-2.500000; 0.000000;,
       4.330130;-2.500000; 0.000000;,
       2.165070;-2.500000; 3.750000;,
       5.000000; 0.000002; 0.000000;,
       2.165070;-2.500000; 3.750000;,
       2.500000; 0.000002; 4.330130;,
       5.000000; 0.000002; 0.000000;,
       5.000000; 0.000002; 0.000000;,
       2.500000; 0.000002; 4.330130;,
       4.330130; 2.500000; 0.000000;,
       2.500000; 0.000002; 4.330130;,
       2.165060; 2.500000; 3.750000;,
       4.330130; 2.500000; 0.000000;,
       4.330130; 2.500000; 0.000000;,
       2.165060; 2.500000; 3.750000;,
       2.500000; 4.330130; 0.000000;,
       2.165060; 2.500000; 3.750000;,
       1.250000; 4.330130; 2.165060;,
       2.500000; 4.330130; 0.000000;,
       0.000000;-5.000000; 0.000000;,
       2.500000;-4.330120; 0.000000;,
       1.250000;-4.330120;-2.165060;,
       0.000000;-5.000000; 0.000000;,
       1.250000;-4.330120; 2.165060;,
       2.500000;-4.330120; 0.000000;,
       1.250000;-4.330120; 2.165060;,
       0.000000;-5.000000; 0.000000;,
      -1.250000;-4.330120; 2.165060;,
       0.000000;-5.000000; 0.000000;,
      -2.500000;-4.330120; 0.000001;,
      -1.250000;-4.330120; 2.165060;,
      -2.500000;-4.330120; 0.000001;,
       0.000000;-5.000000; 0.000000;,
      -1.250000;-4.330120;-2.165060;,
       0.000000;-5.000000; 0.000000;,
       1.250000;-4.330120;-2.165060;,
      -1.250000;-4.330120;-2.165060;,
       2.500000; 4.330130; 0.000000;,
       0.000000; 5.000000; 0.000000;,
       1.250000; 4.330130;-2.165060;,
       0.000000; 5.000000; 0.000000;,
      -1.250000; 4.330130;-2.165060;,
       1.250000; 4.330130;-2.165060;,
      -1.250000; 4.330130;-2.165060;,
       0.000000; 5.000000; 0.000000;,
      -2.500000; 4.330130; 0.000000;,
       0.000000; 5.000000; 0.000000;,
      -1.250000; 4.330130; 2.165060;,
      -2.500000; 4.330130; 0.000000;,
      -1.250000; 4.330130; 2.165060;,
       0.000000; 5.000000; 0.000000;,
       1.250000; 4.330130; 2.165060;,
       0.000000; 5.000000; 0.000000;,
       2.500000; 4.330130; 0.000000;,
       1.250000; 4.330130; 2.165060;;
      60;
      3;0;1;2;,
      3;3;4;5;,
      3;6;7;8;,
      3;9;10;11;,
      3;12;13;14;,
      3;15;16;17;,
      3;18;19;20;,
      3;21;22;23;,
      3;24;25;26;,
      3;27;28;29;,
      3;30;31;32;,
      3;33;34;35;,
      3;36;37;38;,
      3;39;40;41;,
      3;42;43;44;,
      3;45;46;47;,
      3;48;49;50;,
      3;51;52;53;,
      3;54;55;56;,
      3;57;58;59;,
      3;60;61;62;,
      3;63;64;65;,
      3;66;67;68;,
      3;69;70;71;,
      3;72;73;74;,
      3;75;76;77;,
      3;78;79;80;,
      3;81;82;83;,
      3;84;85;86;,
      3;87;88;89;,
      3;90;91;92;,
      3;93;94;95;,
      3;96;97;98;,
      3;99;100;101;,
      3;102;103;104;,
      3;105;106;107;,
      3;108;109;110;,
      3;111;112;113;,
      3;114;115;116;,
      3;117;118;119;,
      3;120;121;122;,
      3;123;124;125;,
      3;126;127;128;,
      3;129;130;131;,
      3;132;133;134;,
      3;135;136;137;,
      3;138;139;140;,
      3;141;142;143;,
      3;144;145;146;,
      3;147;148;149;,
      3;150;151;152;,
      3;153;154;155;,
      3;156;157;158;,
      3;159;160;161;,
      3;162;163;164;,
      3;165;166;167;,
      3;168;169;170;,
      3;171;172;173;,
      3;174;175;176;,
      3;177;178;179;;
      MeshNormals { //Mesh Normals
        180;
        -0.442091; 0.467086; 0.765709;,
        -0.279244; 0.829463; 0.483688;,
        -0.558519; 0.829463;-0.000000;,
        -0.442091; 0.467086; 0.765709;,
        -0.558519; 0.829463;-0.000000;,
        -0.884182; 0.467086;-0.000000;,
        -0.442091; 0.467086; 0.765709;,
        -0.884182; 0.467086;-0.000000;,
        -0.499985;-0.000000; 0.866024;,
        -0.884182; 0.467086;-0.000000;,
        -1.000000;-0.000000;-0.000000;,
        -0.499985;-0.000000; 0.866024;,
        -0.499985;-0.000000; 0.866024;,
        -1.000000;-0.000000;-0.000000;,
        -0.442091;-0.467086; 0.765709;,
        -1.000000;-0.000000;-0.000000;,
        -0.884182;-0.467086;-0.000000;,
        -0.442091;-0.467086; 0.765709;,
        -0.442091;-0.467086; 0.765709;,
        -0.884182;-0.467086;-0.000000;,
        -0.279244;-0.829463; 0.483688;,
        -0.884182;-0.467086;-0.000000;,
        -0.558519;-0.829463;-0.000000;,
        -0.279244;-0.829463; 0.483688;,
         0.279244; 0.829463; 0.483688;,
        -0.279244; 0.829463; 0.483688;,
         0.442091; 0.467086; 0.765709;,
         0.442091; 0.467086; 0.765709;,
        -0.279244; 0.829463; 0.483688;,
        -0.442091; 0.467086; 0.765709;,
         0.442091; 0.467086; 0.765709;,
        -0.442091; 0.467086; 0.765709;,
         0.499985;-0.000000; 0.866024;,
        -0.442091; 0.467086; 0.765709;,
        -0.499985;-0.000000; 0.866024;,
         0.499985;-0.000000; 0.866024;,
         0.499985;-0.000000; 0.866024;,
        -0.499985;-0.000000; 0.866024;,
         0.442091;-0.467086; 0.765709;,
        -0.499985;-0.000000; 0.866024;,
        -0.442091;-0.467086; 0.765709;,
         0.442091;-0.467086; 0.765709;,
         0.442091;-0.467086; 0.765709;,
        -0.442091;-0.467086; 0.765709;,
         0.279244;-0.829463; 0.483688;,
        -0.442091;-0.467086; 0.765709;,
        -0.279244;-0.829463; 0.483688;,
         0.279244;-0.829463; 0.483688;,
         0.558519; 0.829463;-0.000000;,
         0.279244; 0.829463; 0.483688;,
         0.884182; 0.467086;-0.000000;,
         0.279244; 0.829463; 0.483688;,
         0.442091; 0.467086; 0.765709;,
         0.884182; 0.467086;-0.000000;,
         0.884182; 0.467086;-0.000000;,
         0.442091; 0.467086; 0.765709;,
         0.999969;-0.000000;-0.000000;,
         0.442091; 0.467086; 0.765709;,
         0.499985;-0.000000; 0.866024;,
         0.999969;-0.000000;-0.000000;,
         0.999969;-0.000000;-0.000000;,
         0.499985;-0.000000; 0.866024;,
         0.884182;-0.467086;-0.000000;,
         0.499985;-0.000000; 0.866024;,
         0.442091;-0.467086; 0.765709;,
         0.884182;-0.467086;-0.000000;,
         0.884182;-0.467086;-0.000000;,
         0.442091;-0.467086; 0.765709;,
         0.558519;-0.829463;-0.000000;,
         0.442091;-0.467086; 0.765709;,
         0.279244;-0.829463; 0.483688;,
         0.558519;-0.829463;-0.000000;,
         0.279244; 0.829463;-0.483688;,
         0.558519; 0.829463;-0.000000;,
         0.442091; 0.467086;-0.765709;,
         0.558519; 0.829463;-0.000000;,
         0.884182; 0.467086;-0.000000;,
         0.442091; 0.467086;-0.765709;,
         0.442091; 0.467086;-0.765709;,
         0.884182; 0.467086;-0.000000;,
         0.499985;-0.000000;-0.866024;,
         0.884182; 0.467086;-0.000000;,
         0.999969;-0.000000;-0.000000;,
         0.499985;-0.000000;-0.866024;,
         0.499985;-0.000000;-0.866024;,
         0.999969;-0.000000;-0.000000;,
         0.442091;-0.467086;-0.765709;,
         0.999969;-0.000000;-0.000000;,
         0.884182;-0.467086;-0.000000;,
         0.442091;-0.467086;-0.765709;,
         0.442091;-0.467086;-0.765709;,
         0.884182;-0.467086;-0.000000;,
         0.279244;-0.829463;-0.483688;,
         0.884182;-0.467086;-0.000000;,
         0.558519;-0.829463;-0.000000;,
         0.279244;-0.829463;-0.483688;,
        -0.279244; 0.829463;-0.483688;,
         0.279244; 0.829463;-0.483688;,
        -0.442091; 0.467086;-0.765709;,
         0.279244; 0.829463;-0.483688;,
         0.442091; 0.467086;-0.765709;,
        -0.442091; 0.467086;-0.765709;,
        -0.442091; 0.467086;-0.765709;,
         0.442091; 0.467086;-0.765709;,
        -0.499985;-0.000000;-0.866024;,
         0.442091; 0.467086;-0.765709;,
         0.499985;-0.000000;-0.866024;,
        -0.499985;-0.000000;-0.866024;,
        -0.499985;-0.000000;-0.866024;,
         0.499985;-0.000000;-0.866024;,
        -0.442091;-0.467086;-0.765709;,
         0.499985;-0.000000;-0.866024;,
         0.442091;-0.467086;-0.765709;,
        -0.442091;-0.467086;-0.765709;,
        -0.442091;-0.467086;-0.765709;,
         0.442091;-0.467086;-0.765709;,
        -0.279244;-0.829463;-0.483688;,
         0.442091;-0.467086;-0.765709;,
         0.279244;-0.829463;-0.483688;,
        -0.279244;-0.829463;-0.483688;,
        -0.884182; 0.467086;-0.000000;,
        -0.558519; 0.829463;-0.000000;,
        -0.279244; 0.829463;-0.483688;,
        -0.279244; 0.829463;-0.483688;,
        -0.442091; 0.467086;-0.765709;,
        -0.884182; 0.467086;-0.000000;,
        -0.884182; 0.467086;-0.000000;,
        -0.442091; 0.467086;-0.765709;,
        -1.000000;-0.000000;-0.000000;,
        -0.442091; 0.467086;-0.765709;,
        -0.499985;-0.000000;-0.866024;,
        -1.000000;-0.000000;-0.000000;,
        -1.000000;-0.000000;-0.000000;,
        -0.499985;-0.000000;-0.866024;,
        -0.884182;-0.467086;-0.000000;,
        -0.499985;-0.000000;-0.866024;,
        -0.442091;-0.467086;-0.765709;,
        -0.884182;-0.467086;-0.000000;,
        -0.884182;-0.467086;-0.000000;,
        -0.442091;-0.467086;-0.765709;,
        -0.558519;-0.829463;-0.000000;,
        -0.442091;-0.467086;-0.765709;,
        -0.279244;-0.829463;-0.483688;,
        -0.558519;-0.829463;-0.000000;,
        -0.000000; 0.999969;-0.000000;,
        -0.558519; 0.829463;-0.000000;,
        -0.279244; 0.829463; 0.483688;,
        -0.000000; 0.999969;-0.000000;,
        -0.279244; 0.829463;-0.483688;,
        -0.558519; 0.829463;-0.000000;,
        -0.279244; 0.829463;-0.483688;,
        -0.000000; 0.999969;-0.000000;,
         0.279244; 0.829463;-0.483688;,
        -0.000000; 0.999969;-0.000000;,
         0.558519; 0.829463;-0.000000;,
         0.279244; 0.829463;-0.483688;,
         0.558519; 0.829463;-0.000000;,
        -0.000000; 0.999969;-0.000000;,
         0.279244; 0.829463; 0.483688;,
        -0.000000; 0.999969;-0.000000;,
        -0.279244; 0.829463; 0.483688;,
         0.279244; 0.829463; 0.483688;,
        -0.558519;-0.829463;-0.000000;,
        -0.000000;-1.000000;-0.000000;,
        -0.279244;-0.829463; 0.483688;,
        -0.000000;-1.000000;-0.000000;,
         0.279244;-0.829463; 0.483688;,
        -0.279244;-0.829463; 0.483688;,
         0.279244;-0.829463; 0.483688;,
        -0.000000;-1.000000;-0.000000;,
         0.558519;-0.829463;-0.000000;,
        -0.000000;-1.000000;-0.000000;,
         0.279244;-0.829463;-0.483688;,
         0.558519;-0.829463;-0.000000;,
         0.279244;-0.829463;-0.483688;,
        -0.000000;-1.000000;-0.000000;,
        -0.279244;-0.829463;-0.483688;,
        -0.000000;-1.000000;-0.000000;,
        -0.558519;-0.829463;-0.000000;,
        -0.279244;-0.829463;-0.483688;;
        60;
        3;0;1;2;,
        3;3;4;5;,
        3;6;7;8;,
        3;9;10;11;,
        3;12;13;14;,
        3;15;16;17;,
        3;18;19;20;,
        3;21;22;23;,
        3;24;25;26;,
        3;27;28;29;,
        3;30;31;32;,
        3;33;34;35;,
        3;36;37;38;,
        3;39;40;41;,
        3;42;43;44;,
        3;45;46;47;,
        3;48;49;50;,
        3;51;52;53;,
        3;54;55;56;,
        3;57;58;59;,
        3;60;61;62;,
        3;63;64;65;,
        3;66;67;68;,
        3;69;70;71;,
        3;72;73;74;,
        3;75;76;77;,
        3;78;79;80;,
        3;81;82;83;,
        3;84;85;86;,
        3;87;88;89;,
        3;90;91;92;,
        3;93;94;95;,
        3;96;97;98;,
        3;99;100;101;,
        3;102;103;104;,
        3;105;106;107;,
        3;108;109;110;,
        3;111;112;113;,
        3;114;115;116;,
        3;117;118;119;,
        3;120;121;122;,
        3;123;124;125;,
        3;126;127;128;,
        3;129;130;131;,
        3;132;133;134;,
        3;135;136;137;,
        3;138;139;140;,
        3;141;142;143;,
        3;144;145;146;,
        3;147;148;149;,
        3;150;151;152;,
        3;153;154;155;,
        3;156;157;158;,
        3;159;160;161;,
        3;162;163;164;,
        3;165;166;167;,
        3;168;169;170;,
        3;171;172;173;,
        3;174;175;176;,
        3;177;178;179;;
      } //End of Mesh Normals
      MeshMaterialList { //Mesh Material List
        1;
        60;
        0,
        0,
        0,
        0,
        0,
        0,
        0,
        0,
        0,
        0,
        0,
        0,
        0,
        0,
        0,
        0,
        0,
        0,
        0,
        0,
        0,
        0,
        0,
        0,
        0,
        0,
        0,
        0,
        0,
        0,
        0,
        0,
        0,
        0,
        0,
        0,
        0,
        0,
        0,
        0,
        0,
        0,
        0,
        0,
        0,
        0,
        0,
        0,
        0,
        0,
        0,
        0,
        0,
        0,
        0,
        0,
        0,
        0,
        0,
        0;;
        Material mat_0 {
           0.640000; 0.640000; 0.640000; 1.000000;;
           92.156863;
           0.250000; 0.250000; 0.250000;;
           0.000000; 0.000000; 0.000000;;
          TextureFilename {"Textures/marumine_0_0.tga";}
        }
      } //End of Mesh Material List
      MeshTextureCoords { //Mesh UV Coordinates
        180;
         0.642662; 1.026964;,
         0.785323; 1.128286;,
         0.747097; 0.687246;,
         0.747097; 0.687246;,
         0.785323; 1.128286;,
         0.994194; 0.862741;,
         0.747097; 0.687246;,
         0.994194; 0.862741;,
         0.785323; 0.297356;,
         0.994194; 0.862741;,
         1.070650; 0.500000;,
         0.785323; 0.297356;,
         0.785323; 0.297356;,
         1.070650; 0.500000;,
         0.747097;-0.038240;,
         1.070650; 0.500000;,
         0.994194; 0.137259;,
         0.747097;-0.038240;,
         0.747097;-0.038240;,
         0.994194; 0.137259;,
         0.642662;-0.229610;,
         0.994194; 0.137259;,
         0.785323;-0.128290;,
         0.642662;-0.229610;,
         0.357338; 1.026964;,
         0.642662; 1.026964;,
         0.252903; 0.687246;,
         0.642662; 1.026964;,
         0.747097; 0.687246;,
         0.252903; 0.687246;,
         0.252903; 0.687246;,
         0.747097; 0.687246;,
         0.214677; 0.297356;,
         0.747097; 0.687246;,
         0.785323; 0.297356;,
         0.214677; 0.297356;,
         0.214677; 0.297356;,
         0.785323; 0.297356;,
         0.252903;-0.038240;,
         0.785323; 0.297356;,
         0.747097;-0.038240;,
         0.252903;-0.038240;,
         0.252903;-0.038240;,
         0.747097;-0.038240;,
         0.357338;-0.229610;,
         0.747097;-0.038240;,
         0.642662;-0.229610;,
         0.357338;-0.229610;,
         0.214677; 1.128286;,
         0.357338; 1.026964;,
         0.005806; 0.862741;,
         0.357338; 1.026964;,
         0.252903; 0.687246;,
         0.005806; 0.862741;,
         0.005806; 0.862741;,
         0.252903; 0.687246;,
        -0.070646; 0.500000;,
         0.252903; 0.687246;,
         0.214677; 0.297356;,
        -0.070646; 0.500000;,
        -0.070646; 0.500000;,
         0.214677; 0.297356;,
         0.005806; 0.137259;,
         0.214677; 0.297356;,
         0.252903;-0.038240;,
         0.005806; 0.137259;,
         0.005806; 0.137259;,
         0.252903;-0.038240;,
         0.214677;-0.128290;,
         0.252903;-0.038240;,
         0.357338;-0.229610;,
         0.214677;-0.128290;,
         0.357339; 1.229607;,
         0.214677; 1.128286;,
         0.252903; 1.038236;,
         0.214677; 1.128286;,
         0.005806; 0.862741;,
         0.252903; 1.038236;,
         0.252903; 1.038236;,
         0.005806; 0.862741;,
         0.214677; 0.702644;,
         0.005806; 0.862741;,
        -0.070646; 0.500000;,
         0.214677; 0.702644;,
         0.214677; 0.702644;,
        -0.070646; 0.500000;,
         0.252903; 0.312754;,
        -0.070646; 0.500000;,
         0.005806; 0.137259;,
         0.252903; 0.312754;,
         0.252903; 0.312754;,
         0.005806; 0.137259;,
         0.357339;-0.026960;,
         0.005806; 0.137259;,
         0.214677;-0.128290;,
         0.357339;-0.026960;,
         0.642662; 1.229607;,
         0.357339; 1.229607;,
         0.747097; 1.038236;,
         0.357339; 1.229607;,
         0.252903; 1.038236;,
         0.747097; 1.038236;,
         0.747097; 1.038236;,
         0.252903; 1.038236;,
         0.785323; 0.702644;,
         0.252903; 1.038236;,
         0.214677; 0.702644;,
         0.785323; 0.702644;,
         0.785323; 0.702644;,
         0.214677; 0.702644;,
         0.747097; 0.312754;,
         0.214677; 0.702644;,
         0.252903; 0.312754;,
         0.747097; 0.312754;,
         0.747097; 0.312754;,
         0.252903; 0.312754;,
         0.642662;-0.026960;,
         0.252903; 0.312754;,
         0.357339;-0.026960;,
         0.642662;-0.026960;,
         0.994194; 0.862741;,
         0.785323; 1.128286;,
         0.642662; 1.229607;,
         0.642662; 1.229607;,
         0.747097; 1.038236;,
         0.994194; 0.862741;,
         0.994194; 0.862741;,
         0.747097; 1.038236;,
         1.070650; 0.500000;,
         0.747097; 1.038236;,
         0.785323; 0.702644;,
         1.070650; 0.500000;,
         1.070650; 0.500000;,
         0.785323; 0.702644;,
         0.994194; 0.137259;,
         0.785323; 0.702644;,
         0.747097; 0.312754;,
         0.994194; 0.137259;,
         0.994194; 0.137259;,
         0.747097; 0.312754;,
         0.785323;-0.128290;,
         0.747097; 0.312754;,
         0.642662;-0.026960;,
         0.785323;-0.128290;,
         0.785323; 1.128286;,
         0.642662; 1.026964;,
         0.500000; 1.225482;,
         0.500000; 1.225482;,
         0.642662; 1.229607;,
         0.785323; 1.128286;,
         0.642662; 1.229607;,
         0.500000; 1.225482;,
         0.357339; 1.229607;,
         0.500000; 1.225482;,
         0.214677; 1.128286;,
         0.357339; 1.229607;,
         0.214677; 1.128286;,
         0.500000; 1.225482;,
         0.357338; 1.026964;,
         0.500000; 1.225482;,
         0.642662; 1.026964;,
         0.357338; 1.026964;,
         0.785323;-0.128290;,
         0.500000;-0.225480;,
         0.642662;-0.229610;,
         0.500000;-0.225480;,
         0.357338;-0.229610;,
         0.642662;-0.229610;,
         0.357338;-0.229610;,
         0.500000;-0.225480;,
         0.214677;-0.128290;,
         0.500000;-0.225480;,
         0.357339;-0.026960;,
         0.214677;-0.128290;,
         0.357339;-0.026960;,
         0.500000;-0.225480;,
         0.642662;-0.026960;,
         0.500000;-0.225480;,
         0.785323;-0.128290;,
         0.642662;-0.026960;;
      } //End of Mesh UV Coordinates
    } //End of Mesh Mesh
  } //End of marumine_mat_0
} //End of Root Frame
