# Blender v2.66 (sub 1) OBJ File: 'BR_Corphish.blend'
# www.blender.org
mtllib BR_Corphish.mtl
o heigani
v -0.390112 -0.862811 -0.814769
v -0.398991 -0.214277 -0.896234
v -1.051530 -0.384367 -1.197412
v -1.024050 -0.955125 -1.146587
v -1.228680 -1.076130 -1.507082
v -0.989059 -1.684100 -1.214097
v -0.698836 -1.695180 -1.809941
v -1.295940 -0.627222 -1.683087
v 1.228670 -1.076130 -1.507082
v 1.024410 -0.955125 -1.146587
v 0.989133 -1.684100 -1.214097
v -0.305009 -1.635980 -0.908278
v 0.305087 -1.635980 -0.908279
v 0.390473 -0.862811 -0.814769
v 0.399708 -0.214277 -0.896234
v 0.682447 -0.667183 -2.443923
v 1.353520 -0.223342 -1.817835
v 1.296660 -0.627222 -1.683087
v 1.089910 0.195836 -1.354034
v 1.052250 -0.384367 -1.197412
v -1.089180 0.195836 -1.354034
v -1.352790 -0.223342 -1.817835
v -0.412901 0.383724 -1.084096
v 0.413637 0.383724 -1.084096
v -0.681997 -0.667183 -2.443923
v -1.074440 0.099788 -2.082760
v 0.698845 -1.695180 -1.809941
v 0.364932 -1.866520 -2.388254
v 0.773676 -1.721510 -1.593684
v -0.714034 -1.717810 -1.593684
v 1.033750 -1.741410 -1.602922
v 0.844788 -1.800270 -2.008882
v 1.081160 -1.192830 -2.087290
v 1.238400 -1.154350 -1.667761
v 1.393230 -0.402192 -1.941964
v 1.074330 -0.782802 -2.437885
v -1.279000 -0.352610 -1.926944
v -1.392780 -0.402182 -1.941965
v -1.238400 -1.154350 -1.667761
v -1.081160 -1.192830 -2.087291
v 0.416813 -1.005590 -2.818490
v -1.073590 -0.782801 -2.437886
v -0.416047 -1.005590 -2.818490
v 0.851675 -0.651174 -2.323073
v 0.000382 -0.903204 -2.664310
v 1.279420 -0.352610 -1.926944
v -1.033660 -1.741410 -1.602922
v -0.851083 -0.651174 -2.323073
v -0.364855 -1.866520 -2.388254
v -0.844719 -1.800270 -2.008882
v -0.450754 -0.989060 -2.836730
v -1.220890 -0.682742 -2.320881
v 0.451609 -0.989060 -2.836730
v -1.487220 -0.327556 -1.875824
v -1.271730 -0.001750 -1.510300
v 1.221750 -0.682742 -2.320881
v 1.510630 -0.327556 -1.875823
v 1.000830 -0.340051 -1.708462
v 1.297830 -0.001750 -1.510300
v -0.996034 -0.340051 -1.708462
v 0.000074 -2.234660 -1.135679
v -0.750788 -2.522630 -1.514612
v 0.750788 -2.522630 -1.514613
v 0.000000 -2.555730 -1.616526
v 0.000037 -2.559150 -1.390359
v 0.530887 -2.567050 -1.804647
v 0.000000 -2.594560 -1.988108
v 0.750788 -2.522630 -1.514613
v 0.000000 -2.555730 -1.616526
v -0.750788 -2.522630 -1.514613
v -0.530887 -2.567050 -1.804646
v 0.684576 1.615310 -2.881620
v 1.005290 1.268520 -3.056490
v 0.579054 1.663890 -3.573270
v 0.856494 1.273150 -2.264776
v 1.015320 0.762869 -2.606460
v -0.000022 1.450160 -2.093431
v -0.684587 1.615310 -2.881620
v -0.856540 1.273150 -2.264776
v 0.000036 1.811900 -3.989840
v -0.579026 1.663890 -3.573270
v 0.000015 1.902760 -3.384900
v -1.005280 1.268520 -3.056490
v -1.015350 0.762869 -2.606460
v -0.000009 1.759960 -2.763090
v 1.079050 -0.028333 -3.413420
v 1.352900 0.594650 -3.177550
v 0.420753 1.384900 -4.794190
v 0.310233 1.003600 -5.064590
v 0.232688 1.272970 -5.047150
v 0.406061 -0.462376 -3.747940
v 1.100900 0.862743 -3.921670
v 0.908181 1.379940 -3.784670
v 1.062940 1.289500 -3.059020
v -0.406012 -0.462376 -3.747940
v -0.331163 -0.019754 -4.378770
v 0.331259 -0.019754 -4.378770
v 0.567976 1.700840 -3.636570
v 0.572386 1.444110 -4.462340
v 0.738183 1.616230 -2.905050
v -1.079010 -0.028333 -3.413420
v 0.979908 1.278040 -2.405225
v 1.165360 1.130570 -2.509988
v -1.352870 0.594650 -3.177550
v -1.165360 1.130570 -2.509988
v -0.785023 1.100890 -4.619370
v -1.100830 0.862743 -3.921670
v -0.908121 1.379940 -3.784670
v -0.572280 1.444110 -4.462340
v -0.420615 1.384900 -4.794190
v 0.000048 1.828870 -4.335050
v -0.203065 1.435980 -4.843740
v 0.000025 1.928600 -3.690770
v 0.442186 1.825390 -3.331440
v -0.000736 1.398650 -3.628700
v -0.738158 1.616230 -2.905050
v -0.979911 1.278040 -2.405225
v -0.679780 0.747823 -2.654790
v 0.703446 0.756280 -2.670540
v -1.062920 1.289500 -3.059020
v -0.567894 1.700840 -3.636570
v -0.442141 1.825390 -3.331440
v 0.876140 0.354765 -4.155570
v -0.876051 0.354765 -4.155570
v 0.785142 1.100890 -4.619370
v 0.684708 0.887802 -4.818570
v 0.000061 0.511678 -4.933680
v 0.469246 0.638545 -4.956620
v -0.684568 0.887802 -4.818570
v -0.469130 0.638545 -4.956620
v -0.310128 1.003600 -5.064590
v 0.000052 0.909785 -5.064590
v 0.000052 1.631210 -5.093470
v -0.232583 1.272970 -5.047150
v 0.815798 1.184360 -4.486870
v 0.967814 1.177390 -4.152970
v 0.518754 1.273890 -4.080290
v 0.853978 1.622370 -4.225640
v 0.587963 1.345830 -4.625180
v 0.417771 1.567230 -4.486870
v 0.404918 1.718860 -4.152970
v 0.556935 1.711900 -3.819060
v 0.784770 1.550430 -3.680750
v 0.954962 1.329030 -3.819060
v -0.518755 1.273890 -4.080290
v -0.967815 1.177390 -4.152970
v -0.815798 1.184360 -4.486870
v -0.853979 1.622370 -4.225640
v -0.587963 1.345830 -4.625180
v -0.417771 1.567230 -4.486870
v -0.404919 1.718860 -4.152970
v -0.556935 1.711900 -3.819060
v -0.784771 1.550430 -3.680750
v -0.954963 1.329030 -3.819060
v 0.203239 1.435980 -4.843740
v 0.415726 0.878573 -1.411961
v 1.105650 0.672653 -1.626967
v 1.075020 0.099788 -2.082760
v -1.104900 0.672653 -1.626967
v -0.414983 0.878573 -1.411961
v 1.233210 -0.378420 -2.762370
v 1.501490 0.130417 -2.339731
v 0.459746 -0.809875 -3.118860
v -0.459762 -0.809875 -3.118860
v -1.232790 -0.378420 -2.762370
v 1.201580 0.893720 -2.046484
v -1.501070 0.130417 -2.339731
v -1.201590 0.893720 -2.046484
v -1.239500 0.532579 -1.820623
v 1.240320 0.532579 -1.820623
v 1.033430 -3.135130 -1.275476
v 0.645537 -3.880390 -1.758171
v 1.164450 -3.787850 -1.179475
v 0.572907 -3.188470 -1.878012
v 0.000000 -3.150990 -1.871466
v 0.000000 -3.926090 -1.960700
v 0.000000 -3.203810 -2.127590
v -1.033430 -3.135130 -1.275475
v -0.572907 -3.188470 -1.878011
v -0.645538 -3.880390 -1.758171
v -1.164450 -3.787850 -1.179475
v -1.036640 1.252150 -5.964670
v 1.036930 1.252150 -5.964670
v 0.000067 1.560370 -6.193950
vt 0.307993 0.899441
vt 0.415329 0.233712
vt 0.430743 0.810481
vt 0.258036 0.391072
vt 0.262017 0.964354
vt 0.186116 0.499582
vt 0.420613 -0.196678
vt 0.500041 -0.362845
vt 0.579450 -0.196678
vt 0.304556 -0.340171
vt 0.242523 -0.077035
vt 0.600405 0.233712
vt 0.757540 -0.077035
vt 0.743724 0.391072
vt 0.695487 -0.340171
vt 0.580987 0.810481
vt 0.703737 0.899441
vt 0.815015 0.499582
vt 0.749713 0.964354
vt 0.702773 0.296385
vt 0.820340 0.057058
vt 0.802209 0.304215
vt 0.760020 -0.033630
vt 0.589542 0.257895
vt 0.608243 -0.077552
vt 0.418793 0.257895
vt 0.392596 -0.077552
vt 0.311524 0.296385
vt 0.240819 -0.033630
vt 0.213100 0.304215
vt 0.180499 0.057058
vt 0.679172 0.985313
vt 0.742451 0.637501
vt 0.607491 0.893370
vt 0.392406 0.893370
vt 0.310473 0.985313
vt 0.247889 0.625458
vt 0.152344 0.128906
vt 0.229580 1.324610
vt 0.857422 0.156250
vt 0.807230 1.324610
vt 0.888666 0.298667
vt 0.144723 0.298667
vt 0.500022 -0.318270
vt 0.500031 -0.394266
vt 0.179315 0.336754
vt 0.111979 0.322917
vt 0.161458 0.000000
vt 0.321620 -0.000959
vt 0.846354 -0.002604
vt 0.880208 0.335938
vt 0.804767 0.336754
vt 0.706324 -0.000959
vt 0.995627 0.618018
vt 0.829652 0.649457
vt 0.919761 0.981495
vt 0.499869 0.957408
vt 0.499884 1.203870
vt 0.079976 0.981495
vt 0.154443 0.649457
vt 0.499858 0.606183
vt 0.499854 0.279143
vt 0.588542 0.000000
vt 0.437500 0.000000
vt 0.004103 0.618018
vt 0.196855 0.580260
vt 0.238408 0.955066
vt 0.317338 0.948583
vt 0.092230 0.659339
vt 0.104899 0.320030
vt 0.047424 0.373438
vt 0.364802 0.502768
vt 0.414063 0.046875
vt 0.619706 0.502768
vt 0.575521 0.044271
vt 0.803281 0.580260
vt 0.895260 0.320029
vt 0.892274 0.659338
vt 0.952734 0.373437
vt 0.698448 0.948583
vt 0.777378 0.955066
vt 0.018229 0.273438
vt 0.177083 0.158854
vt 0.507893 0.928217
vt 0.973958 0.270833
vt 0.833333 0.171875
vt 0.040839 2.230360
vt 0.047266 1.757390
vt 0.243627 1.408980
vt 0.000000 2.217830
vt 0.194435 2.009020
vt 0.114570 1.987140
vt 0.500057 1.872650
vt 0.350585 1.809340
vt 0.805617 2.009020
vt 0.649529 1.809340
vt 0.885536 1.987140
vt 0.959150 2.230360
vt 1.000000 2.217820
vt 0.777620 1.406690
vt 0.952576 1.757390
vt 0.506648 1.001380
vt 0.946207 0.674820
vt 0.885417 1.000000
vt 0.499856 0.664863
vt 0.111979 1.002600
vt 0.053504 0.674820
vt 0.257496 0.998753
vt 0.252411 0.641327
vt 0.503235 1.001380
vt 0.499856 0.631689
vt 0.738736 1.001380
vt 0.747301 0.641327
vt -0.003906 0.058594
vt 0.214844 0.023438
vt 0.499856 0.003636
vt 0.777344 0.027344
vt 0.980469 0.070313
vt 0.870970 1.394390
vt 0.128901 1.394390
vt 0.901447 -0.012079
vt 0.940567 0.237394
vt 0.989137 -0.045321
vt 0.851059 0.316988
vt 0.633017 0.014467
vt 0.631095 0.429869
vt 0.332476 0.014467
vt 0.365669 0.429869
vt 0.095436 -0.012079
vt 0.145701 0.316988
vt 0.007749 -0.045321
vt 0.056189 0.237394
vt 0.822914 0.438831
vt 0.973303 0.169112
vt 0.888086 0.499694
vt 0.875250 0.116454
vt 0.707867 0.373038
vt 0.765426 0.048054
vt 0.606646 0.642739
vt 0.390133 0.642739
vt 0.784740 0.567421
vt 0.858203 0.488492
vt 0.909885 -0.127456
vt 0.847170 -0.173998
vt 0.922132 -0.333372
vt 0.121704 -0.127456
vt 0.058295 0.169112
vt 0.008178 -0.203095
vt 0.109453 -0.333372
vt 1.023550 -0.203095
vt 0.143529 0.499694
vt 0.340625 0.643750
vt 0.250324 0.809654
vt 0.208696 0.438831
vt 0.156348 0.116454
vt 0.323750 0.373038
vt 0.266172 0.048054
vt 0.184419 -0.173998
vt 0.212037 0.567421
vt 0.138569 0.488492
vt 0.781306 0.809654
vt 0.668750 0.646875
vt 0.096634 -0.433712
vt 0.935232 -0.433712
vt 0.515625 0.768750
vt 0.658081 0.887320
vt 0.555054 0.884224
vt 0.594483 0.999698
vt 0.728253 0.920878
vt 0.366276 0.237482
vt 0.515803 0.397116
vt 0.373555 0.887320
vt 0.303380 0.920878
vt 0.665329 0.237482
vt 0.476384 0.884224
vt 0.437142 0.999698
vt 0.241789 0.723927
vt 0.293069 0.808409
vt 0.345039 0.841286
vt 0.498394 0.817494
vt 0.651747 0.841286
vt 0.703720 0.808409
vt 0.754997 0.723927
vt 0.599773 0.874163
vt 0.498391 0.874163
vt 0.397009 0.874163
vt 0.289849 0.037368
vt 0.358752 0.023283
vt 0.475446 0.558036
vt 0.395438 0.073703
vt 0.500495 0.092759
vt 0.506696 0.558036
vt 0.421186 0.070451
vt 0.575674 0.070451
vt 0.601421 0.073703
vt 0.638118 0.023283
vt 0.498430 0.073703
vt 0.342644 0.055535
vt 0.537946 0.558036
vt 0.707018 0.037368
vt 0.654220 0.055535
vt 0.459807 0.004059
vt 0.498428 -0.062333
vt 0.537051 0.004059
vt 0.967014 0.083333
vt 0.120102 0.094474
vt 0.116319 0.989583
vt 0.970714 0.991964
vt 0.994815 0.935577
vt 0.994792 0.083333
vt 0.097222 0.100694
vt 0.095754 0.966827
vt 0.128472 -0.003472
vt 0.126736 0.100694
vt 0.970486 0.152778
vt 0.970486 -0.010417
vt 0.121528 0.090278
vt 0.549479 -0.006944
vt 0.973958 0.086806
vt 0.225694 1.003470
vt 0.201389 0.086806
vt 0.253472 -0.003472
vt 0.000000 0.125914
vt 0.107292 0.000001
vt 0.028168 0.242865
vt 0.027295 0.281394
vt 0.113567 0.299170
vt 0.207650 0.296057
vt 0.322852 0.297018
vt 0.500000 0.006944
vt 0.494931 0.312500
vt 0.667007 0.297018
vt 0.730903 0.010417
vt 0.782201 0.296057
vt 0.876273 0.299170
vt 0.962541 0.281394
vt 0.993242 0.242865
vt 1.000000 0.125914
vt 0.884417 0.000001
vt 1.000000 0.833333
vt 0.500000 0.833333
vt 0.853553 0.951184
vt 0.853553 0.715482
vt 0.500000 0.666667
vt 0.146447 0.715482
vt 0.000000 0.833333
vt 0.146447 0.951184
vt 0.500000 1.000000
usemtl mat_0
s 1
f 3/1 1/2 2/3
f 4/1 1/4 3/2
f 8/5 4/4 3/1
f 8/5 5/6 4/4
f 12/7 61/8 13/9
f 12/7 62/10 61/8
f 12/7 6/11 62/10
f 1/2 6/11 12/7
f 1/2 4/4 6/11
f 13/9 1/2 12/7
f 14/9 1/12 13/2
f 11/13 14/12 13/9
f 11/13 10/14 14/12
f 13/9 61/8 63/15
f 11/13 13/9 63/15
f 2/12 1/3 14/2
f 14/12 15/16 2/3
f 10/14 15/16 14/12
f 10/14 20/17 15/16
f 9/18 20/17 10/14
f 9/18 18/19 20/17
f 19/20 18/21 17/22
f 19/20 20/23 18/21
f 24/24 20/23 19/20
f 24/24 15/25 20/23
f 23/26 15/25 24/24
f 23/26 2/27 15/25
f 21/28 2/27 23/26
f 21/28 3/29 2/27
f 22/30 3/29 21/28
f 22/30 8/31 3/29
f 157/32 17/22 158/33
f 157/32 19/20 17/22
f 156/34 19/20 157/32
f 156/34 24/24 19/20
f 160/35 24/24 156/34
f 160/35 23/26 24/24
f 159/36 23/26 160/35
f 159/36 21/28 23/26
f 26/37 21/28 159/36
f 26/37 22/30 21/28
f 5/6 6/11 4/4
f 5/6 7/38 6/11
f 8/5 7/38 5/6
f 8/5 25/39 7/38
f 7/38 62/10 6/11
f 11/13 9/18 10/14
f 11/13 27/40 9/18
f 63/15 27/40 11/13
f 27/40 18/19 9/18
f 27/40 16/41 18/19
f 16/42 17/22 18/21
f 16/42 158/33 17/22
f 25/43 22/30 26/37
f 25/43 8/31 22/30
f 64/44 65/45 62/10
f 64/44 63/15 65/45
f 61/8 65/45 63/15
f 61/8 62/10 65/45
usemtl mat_1
f 79/46 84/47 26/48
f 159/49 79/46 26/48
f 158/50 76/51 75/52
f 157/53 158/50 75/52
f 73/54 75/52 76/51
f 73/54 72/55 75/52
f 74/56 72/55 73/54
f 74/56 82/57 72/55
f 80/58 82/57 74/56
f 80/58 81/59 82/57
f 78/60 82/57 81/59
f 78/60 85/61 82/57
f 77/62 85/61 78/60
f 77/62 72/55 85/61
f 75/52 72/55 77/62
f 77/62 156/63 75/52
f 160/64 156/63 77/62
f 77/62 79/46 160/64
f 78/60 79/46 77/62
f 78/60 83/65 79/46
f 81/59 83/65 78/60
f 156/63 157/53 75/52
f 83/65 84/47 79/46
f 79/46 159/49 160/64
f 82/57 85/61 72/55
usemtl mat_2
f 32/66 68/67 66/68
f 32/66 31/69 68/67
f 33/70 31/69 32/66
f 33/70 34/71 31/69
f 28/72 33/70 32/66
f 28/72 41/73 33/70
f 49/74 41/73 28/72
f 49/74 43/75 41/73
f 50/76 43/75 49/74
f 50/76 40/77 43/75
f 47/78 40/77 50/76
f 47/78 39/79 40/77
f 71/80 70/81 47/78
f 50/76 71/80 47/78
f 33/70 35/82 34/71
f 33/70 36/83 35/82
f 41/73 36/83 33/70
f 66/68 28/72 32/66
f 66/68 67/84 28/72
f 49/74 28/72 67/84
f 67/84 71/80 49/74
f 50/76 49/74 71/80
f 38/85 40/77 39/79
f 38/85 42/86 40/77
f 43/75 40/77 42/86
usemtl mat_3
f 37/87 39/88 30/89
f 37/87 38/90 39/88
f 48/91 38/90 37/87
f 48/91 42/92 38/90
f 45/93 42/92 48/91
f 45/93 43/94 42/92
f 44/95 41/96 45/93
f 44/95 36/97 41/96
f 46/98 36/97 44/95
f 46/98 35/99 36/97
f 29/100 35/99 46/98
f 29/100 34/101 35/99
f 69/102 171/103 68/104
f 69/102 175/105 171/103
f 70/106 175/105 69/102
f 70/106 178/107 175/105
f 71/108 178/107 70/106
f 71/108 179/109 178/107
f 67/110 179/109 71/108
f 67/110 177/111 179/109
f 66/112 177/111 67/110
f 66/112 174/113 177/111
f 68/104 174/113 66/112
f 68/104 171/103 174/113
f 179/109 181/114 178/107
f 179/109 180/115 181/114
f 177/111 180/115 179/109
f 177/111 176/116 180/115
f 174/113 176/116 177/111
f 174/113 172/117 176/116
f 171/103 172/117 174/113
f 171/103 173/118 172/117
f 45/93 41/96 43/94
f 178/107 181/114 180/115
f 68/104 29/100 69/102
f 68/104 31/119 29/100
f 34/101 29/100 31/119
f 30/89 70/106 69/102
f 30/89 47/120 70/106
f 39/88 47/120 30/89
f 171/103 172/117 173/118
f 171/103 175/105 172/117
f 176/116 172/117 175/105
f 175/105 180/115 176/116
f 178/107 180/115 175/105
usemtl mat_4
f 161/121 87/122 162/123
f 161/121 86/124 87/122
f 163/125 86/124 161/121
f 163/125 91/126 86/124
f 164/127 91/126 163/125
f 164/127 95/128 91/126
f 165/129 95/128 164/127
f 165/129 101/130 95/128
f 167/131 101/130 165/129
f 167/131 104/132 101/130
f 93/133 87/134 92/135
f 93/133 94/136 87/134
f 98/137 94/136 93/133
f 98/137 100/138 94/136
f 97/139 95/128 96/140
f 97/139 91/126 95/128
f 123/141 91/126 97/139
f 123/141 86/124 91/126
f 92/142 86/124 123/141
f 92/142 87/122 86/124
f 103/143 94/136 100/138
f 102/144 103/143 100/138
f 166/145 103/143 102/144
f 105/146 104/147 167/148
f 168/149 105/146 167/148
f 166/145 162/150 87/134
f 103/143 166/145 87/134
f 107/151 109/152 106/153
f 107/151 108/154 109/152
f 104/147 108/154 107/151
f 104/147 120/155 108/154
f 120/155 121/156 108/154
f 120/155 116/157 121/156
f 105/146 116/157 120/155
f 105/146 117/158 116/157
f 117/158 105/146 168/149
f 101/130 96/140 95/128
f 101/130 124/159 96/140
f 104/132 124/159 101/130
f 104/132 107/160 124/159
f 104/147 105/146 120/155
f 87/134 94/136 103/143
f 92/135 125/161 99/162
f 93/133 92/135 99/162
f 167/148 169/163 168/149
f 162/150 166/145 170/164
f 99/162 98/137 93/133
f 99/162 111/165 98/137
f 88/166 111/165 99/162
f 88/166 155/167 111/165
f 90/168 155/167 88/166
f 125/161 88/166 99/162
f 125/161 126/169 88/166
f 122/170 121/156 116/157
f 122/170 113/171 121/156
f 111/165 121/156 113/171
f 111/165 109/152 121/156
f 110/172 109/152 111/165
f 110/172 106/153 109/152
f 129/173 106/153 110/172
f 109/152 108/154 121/156
f 113/171 98/137 111/165
f 113/171 114/174 98/137
f 100/138 98/137 114/174
f 112/175 110/172 111/165
f 112/175 134/176 110/172
f 106/177 124/159 107/160
f 106/177 129/178 124/159
f 130/179 124/159 129/178
f 130/179 96/140 124/159
f 127/180 96/140 130/179
f 127/180 97/139 96/140
f 128/181 97/139 127/180
f 128/181 123/141 97/139
f 126/182 123/141 128/181
f 126/182 125/183 123/141
f 92/142 123/141 125/183
f 127/180 89/184 128/181
f 127/180 132/185 89/184
f 131/186 132/185 127/180
f 127/180 130/179 131/186
usemtl mat_5
f 129/187 110/188 182/189
f 182/189 110/188 131/190
f 133/191 184/192 134/193
f 90/194 184/192 133/191
f 89/195 90/194 88/196
f 89/195 132/197 90/194
f 130/198 182/189 131/190
f 130/198 129/187 182/189
f 88/196 183/199 89/195
f 88/196 126/200 183/199
f 183/199 128/201 89/195
f 183/199 126/200 128/201
f 134/193 131/190 110/188
f 134/193 132/197 131/190
f 132/197 184/192 90/194
f 132/197 134/193 184/192
f 112/202 133/191 134/193
f 112/202 111/203 133/191
f 155/204 133/191 111/203
f 155/204 90/194 133/191
usemtl mat_6
f 51/205 52/206 165/207
f 164/208 51/205 165/207
f 163/209 53/210 51/211
f 164/212 163/209 51/211
f 56/205 53/206 163/207
f 161/208 56/205 163/207
f 57/205 56/206 161/207
f 162/208 57/205 161/207
f 44/213 56/214 57/215
f 58/216 44/213 57/215
f 48/213 52/217 51/217
f 45/218 48/213 51/217
f 60/213 54/217 52/219
f 48/216 60/213 52/219
f 59/205 57/206 162/207
f 170/208 59/205 162/207
f 56/219 44/216 45/218
f 53/217 56/219 45/218
f 167/208 55/206 169/207
f 167/208 54/205 55/206
f 165/220 54/205 167/208
f 165/220 52/221 54/205
f 59/216 58/213 57/217
f 60/216 55/213 54/217
f 45/218 51/217 53/217
f 118/222 55/223 60/224
f 118/222 169/225 55/223
f 168/226 169/225 118/222
f 118/222 117/227 168/226
f 116/228 117/227 118/222
f 118/222 122/229 116/228
f 115/230 122/229 118/222
f 115/230 113/231 122/229
f 114/232 113/231 115/230
f 115/230 119/233 114/232
f 100/234 114/232 119/233
f 119/233 102/235 100/234
f 166/236 102/235 119/233
f 119/233 170/237 166/236
f 59/238 170/237 119/233
f 119/233 58/239 59/238
usemtl mat_7
f 136/240 137/241 135/242
f 136/240 144/243 137/241
f 138/241 144/243 136/240
f 138/241 143/244 144/243
f 142/245 143/244 138/241
f 142/245 137/241 143/244
f 141/246 137/241 142/245
f 141/246 140/247 137/241
f 138/241 140/247 141/246
f 138/241 139/248 140/247
f 135/242 139/248 138/241
f 135/242 137/241 139/248
f 140/247 139/248 137/241
f 136/240 135/242 138/241
f 141/246 142/245 138/241
f 144/243 143/244 137/241
f 146/240 147/242 145/241
f 146/240 148/241 147/242
f 154/243 148/241 146/240
f 154/243 153/244 148/241
f 145/241 153/244 154/243
f 145/241 152/245 153/244
f 151/246 152/245 145/241
f 151/246 148/241 152/245
f 150/247 148/241 151/246
f 150/247 149/248 148/241
f 145/241 149/248 150/247
f 145/241 147/242 149/248
f 148/241 149/248 147/242
f 145/241 150/247 151/246
f 148/241 153/244 152/245
f 145/241 154/243 146/240
