xof 0303txt 0032

template AnimTicksPerSecond {
  <9E415A43-7BA6-4a73-8743-B73D47E88476>
  DWORD AnimTicksPerSecond;
}

template XSkinMeshHeader {
  <3cf169ce-ff7c-44ab-93c0-f78f62d172e2>
  WORD nMaxSkinWeightsPerVertex;
  WORD nMaxSkinWeightsPerFace;
  WORD nBones;
}

template SkinWeights {
  <6f0d123b-bad2-4167-a0d0-80224f25fabb>
  STRING transformNodeName;
  DWORD nWeights;
  array DWORD vertexIndices[nWeights];
  array float weights[nWeights];
  Matrix4x4 matrixOffset;
}

Frame Root {
  FrameTransformMatrix {
     1.000000, 0.000000, 0.000000, 0.000000,
     0.000000, 0.000000, 1.000000, 0.000000,
     0.000000, 1.000000,-0.000000, 0.000000,
     0.000000, 0.000000, 0.000000, 1.000000;;
  }
  Frame jukain_mat_0 {
    FrameTransformMatrix {
       1.000000, 0.000000, 0.000000, 0.000000,
       0.000000, 1.000000, 0.000000, 0.000000,
       0.000000, 0.000000, 1.000000, 0.000000,
       0.000000, 0.000000, 0.000000, 1.000000;;
    }
    Mesh { //Mesh Mesh
      54;
      -0.511368;-0.554668; 0.000000;,
      -0.509252;-0.158868; 0.533458;,
       0.224673;-0.720191; 0.000000;,
       0.117042; 0.520459; 0.533458;,
       0.224673;-0.720191; 0.000000;,
      -0.509252;-0.158868; 0.533458;,
       0.000000;-0.000000; 0.754423;,
       0.224673;-0.720191; 0.000000;,
       0.117042; 0.520459; 0.533458;,
       0.117042; 0.520459; 0.533458;,
       0.000000;-0.000000; 0.000000;,
       0.000000;-0.000000; 0.754423;,
       0.000000;-0.000000; 0.754423;,
       0.000000;-0.000000; 0.000000;,
       0.000000;-0.000000; 0.000000;,
       0.000000;-0.000000; 0.000000;,
       0.152623; 0.885084; 0.420492;,
       0.000000;-0.000000; 0.000000;,
       0.000000;-0.000000; 0.000000;,
       0.152623; 0.885084; 0.420492;,
       0.736041;-0.165523; 0.000000;,
       0.152623; 0.885084; 0.420492;,
      -0.392210; 0.361592; 0.533458;,
       0.736041;-0.165523; 0.000000;,
       0.736041;-0.165523; 0.000000;,
      -0.392210; 0.361592; 0.533458;,
       0.000000;-0.000000; 0.000000;,
      -0.392210; 0.361592; 0.533458;,
       0.000000;-0.000000; 0.000000;,
       0.000000;-0.000000; 0.000000;,
       0.000000;-0.000000; 0.000000;,
       0.000000;-0.000000; 0.000000;,
      -0.511368;-0.554668; 0.000000;,
       0.000000;-0.000000; 0.000000;,
      -0.509252;-0.158868; 0.533458;,
      -0.511368;-0.554668; 0.000000;,
       0.500000; 0.500000; 0.766432;,
      -0.509252;-0.158868; 0.533458;,
       0.000000;-0.000000; 0.000000;,
       0.000000;-0.000000; 0.000000;,
      -0.392210; 0.361592; 0.533458;,
       0.500000; 0.500000; 0.766432;,
       0.500000; 0.500000; 0.766432;,
      -0.392210; 0.361592; 0.533458;,
       0.152623; 0.885084; 0.420492;,
       0.152623; 0.885084; 0.420492;,
       0.000000;-0.000000; 0.000000;,
       0.500000; 0.500000; 0.766432;,
       0.500000; 0.500000; 0.766432;,
       0.000000;-0.000000; 0.000000;,
       0.117042; 0.520459; 0.533458;,
       0.117042; 0.520459; 0.533458;,
      -0.509252;-0.158868; 0.533458;,
       0.500000; 0.500000; 0.766432;;
      18;
      3;0;1;2;,
      3;3;4;5;,
      3;6;7;8;,
      3;9;10;11;,
      3;12;13;14;,
      3;15;16;17;,
      3;18;19;20;,
      3;21;22;23;,
      3;24;25;26;,
      3;27;28;29;,
      3;30;31;32;,
      3;33;34;35;,
      3;36;37;38;,
      3;39;40;41;,
      3;42;43;44;,
      3;45;46;47;,
      3;48;49;50;,
      3;51;52;53;;
      MeshNormals { //Mesh Normals
        54;
         0.779443; 0.501602;-0.375256;,
         0.636616;-0.252632;-0.728599;,
         0.197729; 0.631214;-0.749931;,
        -0.274422; 0.959044;-0.069826;,
         0.197729; 0.631214;-0.749931;,
         0.636616;-0.252632;-0.728599;,
         0.678640; 0.152379; 0.718436;,
         0.197729; 0.631214;-0.749931;,
        -0.274422; 0.959044;-0.069826;,
        -0.274422; 0.959044;-0.069826;,
        -0.956664; 0.272591; 0.102084;,
         0.678640; 0.152379; 0.718436;,
         0.678640; 0.152379; 0.718436;,
        -0.956664; 0.272591; 0.102084;,
         0.093112; 0.414106;-0.905423;,
        -0.956664; 0.272591; 0.102084;,
        -0.072451;-0.944609; 0.320048;,
         0.093112; 0.414106;-0.905423;,
         0.093112; 0.414106;-0.905423;,
        -0.072451;-0.944609; 0.320048;,
         0.814081;-0.519852;-0.258766;,
        -0.072451;-0.944609; 0.320048;,
         0.962706; 0.258126;-0.080905;,
         0.814081;-0.519852;-0.258766;,
         0.814081;-0.519852;-0.258766;,
         0.962706; 0.258126;-0.080905;,
        -0.196234;-0.872616; 0.447188;,
         0.962706; 0.258126;-0.080905;,
         0.822321;-0.560686; 0.096774;,
        -0.196234;-0.872616; 0.447188;,
        -0.196234;-0.872616; 0.447188;,
         0.822321;-0.560686; 0.096774;,
         0.779443; 0.501602;-0.375256;,
         0.822321;-0.560686; 0.096774;,
         0.636616;-0.252632;-0.728599;,
         0.779443; 0.501602;-0.375256;,
        -0.696249; 0.337931;-0.633259;,
         0.636616;-0.252632;-0.728599;,
         0.822321;-0.560686; 0.096774;,
         0.822321;-0.560686; 0.096774;,
         0.962706; 0.258126;-0.080905;,
        -0.696249; 0.337931;-0.633259;,
        -0.696249; 0.337931;-0.633259;,
         0.962706; 0.258126;-0.080905;,
        -0.072451;-0.944609; 0.320048;,
        -0.072451;-0.944609; 0.320048;,
        -0.956664; 0.272591; 0.102084;,
        -0.696249; 0.337931;-0.633259;,
        -0.696249; 0.337931;-0.633259;,
        -0.956664; 0.272591; 0.102084;,
        -0.274422; 0.959044;-0.069826;,
        -0.274422; 0.959044;-0.069826;,
         0.636616;-0.252632;-0.728599;,
        -0.696249; 0.337931;-0.633259;;
        18;
        3;0;1;2;,
        3;3;4;5;,
        3;6;7;8;,
        3;9;10;11;,
        3;12;13;14;,
        3;15;16;17;,
        3;18;19;20;,
        3;21;22;23;,
        3;24;25;26;,
        3;27;28;29;,
        3;30;31;32;,
        3;33;34;35;,
        3;36;37;38;,
        3;39;40;41;,
        3;42;43;44;,
        3;45;46;47;,
        3;48;49;50;,
        3;51;52;53;;
      } //End of Mesh Normals
      MeshMaterialList { //Mesh Material List
        1;
        18;
        0,
        0,
        0,
        0,
        0,
        0,
        0,
        0,
        0,
        0,
        0,
        0,
        0,
        0,
        0,
        0,
        0,
        0;;
        Material mat_0 {
           0.640000; 0.640000; 0.640000; 1.000000;;
           92.156863;
           0.250000; 0.250000; 0.250000;;
           0.000000; 0.000000; 0.000000;;
          TextureFilename {"Textures/jukain_1_0.tga";}
        }
      } //End of Mesh Material List
      MeshTextureCoords { //Mesh UV Coordinates
        54;
         0.000000; 0.385084;,
         0.154060; 0.610296;,
         0.152623; 0.885084;,
         0.152623; 0.885084;,
         0.154060; 0.610296;,
         0.420492; 0.861333;,
         0.652623; 1.000000;,
         0.152623; 0.885084;,
         0.420492; 0.861333;,
         0.420492; 0.861333;,
         0.766432; 0.751039;,
         0.652623; 1.000000;,
         0.652623; 1.000000;,
         0.766432; 0.751039;,
         1.000000; 0.614916;,
         0.766432; 0.751039;,
         0.845940; 0.389704;,
         1.000000; 0.614916;,
         1.000000; 0.614916;,
         0.845940; 0.389704;,
         0.847377; 0.114916;,
         0.845940; 0.389704;,
         0.579508; 0.138666;,
         0.847377; 0.114916;,
         0.847377; 0.114916;,
         0.579508; 0.138666;,
         0.347377; 0.000000;,
         0.579508; 0.138666;,
         0.233568; 0.248961;,
         0.347377; 0.000000;,
         0.347377; 0.000000;,
         0.233568; 0.248961;,
         0.000000; 0.385084;,
         0.233568; 0.248961;,
         0.154060; 0.610296;,
         0.000000; 0.385084;,
         0.154060; 0.610296;,
         0.233568; 0.248961;,
         0.500000; 0.500000;,
         0.233568; 0.248961;,
         0.579508; 0.138666;,
         0.500000; 0.500000;,
         0.500000; 0.500000;,
         0.579508; 0.138666;,
         0.845940; 0.389704;,
         0.845940; 0.389704;,
         0.766432; 0.751039;,
         0.500000; 0.500000;,
         0.500000; 0.500000;,
         0.766432; 0.751039;,
         0.420492; 0.861333;,
         0.420492; 0.861333;,
         0.154060; 0.610296;,
         0.500000; 0.500000;;
      } //End of Mesh UV Coordinates
    } //End of Mesh Mesh
  } //End of jukain_mat_0
} //End of Root Frame
