# Blender MTL File: 'BR_Barboach-Shiny01.blend'
# Material Count: 9

newmtl mat_1
Ns 96.078431
Ka 0.000000 0.000000 0.000000
Kd 0.800000 0.800000 0.800000
Ks 0.500000 0.500000 0.500000
Ni 1.000000
d 1.000000
illum 2
map_Kd Textures\dojoach_1_0.tga
map_d Textures\dojoach_1_0.tga

newmtl mat_2
Ns 96.078431
Ka 0.000000 0.000000 0.000000
Kd 0.800000 0.800000 0.800000
Ks 0.500000 0.500000 0.500000
Ni 1.000000
d 1.000000
illum 2
map_Kd Textures\dojoach_1_2.tga
map_d Textures\dojoach_1_2.tga

newmtl mat_3
Ns 96.078431
Ka 0.000000 0.000000 0.000000
Kd 0.800000 0.800000 0.800000
Ks 0.500000 0.500000 0.500000
Ni 1.000000
d 1.000000
illum 2
map_Kd Textures\dojoach_1_4.tga
map_d Textures\dojoach_1_4.tga

newmtl mat_4
Ns 96.078431
Ka 0.000000 0.000000 0.000000
Kd 0.800000 0.800000 0.800000
Ks 0.500000 0.500000 0.500000
Ni 1.000000
d 1.000000
illum 2
map_Kd Textures\dojoach_1_6.tga
map_d Textures\dojoach_1_6.tga

newmtl mat_5
Ns 96.078431
Ka 0.000000 0.000000 0.000000
Kd 0.800000 0.800000 0.800000
Ks 0.500000 0.500000 0.500000
Ni 1.000000
d 1.000000
illum 2
map_Kd Textures\dojoach_1_8.tga
map_d Textures\dojoach_1_8.tga

newmtl mat_6
Ns 96.078431
Ka 0.000000 0.000000 0.000000
Kd 0.800000 0.800000 0.800000
Ks 0.500000 0.500000 0.500000
Ni 1.000000
d 1.000000
illum 2
map_Kd Textures\dojoach_1_10.tga
map_d Textures\dojoach_1_10.tga

newmtl mat_7
Ns 96.078431
Ka 0.000000 0.000000 0.000000
Kd 0.800000 0.800000 0.800000
Ks 0.500000 0.500000 0.500000
Ni 1.000000
d 1.000000
illum 2
map_Kd Textures\dojoach_1_12.tga
map_d Textures\dojoach_1_12.tga

newmtl mat_8
Ns 96.078431
Ka 0.000000 0.000000 0.000000
Kd 0.800000 0.800000 0.800000
Ks 0.500000 0.500000 0.500000
Ni 1.000000
d 1.000000
illum 2
map_Kd Textures\dojoach_1_14.tga
map_d Textures\dojoach_1_14.tga

newmtl mat_9
Ns 96.078431
Ka 0.000000 0.000000 0.000000
Kd 0.800000 0.800000 0.800000
Ks 0.500000 0.500000 0.500000
Ni 1.000000
d 1.000000
illum 2
map_Kd Textures\dojoach_1_16.tga
map_d Textures\dojoach_1_16.tga
