xof 0303txt 0032

template AnimTicksPerSecond {
  <9E415A43-7BA6-4a73-8743-B73D47E88476>
  DWORD AnimTicksPerSecond;
}

template XSkinMeshHeader {
  <3cf169ce-ff7c-44ab-93c0-f78f62d172e2>
  WORD nMaxSkinWeightsPerVertex;
  WORD nMaxSkinWeightsPerFace;
  WORD nBones;
}

template SkinWeights {
  <6f0d123b-bad2-4167-a0d0-80224f25fabb>
  STRING transformNodeName;
  DWORD nWeights;
  array DWORD vertexIndices[nWeights];
  array float weights[nWeights];
  Matrix4x4 matrixOffset;
}

Frame Root {
  FrameTransformMatrix {
     1.000000, 0.000000, 0.000000, 0.000000,
     0.000000, 0.000000, 1.000000, 0.000000,
     0.000000, 1.000000,-0.000000, 0.000000,
     0.000000, 0.000000, 0.000000, 1.000000;;
  }
  Frame asanan_mat_0 {
    FrameTransformMatrix {
       1.000000, 0.000000, 0.000000, 0.000000,
       0.000000, 1.000000, 0.000000, 0.000000,
       0.000000, 0.000000, 1.000000, 0.000000,
       0.000000, 0.000000, 0.000000, 1.000000;;
    }
    Mesh { //Mesh Mesh
      144;
       0.473677; 0.679211;-0.263932;,
       0.555935; 0.316927;-0.350247;,
       0.669880; 0.679211;-0.001464;,
       0.555935; 0.316927;-0.350247;,
       0.786210; 0.316927;-0.045028;,
       0.669880; 0.679211;-0.001464;,
       0.473677; 0.679211; 0.387329;,
       0.669880; 0.679211;-0.001464;,
       0.786210; 0.316927;-0.045028;,
       0.786210; 0.316927;-0.045028;,
       0.555935; 0.316927; 0.427806;,
       0.473677; 0.679211; 0.387329;,
       0.473677; 0.679211; 0.387329;,
       0.555935; 0.316927; 0.427806;,
       0.000000; 0.679211; 0.562452;,
       0.555935; 0.316927; 0.427806;,
       0.000000; 0.316927; 0.633339;,
       0.000000; 0.679211; 0.562452;,
       0.000000; 0.679211; 0.562452;,
       0.000000; 0.316927; 0.633339;,
      -0.473677; 0.679211; 0.387329;,
       0.000000; 0.316927; 0.633339;,
      -0.555935; 0.316927; 0.427806;,
      -0.473677; 0.679211; 0.387329;,
      -0.473677; 0.679211; 0.387329;,
      -0.555935; 0.316927; 0.427806;,
      -0.669880; 0.679211;-0.001463;,
      -0.555935; 0.316927; 0.427806;,
      -0.786210; 0.316927;-0.045028;,
      -0.669880; 0.679211;-0.001463;,
      -0.669880; 0.679211;-0.001463;,
      -0.786210; 0.316927;-0.045028;,
      -0.473677; 0.679211;-0.263932;,
      -0.786210; 0.316927;-0.045028;,
      -0.555935; 0.316927;-0.350247;,
      -0.473677; 0.679211;-0.263932;,
      -0.473677; 0.679211;-0.263932;,
      -0.555935; 0.316927;-0.350247;,
       0.000000; 0.679211;-0.439054;,
      -0.555935; 0.316927;-0.350247;,
       0.000000; 0.316927;-0.561399;,
       0.000000; 0.679211;-0.439054;,
       0.000000; 0.679211;-0.439054;,
       0.000000; 0.316927;-0.561399;,
       0.473677; 0.679211;-0.263932;,
       0.000000; 0.316927;-0.561399;,
       0.555935; 0.316927;-0.350247;,
       0.473677; 0.679211;-0.263932;,
       0.460551; 0.026625;-0.294566;,
       0.555935; 0.316927;-0.350247;,
       0.000000; 0.026625;-0.476073;,
       0.555935; 0.316927;-0.350247;,
       0.000000; 0.316927;-0.561399;,
       0.000000; 0.026625;-0.476073;,
       0.000000; 0.026625;-0.476073;,
       0.000000; 0.316927;-0.561399;,
      -0.460551; 0.026625;-0.294566;,
       0.000000; 0.316927;-0.561399;,
      -0.555935; 0.316927;-0.350247;,
      -0.460551; 0.026625;-0.294566;,
       0.786210; 0.316927;-0.045028;,
       0.651318; 0.026625;-0.045028;,
       0.555935; 0.316927; 0.427806;,
       0.651318; 0.026625;-0.045028;,
       0.460551; 0.026625; 0.366039;,
       0.555935; 0.316927; 0.427806;,
       0.555935; 0.316927; 0.427806;,
       0.460551; 0.026625; 0.366039;,
       0.000000; 0.316927; 0.633339;,
       0.460551; 0.026625; 0.366039;,
       0.000000; 0.026625; 0.536308;,
       0.000000; 0.316927; 0.633339;,
       0.000000; 0.316927; 0.633339;,
       0.000000; 0.026625; 0.536308;,
      -0.555935; 0.316927; 0.427806;,
       0.000000; 0.026625; 0.536308;,
      -0.460551; 0.026625; 0.366039;,
      -0.555935; 0.316927; 0.427806;,
      -0.555935; 0.316927; 0.427806;,
      -0.460551; 0.026625; 0.366039;,
      -0.786210; 0.316927;-0.045028;,
      -0.460551; 0.026625; 0.366039;,
      -0.651318; 0.026625;-0.045028;,
      -0.786210; 0.316927;-0.045028;,
       0.786210; 0.316927;-0.045028;,
       0.555935; 0.316927;-0.350247;,
       0.651318; 0.026625;-0.045028;,
       0.555935; 0.316927;-0.350247;,
       0.460551; 0.026625;-0.294566;,
       0.651318; 0.026625;-0.045028;,
       0.651318; 0.026625;-0.045028;,
       0.460551; 0.026625;-0.294566;,
       0.000000;-0.153038;-0.045028;,
       0.460551; 0.026625;-0.294566;,
       0.000000; 0.026625;-0.476073;,
       0.000000;-0.153038;-0.045028;,
      -0.460551; 0.026625;-0.294566;,
       0.000000;-0.153038;-0.045028;,
       0.000000; 0.026625;-0.476073;,
      -0.460551; 0.026625;-0.294566;,
      -0.651318; 0.026625;-0.045028;,
       0.000000;-0.153038;-0.045028;,
      -0.460551; 0.026625; 0.366039;,
       0.000000;-0.153038;-0.045028;,
      -0.651318; 0.026625;-0.045028;,
      -0.460551; 0.026625; 0.366039;,
       0.000000; 0.026625; 0.536308;,
       0.000000;-0.153038;-0.045028;,
       0.460551; 0.026625; 0.366039;,
       0.000000;-0.153038;-0.045028;,
       0.000000; 0.026625; 0.536308;,
       0.460551; 0.026625; 0.366039;,
       0.651318; 0.026625;-0.045028;,
       0.000000;-0.153038;-0.045028;,
      -0.460551; 0.026625;-0.294566;,
      -0.555935; 0.316927;-0.350247;,
      -0.651318; 0.026625;-0.045028;,
      -0.555935; 0.316927;-0.350247;,
      -0.786210; 0.316927;-0.045028;,
      -0.651318; 0.026625;-0.045028;,
      -0.473677; 0.679211;-0.263932;,
       0.000000; 0.875489; 0.048923;,
      -0.669880; 0.679211;-0.001463;,
       0.000000; 0.875489; 0.048923;,
      -0.473677; 0.679211; 0.387329;,
      -0.669880; 0.679211;-0.001463;,
      -0.473677; 0.679211; 0.387329;,
       0.000000; 0.875489; 0.048923;,
       0.000000; 0.679211; 0.562452;,
       0.000000; 0.875489; 0.048923;,
       0.473677; 0.679211; 0.387329;,
       0.000000; 0.679211; 0.562452;,
       0.473677; 0.679211; 0.387329;,
       0.000000; 0.875489; 0.048923;,
       0.669880; 0.679211;-0.001464;,
       0.000000; 0.875489; 0.048923;,
       0.473677; 0.679211;-0.263932;,
       0.669880; 0.679211;-0.001464;,
       0.473677; 0.679211;-0.263932;,
       0.000000; 0.875489; 0.048923;,
       0.000000; 0.679211;-0.439054;,
       0.000000; 0.875489; 0.048923;,
      -0.473677; 0.679211;-0.263932;,
       0.000000; 0.679211;-0.439054;;
      48;
      3;0;1;2;,
      3;3;4;5;,
      3;6;7;8;,
      3;9;10;11;,
      3;12;13;14;,
      3;15;16;17;,
      3;18;19;20;,
      3;21;22;23;,
      3;24;25;26;,
      3;27;28;29;,
      3;30;31;32;,
      3;33;34;35;,
      3;36;37;38;,
      3;39;40;41;,
      3;42;43;44;,
      3;45;46;47;,
      3;48;49;50;,
      3;51;52;53;,
      3;54;55;56;,
      3;57;58;59;,
      3;60;61;62;,
      3;63;64;65;,
      3;66;67;68;,
      3;69;70;71;,
      3;72;73;74;,
      3;75;76;77;,
      3;78;79;80;,
      3;81;82;83;,
      3;84;85;86;,
      3;87;88;89;,
      3;90;91;92;,
      3;93;94;95;,
      3;96;97;98;,
      3;99;100;101;,
      3;102;103;104;,
      3;105;106;107;,
      3;108;109;110;,
      3;111;112;113;,
      3;114;115;116;,
      3;117;118;119;,
      3;120;121;122;,
      3;123;124;125;,
      3;126;127;128;,
      3;129;130;131;,
      3;132;133;134;,
      3;135;136;137;,
      3;138;139;140;,
      3;141;142;143;;
      MeshNormals { //Mesh Normals
        144;
        -0.454299;-0.659352; 0.598987;,
        -0.612537; 0.008698; 0.790368;,
        -0.761681;-0.646321; 0.045137;,
        -0.612537; 0.008698; 0.790368;,
        -0.993622; 0.048524; 0.101749;,
        -0.761681;-0.646321; 0.045137;,
        -0.519669;-0.617115;-0.590808;,
        -0.761681;-0.646321; 0.045137;,
        -0.993622; 0.048524; 0.101749;,
        -0.993622; 0.048524; 0.101749;,
        -0.686270; 0.063753;-0.724509;,
        -0.519669;-0.617115;-0.590808;,
        -0.519669;-0.617115;-0.590808;,
        -0.686270; 0.063753;-0.724509;,
        -0.000000;-0.595325;-0.803461;,
        -0.686270; 0.063753;-0.724509;,
        -0.000000; 0.061251;-0.998108;,
        -0.000000;-0.595325;-0.803461;,
        -0.000000;-0.595325;-0.803461;,
        -0.000000; 0.061251;-0.998108;,
         0.516953;-0.618397;-0.591845;,
        -0.000000; 0.061251;-0.998108;,
         0.683035; 0.063112;-0.727622;,
         0.516953;-0.618397;-0.591845;,
         0.516953;-0.618397;-0.591845;,
         0.683035; 0.063112;-0.727622;,
         0.759728;-0.648457; 0.047609;,
         0.683035; 0.063112;-0.727622;,
         0.993255; 0.048219; 0.105228;,
         0.759728;-0.648457; 0.047609;,
         0.759728;-0.648457; 0.047609;,
         0.993255; 0.048219; 0.105228;,
         0.452559;-0.658803; 0.600909;,
         0.993255; 0.048219; 0.105228;,
         0.609882; 0.009461; 0.792413;,
         0.452559;-0.658803; 0.600909;,
         0.452559;-0.658803; 0.600909;,
         0.609882; 0.009461; 0.792413;,
         0.001831;-0.642506; 0.766259;,
         0.609882; 0.009461; 0.792413;,
         0.002991;-0.015900; 0.999847;,
         0.001831;-0.642506; 0.766259;,
         0.001831;-0.642506; 0.766259;,
         0.002991;-0.015900; 0.999847;,
        -0.454299;-0.659352; 0.598987;,
         0.002991;-0.015900; 0.999847;,
        -0.612537; 0.008698; 0.790368;,
        -0.454299;-0.659352; 0.598987;,
        -0.445448; 0.665914; 0.598407;,
        -0.612537; 0.008698; 0.790368;,
         0.002869; 0.622395; 0.782678;,
        -0.612537; 0.008698; 0.790368;,
         0.002991;-0.015900; 0.999847;,
         0.002869; 0.622395; 0.782678;,
         0.002869; 0.622395; 0.782678;,
         0.002991;-0.015900; 0.999847;,
         0.443892; 0.664296; 0.601337;,
         0.002991;-0.015900; 0.999847;,
         0.609882; 0.009461; 0.792413;,
         0.443892; 0.664296; 0.601337;,
        -0.993622; 0.048524; 0.101749;,
        -0.713126; 0.696310; 0.080874;,
        -0.686270; 0.063753;-0.724509;,
        -0.713126; 0.696310; 0.080874;,
        -0.486129; 0.682485;-0.545732;,
        -0.686270; 0.063753;-0.724509;,
        -0.686270; 0.063753;-0.724509;,
        -0.486129; 0.682485;-0.545732;,
        -0.000000; 0.061251;-0.998108;,
        -0.486129; 0.682485;-0.545732;,
        -0.000000; 0.667684;-0.744407;,
        -0.000000; 0.061251;-0.998108;,
        -0.000000; 0.061251;-0.998108;,
        -0.000000; 0.667684;-0.744407;,
         0.683035; 0.063112;-0.727622;,
        -0.000000; 0.667684;-0.744407;,
         0.482253; 0.684011;-0.547258;,
         0.683035; 0.063112;-0.727622;,
         0.683035; 0.063112;-0.727622;,
         0.482253; 0.684011;-0.547258;,
         0.993255; 0.048219; 0.105228;,
         0.482253; 0.684011;-0.547258;,
         0.710990; 0.697989; 0.085147;,
         0.993255; 0.048219; 0.105228;,
        -0.993622; 0.048524; 0.101749;,
        -0.612537; 0.008698; 0.790368;,
        -0.713126; 0.696310; 0.080874;,
        -0.612537; 0.008698; 0.790368;,
        -0.445448; 0.665914; 0.598407;,
        -0.713126; 0.696310; 0.080874;,
        -0.713126; 0.696310; 0.080874;,
        -0.445448; 0.665914; 0.598407;,
        -0.000000; 0.998474; 0.054750;,
        -0.445448; 0.665914; 0.598407;,
         0.002869; 0.622395; 0.782678;,
        -0.000000; 0.998474; 0.054750;,
         0.443892; 0.664296; 0.601337;,
        -0.000000; 0.998474; 0.054750;,
         0.002869; 0.622395; 0.782678;,
         0.443892; 0.664296; 0.601337;,
         0.710990; 0.697989; 0.085147;,
        -0.000000; 0.998474; 0.054750;,
         0.482253; 0.684011;-0.547258;,
        -0.000000; 0.998474; 0.054750;,
         0.710990; 0.697989; 0.085147;,
         0.482253; 0.684011;-0.547258;,
        -0.000000; 0.667684;-0.744407;,
        -0.000000; 0.998474; 0.054750;,
        -0.486129; 0.682485;-0.545732;,
        -0.000000; 0.998474; 0.054750;,
        -0.000000; 0.667684;-0.744407;,
        -0.486129; 0.682485;-0.545732;,
        -0.713126; 0.696310; 0.080874;,
        -0.000000; 0.998474; 0.054750;,
         0.443892; 0.664296; 0.601337;,
         0.609882; 0.009461; 0.792413;,
         0.710990; 0.697989; 0.085147;,
         0.609882; 0.009461; 0.792413;,
         0.993255; 0.048219; 0.105228;,
         0.710990; 0.697989; 0.085147;,
         0.452559;-0.658803; 0.600909;,
        -0.000000;-0.999939; 0.008637;,
         0.759728;-0.648457; 0.047609;,
        -0.000000;-0.999939; 0.008637;,
         0.516953;-0.618397;-0.591845;,
         0.759728;-0.648457; 0.047609;,
         0.516953;-0.618397;-0.591845;,
        -0.000000;-0.999939; 0.008637;,
        -0.000000;-0.595325;-0.803461;,
        -0.000000;-0.999939; 0.008637;,
        -0.519669;-0.617115;-0.590808;,
        -0.000000;-0.595325;-0.803461;,
        -0.519669;-0.617115;-0.590808;,
        -0.000000;-0.999939; 0.008637;,
        -0.761681;-0.646321; 0.045137;,
        -0.000000;-0.999939; 0.008637;,
        -0.454299;-0.659352; 0.598987;,
        -0.761681;-0.646321; 0.045137;,
        -0.454299;-0.659352; 0.598987;,
        -0.000000;-0.999939; 0.008637;,
         0.001831;-0.642506; 0.766259;,
        -0.000000;-0.999939; 0.008637;,
         0.452559;-0.658803; 0.600909;,
         0.001831;-0.642506; 0.766259;;
        48;
        3;0;1;2;,
        3;3;4;5;,
        3;6;7;8;,
        3;9;10;11;,
        3;12;13;14;,
        3;15;16;17;,
        3;18;19;20;,
        3;21;22;23;,
        3;24;25;26;,
        3;27;28;29;,
        3;30;31;32;,
        3;33;34;35;,
        3;36;37;38;,
        3;39;40;41;,
        3;42;43;44;,
        3;45;46;47;,
        3;48;49;50;,
        3;51;52;53;,
        3;54;55;56;,
        3;57;58;59;,
        3;60;61;62;,
        3;63;64;65;,
        3;66;67;68;,
        3;69;70;71;,
        3;72;73;74;,
        3;75;76;77;,
        3;78;79;80;,
        3;81;82;83;,
        3;84;85;86;,
        3;87;88;89;,
        3;90;91;92;,
        3;93;94;95;,
        3;96;97;98;,
        3;99;100;101;,
        3;102;103;104;,
        3;105;106;107;,
        3;108;109;110;,
        3;111;112;113;,
        3;114;115;116;,
        3;117;118;119;,
        3;120;121;122;,
        3;123;124;125;,
        3;126;127;128;,
        3;129;130;131;,
        3;132;133;134;,
        3;135;136;137;,
        3;138;139;140;,
        3;141;142;143;;
      } //End of Mesh Normals
      MeshMaterialList { //Mesh Material List
        1;
        48;
        0,
        0,
        0,
        0,
        0,
        0,
        0,
        0,
        0,
        0,
        0,
        0,
        0,
        0,
        0,
        0,
        0,
        0,
        0,
        0,
        0,
        0,
        0,
        0,
        0,
        0,
        0,
        0,
        0,
        0,
        0,
        0,
        0,
        0,
        0,
        0,
        0,
        0,
        0,
        0,
        0,
        0,
        0,
        0,
        0,
        0,
        0,
        0;;
        Material mat_0 {
           0.640000; 0.640000; 0.640000; 1.000000;;
           92.156863;
           0.250000; 0.250000; 0.250000;;
           0.000000; 0.000000; 0.000000;;
          TextureFilename {"Textures/asanan_1_0.tga";}
        }
      } //End of Mesh Material List
      MeshTextureCoords { //Mesh UV Coordinates
        144;
         0.000000; 1.000000;,
         0.000000; 1.000000;,
         0.000000; 1.000000;,
         0.000000; 1.000000;,
         0.000000; 1.000000;,
         0.000000; 1.000000;,
         0.000000; 1.000000;,
         0.000000; 1.000000;,
         0.000000; 1.000000;,
         0.000000; 1.000000;,
         0.000000; 1.000000;,
         0.000000; 1.000000;,
         0.000000; 1.000000;,
         0.000000; 1.000000;,
         0.000000; 1.000000;,
         0.000000; 1.000000;,
         0.000000; 1.000000;,
         0.000000; 1.000000;,
         0.000000; 1.000000;,
         0.000000; 1.000000;,
         0.000000; 1.000000;,
         0.000000; 1.000000;,
         0.000000; 1.000000;,
         0.000000; 1.000000;,
         0.000000; 1.000000;,
         0.000000; 1.000000;,
         0.000000; 1.000000;,
         0.000000; 1.000000;,
         0.000000; 1.000000;,
         0.000000; 1.000000;,
         0.000000; 1.000000;,
         0.000000; 1.000000;,
         0.000000; 1.000000;,
         0.000000; 1.000000;,
         0.000000; 1.000000;,
         0.000000; 1.000000;,
         0.000000; 1.000000;,
         0.000000; 1.000000;,
         0.000000; 1.000000;,
         0.000000; 1.000000;,
         0.000000; 1.000000;,
         0.000000; 1.000000;,
         0.000000; 1.000000;,
         0.000000; 1.000000;,
         0.000000; 1.000000;,
         0.000000; 1.000000;,
         0.000000; 1.000000;,
         0.000000; 1.000000;,
         0.000000; 1.000000;,
         0.000000; 1.000000;,
         0.000000; 1.000000;,
         0.000000; 1.000000;,
         0.000000; 1.000000;,
         0.000000; 1.000000;,
         0.000000; 1.000000;,
         0.000000; 1.000000;,
         0.000000; 1.000000;,
         0.000000; 1.000000;,
         0.000000; 1.000000;,
         0.000000; 1.000000;,
         0.000000; 1.000000;,
         0.000000; 1.000000;,
         0.000000; 1.000000;,
         0.000000; 1.000000;,
         0.000000; 1.000000;,
         0.000000; 1.000000;,
         0.000000; 1.000000;,
         0.000000; 1.000000;,
         0.000000; 1.000000;,
         0.000000; 1.000000;,
         0.000000; 1.000000;,
         0.000000; 1.000000;,
         0.000000; 1.000000;,
         0.000000; 1.000000;,
         0.000000; 1.000000;,
         0.000000; 1.000000;,
         0.000000; 1.000000;,
         0.000000; 1.000000;,
         0.000000; 1.000000;,
         0.000000; 1.000000;,
         0.000000; 1.000000;,
         0.000000; 1.000000;,
         0.000000; 1.000000;,
         0.000000; 1.000000;,
         0.000000; 1.000000;,
         0.000000; 1.000000;,
         0.000000; 1.000000;,
         0.000000; 1.000000;,
         0.000000; 1.000000;,
         0.000000; 1.000000;,
         0.000000; 1.000000;,
         0.000000; 1.000000;,
         0.000000; 1.000000;,
         0.000000; 1.000000;,
         0.000000; 1.000000;,
         0.000000; 1.000000;,
         0.000000; 1.000000;,
         0.000000; 1.000000;,
         0.000000; 1.000000;,
         0.000000; 1.000000;,
         0.000000; 1.000000;,
         0.000000; 1.000000;,
         0.000000; 1.000000;,
         0.000000; 1.000000;,
         0.000000; 1.000000;,
         0.000000; 1.000000;,
         0.000000; 1.000000;,
         0.000000; 1.000000;,
         0.000000; 1.000000;,
         0.000000; 1.000000;,
         0.000000; 1.000000;,
         0.000000; 1.000000;,
         0.000000; 1.000000;,
         0.000000; 1.000000;,
         0.000000; 1.000000;,
         0.000000; 1.000000;,
         0.000000; 1.000000;,
         0.000000; 1.000000;,
         0.000000; 1.000000;,
         0.000000; 1.000000;,
         0.000000; 1.000000;,
         0.000000; 1.000000;,
         0.000000; 1.000000;,
         0.000000; 1.000000;,
         0.000000; 1.000000;,
         0.000000; 1.000000;,
         0.000000; 1.000000;,
         0.000000; 1.000000;,
         0.000000; 1.000000;,
         0.000000; 1.000000;,
         0.000000; 1.000000;,
         0.000000; 1.000000;,
         0.000000; 1.000000;,
         0.000000; 1.000000;,
         0.000000; 1.000000;,
         0.000000; 1.000000;,
         0.000000; 1.000000;,
         0.000000; 1.000000;,
         0.000000; 1.000000;,
         0.000000; 1.000000;,
         0.000000; 1.000000;,
         0.000000; 1.000000;,
         0.000000; 1.000000;,
         0.000000; 1.000000;;
      } //End of Mesh UV Coordinates
    } //End of Mesh Mesh
  } //End of asanan_mat_0
} //End of Root Frame
