# Blender v2.66 (sub 1) OBJ File: 'BR_Meditite-Shiny02.blend'
# www.blender.org
mtllib BR_Meditite-Shiny02.mtl
o asanan
v 0.000000 -0.045028 0.153038
v 0.460551 -0.294566 -0.026625
v 0.651318 -0.045028 -0.026625
v 0.555935 -0.350247 -0.316927
v 0.473677 -0.263932 -0.679211
v 0.669880 -0.001464 -0.679211
v 0.786210 -0.045028 -0.316927
v 0.473677 0.387329 -0.679211
v 0.555935 0.427806 -0.316927
v 0.460551 0.366039 -0.026625
v 0.000000 -0.476073 -0.026625
v 0.000000 -0.561399 -0.316927
v 0.000000 -0.439054 -0.679211
v 0.000000 0.562452 -0.679211
v 0.000000 0.633339 -0.316927
v 0.000000 0.536308 -0.026625
v -0.460551 -0.294566 -0.026625
v -0.473677 -0.263932 -0.679211
v -0.555935 -0.350247 -0.316927
v -0.473677 0.387329 -0.679211
v -0.555935 0.427806 -0.316927
v -0.460551 0.366039 -0.026625
v -0.651318 -0.045028 -0.026625
v -0.669880 -0.001463 -0.679211
v -0.786210 -0.045028 -0.316927
v 0.000000 0.048923 -0.875489
vt 0.000000 0.000000
usemtl mat_0
s 1
f 6/1 4/1 5/1
f 6/1 7/1 4/1
f 8/1 7/1 6/1
f 8/1 9/1 7/1
f 14/1 9/1 8/1
f 14/1 15/1 9/1
f 20/1 15/1 14/1
f 20/1 21/1 15/1
f 24/1 21/1 20/1
f 24/1 25/1 21/1
f 18/1 25/1 24/1
f 18/1 19/1 25/1
f 13/1 19/1 18/1
f 13/1 12/1 19/1
f 5/1 12/1 13/1
f 5/1 4/1 12/1
f 11/1 4/1 2/1
f 11/1 12/1 4/1
f 17/1 12/1 11/1
f 17/1 19/1 12/1
f 9/1 3/1 7/1
f 9/1 10/1 3/1
f 15/1 10/1 9/1
f 15/1 16/1 10/1
f 21/1 16/1 15/1
f 21/1 22/1 16/1
f 25/1 22/1 21/1
f 25/1 23/1 22/1
f 3/1 4/1 7/1
f 3/1 2/1 4/1
f 1/1 2/1 3/1
f 1/1 11/1 2/1
f 11/1 1/1 17/1
f 1/1 23/1 17/1
f 23/1 1/1 22/1
f 1/1 16/1 22/1
f 16/1 1/1 10/1
f 1/1 3/1 10/1
f 23/1 19/1 17/1
f 23/1 25/1 19/1
f 24/1 26/1 18/1
f 24/1 20/1 26/1
f 14/1 26/1 20/1
f 14/1 8/1 26/1
f 6/1 26/1 8/1
f 6/1 5/1 26/1
f 13/1 26/1 5/1
f 13/1 18/1 26/1
