# Blender v2.66 (sub 1) OBJ File: 'BR_Starly.blend'
# www.blender.org
mtllib BR_Starly.mtl
o mukkuru
v 0.799765 -0.983164 -0.998876
v 0.747004 -0.994120 -1.084978
v 0.858600 -0.593297 -1.188626
v 0.912447 -0.597739 -1.044528
v 0.936997 -0.483205 -1.119425
v 0.874345 0.029818 -1.878260
v 0.787903 0.053220 -1.925807
v 0.866512 0.230069 -1.905739
v 0.742087 -1.251174 -0.901483
v 0.697565 -1.271381 -0.948699
v 0.477286 -1.095566 -1.181471
v 0.477286 -1.095566 -1.181471
v 0.352741 -0.808087 -1.433047
v 0.352741 -0.808087 -1.433047
v 0.446530 -0.807887 -1.428245
v 0.739158 -1.212518 -0.826888
v 0.739158 -1.212518 -0.826888
v 0.739158 -1.212518 -0.826888
v 0.746025 -1.217112 -0.841828
v 0.830065 -0.924902 -0.905593
v 0.327303 -0.682230 -1.593152
v 0.327303 -0.682230 -1.593152
v 0.342803 -0.545456 -1.737888
v 0.342803 -0.545456 -1.737888
v 0.462693 -0.539360 -1.739195
v 0.443016 -0.679205 -1.591277
v 0.812994 -0.168811 -0.724437
v 0.755349 -0.597190 -0.674677
v 0.847071 -0.604847 -0.743695
v 0.936957 -0.184657 -0.826949
v 0.517117 -0.338744 -1.867592
v 0.412559 -0.340617 -1.872964
v 0.412559 -0.340617 -1.872964
v 0.492716 -0.165369 -1.947189
v 0.492716 -0.165369 -1.947189
v 0.585510 -0.166736 -1.936691
v 0.912667 0.546685 -1.279085
v 0.912667 0.546685 -1.279085
v 0.903514 0.390252 -1.021008
v 0.903514 0.390252 -1.021008
v 0.996667 0.316892 -1.033276
v 1.006000 0.483010 -1.291964
v 0.671978 0.134737 -1.980987
v 0.671978 0.134737 -1.980987
v 0.729399 0.098111 -1.974646
v 0.747669 0.342183 -1.925093
v 0.747669 0.342183 -1.925093
v 0.808517 0.296677 -1.932248
v 0.846374 0.603754 -1.676509
v 0.846374 0.603754 -1.676509
v 0.880967 0.631708 -1.521896
v 0.880967 0.631708 -1.521896
v 0.965289 0.552963 -1.545864
v 0.924142 0.542023 -1.686037
v 0.996506 -0.345356 -1.262414
v 0.886233 -0.467133 -1.353877
v 0.916263 -0.330024 -1.533463
v 1.021500 -0.209357 -1.434893
v 0.859310 -0.045657 -0.773442
v 0.839200 -0.099129 -0.752164
v 0.712086 -1.397945 -0.757286
v 0.712086 -1.397945 -0.757286
v 0.761521 -1.196437 -0.771062
v 0.708753 -1.421950 -0.724625
v 0.708753 -1.421950 -0.724625
v 0.610365 -1.500957 -0.922717
v 0.610365 -1.500957 -0.922717
v 0.587704 -1.470874 -0.987158
v 0.587704 -1.470874 -0.987158
v 0.651605 -1.279631 -1.026397
v 0.631225 -1.218830 -0.961306
v 0.631225 -1.218830 -0.961306
v 0.631225 -1.218830 -0.961306
v 0.624331 -1.452781 -0.900052
v 0.624331 -1.452781 -0.900052
v 0.676096 -1.258163 -0.989731
v 0.841938 -0.140512 -1.838782
v 0.768330 -0.285843 -1.784365
v 0.692002 -0.165611 -1.910768
v 0.581007 -0.646491 -1.543894
v 0.605332 -0.503869 -1.709003
v 0.760148 -0.439305 -1.640458
v 0.738340 -0.587922 -1.473269
v 0.564097 -1.054863 -1.196859
v 0.558624 -0.777729 -1.391964
v 0.708609 -0.706627 -1.312699
v 0.661018 -1.053778 -1.158221
v 0.890449 -0.222796 -1.706215
v 1.027473 -0.076715 -1.582023
v 0.838175 0.229913 -0.866587
v 0.838175 0.229913 -0.866587
v 0.925134 0.141183 -0.880491
v 0.737087 -1.154405 -0.682458
v 0.703371 -1.399801 -0.695805
v 0.703371 -1.399801 -0.695805
v 0.529922 -1.334892 -1.066084
v 0.529922 -1.334892 -1.066084
v 0.644837 -1.406925 -0.902457
v 0.644837 -1.406925 -0.902457
v 0.652735 -1.489313 -0.840966
v 0.652735 -1.489313 -0.840966
v 0.664309 -1.497626 -0.804685
v 0.664309 -1.497626 -0.804685
v 0.697353 -1.348685 -0.681052
v 0.697353 -1.348685 -0.681052
v 0.647489 -0.590848 -0.633524
v 0.647489 -0.590848 -0.633524
v 0.667274 -0.930984 -0.643530
v 0.667274 -0.930984 -0.643530
v 0.803949 0.524403 -1.805561
v 0.803949 0.524403 -1.805561
v 0.698064 -0.158455 -0.674225
v 0.698064 -0.158455 -0.674225
v 0.743322 -0.036427 -0.721644
v 0.743322 -0.036427 -0.721644
v 0.778052 0.057216 -0.758033
v 0.778052 0.057216 -0.758033
v 1.040638 0.424736 -1.567915
v 1.068692 0.248874 -1.632494
v 0.994478 0.435214 -1.686309
v 1.096386 0.374481 -1.318413
v 1.121993 0.150583 -1.411169
v 1.085774 0.204570 -1.074497
v 1.113959 0.013302 -1.251244
v 1.008272 0.014967 -0.928110
v 0.639304 -0.314534 -1.825420
v 0.687123 -1.157205 -0.663851
v 0.687123 -1.157205 -0.663851
v 0.977045 0.019860 -1.760094
v 0.868224 0.470017 -1.826211
v 0.925710 0.381691 -1.822032
v 0.962364 0.242099 -1.810536
v 1.060236 0.093432 -1.612197
v 1.076437 -0.153677 -1.096401
v 1.015419 -0.317436 -0.970524
v 0.928587 -0.606438 -0.888387
v 0.875163 -0.764874 -0.809111
v 0.592214 -1.297556 -1.058636
v 0.709016 -1.355810 -0.787800
v 0.709016 -1.355810 -0.787800
v 0.677121 -1.474187 -0.786186
v 0.677121 -1.474187 -0.786186
v 0.800161 -0.929037 -0.748276
v 0.739197 -0.931434 -0.665392
v -0.799765 -0.983164 -0.998876
v -0.858600 -0.593297 -1.188626
v -0.747004 -0.994120 -1.084978
v -0.912447 -0.597739 -1.044528
v -0.936997 -0.483205 -1.119425
v -0.874345 0.029818 -1.878260
v -0.866512 0.230069 -1.905739
v -0.787903 0.053220 -1.925807
v -0.742087 -1.251174 -0.901483
v -0.697565 -1.271381 -0.948699
v -0.477286 -1.095566 -1.181471
v -0.477286 -1.095566 -1.181471
v -0.446530 -0.807887 -1.428245
v -0.352741 -0.808087 -1.433047
v -0.352741 -0.808087 -1.433047
v -0.739158 -1.212518 -0.826888
v -0.739158 -1.212518 -0.826888
v -0.739158 -1.212518 -0.826888
v -0.830065 -0.924902 -0.905593
v -0.746025 -1.217112 -0.841828
v -0.327303 -0.682230 -1.593152
v -0.327303 -0.682230 -1.593152
v -0.443016 -0.679205 -1.591277
v -0.462693 -0.539360 -1.739195
v -0.342803 -0.545456 -1.737888
v -0.342803 -0.545456 -1.737888
v -0.812994 -0.168811 -0.724437
v -0.936957 -0.184657 -0.826949
v -0.847071 -0.604847 -0.743695
v -0.755349 -0.597190 -0.674677
v -0.517117 -0.338744 -1.867592
v -0.585510 -0.166736 -1.936691
v -0.492716 -0.165369 -1.947189
v -0.492716 -0.165369 -1.947189
v -0.412559 -0.340617 -1.872964
v -0.412559 -0.340617 -1.872964
v -0.912667 0.546685 -1.279085
v -0.912667 0.546685 -1.279085
v -1.006000 0.483010 -1.291964
v -0.996667 0.316892 -1.033276
v -0.903514 0.390252 -1.021008
v -0.903514 0.390252 -1.021008
v -0.729399 0.098111 -1.974646
v -0.671978 0.134737 -1.980987
v -0.671978 0.134737 -1.980987
v -0.808517 0.296677 -1.932248
v -0.747669 0.342183 -1.925093
v -0.747669 0.342183 -1.925093
v -0.846374 0.603754 -1.676509
v -0.846374 0.603754 -1.676509
v -0.924142 0.542023 -1.686037
v -0.965289 0.552963 -1.545864
v -0.880967 0.631708 -1.521896
v -0.880967 0.631708 -1.521896
v -0.996506 -0.345356 -1.262414
v -1.021500 -0.209357 -1.434893
v -0.916263 -0.330024 -1.533463
v -0.886233 -0.467133 -1.353877
v -0.859310 -0.045657 -0.773442
v -0.839200 -0.099129 -0.752164
v -0.712086 -1.397945 -0.757286
v -0.712086 -1.397945 -0.757286
v -0.761521 -1.196437 -0.771062
v -0.708753 -1.421950 -0.724625
v -0.708753 -1.421950 -0.724625
v -0.610365 -1.500957 -0.922717
v -0.610365 -1.500957 -0.922717
v -0.651605 -1.279631 -1.026397
v -0.587704 -1.470874 -0.987158
v -0.587704 -1.470874 -0.987158
v -0.631225 -1.218830 -0.961306
v -0.631225 -1.218830 -0.961306
v -0.631225 -1.218830 -0.961306
v -0.676096 -1.258163 -0.989731
v -0.624331 -1.452781 -0.900052
v -0.624331 -1.452781 -0.900052
v -0.841938 -0.140512 -1.838782
v -0.692002 -0.165611 -1.910768
v -0.768330 -0.285843 -1.784365
v -0.581007 -0.646491 -1.543894
v -0.738340 -0.587922 -1.473269
v -0.760148 -0.439305 -1.640458
v -0.605332 -0.503869 -1.709003
v -0.564097 -1.054863 -1.196859
v -0.661018 -1.053778 -1.158221
v -0.708609 -0.706627 -1.312699
v -0.558624 -0.777729 -1.391964
v -1.027473 -0.076715 -1.582023
v -0.890449 -0.222796 -1.706215
v -0.925134 0.141183 -0.880491
v -0.838175 0.229913 -0.866587
v -0.838175 0.229913 -0.866587
v -0.703371 -1.399801 -0.695805
v -0.703371 -1.399801 -0.695805
v -0.737087 -1.154405 -0.682458
v -0.529922 -1.334892 -1.066084
v -0.529922 -1.334892 -1.066084
v -0.644837 -1.406925 -0.902457
v -0.644837 -1.406925 -0.902457
v -0.664309 -1.497626 -0.804685
v -0.664309 -1.497626 -0.804685
v -0.652735 -1.489313 -0.840966
v -0.652735 -1.489313 -0.840966
v -0.697353 -1.348685 -0.681052
v -0.697353 -1.348685 -0.681052
v -0.647489 -0.590848 -0.633524
v -0.647489 -0.590848 -0.633524
v -0.667274 -0.930984 -0.643530
v -0.667274 -0.930984 -0.643530
v -0.698064 -0.158455 -0.674225
v -0.698064 -0.158455 -0.674225
v -0.778052 0.057216 -0.758033
v -0.778052 0.057216 -0.758033
v -0.743322 -0.036427 -0.721644
v -0.743322 -0.036427 -0.721644
v -1.040638 0.424736 -1.567915
v -0.994478 0.435214 -1.686309
v -1.068692 0.248874 -1.632494
v -1.096386 0.374481 -1.318413
v -1.121993 0.150583 -1.411169
v -1.085774 0.204570 -1.074497
v -1.113959 0.013302 -1.251244
v -1.008272 0.014967 -0.928110
v -0.639304 -0.314534 -1.825420
v -0.687123 -1.157205 -0.663851
v -0.687123 -1.157205 -0.663851
v -0.977045 0.019860 -1.760094
v -0.868224 0.470017 -1.826211
v -0.803949 0.524403 -1.805561
v -0.803949 0.524403 -1.805561
v -0.925710 0.381691 -1.822032
v -0.962364 0.242099 -1.810536
v -1.060236 0.093432 -1.612197
v -1.076437 -0.153677 -1.096401
v -1.015419 -0.317436 -0.970524
v -0.928587 -0.606438 -0.888387
v -0.875163 -0.764874 -0.809111
v -0.592214 -1.297556 -1.058636
v -0.709016 -1.355810 -0.787800
v -0.709016 -1.355810 -0.787800
v -0.677121 -1.474187 -0.786186
v -0.677121 -1.474187 -0.786186
v -0.800161 -0.929037 -0.748276
v -0.739197 -0.931434 -0.665392
vt 0.462645 0.094518
vt 0.442952 0.113126
vt 0.445663 0.094212
vt 0.460211 0.109885
vt 0.476961 0.094046
vt 0.473855 0.107322
vt 0.427875 0.168496
vt 0.376522 0.230342
vt 0.376433 0.209434
vt 0.323523 0.245546
vt 0.351652 0.242746
vt 0.324624 0.256225
vt 0.351078 0.226740
vt 0.322129 0.232026
vt 0.350351 0.206474
vt 0.317859 0.216056
vt 0.346923 0.187459
vt 0.312726 0.196858
vt 0.342665 0.163844
vt 0.302577 0.169050
vt 0.331611 0.137709
vt 0.288247 0.129787
vt 0.316896 0.098108
vt 0.267099 0.071841
vt 0.305139 0.054854
vt 0.256382 0.061442
vt 0.291458 0.042827
vt 0.247917 0.053229
vt 0.280652 0.033326
vt 0.399835 0.042450
vt 0.335825 0.019502
vt 0.403170 0.028297
vt 0.340142 0.039224
vt 0.390020 0.072829
vt 0.347116 0.077444
vt 0.380306 0.102696
vt 0.360251 0.114141
vt 0.263986 0.227333
vt 0.284623 0.222751
vt 0.279309 0.235322
vt 0.269484 0.215713
vt 0.261022 0.203198
vt 0.266301 0.194106
vt 0.259050 0.176567
vt 0.264774 0.171210
vt 0.257077 0.149937
vt 0.263247 0.148315
vt 0.268507 0.112700
vt 0.274874 0.109867
vt 0.282201 0.068088
vt 0.286501 0.071420
vt 0.310758 0.028977
vt 0.308948 0.042220
vt 0.336488 0.008334
vt 0.331406 0.025651
vt 0.328984 0.023007
vt 0.323734 0.025697
vt 0.376322 0.182962
vt 0.430660 0.136311
vt 0.429806 0.143734
vt 0.373564 0.160612
vt 0.321398 0.152851
vt 0.303431 0.134544
vt 0.319446 0.128578
vt 0.301267 0.168884
vt 0.315600 0.186473
vt 0.295953 0.189223
vt 0.310776 0.214441
vt 0.291351 0.206836
vt 0.304351 0.231923
vt 0.299276 0.245731
vt 0.470309 0.211259
vt 0.444559 0.206217
vt 0.486404 0.225889
vt 0.458383 0.200260
vt 0.477508 0.199551
vt 0.468449 0.193279
vt 0.467434 0.313239
vt 0.457245 0.315963
vt 0.463837 0.318968
vt 0.449347 0.312364
vt 0.471030 0.307510
vt 0.453908 0.305441
vt 0.473425 0.299118
vt 0.456566 0.301067
vt 0.460282 0.294953
vt 0.458501 0.297883
vt 0.456656 0.281819
vt 0.478657 0.264040
vt 0.480132 0.243717
vt 0.477055 0.286124
vt 0.458708 0.289250
vt 0.475001 0.293476
vt 0.291944 0.075638
vt 0.305596 0.100205
vt 0.290038 0.108477
vt 0.306655 0.058988
vt 0.324973 0.047575
vt 0.282213 0.108542
vt 0.271057 0.146261
vt 0.272021 0.164428
vt 0.272984 0.182594
vt 0.276445 0.201000
vt 0.320180 0.010243
vt 0.310773 0.015013
vt 0.406506 0.014143
vt 0.332437 0.004027
vt 0.370215 0.133465
vt 0.316689 0.094307
vt 0.431621 0.127962
vt 0.465080 0.079152
vt 0.448373 0.075297
vt 0.479658 0.082516
vt 0.400991 0.022100
vt 0.434050 0.048530
vt 0.400528 0.043607
vt 0.434969 0.037132
vt 0.401455 0.000592
vt 0.435511 0.025853
vt 0.456352 0.041312
vt 0.455662 0.049012
vt 0.460658 0.188169
vt 0.437338 0.214602
vt 0.438703 0.189927
vt 0.461574 0.168234
vt 0.461417 0.182285
vt 0.453689 0.193256
vt 0.433490 0.107456
vt 0.435360 0.086950
vt 0.417597 0.064700
vt 0.468288 0.075419
vt 0.473048 0.078390
vt 0.451905 0.117365
vt 0.462020 0.112738
vt 0.489961 0.209356
vt 0.492339 0.198306
vt 0.492117 0.192039
vt 0.489466 0.188844
vt 0.484233 0.184490
vt 0.487759 0.186962
vt 0.481171 0.182344
vt 0.472050 0.183120
vt 0.466815 0.180409
vt 0.471643 0.178731
vt 0.279096 0.145373
vt 0.291855 0.143963
vt 0.278721 0.170849
vt 0.285818 0.181187
vt 0.296366 0.120793
vt 0.428959 0.220859
vt 0.473993 0.054396
vt 0.475059 0.060203
vt 0.464032 0.067781
vt 0.424451 0.059452
vt 0.476012 0.065396
vt 0.476413 0.067582
vt 0.476501 0.165834
vt 0.463043 0.144691
vt 0.440703 0.153779
vt 0.460855 0.133441
vt 0.475872 0.154442
vt 0.475419 0.146217
usemtl mat_0
s 1
f 2/1 1/2 9/3
f 9/1 10/4 2/2
f 103/5 10/4 9/1
f 103/5 101/6 10/4
f 11/7 13/8 15/9
f 25/10 21/11 23/12
f 25/10 26/13 21/11
f 81/14 26/13 25/10
f 81/14 80/15 26/13
f 82/16 80/15 81/14
f 82/16 83/17 80/15
f 57/18 83/17 82/16
f 57/18 56/19 83/17
f 58/20 56/19 57/18
f 58/20 55/21 56/19
f 124/22 55/21 58/20
f 124/22 134/23 55/21
f 123/24 134/23 124/22
f 123/24 125/25 134/23
f 41/26 125/25 123/24
f 41/26 92/27 125/25
f 39/28 92/27 41/26
f 39/28 90/29 92/27
f 29/30 27/31 28/32
f 29/30 30/33 27/31
f 136/34 30/33 29/30
f 136/34 135/35 30/33
f 4/36 135/35 136/34
f 4/36 5/37 135/35
f 34/38 31/39 32/40
f 34/38 36/41 31/39
f 43/42 36/41 34/38
f 43/42 45/43 36/41
f 46/44 45/43 43/42
f 46/44 48/45 45/43
f 111/46 48/45 46/44
f 111/46 130/47 48/45
f 49/48 130/47 111/46
f 49/48 54/49 130/47
f 51/50 54/49 49/48
f 51/50 53/51 54/49
f 37/52 53/51 51/50
f 37/52 42/53 53/51
f 39/54 42/53 37/52
f 39/54 41/55 42/53
f 30/33 60/56 27/31
f 30/33 59/57 60/56
f 125/25 59/57 30/33
f 125/25 92/27 59/57
f 85/58 87/59 84/60
f 85/58 86/61 87/59
f 80/15 86/61 85/58
f 80/15 83/17 86/61
f 57/62 89/63 58/64
f 57/62 88/65 89/63
f 82/66 88/65 57/62
f 82/66 78/67 88/65
f 81/68 78/67 82/66
f 81/68 126/69 78/67
f 25/70 126/69 81/68
f 25/70 31/39 126/69
f 23/71 31/39 25/70
f 23/71 32/40 31/39
f 73/72 108/73 12/74
f 73/72 18/75 108/73
f 98/76 18/75 73/72
f 98/76 140/77 18/75
f 47/78 50/79 110/80
f 47/78 52/81 50/79
f 44/82 52/81 47/78
f 44/82 38/83 52/81
f 35/84 38/83 44/82
f 35/84 40/85 38/83
f 116/86 40/85 35/84
f 116/86 91/87 40/85
f 112/88 22/89 14/90
f 112/88 24/91 22/89
f 114/92 24/91 112/88
f 114/92 33/93 24/91
f 116/86 33/93 114/92
f 116/86 35/84 33/93
f 118/94 122/95 119/96
f 118/94 121/97 122/95
f 53/51 121/97 118/94
f 53/51 42/53 121/97
f 41/55 123/98 121/97
f 42/53 41/55 121/97
f 120/99 53/51 118/94
f 120/99 54/49 53/51
f 131/100 54/49 120/99
f 131/100 130/47 54/49
f 8/101 130/47 131/100
f 8/101 48/45 130/47
f 7/102 48/45 8/101
f 7/102 45/43 48/45
f 79/103 45/43 7/102
f 79/103 36/41 45/43
f 126/69 36/41 79/103
f 126/69 31/39 36/41
f 15/9 84/60 11/7
f 15/9 85/58 84/60
f 26/13 85/58 15/9
f 26/13 80/15 85/58
f 59/57 115/104 60/56
f 59/57 117/105 115/104
f 92/27 117/105 59/57
f 92/27 90/29 117/105
f 27/31 107/106 28/32
f 27/31 113/107 107/106
f 60/56 113/107 27/31
f 60/56 115/104 113/107
f 3/108 55/21 5/37
f 3/108 56/19 55/21
f 86/61 56/19 3/108
f 86/61 83/17 56/19
f 21/11 26/13 15/9
f 13/8 21/11 15/9
f 89/63 122/95 124/109
f 58/64 89/63 124/109
f 134/23 5/37 55/21
f 134/23 135/35 5/37
f 125/25 135/35 134/23
f 125/25 30/33 135/35
f 86/61 3/108 2/110
f 87/59 86/61 2/110
f 19/111 1/3 20/112
f 9/111 1/1 19/3
f 141/113 9/1 19/111
f 141/113 103/5 9/1
f 28/114 143/115 29/116
f 28/114 144/117 143/115
f 107/118 144/117 28/114
f 107/118 109/119 144/117
f 127/120 93/121 144/117
f 109/119 127/120 144/117
f 97/122 11/123 84/124
f 138/125 97/122 84/124
f 228/124 155/123 241/122
f 282/125 228/124 241/122
f 104/126 128/127 108/73
f 18/75 104/126 108/73
f 154/4 145/3 147/2
f 154/4 153/1 145/3
f 247/6 153/1 154/4
f 247/6 245/5 153/1
f 155/7 157/9 158/8
f 167/13 169/12 165/11
f 167/13 168/10 169/12
f 224/15 168/10 167/13
f 224/15 227/14 168/10
f 225/17 227/14 224/15
f 225/17 226/16 227/14
f 202/19 226/16 225/17
f 202/19 201/18 226/16
f 199/21 201/18 202/19
f 199/21 200/20 201/18
f 278/23 200/20 199/21
f 278/23 266/22 200/20
f 267/25 266/22 278/23
f 267/25 265/24 266/22
f 234/27 265/24 267/25
f 234/27 184/26 265/24
f 235/29 184/26 234/27
f 235/29 185/28 184/26
f 172/33 174/32 171/31
f 172/33 173/30 174/32
f 279/35 173/30 172/33
f 279/35 280/34 173/30
f 149/37 280/34 279/35
f 149/37 148/36 280/34
f 176/41 179/40 175/39
f 176/41 177/38 179/40
f 187/43 177/38 176/41
f 187/43 188/42 177/38
f 190/45 188/42 187/43
f 190/45 191/44 188/42
f 272/47 191/44 190/45
f 272/47 273/46 191/44
f 195/49 273/46 272/47
f 195/49 193/48 273/46
f 196/51 193/48 195/49
f 196/51 197/50 193/48
f 183/53 197/50 196/51
f 183/53 181/52 197/50
f 184/55 181/52 183/53
f 184/55 185/54 181/52
f 203/57 171/31 204/56
f 203/57 172/33 171/31
f 234/27 172/33 203/57
f 234/27 267/25 172/33
f 230/61 228/60 229/59
f 230/61 231/58 228/60
f 225/17 231/58 230/61
f 225/17 224/15 231/58
f 233/65 200/64 232/63
f 233/65 201/62 200/64
f 223/67 201/62 233/65
f 223/67 226/66 201/62
f 268/69 226/66 223/67
f 268/69 227/68 226/66
f 175/39 227/68 268/69
f 175/39 168/70 227/68
f 179/40 168/70 175/39
f 179/40 169/71 168/70
f 162/75 156/74 252/73
f 162/75 217/72 156/74
f 284/77 217/72 162/75
f 284/77 242/76 217/72
f 182/83 192/78 198/81
f 182/83 189/82 192/78
f 186/85 189/82 182/83
f 186/85 178/84 189/82
f 236/87 178/84 186/85
f 236/87 256/86 178/84
f 170/91 159/90 166/89
f 170/91 254/88 159/90
f 180/93 254/88 170/91
f 180/93 258/92 254/88
f 178/84 258/92 180/93
f 178/84 256/86 258/92
f 263/97 262/96 264/95
f 263/97 260/94 262/96
f 183/53 260/94 263/97
f 183/53 196/51 260/94
f 263/97 265/98 184/55
f 183/53 263/97 184/55
f 195/49 260/94 196/51
f 195/49 261/99 260/94
f 272/47 261/99 195/49
f 272/47 275/100 261/99
f 190/45 275/100 272/47
f 190/45 151/101 275/100
f 187/43 151/101 190/45
f 187/43 152/102 151/101
f 176/41 152/102 187/43
f 176/41 222/103 152/102
f 175/39 222/103 176/41
f 175/39 268/69 222/103
f 231/58 155/7 228/60
f 231/58 157/9 155/7
f 224/15 157/9 231/58
f 224/15 167/13 157/9
f 257/105 204/56 259/104
f 257/105 203/57 204/56
f 235/29 203/57 257/105
f 235/29 234/27 203/57
f 255/107 174/32 251/106
f 255/107 171/31 174/32
f 259/104 171/31 255/107
f 259/104 204/56 171/31
f 202/19 149/37 199/21
f 202/19 146/108 149/37
f 225/17 146/108 202/19
f 225/17 230/61 146/108
f 157/9 167/13 165/11
f 158/8 157/9 165/11
f 266/109 264/95 232/63
f 200/64 266/109 232/63
f 279/35 199/21 149/37
f 279/35 278/23 199/21
f 172/33 278/23 279/35
f 172/33 267/25 278/23
f 147/110 146/108 230/61
f 229/59 147/110 230/61
f 153/1 163/112 145/3
f 153/1 164/111 163/112
f 245/5 164/111 153/1
f 245/5 285/113 164/111
f 288/117 173/116 287/115
f 288/117 174/114 173/116
f 253/119 174/114 288/117
f 253/119 251/118 174/114
f 288/117 239/121 269/120
f 253/119 288/117 269/120
f 252/73 270/127 248/126
f 162/75 252/73 248/126
f 194/79 198/81 192/78
f 274/80 194/79 192/78
f 3/108 1/128 2/110
f 4/108 1/36 3/128
f 5/37 4/36 3/108
f 20/36 1/129 4/128
f 4/36 136/34 20/129
f 137/130 20/129 136/34
f 136/34 29/30 137/130
f 16/131 19/111 20/112
f 16/131 139/132 19/111
f 141/113 19/111 139/132
f 10/4 72/133 2/2
f 10/4 99/134 72/133
f 101/6 99/134 10/4
f 96/135 73/72 12/74
f 96/135 69/136 73/72
f 67/137 73/72 69/136
f 67/137 75/138 73/72
f 102/139 98/76 100/140
f 102/139 140/77 98/76
f 142/141 140/77 102/139
f 62/142 104/126 18/75
f 62/142 95/143 104/126
f 65/144 95/143 62/142
f 119/96 120/99 118/94
f 119/96 131/100 120/99
f 132/145 131/100 119/96
f 132/145 8/101 131/100
f 129/146 8/101 132/145
f 129/146 6/147 8/101
f 77/148 6/147 129/146
f 77/148 7/102 6/147
f 79/103 7/102 77/148
f 77/148 78/67 79/103
f 88/65 78/67 77/148
f 77/148 129/146 88/65
f 89/63 88/65 129/146
f 129/146 133/149 89/63
f 119/96 133/149 129/146
f 119/96 122/95 133/149
f 89/63 133/149 122/95
f 6/147 7/102 8/101
f 79/103 78/67 126/69
f 119/96 129/146 132/145
f 124/109 121/97 123/98
f 124/109 122/95 121/97
f 14/90 106/150 112/88
f 14/90 12/74 106/150
f 108/73 106/150 12/74
f 105/151 93/121 127/120
f 105/151 94/152 93/121
f 63/153 93/121 94/152
f 63/153 143/115 93/121
f 20/112 143/115 63/153
f 20/112 137/154 143/115
f 29/116 143/115 137/154
f 144/117 93/121 143/115
f 64/155 63/153 94/152
f 64/155 61/156 63/153
f 17/131 63/153 61/156
f 17/131 20/112 63/153
f 138/125 68/157 97/122
f 138/125 70/158 68/157
f 87/159 70/158 138/125
f 87/159 2/2 70/158
f 76/160 70/158 2/2
f 76/160 66/161 70/158
f 74/162 66/161 76/160
f 76/160 71/133 74/162
f 2/2 71/133 76/160
f 66/161 68/157 70/158
f 138/125 84/124 87/159
f 145/128 146/108 147/110
f 145/128 148/36 146/108
f 163/129 148/36 145/128
f 163/129 280/34 148/36
f 281/130 280/34 163/129
f 281/130 173/30 280/34
f 148/36 149/37 146/108
f 164/111 160/131 163/112
f 164/111 283/132 160/131
f 285/113 283/132 164/111
f 216/133 154/4 147/2
f 216/133 243/134 154/4
f 247/6 154/4 243/134
f 217/72 240/135 156/74
f 217/72 214/136 240/135
f 211/137 214/136 217/72
f 217/72 220/138 211/137
f 242/76 244/139 246/140
f 242/76 284/77 244/139
f 286/141 244/139 284/77
f 248/126 206/142 162/75
f 248/126 238/143 206/142
f 209/144 206/142 238/143
f 261/99 262/96 260/94
f 261/99 275/100 262/96
f 276/145 262/96 275/100
f 276/145 271/146 262/96
f 151/101 271/146 276/145
f 151/101 150/147 271/146
f 152/102 150/147 151/101
f 152/102 221/148 150/147
f 222/103 221/148 152/102
f 222/103 223/67 221/148
f 268/69 223/67 222/103
f 275/100 151/101 276/145
f 221/148 271/146 150/147
f 221/148 233/65 271/146
f 223/67 233/65 221/148
f 232/63 271/146 233/65
f 232/63 277/149 271/146
f 264/95 277/149 232/63
f 264/95 262/96 277/149
f 271/146 277/149 262/96
f 263/97 266/109 265/98
f 263/97 264/95 266/109
f 250/150 159/90 254/88
f 250/150 156/74 159/90
f 252/73 156/74 250/150
f 239/121 249/151 269/120
f 239/121 237/152 249/151
f 207/153 237/152 239/121
f 207/153 208/155 237/152
f 205/156 208/155 207/153
f 207/153 161/131 205/156
f 163/112 161/131 207/153
f 207/153 287/115 163/112
f 239/121 287/115 207/153
f 239/121 288/117 287/115
f 287/115 281/154 163/112
f 287/115 173/116 281/154
f 213/157 282/125 241/122
f 213/157 212/158 282/125
f 210/161 212/158 213/157
f 210/161 218/160 212/158
f 219/162 218/160 210/161
f 219/162 215/133 218/160
f 147/2 218/160 215/133
f 147/2 212/158 218/160
f 229/159 212/158 147/2
f 229/159 282/125 212/158
f 228/124 282/125 229/159
