# Blender v2.66 (sub 1) OBJ File: 'BR_Beedrill.blend'
# www.blender.org
mtllib BR_Beedrill.mtl
o spear
v 0.418473 0.435806 0.139917
v 0.418473 -0.290742 -0.157820
v 0.000000 -0.452541 -0.224125
v -0.418473 -0.290742 -0.157820
v -0.418473 0.435806 0.139917
v 0.000000 0.574953 0.196939
v 0.591811 0.099875 0.002254
v -0.591810 0.099876 0.002254
v 0.920521 0.542924 0.735945
v 1.301810 -0.186137 0.456750
v 0.000000 0.783262 0.814864
v -0.920520 0.542924 0.735945
v -1.301810 -0.186137 0.456750
v -0.920521 -1.046660 0.123679
v 0.000000 -1.402580 -0.022172
v 0.920521 -1.046660 0.123679
v 1.202720 0.647550 1.381300
v 1.700900 -0.382125 1.191390
v -1.202720 0.647551 1.381300
v 0.000000 1.063400 1.452930
v -1.301810 0.608715 2.243350
v 0.000000 1.070470 2.286280
v 1.301810 0.608715 2.243350
v 1.841040 -0.509904 2.139830
v -1.700900 -0.382124 1.191390
v -1.841040 -0.509904 2.139830
v -1.202720 -1.584710 1.030730
v -1.301810 -1.819860 2.035950
v 0.000000 -2.082830 0.964175
v 0.000000 -2.359030 1.963920
v 1.202720 -1.584710 1.030730
v 1.301810 -1.819860 2.035950
v 1.188290 0.631134 3.042930
v 1.680490 -0.393477 3.156540
v -0.978186 0.629712 4.056290
v -1.188290 0.631135 3.042930
v -1.680490 -0.393477 3.156540
v -1.383360 -0.213738 4.149810
v -1.188290 -1.584880 3.288640
v -0.978186 -1.194500 4.258550
v 1.383360 -0.213739 4.149810
v 0.978186 0.629712 4.056290
v 0.000000 -2.078380 3.343360
v 0.000000 -1.600740 4.303600
v 0.000000 0.979081 4.017550
v 0.000000 1.055540 2.995880
v 0.978186 -1.194500 4.258550
v 1.188290 -1.584880 3.288640
v 0.355652 0.546044 4.761780
v 0.502968 0.251059 4.852240
v 0.637096 -0.516188 4.879360
v 0.000000 -0.770699 4.957400
v 0.000000 -0.234025 5.000990
v -0.355653 -0.091947 4.957420
v -0.637097 -0.516188 4.879350
v -0.502969 0.251059 4.852240
v -0.841072 0.098256 4.690930
v 0.355652 -0.091947 4.957420
v -0.637096 0.626677 4.528890
v 0.000000 0.668231 4.724310
v 0.000000 0.845557 4.461770
v -0.355653 0.546044 4.761780
v -0.265677 1.059480 -1.938880
v -0.375724 0.768587 -2.121820
v -0.694248 0.711242 -1.926980
v 0.375724 -0.214339 0.023033
v 0.265677 -0.433119 -0.257205
v 0.490907 -0.515126 -0.600423
v 0.694248 -0.071703 -0.376506
v 0.641401 -0.469318 -1.028980
v 0.907078 0.110042 -0.736416
v 0.694248 -0.302670 -1.477620
v 0.981814 0.324424 -1.160960
v 0.641401 -0.055560 -1.848340
v 0.907078 0.523800 -1.555780
v 0.490907 0.267819 -2.150890
v 0.694248 0.711242 -1.926980
v 0.265677 0.615117 -2.333030
v 0.375724 0.768587 -2.121820
v 0.000000 1.293980 -1.166860
v 0.641401 1.068400 -1.280780
v 0.265677 1.059480 -1.938880
v 0.000000 -0.532522 -0.307401
v 0.000000 -0.698797 -0.693172
v 0.000000 -0.709297 -1.150160
v 0.000000 -0.562422 -1.608790
v 0.000000 -0.295539 -1.969530
v 0.123097 -0.249595 -1.943710
v 0.125079 -0.247636 -1.944070
v 0.000000 0.084147 -2.243640
v 0.000000 0.515715 -2.383230
v -0.265677 -0.433119 -0.257205
v -0.490907 -0.515126 -0.600423
v -0.641401 -0.469318 -1.028980
v -0.694248 -0.302670 -1.477620
v -0.641401 -0.055560 -1.848340
v -0.490907 0.267819 -2.150890
v -0.265677 0.615117 -2.333030
v -0.641401 1.068400 -1.280780
v -0.981814 0.324424 -1.160960
v -0.641401 0.654640 -0.461408
v -0.375724 -0.214339 0.023033
v -0.694248 -0.071703 -0.376506
v -0.907078 0.110042 -0.736416
v -0.907078 0.523800 -1.555780
v 0.641401 0.654640 -0.461409
v -0.265677 0.011241 0.136944
v 0.000000 0.880220 -0.347497
v 0.265677 0.011241 0.136944
v 2.763020 -1.960190 -0.047557
v 5.736870 -3.320840 -0.375766
v 6.034500 -1.173400 -6.581520
v 3.060660 0.187248 -6.253310
v 0.086813 1.547900 -5.925100
v -0.210822 -0.599535 0.280652
v 2.872180 -2.759870 1.750310
v 5.459670 -4.010970 1.220340
v 5.159410 -2.271690 -4.352070
v 2.571910 -1.020580 -3.822100
v -0.015587 0.230529 -3.292130
v 0.284680 -1.508760 2.280280
v -3.060660 0.187248 -6.253310
v -6.034500 -1.173400 -6.581520
v -5.736870 -3.320840 -0.375766
v -2.763020 -1.960190 -0.047557
v 0.210823 -0.599534 0.280652
v -0.086812 1.547900 -5.925100
v -2.571910 -1.020580 -3.822100
v -5.159410 -2.271690 -4.352070
v -5.459670 -4.010980 1.220340
v -2.872170 -2.759870 1.750310
v -0.284680 -1.508760 2.280280
v -0.015307 0.230529 -3.292120
v 2.029760 2.412230 -2.272360
v 1.510800 1.629790 -1.638660
v 1.932090 2.406720 -2.395890
v 1.299430 1.772530 -1.652890
v 1.889720 2.506800 -2.281780
v 1.366600 1.627640 -1.811240
v 1.443630 1.774680 -1.480310
v 1.088760 1.279060 -1.180790
v 0.754442 1.061330 -1.265100
v 0.674209 0.663154 -0.912119
v 1.018660 0.882894 -1.247310
v 0.797296 0.828080 -1.375230
v 1.977040 2.691040 -2.192730
v 2.196250 3.173620 -1.845770
v 2.103510 2.804690 -2.192690
v 2.672790 2.914410 -1.684920
v 3.468760 6.213170 0.746756
v 2.094400 2.954510 -1.391310
v 2.676470 3.345420 -2.172250
v 1.730620 3.378580 -1.714830
v 2.090210 3.625220 -2.196620
v 0.351708 0.937267 -0.091787
v 0.519187 0.703934 0.002391
v 0.949831 1.178810 0.516172
v 0.272443 0.602361 -0.295527
v 2.329410 2.726560 1.495390
v 2.317900 2.874810 1.323020
v 0.588036 0.844836 -0.256007
v 1.096590 1.303620 0.185601
v 2.483050 2.718130 1.323800
v 0.788983 1.475060 0.335194
v 2.385080 2.857360 1.384030
v 2.663820 2.623930 1.461550
v 3.346450 0.225567 4.407730
v 3.321630 0.158746 4.350950
v 3.123360 0.741207 3.560030
v 3.057830 0.878494 3.706560
v 3.202280 0.853397 3.645140
v 3.118660 1.303040 3.184650
v 2.920180 1.350870 3.252420
v 3.263790 0.185546 4.391590
v 3.016770 1.136090 3.086900
v 3.000700 0.759667 3.609520
v 3.457560 0.002386 4.668410
v 3.325220 0.056220 4.531660
v 3.400850 0.026664 4.706680
v 2.805680 1.325620 2.977830
v 2.358750 2.683290 1.501070
v 2.758650 2.791580 1.663960
v 2.474260 2.897330 1.674070
v 3.187960 1.676480 2.782120
v 2.431620 1.815340 2.471780
v 2.823040 1.893440 2.935600
v 2.915360 1.422030 2.513210
v 3.992460 0.706009 5.070560
v 4.198270 0.880422 5.030570
v 4.136310 0.615336 4.971590
v 4.413570 0.809586 5.328280
v -0.948141 1.174800 0.520384
v -0.518338 0.702478 0.003557
v -0.351679 0.936462 -0.090463
v -0.272441 0.602377 -0.295559
v -2.316870 2.865340 1.337520
v -2.327450 2.716510 1.509450
v -1.096330 1.300360 0.190738
v -0.588396 0.844063 -0.254142
v -2.481680 2.708310 1.338380
v -0.788553 1.471970 0.339791
v -2.383790 2.847560 1.398710
v -2.388660 2.779100 1.477800
v -2.459610 2.775330 1.399110
v -2.662630 2.614550 1.476910
v -3.123350 0.737844 3.580510
v -3.321840 0.157694 4.373070
v -3.346480 0.224699 4.429710
v -2.919410 1.346380 3.271190
v -3.118040 1.298740 3.203730
v -3.201980 0.850384 3.665430
v -3.057430 0.875378 3.726640
v -3.263920 0.184493 4.413590
v -3.016540 1.131370 3.106300
v -3.000610 0.756211 3.629830
v -3.325430 0.055622 4.554040
v -3.457720 0.002360 4.691060
v -3.400930 0.026633 4.729210
v -2.805230 1.320260 2.996550
v -2.357410 2.673480 1.515970
v -2.756960 2.782870 1.679000
v -2.472360 2.888140 1.688560
v -3.187090 1.671310 2.800360
v -2.430830 1.808060 2.488910
v -2.821630 1.888000 2.952930
v -2.915210 1.415710 2.531800
v -4.196520 0.882594 5.051800
v -4.135090 0.617254 4.993410
v -4.411650 0.812874 5.349890
v -1.949260 2.511580 -2.246960
v -1.520550 1.677060 -1.558260
v -2.047470 2.505020 -2.123910
v -1.375660 1.691860 -1.729650
v -1.908680 2.601860 -2.124350
v -1.311050 1.823240 -1.558930
v -1.455930 1.808450 -1.387550
v -2.077970 2.547340 -2.151650
v -1.937990 2.645010 -2.152090
v -1.095630 1.293230 -1.130610
v -2.050410 2.617920 -2.380830
v -0.758098 1.088050 -1.231910
v -0.673910 0.661668 -0.914598
v -0.797401 0.864765 -1.362170
v -1.019970 0.905327 -1.231080
v -2.268460 3.129540 -1.559990
v -1.985110 2.756650 -2.006680
v -2.270140 3.191740 -1.622050
v -2.110680 2.868400 -1.981040
v -2.075990 2.914030 -1.138660
v -3.296850 6.025450 1.291910
v -1.710410 3.353290 -1.439070
v -2.077150 3.646420 -1.888330
v 0.000000 2.527740 -1.600460
v -0.599811 2.426200 -1.958690
v -0.649231 2.268760 -1.648270
v 0.798136 0.490255 -3.315480
v 0.988402 0.718610 -2.615110
v 0.610867 0.416999 -2.932430
v -1.331210 1.330250 -3.274280
v -0.988402 0.718609 -2.615110
v -1.295950 1.571570 -2.756480
v -0.798135 0.490255 -3.315480
v 0.000000 0.402478 -2.643180
v 0.295774 1.149950 -1.815130
v -0.295773 1.149950 -1.815130
v 0.000000 2.374890 -1.302720
v 0.649231 2.268760 -1.648270
v -0.610867 0.416999 -2.932430
v 0.000000 2.553410 -2.157000
v -0.459075 2.494860 -2.443370
v -1.021310 1.353240 -3.664360
v 0.459075 2.494860 -2.443370
v -0.798135 1.036830 -3.823680
v 0.000000 1.324050 -3.975570
v 0.000001 0.901159 -3.961340
v 0.000000 0.311699 -3.039690
v 0.000001 0.353277 -3.454850
v 0.000001 0.560269 -3.778480
v 0.000000 1.736520 -3.855680
v -0.417731 2.096120 -3.473400
v 1.155370 1.497560 -2.197490
v 0.798136 1.036830 -3.823680
v -0.629015 1.662200 -3.770760
v -0.717432 2.342120 -2.436350
v -0.884285 1.180880 -2.068680
v -0.599811 1.946050 -1.508680
v -1.155370 1.497560 -2.197490
v 0.884285 1.180880 -2.068680
v 0.599811 1.946050 -1.508680
v 0.599811 2.426200 -1.958690
v -1.048210 2.079610 -2.418880
v 0.000000 2.499790 -2.893070
v -0.376278 2.407690 -2.886060
v -0.591445 2.403630 -2.523940
v 1.378420 1.855470 -2.981420
v 1.385230 1.647950 -3.336290
v 1.303820 1.893590 -3.328330
v 1.298450 2.004240 -3.135300
v 1.171710 2.186340 -2.712660
v 1.383390 1.428540 -3.309560
v 1.376190 1.701350 -2.846860
v 1.109950 2.137420 -2.497910
v 0.951230 2.199360 -3.407990
v 0.943514 2.323690 -3.184070
v 1.148440 2.124990 -3.285100
v 0.904443 2.435140 -2.752490
v 0.760751 2.462500 -2.549940
v 1.043570 2.039840 -3.532710
v 1.115200 1.467150 -3.713500
v 1.179970 1.677500 -3.645450
v 1.192740 1.909590 -3.495640
v 1.189030 2.185720 -2.991250
v 1.044390 2.320370 -3.012810
v 0.537937 2.172410 -3.505180
v 0.517221 2.470510 -2.963410
v 0.718053 2.441270 -3.068940
v 0.755087 1.781610 -3.802990
v 0.736851 2.216010 -3.485270
v 0.904348 1.918180 -3.713950
v -1.303820 1.893590 -3.328330
v -1.385230 1.647950 -3.336290
v -1.378420 1.855470 -2.981420
v -1.298450 2.004240 -3.135300
v -1.171710 2.186340 -2.712660
v -1.148440 2.125000 -3.285100
v -0.943514 2.323690 -3.184070
v -0.951230 2.199360 -3.407990
v -0.904443 2.435140 -2.752490
v -1.043570 2.039840 -3.532710
v -1.192740 1.909590 -3.495640
v -1.179970 1.677500 -3.645450
v -1.189030 2.185720 -2.991250
v -1.044390 2.320370 -3.012810
v -0.718053 2.441270 -3.068940
v -0.736851 2.216010 -3.485270
v -0.904348 1.918180 -3.713950
v 1.153660 2.738410 -4.211390
v 0.060844 1.630290 -3.444980
v 0.060844 1.630290 -3.444980
v 1.118860 2.877660 -4.152490
v 1.329890 3.604210 -2.970650
v 1.447380 3.450220 -2.745900
v 1.447380 3.450220 -2.745900
v 1.474050 3.424890 -2.973380
v -1.170090 2.916190 -4.420800
v -0.060844 1.630290 -3.444980
v -0.060844 1.630290 -3.444980
v -1.153660 2.738410 -4.211390
v -1.118860 2.877650 -4.152490
v -1.474040 3.424890 -2.973380
v 0.827757 0.098255 4.690930
v 0.637096 0.626676 4.528890
v 0.000000 1.216560 6.080310
v 2.059850 2.452380 -2.303570
v 1.918610 2.547750 -2.313070
v 2.032520 2.502330 -2.538140
v 2.086840 2.625720 -2.178920
v 2.280110 3.134160 -1.831250
v 2.278860 3.184570 -1.903210
v 2.390370 2.789170 1.463320
v 2.461050 2.785290 1.384390
v 3.524210 0.172465 4.700410
v -3.524040 0.172635 4.722700
v -3.990980 0.707917 5.092000
v -2.094610 2.689790 -1.999460
v -2.185090 3.171040 -1.571240
v -2.663660 2.911910 -1.416130
v -2.669890 3.380310 -1.867600
v 0.591445 2.403630 -2.523940
v 0.376278 2.407690 -2.886060
v 0.417731 2.096120 -3.473400
v 1.295950 1.571570 -2.756470
v 0.629015 1.662200 -3.770760
v 1.048210 2.079610 -2.418880
v 1.021310 1.353240 -3.664360
v 1.331210 1.330250 -3.274280
v 0.717432 2.342120 -2.436350
v -1.376190 1.701350 -2.846860
v -1.383380 1.428540 -3.309560
v -1.109950 2.137420 -2.497910
v -0.760751 2.462500 -2.549940
v -1.115200 1.467150 -3.713500
v -0.517220 2.470510 -2.963410
v -0.537936 2.172410 -3.505180
v -0.755087 1.781610 -3.802990
v 1.170090 2.916200 -4.420800
v -1.447370 3.450220 -2.745900
v -1.447370 3.450220 -2.745900
v -1.329870 3.604210 -2.970650
vt 0.694205 0.318057
vt 0.475818 0.000000
vt 0.527392 0.271912
vt 0.833843 0.102674
vt 0.785562 0.470321
vt 1.000000 0.442179
vt 0.747947 0.639511
vt 0.952060 0.809781
vt 0.603395 0.726517
vt 0.643002 1.000000
vt 0.411238 0.683699
vt 0.224051 0.905321
vt 0.309383 0.532812
vt 0.000000 0.573414
vt 0.357496 0.362245
vt 0.105834 0.198214
vt 0.309707 0.630546
vt 0.555825 0.392841
vt 0.373368 0.433099
vt 0.609762 0.631680
vt 0.278541 0.808642
vt 0.670581 0.810125
vt 0.284613 0.940275
vt 0.708954 0.941880
vt 0.325303 0.998517
vt 0.717343 1.000000
vt 0.398195 0.989842
vt 0.698249 0.990977
vt 0.491838 0.914139
vt 0.628853 0.896676
vt 0.108456 0.448469
vt 0.264451 0.334560
vt 0.015593 0.570748
vt 0.000000 0.682780
vt 0.114528 0.806453
vt 0.062355 0.760623
vt 0.113255 0.805606
vt 0.196943 0.807766
vt 0.382921 0.815600
vt 0.212385 0.551406
vt 0.391278 0.676859
vt 0.435474 0.370934
vt 0.486641 0.561111
vt 0.123897 0.192109
vt 0.272808 0.195819
vt 0.035769 0.235797
vt 0.021838 0.320232
vt 0.082531 0.425672
vt 0.346987 0.011638
vt 0.413612 0.057276
vt 0.327249 0.000000
vt 0.337334 0.065007
vt 0.374011 0.189875
vt 0.685977 0.541842
vt 0.745546 0.198387
vt 0.698784 0.008512
vt 0.953238 0.249318
vt 0.567507 0.060802
vt 0.668066 0.298082
vt 0.941556 0.581357
vt 0.988318 0.771232
vt 1.000000 0.439193
vt 0.786537 0.779122
vt 0.128759 0.533809
vt 0.013246 0.546699
vt 0.000000 0.739486
vt 0.066045 0.353049
vt 0.167865 0.321384
vt 0.274713 0.091080
vt 0.388908 0.233430
vt 0.500000 0.000000
vt 0.611092 0.233430
vt 0.725288 0.091080
vt 0.832135 0.321384
vt 0.933955 0.353050
vt 0.871242 0.533809
vt 0.986754 0.546699
vt 1.000000 0.739486
vt 0.799778 0.790329
vt 0.729440 0.658599
vt 0.500000 0.700929
vt 0.500000 0.557368
vt 0.270560 0.658599
vt 0.200222 0.790329
vt 0.116397 0.875863
vt 0.200222 0.945655
vt 0.500000 0.950350
vt 0.500000 1.000000
vt 0.799778 0.945655
vt 0.500000 0.986721
vt 0.736256 0.899968
vt 0.500000 0.926659
vt 0.656899 0.776482
vt 0.343101 0.776482
vt 0.500000 0.554654
vt 0.358671 0.556170
vt 0.327573 0.396501
vt 0.277855 0.428822
vt 0.230534 0.400635
vt 0.274713 0.228785
vt 0.500000 0.293121
vt 0.500000 0.098241
vt 0.725288 0.228785
vt 0.743850 0.126278
vt 0.893705 0.405839
vt 0.263744 0.899968
vt 0.500000 0.845331
vt 0.883603 0.875863
vt 0.256151 0.126278
vt 0.106295 0.405839
vt 0.672428 0.396501
vt 0.769466 0.400635
vt 0.641329 0.556170
vt 0.722145 0.428822
vt 0.750000 0.710526
vt 0.961940 -0.033788
vt 0.853553 0.710526
vt 0.826641 -0.033788
vt 0.500000 0.710526
vt 0.500000 -0.033788
vt 0.250000 0.710526
vt 0.173359 -0.033788
vt 0.146447 0.710526
vt 0.038060 -0.033788
vt 0.853553 0.963158
vt 0.956396 0.099615
vt 1.000000 0.963158
vt 0.822721 0.099615
vt 0.500000 0.963158
vt 0.500000 0.099615
vt 0.146447 0.963158
vt 0.177279 0.099615
vt 0.000000 0.963158
vt 0.043603 0.099615
vt 0.173359 1.097670
vt 0.500000 0.181869
vt 0.500000 1.097670
vt 0.146447 0.181869
vt 0.038060 1.097670
vt 0.000000 0.181869
vt 0.826641 1.097670
vt 0.853553 0.181869
vt 0.961940 1.097670
vt 1.000000 0.181869
vt 0.043603 1.090130
vt 0.234339 0.284127
vt 0.177279 1.090130
vt 0.124298 0.284127
vt 0.500000 1.090130
vt 0.500000 0.284127
vt 0.822721 1.090130
vt 0.765661 0.284127
vt 0.956396 1.090130
vt 0.875701 0.284127
vt 0.825652 0.454273
vt 0.628546 0.039665
vt 0.681792 0.039665
vt 0.730271 0.454273
vt 1.000000 1.732070
vt 0.853553 1.732070
vt 0.500000 0.454273
vt 0.500000 1.732070
vt 0.269729 0.454273
vt 0.146447 1.732070
vt 0.174348 0.454273
vt 0.000000 1.732070
vt 0.371454 0.039665
vt 0.500000 0.039665
vt 0.318208 0.039665
vt 0.860262 0.955422
vt 0.507583 -0.018842
vt 0.756965 0.955422
vt 0.507583 0.955422
vt 0.258202 0.955422
vt 0.154905 0.955422
vt 1.000000 0.000000
vt 1.000000 1.000000
vt 0.000000 1.000000
vt 0.000000 0.000000
vt 0.074365 0.191527
vt -0.000000 0.285269
vt 0.003344 0.404912
vt 0.032669 0.187113
vt 0.004629 -0.000000
vt 0.000591 0.099011
vt 0.458358 0.491258
vt 0.405727 0.271793
vt 0.392131 0.400899
vt 0.454084 0.335553
vt 0.780463 0.511378
vt 0.685465 0.318567
vt 0.706092 0.387180
vt 0.639721 0.265357
vt 0.313138 0.088042
vt 0.239120 0.000000
vt 0.438932 0.075663
vt 0.000000 0.023956
vt 0.430483 0.106698
vt 0.233899 0.029791
vt 0.586666 0.711773
vt 1.000000 0.780301
vt 0.816002 0.801722
vt 0.095687 0.719857
vt 1.000000 0.847326
vt 0.554442 0.723153
vt 0.013835 0.655302
vt 0.795069 0.838266
vt 0.297579 0.223741
vt 0.521809 0.562469
vt 0.184512 0.120927
vt 1.000000 0.860152
vt 0.760634 1.000000
vt 0.000000 0.089292
vt 0.026754 0.115164
vt 0.078865 0.347829
vt 0.042318 0.275165
vt 0.045028 0.000000
vt 0.006040 0.278549
vt 0.000000 0.355185
vt 0.282732 0.658063
vt 0.460572 0.616550
vt 0.291007 0.733911
vt 0.454213 0.510105
vt 0.164593 0.655018
vt 0.341130 0.464896
vt 0.174157 0.718829
vt 0.297767 0.601063
vt 0.172202 0.999127
vt 0.025035 0.910576
vt 0.032476 1.000000
vt 0.089987 0.908708
vt 0.042232 0.967192
vt 0.036728 0.876693
vt 0.075481 0.000000
vt -0.000000 0.885253
vt 1.000000 0.823395
vt 0.438385 1.000000
vt 0.293190 0.931659
vt 0.166931 0.635913
vt 0.372964 0.757761
vt 0.278526 0.809586
vt 0.233723 0.000000
vt 0.732511 0.887594
vt 0.925777 0.608437
vt 0.946844 0.610577
vt 0.947126 0.658921
vt 0.931529 0.387885
vt 0.521976 0.623317
vt 0.530003 0.318981
vt 0.178820 0.311316
vt 0.151900 0.000000
vt 0.000000 0.504223
vt 0.179347 0.401759
vt 0.273938 0.846554
vt 0.514372 1.000000
vt 0.926057 0.656371
vt 0.522399 0.695668
vt 1.000000 0.296499
vt 1.000000 0.750033
vt 0.318636 0.954183
vt 0.993910 0.390959
vt 0.327915 0.976578
vt 0.996319 0.774956
vt 0.456533 0.496936
vt 0.098269 0.949741
vt 0.097759 1.000000
vt 0.770127 0.387740
vt 0.694692 0.975796
vt 0.634907 0.383933
vt 0.843719 0.598250
vt 0.949684 0.489004
vt 1.000000 0.746213
vt 0.909940 1.000000
vt 0.869563 0.952075
vt 0.799128 0.836935
vt 0.864721 0.983679
vt 0.412221 0.859282
vt 0.863669 1.000000
vt 0.536790 0.994161
vt 0.962513 0.968327
vt 1.000000 0.756416
vt 0.946263 0.471494
vt 0.282567 0.455685
vt 0.260757 0.658949
vt 0.398197 0.056162
vt 0.222619 1.000000
vt 0.831762 0.980738
vt 0.652145 0.100227
vt 0.636554 0.776438
vt 0.866707 0.473907
vt 0.876387 1.000000
vt 1.000000 0.778491
vt 0.962047 0.655227
vt 0.758602 0.457377
vt 0.849871 0.013914
vt 0.813964 0.177822
vt 0.848219 0.050424
vt 0.779460 0.018171
vt 0.995288 0.029787
vt 0.447200 0.200302
vt 0.716220 0.365660
vt 0.634677 0.586571
vt 1.000000 0.187724
vt 0.875915 0.000000
vt 0.326101 0.508567
vt 0.000000 0.928378
vt 0.117792 0.924031
vt 0.789680 1.000000
vt 0.000000 0.013102
vt 0.021382 0.032399
vt 0.174913 0.000000
vt 0.098273 0.138831
vt 0.007228 0.122299
vt 0.194813 0.019408
vt 0.518592 0.204795
vt 0.635803 0.352251
vt 1.000000 0.792492
vt 0.856780 1.000000
vt 0.998347 0.887520
vt 0.672770 0.817002
vt 0.751915 0.486668
vt 0.374020 0.371858
vt 0.491231 0.519316
vt 1.000000 0.750034
vt 0.993911 0.390959
vt 0.327916 0.976578
vt 0.097760 1.000000
vt 0.996319 0.774957
vt 1.000000 0.815221
vt 0.644276 0.667951
vt 0.691119 0.613755
vt 0.496455 1.000000
vt 0.147389 0.668205
vt 0.440175 0.278423
vt 0.621350 0.601709
vt 0.972488 0.372994
vt 0.246128 0.505093
vt 0.460065 0.738023
vt 0.533826 0.713390
vt 0.054748 0.819348
vt 0.520027 1.000000
vt 1.000000 0.801623
vt 0.522415 0.763130
vt 0.828568 0.496323
vt 0.519953 0.706047
vt 0.515998 0.669661
vt 0.816794 0.719255
vt 0.750172 0.744004
vt 0.485839 0.892650
vt 0.627351 0.875081
vt 0.726015 0.913556
vt 0.464536 0.946020
vt 0.829456 0.834609
vt 0.683108 0.832406
vt 0.503111 0.831477
vt 0.640526 0.783297
vt 0.515932 0.762755
vt 0.271655 0.743425
vt 0.191581 0.718498
vt 0.035689 0.836680
vt 0.006102 0.839324
vt 0.087020 0.948788
vt 0.121771 0.940148
vt 0.152730 0.833790
vt 0.218786 0.912942
vt 0.316867 0.831963
vt 0.352841 0.874749
vt 0.381554 0.782984
vt 0.442859 0.983367
vt 0.433837 0.990082
vt 0.919874 0.837750
vt 0.784497 0.940951
vt 0.790278 0.948421
vt 0.927768 0.841077
vt 0.826882 0.714612
vt 0.565617 0.669667
vt 0.439650 0.669250
vt 0.155055 0.712385
usemtl mat_0
s 1
f 1/1 10/2 7/3
f 1/1 9/4 10/2
f 9/5 1/4 6/1
f 6/5 11/6 9/4
f 5/7 11/6 6/5
f 5/7 12/8 11/6
f 8/9 12/8 5/7
f 8/9 13/10 12/8
f 4/11 13/10 8/9
f 4/11 14/12 13/10
f 3/13 14/12 4/11
f 3/13 15/14 14/12
f 2/15 15/14 3/13
f 2/15 16/16 15/14
f 7/3 16/16 2/15
f 7/3 10/2 16/16
f 68/17 66/18 67/19
f 68/17 69/20 66/18
f 70/21 69/20 68/17
f 70/21 71/22 69/20
f 72/23 71/22 70/21
f 72/23 73/24 71/22
f 74/25 73/24 72/23
f 74/25 75/26 73/24
f 76/27 75/26 74/25
f 76/27 77/28 75/26
f 78/29 77/28 76/27
f 78/29 79/30 77/28
f 84/31 67/19 83/32
f 84/31 68/17 67/19
f 85/33 68/17 84/31
f 85/33 70/21 68/17
f 86/34 70/21 85/33
f 86/34 72/23 70/21
f 86/34 74/25 72/23
f 86/34 89/35 74/25
f 87/36 89/35 86/34
f 87/36 88/37 89/35
f 89/35 76/27 74/25
f 89/35 90/38 76/27
f 88/37 90/38 89/35
f 88/37 87/36 90/38
f 90/38 78/29 76/27
f 90/38 91/39 78/29
f 97/40 91/39 90/38
f 97/40 98/41 91/39
f 65/42 98/41 97/40
f 65/42 64/43 98/41
f 93/44 83/32 92/45
f 93/44 84/31 83/32
f 94/46 84/31 93/44
f 94/46 85/33 84/31
f 95/47 85/33 94/46
f 95/47 86/34 85/33
f 96/48 86/34 95/47
f 96/48 87/36 86/34
f 97/40 87/36 96/48
f 97/40 90/38 87/36
f 103/49 92/45 102/50
f 103/49 93/44 92/45
f 104/51 93/44 103/49
f 104/51 94/46 93/44
f 100/52 94/46 104/51
f 100/52 95/47 94/46
f 105/53 95/47 100/52
f 105/53 96/48 95/47
f 65/42 96/48 105/53
f 65/42 97/40 96/48
f 2/15 1/1 7/3
f 3/15 1/13 2/1
f 6/5 1/1 3/13
f 3/13 5/7 6/5
f 4/11 5/7 3/13
f 4/11 8/9 5/7
f 65/42 63/54 64/43
f 65/42 99/55 63/54
f 105/53 99/55 65/42
f 105/53 100/52 99/55
f 101/56 99/55 100/52
f 101/56 108/57 99/55
f 107/58 108/57 101/56
f 107/58 109/59 108/57
f 83/32 109/59 107/58
f 83/32 67/19 109/59
f 66/18 109/59 67/19
f 66/18 69/20 109/59
f 106/60 109/59 69/20
f 106/60 108/57 109/59
f 81/61 108/57 106/60
f 81/61 80/62 108/57
f 82/63 80/62 81/61
f 82/63 63/54 80/62
f 91/39 63/54 82/63
f 91/39 98/41 63/54
f 64/43 63/54 98/41
f 80/62 99/55 108/57
f 80/62 63/54 99/55
f 71/22 106/60 69/20
f 71/22 73/24 106/60
f 81/61 106/60 73/24
f 73/24 75/26 81/61
f 77/28 81/61 75/26
f 77/28 82/63 81/61
f 79/30 82/63 77/28
f 79/30 78/29 82/63
f 91/39 82/63 78/29
f 104/51 101/56 100/52
f 104/51 103/49 101/56
f 107/58 101/56 103/49
f 103/49 102/50 107/58
f 92/45 107/58 102/50
f 92/45 83/32 107/58
f 260/64 261/65 259/66
f 260/64 287/67 261/65
f 285/68 287/67 260/64
f 285/68 286/69 287/67
f 265/70 286/69 285/68
f 265/70 266/71 286/69
f 264/72 266/71 265/70
f 264/72 289/73 266/71
f 288/74 289/73 264/72
f 288/74 281/75 289/73
f 257/76 281/75 288/74
f 257/76 372/77 281/75
f 376/78 372/77 257/76
f 257/76 256/79 376/78
f 258/80 256/79 257/76
f 258/80 276/81 256/79
f 263/82 276/81 258/80
f 263/82 268/83 276/81
f 260/64 268/83 263/82
f 260/64 262/84 268/83
f 259/66 262/84 260/64
f 259/66 271/85 262/84
f 273/86 262/84 271/85
f 273/86 278/87 262/84
f 275/88 278/87 273/86
f 275/88 282/89 278/87
f 274/90 282/89 275/88
f 274/90 373/91 282/89
f 279/92 373/91 274/90
f 279/92 371/93 373/91
f 280/94 371/93 279/92
f 280/94 292/95 371/93
f 293/96 292/95 280/94
f 293/96 270/97 292/95
f 294/98 270/97 293/96
f 294/98 284/99 270/97
f 254/100 270/97 284/99
f 254/100 269/101 270/97
f 253/102 269/101 254/100
f 253/102 290/103 269/101
f 267/104 290/103 253/102
f 267/104 374/105 290/103
f 281/75 374/105 267/104
f 281/75 372/77 374/105
f 257/76 263/82 258/80
f 257/76 264/72 263/82
f 288/74 264/72 257/76
f 265/70 263/82 264/72
f 265/70 260/64 263/82
f 285/68 260/64 265/70
f 273/86 274/90 275/88
f 273/86 283/106 274/90
f 271/85 283/106 273/86
f 262/84 276/81 268/83
f 262/84 277/107 276/81
f 278/87 277/107 262/84
f 278/87 256/79 277/107
f 282/89 256/79 278/87
f 282/89 375/108 256/79
f 373/91 375/108 282/89
f 375/108 376/78 256/79
f 276/81 277/107 256/79
f 267/104 289/73 281/75
f 267/104 266/71 289/73
f 253/102 266/71 267/104
f 253/102 255/109 266/71
f 254/100 255/109 253/102
f 254/100 291/110 255/109
f 284/99 291/110 254/100
f 255/109 286/69 266/71
f 255/109 287/67 286/69
f 291/110 287/67 255/109
f 291/110 261/65 287/67
f 269/101 292/95 270/97
f 269/101 272/111 292/95
f 290/103 272/111 269/101
f 290/103 377/112 272/111
f 374/105 377/112 290/103
f 283/106 279/92 274/90
f 283/106 280/94 279/92
f 292/95 370/113 371/93
f 292/95 272/111 370/113
f 369/114 370/113 272/111
f 272/111 377/112 369/114
usemtl mat_1
f 9/115 18/116 10/117
f 9/115 17/118 18/116
f 11/119 17/118 9/115
f 11/119 20/120 17/118
f 12/121 20/120 11/119
f 12/121 19/122 20/120
f 13/123 19/122 12/121
f 13/123 25/124 19/122
f 14/121 25/124 13/123
f 14/121 27/122 25/124
f 15/119 27/122 14/121
f 15/119 29/120 27/122
f 16/115 29/120 15/119
f 16/115 31/118 29/120
f 10/117 31/118 16/115
f 10/117 18/116 31/118
f 23/125 34/126 24/127
f 23/125 33/128 34/126
f 22/129 33/128 23/125
f 22/129 46/130 33/128
f 21/131 46/130 22/129
f 21/131 36/132 46/130
f 26/133 36/132 21/131
f 26/133 37/134 36/132
f 28/131 37/134 26/133
f 28/131 39/132 37/134
f 30/129 39/132 28/131
f 30/129 43/130 39/132
f 32/125 43/130 30/129
f 32/125 48/128 43/130
f 24/127 48/128 32/125
f 24/127 34/126 48/128
usemtl mat_2
f 19/135 22/136 20/137
f 19/135 21/138 22/136
f 25/139 21/138 19/135
f 25/139 26/140 21/138
f 27/135 26/140 25/139
f 27/135 28/138 26/140
f 29/137 28/138 27/135
f 29/137 30/136 28/138
f 31/141 30/136 29/137
f 31/141 32/142 30/136
f 18/143 32/142 31/141
f 18/143 24/144 32/142
f 17/141 24/144 18/143
f 17/141 23/142 24/144
f 20/137 23/142 17/141
f 20/137 22/136 23/142
f 37/145 35/146 36/147
f 37/145 38/148 35/146
f 39/147 38/148 37/145
f 39/147 40/146 38/148
f 43/149 40/146 39/147
f 43/149 44/150 40/146
f 48/151 44/150 43/149
f 48/151 47/152 44/150
f 34/153 47/152 48/151
f 34/153 41/154 47/152
f 33/151 41/154 34/153
f 33/151 42/152 41/154
f 46/149 42/152 33/151
f 46/149 45/150 42/152
f 36/147 45/150 46/149
f 36/147 35/146 45/150
usemtl mat_3
f 351/155 49/156 50/157
f 351/155 352/158 49/156
f 41/159 352/158 351/155
f 41/159 42/160 352/158
f 52/161 47/160 51/158
f 52/161 44/162 47/160
f 55/163 44/162 52/161
f 55/163 40/164 44/162
f 57/165 40/164 55/163
f 57/165 38/166 40/164
f 59/163 38/166 57/165
f 59/163 35/164 38/166
f 61/161 35/164 59/163
f 61/161 45/162 35/164
f 352/158 45/162 61/161
f 352/158 42/160 45/162
f 52/161 54/167 55/163
f 52/161 53/168 54/167
f 51/158 53/168 52/161
f 51/158 58/156 53/168
f 351/155 58/156 51/158
f 351/155 50/157 58/156
f 351/155 51/158 47/160
f 41/159 351/155 47/160
f 56/169 55/163 54/167
f 56/169 57/165 55/163
f 62/167 57/165 56/169
f 62/167 59/163 57/165
f 60/168 59/163 62/167
f 60/168 61/161 59/163
f 49/156 61/161 60/168
f 49/156 352/158 61/161
usemtl mat_4
f 50/170 353/171 58/172
f 50/170 49/172 353/171
f 60/173 353/171 49/172
f 60/173 62/174 353/171
f 56/175 353/171 62/174
f 56/175 54/174 353/171
f 53/173 353/171 54/174
f 53/173 58/172 353/171
usemtl mat_5
f 113/88 111/176 112/177
f 113/88 110/71 111/176
f 114/178 110/71 113/88
f 114/178 115/179 110/71
f 125/71 123/177 124/176
f 125/71 122/88 123/177
f 126/179 122/88 125/71
f 126/179 127/178 122/88
usemtl mat_6
f 119/88 117/176 118/177
f 119/88 116/71 117/176
f 120/178 116/71 119/88
f 120/178 121/179 116/71
f 131/71 129/177 130/176
f 131/71 128/88 129/177
f 132/179 128/88 131/71
f 132/179 133/178 128/88
usemtl mat_7
f 159/180 165/181 160/182
f 159/180 360/183 165/181
f 163/184 360/183 159/180
f 163/184 361/185 360/183
f 160/182 361/185 163/184
f 160/182 165/181 361/185
f 173/186 171/187 172/188
f 173/186 170/189 171/187
f 180/190 170/189 173/186
f 180/190 176/191 170/189
f 175/192 176/191 180/190
f 175/192 169/193 176/191
f 172/188 169/193 175/192
f 172/188 171/187 169/193
f 167/194 177/195 168/196
f 167/194 362/197 177/195
f 174/198 362/197 167/194
f 174/198 179/199 362/197
f 188/200 179/201 177/202
f 190/203 188/200 177/202
f 218/204 364/205 228/206
f 217/207 218/204 228/206
f 341/177 340/208 337/179
f 343/209 341/177 337/179
f 349/210 389/211 388/212
f 348/213 349/210 388/212
f 203/214 196/215 202/216
f 203/214 197/217 196/215
f 204/218 197/217 203/214
f 204/218 200/219 197/217
f 202/216 200/219 204/218
f 202/216 196/215 200/219
f 212/220 210/221 211/222
f 212/220 209/223 210/221
f 215/224 209/223 212/220
f 215/224 219/225 209/223
f 206/226 219/225 215/224
f 206/226 214/227 219/225
f 211/222 214/227 206/226
f 211/222 210/221 214/227
f 363/228 207/229 217/230
f 363/228 208/231 207/229
f 218/232 208/231 363/228
f 218/232 213/233 208/231
f 386/177 339/234 340/235
f 349/236 347/179 345/237
f 337/238 338/234 386/177
f 337/238 340/235 338/234
f 341/177 386/239 340/208
f 341/177 344/240 386/239
f 342/209 344/240 341/177
f 342/209 386/239 344/240
f 337/179 386/239 342/209
f 346/179 348/241 345/237
f 346/179 349/236 348/241
f 345/242 389/211 349/210
f 345/242 350/243 389/211
f 387/212 350/243 345/242
f 387/212 389/211 350/243
f 345/242 348/213 387/212
f 134/244 354/245 355/246
f 134/244 136/247 354/245
f 135/248 136/247 134/244
f 135/248 139/249 136/247
f 144/250 139/249 135/248
f 144/250 145/251 139/249
f 143/252 145/251 144/250
f 143/252 142/253 145/251
f 141/254 142/253 143/252
f 141/254 140/255 142/253
f 135/248 140/255 141/254
f 135/248 134/244 140/255
f 138/256 140/255 134/244
f 138/256 137/257 140/255
f 139/249 137/257 138/256
f 139/249 145/251 137/257
f 142/253 137/257 145/251
f 142/253 140/255 137/257
f 138/256 136/247 139/249
f 138/256 356/258 136/247
f 355/246 356/258 138/256
f 138/256 134/244 355/246
f 356/258 354/245 136/247
f 144/250 141/254 143/252
f 144/250 135/248 141/254
f 358/259 357/260 359/261
f 358/259 146/262 357/260
f 147/263 146/262 358/259
f 147/263 148/264 146/262
f 359/261 148/264 147/263
f 359/261 357/260 148/264
f 354/265 148/264 357/260
f 354/265 356/179 148/264
f 146/262 148/264 356/179
f 356/179 355/266 146/262
f 357/260 146/262 355/266
f 355/266 354/265 357/260
f 160/182 157/267 159/180
f 160/182 164/268 157/267
f 162/269 164/268 160/182
f 162/269 161/270 164/268
f 156/271 161/270 162/269
f 156/271 158/272 161/270
f 155/273 158/272 156/271
f 155/273 161/270 158/272
f 164/268 161/270 155/273
f 155/273 157/267 164/268
f 156/271 157/267 155/273
f 156/271 162/269 157/267
f 163/184 157/267 162/269
f 163/184 159/180 157/267
f 160/182 163/184 162/269
f 361/274 166/275 360/276
f 361/274 182/277 166/275
f 165/278 182/277 361/274
f 165/278 183/279 182/277
f 360/276 183/279 165/278
f 360/276 181/280 183/279
f 166/275 181/280 360/276
f 166/275 185/281 181/280
f 187/282 185/281 166/275
f 187/282 180/190 185/281
f 175/192 180/190 187/282
f 187/282 184/283 175/192
f 166/275 184/283 187/282
f 166/275 182/277 184/283
f 186/284 184/283 182/277
f 186/284 172/188 184/283
f 173/186 172/188 186/284
f 186/284 185/281 173/186
f 183/279 185/281 186/284
f 183/279 181/280 185/281
f 182/277 183/279 186/284
f 185/281 180/190 173/186
f 184/283 172/188 175/192
f 168/196 169/193 167/194
f 168/196 174/198 169/193
f 178/285 174/198 168/196
f 178/285 179/199 174/198
f 177/195 179/199 178/285
f 178/285 168/196 177/195
f 171/187 167/194 169/193
f 171/187 170/189 167/194
f 176/191 167/194 170/189
f 176/191 174/198 167/194
f 169/193 174/198 176/191
f 188/200 189/286 179/201
f 188/200 191/179 189/286
f 190/203 191/179 188/200
f 190/203 189/286 191/179
f 177/202 189/286 190/203
f 177/202 362/287 189/286
f 179/201 189/286 362/287
f 197/217 192/288 196/215
f 197/217 200/219 192/288
f 198/289 192/288 200/219
f 198/289 193/290 192/288
f 199/291 193/290 198/289
f 199/291 195/292 193/290
f 194/293 195/292 199/291
f 194/293 193/290 195/292
f 192/288 193/290 194/293
f 194/293 201/294 192/288
f 199/291 201/294 194/293
f 199/291 198/289 201/294
f 196/215 201/294 198/289
f 196/215 192/288 201/294
f 198/289 200/219 196/215
f 203/295 205/296 204/297
f 203/295 220/298 205/296
f 222/299 220/298 203/295
f 222/299 224/300 220/298
f 225/301 224/300 222/299
f 225/301 209/223 224/300
f 210/221 209/223 225/301
f 225/301 223/302 210/221
f 221/303 223/302 225/301
f 221/303 205/296 223/302
f 204/297 205/296 221/303
f 221/303 202/304 204/297
f 222/299 202/304 221/303
f 222/299 203/295 202/304
f 225/301 222/299 221/303
f 224/300 205/296 220/298
f 224/300 226/305 205/296
f 219/225 226/305 224/300
f 219/225 214/227 226/305
f 223/302 226/305 214/227
f 223/302 205/296 226/305
f 209/223 219/225 224/300
f 214/227 210/221 223/302
f 208/231 206/226 207/229
f 208/231 211/222 206/226
f 212/220 211/222 208/231
f 208/231 215/224 212/220
f 213/233 215/224 208/231
f 213/233 206/226 215/224
f 207/229 206/226 213/233
f 213/233 216/306 207/229
f 218/232 216/306 213/233
f 218/232 217/230 216/306
f 207/229 216/306 217/230
f 218/204 227/307 364/205
f 218/204 363/308 227/307
f 217/207 227/307 363/308
f 217/207 228/206 227/307
f 229/179 227/307 228/206
f 229/179 364/205 227/307
f 228/206 364/205 229/179
f 237/309 232/310 238/311
f 237/309 230/312 232/310
f 240/313 230/312 237/309
f 240/313 234/314 230/312
f 238/311 234/314 240/313
f 238/311 232/310 234/314
f 236/315 234/314 232/310
f 236/315 235/316 234/314
f 241/317 235/316 236/315
f 241/317 243/318 235/316
f 242/319 243/318 241/317
f 242/319 244/320 243/318
f 239/321 244/320 242/319
f 239/321 231/322 244/320
f 236/315 231/322 239/321
f 236/315 232/310 231/322
f 230/312 231/322 232/310
f 230/312 233/323 231/322
f 234/314 233/323 230/312
f 234/314 235/316 233/323
f 243/318 233/323 235/316
f 243/318 244/320 233/323
f 231/322 233/323 244/320
f 239/321 241/317 236/315
f 239/321 242/319 241/317
f 365/260 245/324 247/325
f 365/260 246/326 245/324
f 238/327 246/326 365/260
f 238/327 240/179 246/326
f 248/264 246/326 240/179
f 248/264 366/328 246/326
f 247/325 366/328 248/264
f 248/264 365/260 247/325
f 237/265 365/260 248/264
f 237/265 238/327 365/260
f 240/179 237/265 248/264
f 246/326 366/328 245/324
usemtl mat_8
f 151/329 147/330 358/331
f 151/329 153/332 147/330
f 150/179 153/332 151/329
f 150/179 154/333 153/332
f 152/334 154/333 150/179
f 152/334 359/335 154/333
f 149/336 359/335 152/334
f 149/336 358/331 359/335
f 151/329 358/331 149/336
f 149/336 150/179 151/329
f 152/334 150/179 149/336
f 154/333 147/330 153/332
f 154/333 359/335 147/330
f 249/337 245/338 366/339
f 249/337 367/340 245/338
f 250/179 367/340 249/337
f 250/179 368/341 367/340
f 252/342 368/341 250/179
f 252/342 247/343 368/341
f 366/339 247/343 252/342
f 252/342 251/344 366/339
f 250/179 251/344 252/342
f 250/179 249/337 251/344
f 366/339 251/344 249/337
f 247/343 367/340 368/341
f 247/343 245/338 367/340
usemtl mat_9
f 306/345 307/346 302/347
f 299/348 306/345 302/347
f 311/349 297/350 296/351
f 310/352 311/349 296/351
f 381/346 328/345 324/348
f 380/347 381/346 324/348
f 320/350 330/349 331/352
f 321/351 320/350 331/352
f 297/350 295/353 296/351
f 297/350 298/354 295/353
f 305/355 298/354 297/350
f 305/355 312/356 298/354
f 313/357 312/356 305/355
f 313/357 306/345 312/356
f 316/358 306/345 313/357
f 316/358 315/359 306/345
f 314/360 315/359 316/358
f 314/360 371/361 315/359
f 373/362 371/361 314/360
f 314/360 317/363 373/362
f 318/364 317/363 314/360
f 318/364 319/365 317/363
f 303/366 319/365 318/364
f 303/366 308/367 319/365
f 305/355 308/367 303/366
f 305/355 311/349 308/367
f 297/350 311/349 305/355
f 316/358 318/364 314/360
f 316/358 304/368 318/364
f 313/357 304/368 316/358
f 313/357 305/355 304/368
f 303/366 304/368 305/355
f 303/366 318/364 304/368
f 310/352 308/367 311/349
f 310/352 319/365 308/367
f 309/369 319/365 310/352
f 309/369 317/363 319/365
f 375/370 317/363 309/369
f 375/370 373/362 317/363
f 299/348 312/356 306/345
f 299/348 298/354 312/356
f 295/353 298/354 299/348
f 299/348 302/347 295/353
f 301/371 295/353 302/347
f 301/371 296/351 295/353
f 300/372 296/351 301/371
f 300/372 310/352 296/351
f 309/369 310/352 300/372
f 300/372 376/373 309/369
f 372/374 376/373 300/372
f 300/372 301/371 372/374
f 374/375 372/374 301/371
f 301/371 302/347 374/375
f 377/376 374/375 302/347
f 302/347 307/346 377/376
f 369/377 377/376 307/346
f 307/346 315/359 369/377
f 306/345 315/359 307/346
f 375/370 309/369 376/373
f 370/378 315/359 371/361
f 370/378 369/377 315/359
f 321/351 322/353 320/350
f 321/351 378/371 322/353
f 379/372 378/371 321/351
f 379/372 261/374 378/371
f 259/373 261/374 379/372
f 379/372 382/369 259/373
f 331/352 382/369 379/372
f 331/352 336/365 382/369
f 329/367 336/365 331/352
f 329/367 327/366 336/365
f 325/355 327/366 329/367
f 325/355 326/368 327/366
f 333/357 326/368 325/355
f 333/357 334/358 326/368
f 328/345 334/358 333/357
f 328/345 383/359 334/358
f 381/346 383/359 328/345
f 381/346 294/377 383/359
f 284/376 294/377 381/346
f 381/346 380/347 284/376
f 291/375 284/376 380/347
f 380/347 378/371 291/375
f 322/353 378/371 380/347
f 380/347 324/348 322/353
f 323/354 322/353 324/348
f 323/354 320/350 322/353
f 325/355 320/350 323/354
f 325/355 330/349 320/350
f 329/367 330/349 325/355
f 329/367 331/352 330/349
f 261/374 291/375 378/371
f 379/372 321/351 331/352
f 382/369 271/370 259/373
f 382/369 385/363 271/370
f 336/365 385/363 382/369
f 336/365 335/364 385/363
f 327/366 335/364 336/365
f 327/366 326/368 335/364
f 334/358 335/364 326/368
f 334/358 384/360 335/364
f 383/359 384/360 334/358
f 383/359 280/361 384/360
f 293/378 280/361 383/359
f 383/359 294/377 293/378
f 384/360 385/363 335/364
f 384/360 283/362 385/363
f 280/361 283/362 384/360
f 283/362 271/370 385/363
f 332/356 325/355 323/354
f 332/356 333/357 325/355
f 328/345 333/357 332/356
f 332/356 324/348 328/345
f 323/354 324/348 332/356
