xof 0303txt 0032

template AnimTicksPerSecond {
  <9E415A43-7BA6-4a73-8743-B73D47E88476>
  DWORD AnimTicksPerSecond;
}

template XSkinMeshHeader {
  <3cf169ce-ff7c-44ab-93c0-f78f62d172e2>
  WORD nMaxSkinWeightsPerVertex;
  WORD nMaxSkinWeightsPerFace;
  WORD nBones;
}

template SkinWeights {
  <6f0d123b-bad2-4167-a0d0-80224f25fabb>
  STRING transformNodeName;
  DWORD nWeights;
  array DWORD vertexIndices[nWeights];
  array float weights[nWeights];
  Matrix4x4 matrixOffset;
}

Frame Root {
  FrameTransformMatrix {
     1.000000, 0.000000, 0.000000, 0.000000,
     0.000000, 0.000000, 1.000000, 0.000000,
     0.000000, 1.000000,-0.000000, 0.000000,
     0.000000, 0.000000, 0.000000, 1.000000;;
  }
  Frame juppeta_mat_0 {
    FrameTransformMatrix {
       1.000000, 0.000000, 0.000000, 0.000000,
       0.000000, 1.000000, 0.000000, 0.000000,
       0.000000, 0.000000, 1.000000, 0.000000,
       0.000000, 0.000000, 0.000000, 1.000000;;
    }
    Mesh { //Mesh Mesh
      24;
      -0.150832; 0.102000;-0.001584;,
      -0.284351;-1.422000; 0.131416;,
      -0.284351;-1.422000;-0.134584;,
       0.306763;-1.422000; 0.131416;,
      -0.284351;-1.422000; 0.131416;,
       0.173244; 0.102000;-0.001584;,
      -0.284351;-1.422000; 0.131416;,
      -0.150832; 0.102000;-0.001584;,
       0.173244; 0.102000;-0.001584;,
       0.173244; 0.102000;-0.001584;,
      -0.150832; 0.102000;-0.001584;,
       0.306763;-1.422000;-0.134584;,
      -0.150832; 0.102000;-0.001584;,
      -0.284351;-1.422000;-0.134584;,
       0.306763;-1.422000;-0.134584;,
       0.306763;-1.422000;-0.134584;,
      -0.284351;-1.422000;-0.134584;,
       0.306763;-1.422000; 0.131416;,
       0.306763;-1.422000; 0.131416;,
      -0.284351;-1.422000;-0.134584;,
      -0.284351;-1.422000; 0.131416;,
       0.173244; 0.102000;-0.001584;,
       0.306763;-1.422000;-0.134584;,
       0.306763;-1.422000; 0.131416;;
      8;
      3;0;1;2;,
      3;3;4;5;,
      3;6;7;8;,
      3;9;10;11;,
      3;12;13;14;,
      3;15;16;17;,
      3;18;19;20;,
      3;21;22;23;;
      MeshNormals { //Mesh Normals
        24;
         0.494827;-0.868954;-0.000000;,
         0.598926; 0.531632;-0.598834;,
         0.598926; 0.531632; 0.598834;,
        -0.598926; 0.531632;-0.598834;,
         0.598926; 0.531632;-0.598834;,
        -0.494827;-0.868954;-0.000000;,
         0.598926; 0.531632;-0.598834;,
         0.494827;-0.868954;-0.000000;,
        -0.494827;-0.868954;-0.000000;,
        -0.494827;-0.868954;-0.000000;,
         0.494827;-0.868954;-0.000000;,
        -0.598926; 0.531632; 0.598834;,
         0.494827;-0.868954;-0.000000;,
         0.598926; 0.531632; 0.598834;,
        -0.598926; 0.531632; 0.598834;,
        -0.598926; 0.531632; 0.598834;,
         0.598926; 0.531632; 0.598834;,
        -0.598926; 0.531632;-0.598834;,
        -0.598926; 0.531632;-0.598834;,
         0.598926; 0.531632; 0.598834;,
         0.598926; 0.531632;-0.598834;,
        -0.494827;-0.868954;-0.000000;,
        -0.598926; 0.531632; 0.598834;,
        -0.598926; 0.531632;-0.598834;;
        8;
        3;0;1;2;,
        3;3;4;5;,
        3;6;7;8;,
        3;9;10;11;,
        3;12;13;14;,
        3;15;16;17;,
        3;18;19;20;,
        3;21;22;23;;
      } //End of Mesh Normals
      MeshMaterialList { //Mesh Material List
        1;
        8;
        0,
        0,
        0,
        0,
        0,
        0,
        0,
        0;;
        Material mat_0 {
           0.640000; 0.640000; 0.640000; 1.000000;;
           92.156863;
           0.250000; 0.250000; 0.250000;;
           0.000000; 0.000000; 0.000000;;
          TextureFilename {"Textures/juppeta_0_0.tga";}
        }
      } //End of Mesh Material List
      MeshTextureCoords { //Mesh UV Coordinates
        24;
         0.000000; 0.000000;,
         0.000000; 1.000000;,
         0.000000; 1.000000;,
         0.960000; 1.000000;,
         0.000000; 1.000000;,
         0.960000; 0.000000;,
         0.000000; 1.000000;,
         0.000000; 0.000000;,
         0.960000; 0.000000;,
         0.960000; 0.000000;,
         0.000000; 0.000000;,
         0.960000; 1.000000;,
         0.000000; 0.000000;,
         0.000000; 1.000000;,
         0.960000; 1.000000;,
         0.960000; 1.000000;,
         0.000000; 1.000000;,
         0.960000; 1.000000;,
         0.000000; 1.000000;,
         0.000000; 1.000000;,
         0.960000; 1.000000;,
         0.960000; 0.000000;,
         0.960000; 1.000000;,
         0.960000; 1.000000;;
      } //End of Mesh UV Coordinates
    } //End of Mesh Mesh
  } //End of juppeta_mat_0
} //End of Root Frame
