# Blender v2.66 (sub 1) OBJ File: 'BR_Cresselia-Shiny01.blend'
# www.blender.org
mtllib BR_Cresselia-Shiny01.mtl
o cresselia
v 2.159938 -1.817527 -5.130570
v 2.259422 -2.366664 -5.591351
v 3.373360 -2.566300 -5.758574
v 2.810381 -1.812987 -5.126405
v 2.314077 -2.915802 -6.052131
v 2.309173 -3.486126 -6.530691
v 4.198868 -4.091223 -7.038252
v 3.854070 -3.319613 -6.390744
v 2.237026 -4.056451 -7.009251
v 2.074212 -4.564998 -7.435972
v 4.423024 -5.626067 -8.326261
v 4.391533 -4.862833 -7.685760
v 1.806177 -5.073545 -7.862694
v 1.487145 -5.436365 -8.186726
v 4.135437 -7.058296 -9.528344
v 4.342446 -6.389301 -8.966761
v 3.006094 -8.944276 -11.110828
v 0.000000 -6.152031 -8.767644
v 0.000000 -9.013792 -11.168954
v 0.000000 -9.421181 -11.510794
v 2.342665 -9.579352 -11.643350
v 0.000000 -9.828571 -11.852635
v 0.000000 -10.191860 -12.157456
v 0.849998 -10.382038 -12.317250
v 1.562547 -10.069844 -12.055384
v 3.458267 -8.345844 -10.609494
v 0.532604 -6.047352 -8.679746
v 1.016200 -5.845878 -8.510757
v 3.846163 -7.711585 -10.076365
v 0.000000 -10.552591 -12.459719
v -2.159938 -1.817527 -5.130570
v -2.810381 -1.812987 -5.126405
v -3.373361 -2.566300 -5.758574
v -2.259422 -2.366665 -5.591351
v -2.314078 -2.915802 -6.052131
v -3.854070 -3.319613 -6.390744
v -4.198868 -4.091223 -7.038251
v -2.309173 -3.486127 -6.530691
v -2.237026 -4.056451 -7.009250
v -4.391533 -4.862833 -7.685760
v -4.423025 -5.626067 -8.326260
v -2.074212 -4.564997 -7.435972
v -1.806178 -5.073544 -7.862693
v -4.342446 -6.389301 -8.966760
v -4.135437 -7.058295 -9.528344
v -1.487145 -5.436364 -8.186726
v -3.006095 -8.944276 -11.110827
v -2.342666 -9.579351 -11.643350
v -1.562547 -10.069844 -12.055383
v -0.849999 -10.382038 -12.317250
v -0.532605 -6.047352 -8.679746
v -3.458267 -8.345844 -10.609493
v -3.846163 -7.711585 -10.076365
v -1.016200 -5.845878 -8.510757
v 1.898924 3.160268 -3.230004
v 1.953528 3.634766 -3.314634
v 1.117962 3.344909 -3.412712
v 1.176188 3.057760 -3.317623
v 2.715958 3.274064 -3.096604
v 3.540777 3.364623 -2.983774
v 3.507414 4.127196 -3.054647
v 2.729010 3.891967 -3.188877
v 4.327092 3.436880 -2.876180
v 5.115827 3.460807 -2.761344
v 5.106246 4.523598 -2.765774
v 4.304074 4.354150 -2.905004
v 5.703241 3.455800 -2.675887
v 5.775140 4.619692 -2.658160
v 6.290656 3.419822 -2.601271
v 6.863161 3.366503 -2.562840
v 6.994243 4.720757 -2.471742
v 6.438369 4.680809 -2.550546
v 8.204217 2.821892 -2.537762
v 8.996147 3.008239 -2.455949
v 9.578791 4.406128 -2.206117
v 8.899953 4.611999 -2.257497
v 7.435667 3.251240 -2.535250
v 7.839787 3.083549 -2.527548
v 8.222202 4.719858 -2.321180
v 7.544452 4.750289 -2.392937
v 0.575813 2.972831 -3.425589
v 0.542975 3.174798 -3.492470
v 9.748385 3.178046 -2.374136
v 10.397085 3.325597 -2.308697
v 10.705906 3.821217 -2.205994
v 10.242143 4.107344 -2.186491
v 2.722623 -0.237858 -3.861919
v 2.976111 -0.560581 -4.120542
v 3.504770 0.056773 -3.688381
v 3.785086 -0.415786 -4.014467
v 4.593610 -0.240003 -3.895606
v 4.287367 0.358715 -3.527632
v 5.001846 0.682509 -3.374914
v 5.390943 -0.052166 -3.764273
v 6.188470 0.140398 -3.640585
v 5.716132 1.001576 -3.214550
v 6.827710 0.341608 -3.527287
v 6.246015 1.245378 -3.093056
v 6.762259 1.506295 -2.971561
v 7.466950 0.552299 -3.413990
v 7.984365 0.734816 -3.303996
v 7.235516 1.805269 -2.858388
v 9.651981 1.597533 -2.895532
v 10.175285 2.066439 -2.713481
v 7.708771 2.135214 -2.745215
v 8.493223 0.925891 -3.194002
v 9.080345 1.222998 -3.050665
v 8.019488 2.439238 -2.646287
v 10.721436 3.399373 -2.275977
v 10.955114 3.231289 -2.312352
v 10.985462 3.455913 -2.243258
v 8.094769 2.970913 -2.521826
v 8.542634 4.680432 -2.288311
v 10.622948 2.580909 -2.519634
v 9.371153 1.410266 -2.975350
v 8.159813 2.638834 -2.589621
v 10.875845 3.647182 -2.224626
v 10.864444 2.989431 -2.381446
v -1.898925 3.160268 -3.230004
v -1.176189 3.057759 -3.317623
v -1.117963 3.344908 -3.412712
v -1.953528 3.634766 -3.314634
v -2.715959 3.274064 -3.096604
v -2.729011 3.891967 -3.188877
v -3.507415 4.127195 -3.054647
v -3.540777 3.364623 -2.983774
v -4.327093 3.436880 -2.876180
v -4.304075 4.354151 -2.905004
v -5.106246 4.523598 -2.765774
v -5.115828 3.460807 -2.761344
v -5.775140 4.619692 -2.658160
v -5.703242 3.455800 -2.675886
v -6.290656 3.419822 -2.601271
v -6.438369 4.680809 -2.550546
v -6.994243 4.720757 -2.471742
v -6.863161 3.366502 -2.562840
v -8.204218 2.821892 -2.537762
v -8.899954 4.611999 -2.257497
v -9.578792 4.406128 -2.206117
v -8.996148 3.008239 -2.455949
v -7.435668 3.251239 -2.535250
v -7.544453 4.750288 -2.392936
v -8.222204 4.719858 -2.321180
v -7.839788 3.083549 -2.527548
v -0.575814 2.972831 -3.425589
v -0.542975 3.174798 -3.492470
v -9.748386 3.178046 -2.374136
v -10.242144 4.107344 -2.186491
v -10.705906 3.821217 -2.205994
v -10.397086 3.325597 -2.308697
v -2.722623 -0.237858 -3.861919
v -2.976112 -0.560581 -4.120542
v -3.504771 0.056773 -3.688381
v -4.287368 0.358715 -3.527632
v -4.593610 -0.240003 -3.895606
v -3.785086 -0.415786 -4.014467
v -5.001847 0.682509 -3.374914
v -5.716132 1.001576 -3.214550
v -6.188471 0.140398 -3.640584
v -5.390944 -0.052166 -3.764273
v -6.246016 1.245378 -3.093055
v -6.827710 0.341608 -3.527287
v -6.762260 1.506295 -2.971561
v -7.235516 1.805269 -2.858388
v -7.984366 0.734816 -3.303996
v -7.466951 0.552299 -3.413990
v -10.175286 2.066439 -2.713481
v -9.651982 1.597533 -2.895532
v -7.708772 2.135214 -2.745215
v -8.019489 2.439238 -2.646287
v -9.080346 1.222998 -3.050665
v -8.493224 0.925891 -3.194002
v -10.721437 3.399373 -2.275977
v -10.985463 3.455913 -2.243258
v -10.955114 3.231289 -2.312352
v -8.542636 4.680432 -2.288311
v -8.094770 2.970913 -2.521826
v -10.622949 2.580909 -2.519634
v -8.159815 2.638834 -2.589621
v -9.371155 1.410266 -2.975350
v -10.875846 3.647182 -2.224626
v -10.864445 2.989431 -2.381446
v 1.352250 -0.521861 -4.026844
v 1.453212 -0.466240 -3.980172
v 1.462321 -0.622355 -4.205810
v 1.356039 -0.818403 -4.330409
v -1.352251 -0.521861 -4.026844
v -1.453212 -0.466240 -3.980172
v -1.462322 -0.622355 -4.205810
v -1.356040 -0.818403 -4.330409
v 1.880461 -1.179631 -4.570964
v 2.294950 -1.186968 -4.577120
v -2.294951 -1.186968 -4.577120
v -1.880461 -1.179631 -4.570964
v 2.046400 -0.482783 -4.023214
v 2.124707 -0.696672 -4.227654
v -2.124707 -0.696672 -4.227654
v -2.046400 -0.482783 -4.023214
vt 0.162996 0.572708
vt 0.107844 0.598081
vt 0.112160 0.604095
vt 0.163590 0.548041
vt 0.213503 0.556126
vt 0.213176 0.517414
vt 0.256172 0.549677
vt 0.271736 0.486415
vt 0.298840 0.547038
vt 0.330296 0.455416
vt 0.343147 0.547470
vt 0.390262 0.436255
vt 0.387455 0.551712
vt 0.450228 0.423548
vt 0.428857 0.562205
vt 0.510603 0.421841
vt 0.466450 0.576508
vt 0.568826 0.426589
vt 0.498333 0.598604
vt 0.621254 0.439257
vt 0.526406 0.624510
vt 0.671530 0.456228
vt 0.540626 0.652228
vt 0.720468 0.479661
vt 0.549766 0.685024
vt 0.767255 0.506322
vt 0.772468 0.685237
vt 0.812614 0.548205
vt 0.803284 0.685268
vt 0.835770 0.685300
vt 0.876772 0.637163
vt 0.854620 0.592323
vt 0.864313 0.685329
vt 0.569441 0.161055
vt 0.537185 0.149022
vt 0.536816 0.163370
vt 0.575020 0.137853
vt 0.605762 0.158546
vt 0.610031 0.128116
vt 0.642695 0.157209
vt 0.644965 0.119474
vt 0.677855 0.156628
vt 0.680471 0.111312
vt 0.712841 0.158440
vt 0.716227 0.105620
vt 0.738960 0.161704
vt 0.745500 0.104615
vt 0.764686 0.164918
vt 0.775601 0.103581
vt 0.790649 0.171243
vt 0.800946 0.103839
vt 0.816562 0.177556
vt 0.824599 0.104079
vt 0.834146 0.188905
vt 0.853734 0.109848
vt 0.846059 0.196593
vt 0.868189 0.112710
vt 0.852818 0.200956
vt 0.884964 0.116031
vt 0.889134 0.195114
vt 0.914844 0.131007
vt 0.921480 0.189910
vt 0.944724 0.145984
vt 0.951173 0.185092
vt 0.964091 0.164359
vt 0.964597 0.182913
vt 0.971631 0.171513
vt 0.510542 0.155185
vt 0.510283 0.165277
vt 0.576081 0.341106
vt 0.620956 0.348430
vt 0.606099 0.331603
vt 0.582282 0.351915
vt 0.551117 0.346641
vt 0.555478 0.354244
vt 0.640780 0.320053
vt 0.693828 0.338758
vt 0.675715 0.308142
vt 0.657519 0.343414
vt 0.707681 0.294896
vt 0.765368 0.326057
vt 0.739499 0.281883
vt 0.729523 0.332524
vt 0.795087 0.318052
vt 0.763993 0.270896
vt 0.822735 0.310605
vt 0.786098 0.260981
vt 0.845515 0.303351
vt 0.807227 0.247409
vt 0.868320 0.296089
vt 0.828761 0.233577
vt 0.893797 0.281954
vt 0.841138 0.216794
vt 0.907216 0.274509
vt 0.846813 0.209099
vt 0.920049 0.267389
vt 0.942536 0.243672
vt 0.962490 0.222627
vt 0.971677 0.201450
vt 0.975725 0.192119
vt 0.980864 0.180273
vt 0.892219 0.685357
usemtl mat_0
s 1
f 191/1 184/2 183/3
f 191/1 192/4 184/2
f 1/5 192/4 191/1
f 1/5 4/6 192/4
f 4/7 1/6 2/5
f 2/7 3/8 4/6
f 5/9 3/8 2/7
f 5/9 8/10 3/8
f 6/11 8/10 5/9
f 6/11 7/12 8/10
f 9/13 7/12 6/11
f 9/13 12/14 7/12
f 10/15 12/14 9/13
f 10/15 11/16 12/14
f 13/17 11/16 10/15
f 13/17 16/18 11/16
f 14/19 16/18 13/17
f 14/19 15/20 16/18
f 28/21 15/20 14/19
f 28/21 29/22 15/20
f 27/23 29/22 28/21
f 27/23 26/24 29/22
f 18/25 26/24 27/23
f 18/25 17/26 26/24
f 19/27 21/28 17/26
f 19/27 20/29 21/28
f 47/26 20/29 19/27
f 47/26 48/28 20/29
f 22/30 24/31 25/32
f 22/30 23/33 24/31
f 49/32 23/33 22/30
f 49/32 50/31 23/33
f 55/34 57/35 58/36
f 55/34 56/37 57/35
f 59/38 56/37 55/34
f 59/38 62/39 56/37
f 60/40 62/39 59/38
f 60/40 61/41 62/39
f 63/42 61/41 60/40
f 63/42 66/43 61/41
f 64/44 66/43 63/42
f 64/44 65/45 66/43
f 67/46 65/45 64/44
f 67/46 68/47 65/45
f 69/48 68/47 67/46
f 69/48 72/49 68/47
f 70/50 72/49 69/48
f 70/50 71/51 72/49
f 77/52 71/51 70/50
f 77/52 80/53 71/51
f 78/54 80/53 77/52
f 78/54 79/55 80/53
f 112/56 79/55 78/54
f 112/56 113/57 79/55
f 73/58 113/57 112/56
f 73/58 76/59 113/57
f 74/60 76/59 73/58
f 74/60 75/61 76/59
f 83/62 75/61 74/60
f 83/62 86/63 75/61
f 84/64 86/63 83/62
f 84/64 85/65 86/63
f 109/66 85/65 84/64
f 109/66 117/67 85/65
f 58/36 57/35 82/68
f 81/69 58/36 82/68
f 195/70 88/71 87/72
f 195/70 196/73 88/71
f 185/74 196/73 195/70
f 185/74 186/75 196/73
f 89/76 91/77 92/78
f 89/76 90/79 91/77
f 87/72 90/79 89/76
f 87/72 88/71 90/79
f 93/80 95/81 96/82
f 93/80 94/83 95/81
f 92/78 94/83 93/80
f 92/78 91/77 94/83
f 97/84 96/82 95/81
f 97/84 98/85 96/82
f 100/86 98/85 97/84
f 100/86 99/87 98/85
f 101/88 99/87 100/86
f 101/88 102/89 99/87
f 106/90 102/89 101/88
f 106/90 105/91 102/89
f 107/92 105/91 106/90
f 107/92 108/93 105/91
f 115/94 108/93 107/92
f 115/94 116/95 108/93
f 103/96 116/95 115/94
f 103/96 73/58 116/95
f 104/97 73/58 103/96
f 104/97 74/60 73/58
f 114/98 74/60 104/97
f 114/98 83/62 74/60
f 118/99 83/62 114/98
f 118/99 84/64 83/62
f 110/100 84/64 118/99
f 110/100 109/66 84/64
f 20/29 25/32 21/28
f 20/29 22/30 25/32
f 48/28 22/30 20/29
f 48/28 49/32 22/30
f 193/4 187/3 188/2
f 193/4 194/1 187/3
f 32/6 194/1 193/4
f 32/6 31/5 194/1
f 33/8 31/5 32/6
f 33/8 34/7 31/5
f 36/10 34/7 33/8
f 36/10 35/9 34/7
f 37/12 35/9 36/10
f 37/12 38/11 35/9
f 40/14 38/11 37/12
f 40/14 39/13 38/11
f 41/16 39/13 40/14
f 41/16 42/15 39/13
f 44/18 42/15 41/16
f 44/18 43/17 42/15
f 45/20 43/17 44/18
f 45/20 46/19 43/17
f 53/22 46/19 45/20
f 53/22 54/21 46/19
f 52/24 54/21 53/22
f 52/24 51/23 54/21
f 47/26 51/23 52/24
f 47/26 18/25 51/23
f 122/37 120/36 121/35
f 122/37 119/34 120/36
f 124/39 119/34 122/37
f 124/39 123/38 119/34
f 125/41 123/38 124/39
f 125/41 126/40 123/38
f 128/43 126/40 125/41
f 128/43 127/42 126/40
f 129/45 127/42 128/43
f 129/45 130/44 127/42
f 131/47 130/44 129/45
f 131/47 132/46 130/44
f 134/49 132/46 131/47
f 134/49 133/48 132/46
f 135/51 133/48 134/49
f 135/51 136/50 133/48
f 142/53 136/50 135/51
f 142/53 141/52 136/50
f 143/55 141/52 142/53
f 143/55 144/54 141/52
f 176/57 144/54 143/55
f 176/57 177/56 144/54
f 138/59 177/56 176/57
f 138/59 137/58 177/56
f 139/61 137/58 138/59
f 139/61 140/60 137/58
f 148/63 140/60 139/61
f 148/63 147/62 140/60
f 149/65 147/62 148/63
f 149/65 150/64 147/62
f 181/67 150/64 149/65
f 181/67 173/66 150/64
f 146/68 121/35 120/36
f 145/69 146/68 120/36
f 197/73 151/72 152/71
f 197/73 198/70 151/72
f 190/75 198/70 197/73
f 190/75 189/74 198/70
f 156/79 154/78 155/77
f 156/79 153/76 154/78
f 152/71 153/76 156/79
f 152/71 151/72 153/76
f 160/83 158/82 159/81
f 160/83 157/80 158/82
f 155/77 157/80 160/83
f 155/77 154/78 157/80
f 161/85 159/81 158/82
f 161/85 162/84 159/81
f 163/87 162/84 161/85
f 163/87 166/86 162/84
f 164/89 166/86 163/87
f 164/89 165/88 166/86
f 169/91 165/88 164/89
f 169/91 172/90 165/88
f 170/93 172/90 169/91
f 170/93 171/92 172/90
f 179/95 171/92 170/93
f 179/95 180/94 171/92
f 137/58 180/94 179/95
f 137/58 168/96 180/94
f 140/60 168/96 137/58
f 140/60 167/97 168/96
f 147/62 167/97 140/60
f 147/62 178/98 167/97
f 150/64 178/98 147/62
f 150/64 182/99 178/98
f 173/66 182/99 150/64
f 173/66 175/100 182/99
f 18/25 19/27 17/26
f 18/25 47/26 19/27
f 111/101 109/66 110/100
f 111/101 117/67 109/66
f 23/33 30/102 24/31
f 23/33 50/31 30/102
f 173/66 174/101 175/100
f 173/66 181/67 174/101
