xof 0303txt 0032

template AnimTicksPerSecond {
  <9E415A43-7BA6-4a73-8743-B73D47E88476>
  DWORD AnimTicksPerSecond;
}

template XSkinMeshHeader {
  <3cf169ce-ff7c-44ab-93c0-f78f62d172e2>
  WORD nMaxSkinWeightsPerVertex;
  WORD nMaxSkinWeightsPerFace;
  WORD nBones;
}

template SkinWeights {
  <6f0d123b-bad2-4167-a0d0-80224f25fabb>
  STRING transformNodeName;
  DWORD nWeights;
  array DWORD vertexIndices[nWeights];
  array float weights[nWeights];
  Matrix4x4 matrixOffset;
}

Frame Root {
  FrameTransformMatrix {
     1.000000, 0.000000, 0.000000, 0.000000,
     0.000000, 0.000000, 1.000000, 0.000000,
     0.000000, 1.000000,-0.000000, 0.000000,
     0.000000, 0.000000, 0.000000, 1.000000;;
  }
  Frame cresselia_mat_0 {
    FrameTransformMatrix {
       1.000000, 0.000000, 0.000000, 0.000000,
       0.000000, 1.000000, 0.000000, 0.000000,
       0.000000, 0.000000, 1.000000, 0.000000,
       0.000000, 0.000000, 0.000000, 1.000000;;
    }
    Mesh { //Mesh Mesh
      612;
       1.352250; 4.026844;-0.521861;,
       1.453212; 3.980172;-0.466240;,
       1.880461; 4.570964;-1.179631;,
       1.453212; 3.980172;-0.466240;,
       2.294950; 4.577120;-1.186968;,
       1.880461; 4.570964;-1.179631;,
       2.159938; 5.130570;-1.817527;,
       1.880461; 4.570964;-1.179631;,
       2.294950; 4.577120;-1.186968;,
       2.294950; 4.577120;-1.186968;,
       2.810381; 5.126405;-1.812987;,
       2.159938; 5.130570;-1.817527;,
       2.259422; 5.591351;-2.366664;,
       2.159938; 5.130570;-1.817527;,
       2.810381; 5.126405;-1.812987;,
       2.810381; 5.126405;-1.812987;,
       3.373360; 5.758574;-2.566300;,
       2.259422; 5.591351;-2.366664;,
       2.259422; 5.591351;-2.366664;,
       3.373360; 5.758574;-2.566300;,
       2.314077; 6.052131;-2.915802;,
       3.373360; 5.758574;-2.566300;,
       3.854070; 6.390744;-3.319613;,
       2.314077; 6.052131;-2.915802;,
       2.314077; 6.052131;-2.915802;,
       3.854070; 6.390744;-3.319613;,
       2.309173; 6.530691;-3.486126;,
       3.854070; 6.390744;-3.319613;,
       4.198868; 7.038252;-4.091223;,
       2.309173; 6.530691;-3.486126;,
       2.309173; 6.530691;-3.486126;,
       4.198868; 7.038252;-4.091223;,
       2.237026; 7.009251;-4.056451;,
       4.198868; 7.038252;-4.091223;,
       4.391533; 7.685760;-4.862833;,
       2.237026; 7.009251;-4.056451;,
       2.237026; 7.009251;-4.056451;,
       4.391533; 7.685760;-4.862833;,
       2.074212; 7.435972;-4.564998;,
       4.391533; 7.685760;-4.862833;,
       4.423024; 8.326261;-5.626067;,
       2.074212; 7.435972;-4.564998;,
       2.074212; 7.435972;-4.564998;,
       4.423024; 8.326261;-5.626067;,
       1.806177; 7.862694;-5.073545;,
       4.423024; 8.326261;-5.626067;,
       4.342446; 8.966761;-6.389301;,
       1.806177; 7.862694;-5.073545;,
       1.806177; 7.862694;-5.073545;,
       4.342446; 8.966761;-6.389301;,
       1.487145; 8.186726;-5.436365;,
       4.342446; 8.966761;-6.389301;,
       4.135437; 9.528344;-7.058296;,
       1.487145; 8.186726;-5.436365;,
       1.487145; 8.186726;-5.436365;,
       4.135437; 9.528344;-7.058296;,
       1.016200; 8.510757;-5.845878;,
       4.135437; 9.528344;-7.058296;,
       3.846163;10.076365;-7.711585;,
       1.016200; 8.510757;-5.845878;,
       1.016200; 8.510757;-5.845878;,
       3.846163;10.076365;-7.711585;,
       0.532604; 8.679746;-6.047352;,
       3.846163;10.076365;-7.711585;,
       3.458267;10.609494;-8.345844;,
       0.532604; 8.679746;-6.047352;,
       0.532604; 8.679746;-6.047352;,
       3.458267;10.609494;-8.345844;,
       0.000000; 8.767644;-6.152031;,
       3.458267;10.609494;-8.345844;,
       3.006094;11.110828;-8.944276;,
       0.000000; 8.767644;-6.152031;,
       3.006094;11.110828;-8.944276;,
       2.342665;11.643350;-9.579352;,
       0.000000;11.168954;-9.013792;,
       2.342665;11.643350;-9.579352;,
       0.000000;11.510794;-9.421181;,
       0.000000;11.168954;-9.013792;,
       0.000000;11.168954;-9.013792;,
       0.000000;11.510794;-9.421181;,
      -3.006095;11.110827;-8.944276;,
       0.000000;11.510794;-9.421181;,
      -2.342666;11.643350;-9.579351;,
      -3.006095;11.110827;-8.944276;,
       1.562547;12.055384;-10.069844;,
       0.849998;12.317250;-10.382038;,
       0.000000;11.852635;-9.828571;,
       0.849998;12.317250;-10.382038;,
       0.000000;12.157456;-10.191860;,
       0.000000;11.852635;-9.828571;,
       0.000000;11.852635;-9.828571;,
       0.000000;12.157456;-10.191860;,
      -1.562547;12.055383;-10.069844;,
       0.000000;12.157456;-10.191860;,
      -0.849999;12.317250;-10.382038;,
      -1.562547;12.055383;-10.069844;,
       1.176188; 3.317623; 3.057760;,
       1.117962; 3.412712; 3.344909;,
       1.898924; 3.230004; 3.160268;,
       1.117962; 3.412712; 3.344909;,
       1.953528; 3.314634; 3.634766;,
       1.898924; 3.230004; 3.160268;,
       1.898924; 3.230004; 3.160268;,
       1.953528; 3.314634; 3.634766;,
       2.715958; 3.096604; 3.274064;,
       1.953528; 3.314634; 3.634766;,
       2.729010; 3.188877; 3.891967;,
       2.715958; 3.096604; 3.274064;,
       2.715958; 3.096604; 3.274064;,
       2.729010; 3.188877; 3.891967;,
       3.540777; 2.983774; 3.364623;,
       2.729010; 3.188877; 3.891967;,
       3.507414; 3.054647; 4.127196;,
       3.540777; 2.983774; 3.364623;,
       3.540777; 2.983774; 3.364623;,
       3.507414; 3.054647; 4.127196;,
       4.327092; 2.876180; 3.436880;,
       3.507414; 3.054647; 4.127196;,
       4.304074; 2.905004; 4.354150;,
       4.327092; 2.876180; 3.436880;,
       4.327092; 2.876180; 3.436880;,
       4.304074; 2.905004; 4.354150;,
       5.115827; 2.761344; 3.460807;,
       4.304074; 2.905004; 4.354150;,
       5.106246; 2.765774; 4.523598;,
       5.115827; 2.761344; 3.460807;,
       5.115827; 2.761344; 3.460807;,
       5.106246; 2.765774; 4.523598;,
       5.703241; 2.675887; 3.455800;,
       5.106246; 2.765774; 4.523598;,
       5.775140; 2.658160; 4.619692;,
       5.703241; 2.675887; 3.455800;,
       5.703241; 2.675887; 3.455800;,
       5.775140; 2.658160; 4.619692;,
       6.290656; 2.601271; 3.419822;,
       5.775140; 2.658160; 4.619692;,
       6.438369; 2.550546; 4.680809;,
       6.290656; 2.601271; 3.419822;,
       6.290656; 2.601271; 3.419822;,
       6.438369; 2.550546; 4.680809;,
       6.863161; 2.562840; 3.366503;,
       6.438369; 2.550546; 4.680809;,
       6.994243; 2.471742; 4.720757;,
       6.863161; 2.562840; 3.366503;,
       6.863161; 2.562840; 3.366503;,
       6.994243; 2.471742; 4.720757;,
       7.435667; 2.535250; 3.251240;,
       6.994243; 2.471742; 4.720757;,
       7.544452; 2.392937; 4.750289;,
       7.435667; 2.535250; 3.251240;,
       7.435667; 2.535250; 3.251240;,
       7.544452; 2.392937; 4.750289;,
       7.839787; 2.527548; 3.083549;,
       7.544452; 2.392937; 4.750289;,
       8.222202; 2.321180; 4.719858;,
       7.839787; 2.527548; 3.083549;,
       7.839787; 2.527548; 3.083549;,
       8.222202; 2.321180; 4.719858;,
       8.094769; 2.521826; 2.970913;,
       8.222202; 2.321180; 4.719858;,
       8.542634; 2.288311; 4.680432;,
       8.094769; 2.521826; 2.970913;,
       8.094769; 2.521826; 2.970913;,
       8.542634; 2.288311; 4.680432;,
       8.204217; 2.537762; 2.821892;,
       8.542634; 2.288311; 4.680432;,
       8.899953; 2.257497; 4.611999;,
       8.204217; 2.537762; 2.821892;,
       8.204217; 2.537762; 2.821892;,
       8.899953; 2.257497; 4.611999;,
       8.996147; 2.455949; 3.008239;,
       8.899953; 2.257497; 4.611999;,
       9.578791; 2.206117; 4.406128;,
       8.996147; 2.455949; 3.008239;,
       8.996147; 2.455949; 3.008239;,
       9.578791; 2.206117; 4.406128;,
       9.748385; 2.374136; 3.178046;,
       9.578791; 2.206117; 4.406128;,
      10.242143; 2.186491; 4.107344;,
       9.748385; 2.374136; 3.178046;,
       9.748385; 2.374136; 3.178046;,
      10.242143; 2.186491; 4.107344;,
      10.397085; 2.308697; 3.325597;,
      10.242143; 2.186491; 4.107344;,
      10.705906; 2.205994; 3.821217;,
      10.397085; 2.308697; 3.325597;,
      10.397085; 2.308697; 3.325597;,
      10.705906; 2.205994; 3.821217;,
      10.721436; 2.275977; 3.399373;,
      10.705906; 2.205994; 3.821217;,
      10.875845; 2.224626; 3.647182;,
      10.721436; 2.275977; 3.399373;,
       0.542975; 3.492470; 3.174798;,
       1.117962; 3.412712; 3.344909;,
       1.176188; 3.317623; 3.057760;,
       0.542975; 3.492470; 3.174798;,
       1.176188; 3.317623; 3.057760;,
       0.575813; 3.425589; 2.972831;,
       2.722623; 3.861919;-0.237858;,
       2.976111; 4.120542;-0.560581;,
       2.046400; 4.023214;-0.482783;,
       2.976111; 4.120542;-0.560581;,
       2.124707; 4.227654;-0.696672;,
       2.046400; 4.023214;-0.482783;,
       2.046400; 4.023214;-0.482783;,
       2.124707; 4.227654;-0.696672;,
       1.462321; 4.205810;-0.622355;,
       2.124707; 4.227654;-0.696672;,
       1.356039; 4.330409;-0.818403;,
       1.462321; 4.205810;-0.622355;,
       4.287367; 3.527632; 0.358715;,
       4.593610; 3.895606;-0.240003;,
       3.504770; 3.688381; 0.056773;,
       4.593610; 3.895606;-0.240003;,
       3.785086; 4.014467;-0.415786;,
       3.504770; 3.688381; 0.056773;,
       3.504770; 3.688381; 0.056773;,
       3.785086; 4.014467;-0.415786;,
       2.722623; 3.861919;-0.237858;,
       3.785086; 4.014467;-0.415786;,
       2.976111; 4.120542;-0.560581;,
       2.722623; 3.861919;-0.237858;,
       5.716132; 3.214550; 1.001576;,
       6.188470; 3.640585; 0.140398;,
       5.001846; 3.374914; 0.682509;,
       6.188470; 3.640585; 0.140398;,
       5.390943; 3.764273;-0.052166;,
       5.001846; 3.374914; 0.682509;,
       5.001846; 3.374914; 0.682509;,
       5.390943; 3.764273;-0.052166;,
       4.287367; 3.527632; 0.358715;,
       5.390943; 3.764273;-0.052166;,
       4.593610; 3.895606;-0.240003;,
       4.287367; 3.527632; 0.358715;,
       6.188470; 3.640585; 0.140398;,
       5.716132; 3.214550; 1.001576;,
       6.827710; 3.527287; 0.341608;,
       5.716132; 3.214550; 1.001576;,
       6.246015; 3.093056; 1.245378;,
       6.827710; 3.527287; 0.341608;,
       6.827710; 3.527287; 0.341608;,
       6.246015; 3.093056; 1.245378;,
       7.466950; 3.413990; 0.552299;,
       6.246015; 3.093056; 1.245378;,
       6.762259; 2.971561; 1.506295;,
       7.466950; 3.413990; 0.552299;,
       7.466950; 3.413990; 0.552299;,
       6.762259; 2.971561; 1.506295;,
       7.984365; 3.303996; 0.734816;,
       6.762259; 2.971561; 1.506295;,
       7.235516; 2.858388; 1.805269;,
       7.984365; 3.303996; 0.734816;,
       7.984365; 3.303996; 0.734816;,
       7.235516; 2.858388; 1.805269;,
       8.493223; 3.194002; 0.925891;,
       7.235516; 2.858388; 1.805269;,
       7.708771; 2.745215; 2.135214;,
       8.493223; 3.194002; 0.925891;,
       8.493223; 3.194002; 0.925891;,
       7.708771; 2.745215; 2.135214;,
       9.080345; 3.050665; 1.222998;,
       7.708771; 2.745215; 2.135214;,
       8.019488; 2.646287; 2.439238;,
       9.080345; 3.050665; 1.222998;,
       9.080345; 3.050665; 1.222998;,
       8.019488; 2.646287; 2.439238;,
       9.371153; 2.975350; 1.410266;,
       8.019488; 2.646287; 2.439238;,
       8.159813; 2.589621; 2.638834;,
       9.371153; 2.975350; 1.410266;,
       9.371153; 2.975350; 1.410266;,
       8.159813; 2.589621; 2.638834;,
       9.651981; 2.895532; 1.597533;,
       8.159813; 2.589621; 2.638834;,
       8.204217; 2.537762; 2.821892;,
       9.651981; 2.895532; 1.597533;,
       9.651981; 2.895532; 1.597533;,
       8.204217; 2.537762; 2.821892;,
      10.175285; 2.713481; 2.066439;,
       8.204217; 2.537762; 2.821892;,
       8.996147; 2.455949; 3.008239;,
      10.175285; 2.713481; 2.066439;,
      10.175285; 2.713481; 2.066439;,
       8.996147; 2.455949; 3.008239;,
      10.622948; 2.519634; 2.580909;,
       8.996147; 2.455949; 3.008239;,
       9.748385; 2.374136; 3.178046;,
      10.622948; 2.519634; 2.580909;,
      10.622948; 2.519634; 2.580909;,
       9.748385; 2.374136; 3.178046;,
      10.864444; 2.381446; 2.989431;,
       9.748385; 2.374136; 3.178046;,
      10.397085; 2.308697; 3.325597;,
      10.864444; 2.381446; 2.989431;,
      10.864444; 2.381446; 2.989431;,
      10.397085; 2.308697; 3.325597;,
      10.955114; 2.312352; 3.231289;,
      10.397085; 2.308697; 3.325597;,
      10.721436; 2.275977; 3.399373;,
      10.955114; 2.312352; 3.231289;,
       2.342665;11.643350;-9.579352;,
       1.562547;12.055384;-10.069844;,
       0.000000;11.510794;-9.421181;,
       1.562547;12.055384;-10.069844;,
       0.000000;11.852635;-9.828571;,
       0.000000;11.510794;-9.421181;,
       0.000000;11.510794;-9.421181;,
       0.000000;11.852635;-9.828571;,
      -2.342666;11.643350;-9.579351;,
       0.000000;11.852635;-9.828571;,
      -1.562547;12.055383;-10.069844;,
      -2.342666;11.643350;-9.579351;,
      -1.453212; 3.980172;-0.466240;,
      -1.352251; 4.026844;-0.521861;,
      -2.294951; 4.577120;-1.186968;,
      -1.352251; 4.026844;-0.521861;,
      -1.880461; 4.570964;-1.179631;,
      -2.294951; 4.577120;-1.186968;,
      -2.294951; 4.577120;-1.186968;,
      -1.880461; 4.570964;-1.179631;,
      -2.810381; 5.126405;-1.812987;,
      -1.880461; 4.570964;-1.179631;,
      -2.159938; 5.130570;-1.817527;,
      -2.810381; 5.126405;-1.812987;,
      -2.810381; 5.126405;-1.812987;,
      -2.159938; 5.130570;-1.817527;,
      -3.373361; 5.758574;-2.566300;,
      -2.159938; 5.130570;-1.817527;,
      -2.259422; 5.591351;-2.366665;,
      -3.373361; 5.758574;-2.566300;,
      -3.373361; 5.758574;-2.566300;,
      -2.259422; 5.591351;-2.366665;,
      -3.854070; 6.390744;-3.319613;,
      -2.259422; 5.591351;-2.366665;,
      -2.314078; 6.052131;-2.915802;,
      -3.854070; 6.390744;-3.319613;,
      -3.854070; 6.390744;-3.319613;,
      -2.314078; 6.052131;-2.915802;,
      -4.198868; 7.038251;-4.091223;,
      -2.314078; 6.052131;-2.915802;,
      -2.309173; 6.530691;-3.486127;,
      -4.198868; 7.038251;-4.091223;,
      -4.198868; 7.038251;-4.091223;,
      -2.309173; 6.530691;-3.486127;,
      -4.391533; 7.685760;-4.862833;,
      -2.309173; 6.530691;-3.486127;,
      -2.237026; 7.009250;-4.056451;,
      -4.391533; 7.685760;-4.862833;,
      -4.391533; 7.685760;-4.862833;,
      -2.237026; 7.009250;-4.056451;,
      -4.423025; 8.326260;-5.626067;,
      -2.237026; 7.009250;-4.056451;,
      -2.074212; 7.435972;-4.564997;,
      -4.423025; 8.326260;-5.626067;,
      -4.423025; 8.326260;-5.626067;,
      -2.074212; 7.435972;-4.564997;,
      -4.342446; 8.966760;-6.389301;,
      -2.074212; 7.435972;-4.564997;,
      -1.806178; 7.862693;-5.073544;,
      -4.342446; 8.966760;-6.389301;,
      -4.342446; 8.966760;-6.389301;,
      -1.806178; 7.862693;-5.073544;,
      -4.135437; 9.528344;-7.058295;,
      -1.806178; 7.862693;-5.073544;,
      -1.487145; 8.186726;-5.436364;,
      -4.135437; 9.528344;-7.058295;,
      -4.135437; 9.528344;-7.058295;,
      -1.487145; 8.186726;-5.436364;,
      -3.846163;10.076365;-7.711585;,
      -1.487145; 8.186726;-5.436364;,
      -1.016200; 8.510757;-5.845878;,
      -3.846163;10.076365;-7.711585;,
      -3.846163;10.076365;-7.711585;,
      -1.016200; 8.510757;-5.845878;,
      -3.458267;10.609493;-8.345844;,
      -1.016200; 8.510757;-5.845878;,
      -0.532605; 8.679746;-6.047352;,
      -3.458267;10.609493;-8.345844;,
      -3.458267;10.609493;-8.345844;,
      -0.532605; 8.679746;-6.047352;,
      -3.006095;11.110827;-8.944276;,
      -0.532605; 8.679746;-6.047352;,
       0.000000; 8.767644;-6.152031;,
      -3.006095;11.110827;-8.944276;,
      -1.117963; 3.412712; 3.344908;,
      -1.176189; 3.317623; 3.057759;,
      -1.953528; 3.314634; 3.634766;,
      -1.176189; 3.317623; 3.057759;,
      -1.898925; 3.230004; 3.160268;,
      -1.953528; 3.314634; 3.634766;,
      -1.953528; 3.314634; 3.634766;,
      -1.898925; 3.230004; 3.160268;,
      -2.729011; 3.188877; 3.891967;,
      -1.898925; 3.230004; 3.160268;,
      -2.715959; 3.096604; 3.274064;,
      -2.729011; 3.188877; 3.891967;,
      -2.729011; 3.188877; 3.891967;,
      -2.715959; 3.096604; 3.274064;,
      -3.507415; 3.054647; 4.127195;,
      -2.715959; 3.096604; 3.274064;,
      -3.540777; 2.983774; 3.364623;,
      -3.507415; 3.054647; 4.127195;,
      -3.507415; 3.054647; 4.127195;,
      -3.540777; 2.983774; 3.364623;,
      -4.304075; 2.905004; 4.354151;,
      -3.540777; 2.983774; 3.364623;,
      -4.327093; 2.876180; 3.436880;,
      -4.304075; 2.905004; 4.354151;,
      -4.304075; 2.905004; 4.354151;,
      -4.327093; 2.876180; 3.436880;,
      -5.106246; 2.765774; 4.523598;,
      -4.327093; 2.876180; 3.436880;,
      -5.115828; 2.761344; 3.460807;,
      -5.106246; 2.765774; 4.523598;,
      -5.106246; 2.765774; 4.523598;,
      -5.115828; 2.761344; 3.460807;,
      -5.775140; 2.658160; 4.619692;,
      -5.115828; 2.761344; 3.460807;,
      -5.703242; 2.675886; 3.455800;,
      -5.775140; 2.658160; 4.619692;,
      -5.775140; 2.658160; 4.619692;,
      -5.703242; 2.675886; 3.455800;,
      -6.438369; 2.550546; 4.680809;,
      -5.703242; 2.675886; 3.455800;,
      -6.290656; 2.601271; 3.419822;,
      -6.438369; 2.550546; 4.680809;,
      -6.438369; 2.550546; 4.680809;,
      -6.290656; 2.601271; 3.419822;,
      -6.994243; 2.471742; 4.720757;,
      -6.290656; 2.601271; 3.419822;,
      -6.863161; 2.562840; 3.366502;,
      -6.994243; 2.471742; 4.720757;,
      -6.994243; 2.471742; 4.720757;,
      -6.863161; 2.562840; 3.366502;,
      -7.544453; 2.392936; 4.750288;,
      -6.863161; 2.562840; 3.366502;,
      -7.435668; 2.535250; 3.251239;,
      -7.544453; 2.392936; 4.750288;,
      -7.544453; 2.392936; 4.750288;,
      -7.435668; 2.535250; 3.251239;,
      -8.222204; 2.321180; 4.719858;,
      -7.435668; 2.535250; 3.251239;,
      -7.839788; 2.527548; 3.083549;,
      -8.222204; 2.321180; 4.719858;,
      -8.222204; 2.321180; 4.719858;,
      -7.839788; 2.527548; 3.083549;,
      -8.542636; 2.288311; 4.680432;,
      -7.839788; 2.527548; 3.083549;,
      -8.094770; 2.521826; 2.970913;,
      -8.542636; 2.288311; 4.680432;,
      -8.542636; 2.288311; 4.680432;,
      -8.094770; 2.521826; 2.970913;,
      -8.899954; 2.257497; 4.611999;,
      -8.094770; 2.521826; 2.970913;,
      -8.204218; 2.537762; 2.821892;,
      -8.899954; 2.257497; 4.611999;,
      -8.899954; 2.257497; 4.611999;,
      -8.204218; 2.537762; 2.821892;,
      -9.578792; 2.206117; 4.406128;,
      -8.204218; 2.537762; 2.821892;,
      -8.996148; 2.455949; 3.008239;,
      -9.578792; 2.206117; 4.406128;,
      -9.578792; 2.206117; 4.406128;,
      -8.996148; 2.455949; 3.008239;,
      -10.242144; 2.186491; 4.107344;,
      -8.996148; 2.455949; 3.008239;,
      -9.748386; 2.374136; 3.178046;,
      -10.242144; 2.186491; 4.107344;,
      -10.242144; 2.186491; 4.107344;,
      -9.748386; 2.374136; 3.178046;,
      -10.705906; 2.205994; 3.821217;,
      -9.748386; 2.374136; 3.178046;,
      -10.397086; 2.308697; 3.325597;,
      -10.705906; 2.205994; 3.821217;,
      -10.705906; 2.205994; 3.821217;,
      -10.397086; 2.308697; 3.325597;,
      -10.875846; 2.224626; 3.647182;,
      -10.397086; 2.308697; 3.325597;,
      -10.721437; 2.275977; 3.399373;,
      -10.875846; 2.224626; 3.647182;,
      -1.176189; 3.317623; 3.057759;,
      -1.117963; 3.412712; 3.344908;,
      -0.542975; 3.492470; 3.174798;,
      -1.176189; 3.317623; 3.057759;,
      -0.542975; 3.492470; 3.174798;,
      -0.575814; 3.425589; 2.972831;,
      -2.976112; 4.120542;-0.560581;,
      -2.722623; 3.861919;-0.237858;,
      -2.124707; 4.227654;-0.696672;,
      -2.722623; 3.861919;-0.237858;,
      -2.046400; 4.023214;-0.482783;,
      -2.124707; 4.227654;-0.696672;,
      -2.124707; 4.227654;-0.696672;,
      -2.046400; 4.023214;-0.482783;,
      -1.356040; 4.330409;-0.818403;,
      -2.046400; 4.023214;-0.482783;,
      -1.462322; 4.205810;-0.622355;,
      -1.356040; 4.330409;-0.818403;,
      -4.593610; 3.895606;-0.240003;,
      -4.287368; 3.527632; 0.358715;,
      -3.785086; 4.014467;-0.415786;,
      -4.287368; 3.527632; 0.358715;,
      -3.504771; 3.688381; 0.056773;,
      -3.785086; 4.014467;-0.415786;,
      -3.785086; 4.014467;-0.415786;,
      -3.504771; 3.688381; 0.056773;,
      -2.976112; 4.120542;-0.560581;,
      -3.504771; 3.688381; 0.056773;,
      -2.722623; 3.861919;-0.237858;,
      -2.976112; 4.120542;-0.560581;,
      -6.188471; 3.640584; 0.140398;,
      -5.716132; 3.214550; 1.001576;,
      -5.390944; 3.764273;-0.052166;,
      -5.716132; 3.214550; 1.001576;,
      -5.001847; 3.374914; 0.682509;,
      -5.390944; 3.764273;-0.052166;,
      -5.390944; 3.764273;-0.052166;,
      -5.001847; 3.374914; 0.682509;,
      -4.593610; 3.895606;-0.240003;,
      -5.001847; 3.374914; 0.682509;,
      -4.287368; 3.527632; 0.358715;,
      -4.593610; 3.895606;-0.240003;,
      -5.716132; 3.214550; 1.001576;,
      -6.188471; 3.640584; 0.140398;,
      -6.246016; 3.093055; 1.245378;,
      -6.188471; 3.640584; 0.140398;,
      -6.827710; 3.527287; 0.341608;,
      -6.246016; 3.093055; 1.245378;,
      -6.246016; 3.093055; 1.245378;,
      -6.827710; 3.527287; 0.341608;,
      -6.762260; 2.971561; 1.506295;,
      -6.827710; 3.527287; 0.341608;,
      -7.466951; 3.413990; 0.552299;,
      -6.762260; 2.971561; 1.506295;,
      -6.762260; 2.971561; 1.506295;,
      -7.466951; 3.413990; 0.552299;,
      -7.235516; 2.858388; 1.805269;,
      -7.466951; 3.413990; 0.552299;,
      -7.984366; 3.303996; 0.734816;,
      -7.235516; 2.858388; 1.805269;,
      -7.235516; 2.858388; 1.805269;,
      -7.984366; 3.303996; 0.734816;,
      -7.708772; 2.745215; 2.135214;,
      -7.984366; 3.303996; 0.734816;,
      -8.493224; 3.194002; 0.925891;,
      -7.708772; 2.745215; 2.135214;,
      -7.708772; 2.745215; 2.135214;,
      -8.493224; 3.194002; 0.925891;,
      -8.019489; 2.646287; 2.439238;,
      -8.493224; 3.194002; 0.925891;,
      -9.080346; 3.050665; 1.222998;,
      -8.019489; 2.646287; 2.439238;,
      -8.019489; 2.646287; 2.439238;,
      -9.080346; 3.050665; 1.222998;,
      -8.159815; 2.589621; 2.638834;,
      -9.080346; 3.050665; 1.222998;,
      -9.371155; 2.975350; 1.410266;,
      -8.159815; 2.589621; 2.638834;,
      -8.159815; 2.589621; 2.638834;,
      -9.371155; 2.975350; 1.410266;,
      -8.204218; 2.537762; 2.821892;,
      -9.371155; 2.975350; 1.410266;,
      -9.651982; 2.895532; 1.597533;,
      -8.204218; 2.537762; 2.821892;,
      -8.204218; 2.537762; 2.821892;,
      -9.651982; 2.895532; 1.597533;,
      -8.996148; 2.455949; 3.008239;,
      -9.651982; 2.895532; 1.597533;,
      -10.175286; 2.713481; 2.066439;,
      -8.996148; 2.455949; 3.008239;,
      -8.996148; 2.455949; 3.008239;,
      -10.175286; 2.713481; 2.066439;,
      -9.748386; 2.374136; 3.178046;,
      -10.175286; 2.713481; 2.066439;,
      -10.622949; 2.519634; 2.580909;,
      -9.748386; 2.374136; 3.178046;,
      -9.748386; 2.374136; 3.178046;,
      -10.622949; 2.519634; 2.580909;,
      -10.397086; 2.308697; 3.325597;,
      -10.622949; 2.519634; 2.580909;,
      -10.864445; 2.381446; 2.989431;,
      -10.397086; 2.308697; 3.325597;,
      -10.397086; 2.308697; 3.325597;,
      -10.864445; 2.381446; 2.989431;,
      -10.721437; 2.275977; 3.399373;,
      -10.864445; 2.381446; 2.989431;,
      -10.955114; 2.312352; 3.231289;,
      -10.721437; 2.275977; 3.399373;,
       3.006094;11.110828;-8.944276;,
       0.000000;11.168954;-9.013792;,
       0.000000; 8.767644;-6.152031;,
       0.000000;11.168954;-9.013792;,
      -3.006095;11.110827;-8.944276;,
       0.000000; 8.767644;-6.152031;,
      10.955114; 2.312352; 3.231289;,
      10.721436; 2.275977; 3.399373;,
      10.985462; 2.243258; 3.455913;,
      10.721436; 2.275977; 3.399373;,
      10.875845; 2.224626; 3.647182;,
      10.985462; 2.243258; 3.455913;,
       0.849998;12.317250;-10.382038;,
       0.000000;12.459719;-10.552591;,
       0.000000;12.157456;-10.191860;,
       0.000000;12.459719;-10.552591;,
      -0.849999;12.317250;-10.382038;,
       0.000000;12.157456;-10.191860;,
      -10.955114; 2.312352; 3.231289;,
      -10.985463; 2.243258; 3.455913;,
      -10.721437; 2.275977; 3.399373;,
      -10.985463; 2.243258; 3.455913;,
      -10.875846; 2.224626; 3.647182;,
      -10.721437; 2.275977; 3.399373;;
      204;
      3;0;1;2;,
      3;3;4;5;,
      3;6;7;8;,
      3;9;10;11;,
      3;12;13;14;,
      3;15;16;17;,
      3;18;19;20;,
      3;21;22;23;,
      3;24;25;26;,
      3;27;28;29;,
      3;30;31;32;,
      3;33;34;35;,
      3;36;37;38;,
      3;39;40;41;,
      3;42;43;44;,
      3;45;46;47;,
      3;48;49;50;,
      3;51;52;53;,
      3;54;55;56;,
      3;57;58;59;,
      3;60;61;62;,
      3;63;64;65;,
      3;66;67;68;,
      3;69;70;71;,
      3;72;73;74;,
      3;75;76;77;,
      3;78;79;80;,
      3;81;82;83;,
      3;84;85;86;,
      3;87;88;89;,
      3;90;91;92;,
      3;93;94;95;,
      3;96;97;98;,
      3;99;100;101;,
      3;102;103;104;,
      3;105;106;107;,
      3;108;109;110;,
      3;111;112;113;,
      3;114;115;116;,
      3;117;118;119;,
      3;120;121;122;,
      3;123;124;125;,
      3;126;127;128;,
      3;129;130;131;,
      3;132;133;134;,
      3;135;136;137;,
      3;138;139;140;,
      3;141;142;143;,
      3;144;145;146;,
      3;147;148;149;,
      3;150;151;152;,
      3;153;154;155;,
      3;156;157;158;,
      3;159;160;161;,
      3;162;163;164;,
      3;165;166;167;,
      3;168;169;170;,
      3;171;172;173;,
      3;174;175;176;,
      3;177;178;179;,
      3;180;181;182;,
      3;183;184;185;,
      3;186;187;188;,
      3;189;190;191;,
      3;192;193;194;,
      3;195;196;197;,
      3;198;199;200;,
      3;201;202;203;,
      3;204;205;206;,
      3;207;208;209;,
      3;210;211;212;,
      3;213;214;215;,
      3;216;217;218;,
      3;219;220;221;,
      3;222;223;224;,
      3;225;226;227;,
      3;228;229;230;,
      3;231;232;233;,
      3;234;235;236;,
      3;237;238;239;,
      3;240;241;242;,
      3;243;244;245;,
      3;246;247;248;,
      3;249;250;251;,
      3;252;253;254;,
      3;255;256;257;,
      3;258;259;260;,
      3;261;262;263;,
      3;264;265;266;,
      3;267;268;269;,
      3;270;271;272;,
      3;273;274;275;,
      3;276;277;278;,
      3;279;280;281;,
      3;282;283;284;,
      3;285;286;287;,
      3;288;289;290;,
      3;291;292;293;,
      3;294;295;296;,
      3;297;298;299;,
      3;300;301;302;,
      3;303;304;305;,
      3;306;307;308;,
      3;309;310;311;,
      3;312;313;314;,
      3;315;316;317;,
      3;318;319;320;,
      3;321;322;323;,
      3;324;325;326;,
      3;327;328;329;,
      3;330;331;332;,
      3;333;334;335;,
      3;336;337;338;,
      3;339;340;341;,
      3;342;343;344;,
      3;345;346;347;,
      3;348;349;350;,
      3;351;352;353;,
      3;354;355;356;,
      3;357;358;359;,
      3;360;361;362;,
      3;363;364;365;,
      3;366;367;368;,
      3;369;370;371;,
      3;372;373;374;,
      3;375;376;377;,
      3;378;379;380;,
      3;381;382;383;,
      3;384;385;386;,
      3;387;388;389;,
      3;390;391;392;,
      3;393;394;395;,
      3;396;397;398;,
      3;399;400;401;,
      3;402;403;404;,
      3;405;406;407;,
      3;408;409;410;,
      3;411;412;413;,
      3;414;415;416;,
      3;417;418;419;,
      3;420;421;422;,
      3;423;424;425;,
      3;426;427;428;,
      3;429;430;431;,
      3;432;433;434;,
      3;435;436;437;,
      3;438;439;440;,
      3;441;442;443;,
      3;444;445;446;,
      3;447;448;449;,
      3;450;451;452;,
      3;453;454;455;,
      3;456;457;458;,
      3;459;460;461;,
      3;462;463;464;,
      3;465;466;467;,
      3;468;469;470;,
      3;471;472;473;,
      3;474;475;476;,
      3;477;478;479;,
      3;480;481;482;,
      3;483;484;485;,
      3;486;487;488;,
      3;489;490;491;,
      3;492;493;494;,
      3;495;496;497;,
      3;498;499;500;,
      3;501;502;503;,
      3;504;505;506;,
      3;507;508;509;,
      3;510;511;512;,
      3;513;514;515;,
      3;516;517;518;,
      3;519;520;521;,
      3;522;523;524;,
      3;525;526;527;,
      3;528;529;530;,
      3;531;532;533;,
      3;534;535;536;,
      3;537;538;539;,
      3;540;541;542;,
      3;543;544;545;,
      3;546;547;548;,
      3;549;550;551;,
      3;552;553;554;,
      3;555;556;557;,
      3;558;559;560;,
      3;561;562;563;,
      3;564;565;566;,
      3;567;568;569;,
      3;570;571;572;,
      3;573;574;575;,
      3;576;577;578;,
      3;579;580;581;,
      3;582;583;584;,
      3;585;586;587;,
      3;588;589;590;,
      3;591;592;593;,
      3;594;595;596;,
      3;597;598;599;,
      3;600;601;602;,
      3;603;604;605;,
      3;606;607;608;,
      3;609;610;611;;
      MeshNormals { //Mesh Normals
        612;
         0.003479; 0.769127; 0.639058;,
         0.002838; 0.769341; 0.638813;,
         0.000214; 0.763482; 0.645802;,
         0.002838; 0.769341; 0.638813;,
         0.000244; 0.756767; 0.653645;,
         0.000214; 0.763482; 0.645802;,
         0.000336; 0.757897; 0.652364;,
         0.000214; 0.763482; 0.645802;,
         0.000244; 0.756767; 0.653645;,
         0.000244; 0.756767; 0.653645;,
         0.000275; 0.761254; 0.648427;,
         0.000336; 0.757897; 0.652364;,
         0.000244; 0.765984; 0.642842;,
         0.000336; 0.757897; 0.652364;,
         0.000275; 0.761254; 0.648427;,
         0.000275; 0.761254; 0.648427;,
         0.000183; 0.765954; 0.642872;,
         0.000244; 0.765984; 0.642842;,
         0.000244; 0.765984; 0.642842;,
         0.000183; 0.765954; 0.642872;,
         0.000153; 0.766015; 0.642811;,
         0.000183; 0.765954; 0.642872;,
         0.000092; 0.765984; 0.642842;,
         0.000153; 0.766015; 0.642811;,
         0.000153; 0.766015; 0.642811;,
         0.000092; 0.765984; 0.642842;,
         0.000092; 0.766015; 0.642781;,
         0.000092; 0.765984; 0.642842;,
         0.000061; 0.765984; 0.642811;,
         0.000092; 0.766015; 0.642781;,
         0.000092; 0.766015; 0.642781;,
         0.000061; 0.765984; 0.642811;,
         0.000031; 0.766015; 0.642781;,
         0.000061; 0.765984; 0.642811;,
         0.000031; 0.765984; 0.642811;,
         0.000031; 0.766015; 0.642781;,
         0.000031; 0.766015; 0.642781;,
         0.000031; 0.765984; 0.642811;,
        -0.000000; 0.766045; 0.642781;,
         0.000031; 0.765984; 0.642811;,
         0.000031; 0.765984; 0.642811;,
        -0.000000; 0.766045; 0.642781;,
        -0.000000; 0.766045; 0.642781;,
         0.000031; 0.765984; 0.642811;,
         0.006745; 0.759575; 0.650349;,
         0.000031; 0.765984; 0.642811;,
         0.003723; 0.765496; 0.643391;,
         0.006745; 0.759575; 0.650349;,
         0.006745; 0.759575; 0.650349;,
         0.003723; 0.765496; 0.643391;,
         0.001526; 0.766533; 0.642170;,
         0.003723; 0.765496; 0.643391;,
         0.001068; 0.767113; 0.641469;,
         0.001526; 0.766533; 0.642170;,
         0.001526; 0.766533; 0.642170;,
         0.001068; 0.767113; 0.641469;,
        -0.003815; 0.770775; 0.637074;,
         0.001068; 0.767113; 0.641469;,
         0.000153; 0.765801; 0.643025;,
        -0.003815; 0.770775; 0.637074;,
        -0.003815; 0.770775; 0.637074;,
         0.000153; 0.765801; 0.643025;,
        -0.000000; 0.765893; 0.642933;,
         0.000153; 0.765801; 0.643025;,
        -0.000153; 0.766015; 0.642781;,
        -0.000000; 0.765893; 0.642933;,
        -0.000000; 0.765893; 0.642933;,
        -0.000153; 0.766015; 0.642781;,
        -0.000031; 0.765984; 0.642842;,
        -0.000153; 0.766015; 0.642781;,
        -0.000244; 0.766198; 0.642567;,
        -0.000031; 0.765984; 0.642842;,
        -0.000244; 0.766198; 0.642567;,
        -0.000000; 0.766076; 0.642720;,
        -0.000000; 0.766045; 0.642750;,
        -0.000000; 0.766076; 0.642720;,
        -0.000000; 0.766015; 0.642781;,
        -0.000000; 0.766045; 0.642750;,
        -0.000000; 0.766045; 0.642750;,
        -0.000000; 0.766015; 0.642781;,
         0.000244; 0.766167; 0.642598;,
        -0.000000; 0.766015; 0.642781;,
        -0.000000; 0.766137; 0.642659;,
         0.000244; 0.766167; 0.642598;,
        -0.000000; 0.765831; 0.642994;,
        -0.000183; 0.766106; 0.642689;,
        -0.000031; 0.766015; 0.642781;,
        -0.000183; 0.766106; 0.642689;,
        -0.000000; 0.766228; 0.642537;,
        -0.000031; 0.766015; 0.642781;,
        -0.000031; 0.766015; 0.642781;,
        -0.000000; 0.766228; 0.642537;,
         0.000031; 0.765740; 0.643117;,
        -0.000000; 0.766228; 0.642537;,
         0.000183; 0.766045; 0.642750;,
         0.000031; 0.765740; 0.643117;,
         0.180395; 0.943815;-0.276833;,
         0.185827; 0.947539;-0.260018;,
         0.178869; 0.962523;-0.203803;,
         0.185827; 0.947539;-0.260018;,
         0.188025; 0.965087;-0.182318;,
         0.178869; 0.962523;-0.203803;,
         0.178869; 0.962523;-0.203803;,
         0.188025; 0.965087;-0.182318;,
         0.176336; 0.971709;-0.157048;,
         0.188025; 0.965087;-0.182318;,
         0.184820; 0.974029;-0.130772;,
         0.176336; 0.971709;-0.157048;,
         0.176336; 0.971709;-0.157048;,
         0.184820; 0.974029;-0.130772;,
         0.159612; 0.982269;-0.098239;,
         0.184820; 0.974029;-0.130772;,
         0.179693; 0.981506;-0.065859;,
         0.159612; 0.982269;-0.098239;,
         0.159612; 0.982269;-0.098239;,
         0.179693; 0.981506;-0.065859;,
         0.156865; 0.986755;-0.041231;,
         0.179693; 0.981506;-0.065859;,
         0.174047; 0.984558;-0.018464;,
         0.156865; 0.986755;-0.041231;,
         0.156865; 0.986755;-0.041231;,
         0.174047; 0.984558;-0.018464;,
         0.150578; 0.988525;-0.009369;,
         0.174047; 0.984558;-0.018464;,
         0.161779; 0.986816; 0.000427;,
         0.150578; 0.988525;-0.009369;,
         0.150578; 0.988525;-0.009369;,
         0.161779; 0.986816; 0.000427;,
         0.137913; 0.990417; 0.003601;,
         0.161779; 0.986816; 0.000427;,
         0.153325; 0.988098; 0.012024;,
         0.137913; 0.990417; 0.003601;,
         0.137913; 0.990417; 0.003601;,
         0.153325; 0.988098; 0.012024;,
         0.104282; 0.994293; 0.021577;,
         0.153325; 0.988098; 0.012024;,
         0.136784; 0.989898; 0.036409;,
         0.104282; 0.994293; 0.021577;,
         0.104282; 0.994293; 0.021577;,
         0.136784; 0.989898; 0.036409;,
         0.073458; 0.996033; 0.049684;,
         0.136784; 0.989898; 0.036409;,
         0.127171; 0.989563; 0.067385;,
         0.073458; 0.996033; 0.049684;,
         0.073458; 0.996033; 0.049684;,
         0.127171; 0.989563; 0.067385;,
         0.066561; 0.994537; 0.080142;,
         0.127171; 0.989563; 0.067385;,
         0.117954; 0.988800; 0.091220;,
         0.066561; 0.994537; 0.080142;,
         0.066561; 0.994537; 0.080142;,
         0.117954; 0.988800; 0.091220;,
         0.070833; 0.992279; 0.101596;,
         0.117954; 0.988800; 0.091220;,
         0.109714; 0.988647; 0.102573;,
         0.070833; 0.992279; 0.101596;,
         0.070833; 0.992279; 0.101596;,
         0.109714; 0.988647; 0.102573;,
         0.047395; 0.991607; 0.120182;,
         0.109714; 0.988647; 0.102573;,
         0.108371; 0.988006; 0.109714;,
         0.047395; 0.991607; 0.120182;,
         0.047395; 0.991607; 0.120182;,
         0.108371; 0.988006; 0.109714;,
         0.034761; 0.977020; 0.210211;,
         0.108371; 0.988006; 0.109714;,
         0.104740; 0.987060; 0.121372;,
         0.034761; 0.977020; 0.210211;,
         0.034761; 0.977020; 0.210211;,
         0.104740; 0.987060; 0.121372;,
         0.056093; 0.974731; 0.216193;,
         0.104740; 0.987060; 0.121372;,
         0.100681; 0.985260; 0.138127;,
         0.056093; 0.974731; 0.216193;,
         0.056093; 0.974731; 0.216193;,
         0.100681; 0.985260; 0.138127;,
         0.057375; 0.973846; 0.219794;,
         0.100681; 0.985260; 0.138127;,
         0.078494; 0.984466; 0.156957;,
         0.057375; 0.973846; 0.219794;,
         0.057375; 0.973846; 0.219794;,
         0.078494; 0.984466; 0.156957;,
         0.049684; 0.975585; 0.213874;,
         0.078494; 0.984466; 0.156957;,
         0.061281; 0.984252; 0.165746;,
         0.049684; 0.975585; 0.213874;,
         0.049684; 0.975585; 0.213874;,
         0.061281; 0.984252; 0.165746;,
         0.056154; 0.975005; 0.214911;,
         0.061281; 0.984252; 0.165746;,
         0.072298; 0.984619; 0.158971;,
         0.056154; 0.975005; 0.214911;,
         0.208441; 0.938688;-0.274483;,
         0.185827; 0.947539;-0.260018;,
         0.180395; 0.943815;-0.276833;,
         0.208441; 0.938688;-0.274483;,
         0.180395; 0.943815;-0.276833;,
         0.207862; 0.938139;-0.276864;,
        -0.024689; 0.797754; 0.602435;,
        -0.016205; 0.780236; 0.625263;,
         0.013062; 0.731864; 0.681295;,
        -0.016205; 0.780236; 0.625263;,
         0.014649; 0.735008; 0.677877;,
         0.013062; 0.731864; 0.681295;,
         0.013062; 0.731864; 0.681295;,
         0.014649; 0.735008; 0.677877;,
         0.035768; 0.826441; 0.561815;,
         0.014649; 0.735008; 0.677877;,
         0.030732; 0.851009; 0.524186;,
         0.035768; 0.826441; 0.561815;,
        -0.012726; 0.863735; 0.503769;,
         0.001709; 0.846370; 0.532548;,
        -0.019105; 0.834864; 0.550096;,
         0.001709; 0.846370; 0.532548;,
        -0.009919; 0.820154; 0.572039;,
        -0.019105; 0.834864; 0.550096;,
        -0.019105; 0.834864; 0.550096;,
        -0.009919; 0.820154; 0.572039;,
        -0.024689; 0.797754; 0.602435;,
        -0.009919; 0.820154; 0.572039;,
        -0.016205; 0.780236; 0.625263;,
        -0.024689; 0.797754; 0.602435;,
         0.005921; 0.896634; 0.442701;,
         0.014618; 0.889950; 0.455763;,
        -0.004059; 0.888302; 0.459212;,
         0.014618; 0.889950; 0.455763;,
         0.010529; 0.874599; 0.484695;,
        -0.004059; 0.888302; 0.459212;,
        -0.004059; 0.888302; 0.459212;,
         0.010529; 0.874599; 0.484695;,
        -0.012726; 0.863735; 0.503769;,
         0.010529; 0.874599; 0.484695;,
         0.001709; 0.846370; 0.532548;,
        -0.012726; 0.863735; 0.503769;,
         0.014618; 0.889950; 0.455763;,
         0.005921; 0.896634; 0.442701;,
         0.013459; 0.896542; 0.442732;,
         0.005921; 0.896634; 0.442701;,
         0.005249; 0.901975; 0.431684;,
         0.013459; 0.896542; 0.442732;,
         0.013459; 0.896542; 0.442732;,
         0.005249; 0.901975; 0.431684;,
         0.024049; 0.898404; 0.438459;,
         0.005249; 0.901975; 0.431684;,
        -0.001251; 0.913572; 0.406629;,
         0.024049; 0.898404; 0.438459;,
         0.024049; 0.898404; 0.438459;,
        -0.001251; 0.913572; 0.406629;,
         0.033143; 0.908963; 0.415509;,
        -0.001251; 0.913572; 0.406629;,
        -0.007721; 0.930845; 0.365276;,
         0.033143; 0.908963; 0.415509;,
         0.033143; 0.908963; 0.415509;,
        -0.007721; 0.930845; 0.365276;,
         0.034150; 0.924284; 0.380139;,
        -0.007721; 0.930845; 0.365276;,
        -0.002258; 0.943083; 0.332499;,
         0.034150; 0.924284; 0.380139;,
         0.034150; 0.924284; 0.380139;,
        -0.002258; 0.943083; 0.332499;,
         0.028901; 0.937468; 0.346843;,
        -0.002258; 0.943083; 0.332499;,
        -0.008362; 0.953887; 0.300027;,
         0.028901; 0.937468; 0.346843;,
         0.028901; 0.937468; 0.346843;,
        -0.008362; 0.953887; 0.300027;,
         0.033448; 0.941771; 0.334544;,
        -0.008362; 0.953887; 0.300027;,
        -0.007660; 0.959563; 0.281289;,
         0.033448; 0.941771; 0.334544;,
         0.033448; 0.941771; 0.334544;,
        -0.007660; 0.959563; 0.281289;,
         0.039308; 0.944029; 0.327433;,
        -0.007660; 0.959563; 0.281289;,
         0.034761; 0.977020; 0.210211;,
         0.039308; 0.944029; 0.327433;,
         0.039308; 0.944029; 0.327433;,
         0.034761; 0.977020; 0.210211;,
         0.041810; 0.947447; 0.317057;,
         0.034761; 0.977020; 0.210211;,
         0.056093; 0.974731; 0.216193;,
         0.041810; 0.947447; 0.317057;,
         0.041810; 0.947447; 0.317057;,
         0.056093; 0.974731; 0.216193;,
         0.044130; 0.951750; 0.303629;,
         0.056093; 0.974731; 0.216193;,
         0.057375; 0.973846; 0.219794;,
         0.044130; 0.951750; 0.303629;,
         0.044130; 0.951750; 0.303629;,
         0.057375; 0.973846; 0.219794;,
         0.040315; 0.960326; 0.275918;,
         0.057375; 0.973846; 0.219794;,
         0.049684; 0.975585; 0.213874;,
         0.040315; 0.960326; 0.275918;,
         0.040315; 0.960326; 0.275918;,
         0.049684; 0.975585; 0.213874;,
         0.044893; 0.961638; 0.270516;,
         0.049684; 0.975585; 0.213874;,
         0.056154; 0.975005; 0.214911;,
         0.044893; 0.961638; 0.270516;,
        -0.000000; 0.766076; 0.642720;,
        -0.000000; 0.765831; 0.642994;,
        -0.000000; 0.766015; 0.642781;,
        -0.000000; 0.765831; 0.642994;,
        -0.000031; 0.766015; 0.642781;,
        -0.000000; 0.766015; 0.642781;,
        -0.000000; 0.766015; 0.642781;,
        -0.000031; 0.766015; 0.642781;,
        -0.000000; 0.766137; 0.642659;,
        -0.000031; 0.766015; 0.642781;,
         0.000031; 0.765740; 0.643117;,
        -0.000000; 0.766137; 0.642659;,
        -0.002777; 0.768517; 0.639790;,
        -0.002289; 0.768853; 0.639363;,
        -0.000427; 0.756706; 0.653706;,
        -0.002289; 0.768853; 0.639363;,
        -0.000031; 0.763726; 0.645497;,
        -0.000427; 0.756706; 0.653706;,
        -0.000427; 0.756706; 0.653706;,
        -0.000031; 0.763726; 0.645497;,
        -0.000366; 0.761193; 0.648518;,
        -0.000031; 0.763726; 0.645497;,
        -0.000244; 0.757897; 0.652333;,
        -0.000366; 0.761193; 0.648518;,
        -0.000366; 0.761193; 0.648518;,
        -0.000244; 0.757897; 0.652333;,
        -0.000244; 0.765923; 0.642903;,
        -0.000244; 0.757897; 0.652333;,
        -0.000183; 0.766015; 0.642811;,
        -0.000244; 0.765923; 0.642903;,
        -0.000244; 0.765923; 0.642903;,
        -0.000183; 0.766015; 0.642811;,
        -0.000153; 0.765984; 0.642842;,
        -0.000183; 0.766015; 0.642811;,
        -0.000092; 0.766015; 0.642781;,
        -0.000153; 0.765984; 0.642842;,
        -0.000153; 0.765984; 0.642842;,
        -0.000092; 0.766015; 0.642781;,
        -0.000092; 0.765984; 0.642811;,
        -0.000092; 0.766015; 0.642781;,
        -0.000061; 0.766015; 0.642781;,
        -0.000092; 0.765984; 0.642811;,
        -0.000092; 0.765984; 0.642811;,
        -0.000061; 0.766015; 0.642781;,
        -0.000061; 0.765984; 0.642811;,
        -0.000061; 0.766015; 0.642781;,
        -0.000031; 0.766015; 0.642781;,
        -0.000061; 0.765984; 0.642811;,
        -0.000061; 0.765984; 0.642811;,
        -0.000031; 0.766015; 0.642781;,
        -0.000031; 0.765984; 0.642811;,
        -0.000031; 0.766015; 0.642781;,
        -0.000000; 0.766015; 0.642781;,
        -0.000031; 0.765984; 0.642811;,
        -0.000031; 0.765984; 0.642811;,
        -0.000000; 0.766015; 0.642781;,
        -0.000061; 0.765954; 0.642872;,
        -0.000000; 0.766015; 0.642781;,
        -0.007782; 0.761467; 0.648122;,
        -0.000061; 0.765954; 0.642872;,
        -0.000061; 0.765954; 0.642872;,
        -0.007782; 0.761467; 0.648122;,
        -0.003815; 0.766015; 0.642781;,
        -0.007782; 0.761467; 0.648122;,
        -0.004303; 0.764733; 0.644307;,
        -0.003815; 0.766015; 0.642781;,
        -0.003815; 0.766015; 0.642781;,
        -0.004303; 0.764733; 0.644307;,
        -0.000855; 0.766778; 0.641896;,
        -0.004303; 0.764733; 0.644307;,
         0.006226; 0.770562; 0.637318;,
        -0.000855; 0.766778; 0.641896;,
        -0.000855; 0.766778; 0.641896;,
         0.006226; 0.770562; 0.637318;,
         0.000244; 0.766045; 0.642750;,
         0.006226; 0.770562; 0.637318;,
         0.000061; 0.765984; 0.642842;,
         0.000244; 0.766045; 0.642750;,
         0.000244; 0.766045; 0.642750;,
         0.000061; 0.765984; 0.642842;,
         0.000244; 0.766167; 0.642598;,
         0.000061; 0.765984; 0.642842;,
        -0.000031; 0.765984; 0.642842;,
         0.000244; 0.766167; 0.642598;,
        -0.206915; 0.940489;-0.269478;,
        -0.197058; 0.945952;-0.257454;,
        -0.198340; 0.959075;-0.202033;,
        -0.197058; 0.945952;-0.257454;,
        -0.169469; 0.968230;-0.183691;,
        -0.198340; 0.959075;-0.202033;,
        -0.198340; 0.959075;-0.202033;,
        -0.169469; 0.968230;-0.183691;,
        -0.203986; 0.966582;-0.155126;,
        -0.169469; 0.968230;-0.183691;,
        -0.179174; 0.974548;-0.134587;,
        -0.203986; 0.966582;-0.155126;,
        -0.203986; 0.966582;-0.155126;,
        -0.179174; 0.974548;-0.134587;,
        -0.191473; 0.976959;-0.094241;,
        -0.179174; 0.974548;-0.134587;,
        -0.156804; 0.985168;-0.069521;,
        -0.191473; 0.976959;-0.094241;,
        -0.191473; 0.976959;-0.094241;,
        -0.156804; 0.985168;-0.069521;,
        -0.174139; 0.983947;-0.038240;,
        -0.156804; 0.985168;-0.069521;,
        -0.147649; 0.988800;-0.020325;,
        -0.174139; 0.983947;-0.038240;,
        -0.174139; 0.983947;-0.038240;,
        -0.147649; 0.988800;-0.020325;,
        -0.160222; 0.987030;-0.008423;,
        -0.147649; 0.988800;-0.020325;,
        -0.146611; 0.989166; 0.000183;,
        -0.160222; 0.987030;-0.008423;,
        -0.160222; 0.987030;-0.008423;,
        -0.146611; 0.989166; 0.000183;,
        -0.157201; 0.987548; 0.002991;,
        -0.146611; 0.989166; 0.000183;,
        -0.140782; 0.989959; 0.012391;,
        -0.157201; 0.987548; 0.002991;,
        -0.157201; 0.987548; 0.002991;,
        -0.140782; 0.989959; 0.012391;,
        -0.143437; 0.989471; 0.018250;,
        -0.140782; 0.989959; 0.012391;,
        -0.108676; 0.993347; 0.037629;,
        -0.143437; 0.989471; 0.018250;,
        -0.143437; 0.989471; 0.018250;,
        -0.108676; 0.993347; 0.037629;,
        -0.130314; 0.990448; 0.044557;,
        -0.108676; 0.993347; 0.037629;,
        -0.077212; 0.994446; 0.071139;,
        -0.130314; 0.990448; 0.044557;,
        -0.130314; 0.990448; 0.044557;,
        -0.077212; 0.994446; 0.071139;,
        -0.113742; 0.990631; 0.075167;,
        -0.077212; 0.994446; 0.071139;,
        -0.070681; 0.992645; 0.098148;,
        -0.113742; 0.990631; 0.075167;,
        -0.113742; 0.990631; 0.075167;,
        -0.070681; 0.992645; 0.098148;,
        -0.107608; 0.989654; 0.094790;,
        -0.070681; 0.992645; 0.098148;,
        -0.071810; 0.991058; 0.112308;,
        -0.107608; 0.989654; 0.094790;,
        -0.107608; 0.989654; 0.094790;,
        -0.071810; 0.991058; 0.112308;,
        -0.107303; 0.988769; 0.103977;,
        -0.071810; 0.991058; 0.112308;,
        -0.058535; 0.990051; 0.127842;,
        -0.107303; 0.988769; 0.103977;,
        -0.107303; 0.988769; 0.103977;,
        -0.058535; 0.990051; 0.127842;,
        -0.105716; 0.988159; 0.110904;,
        -0.058535; 0.990051; 0.127842;,
        -0.033601; 0.975005; 0.219581;,
        -0.105716; 0.988159; 0.110904;,
        -0.105716; 0.988159; 0.110904;,
        -0.033601; 0.975005; 0.219581;,
        -0.095462; 0.986969; 0.129398;,
        -0.033601; 0.975005; 0.219581;,
        -0.051454; 0.971984; 0.229225;,
        -0.095462; 0.986969; 0.129398;,
        -0.095462; 0.986969; 0.129398;,
        -0.051454; 0.971984; 0.229225;,
        -0.073855; 0.985137; 0.154912;,
        -0.051454; 0.971984; 0.229225;,
        -0.053194; 0.971374; 0.231422;,
        -0.073855; 0.985137; 0.154912;,
        -0.073855; 0.985137; 0.154912;,
        -0.053194; 0.971374; 0.231422;,
        -0.061434; 0.984222; 0.165807;,
        -0.053194; 0.971374; 0.231422;,
        -0.050661; 0.973754; 0.221839;,
        -0.061434; 0.984222; 0.165807;,
        -0.061434; 0.984222; 0.165807;,
        -0.050661; 0.973754; 0.221839;,
        -0.072298; 0.984619; 0.158971;,
        -0.050661; 0.973754; 0.221839;,
        -0.056154; 0.975005; 0.214881;,
        -0.072298; 0.984619; 0.158971;,
        -0.197058; 0.945952;-0.257454;,
        -0.206915; 0.940489;-0.269478;,
        -0.208441; 0.938688;-0.274483;,
        -0.197058; 0.945952;-0.257454;,
        -0.208441; 0.938688;-0.274483;,
        -0.207862; 0.938139;-0.276864;,
         0.017609; 0.797357; 0.603198;,
         0.031281; 0.783746; 0.620258;,
         0.029542; 0.738853; 0.673208;,
         0.031281; 0.783746; 0.620258;,
         0.031190; 0.742790; 0.668752;,
         0.029542; 0.738853; 0.673208;,
         0.029542; 0.738853; 0.673208;,
         0.031190; 0.742790; 0.668752;,
        -0.093051; 0.822352; 0.561266;,
         0.031190; 0.742790; 0.668752;,
        -0.160680; 0.870113; 0.465896;,
        -0.093051; 0.822352; 0.561266;,
        -0.002503; 0.860958; 0.508621;,
         0.028596; 0.852626; 0.521683;,
         0.007599; 0.832942; 0.553240;,
         0.028596; 0.852626; 0.521683;,
         0.026734; 0.823695; 0.566393;,
         0.007599; 0.832942; 0.553240;,
         0.007599; 0.832942; 0.553240;,
         0.026734; 0.823695; 0.566393;,
         0.017609; 0.797357; 0.603198;,
         0.026734; 0.823695; 0.566393;,
         0.031281; 0.783746; 0.620258;,
         0.017609; 0.797357; 0.603198;,
        -0.020295; 0.893338; 0.448897;,
        -0.004700; 0.891903; 0.452162;,
        -0.021119; 0.882900; 0.469039;,
        -0.004700; 0.891903; 0.452162;,
         0.007141; 0.877865; 0.478805;,
        -0.021119; 0.882900; 0.469039;,
        -0.021119; 0.882900; 0.469039;,
         0.007141; 0.877865; 0.478805;,
        -0.002503; 0.860958; 0.508621;,
         0.007141; 0.877865; 0.478805;,
         0.028596; 0.852626; 0.521683;,
        -0.002503; 0.860958; 0.508621;,
        -0.004700; 0.891903; 0.452162;,
        -0.020295; 0.893338; 0.448897;,
        -0.001373; 0.899350; 0.437178;,
        -0.020295; 0.893338; 0.448897;,
        -0.014954; 0.899594; 0.436445;,
        -0.001373; 0.899350; 0.437178;,
        -0.001373; 0.899350; 0.437178;,
        -0.014954; 0.899594; 0.436445;,
         0.015198; 0.909299; 0.415815;,
        -0.014954; 0.899594; 0.436445;,
        -0.023835; 0.907651; 0.418989;,
         0.015198; 0.909299; 0.415815;,
         0.015198; 0.909299; 0.415815;,
        -0.023835; 0.907651; 0.418989;,
         0.022340; 0.923124; 0.383801;,
        -0.023835; 0.907651; 0.418989;,
        -0.041841; 0.918790; 0.392499;,
         0.022340; 0.923124; 0.383801;,
         0.022340; 0.923124; 0.383801;,
        -0.041841; 0.918790; 0.392499;,
         0.018677; 0.936857; 0.349193;,
        -0.041841; 0.918790; 0.392499;,
        -0.046449; 0.930143; 0.364177;,
         0.018677; 0.936857; 0.349193;,
         0.018677; 0.936857; 0.349193;,
        -0.046449; 0.930143; 0.364177;,
         0.018677; 0.949583; 0.312845;,
        -0.046449; 0.930143; 0.364177;,
        -0.037446; 0.940245; 0.338420;,
         0.018677; 0.949583; 0.312845;,
         0.018677; 0.949583; 0.312845;,
        -0.037446; 0.940245; 0.338420;,
         0.022523; 0.958098; 0.285501;,
        -0.037446; 0.940245; 0.338420;,
        -0.038606; 0.943693; 0.328532;,
         0.022523; 0.958098; 0.285501;,
         0.022523; 0.958098; 0.285501;,
        -0.038606; 0.943693; 0.328532;,
        -0.033601; 0.975005; 0.219581;,
        -0.038606; 0.943693; 0.328532;,
        -0.043550; 0.945738; 0.321909;,
        -0.033601; 0.975005; 0.219581;,
        -0.033601; 0.975005; 0.219581;,
        -0.043550; 0.945738; 0.321909;,
        -0.051454; 0.971984; 0.229225;,
        -0.043550; 0.945738; 0.321909;,
        -0.046815; 0.948820; 0.312296;,
        -0.051454; 0.971984; 0.229225;,
        -0.051454; 0.971984; 0.229225;,
        -0.046815; 0.948820; 0.312296;,
        -0.053194; 0.971374; 0.231422;,
        -0.046815; 0.948820; 0.312296;,
        -0.050478; 0.953185; 0.298044;,
        -0.053194; 0.971374; 0.231422;,
        -0.053194; 0.971374; 0.231422;,
        -0.050478; 0.953185; 0.298044;,
        -0.050661; 0.973754; 0.221839;,
        -0.050478; 0.953185; 0.298044;,
        -0.049745; 0.959624; 0.276833;,
        -0.050661; 0.973754; 0.221839;,
        -0.050661; 0.973754; 0.221839;,
        -0.049745; 0.959624; 0.276833;,
        -0.056154; 0.975005; 0.214881;,
        -0.049745; 0.959624; 0.276833;,
        -0.044893; 0.961638; 0.270516;,
        -0.056154; 0.975005; 0.214881;,
        -0.000244; 0.766198; 0.642567;,
        -0.000000; 0.766045; 0.642750;,
        -0.000031; 0.765984; 0.642842;,
        -0.000000; 0.766045; 0.642750;,
         0.000244; 0.766167; 0.642598;,
        -0.000031; 0.765984; 0.642842;,
         0.044893; 0.961638; 0.270516;,
         0.056154; 0.975005; 0.214911;,
         0.074435; 0.973601; 0.215735;,
         0.056154; 0.975005; 0.214911;,
         0.072298; 0.984619; 0.158971;,
         0.074435; 0.973601; 0.215735;,
        -0.000183; 0.766106; 0.642689;,
        -0.000000; 0.766472; 0.642232;,
        -0.000000; 0.766228; 0.642537;,
        -0.000000; 0.766472; 0.642232;,
         0.000183; 0.766045; 0.642750;,
        -0.000000; 0.766228; 0.642537;,
        -0.044893; 0.961638; 0.270516;,
        -0.074435; 0.973601; 0.215735;,
        -0.056154; 0.975005; 0.214881;,
        -0.074435; 0.973601; 0.215735;,
        -0.072298; 0.984619; 0.158971;,
        -0.056154; 0.975005; 0.214881;;
        204;
        3;0;1;2;,
        3;3;4;5;,
        3;6;7;8;,
        3;9;10;11;,
        3;12;13;14;,
        3;15;16;17;,
        3;18;19;20;,
        3;21;22;23;,
        3;24;25;26;,
        3;27;28;29;,
        3;30;31;32;,
        3;33;34;35;,
        3;36;37;38;,
        3;39;40;41;,
        3;42;43;44;,
        3;45;46;47;,
        3;48;49;50;,
        3;51;52;53;,
        3;54;55;56;,
        3;57;58;59;,
        3;60;61;62;,
        3;63;64;65;,
        3;66;67;68;,
        3;69;70;71;,
        3;72;73;74;,
        3;75;76;77;,
        3;78;79;80;,
        3;81;82;83;,
        3;84;85;86;,
        3;87;88;89;,
        3;90;91;92;,
        3;93;94;95;,
        3;96;97;98;,
        3;99;100;101;,
        3;102;103;104;,
        3;105;106;107;,
        3;108;109;110;,
        3;111;112;113;,
        3;114;115;116;,
        3;117;118;119;,
        3;120;121;122;,
        3;123;124;125;,
        3;126;127;128;,
        3;129;130;131;,
        3;132;133;134;,
        3;135;136;137;,
        3;138;139;140;,
        3;141;142;143;,
        3;144;145;146;,
        3;147;148;149;,
        3;150;151;152;,
        3;153;154;155;,
        3;156;157;158;,
        3;159;160;161;,
        3;162;163;164;,
        3;165;166;167;,
        3;168;169;170;,
        3;171;172;173;,
        3;174;175;176;,
        3;177;178;179;,
        3;180;181;182;,
        3;183;184;185;,
        3;186;187;188;,
        3;189;190;191;,
        3;192;193;194;,
        3;195;196;197;,
        3;198;199;200;,
        3;201;202;203;,
        3;204;205;206;,
        3;207;208;209;,
        3;210;211;212;,
        3;213;214;215;,
        3;216;217;218;,
        3;219;220;221;,
        3;222;223;224;,
        3;225;226;227;,
        3;228;229;230;,
        3;231;232;233;,
        3;234;235;236;,
        3;237;238;239;,
        3;240;241;242;,
        3;243;244;245;,
        3;246;247;248;,
        3;249;250;251;,
        3;252;253;254;,
        3;255;256;257;,
        3;258;259;260;,
        3;261;262;263;,
        3;264;265;266;,
        3;267;268;269;,
        3;270;271;272;,
        3;273;274;275;,
        3;276;277;278;,
        3;279;280;281;,
        3;282;283;284;,
        3;285;286;287;,
        3;288;289;290;,
        3;291;292;293;,
        3;294;295;296;,
        3;297;298;299;,
        3;300;301;302;,
        3;303;304;305;,
        3;306;307;308;,
        3;309;310;311;,
        3;312;313;314;,
        3;315;316;317;,
        3;318;319;320;,
        3;321;322;323;,
        3;324;325;326;,
        3;327;328;329;,
        3;330;331;332;,
        3;333;334;335;,
        3;336;337;338;,
        3;339;340;341;,
        3;342;343;344;,
        3;345;346;347;,
        3;348;349;350;,
        3;351;352;353;,
        3;354;355;356;,
        3;357;358;359;,
        3;360;361;362;,
        3;363;364;365;,
        3;366;367;368;,
        3;369;370;371;,
        3;372;373;374;,
        3;375;376;377;,
        3;378;379;380;,
        3;381;382;383;,
        3;384;385;386;,
        3;387;388;389;,
        3;390;391;392;,
        3;393;394;395;,
        3;396;397;398;,
        3;399;400;401;,
        3;402;403;404;,
        3;405;406;407;,
        3;408;409;410;,
        3;411;412;413;,
        3;414;415;416;,
        3;417;418;419;,
        3;420;421;422;,
        3;423;424;425;,
        3;426;427;428;,
        3;429;430;431;,
        3;432;433;434;,
        3;435;436;437;,
        3;438;439;440;,
        3;441;442;443;,
        3;444;445;446;,
        3;447;448;449;,
        3;450;451;452;,
        3;453;454;455;,
        3;456;457;458;,
        3;459;460;461;,
        3;462;463;464;,
        3;465;466;467;,
        3;468;469;470;,
        3;471;472;473;,
        3;474;475;476;,
        3;477;478;479;,
        3;480;481;482;,
        3;483;484;485;,
        3;486;487;488;,
        3;489;490;491;,
        3;492;493;494;,
        3;495;496;497;,
        3;498;499;500;,
        3;501;502;503;,
        3;504;505;506;,
        3;507;508;509;,
        3;510;511;512;,
        3;513;514;515;,
        3;516;517;518;,
        3;519;520;521;,
        3;522;523;524;,
        3;525;526;527;,
        3;528;529;530;,
        3;531;532;533;,
        3;534;535;536;,
        3;537;538;539;,
        3;540;541;542;,
        3;543;544;545;,
        3;546;547;548;,
        3;549;550;551;,
        3;552;553;554;,
        3;555;556;557;,
        3;558;559;560;,
        3;561;562;563;,
        3;564;565;566;,
        3;567;568;569;,
        3;570;571;572;,
        3;573;574;575;,
        3;576;577;578;,
        3;579;580;581;,
        3;582;583;584;,
        3;585;586;587;,
        3;588;589;590;,
        3;591;592;593;,
        3;594;595;596;,
        3;597;598;599;,
        3;600;601;602;,
        3;603;604;605;,
        3;606;607;608;,
        3;609;610;611;;
      } //End of Mesh Normals
      MeshMaterialList { //Mesh Material List
        1;
        204;
        0,
        0,
        0,
        0,
        0,
        0,
        0,
        0,
        0,
        0,
        0,
        0,
        0,
        0,
        0,
        0,
        0,
        0,
        0,
        0,
        0,
        0,
        0,
        0,
        0,
        0,
        0,
        0,
        0,
        0,
        0,
        0,
        0,
        0,
        0,
        0,
        0,
        0,
        0,
        0,
        0,
        0,
        0,
        0,
        0,
        0,
        0,
        0,
        0,
        0,
        0,
        0,
        0,
        0,
        0,
        0,
        0,
        0,
        0,
        0,
        0,
        0,
        0,
        0,
        0,
        0,
        0,
        0,
        0,
        0,
        0,
        0,
        0,
        0,
        0,
        0,
        0,
        0,
        0,
        0,
        0,
        0,
        0,
        0,
        0,
        0,
        0,
        0,
        0,
        0,
        0,
        0,
        0,
        0,
        0,
        0,
        0,
        0,
        0,
        0,
        0,
        0,
        0,
        0,
        0,
        0,
        0,
        0,
        0,
        0,
        0,
        0,
        0,
        0,
        0,
        0,
        0,
        0,
        0,
        0,
        0,
        0,
        0,
        0,
        0,
        0,
        0,
        0,
        0,
        0,
        0,
        0,
        0,
        0,
        0,
        0,
        0,
        0,
        0,
        0,
        0,
        0,
        0,
        0,
        0,
        0,
        0,
        0,
        0,
        0,
        0,
        0,
        0,
        0,
        0,
        0,
        0,
        0,
        0,
        0,
        0,
        0,
        0,
        0,
        0,
        0,
        0,
        0,
        0,
        0,
        0,
        0,
        0,
        0,
        0,
        0,
        0,
        0,
        0,
        0,
        0,
        0,
        0,
        0,
        0,
        0,
        0,
        0,
        0,
        0,
        0,
        0,
        0,
        0,
        0,
        0,
        0,
        0,
        0,
        0,
        0,
        0,
        0,
        0;;
        Material mat_0 {
           0.640000; 0.640000; 0.640000; 1.000000;;
           92.156863;
           0.250000; 0.250000; 0.250000;;
           0.000000; 0.000000; 0.000000;;
          TextureFilename {"Textures/cresselia_1_0.tga";}
        }
      } //End of Mesh Material List
      MeshTextureCoords { //Mesh UV Coordinates
        612;
         0.112160; 0.395905;,
         0.107844; 0.401919;,
         0.162996; 0.427292;,
         0.107844; 0.401919;,
         0.163590; 0.451959;,
         0.162996; 0.427292;,
         0.213503; 0.443874;,
         0.162996; 0.427292;,
         0.163590; 0.451959;,
         0.163590; 0.451959;,
         0.213176; 0.482586;,
         0.213503; 0.443874;,
         0.213503; 0.443874;,
         0.213176; 0.482586;,
         0.256172; 0.450323;,
         0.213176; 0.482586;,
         0.271736; 0.513585;,
         0.256172; 0.450323;,
         0.256172; 0.450323;,
         0.271736; 0.513585;,
         0.298840; 0.452962;,
         0.271736; 0.513585;,
         0.330296; 0.544584;,
         0.298840; 0.452962;,
         0.298840; 0.452962;,
         0.330296; 0.544584;,
         0.343147; 0.452530;,
         0.330296; 0.544584;,
         0.390262; 0.563745;,
         0.343147; 0.452530;,
         0.343147; 0.452530;,
         0.390262; 0.563745;,
         0.387455; 0.448288;,
         0.390262; 0.563745;,
         0.450228; 0.576452;,
         0.387455; 0.448288;,
         0.387455; 0.448288;,
         0.450228; 0.576452;,
         0.428857; 0.437795;,
         0.450228; 0.576452;,
         0.510603; 0.578159;,
         0.428857; 0.437795;,
         0.428857; 0.437795;,
         0.510603; 0.578159;,
         0.466450; 0.423492;,
         0.510603; 0.578159;,
         0.568826; 0.573411;,
         0.466450; 0.423492;,
         0.466450; 0.423492;,
         0.568826; 0.573411;,
         0.498333; 0.401396;,
         0.568826; 0.573411;,
         0.621254; 0.560743;,
         0.498333; 0.401396;,
         0.498333; 0.401396;,
         0.621254; 0.560743;,
         0.526406; 0.375490;,
         0.621254; 0.560743;,
         0.671530; 0.543772;,
         0.526406; 0.375490;,
         0.526406; 0.375490;,
         0.671530; 0.543772;,
         0.540626; 0.347772;,
         0.671530; 0.543772;,
         0.720468; 0.520339;,
         0.540626; 0.347772;,
         0.540626; 0.347772;,
         0.720468; 0.520339;,
         0.549766; 0.314976;,
         0.720468; 0.520339;,
         0.767255; 0.493678;,
         0.549766; 0.314976;,
         0.767255; 0.493678;,
         0.812614; 0.451795;,
         0.772468; 0.314763;,
         0.812614; 0.451795;,
         0.803284; 0.314732;,
         0.772468; 0.314763;,
         0.772468; 0.314763;,
         0.803284; 0.314732;,
         0.767255; 0.493678;,
         0.803284; 0.314732;,
         0.812614; 0.451795;,
         0.767255; 0.493678;,
         0.854620; 0.407677;,
         0.876772; 0.362837;,
         0.835770; 0.314700;,
         0.876772; 0.362837;,
         0.864313; 0.314671;,
         0.835770; 0.314700;,
         0.835770; 0.314700;,
         0.864313; 0.314671;,
         0.854620; 0.407677;,
         0.864313; 0.314671;,
         0.876772; 0.362837;,
         0.854620; 0.407677;,
         0.536816; 0.836630;,
         0.537185; 0.850978;,
         0.569441; 0.838945;,
         0.537185; 0.850978;,
         0.575020; 0.862147;,
         0.569441; 0.838945;,
         0.569441; 0.838945;,
         0.575020; 0.862147;,
         0.605762; 0.841454;,
         0.575020; 0.862147;,
         0.610031; 0.871884;,
         0.605762; 0.841454;,
         0.605762; 0.841454;,
         0.610031; 0.871884;,
         0.642695; 0.842791;,
         0.610031; 0.871884;,
         0.644965; 0.880526;,
         0.642695; 0.842791;,
         0.642695; 0.842791;,
         0.644965; 0.880526;,
         0.677855; 0.843372;,
         0.644965; 0.880526;,
         0.680471; 0.888688;,
         0.677855; 0.843372;,
         0.677855; 0.843372;,
         0.680471; 0.888688;,
         0.712841; 0.841560;,
         0.680471; 0.888688;,
         0.716227; 0.894380;,
         0.712841; 0.841560;,
         0.712841; 0.841560;,
         0.716227; 0.894380;,
         0.738960; 0.838296;,
         0.716227; 0.894380;,
         0.745500; 0.895385;,
         0.738960; 0.838296;,
         0.738960; 0.838296;,
         0.745500; 0.895385;,
         0.764686; 0.835082;,
         0.745500; 0.895385;,
         0.775601; 0.896419;,
         0.764686; 0.835082;,
         0.764686; 0.835082;,
         0.775601; 0.896419;,
         0.790649; 0.828757;,
         0.775601; 0.896419;,
         0.800946; 0.896161;,
         0.790649; 0.828757;,
         0.790649; 0.828757;,
         0.800946; 0.896161;,
         0.816562; 0.822444;,
         0.800946; 0.896161;,
         0.824599; 0.895921;,
         0.816562; 0.822444;,
         0.816562; 0.822444;,
         0.824599; 0.895921;,
         0.834146; 0.811095;,
         0.824599; 0.895921;,
         0.853734; 0.890152;,
         0.834146; 0.811095;,
         0.834146; 0.811095;,
         0.853734; 0.890152;,
         0.846059; 0.803407;,
         0.853734; 0.890152;,
         0.868189; 0.887290;,
         0.846059; 0.803407;,
         0.846059; 0.803407;,
         0.868189; 0.887290;,
         0.852818; 0.799044;,
         0.868189; 0.887290;,
         0.884964; 0.883969;,
         0.852818; 0.799044;,
         0.852818; 0.799044;,
         0.884964; 0.883969;,
         0.889134; 0.804886;,
         0.884964; 0.883969;,
         0.914844; 0.868993;,
         0.889134; 0.804886;,
         0.889134; 0.804886;,
         0.914844; 0.868993;,
         0.921480; 0.810090;,
         0.914844; 0.868993;,
         0.944724; 0.854016;,
         0.921480; 0.810090;,
         0.921480; 0.810090;,
         0.944724; 0.854016;,
         0.951173; 0.814908;,
         0.944724; 0.854016;,
         0.964091; 0.835641;,
         0.951173; 0.814908;,
         0.951173; 0.814908;,
         0.964091; 0.835641;,
         0.964597; 0.817087;,
         0.964091; 0.835641;,
         0.971631; 0.828487;,
         0.964597; 0.817087;,
         0.510542; 0.844815;,
         0.537185; 0.850978;,
         0.536816; 0.836630;,
         0.510542; 0.844815;,
         0.536816; 0.836630;,
         0.510283; 0.834723;,
         0.606099; 0.668397;,
         0.620956; 0.651570;,
         0.576081; 0.658894;,
         0.620956; 0.651570;,
         0.582282; 0.648085;,
         0.576081; 0.658894;,
         0.576081; 0.658894;,
         0.582282; 0.648085;,
         0.551117; 0.653359;,
         0.582282; 0.648085;,
         0.555478; 0.645756;,
         0.551117; 0.653359;,
         0.675715; 0.691858;,
         0.693828; 0.661242;,
         0.640780; 0.679947;,
         0.693828; 0.661242;,
         0.657519; 0.656586;,
         0.640780; 0.679947;,
         0.640780; 0.679947;,
         0.657519; 0.656586;,
         0.606099; 0.668397;,
         0.657519; 0.656586;,
         0.620956; 0.651570;,
         0.606099; 0.668397;,
         0.739499; 0.718117;,
         0.765368; 0.673943;,
         0.707681; 0.705104;,
         0.765368; 0.673943;,
         0.729523; 0.667476;,
         0.707681; 0.705104;,
         0.707681; 0.705104;,
         0.729523; 0.667476;,
         0.675715; 0.691858;,
         0.729523; 0.667476;,
         0.693828; 0.661242;,
         0.675715; 0.691858;,
         0.765368; 0.673943;,
         0.739499; 0.718117;,
         0.795087; 0.681948;,
         0.739499; 0.718117;,
         0.763993; 0.729104;,
         0.795087; 0.681948;,
         0.795087; 0.681948;,
         0.763993; 0.729104;,
         0.822735; 0.689395;,
         0.763993; 0.729104;,
         0.786098; 0.739019;,
         0.822735; 0.689395;,
         0.822735; 0.689395;,
         0.786098; 0.739019;,
         0.845515; 0.696649;,
         0.786098; 0.739019;,
         0.807227; 0.752591;,
         0.845515; 0.696649;,
         0.845515; 0.696649;,
         0.807227; 0.752591;,
         0.868320; 0.703911;,
         0.807227; 0.752591;,
         0.828761; 0.766423;,
         0.868320; 0.703911;,
         0.868320; 0.703911;,
         0.828761; 0.766423;,
         0.893797; 0.718046;,
         0.828761; 0.766423;,
         0.841138; 0.783206;,
         0.893797; 0.718046;,
         0.893797; 0.718046;,
         0.841138; 0.783206;,
         0.907216; 0.725491;,
         0.841138; 0.783206;,
         0.846813; 0.790901;,
         0.907216; 0.725491;,
         0.907216; 0.725491;,
         0.846813; 0.790901;,
         0.920049; 0.732611;,
         0.846813; 0.790901;,
         0.852818; 0.799044;,
         0.920049; 0.732611;,
         0.920049; 0.732611;,
         0.852818; 0.799044;,
         0.942536; 0.756328;,
         0.852818; 0.799044;,
         0.889134; 0.804886;,
         0.942536; 0.756328;,
         0.942536; 0.756328;,
         0.889134; 0.804886;,
         0.962490; 0.777373;,
         0.889134; 0.804886;,
         0.921480; 0.810090;,
         0.962490; 0.777373;,
         0.962490; 0.777373;,
         0.921480; 0.810090;,
         0.971677; 0.798550;,
         0.921480; 0.810090;,
         0.951173; 0.814908;,
         0.971677; 0.798550;,
         0.971677; 0.798550;,
         0.951173; 0.814908;,
         0.975725; 0.807881;,
         0.951173; 0.814908;,
         0.964597; 0.817087;,
         0.975725; 0.807881;,
         0.812614; 0.451795;,
         0.854620; 0.407677;,
         0.803284; 0.314732;,
         0.854620; 0.407677;,
         0.835770; 0.314700;,
         0.803284; 0.314732;,
         0.803284; 0.314732;,
         0.835770; 0.314700;,
         0.812614; 0.451795;,
         0.835770; 0.314700;,
         0.854620; 0.407677;,
         0.812614; 0.451795;,
         0.107844; 0.401919;,
         0.112160; 0.395905;,
         0.163590; 0.451959;,
         0.112160; 0.395905;,
         0.162996; 0.427292;,
         0.163590; 0.451959;,
         0.163590; 0.451959;,
         0.162996; 0.427292;,
         0.213176; 0.482586;,
         0.162996; 0.427292;,
         0.213503; 0.443874;,
         0.213176; 0.482586;,
         0.213176; 0.482586;,
         0.213503; 0.443874;,
         0.271736; 0.513585;,
         0.213503; 0.443874;,
         0.256172; 0.450323;,
         0.271736; 0.513585;,
         0.271736; 0.513585;,
         0.256172; 0.450323;,
         0.330296; 0.544584;,
         0.256172; 0.450323;,
         0.298840; 0.452962;,
         0.330296; 0.544584;,
         0.330296; 0.544584;,
         0.298840; 0.452962;,
         0.390262; 0.563745;,
         0.298840; 0.452962;,
         0.343147; 0.452530;,
         0.390262; 0.563745;,
         0.390262; 0.563745;,
         0.343147; 0.452530;,
         0.450228; 0.576452;,
         0.343147; 0.452530;,
         0.387455; 0.448288;,
         0.450228; 0.576452;,
         0.450228; 0.576452;,
         0.387455; 0.448288;,
         0.510603; 0.578159;,
         0.387455; 0.448288;,
         0.428857; 0.437795;,
         0.510603; 0.578159;,
         0.510603; 0.578159;,
         0.428857; 0.437795;,
         0.568826; 0.573411;,
         0.428857; 0.437795;,
         0.466450; 0.423492;,
         0.568826; 0.573411;,
         0.568826; 0.573411;,
         0.466450; 0.423492;,
         0.621254; 0.560743;,
         0.466450; 0.423492;,
         0.498333; 0.401396;,
         0.621254; 0.560743;,
         0.621254; 0.560743;,
         0.498333; 0.401396;,
         0.671530; 0.543772;,
         0.498333; 0.401396;,
         0.526406; 0.375490;,
         0.671530; 0.543772;,
         0.671530; 0.543772;,
         0.526406; 0.375490;,
         0.720468; 0.520339;,
         0.526406; 0.375490;,
         0.540626; 0.347772;,
         0.720468; 0.520339;,
         0.720468; 0.520339;,
         0.540626; 0.347772;,
         0.767255; 0.493678;,
         0.540626; 0.347772;,
         0.549766; 0.314976;,
         0.767255; 0.493678;,
         0.537185; 0.850978;,
         0.536816; 0.836630;,
         0.575020; 0.862147;,
         0.536816; 0.836630;,
         0.569441; 0.838945;,
         0.575020; 0.862147;,
         0.575020; 0.862147;,
         0.569441; 0.838945;,
         0.610031; 0.871884;,
         0.569441; 0.838945;,
         0.605762; 0.841454;,
         0.610031; 0.871884;,
         0.610031; 0.871884;,
         0.605762; 0.841454;,
         0.644965; 0.880526;,
         0.605762; 0.841454;,
         0.642695; 0.842791;,
         0.644965; 0.880526;,
         0.644965; 0.880526;,
         0.642695; 0.842791;,
         0.680471; 0.888688;,
         0.642695; 0.842791;,
         0.677855; 0.843372;,
         0.680471; 0.888688;,
         0.680471; 0.888688;,
         0.677855; 0.843372;,
         0.716227; 0.894380;,
         0.677855; 0.843372;,
         0.712841; 0.841560;,
         0.716227; 0.894380;,
         0.716227; 0.894380;,
         0.712841; 0.841560;,
         0.745500; 0.895385;,
         0.712841; 0.841560;,
         0.738960; 0.838296;,
         0.745500; 0.895385;,
         0.745500; 0.895385;,
         0.738960; 0.838296;,
         0.775601; 0.896419;,
         0.738960; 0.838296;,
         0.764686; 0.835082;,
         0.775601; 0.896419;,
         0.775601; 0.896419;,
         0.764686; 0.835082;,
         0.800946; 0.896161;,
         0.764686; 0.835082;,
         0.790649; 0.828757;,
         0.800946; 0.896161;,
         0.800946; 0.896161;,
         0.790649; 0.828757;,
         0.824599; 0.895921;,
         0.790649; 0.828757;,
         0.816562; 0.822444;,
         0.824599; 0.895921;,
         0.824599; 0.895921;,
         0.816562; 0.822444;,
         0.853734; 0.890152;,
         0.816562; 0.822444;,
         0.834146; 0.811095;,
         0.853734; 0.890152;,
         0.853734; 0.890152;,
         0.834146; 0.811095;,
         0.868189; 0.887290;,
         0.834146; 0.811095;,
         0.846059; 0.803407;,
         0.868189; 0.887290;,
         0.868189; 0.887290;,
         0.846059; 0.803407;,
         0.884964; 0.883969;,
         0.846059; 0.803407;,
         0.852818; 0.799044;,
         0.884964; 0.883969;,
         0.884964; 0.883969;,
         0.852818; 0.799044;,
         0.914844; 0.868993;,
         0.852818; 0.799044;,
         0.889134; 0.804886;,
         0.914844; 0.868993;,
         0.914844; 0.868993;,
         0.889134; 0.804886;,
         0.944724; 0.854016;,
         0.889134; 0.804886;,
         0.921480; 0.810090;,
         0.944724; 0.854016;,
         0.944724; 0.854016;,
         0.921480; 0.810090;,
         0.964091; 0.835641;,
         0.921480; 0.810090;,
         0.951173; 0.814908;,
         0.964091; 0.835641;,
         0.964091; 0.835641;,
         0.951173; 0.814908;,
         0.971631; 0.828487;,
         0.951173; 0.814908;,
         0.964597; 0.817087;,
         0.971631; 0.828487;,
         0.536816; 0.836630;,
         0.537185; 0.850978;,
         0.510542; 0.844815;,
         0.536816; 0.836630;,
         0.510542; 0.844815;,
         0.510283; 0.834723;,
         0.620956; 0.651570;,
         0.606099; 0.668397;,
         0.582282; 0.648085;,
         0.606099; 0.668397;,
         0.576081; 0.658894;,
         0.582282; 0.648085;,
         0.582282; 0.648085;,
         0.576081; 0.658894;,
         0.555478; 0.645756;,
         0.576081; 0.658894;,
         0.551117; 0.653359;,
         0.555478; 0.645756;,
         0.693828; 0.661242;,
         0.675715; 0.691858;,
         0.657519; 0.656586;,
         0.675715; 0.691858;,
         0.640780; 0.679947;,
         0.657519; 0.656586;,
         0.657519; 0.656586;,
         0.640780; 0.679947;,
         0.620956; 0.651570;,
         0.640780; 0.679947;,
         0.606099; 0.668397;,
         0.620956; 0.651570;,
         0.765368; 0.673943;,
         0.739499; 0.718117;,
         0.729523; 0.667476;,
         0.739499; 0.718117;,
         0.707681; 0.705104;,
         0.729523; 0.667476;,
         0.729523; 0.667476;,
         0.707681; 0.705104;,
         0.693828; 0.661242;,
         0.707681; 0.705104;,
         0.675715; 0.691858;,
         0.693828; 0.661242;,
         0.739499; 0.718117;,
         0.765368; 0.673943;,
         0.763993; 0.729104;,
         0.765368; 0.673943;,
         0.795087; 0.681948;,
         0.763993; 0.729104;,
         0.763993; 0.729104;,
         0.795087; 0.681948;,
         0.786098; 0.739019;,
         0.795087; 0.681948;,
         0.822735; 0.689395;,
         0.786098; 0.739019;,
         0.786098; 0.739019;,
         0.822735; 0.689395;,
         0.807227; 0.752591;,
         0.822735; 0.689395;,
         0.845515; 0.696649;,
         0.807227; 0.752591;,
         0.807227; 0.752591;,
         0.845515; 0.696649;,
         0.828761; 0.766423;,
         0.845515; 0.696649;,
         0.868320; 0.703911;,
         0.828761; 0.766423;,
         0.828761; 0.766423;,
         0.868320; 0.703911;,
         0.841138; 0.783206;,
         0.868320; 0.703911;,
         0.893797; 0.718046;,
         0.841138; 0.783206;,
         0.841138; 0.783206;,
         0.893797; 0.718046;,
         0.846813; 0.790901;,
         0.893797; 0.718046;,
         0.907216; 0.725491;,
         0.846813; 0.790901;,
         0.846813; 0.790901;,
         0.907216; 0.725491;,
         0.852818; 0.799044;,
         0.907216; 0.725491;,
         0.920049; 0.732611;,
         0.852818; 0.799044;,
         0.852818; 0.799044;,
         0.920049; 0.732611;,
         0.889134; 0.804886;,
         0.920049; 0.732611;,
         0.942536; 0.756328;,
         0.889134; 0.804886;,
         0.889134; 0.804886;,
         0.942536; 0.756328;,
         0.921480; 0.810090;,
         0.942536; 0.756328;,
         0.962490; 0.777373;,
         0.921480; 0.810090;,
         0.921480; 0.810090;,
         0.962490; 0.777373;,
         0.951173; 0.814908;,
         0.962490; 0.777373;,
         0.971677; 0.798550;,
         0.951173; 0.814908;,
         0.951173; 0.814908;,
         0.971677; 0.798550;,
         0.964597; 0.817087;,
         0.971677; 0.798550;,
         0.975725; 0.807881;,
         0.964597; 0.817087;,
         0.767255; 0.493678;,
         0.772468; 0.314763;,
         0.549766; 0.314976;,
         0.772468; 0.314763;,
         0.767255; 0.493678;,
         0.549766; 0.314976;,
         0.975725; 0.807881;,
         0.964597; 0.817087;,
         0.980864; 0.819727;,
         0.964597; 0.817087;,
         0.971631; 0.828487;,
         0.980864; 0.819727;,
         0.876772; 0.362837;,
         0.892219; 0.314643;,
         0.864313; 0.314671;,
         0.892219; 0.314643;,
         0.876772; 0.362837;,
         0.864313; 0.314671;,
         0.975725; 0.807881;,
         0.980864; 0.819727;,
         0.964597; 0.817087;,
         0.980864; 0.819727;,
         0.971631; 0.828487;,
         0.964597; 0.817087;;
      } //End of Mesh UV Coordinates
    } //End of Mesh Mesh
  } //End of cresselia_mat_0
} //End of Root Frame
