# Blender v2.66 (sub 1) OBJ File: 'BR_Sneasel.blend'
# www.blender.org
mtllib BR_Sneasel.mtl
o nyula
v 0.993739 -0.181232 -2.471590
v 0.818425 -0.418992 -2.461299
v 0.915093 0.530645 -2.373426
v 1.023999 0.154803 -2.422103
v 0.647245 0.688243 -2.106934
v 0.493891 0.769192 -2.079859
v 0.339825 0.830789 -2.063288
v 0.407461 0.954934 -2.312264
v 0.688117 0.772035 -2.335365
v 0.811802 -0.368689 -2.219638
v 0.965173 -0.155195 -2.263318
v 1.001287 0.146513 -2.214361
v 0.848996 0.508425 -2.167948
v 0.535499 -0.574309 -2.456166
v 0.271629 -0.625470 -2.445282
v 0.242856 -0.559323 -2.171036
v 0.512177 -0.505919 -2.186371
v 0.000000 0.207754 -1.714535
v 0.000000 0.879048 -2.017719
v 0.000000 1.016657 -2.282784
v 0.000000 -0.306911 -1.882706
v 0.000000 -0.573569 -2.172940
v 0.000000 -0.632866 -2.443923
v -0.993739 -0.181232 -2.471590
v -0.818425 -0.418992 -2.461299
v -0.915093 0.530645 -2.373426
v -1.023999 0.154803 -2.422103
v -0.493891 0.769192 -2.079859
v -0.647245 0.688243 -2.106934
v -0.339825 0.830789 -2.063288
v -0.407461 0.954934 -2.312264
v -0.688117 0.772035 -2.335365
v -0.965173 -0.155195 -2.263318
v -0.811802 -0.368689 -2.219638
v -0.848996 0.508425 -2.167948
v -1.001287 0.146513 -2.214361
v -0.535499 -0.574309 -2.456166
v -0.271629 -0.625470 -2.445282
v -0.512177 -0.505919 -2.186371
v -0.242856 -0.559323 -2.171036
v 0.340459 0.349274 -4.236484
v 0.159608 0.159974 -4.616060
v 0.000000 0.228931 -4.623165
v 0.144782 0.446605 -4.250828
v 0.352851 -0.570265 -4.206841
v 0.293073 -0.432824 -4.560379
v 0.504455 -0.397399 -4.406110
v 0.572258 0.172916 -4.150339
v 0.497208 0.048365 -4.459874
v 0.289018 0.054572 -4.606285
v 0.356656 -0.197446 -4.584651
v 0.522981 -0.168192 -4.490747
v 0.573702 -0.432809 -4.073718
v 0.703557 -0.064466 -3.854596
v 0.703557 -0.064466 -3.854596
v 0.158207 -0.494388 -4.558359
v 0.183172 -0.613875 -4.215935
v 0.000000 0.451121 -4.254597
v 0.442678 0.472831 -3.969730
v 0.236856 0.612002 -3.940942
v 0.000000 0.659541 -3.927948
v 0.000000 -0.620008 -4.216630
v 0.000000 -0.498147 -4.558999
v -0.159608 0.159974 -4.616060
v -0.293073 -0.432824 -4.560379
v -0.356656 -0.197446 -4.584651
v -0.158207 -0.494388 -4.558359
v -0.289018 0.054572 -4.606285
v -0.340459 0.349274 -4.236484
v -0.144782 0.446605 -4.250828
v -0.352851 -0.570265 -4.206841
v -0.504455 -0.397399 -4.406110
v -0.572258 0.172916 -4.150339
v -0.497208 0.048365 -4.459874
v -0.522981 -0.168192 -4.490747
v -0.703557 -0.064466 -3.854596
v -0.703557 -0.064466 -3.854596
v -0.183172 -0.613875 -4.215935
v -0.442678 0.472831 -3.969730
v -0.236856 0.612002 -3.940942
v 3.910874 -0.188748 -2.299996
v 3.910874 -0.188748 -2.299996
v 3.933901 0.100640 -2.182160
v 3.704411 0.309267 -1.975805
v 3.400259 0.062928 -2.066588
v 3.516787 -0.240139 -2.218909
v 3.516787 -0.240139 -2.218909
v 3.478524 -0.617331 -2.281548
v 3.974974 -0.511089 -2.370888
v 3.811205 -0.837335 -2.346355
v 3.313562 -0.031951 -1.122112
v 2.807264 0.063430 -1.139658
v 2.807264 0.063430 -1.139658
v 3.096528 -0.097251 -1.370036
v 3.795656 -0.092417 -1.581024
v 3.381027 0.138308 -1.715144
v 3.606234 -0.323645 -1.674087
v 3.716766 0.181777 -1.576356
v 3.240966 0.260713 -1.308916
v 3.861336 -0.383377 -1.729251
v 3.436785 -0.533638 -1.847764
v 3.827002 -0.667068 -1.735411
v 3.623707 -0.858039 -1.801309
v 3.383717 -0.544348 -1.265413
v 2.957356 -0.210964 -1.246136
v 2.957356 -0.210964 -1.246136
v 3.269479 -0.232004 -1.432690
v 0.140718 0.138394 -4.681820
v 0.000000 0.201018 -4.689976
v 0.345147 -0.206880 -4.649168
v 0.285785 -0.474013 -4.619767
v 0.149299 -0.525077 -4.613329
v 0.261507 0.036742 -4.673337
v 0.000000 -0.531955 -4.611608
v -0.140718 0.138394 -4.681820
v -0.345147 -0.206880 -4.649168
v -0.285785 -0.474013 -4.619767
v -0.149299 -0.525077 -4.613329
v -0.261507 0.036742 -4.673337
v 0.639334 -0.375032 -4.758781
v 0.499671 -0.700321 -4.750279
v 0.744771 -0.959725 -4.941654
v 0.972913 -0.572821 -4.942653
v 0.983860 -1.204561 -5.224028
v 1.250522 -1.347853 -5.882794
v 1.638129 -0.730713 -5.824533
v 1.395748 -0.676831 -5.233648
v 1.745312 -0.681489 -6.105340
v 1.337423 -1.337822 -6.217710
v 1.357484 -1.249152 -6.544479
v 1.748257 -0.570566 -6.437820
v 1.615705 -0.425409 -6.898172
v 1.265993 -1.092078 -6.947966
v 1.109566 -0.884340 -7.306779
v 1.496731 -0.267171 -7.176341
v 0.990936 -0.340111 -7.480365
v -0.217270 -0.403187 -7.690165
v -0.310764 -1.356971 -7.372757
v -0.615867 -1.277982 -7.358693
v -0.447343 -0.396500 -7.656069
v 1.039684 1.355464 -7.038234
v 1.060067 1.173361 -7.304608
v 1.060067 1.173361 -7.304608
v 0.557817 1.359085 -6.940443
v 0.557817 1.359085 -6.940443
v -1.466122 0.140750 -7.071282
v -1.493801 -0.264737 -7.169052
v -1.615705 -0.425409 -6.898172
v -1.629644 0.098094 -6.849545
v -0.697594 1.316763 -6.951814
v -0.327329 1.001374 -7.379386
v -0.415769 0.313817 -7.590077
v -0.566373 0.430337 -7.414388
v 0.239758 1.207242 -4.759819
v 0.346864 1.758885 -4.977595
v 0.000000 1.901354 -4.942116
v 0.000000 1.310595 -4.739933
v 0.514222 2.089054 -5.707554
v 0.472311 1.905320 -6.106533
v 0.000000 2.060668 -6.073719
v 0.000000 2.239008 -5.705573
v 0.382263 1.633172 -6.606591
v 0.000000 1.735566 -6.602327
v 0.314943 1.464743 -6.939078
v 0.321776 1.000718 -7.381467
v 0.000291 1.503596 -6.943939
v 1.077093 1.132967 -5.040679
v 1.384974 1.246520 -5.520426
v 0.883431 1.810609 -5.451776
v 0.685322 1.547029 -5.000584
v 1.466138 1.242874 -5.793643
v 1.411003 1.190697 -6.236281
v 0.864262 1.673351 -6.148737
v 0.939570 1.843473 -5.738062
v 1.430785 -0.042814 -5.186346
v 0.957322 -0.097005 -4.913108
v 1.809858 -0.005480 -6.372970
v 1.819945 -0.042810 -6.007123
v 1.107505 0.697971 -7.248970
v 1.107505 0.697971 -7.248970
v 1.046387 0.640857 -7.845104
v 1.046387 0.640857 -7.845104
v 0.477134 1.035602 -4.780311
v 0.713406 0.733788 -4.829366
v -0.352559 1.451342 -6.944975
v -0.000031 1.008129 -7.400157
v -1.042094 -0.420490 -7.530488
v -1.109566 -0.884340 -7.306779
v 0.121725 0.704910 -4.709636
v 0.000000 0.756322 -4.703502
v -0.126144 0.322671 -7.640419
v 0.481315 2.078349 -5.412005
v 0.000000 2.200264 -5.393357
v 0.974971 0.032173 -7.438286
v 1.206803 0.132896 -7.324942
v 1.357252 0.374077 -7.631698
v 1.357252 0.374077 -7.631698
v 1.364467 0.565275 -7.150706
v 1.364467 0.565275 -7.150706
v 1.235657 1.087898 -6.742262
v -0.753749 1.450983 -6.636975
v -1.092697 1.144927 -6.832866
v 0.987927 0.924450 -6.848040
v 0.987927 0.924450 -6.848040
v 1.488163 0.554938 -6.822648
v 1.488163 0.554938 -6.822648
v 0.753749 1.450983 -6.636975
v 1.720635 0.059978 -6.675925
v 1.629644 0.098094 -6.849545
v 1.530110 0.140856 -7.018871
v 1.347133 0.193513 -7.208649
v 1.749028 -0.072486 -5.720169
v -1.358850 0.607658 -7.003469
v 0.399346 0.313856 -7.596318
v 0.123789 0.322640 -7.640143
v 0.615867 -1.277982 -7.358693
v 0.310764 -1.356971 -7.372757
v 0.212791 -0.403488 -7.689583
v 0.428088 -0.402342 -7.659090
v 0.706811 -1.540416 -6.986062
v 0.352251 -1.590322 -7.013508
v 0.732068 -1.743134 -6.287385
v 0.356247 -1.826458 -6.301009
v 0.381894 -1.750066 -6.614905
v 0.759137 -1.690072 -6.597528
v 0.492461 -1.457880 -5.213624
v 0.247735 -1.520355 -5.222511
v 0.330738 -1.835108 -5.943555
v 0.691007 -1.752083 -5.955712
v 0.414892 -1.120692 -4.952968
v 0.210224 -1.143154 -4.937229
v 0.000000 -1.145933 -4.928393
v 0.000000 -1.542263 -5.216961
v 0.000000 -1.863114 -5.938108
v 0.000000 -1.847200 -6.309341
v 0.000000 -1.779462 -6.623212
v 0.000000 -1.607414 -7.022299
v 0.000000 -1.366166 -7.382211
v 0.000149 -0.404288 -7.705789
v -0.000024 0.321036 -7.645668
v 0.954759 0.398473 -7.352732
v 1.076505 0.584680 -7.115392
v -1.265993 -1.092078 -6.947966
v -0.382263 1.633172 -6.606591
v 1.706540 0.554827 -6.295732
v 1.725026 0.586258 -5.886467
v 1.653500 0.586107 -5.609661
v 1.302746 0.597237 -5.104294
v 0.898540 0.393509 -4.868119
v 0.660384 -0.152519 -4.753927
v 0.587616 0.215453 -4.739103
v 0.432537 0.435631 -4.727661
v 0.311479 0.587594 -4.715787
v 0.344704 -0.764150 -4.746583
v 0.176170 -0.795061 -4.741665
v 0.000000 -0.804750 -4.739140
v -1.488163 0.554938 -6.822648
v -1.235657 1.087898 -6.742262
v -0.983860 -1.204561 -5.224028
v -1.395748 -0.676831 -5.233648
v -1.638129 -0.730713 -5.824533
v -1.250522 -1.347853 -5.882794
v -1.745312 -0.681489 -6.105340
v -1.748257 -0.570566 -6.437820
v -1.357484 -1.249152 -6.544479
v -1.337423 -1.337822 -6.217710
v -0.239758 1.207242 -4.759819
v -0.346864 1.758885 -4.977595
v -0.514222 2.089054 -5.707554
v -0.472311 1.905320 -6.106533
v -1.077093 1.132967 -5.040679
v -0.685322 1.547029 -5.000584
v -0.883431 1.810609 -5.451776
v -1.384974 1.246520 -5.520426
v -1.466138 1.242874 -5.793643
v -0.939570 1.843473 -5.738062
v -0.864262 1.673351 -6.148737
v -1.411003 1.190697 -6.236281
v -1.430785 -0.042814 -5.186346
v -0.972913 -0.572821 -4.942653
v -0.957322 -0.097005 -4.913108
v -1.809858 -0.005480 -6.372970
v -1.819945 -0.042810 -6.007123
v -0.477134 1.035602 -4.780311
v -0.713406 0.733788 -4.829366
v -0.481315 2.078349 -5.412005
v -1.720635 0.059978 -6.675925
v -1.749028 -0.072486 -5.720169
v -0.744771 -0.959725 -4.941654
v -0.732068 -1.743134 -6.287385
v -0.759137 -1.690072 -6.597528
v -0.381894 -1.750066 -6.614905
v -0.356247 -1.826458 -6.301009
v -0.492461 -1.457880 -5.213624
v -0.691007 -1.752083 -5.955712
v -0.330738 -1.835108 -5.943555
v -0.247735 -1.520355 -5.222511
v -0.210224 -1.143154 -4.937229
v -0.414892 -1.120692 -4.952968
v -1.706540 0.554827 -6.295732
v -1.725026 0.586258 -5.886467
v -1.302746 0.597237 -5.104294
v -1.653500 0.586107 -5.609661
v -0.898540 0.393509 -4.868119
v -0.706811 -1.540416 -6.986062
v -0.352251 -1.590322 -7.013508
v -0.639334 -0.375032 -4.758781
v -0.499671 -0.700321 -4.750279
v -0.121725 0.704910 -4.709636
v -0.587616 0.215453 -4.739103
v -0.660384 -0.152519 -4.753927
v -0.432537 0.435631 -4.727661
v -0.311479 0.587594 -4.715787
v -0.344704 -0.764150 -4.746583
v -0.176170 -0.795061 -4.741665
v 0.596382 -0.326822 -0.329634
v 0.453557 -0.013586 -0.320047
v 1.029309 -0.383594 -0.329245
v 1.026697 -0.431913 -0.069046
v 1.260657 -0.238202 -0.067280
v 1.252001 -0.226093 0.002895
v 1.478244 0.333327 0.002995
v 0.353907 0.473893 0.001964
v 0.367663 0.120343 0.002015
v 1.372592 0.013329 0.002939
v 0.805457 -0.411740 -0.351320
v 0.798171 -0.464516 -0.068569
v 0.579764 -0.370627 -0.068093
v 1.392488 0.036870 -0.067519
v 0.436573 0.236515 -0.329434
v 0.437002 0.563876 -0.330009
v 0.543315 0.586988 -0.415744
v 1.496014 0.352204 -0.067783
v 1.398623 0.471463 -0.436941
v 0.407419 -0.112583 -0.068780
v 0.417083 -0.111963 0.002049
v 0.346056 0.498085 -0.070183
v 0.357654 0.146120 -0.069620
v 1.277902 -0.159101 -0.328082
v 1.374911 0.122201 -0.327899
v 1.482400 0.433886 -0.327696
v 0.810883 -0.371697 -0.010809
v 0.812973 1.091824 -0.359562
v 0.565571 0.924226 -0.396147
v 0.492278 0.932152 -0.331390
v 1.591600 0.853917 0.003009
v 0.442380 0.997573 0.001982
v 1.594895 0.824446 -0.073096
v 1.003839 0.877347 -0.426835
v 1.015143 0.993555 -0.278909
v 1.229675 1.028048 -0.359158
v 1.220217 0.861931 -0.472990
v 1.050668 1.210580 0.002543
v 1.248041 1.052286 -0.330862
v 1.086612 1.208622 -0.010664
v 1.086612 1.208622 -0.010664
v 1.573451 0.887625 -0.010245
v 1.573451 0.887625 -0.010245
v 1.015067 1.218334 -0.009758
v 1.015067 1.218334 -0.009758
v 0.809935 1.119433 -0.330367
v 0.467608 1.026629 -0.010264
v 0.467608 1.026629 -0.010264
v 1.086612 1.208622 -0.010664
v 1.248041 1.052286 -0.330862
v 1.573451 0.887625 -0.010245
v 1.015067 1.218334 -0.009758
v 0.467608 1.026629 -0.010264
v 0.809935 1.119433 -0.330367
v 0.804248 0.912520 -0.465521
v 1.466143 0.811652 -0.395330
v 0.410924 0.963946 -0.071623
v 1.539705 0.814269 -0.329428
v 1.313511 1.430301 -0.287859
v 1.345510 1.606648 -0.169582
v 1.451159 1.587658 -0.010049
v 1.451159 1.587658 -0.010049
v 1.494553 1.424616 -0.010049
v 1.494553 1.424616 -0.010049
v 1.121768 1.344142 -0.010049
v 1.121768 1.344142 -0.010049
v 1.282679 1.242895 -0.320733
v 1.238559 1.615180 -0.010049
v 1.238559 1.615180 -0.010049
v 1.372864 1.750700 -0.010049
v 1.372864 1.750700 -0.010049
v 1.543093 1.156120 -0.010049
v 1.543093 1.156120 -0.010049
v 0.817914 1.302743 -0.322367
v 0.996097 1.357624 -0.010049
v 0.996097 1.357624 -0.010049
v 0.547039 1.281383 -0.010049
v 0.547039 1.281383 -0.010049
v 0.707134 1.655816 -0.010049
v 0.707134 1.655816 -0.010049
v 0.922239 1.636204 -0.010049
v 0.922239 1.636204 -0.010049
v 0.809207 1.803091 -0.010049
v 0.809207 1.803091 -0.010049
v 0.639596 1.536138 -0.010049
v 0.639596 1.536138 -0.010049
v 0.813229 1.642125 -0.166238
v 0.816726 1.482450 -0.288232
v 1.170931 1.479661 -0.010049
v 1.170931 1.479661 -0.010049
v 0.968961 1.496914 -0.010049
v 0.968961 1.496914 -0.010049
v -3.910874 -0.188748 -2.299996
v -3.910874 -0.188748 -2.299996
v -3.933901 0.100640 -2.182160
v -3.704411 0.309267 -1.975805
v -3.400259 0.062928 -2.066588
v -3.516787 -0.240139 -2.218909
v -3.516787 -0.240139 -2.218909
v -3.478524 -0.617331 -2.281548
v -3.974974 -0.511089 -2.370888
v -3.811205 -0.837335 -2.346355
v -3.313562 -0.031951 -1.122112
v -3.096528 -0.097251 -1.370036
v -2.807264 0.063430 -1.139658
v -2.807264 0.063430 -1.139658
v -3.795656 -0.092417 -1.581024
v -3.381027 0.138308 -1.715144
v -3.606234 -0.323645 -1.674087
v -3.716766 0.181777 -1.576356
v -3.240966 0.260713 -1.308916
v -3.861336 -0.383377 -1.729251
v -3.436785 -0.533638 -1.847764
v -3.623707 -0.858039 -1.801309
v -3.383717 -0.544348 -1.265413
v -3.095095 -0.638893 -1.498543
v -3.269479 -0.232004 -1.432690
v -2.957356 -0.210964 -1.246136
v -2.957356 -0.210964 -1.246136
v -0.596382 -0.326822 -0.329634
v -0.453557 -0.013586 -0.320047
v -1.029309 -0.383594 -0.329245
v -1.026697 -0.431913 -0.069046
v -1.252001 -0.226093 0.002895
v -1.260657 -0.238202 -0.067280
v -1.478244 0.333327 0.002995
v -1.372592 0.013329 0.002939
v -0.367663 0.120343 0.002015
v -0.353907 0.473893 0.001964
v -0.579764 -0.370627 -0.068093
v -0.798171 -0.464516 -0.068569
v -0.805457 -0.411740 -0.351320
v -1.392488 0.036870 -0.067519
v -0.436573 0.236515 -0.329434
v -0.543315 0.586988 -0.415744
v -0.437002 0.563876 -0.330009
v -1.496014 0.352204 -0.067783
v -1.398623 0.471463 -0.436941
v -0.407419 -0.112583 -0.068780
v -0.417083 -0.111963 0.002049
v -0.357654 0.146120 -0.069620
v -0.346056 0.498085 -0.070183
v -1.277902 -0.159101 -0.328082
v -1.374911 0.122201 -0.327899
v -1.482400 0.433886 -0.327696
v -0.810883 -0.371697 -0.010809
v -0.812973 1.091824 -0.359562
v -0.492278 0.932152 -0.331390
v -0.565571 0.924226 -0.396147
v -0.442380 0.997573 0.001982
v -1.591600 0.853917 0.003009
v -1.594895 0.824446 -0.073096
v -1.003839 0.877347 -0.426835
v -1.220217 0.861931 -0.472990
v -1.229675 1.028048 -0.359158
v -1.015143 0.993555 -0.278909
v -1.050668 1.210580 0.002543
v -1.086612 1.208622 -0.010664
v -1.086612 1.208622 -0.010664
v -1.248041 1.052286 -0.330862
v -1.573451 0.887625 -0.010245
v -1.573451 0.887625 -0.010245
v -1.015067 1.218334 -0.009758
v -1.015067 1.218334 -0.009758
v -0.809935 1.119433 -0.330367
v -0.467608 1.026629 -0.010264
v -0.467608 1.026629 -0.010264
v -1.248041 1.052286 -0.330862
v -1.086612 1.208622 -0.010664
v -1.573451 0.887625 -0.010245
v -0.467608 1.026629 -0.010264
v -1.015067 1.218334 -0.009758
v -0.809935 1.119433 -0.330367
v -0.804248 0.912520 -0.465521
v -1.466143 0.811652 -0.395330
v -0.410924 0.963946 -0.071623
v -1.539705 0.814269 -0.329428
v -1.313511 1.430301 -0.287859
v -1.494553 1.424616 -0.010049
v -1.494553 1.424616 -0.010049
v -1.451159 1.587658 -0.010049
v -1.451159 1.587658 -0.010049
v -1.345510 1.606648 -0.169582
v -1.121768 1.344142 -0.010049
v -1.121768 1.344142 -0.010049
v -1.282679 1.242895 -0.320733
v -1.238559 1.615180 -0.010049
v -1.238559 1.615180 -0.010049
v -1.372864 1.750700 -0.010049
v -1.372864 1.750700 -0.010049
v -1.543093 1.156120 -0.010049
v -1.543093 1.156120 -0.010049
v -0.996097 1.357624 -0.010049
v -0.996097 1.357624 -0.010049
v -0.817914 1.302743 -0.322367
v -0.547039 1.281383 -0.010049
v -0.547039 1.281383 -0.010049
v -0.707134 1.655816 -0.010049
v -0.707134 1.655816 -0.010049
v -0.809207 1.803091 -0.010049
v -0.809207 1.803091 -0.010049
v -0.922239 1.636204 -0.010049
v -0.922239 1.636204 -0.010049
v -0.639596 1.536138 -0.010049
v -0.639596 1.536138 -0.010049
v -0.816726 1.482450 -0.288232
v -0.813229 1.642125 -0.166238
v -1.170931 1.479661 -0.010049
v -1.170931 1.479661 -0.010049
v -0.968961 1.496914 -0.010049
v -0.968961 1.496914 -0.010049
v 0.824688 -0.442906 -2.706599
v 0.978286 -0.196069 -2.689611
v 1.027192 0.157179 -2.634850
v 0.949818 0.534987 -2.587528
v 0.725140 0.806735 -2.582320
v 0.447701 1.030547 -2.582528
v 0.690234 -0.450452 -3.294828
v 0.573874 -0.487553 -3.706100
v 0.741768 -0.317413 -3.641523
v 0.851002 -0.242945 -3.257483
v 0.869637 0.411975 -3.236644
v 0.896884 0.069982 -3.234118
v 0.798604 -0.006276 -3.581936
v 0.744099 0.282538 -3.643249
v 0.715023 0.776981 -2.934124
v 0.428475 1.002474 -2.948884
v 0.985359 0.119377 -2.924333
v 0.936974 0.487644 -2.914959
v 0.781997 -0.449221 -2.982389
v 0.929846 -0.213058 -2.957198
v 0.650912 0.693678 -3.274166
v 0.556021 0.586738 -3.649116
v 0.315279 0.779134 -3.622058
v 0.371586 0.903520 -3.300385
v 0.224125 -0.636606 -3.310054
v 0.200406 -0.611855 -3.761086
v 0.398886 -0.572810 -3.754189
v 0.470312 -0.581818 -3.321251
v 0.572661 -0.606595 -2.727667
v 0.288339 -0.650488 -2.723307
v 0.269203 -0.657322 -3.017747
v 0.531959 -0.603450 -3.019296
v 0.000000 1.088515 -2.573862
v 0.000000 1.071951 -2.950936
v 0.000000 0.837019 -3.630655
v 0.000000 0.986021 -3.318649
v 0.000000 -0.657914 -2.721666
v 0.000000 -0.665320 -3.015445
v 0.000000 -0.644758 -3.308790
v 0.000000 -0.619495 -3.762472
v -0.978286 -0.196069 -2.689611
v -0.824688 -0.442906 -2.706599
v -0.949818 0.534987 -2.587528
v -1.027192 0.157179 -2.634850
v -0.447701 1.030547 -2.582528
v -0.725140 0.806735 -2.582320
v -0.690234 -0.450452 -3.294828
v -0.851002 -0.242945 -3.257483
v -0.741768 -0.317413 -3.641523
v -0.573874 -0.487553 -3.706100
v -0.869637 0.411975 -3.236644
v -0.744099 0.282538 -3.643249
v -0.798604 -0.006276 -3.581936
v -0.896884 0.069982 -3.234118
v -0.428475 1.002474 -2.948884
v -0.715023 0.776981 -2.934124
v -0.985359 0.119377 -2.924333
v -0.936974 0.487644 -2.914959
v -0.929846 -0.213058 -2.957198
v -0.781997 -0.449221 -2.982389
v -0.650912 0.693678 -3.274166
v -0.371586 0.903520 -3.300385
v -0.315279 0.779134 -3.622058
v -0.556021 0.586738 -3.649116
v -0.224125 -0.636606 -3.310054
v -0.470312 -0.581818 -3.321251
v -0.398886 -0.572810 -3.754189
v -0.200406 -0.611855 -3.761086
v -0.572661 -0.606595 -2.727667
v -0.531959 -0.603450 -3.019296
v -0.269203 -0.657322 -3.017747
v -0.288339 -0.650488 -2.723307
v 0.616125 0.583953 -1.859462
v 0.086114 0.210878 -1.695078
v 0.354398 0.453747 -1.723658
v 0.789087 -0.231714 -1.890022
v 0.898357 0.047120 -1.985857
v 0.338445 0.196602 -1.448186
v 0.441611 -0.059841 -1.399827
v 0.820504 0.382171 -1.800556
v 0.856425 0.307360 -1.553839
v 0.693026 0.473946 -1.559411
v 0.495566 0.370225 -1.484601
v 0.935246 0.036299 -1.555771
v 0.813820 -0.147977 -1.470419
v 0.616387 -0.189102 -1.407112
v 0.303646 -0.332225 -1.849032
v 0.579060 -0.321622 -1.860806
v 0.318075 -0.117764 -1.698300
v 1.177828 -0.086235 -4.183065
v 1.090626 0.103607 -4.111141
v 1.009604 -0.306712 -3.898383
v 1.106394 -0.233441 -4.061012
v 0.939118 -0.049934 -3.803839
v 0.965490 0.200151 -3.955338
v 0.927905 -0.126786 -4.304511
v 0.798935 0.185973 -4.028444
v 0.742181 -0.361899 -3.991608
v 0.865817 -0.287368 -4.181499
v 0.894680 0.082948 -4.216959
v 1.837029 0.182014 -3.851692
v 1.903131 -0.011295 -3.956731
v 1.798029 -0.293117 -3.612687
v 1.860355 -0.187742 -3.818413
v 1.700865 0.024764 -3.443070
v 1.748251 0.301134 -3.675681
v 1.897833 0.320431 -3.622240
v 1.846431 0.039039 -3.374129
v 2.182247 0.050054 -3.187460
v 1.948694 -0.290519 -3.558092
v 2.004435 -0.179009 -3.772053
v 2.287313 -0.222255 -3.672950
v 2.279432 -0.342703 -3.438170
v 2.526362 -0.269525 -3.580917
v 2.462280 -0.376357 -3.360683
v 2.400661 0.055736 -3.066551
v 2.525013 0.371356 -3.378614
v 1.979664 0.196997 -3.802112
v 2.272015 0.212020 -3.706371
v 2.295433 -0.012973 -3.849089
v 2.041735 0.003026 -3.913480
v 2.631227 -0.026050 -3.760170
v 2.579324 0.240809 -3.601002
v 2.245665 0.348674 -3.487126
v 2.487227 0.223079 -3.635891
v 2.432917 -0.021643 -3.814195
v 2.353774 -0.232415 -3.649666
v 3.320648 -0.440312 -3.264523
v 3.226633 -0.517040 -3.036766
v 3.266468 0.491309 -3.086261
v 3.111751 0.069396 -2.724399
v 3.431102 0.247843 -3.504919
v 3.236774 0.203822 -2.542523
v 3.580672 0.443613 -2.362127
v 3.657963 -0.736458 -2.734368
v 3.281772 -0.483156 -2.759226
v 3.408297 -0.329398 -3.476594
v 3.728121 -0.033966 -2.917683
v 3.922602 -0.330363 -2.850428
v 3.888009 0.197751 -2.683836
v 3.175082 -0.035928 -2.677973
v 3.427332 -0.042154 -3.512064
v 3.356682 0.390467 -3.306516
v 3.878548 -0.120465 -2.523175
v 3.400549 -0.195219 -2.385444
v 3.095095 -0.638893 -1.498543
v -1.502505 0.106360 -7.590911
v -0.666286 0.273384 -7.687393
v -0.851138 0.035136 -7.981251
v -1.199441 0.368107 -8.028268
v -0.995785 0.931270 -7.592106
v -1.530840 -0.333207 -7.708775
v -1.452648 -0.149127 -7.957059
v -1.381237 -0.397977 -8.306104
v -1.208144 0.755426 -7.255795
v -1.303079 0.004606 -8.197466
v -1.058647 -0.185560 -8.150753
v -1.189905 -0.441073 -7.878222
v -0.840809 -0.389160 -8.062813
v 0.445172 0.200114 -1.235632
v 0.502124 -0.037846 -1.216615
v 0.742843 0.414172 -1.370882
v 0.890869 0.247809 -1.347979
v 0.578049 0.334940 -1.293383
v 0.974844 0.027818 -1.326887
v 0.846921 -0.123362 -1.266569
v 0.662302 -0.167209 -1.231731
v 0.796978 0.378353 -1.166687
v 0.941833 0.218109 -1.154684
v 1.003396 0.204007 -0.955388
v 0.845258 0.380508 -0.945712
v 0.665699 0.307556 -0.905525
v 0.629413 0.305531 -1.064913
v 0.501868 0.168732 -0.978326
v 0.515937 0.139549 -0.869419
v 0.883545 -0.105728 -1.097643
v 0.923832 -0.124881 -0.932736
v 0.739219 -0.164109 -0.902294
v 0.704653 -0.153773 -1.056670
v 0.551965 -0.025979 -1.009539
v 0.584464 -0.045000 -0.880766
v 1.018797 0.017959 -1.130999
v 1.057703 -0.008016 -0.955608
v 0.548082 0.037572 -0.472364
v 0.809752 -0.224850 -0.551255
v 1.029348 -0.194371 -0.552580
v 0.966705 0.590008 -0.541923
v 1.104600 0.176888 -0.638640
v 0.907154 0.383271 -0.662414
v 0.543051 0.272744 -0.450043
v 0.761562 0.623634 -0.567703
v 0.735180 0.317465 -0.634668
v 0.646848 -0.116692 -0.528477
v 1.185636 0.560765 -0.577241
v 1.314314 0.169856 -0.482341
v 1.220553 -0.096237 -0.512795
v -0.616125 0.583953 -1.859462
v -0.086114 0.210878 -1.695078
v -0.354398 0.453747 -1.723658
v -0.789087 -0.231714 -1.890022
v -0.898357 0.047120 -1.985857
v -0.441611 -0.059841 -1.399827
v -0.338445 0.196602 -1.448186
v -0.820504 0.382171 -1.800556
v -0.856425 0.307360 -1.553839
v -0.693026 0.473946 -1.559411
v -0.495566 0.370225 -1.484601
v -0.935246 0.036299 -1.555771
v -0.813820 -0.147977 -1.470419
v -0.616387 -0.189102 -1.407112
v -0.579060 -0.321622 -1.860806
v -0.318075 -0.117764 -1.698300
v -0.573702 -0.432809 -4.073718
v -1.177828 -0.086235 -4.183065
v -1.090626 0.103607 -4.111141
v -1.106394 -0.233441 -4.061012
v -1.009604 -0.306712 -3.898383
v -0.939118 -0.049934 -3.803839
v -0.965490 0.200151 -3.955338
v -0.927905 -0.126786 -4.304511
v -0.798935 0.185973 -4.028444
v -0.742181 -0.361899 -3.991608
v -0.865817 -0.287368 -4.181499
v -0.894680 0.082948 -4.216959
v -1.903131 -0.011295 -3.956731
v -1.837029 0.182014 -3.851692
v -1.798029 -0.293117 -3.612687
v -1.860355 -0.187742 -3.818413
v -1.700865 0.024764 -3.443070
v -1.748251 0.301134 -3.675681
v -1.897833 0.320431 -3.622240
v -2.182247 0.050054 -3.187460
v -1.846431 0.039039 -3.374129
v -1.948694 -0.290519 -3.558092
v -2.279432 -0.342703 -3.438170
v -2.287313 -0.222255 -3.672950
v -2.004435 -0.179009 -3.772053
v -2.526362 -0.269525 -3.580917
v -2.462280 -0.376357 -3.360683
v -2.400661 0.055736 -3.066551
v -2.525013 0.371356 -3.378614
v -1.979664 0.196997 -3.802112
v -2.041735 0.003026 -3.913480
v -2.295433 -0.012973 -3.849089
v -2.272015 0.212020 -3.706371
v -2.631227 -0.026050 -3.760170
v -2.579324 0.240809 -3.601002
v -2.245665 0.348674 -3.487126
v -2.487227 0.223079 -3.635891
v -2.432917 -0.021643 -3.814195
v -2.353774 -0.232415 -3.649666
v -3.226633 -0.517040 -3.036766
v -3.320648 -0.440312 -3.264523
v -3.266468 0.491309 -3.086261
v -3.111751 0.069396 -2.724399
v -3.431102 0.247843 -3.504919
v -3.408297 -0.329398 -3.476594
v -3.427332 -0.042154 -3.512064
v -3.356682 0.390467 -3.306516
v -3.580672 0.443613 -2.362127
v -3.236774 0.203822 -2.542523
v -3.657963 -0.736458 -2.734368
v -3.281772 -0.483156 -2.759226
v -3.922602 -0.330363 -2.850428
v -3.728121 -0.033966 -2.917683
v -3.888009 0.197751 -2.683836
v -3.176366 -0.001455 -2.663386
v -3.878548 -0.120465 -2.523175
v -3.400549 -0.195219 -2.385444
v -3.827002 -0.667068 -1.735411
v -0.445172 0.200114 -1.235632
v -0.502124 -0.037846 -1.216615
v -0.890869 0.247809 -1.347979
v -0.742843 0.414172 -1.370882
v -0.578049 0.334940 -1.293383
v -0.974844 0.027818 -1.326887
v -0.662302 -0.167209 -1.231731
v -0.846921 -0.123362 -1.266569
v -0.796978 0.378353 -1.166687
v -0.941833 0.218109 -1.154684
v -1.003396 0.204007 -0.955388
v -0.845258 0.380508 -0.945712
v -0.665699 0.307556 -0.905525
v -0.515937 0.139549 -0.869419
v -0.501868 0.168732 -0.978326
v -0.629413 0.305531 -1.064913
v -0.883545 -0.105728 -1.097643
v -0.704653 -0.153773 -1.056670
v -0.739219 -0.164109 -0.902294
v -0.923832 -0.124881 -0.932736
v -0.551965 -0.025979 -1.009539
v -0.584464 -0.045000 -0.880766
v -1.018797 0.017959 -1.130999
v -1.057703 -0.008016 -0.955608
v -0.548082 0.037572 -0.472364
v -1.029348 -0.194371 -0.552580
v -0.809752 -0.224850 -0.551255
v -0.966705 0.590008 -0.541923
v -0.907154 0.383271 -0.662414
v -1.104600 0.176888 -0.638640
v -0.543051 0.272744 -0.450043
v -0.735180 0.317465 -0.634668
v -0.761562 0.623634 -0.567703
v -0.646848 -0.116692 -0.528477
v -1.185636 0.560765 -0.577241
v -1.314314 0.169856 -0.482341
v -1.220553 -0.096237 -0.512795
v -0.303646 -0.332225 -1.849032
vt 0.947715 0.551213
vt 0.956514 0.542123
vt 0.959843 0.550961
vt 0.945385 0.543205
vt 0.935313 0.550599
vt 0.934448 0.542609
vt 0.922072 0.550078
vt 0.923848 0.541473
vt 0.908465 0.548241
vt 0.912636 0.539570
vt 0.893350 0.546855
vt 0.897438 0.537047
vt 0.875366 0.545319
vt 0.875366 0.535314
vt 0.971711 0.550042
vt 0.967541 0.540681
vt 0.983210 0.547207
vt 0.980011 0.538697
vt 0.996030 0.542196
vt 0.996030 0.535704
vt 0.951250 0.535484
vt 0.935959 0.532841
vt 0.944808 0.530683
vt 0.942144 0.537100
vt 0.951051 0.578366
vt 0.962583 0.595453
vt 0.951727 0.596965
vt 0.962633 0.577438
vt 0.949756 0.562669
vt 0.961958 0.562997
vt 0.924599 0.578364
vt 0.940219 0.597419
vt 0.926482 0.600098
vt 0.938437 0.579342
vt 0.922716 0.561503
vt 0.936732 0.562409
vt 0.891783 0.558022
vt 0.907467 0.559634
vt 0.875366 0.556933
vt 0.973524 0.562488
vt 0.984752 0.558436
vt 0.996030 0.550512
vt 0.892579 0.597598
vt 0.908652 0.576566
vt 0.910094 0.599872
vt 0.891969 0.574654
vt 0.875366 0.596548
vt 0.875366 0.573638
vt 0.971351 0.595230
vt 0.973694 0.577236
vt 0.983441 0.593064
vt 0.984915 0.572684
vt 0.996030 0.587391
vt 0.996030 0.560782
vt 0.903218 0.640626
vt 0.887351 0.627920
vt 0.906006 0.621648
vt 0.875365 0.633049
vt 0.903755 0.656506
vt 0.875365 0.666907
vt 0.896984 0.664557
vt 0.878616 0.669876
vt 0.890213 0.672608
vt 0.881867 0.672845
vt 0.962565 0.636233
vt 0.946951 0.628392
vt 0.953342 0.622545
vt 0.945575 0.636350
vt 0.966062 0.662563
vt 0.946471 0.656362
vt 0.966725 0.666624
vt 0.952442 0.664040
vt 0.967519 0.671487
vt 0.959677 0.673344
vt 0.966582 0.678264
vt 0.956123 0.680310
vt 0.964260 0.684528
vt 0.951624 0.685346
vt 0.962958 0.688110
vt 0.949417 0.689003
vt 0.961409 0.692373
vt 0.946640 0.693608
vt 0.957700 0.701715
vt 0.945498 0.701721
vt 0.950597 0.708829
vt 0.938668 0.709318
vt 0.945552 0.617753
vt 0.942715 0.612428
vt 0.942464 0.611348
vt 0.945001 0.618525
vt 0.946948 0.624493
vt 0.944085 0.623169
vt 0.944868 0.617204
vt 0.942048 0.611986
vt 0.941842 0.612545
vt 0.945308 0.616775
vt 0.948545 0.617043
vt 0.948147 0.619290
vt 0.943265 0.616292
vt 0.941514 0.612502
vt 0.942396 0.615783
vt 0.941639 0.613281
vt 0.943053 0.619082
vt 0.939971 0.621526
vt 0.940023 0.607002
vt 0.938169 0.604667
vt 0.938881 0.603971
vt 0.939849 0.607876
vt 0.939086 0.600094
vt 0.939449 0.598570
vt 0.940256 0.596825
vt 0.938330 0.600265
vt 0.937654 0.602525
vt 0.938732 0.604446
vt 0.940275 0.607524
vt 0.939395 0.604216
vt 0.940062 0.607638
vt 0.810278 0.715385
vt 0.781525 0.710102
vt 0.797372 0.709668
vt 0.798391 0.721144
vt 0.836009 0.717906
vt 0.848499 0.725681
vt 0.856853 0.715210
vt 0.877700 0.724894
vt 0.807291 0.710422
vt 0.812956 0.701996
vt 0.813948 0.709431
vt 0.802931 0.700815
vt 0.801460 0.709226
vt 0.793537 0.700885
vt 0.826116 0.714146
vt 0.839112 0.710077
vt 0.818295 0.714310
vt 0.822764 0.713535
vt 0.810963 0.716002
vt 0.812792 0.715294
vt 0.809488 0.716095
vt 0.808884 0.716433
vt 0.895500 0.677957
vt 0.910872 0.677056
vt 0.863164 0.662070
vt 0.910441 0.678765
vt 0.907309 0.669061
vt 0.905523 0.662752
vt 0.945211 0.673407
vt 0.943790 0.682241
vt 0.945844 0.664842
vt 0.937063 0.692632
vt 0.937024 0.688442
vt 0.926623 0.694202
vt 0.925610 0.686657
vt 0.936777 0.698723
vt 0.936231 0.703566
vt 0.933966 0.707112
vt 0.936992 0.685066
vt 0.935050 0.521446
vt 0.939453 0.523320
vt 0.939866 0.521914
vt 0.930829 0.522040
vt 0.932989 0.522332
vt 0.929911 0.524276
vt 0.931379 0.523320
vt 0.929137 0.526372
vt 0.933529 0.524851
vt 0.931738 0.527331
vt 0.938188 0.525580
vt 0.937360 0.528108
vt 0.942222 0.524428
vt 0.942263 0.526597
vt 0.942536 0.522675
vt 0.942859 0.525308
vt 0.933037 0.522352
vt 0.935063 0.523662
vt 0.932062 0.522591
vt 0.934844 0.523648
vt 0.927598 0.523562
vt 0.932391 0.524605
vt 0.934564 0.521028
vt 0.937545 0.520030
vt 0.933678 0.521085
vt 0.937337 0.520418
vt 0.943227 0.521780
vt 0.942762 0.522628
vt 0.943293 0.521371
vt 0.942521 0.523188
vt 0.941033 0.520383
vt 0.941025 0.520792
vt 0.926911 0.525545
vt 0.932614 0.521489
vt 0.934275 0.524140
vt 0.923477 0.522656
vt 0.918141 0.527449
vt 0.912998 0.524050
vt 0.941217 0.520221
vt 0.943412 0.520635
vt 0.943627 0.520384
vt 0.939698 0.520136
vt 0.936760 0.520649
vt 0.935236 0.519970
vt 0.931624 0.521873
vt 0.929456 0.520589
vt 0.924554 0.522400
vt 0.924059 0.521305
vt 0.917749 0.523049
vt 0.918957 0.522355
vt 0.941288 0.522292
vt 0.934422 0.523728
vt 0.940499 0.521578
vt 0.938935 0.520805
vt 0.929083 0.520182
vt 0.922565 0.521237
vt 0.917172 0.522276
vt 0.920403 0.526750
vt 0.927192 0.525220
vt 0.916649 0.525037
vt 0.916856 0.527436
vt 0.918530 0.526533
vt 0.914780 0.525737
vt 0.916226 0.523558
vt 0.914252 0.524468
vt 0.921066 0.524407
vt 0.922585 0.526216
vt 0.920286 0.522749
vt 0.912457 0.526609
vt 0.899831 0.714434
vt 0.899426 0.739309
vt 0.920729 0.722353
vt 0.923178 0.712683
vt 0.931689 0.713400
vt 0.953283 0.719567
vt 0.980938 0.713336
vt 0.981585 0.731185
vt 0.964447 0.710510
vt 0.943686 0.712602
vt 0.983107 0.702402
vt 0.970055 0.701539
vt 0.985210 0.692139
vt 0.974929 0.686911
vt 0.985743 0.686136
vt 0.973847 0.691623
vt 0.975755 0.683312
vt 0.985989 0.672357
vt 0.986131 0.681757
vt 0.976340 0.676260
vt 0.984791 0.667122
vt 0.974398 0.669886
vt 0.982103 0.662614
vt 0.980167 0.644161
vt 0.964324 0.614441
vt 0.981199 0.620366
vt 0.973795 0.531830
vt 0.949752 0.527839
vt 0.956279 0.524456
vt 0.960118 0.534026
vt 0.911687 0.532042
vt 0.906061 0.529583
vt 0.918892 0.533134
vt 0.894215 0.520688
vt 0.904578 0.528865
vt 0.902129 0.527129
vt 0.939491 0.523842
vt 0.938937 0.524163
vt 0.942984 0.521246
vt 0.940991 0.523553
vt 0.942684 0.522066
vt 0.934226 0.525160
vt 0.939113 0.523734
vt 0.933375 0.525654
vt 0.920836 0.527103
vt 0.926719 0.526349
vt 0.920578 0.527233
vt 0.925986 0.526676
vt 0.935536 0.520132
vt 0.927016 0.619649
vt 0.909058 0.618331
vt 0.927640 0.634927
vt 0.926025 0.655785
vt 0.925948 0.662841
vt 0.925871 0.669969
vt 0.928308 0.682061
vt 0.951975 0.691355
vt 0.909552 0.528204
vt 0.875366 0.524804
vt 0.918361 0.533137
vt 0.914289 0.530857
vt 0.928061 0.533954
vt 0.934879 0.536435
vt 0.952921 0.613926
vt 0.892105 0.616519
vt 0.875366 0.613921
vt 0.875366 0.628585
vt 0.875366 0.504416
vt 0.923128 0.521722
vt 0.996030 0.517942
vt 0.996030 0.529610
vt 0.996030 0.629753
vt 0.996030 0.661823
vt 0.996030 0.674904
vt 0.996030 0.664060
vt 0.996030 0.664879
vt 0.996030 0.679511
vt 0.996030 0.684860
vt 0.996030 0.693148
vt 0.996031 0.710216
vt 0.996044 0.701725
vt 0.996037 0.732086
vt 0.996005 0.739323
vt 0.754703 0.710216
vt 0.754708 0.732086
vt 0.875362 0.740211
vt 0.929826 0.530776
vt 0.922179 0.529550
vt 0.920449 0.525307
vt 0.942072 0.524115
vt 0.942582 0.522347
vt 0.942813 0.521045
vt 0.940315 0.520161
vt 0.930386 0.521304
vt 0.822838 0.712558
vt 0.812365 0.713302
vt 0.808089 0.715671
vt 0.922385 0.709067
vt 0.911376 0.708409
vt 0.932415 0.709688
vt 0.932464 0.710849
vt 0.877306 0.712888
vt 0.885150 0.699933
vt 0.891916 0.708813
vt 0.876133 0.700659
vt 0.860090 0.710307
vt 0.865572 0.699908
vt 0.855304 0.701648
vt 0.926704 0.704749
vt 0.938978 0.625272
vt 0.895428 0.701648
vt 0.983254 0.664545
vt 0.969686 0.665746
vt 0.996030 0.670226
vt 0.875365 0.669464
vt 0.875365 0.672020
vt 0.939009 0.604300
vt 0.939977 0.607309
vt 0.936585 0.593593
vt 0.936867 0.596945
vt 0.938141 0.598961
vt 0.938326 0.599703
vt 0.826965 0.709394
vt 0.824027 0.704749
vt 0.938802 0.600998
vt 0.938249 0.602010
vt 0.938374 0.598587
vt 0.939122 0.604706
vt 0.938159 0.598650
vt 0.940088 0.607428
vt 0.840084 0.704244
vt 0.840064 0.706690
vt 0.938677 0.593490
vt 0.943036 0.592970
vt 0.944845 0.595629
vt 0.940393 0.598858
vt 0.938520 0.597954
vt 0.938071 0.597076
vt 0.938044 0.596546
vt 0.937678 0.596870
vt 0.935242 0.595563
vt 0.932572 0.587790
vt 0.935078 0.587855
vt 0.939143 0.590514
vt 0.939601 0.586655
vt 0.938387 0.592822
vt 0.911422 0.708728
vt 0.911584 0.707591
vt 0.911613 0.707972
vt 0.909507 0.704871
vt 0.912345 0.706752
vt 0.910647 0.704244
vt 0.913793 0.708486
vt 0.918267 0.707283
vt 0.808342 0.714436
vt 0.808985 0.716148
vt 0.809302 0.715285
vt 0.808293 0.715428
vt 0.806794 0.712800
vt 0.942131 0.520579
vt 0.625162 0.661835
vt 0.625763 0.610481
vt 0.709106 0.614052
vt 0.098688 0.905324
vt 0.030692 0.857938
vt 0.087260 0.853860
vt 0.043599 0.905246
vt 0.111910 0.969958
vt 0.066461 0.972904
vt 0.153544 0.906731
vt 0.238467 0.854007
vt 0.240545 0.911781
vt 0.146247 0.853424
vt 0.297605 0.914365
vt 0.293482 0.861139
vt 0.227387 0.819157
vt 0.283584 0.825729
vt 0.161392 0.970194
vt 0.081755 0.815661
vt 0.139908 0.816526
vt 0.280171 0.977939
vt 0.234351 0.978552
vt 0.792771 0.926570
vt 0.829296 0.913974
vt 0.834094 0.959831
vt 0.796631 0.892850
vt 0.824243 0.923630
vt 0.826208 0.883163
vt 0.907061 0.915647
vt 0.943036 0.930459
vt 0.901343 0.961572
vt 0.943146 0.898577
vt 0.910716 0.905070
vt 0.944128 0.902405
vt 0.911721 0.925894
vt 0.913076 0.886667
vt 0.929035 0.867077
vt 0.798491 0.854087
vt 0.805776 0.853082
vt 0.831146 0.849891
vt 0.963997 0.912857
vt 0.907211 0.947255
vt 0.930227 0.950014
vt 0.917964 0.907339
vt 0.975435 0.837321
vt 0.919059 0.850588
vt 0.986874 0.761786
vt 0.920154 0.793837
vt 0.868605 0.818132
vt 0.859321 0.761786
vt 0.877889 0.874478
vt 0.887173 0.930824
vt 0.896457 0.987170
vt 0.831216 0.793837
vt 0.880324 0.818132
vt 0.889042 0.761786
vt 0.830121 0.850588
vt 0.761489 0.761786
vt 0.775305 0.838487
vt 0.821645 0.951179
vt 0.862888 0.930824
vt 0.854170 0.987170
vt 0.829026 0.907339
vt 0.841598 0.947255
vt 0.789121 0.915188
vt 0.871606 0.874478
vt 0.866724 0.915773
vt 0.865853 0.936424
vt 0.859833 0.845000
vt 0.805726 0.792926
vt 0.819955 0.805413
vt 0.791676 0.778653
vt 0.777232 0.814984
vt 0.867328 0.892759
vt 0.866741 0.904647
vt 0.881997 0.889025
vt 0.916009 0.833228
vt 0.966931 0.846935
vt 0.939439 0.807565
vt 0.936158 0.861858
vt 0.625839 0.416978
vt 0.676376 0.340533
vt 0.689900 0.419680
vt 0.625839 0.343868
vt 0.749465 0.420762
vt 0.726410 0.350605
vt 0.625839 0.501607
vt 0.702308 0.514336
vt 0.771515 0.524778
usemtl mat_0
s 1
f 528/1 2/2 527/3
f 528/1 1/4 2/2
f 529/5 1/4 528/1
f 4/5 1/6 529/4
f 530/7 4/6 529/5
f 530/7 3/8 4/6
f 531/9 3/8 530/7
f 531/9 9/10 3/8
f 532/11 9/10 531/9
f 532/11 8/12 9/10
f 559/13 8/12 532/11
f 559/13 20/14 8/12
f 571/11 20/14 559/13
f 571/11 31/12 20/14
f 572/9 31/12 571/11
f 572/9 32/10 31/12
f 569/7 32/10 572/9
f 569/7 26/8 32/10
f 570/5 26/8 569/7
f 570/5 27/6 26/8
f 567/1 27/6 570/5
f 567/1 24/4 27/6
f 568/3 24/4 567/1
f 568/3 25/2 24/4
f 595/15 25/2 568/3
f 595/15 37/16 25/2
f 598/17 37/16 595/15
f 598/17 38/18 37/16
f 563/19 38/18 598/17
f 563/19 23/20 38/18
f 556/17 23/20 563/19
f 556/17 15/18 23/20
f 555/15 15/18 556/17
f 555/15 14/16 15/18
f 527/3 14/16 555/15
f 527/3 2/2 14/16
f 10/21 603/22 602/23
f 10/21 11/24 603/22
f 2/2 11/24 10/21
f 2/2 1/4 11/24
f 536/25 534/26 535/27
f 536/25 533/28 534/26
f 546/29 533/28 536/25
f 546/29 545/30 533/28
f 528/1 545/30 546/29
f 528/1 527/3 545/30
f 537/31 539/32 540/33
f 537/31 538/34 539/32
f 544/35 538/34 537/31
f 544/35 543/36 538/34
f 530/7 543/36 544/35
f 530/7 529/5 543/36
f 542/37 531/9 541/38
f 542/37 532/11 531/9
f 560/39 532/11 542/37
f 560/39 559/13 532/11
f 581/37 559/13 560/39
f 581/37 571/11 559/13
f 582/38 571/11 581/37
f 582/38 572/9 571/11
f 584/35 572/9 582/38
f 584/35 569/7 572/9
f 583/36 569/7 584/35
f 583/36 570/5 569/7
f 585/29 570/5 583/36
f 585/29 567/1 570/5
f 586/30 567/1 585/29
f 586/30 568/3 567/1
f 596/40 568/3 586/30
f 596/40 595/15 568/3
f 597/41 595/15 596/40
f 597/41 598/17 595/15
f 564/42 598/17 597/41
f 564/42 563/19 598/17
f 557/41 563/19 564/42
f 557/41 556/17 563/19
f 558/40 556/17 557/41
f 558/40 555/15 556/17
f 545/30 555/15 558/40
f 545/30 527/3 555/15
f 549/43 547/44 548/45
f 549/43 550/46 547/44
f 561/47 550/46 549/43
f 561/47 562/48 550/46
f 589/43 562/48 561/47
f 589/43 588/46 562/48
f 590/45 588/46 589/43
f 590/45 587/44 588/46
f 578/33 587/44 590/45
f 578/33 577/31 587/44
f 579/32 577/31 578/33
f 579/32 580/34 577/31
f 575/27 580/34 579/32
f 575/27 574/25 580/34
f 576/26 574/25 575/27
f 576/26 573/28 574/25
f 593/49 573/28 576/26
f 593/49 592/50 573/28
f 594/51 592/50 593/49
f 594/51 591/52 592/50
f 566/53 591/52 594/51
f 566/53 565/54 591/52
f 552/51 565/54 566/53
f 552/51 551/52 565/54
f 553/49 551/52 552/51
f 553/49 554/50 551/52
f 534/26 554/50 553/49
f 534/26 533/28 554/50
f 42/55 44/56 41/57
f 42/55 43/58 44/56
f 108/59 43/58 42/55
f 108/59 109/60 43/58
f 253/61 109/60 108/59
f 253/61 189/62 109/60
f 183/63 189/62 253/61
f 183/63 154/64 189/62
f 46/65 52/66 47/67
f 46/65 51/68 52/66
f 111/69 51/68 46/65
f 111/69 110/70 51/68
f 121/71 110/70 111/69
f 121/71 120/72 110/70
f 122/73 120/72 121/71
f 122/73 123/74 120/72
f 124/75 123/74 122/73
f 124/75 127/76 123/74
f 125/77 127/76 124/75
f 125/77 126/78 127/76
f 129/79 126/78 125/77
f 129/79 128/80 126/78
f 130/81 128/80 129/79
f 130/81 131/82 128/80
f 133/83 131/82 130/81
f 133/83 132/84 131/82
f 134/85 132/84 133/83
f 134/85 135/86 132/84
f 616/87 627/88 628/89
f 616/87 617/90 627/88
f 622/91 617/90 616/87
f 622/91 626/92 617/90
f 618/93 630/94 629/95
f 618/93 619/96 630/94
f 624/97 619/96 618/93
f 624/97 625/98 619/96
f 620/99 629/95 631/100
f 620/99 618/93 629/95
f 54/101 618/93 620/99
f 54/101 624/97 618/93
f 632/102 620/99 631/100
f 632/102 621/103 620/99
f 627/88 621/103 632/102
f 627/88 617/90 621/103
f 621/103 54/101 620/99
f 621/103 623/104 54/101
f 617/90 623/104 621/103
f 617/90 626/92 623/104
f 636/105 638/106 639/107
f 636/105 637/108 638/106
f 629/95 637/108 636/105
f 629/95 630/94 637/108
f 641/109 654/110 655/111
f 641/109 640/112 654/110
f 639/107 640/112 641/109
f 639/107 653/113 640/112
f 646/114 644/115 645/116
f 646/114 647/117 644/115
f 638/106 647/117 646/114
f 638/106 637/108 647/117
f 140/118 138/119 139/120
f 140/118 137/121 138/119
f 152/122 137/121 140/118
f 152/122 191/123 137/121
f 151/124 191/123 152/122
f 151/124 186/125 191/123
f 147/126 149/127 146/128
f 147/126 148/129 149/127
f 188/130 148/129 147/126
f 188/130 243/131 148/129
f 153/132 151/124 152/122
f 153/132 150/133 151/124
f 674/134 150/133 153/132
f 674/134 677/135 150/133
f 675/136 677/135 674/134
f 675/136 676/137 677/135
f 683/138 676/137 675/136
f 683/138 682/139 676/137
f 170/140 168/141 169/142
f 170/140 167/143 168/141
f 183/63 167/143 170/140
f 183/63 184/144 167/143
f 253/61 184/144 183/63
f 253/61 252/145 184/144
f 176/146 127/76 175/147
f 176/146 123/74 127/76
f 250/148 123/74 176/146
f 250/148 120/72 123/74
f 177/149 128/80 131/82
f 177/149 178/150 128/80
f 245/151 178/150 177/149
f 245/151 246/152 178/150
f 208/153 177/149 131/82
f 209/154 135/86 210/155
f 209/154 132/84 135/86
f 208/153 132/84 209/154
f 208/153 131/82 132/84
f 126/78 175/147 127/76
f 126/78 212/156 175/147
f 128/80 212/156 126/78
f 128/80 178/150 212/156
f 686/157 605/158 687/159
f 686/157 604/160 605/158
f 690/161 604/160 686/157
f 690/161 609/162 604/160
f 688/163 609/162 690/161
f 688/163 608/164 609/162
f 689/165 608/164 688/163
f 689/165 607/166 608/164
f 691/167 607/166 689/165
f 691/167 610/168 607/166
f 692/169 610/168 691/167
f 692/169 611/170 610/168
f 693/171 611/170 692/169
f 693/171 612/172 611/170
f 687/159 612/172 693/171
f 687/159 605/158 612/172
f 694/173 689/165 688/163
f 694/173 695/174 689/165
f 697/175 695/174 694/173
f 697/175 696/176 695/174
f 715/177 696/176 697/175
f 715/177 714/178 696/176
f 699/179 701/180 698/181
f 699/179 700/182 701/180
f 690/161 700/182 699/179
f 690/161 686/157 700/182
f 705/183 703/184 704/185
f 705/183 702/186 703/184
f 693/171 702/186 705/183
f 693/171 692/169 702/186
f 700/182 707/187 701/180
f 700/182 706/188 707/187
f 686/157 706/188 700/182
f 686/157 687/159 706/188
f 322/189 324/190 325/191
f 322/189 323/192 324/190
f 346/193 323/192 322/189
f 346/193 347/194 323/192
f 328/195 326/196 327/197
f 328/195 316/198 326/196
f 335/199 316/198 328/195
f 335/199 317/200 316/198
f 338/201 317/200 335/199
f 338/201 330/202 317/200
f 337/203 330/202 338/201
f 337/203 331/204 330/202
f 372/205 331/204 337/203
f 372/205 345/206 331/204
f 325/191 320/207 329/208
f 325/191 321/209 320/207
f 324/190 321/209 325/191
f 324/190 336/210 321/209
f 338/201 336/210 324/190
f 338/201 335/199 336/210
f 331/204 716/211 330/202
f 331/204 332/212 716/211
f 345/206 332/212 331/204
f 345/206 344/213 332/212
f 322/189 348/214 346/193
f 322/189 333/215 348/214
f 325/191 333/215 322/189
f 325/191 329/208 333/215
f 349/216 351/217 352/218
f 349/216 350/219 351/217
f 370/220 350/219 349/216
f 370/220 343/221 350/219
f 713/222 352/218 720/223
f 713/222 349/216 352/218
f 717/224 349/216 713/222
f 717/224 370/220 349/216
f 353/225 347/194 346/193
f 165/226 215/227 186/125
f 165/226 214/228 215/227
f 241/229 214/228 165/226
f 241/229 194/230 214/228
f 219/231 217/232 218/233
f 219/231 216/234 217/232
f 136/235 216/234 219/231
f 136/235 134/85 216/234
f 216/234 221/236 217/232
f 216/234 220/237 221/236
f 134/85 220/237 216/234
f 134/85 133/83 220/237
f 224/238 222/239 223/240
f 224/238 225/241 222/239
f 221/236 225/241 224/238
f 221/236 220/237 225/241
f 229/242 227/243 228/244
f 229/242 226/245 227/243
f 125/77 226/245 229/242
f 125/77 124/75 226/245
f 226/245 231/246 227/243
f 226/245 230/247 231/246
f 124/75 230/247 226/245
f 124/75 122/73 230/247
f 46/65 112/248 111/69
f 46/65 56/249 112/248
f 45/250 56/249 46/65
f 45/250 57/251 56/249
f 553/49 57/251 45/250
f 553/49 552/51 57/251
f 16/252 614/253 613/254
f 16/252 17/255 614/253
f 15/18 17/255 16/252
f 15/18 14/16 17/255
f 365/256 353/225 364/257
f 365/256 351/217 353/225
f 366/258 351/217 365/256
f 366/258 346/193 351/217
f 364/257 346/193 366/258
f 364/257 353/225 346/193
f 353/225 368/259 347/194
f 353/225 367/260 368/259
f 343/221 367/260 353/225
f 343/221 369/261 367/260
f 347/194 369/261 343/221
f 347/194 368/259 369/261
f 709/262 695/174 696/176
f 709/262 708/263 695/174
f 703/184 708/263 709/262
f 703/184 702/186 708/263
f 694/173 698/181 697/175
f 694/173 699/179 698/181
f 688/163 699/179 694/173
f 688/163 690/161 699/179
f 323/192 338/201 324/190
f 323/192 337/203 338/201
f 347/194 337/203 323/192
f 347/194 372/205 337/203
f 319/264 339/265 320/207
f 319/264 318/266 339/265
f 327/197 318/266 319/264
f 327/197 326/196 318/266
f 339/265 329/208 320/207
f 339/265 340/267 329/208
f 722/268 340/267 339/265
f 722/268 721/269 340/267
f 333/215 373/270 348/214
f 333/215 341/271 373/270
f 329/208 341/271 333/215
f 329/208 340/267 341/271
f 341/271 371/272 373/270
f 341/271 334/273 371/272
f 340/267 334/273 341/271
f 340/267 721/269 334/273
f 330/202 716/211 710/274
f 317/200 330/202 710/274
f 546/29 529/5 528/1
f 546/29 543/36 529/5
f 536/25 543/36 546/29
f 536/25 538/34 543/36
f 535/27 538/34 536/25
f 535/27 539/32 538/34
f 554/50 557/41 551/52
f 554/50 558/40 557/41
f 533/28 558/40 554/50
f 533/28 545/30 558/40
f 550/46 541/38 547/44
f 550/46 542/37 541/38
f 562/48 542/37 550/46
f 562/48 560/39 542/37
f 588/46 560/39 562/48
f 588/46 581/37 560/39
f 587/44 581/37 588/46
f 587/44 582/38 581/37
f 577/31 582/38 587/44
f 577/31 584/35 582/38
f 580/34 584/35 577/31
f 580/34 583/36 584/35
f 574/25 583/36 580/34
f 574/25 585/29 583/36
f 573/28 585/29 574/25
f 573/28 586/30 585/29
f 592/50 586/30 573/28
f 592/50 596/40 586/30
f 591/52 596/40 592/50
f 591/52 597/41 596/40
f 565/54 597/41 591/52
f 565/54 564/42 597/41
f 551/52 564/42 565/54
f 551/52 557/41 564/42
f 544/35 531/9 530/7
f 544/35 541/38 531/9
f 537/31 541/38 544/35
f 537/31 547/44 541/38
f 540/33 547/44 537/31
f 540/33 548/45 547/44
f 48/275 548/45 540/33
f 48/275 59/276 548/45
f 50/277 41/57 48/275
f 50/277 42/55 41/57
f 113/278 42/55 50/277
f 113/278 108/59 42/55
f 251/279 108/59 113/278
f 251/279 252/145 108/59
f 249/280 252/145 251/279
f 249/280 184/144 252/145
f 248/281 184/144 249/280
f 248/281 167/143 184/144
f 247/282 167/143 248/281
f 247/282 168/141 167/143
f 20/14 7/283 8/12
f 20/14 19/284 7/283
f 31/12 19/284 20/14
f 31/12 30/283 19/284
f 5/285 8/12 6/286
f 5/285 9/10 8/12
f 13/287 9/10 5/285
f 13/287 3/8 9/10
f 12/288 3/8 13/287
f 12/288 4/6 3/8
f 11/24 4/6 12/288
f 11/24 1/4 4/6
f 53/289 535/27 534/26
f 45/250 53/289 534/26
f 59/276 549/43 548/45
f 59/276 60/290 549/43
f 41/57 60/290 59/276
f 41/57 44/56 60/290
f 61/291 549/43 60/290
f 61/291 561/47 549/43
f 80/290 561/47 61/291
f 80/290 589/43 561/47
f 79/276 589/43 80/290
f 79/276 590/45 589/43
f 73/275 590/45 79/276
f 73/275 578/33 590/45
f 58/292 60/290 44/56
f 58/292 61/291 60/290
f 70/56 61/291 58/292
f 70/56 80/290 61/291
f 69/57 80/290 70/56
f 69/57 79/276 80/290
f 48/275 41/57 59/276
f 602/23 17/255 10/21
f 602/23 614/253 17/255
f 611/170 614/253 602/23
f 611/170 612/172 614/253
f 14/16 2/2 10/21
f 17/255 14/16 10/21
f 45/250 534/26 553/49
f 18/293 613/254 600/294
f 18/293 21/295 613/254
f 724/294 21/295 18/293
f 724/294 834/254 21/295
f 21/295 16/252 613/254
f 21/295 22/296 16/252
f 834/254 22/296 21/295
f 834/254 40/252 22/296
f 737/253 40/252 834/254
f 737/253 39/255 40/252
f 726/23 39/255 737/253
f 726/23 34/21 39/255
f 727/22 34/21 726/23
f 727/22 33/24 34/21
f 22/296 15/18 16/252
f 22/296 23/20 15/18
f 40/252 23/20 22/296
f 40/252 38/18 23/20
f 39/255 38/18 40/252
f 39/255 37/16 38/18
f 34/21 37/16 39/255
f 34/21 25/2 37/16
f 33/24 25/2 34/21
f 33/24 24/4 25/2
f 36/288 24/4 33/24
f 36/288 27/6 24/4
f 35/287 27/6 36/288
f 35/287 26/8 27/6
f 29/285 26/8 35/287
f 29/285 32/10 26/8
f 28/286 32/10 29/285
f 28/286 31/12 32/10
f 566/53 57/251 552/51
f 566/53 62/297 57/251
f 594/51 62/297 566/53
f 594/51 78/251 62/297
f 593/49 78/251 594/51
f 593/49 71/250 78/251
f 62/297 56/249 57/251
f 62/297 63/298 56/249
f 78/251 63/298 62/297
f 78/251 67/249 63/298
f 71/250 67/249 78/251
f 71/250 65/65 67/249
f 63/298 112/248 56/249
f 63/298 114/299 112/248
f 67/249 114/299 63/298
f 67/249 118/248 114/299
f 65/65 118/248 67/249
f 65/65 117/69 118/248
f 66/68 117/69 65/65
f 66/68 116/70 117/69
f 68/277 116/70 66/68
f 68/277 119/278 116/70
f 64/55 119/278 68/277
f 64/55 115/59 119/278
f 43/58 115/59 64/55
f 43/58 109/60 115/59
f 232/300 227/243 231/246
f 232/300 233/301 227/243
f 298/246 233/301 232/300
f 298/246 297/243 233/301
f 299/247 297/243 298/246
f 299/247 294/245 297/243
f 289/73 294/245 299/247
f 289/73 259/75 294/245
f 280/74 259/75 289/73
f 280/74 260/76 259/75
f 281/146 260/76 280/74
f 281/146 279/147 260/76
f 304/280 279/147 281/146
f 304/280 302/281 279/147
f 285/144 302/281 304/280
f 285/144 271/143 302/281
f 284/63 271/143 285/144
f 284/63 272/140 271/143
f 233/301 228/244 227/243
f 233/301 234/302 228/244
f 297/243 234/302 233/301
f 297/243 296/244 234/302
f 294/245 296/244 297/243
f 294/245 295/242 296/244
f 259/75 295/242 294/245
f 259/75 262/77 295/242
f 260/76 262/77 259/75
f 260/76 261/78 262/77
f 279/147 261/78 260/76
f 279/147 288/156 261/78
f 302/281 288/156 279/147
f 302/281 303/282 288/156
f 271/143 303/282 302/281
f 271/143 274/141 303/282
f 272/140 274/141 271/143
f 272/140 273/142 274/141
f 235/303 224/238 223/240
f 235/303 236/304 224/238
f 293/240 236/304 235/303
f 293/240 292/238 236/304
f 290/239 292/238 293/240
f 290/239 291/241 292/238
f 266/79 291/241 290/239
f 266/79 265/81 291/241
f 263/80 265/81 266/79
f 263/80 264/82 265/81
f 283/150 264/82 263/80
f 283/150 282/149 264/82
f 301/152 282/149 283/150
f 301/152 300/151 282/149
f 238/305 221/236 237/306
f 238/305 217/232 221/236
f 239/307 217/232 238/305
f 239/307 218/233 217/232
f 240/308 218/233 239/307
f 240/308 215/227 218/233
f 137/121 238/309 138/119
f 137/121 239/310 238/309
f 191/123 239/310 137/121
f 191/123 240/311 239/310
f 603/22 611/170 602/23
f 603/22 610/168 611/170
f 606/312 610/168 603/22
f 606/312 607/166 610/168
f 599/313 607/166 606/312
f 599/313 608/164 607/166
f 601/314 608/164 599/313
f 601/314 609/162 608/164
f 600/294 609/162 601/314
f 600/294 604/160 609/162
f 615/315 604/160 600/294
f 615/315 605/158 604/160
f 614/253 605/158 615/315
f 614/253 612/172 605/158
f 706/188 704/185 707/187
f 706/188 705/183 704/185
f 687/159 705/183 706/188
f 687/159 693/171 705/183
f 708/263 689/165 695/174
f 708/263 691/167 689/165
f 702/186 691/167 708/263
f 702/186 692/169 691/167
f 722/268 696/176 714/178
f 722/268 709/262 696/176
f 712/316 709/262 722/268
f 712/316 703/184 709/262
f 711/317 703/184 712/316
f 711/317 704/185 703/184
f 719/318 704/185 711/317
f 719/318 707/187 704/185
f 710/274 707/187 719/318
f 710/274 701/180 707/187
f 718/319 701/180 710/274
f 718/319 698/181 701/180
f 715/177 698/181 718/319
f 715/177 697/175 698/181
f 214/228 218/233 215/227
f 214/228 219/231 218/233
f 194/230 219/231 214/228
f 194/230 136/235 219/231
f 676/137 681/320 677/135
f 676/137 673/321 681/320
f 682/139 673/321 676/137
f 682/139 679/322 673/321
f 225/241 129/79 222/239
f 225/241 130/81 129/79
f 220/237 130/81 225/241
f 220/237 133/83 130/81
f 242/323 165/226 144/324
f 242/323 241/229 165/226
f 211/325 241/229 242/323
f 211/325 195/326 241/229
f 166/327 162/328 164/329
f 166/327 163/330 162/328
f 185/331 163/330 166/327
f 185/331 244/332 163/330
f 150/133 244/332 185/331
f 150/133 201/333 244/332
f 210/155 211/325 242/323
f 206/334 210/155 242/323
f 245/151 177/149 208/153
f 206/334 245/151 208/153
f 212/156 248/281 175/147
f 212/156 247/282 248/281
f 178/150 247/282 212/156
f 178/150 246/152 247/282
f 249/280 175/147 248/281
f 249/280 176/146 175/147
f 251/279 176/146 249/280
f 251/279 250/148 176/146
f 113/278 250/148 251/279
f 113/278 110/70 250/148
f 50/277 110/70 113/278
f 50/277 51/68 110/70
f 49/335 51/68 50/277
f 49/335 52/66 51/68
f 253/61 108/59 252/145
f 162/328 207/336 144/324
f 164/329 162/328 144/324
f 230/247 255/337 231/246
f 230/247 254/338 255/337
f 122/73 254/338 230/247
f 122/73 121/71 254/338
f 256/339 231/246 255/337
f 256/339 232/300 231/246
f 315/337 232/300 256/339
f 315/337 298/246 232/300
f 314/338 298/246 315/337
f 314/338 299/247 298/246
f 308/71 299/247 314/338
f 308/71 289/73 299/247
f 307/72 289/73 308/71
f 307/72 280/74 289/73
f 311/148 280/74 307/72
f 311/148 281/146 280/74
f 310/279 281/146 311/148
f 310/279 304/280 281/146
f 312/145 304/280 310/279
f 312/145 285/144 304/280
f 313/61 285/144 312/145
f 313/61 284/63 285/144
f 309/62 284/63 313/61
f 309/62 267/64 284/63
f 190/340 267/64 309/62
f 190/340 157/341 267/64
f 189/62 157/341 190/340
f 189/62 154/64 157/341
f 616/87 625/98 622/91
f 616/87 619/96 625/98
f 628/89 619/96 616/87
f 628/89 630/94 619/96
f 647/117 630/94 628/89
f 647/117 637/108 630/94
f 644/115 650/342 645/116
f 644/115 633/343 650/342
f 627/88 633/343 644/115
f 627/88 632/102 633/343
f 656/344 669/345 649/346
f 643/347 656/344 649/346
f 773/346 785/345 780/344
f 767/347 773/346 780/344
f 213/348 149/127 257/349
f 213/348 146/128 149/127
f 681/320 146/128 213/348
f 681/320 673/321 146/128
f 651/350 650/342 643/347
f 651/350 645/116 650/342
f 652/351 645/116 651/350
f 652/351 646/114 645/116
f 653/113 646/114 652/351
f 653/113 638/106 646/114
f 639/107 638/106 653/113
f 641/109 642/352 635/353
f 639/107 641/109 635/353
f 652/351 640/112 653/113
f 652/351 648/354 640/112
f 651/350 648/354 652/351
f 651/350 649/346 648/354
f 643/347 649/346 651/350
f 627/88 644/115 647/117
f 628/89 627/88 647/117
f 634/355 629/95 636/105
f 634/355 631/100 629/95
f 633/343 631/100 634/355
f 633/343 632/102 631/100
f 236/304 221/236 224/238
f 236/304 237/306 221/236
f 292/238 237/306 236/304
f 292/238 306/236 237/306
f 291/241 306/236 292/238
f 291/241 305/237 306/236
f 265/81 305/237 291/241
f 265/81 243/83 305/237
f 264/82 243/83 265/81
f 264/82 148/84 243/83
f 287/153 148/84 264/82
f 287/153 149/154 148/84
f 258/356 202/357 213/348
f 257/349 258/356 213/348
f 229/242 129/79 125/77
f 229/242 222/239 129/79
f 228/244 222/239 229/242
f 228/244 223/240 222/239
f 234/302 223/240 228/244
f 234/302 235/303 223/240
f 296/244 235/303 234/302
f 296/244 293/240 235/303
f 295/242 293/240 296/244
f 295/242 290/239 293/240
f 262/77 290/239 295/242
f 262/77 266/79 290/239
f 261/78 266/79 262/77
f 261/78 263/80 266/79
f 288/156 263/80 261/78
f 288/156 283/150 263/80
f 303/282 283/150 288/156
f 303/282 301/152 283/150
f 287/153 264/82 282/149
f 287/153 282/149 300/151
f 257/334 287/153 300/151
f 287/153 257/334 149/154
f 110/70 120/72 250/148
f 254/338 121/71 111/69
f 112/248 254/338 111/69
f 112/248 255/337 254/338
f 114/299 255/337 112/248
f 114/299 256/339 255/337
f 118/248 256/339 114/299
f 118/248 315/337 256/339
f 117/69 315/337 118/248
f 117/69 314/338 315/337
f 119/278 311/148 116/70
f 119/278 310/279 311/148
f 115/59 310/279 119/278
f 115/59 312/145 310/279
f 313/61 312/145 115/59
f 109/60 309/62 313/61
f 115/59 109/60 313/61
f 116/70 311/148 307/72
f 307/72 308/71 117/69
f 116/70 307/72 117/69
f 314/338 117/69 308/71
f 6/286 8/12 7/283
f 6/286 7/283 601/314
f 599/313 6/286 601/314
f 64/55 70/56 43/58
f 64/55 69/57 70/56
f 68/277 69/57 64/55
f 68/277 73/275 69/57
f 75/66 65/65 72/67
f 75/66 66/68 65/65
f 74/335 66/68 75/66
f 74/335 68/277 66/68
f 741/90 751/89 752/88
f 741/90 740/87 751/89
f 750/92 740/87 741/90
f 750/92 746/91 740/87
f 742/96 753/95 754/94
f 742/96 743/93 753/95
f 749/98 743/93 742/96
f 749/98 748/97 743/93
f 743/93 755/100 753/95
f 743/93 744/99 755/100
f 748/97 744/99 743/93
f 748/97 76/101 744/99
f 745/103 755/100 744/99
f 745/103 756/102 755/100
f 741/90 756/102 745/103
f 741/90 752/88 756/102
f 747/104 744/99 76/101
f 747/104 745/103 744/99
f 750/92 745/103 747/104
f 750/92 741/90 745/103
f 763/108 761/107 762/106
f 763/108 760/105 761/107
f 754/94 760/105 763/108
f 754/94 753/95 760/105
f 764/112 778/111 779/110
f 764/112 765/109 778/111
f 777/113 765/109 764/112
f 777/113 761/107 765/109
f 769/117 771/116 768/115
f 769/117 770/114 771/116
f 763/108 770/114 769/117
f 763/108 762/106 770/114
f 729/160 798/159 728/158
f 729/160 797/157 798/159
f 733/162 797/157 729/160
f 733/162 801/161 797/157
f 732/164 801/161 733/162
f 732/164 800/163 801/161
f 731/166 800/163 732/164
f 731/166 799/165 800/163
f 734/168 799/165 731/166
f 734/168 802/167 799/165
f 735/170 802/167 734/168
f 735/170 804/169 802/167
f 736/172 804/169 735/170
f 736/172 803/171 804/169
f 728/158 803/171 736/172
f 728/158 798/159 803/171
f 806/174 800/163 799/165
f 806/174 805/173 800/163
f 807/176 805/173 806/174
f 807/176 808/175 805/173
f 826/178 808/175 807/176
f 826/178 825/177 808/175
f 811/182 809/181 810/180
f 811/182 812/179 809/181
f 797/157 812/179 811/182
f 797/157 801/161 812/179
f 813/186 815/185 816/184
f 813/186 814/183 815/185
f 804/169 814/183 813/186
f 804/169 803/171 814/183
f 817/188 810/180 818/187
f 817/188 811/182 810/180
f 798/159 811/182 817/188
f 798/159 797/157 811/182
f 444/192 442/191 443/190
f 444/192 441/189 442/191
f 465/194 441/189 444/192
f 465/194 466/193 441/189
f 435/198 446/197 447/196
f 435/198 445/195 446/197
f 436/200 445/195 435/198
f 436/200 454/199 445/195
f 449/202 454/199 436/200
f 449/202 456/201 454/199
f 451/204 456/201 449/202
f 451/204 457/203 456/201
f 463/206 457/203 451/204
f 463/206 491/205 457/203
f 439/209 448/208 440/207
f 439/209 442/191 448/208
f 455/210 442/191 439/209
f 455/210 443/190 442/191
f 454/199 443/190 455/210
f 454/199 456/201 443/190
f 450/212 449/202 827/211
f 450/212 451/204 449/202
f 464/213 451/204 450/212
f 464/213 463/206 451/204
f 452/215 466/193 467/214
f 452/215 441/189 466/193
f 448/208 441/189 452/215
f 448/208 442/191 441/189
f 471/219 469/218 470/217
f 471/219 468/216 469/218
f 462/221 468/216 471/219
f 462/221 489/220 468/216
f 468/216 831/223 469/218
f 468/216 824/222 831/223
f 489/220 824/222 468/216
f 489/220 829/224 824/222
f 472/225 466/193 465/194
f 470/217 484/257 472/225
f 470/217 483/256 484/257
f 466/193 483/256 470/217
f 466/193 485/258 483/256
f 472/225 485/258 466/193
f 472/225 484/257 485/258
f 487/260 465/194 486/259
f 487/260 472/225 465/194
f 488/261 472/225 487/260
f 488/261 462/221 472/225
f 486/259 462/221 488/261
f 486/259 465/194 462/221
f 819/263 807/176 806/174
f 819/263 820/262 807/176
f 813/186 820/262 819/263
f 813/186 816/184 820/262
f 812/179 808/175 809/181
f 812/179 805/173 808/175
f 801/161 805/173 812/179
f 801/161 800/163 805/173
f 457/203 443/190 456/201
f 457/203 444/192 443/190
f 491/205 444/192 457/203
f 491/205 465/194 444/192
f 437/266 440/207 458/265
f 437/266 438/264 440/207
f 447/196 438/264 437/266
f 447/196 446/197 438/264
f 459/267 440/207 448/208
f 459/267 458/265 440/207
f 832/269 458/265 459/267
f 832/269 833/268 458/265
f 460/271 467/214 492/270
f 460/271 452/215 467/214
f 459/267 452/215 460/271
f 459/267 448/208 452/215
f 453/273 492/270 490/272
f 453/273 460/271 492/270
f 832/269 460/271 453/273
f 832/269 459/267 460/271
f 821/274 827/211 449/202
f 436/200 821/274 449/202
f 576/26 575/27 739/289
f 71/250 576/26 739/289
f 73/275 79/276 69/57
f 71/250 593/49 576/26
f 737/253 735/170 726/23
f 737/253 736/172 735/170
f 738/315 736/172 737/253
f 738/315 728/158 736/172
f 724/294 728/158 738/315
f 724/294 729/160 728/158
f 725/314 729/160 724/294
f 725/314 733/162 729/160
f 723/313 733/162 725/314
f 723/313 732/164 733/162
f 730/312 732/164 723/313
f 730/312 731/166 732/164
f 727/22 731/166 730/312
f 727/22 734/168 731/166
f 726/23 734/168 727/22
f 726/23 735/170 734/168
f 814/183 818/187 815/185
f 814/183 817/188 818/187
f 803/171 817/188 814/183
f 803/171 798/159 817/188
f 802/167 806/174 799/165
f 802/167 819/263 806/174
f 804/169 819/263 802/167
f 804/169 813/186 819/263
f 820/262 826/178 807/176
f 820/262 833/268 826/178
f 816/184 833/268 820/262
f 816/184 822/316 833/268
f 815/185 822/316 816/184
f 815/185 823/317 822/316
f 818/187 823/317 815/185
f 818/187 830/318 823/317
f 810/180 830/318 818/187
f 810/180 821/274 830/318
f 809/181 821/274 810/180
f 809/181 828/319 821/274
f 808/175 828/319 809/181
f 808/175 825/177 828/319
f 742/96 746/91 749/98
f 742/96 740/87 746/91
f 754/94 740/87 742/96
f 754/94 751/89 740/87
f 763/108 751/89 754/94
f 763/108 769/117 751/89
f 757/343 771/116 774/342
f 757/343 768/115 771/116
f 756/102 768/115 757/343
f 756/102 752/88 768/115
f 771/116 767/347 774/342
f 771/116 775/350 767/347
f 770/114 775/350 771/116
f 770/114 776/351 775/350
f 762/106 776/351 770/114
f 762/106 777/113 776/351
f 761/107 777/113 762/106
f 758/353 766/352 765/109
f 761/107 758/353 765/109
f 772/354 777/113 764/112
f 772/354 776/351 777/113
f 773/346 776/351 772/354
f 773/346 775/350 776/351
f 767/347 775/350 773/346
f 769/117 768/115 752/88
f 751/89 769/117 752/88
f 755/100 760/105 753/95
f 755/100 759/355 760/105
f 756/102 759/355 755/100
f 756/102 757/343 759/355
f 28/286 30/283 31/12
f 725/314 30/283 28/286
f 723/313 725/314 28/286
f 305/237 138/232 306/236
f 305/237 139/234 138/232
f 243/83 139/234 305/237
f 243/83 188/85 139/234
f 238/305 237/306 306/236
f 138/232 238/305 306/236
f 599/313 5/285 6/286
f 599/313 13/287 5/285
f 606/312 13/287 599/313
f 606/312 603/22 13/287
f 12/288 13/287 603/22
f 603/22 11/24 12/288
f 7/283 600/294 601/314
f 7/283 18/293 600/294
f 19/284 18/293 7/283
f 19/284 30/283 18/293
f 724/294 18/293 30/283
f 30/283 725/314 724/294
f 47/67 45/250 46/65
f 47/67 53/289 45/250
f 624/97 53/289 47/67
f 624/97 54/101 53/289
f 47/67 625/98 624/97
f 47/67 622/91 625/98
f 52/66 622/91 47/67
f 52/66 49/335 622/91
f 626/92 622/91 49/335
f 49/335 623/104 626/92
f 48/275 623/104 49/335
f 48/275 54/101 623/104
f 48/275 49/335 50/277
f 635/353 636/105 639/107
f 635/353 634/355 636/105
f 633/343 634/355 635/353
f 635/353 650/342 633/343
f 643/347 650/342 635/353
f 635/353 642/352 643/347
f 656/344 643/347 642/352
f 642/352 657/358 656/344
f 655/111 657/358 642/352
f 655/111 662/359 657/358
f 661/360 662/359 655/111
f 655/111 665/361 661/360
f 654/110 665/361 655/111
f 654/110 663/362 665/361
f 640/112 663/362 654/110
f 640/112 648/354 663/362
f 668/363 663/362 648/354
f 668/363 664/364 663/362
f 658/365 664/364 668/363
f 658/365 666/366 664/364
f 669/345 666/366 658/365
f 669/345 656/344 666/366
f 660/367 666/366 656/344
f 656/344 659/368 660/367
f 657/358 659/368 656/344
f 657/358 667/369 659/368
f 662/359 667/369 657/358
f 662/359 671/370 667/369
f 659/368 667/369 671/370
f 641/109 655/111 642/352
f 664/364 665/361 663/362
f 664/364 670/371 665/361
f 666/366 670/371 664/364
f 648/354 658/365 668/363
f 648/354 649/346 658/365
f 669/345 658/365 649/346
f 136/235 135/86 134/85
f 136/235 194/230 135/86
f 195/326 135/86 194/230
f 195/326 211/325 135/86
f 210/155 135/86 211/325
f 195/326 194/230 241/229
f 181/372 142/373 179/374
f 181/372 144/324 142/373
f 141/375 142/373 144/324
f 141/375 199/376 142/373
f 206/334 199/376 141/375
f 141/375 200/377 206/334
f 207/336 200/377 141/375
f 141/375 144/324 207/336
f 199/376 197/378 142/373
f 190/340 109/60 189/62
f 190/340 309/62 109/60
f 196/378 180/374 143/373
f 196/378 198/376 180/374
f 145/324 180/374 198/376
f 145/324 182/372 180/374
f 198/376 203/379 145/324
f 198/376 205/334 203/379
f 673/321 147/126 146/128
f 673/321 678/380 147/126
f 679/322 678/380 673/321
f 679/322 680/381 678/380
f 682/139 680/381 679/322
f 682/139 683/138 680/381
f 685/382 680/381 683/138
f 685/382 684/383 680/381
f 187/384 684/383 685/382
f 187/384 678/380 684/383
f 147/126 678/380 187/384
f 187/384 188/130 147/126
f 139/120 188/130 187/384
f 187/384 140/118 139/120
f 685/382 140/118 187/384
f 685/382 675/136 140/118
f 683/138 675/136 685/382
f 678/380 680/381 684/383
f 674/134 140/118 675/136
f 674/134 153/132 140/118
f 152/122 140/118 153/132
f 710/274 316/198 317/200
f 710/274 719/318 316/198
f 711/317 316/198 719/318
f 711/317 326/196 316/198
f 318/266 326/196 711/317
f 711/317 712/316 318/266
f 722/268 318/266 712/316
f 722/268 339/265 318/266
f 321/209 319/264 320/207
f 321/209 342/385 319/264
f 336/210 342/385 321/209
f 336/210 328/195 342/385
f 335/199 328/195 336/210
f 327/197 342/385 328/195
f 327/197 319/264 342/385
f 348/214 351/217 346/193
f 348/214 373/270 351/217
f 371/272 351/217 373/270
f 371/272 352/218 351/217
f 720/223 352/218 371/272
f 371/272 334/273 720/223
f 721/269 720/223 334/273
f 721/269 714/178 720/223
f 722/268 714/178 721/269
f 714/178 713/222 720/223
f 714/178 715/177 713/222
f 718/319 713/222 715/177
f 718/319 717/224 713/222
f 716/211 717/224 718/319
f 716/211 332/212 717/224
f 344/213 717/224 332/212
f 344/213 370/220 717/224
f 343/221 370/220 344/213
f 344/213 345/206 343/221
f 372/205 343/221 345/206
f 372/205 347/194 343/221
f 718/319 710/274 716/211
f 350/219 353/225 351/217
f 350/219 343/221 353/225
f 613/254 615/315 600/294
f 613/254 614/253 615/315
f 43/58 58/292 44/56
f 43/58 70/56 58/292
f 55/101 535/27 53/289
f 55/101 539/32 535/27
f 540/33 539/32 55/101
f 55/101 48/275 540/33
f 240/311 186/125 215/227
f 240/311 191/123 186/125
f 681/320 150/133 677/135
f 681/320 213/348 150/133
f 202/357 150/133 213/348
f 202/357 201/333 150/133
f 258/356 201/333 202/357
f 204/379 242/323 144/324
f 204/379 206/334 242/323
f 206/334 209/154 210/155
f 206/334 208/153 209/154
f 165/226 164/329 144/324
f 165/226 166/327 164/329
f 186/125 166/327 165/226
f 186/125 151/124 166/327
f 185/331 166/327 151/124
f 151/124 150/133 185/331
f 161/386 193/387 192/388
f 161/386 286/388 193/387
f 29/285 723/313 28/286
f 29/285 35/287 723/313
f 730/312 723/313 35/287
f 35/287 727/22 730/312
f 36/288 727/22 35/287
f 36/288 33/24 727/22
f 71/250 72/67 65/65
f 71/250 739/289 72/67
f 748/97 72/67 739/289
f 748/97 749/98 72/67
f 746/91 72/67 749/98
f 746/91 75/66 72/67
f 74/335 75/66 746/91
f 746/91 750/92 74/335
f 747/104 74/335 750/92
f 747/104 73/275 74/335
f 76/101 73/275 747/104
f 73/275 68/277 74/335
f 76/101 748/97 739/289
f 760/105 758/353 761/107
f 760/105 759/355 758/353
f 757/343 758/353 759/355
f 757/343 774/342 758/353
f 767/347 758/353 774/342
f 767/347 766/352 758/353
f 780/344 766/352 767/347
f 780/344 781/358 766/352
f 787/368 781/358 780/344
f 787/368 793/369 781/358
f 795/370 793/369 787/368
f 795/370 789/359 793/369
f 781/358 793/369 789/359
f 789/359 778/111 781/358
f 788/360 778/111 789/359
f 788/360 790/361 778/111
f 779/110 778/111 790/361
f 790/361 783/362 779/110
f 791/364 783/362 790/361
f 791/364 784/363 783/362
f 782/365 784/363 791/364
f 782/365 772/354 784/363
f 773/346 772/354 782/365
f 782/365 785/345 773/346
f 792/366 785/345 782/365
f 792/366 780/344 785/345
f 786/367 780/344 792/366
f 786/367 787/368 780/344
f 778/111 766/352 781/358
f 778/111 765/109 766/352
f 791/364 792/366 782/365
f 791/364 794/371 792/366
f 790/361 794/371 791/364
f 772/354 783/362 784/363
f 772/354 764/112 783/362
f 779/110 783/362 764/112
f 435/198 821/274 436/200
f 435/198 830/318 821/274
f 823/317 830/318 435/198
f 435/198 447/196 823/317
f 437/266 823/317 447/196
f 437/266 822/316 823/317
f 833/268 822/316 437/266
f 437/266 458/265 833/268
f 438/264 439/209 440/207
f 438/264 461/385 439/209
f 446/197 461/385 438/264
f 446/197 445/195 461/385
f 455/210 461/385 445/195
f 455/210 439/209 461/385
f 454/199 455/210 445/195
f 470/217 467/214 466/193
f 470/217 492/270 467/214
f 490/272 492/270 470/217
f 470/217 469/218 490/272
f 831/223 490/272 469/218
f 831/223 453/273 490/272
f 832/269 453/273 831/223
f 831/223 826/178 832/269
f 824/222 826/178 831/223
f 824/222 825/177 826/178
f 828/319 825/177 824/222
f 824/222 829/224 828/319
f 827/211 828/319 829/224
f 827/211 821/274 828/319
f 832/269 826/178 833/268
f 829/224 450/212 827/211
f 829/224 464/213 450/212
f 489/220 464/213 829/224
f 489/220 462/221 464/213
f 463/206 464/213 462/221
f 462/221 491/205 463/206
f 465/194 491/205 462/221
f 472/225 471/219 470/217
f 472/225 462/221 471/219
f 738/315 834/254 724/294
f 738/315 737/253 834/254
f 575/27 77/101 739/289
f 575/27 579/32 77/101
f 578/33 77/101 579/32
f 578/33 73/275 77/101
usemtl mat_1
f 159/389 161/390 158/391
f 159/389 160/392 161/390
f 162/393 160/392 159/389
f 162/393 163/394 160/392
f 173/395 171/396 172/397
f 173/395 174/398 171/396
f 159/389 174/398 173/395
f 159/389 158/391 174/398
f 171/396 245/399 172/397
f 171/396 246/400 245/399
f 168/401 246/400 171/396
f 168/401 247/402 246/400
f 159/389 173/395 207/403
f 162/393 159/389 207/403
f 192/404 158/391 161/390
f 169/405 158/391 192/404
f 169/405 174/398 158/391
f 168/401 174/398 169/405
f 168/401 171/396 174/398
f 206/406 172/397 245/399
f 206/406 200/407 172/397
f 173/395 172/397 200/407
f 200/407 207/403 173/395
usemtl mat_2
f 660/408 83/409 666/410
f 660/408 84/411 83/409
f 659/412 84/411 660/408
f 659/412 85/413 84/411
f 89/414 661/415 665/416
f 89/414 90/417 661/415
f 102/418 90/417 89/414
f 102/418 103/419 90/417
f 90/417 662/420 661/415
f 90/417 88/421 662/420
f 103/419 88/421 90/417
f 103/419 101/422 88/421
f 98/423 85/413 96/424
f 98/423 84/411 85/413
f 95/425 84/411 98/423
f 95/425 83/409 84/411
f 378/426 375/427 376/428
f 378/426 374/429 375/427
f 387/430 374/429 378/426
f 387/430 382/431 374/429
f 357/432 382/431 387/430
f 357/432 354/433 382/431
f 380/434 354/433 355/435
f 380/434 382/431 354/433
f 404/436 382/431 380/434
f 404/436 374/429 382/431
f 384/437 374/429 404/436
f 384/437 375/427 374/429
f 383/437 377/428 385/438
f 361/439 390/440 359/441
f 361/439 389/442 390/440
f 362/443 389/442 361/439
f 362/443 392/444 389/442
f 394/445 396/446 398/447
f 403/448 395/445 402/449
f 403/448 400/450 395/445
f 389/442 400/450 403/448
f 389/442 392/444 400/450
f 406/451 402/449 397/446
f 406/451 403/448 402/449
f 390/440 403/448 406/451
f 390/440 389/442 403/448
f 391/440 363/443 360/441
f 391/440 393/444 363/443
f 407/451 393/444 391/440
f 407/451 401/450 393/444
f 396/446 401/450 407/451
f 396/446 394/445 401/450
f 405/436 377/428 383/437
f 405/436 379/426 377/428
f 381/434 379/426 405/436
f 381/434 388/430 379/426
f 356/435 388/430 381/434
f 356/435 358/432 388/430
f 411/411 792/410 410/409
f 411/411 786/408 792/410
f 412/413 786/408 411/411
f 412/413 787/412 786/408
f 417/417 790/416 788/415
f 417/417 416/414 790/416
f 429/419 416/414 417/417
f 429/419 796/418 416/414
f 415/421 788/415 789/420
f 415/421 417/417 788/415
f 428/422 417/417 415/421
f 428/422 429/419 417/417
f 411/411 423/424 412/413
f 411/411 425/423 423/424
f 410/409 425/423 411/411
f 410/409 422/425 425/423
f 493/429 496/428 498/427
f 493/429 494/426 496/428
f 501/431 494/426 493/429
f 501/431 506/430 494/426
f 475/433 506/430 501/431
f 475/433 476/432 506/430
f 501/431 473/435 475/433
f 501/431 499/434 473/435
f 493/429 499/434 501/431
f 493/429 523/436 499/434
f 498/427 523/436 493/429
f 498/427 503/437 523/436
f 502/437 504/438 497/428
f 510/442 478/441 508/440
f 510/442 480/439 478/441
f 511/444 480/439 510/442
f 511/444 481/443 480/439
f 513/445 515/447 517/446
f 519/450 522/449 514/445
f 519/450 521/448 522/449
f 511/444 521/448 519/450
f 511/444 510/442 521/448
f 521/448 518/446 522/449
f 521/448 525/451 518/446
f 510/442 525/451 521/448
f 510/442 508/440 525/451
f 512/444 479/441 482/443
f 512/444 509/440 479/441
f 520/450 509/440 512/444
f 520/450 526/451 509/440
f 513/445 526/451 520/450
f 513/445 517/446 526/451
f 495/426 502/437 497/428
f 495/426 524/436 502/437
f 507/430 524/436 495/426
f 507/430 500/434 524/436
f 477/432 500/434 507/430
f 477/432 474/435 500/434
f 666/410 81/452 670/453
f 666/410 83/409 81/452
f 95/425 81/452 83/409
f 95/425 97/454 81/452
f 91/455 97/454 95/425
f 91/455 94/456 97/454
f 92/457 94/456 91/455
f 91/455 99/458 92/457
f 98/423 99/458 91/455
f 98/423 96/424 99/458
f 94/456 99/458 96/424
f 94/456 93/457 99/458
f 91/455 95/425 98/423
f 96/424 97/454 94/456
f 96/424 86/459 97/454
f 85/413 86/459 96/424
f 85/413 659/412 86/459
f 671/460 86/459 659/412
f 97/454 86/459 81/452
f 82/452 665/416 670/453
f 82/452 89/414 665/416
f 102/418 89/414 82/452
f 82/452 100/461 102/418
f 87/459 100/461 82/452
f 87/459 101/422 100/461
f 88/421 101/422 87/459
f 87/459 662/420 88/421
f 671/460 662/420 87/459
f 107/462 672/463 105/464
f 107/462 101/422 672/463
f 100/461 101/422 107/462
f 107/462 104/465 100/461
f 106/464 104/465 107/462
f 106/464 672/463 104/465
f 103/419 104/465 672/463
f 103/419 102/418 104/465
f 100/461 104/465 102/418
f 101/422 103/419 672/463
f 399/447 402/449 395/445
f 399/447 397/446 402/449
f 386/438 375/427 384/437
f 386/438 376/428 375/427
f 408/452 792/410 794/453
f 408/452 410/409 792/410
f 422/425 410/409 408/452
f 408/452 424/454 422/425
f 413/459 424/454 408/452
f 413/459 423/424 424/454
f 412/413 423/424 413/459
f 413/459 787/412 412/413
f 795/460 787/412 413/459
f 790/416 409/452 794/453
f 790/416 416/414 409/452
f 796/418 409/452 416/414
f 796/418 427/461 409/452
f 430/465 427/461 796/418
f 430/465 432/462 427/461
f 434/464 432/462 430/465
f 430/465 431/463 434/464
f 429/419 431/463 430/465
f 429/419 428/422 431/463
f 432/462 431/463 428/422
f 432/462 433/464 431/463
f 429/419 430/465 796/418
f 428/422 427/461 432/462
f 428/422 414/459 427/461
f 415/421 414/459 428/422
f 415/421 789/420 414/459
f 795/460 414/459 789/420
f 427/461 414/459 409/452
f 419/456 426/458 421/457
f 419/456 423/424 426/458
f 424/454 423/424 419/456
f 419/456 418/455 424/454
f 420/457 418/455 419/456
f 420/457 426/458 418/455
f 425/423 418/455 426/458
f 425/423 422/425 418/455
f 424/454 418/455 422/425
f 426/458 423/424 425/423
f 522/449 516/447 514/445
f 522/449 518/446 516/447
f 498/427 505/438 503/437
f 498/427 496/428 505/438
usemtl mat_3
f 156/466 154/467 155/468
f 156/466 157/469 154/467
f 268/468 157/469 156/466
f 268/468 267/467 157/469
f 272/470 267/467 268/468
f 272/470 284/471 267/467
f 193/472 155/468 192/473
f 193/472 156/466 155/468
f 286/473 156/466 193/472
f 286/473 268/468 156/466
f 273/474 268/468 286/473
f 273/474 272/470 268/468
f 170/470 154/467 183/471
f 170/470 155/468 154/467
f 169/474 155/468 170/470
f 169/474 192/473 155/468
usemtl mat_4
f 160/392 269/391 161/390
f 160/392 270/389 269/391
f 163/394 270/389 160/392
f 163/394 244/393 270/389
f 276/398 278/397 275/396
f 276/398 277/395 278/397
f 269/391 277/395 276/398
f 269/391 270/389 277/395
f 301/400 278/397 300/399
f 301/400 275/396 278/397
f 303/402 275/396 301/400
f 303/402 274/401 275/396
f 201/403 277/395 270/389
f 244/393 201/403 270/389
f 286/404 161/390 269/391
f 276/398 286/404 269/391
f 276/398 273/405 286/404
f 275/396 273/405 276/398
f 275/396 274/401 273/405
f 278/397 257/406 300/399
f 278/397 258/407 257/406
f 277/395 258/407 278/397
f 277/395 201/403 258/407
