# 
# Wavefront material file
# Created with Kaydara FBX
# 

newmtl Material__101
map_Kd pm0068_00_BodyA1.png
Ka 0.588000 0.588000 0.588000
Kd 0.588000 0.588000 0.588000
Ks 0.000000 0.000000 0.000000
illum 2
Ns 2.000000
Tr 1.000000

newmtl Material__102
map_Kd pm0068_00_BodyB1.png
Ka 0.588000 0.588000 0.588000
Kd 0.588000 0.588000 0.588000
Ks 0.000000 0.000000 0.000000
illum 2
Ns 2.000000
Tr 1.000000

newmtl Material__103
map_Kd pm0068_00_Eye1.png
Ka 0.588000 0.588000 0.588000
Kd 0.588000 0.588000 0.588000
Ks 0.000000 0.000000 0.000000
illum 2
Ns 2.000000
Tr 1.000000
