# Blender v2.66 (sub 1) OBJ File: 'BR_Kadabra-Shiny03.blend'
# www.blender.org
mtllib BR_Kadabra-Shiny03.mtl
o yungerer
v 6.240689 -0.397932 -4.129713
v 6.004925 -0.257505 -4.411796
v 6.176117 -0.656349 -4.458159
v 6.358019 -0.679865 -4.278319
v 6.106212 -0.571301 -4.818293
v 6.001252 -0.114757 -4.695971
v 6.314025 -0.028361 -4.864472
v 6.383167 -0.406862 -4.981674
v 6.776543 -0.811919 -4.566175
v 6.690857 -0.064530 -4.788345
v 6.909281 -0.178717 -4.558677
v 6.803710 -0.463812 -4.587886
v 6.625311 -0.375503 -4.847908
v 6.597536 -0.688754 -4.805430
v 6.337763 -0.720911 -4.888682
v 6.121993 -0.001581 -4.077811
v 6.295524 -0.133929 -3.943527
v 6.379310 0.292188 -4.630450
v 6.762366 -0.061179 -4.069291
v 6.622311 0.168283 -4.574694
v 6.800826 0.059012 -4.325204
v 7.447308 -0.908829 -3.582174
v 7.136286 -0.914902 -3.407095
v 7.412113 -0.922314 -3.690826
v 6.805768 -0.689197 -3.905038
v 6.963831 -0.696050 -4.069466
v 7.105400 -0.419792 -4.076706
v 7.564899 -0.610878 -3.691336
v 7.557894 -0.669510 -3.574715
v 7.134886 -0.661246 -3.279651
v 6.804326 -0.427853 -3.773731
v 7.445171 -0.521663 -3.387650
v 7.409378 -0.426753 -3.441842
v 7.040798 -0.257709 -3.929971
v 6.076579 -1.896740 -4.639323
v 6.111189 -1.120204 -4.564711
v 6.418584 0.638213 -3.141363
v 6.446185 0.774831 -3.149185
v 6.137906 0.822804 -3.341894
v 6.403872 1.031594 -3.446030
v 6.618728 0.942821 -3.412174
v 6.682805 0.895546 -3.574511
v 6.354640 1.010984 -3.583791
v 6.640294 0.824023 -3.267954
v 6.734080 0.701713 -3.315003
v 6.499094 0.330666 -4.192122
v 6.221271 0.374157 -4.186452
v 6.144700 0.239043 -3.980529
v 6.380242 0.089115 -3.808290
v 7.273123 -0.891037 -3.395017
v 7.690070 -0.879972 -3.154376
v 7.271981 -0.683975 -3.290983
v 6.356505 -1.944982 -4.370285
v 6.210751 -2.000264 -4.661173
v 6.385273 -2.020003 -4.484442
v 6.343911 -1.935464 -4.867816
v 6.293890 -1.813071 -4.933729
v 6.621062 -1.748725 -4.834120
v 6.558124 -1.907750 -4.775434
v 6.483205 -2.411127 -4.715208
v 6.579281 -1.952364 -4.593942
v 6.671776 -1.840789 -4.523480
v 6.434117 -1.282502 -4.291117
v 6.571720 -0.440536 -4.041279
v 6.694663 -0.785321 -4.117163
v 6.893514 -0.763825 -4.265528
v 7.023068 -0.239149 -4.437150
v 6.930324 -0.520714 -4.423695
v 6.563992 -0.169136 -3.964366
v 6.927907 -0.082709 -4.203628
v 6.188035 -1.034959 -4.795690
v 6.587884 -1.002004 -4.784646
v 6.542439 -1.012287 -4.201783
v 6.697213 -1.160026 -4.525319
v 6.271062 0.903305 -3.271285
v 6.539644 1.194281 -2.972695
v 6.101642 0.256810 -4.402225
v 6.591331 0.183629 -4.028938
vt 0.082492 0.066551
vt 0.079696 0.060058
vt 0.076900 0.060368
vt 0.083216 0.064170
vt 0.085835 0.065761
vt 0.085647 0.063392
vt 0.082822 0.059868
vt 0.083475 0.058948
vt 0.077070 0.056947
vt 0.079834 0.057266
vt 0.054632 0.089481
vt 0.060800 0.086485
vt 0.060274 0.083817
vt 0.057274 0.090238
vt 0.059107 0.095650
vt 0.060026 0.094550
vt 0.065796 0.093360
vt 0.064395 0.092502
vt 0.066753 0.086889
vt 0.064789 0.088696
vt 0.054492 0.086029
vt 0.062014 0.093012
vt 0.056266 0.089882
vt 0.060906 0.089479
vt 0.056819 0.078714
vt 0.062481 0.083585
vt 0.059338 0.073753
vt 0.064942 0.074017
vt 0.062541 0.059065
vt 0.069110 0.059200
vt 0.063556 0.056037
vt 0.067846 0.055559
vt 0.065704 0.090331
vt 0.057565 0.090616
vt 0.055939 0.085836
vt 0.062366 0.080378
vt 0.067800 0.085148
vt 0.073572 0.074101
vt 0.070370 0.070512
vt 0.076660 0.073548
vt 0.075475 0.069944
vt 0.070544 0.066987
vt 0.068525 0.087965
vt 0.070503 0.084688
vt 0.066952 0.090061
vt 0.072868 0.083320
vt 0.067315 0.082728
vt 0.070852 0.077637
vt 0.068040 0.075339
vt 0.072092 0.078512
vt 0.066144 0.089961
vt 0.060848 0.091819
vt 0.073028 0.081299
vt 0.075130 0.080861
vt 0.073321 0.075392
vt 0.060761 0.052581
vt 0.063548 0.050480
vt 0.064214 0.050294
vt 0.057996 0.054305
vt 0.069999 0.054101
vt 0.068191 0.052753
vt 0.057679 0.069646
vt 0.062342 0.066337
vt 0.066699 0.070883
vt 0.069978 0.072414
vt 0.065869 0.070408
vt 0.069681 0.085127
vt 0.064774 0.077749
vt 0.060449 0.069838
vt 0.057031 0.072378
vt 0.059130 0.074550
vt 0.054456 0.080259
vt 0.057618 0.082323
vt 0.065814 0.072783
vt 0.061291 0.078514
vt 0.255997 0.031051
vt 0.269605 0.053257
vt 0.280763 0.021481
vt 0.242643 0.053257
vt 0.230350 0.021481
vt 0.255504 0.003501
usemtl mat_0
s 1
f 24/1 50/2 23/3
f 24/1 22/4 50/2
f 28/5 22/4 24/1
f 28/5 29/6 22/4
f 33/7 29/6 28/5
f 33/7 32/8 29/6
f 30/9 32/8 33/7
f 30/9 52/10 32/8
f 23/3 52/10 30/9
f 23/3 50/2 52/10
f 35/11 55/12 53/13
f 35/11 54/14 55/12
f 57/15 54/14 35/11
f 57/15 56/16 54/14
f 58/17 56/16 57/15
f 58/17 59/18 56/16
f 62/19 59/18 58/17
f 62/19 61/20 59/18
f 53/13 61/20 62/19
f 53/13 55/12 61/20
f 6/21 8/22 5/23
f 6/21 7/24 8/22
f 77/25 7/24 6/21
f 77/25 18/26 7/24
f 47/27 18/26 77/25
f 47/27 46/28 18/26
f 43/29 46/28 47/27
f 43/29 42/30 46/28
f 40/31 42/30 43/29
f 40/31 41/32 42/30
f 57/15 72/33 58/17
f 57/15 71/34 72/33
f 35/11 71/34 57/15
f 35/11 36/35 71/34
f 53/13 36/35 35/11
f 53/13 63/36 36/35
f 62/19 63/36 53/13
f 62/19 74/37 63/36
f 58/17 74/37 62/19
f 58/17 72/33 74/37
f 26/38 23/3 25/39
f 26/38 24/1 23/3
f 27/40 24/1 26/38
f 27/40 28/5 24/1
f 34/41 28/5 27/40
f 34/41 33/7 28/5
f 31/42 33/7 34/41
f 31/42 30/9 33/7
f 25/39 30/9 31/42
f 25/39 23/3 30/9
f 10/43 12/44 13/45
f 10/43 11/46 12/44
f 20/47 11/46 10/43
f 20/47 21/48 11/46
f 65/49 66/50 26/38
f 25/39 65/49 26/38
f 13/45 7/24 10/43
f 13/45 8/22 7/24
f 14/51 8/22 13/45
f 14/51 15/52 8/22
f 72/33 15/52 14/51
f 72/33 71/34 15/52
f 11/46 68/53 12/44
f 11/46 67/54 68/53
f 21/48 67/54 11/46
f 21/48 70/55 67/54
f 75/56 37/57 38/58
f 75/56 39/59 37/57
f 40/31 39/59 75/56
f 40/31 43/29 39/59
f 45/60 38/58 37/57
f 45/60 44/61 38/58
f 42/30 44/61 45/60
f 42/30 41/32 44/61
f 48/62 43/29 47/27
f 48/62 39/59 43/29
f 49/63 39/59 48/62
f 49/63 37/57 39/59
f 78/64 37/57 49/63
f 78/64 45/60 37/57
f 46/28 45/60 78/64
f 46/28 42/30 45/60
f 34/41 19/65 69/66
f 31/42 34/41 69/66
f 18/26 20/47 10/43
f 7/24 18/26 10/43
f 63/36 74/37 9/67
f 73/68 63/36 9/67
f 14/51 13/45 12/44
f 9/67 14/51 12/44
f 72/33 9/67 74/37
f 72/33 14/51 9/67
f 46/28 20/47 18/26
f 46/28 78/64 20/47
f 21/48 20/47 78/64
f 78/64 19/65 21/48
f 49/63 19/65 78/64
f 49/63 69/66 19/65
f 48/62 69/66 49/63
f 48/62 17/69 69/66
f 16/70 17/69 48/62
f 16/70 1/71 17/69
f 2/72 1/71 16/70
f 3/72 1/73 2/71
f 5/23 3/73 2/72
f 5/23 36/35 3/73
f 71/34 36/35 5/23
f 5/23 15/52 71/34
f 8/22 15/52 5/23
f 1/71 69/66 17/69
f 1/71 64/74 69/66
f 64/75 1/74 4/71
f 4/75 65/49 64/74
f 73/68 65/49 4/75
f 73/68 66/50 65/49
f 9/67 66/50 73/68
f 9/67 12/44 66/50
f 68/53 66/50 12/44
f 68/53 26/38 66/50
f 67/54 26/38 68/53
f 67/54 27/40 26/38
f 34/41 27/40 67/54
f 67/54 70/55 34/41
f 19/65 34/41 70/55
f 70/55 21/48 19/65
f 4/73 1/75 3/71
f 3/73 36/35 4/75
f 73/68 4/75 36/35
f 36/35 63/36 73/68
f 25/39 64/74 65/49
f 25/39 31/42 64/74
f 69/66 64/74 31/42
f 2/72 6/21 5/23
f 2/72 77/25 6/21
f 16/70 77/25 2/72
f 16/70 47/27 77/25
f 48/62 47/27 16/70
f 51/76 50/77 22/78
f 51/76 52/79 50/77
f 32/80 52/79 51/76
f 51/76 29/81 32/80
f 22/78 29/81 51/76
f 60/76 61/78 55/77
f 60/76 59/81 61/78
f 56/80 59/81 60/76
f 60/76 54/79 56/80
f 55/77 54/79 60/76
f 44/77 76/76 38/78
f 44/77 41/79 76/76
f 40/80 76/76 41/79
f 40/80 75/81 76/76
f 38/78 76/76 75/81
