xof 0303txt 0032

template AnimTicksPerSecond {
  <9E415A43-7BA6-4a73-8743-B73D47E88476>
  DWORD AnimTicksPerSecond;
}

template XSkinMeshHeader {
  <3cf169ce-ff7c-44ab-93c0-f78f62d172e2>
  WORD nMaxSkinWeightsPerVertex;
  WORD nMaxSkinWeightsPerFace;
  WORD nBones;
}

template SkinWeights {
  <6f0d123b-bad2-4167-a0d0-80224f25fabb>
  STRING transformNodeName;
  DWORD nWeights;
  array DWORD vertexIndices[nWeights];
  array float weights[nWeights];
  Matrix4x4 matrixOffset;
}

Frame Root {
  FrameTransformMatrix {
     1.000000, 0.000000, 0.000000, 0.000000,
     0.000000, 0.000000, 1.000000, 0.000000,
     0.000000, 1.000000,-0.000000, 0.000000,
     0.000000, 0.000000, 0.000000, 1.000000;;
  }
  Frame yungerer_mat_0 {
    FrameTransformMatrix {
       1.000000, 0.000000, 0.000000, 0.000000,
       0.000000, 1.000000, 0.000000, 0.000000,
       0.000000, 0.000000, 1.000000, 0.000000,
       0.000000, 0.000000, 0.000000, 1.000000;;
    }
    Mesh { //Mesh Mesh
      456;
       7.136286; 3.407095;-0.914902;,
       7.273123; 3.395017;-0.891037;,
       7.412113; 3.690826;-0.922314;,
       7.273123; 3.395017;-0.891037;,
       7.447308; 3.582174;-0.908829;,
       7.412113; 3.690826;-0.922314;,
       7.564899; 3.691336;-0.610878;,
       7.412113; 3.690826;-0.922314;,
       7.447308; 3.582174;-0.908829;,
       7.447308; 3.582174;-0.908829;,
       7.557894; 3.574715;-0.669510;,
       7.564899; 3.691336;-0.610878;,
       7.564899; 3.691336;-0.610878;,
       7.557894; 3.574715;-0.669510;,
       7.409378; 3.441842;-0.426753;,
       7.557894; 3.574715;-0.669510;,
       7.445171; 3.387650;-0.521663;,
       7.409378; 3.441842;-0.426753;,
       7.409378; 3.441842;-0.426753;,
       7.445171; 3.387650;-0.521663;,
       7.134886; 3.279651;-0.661246;,
       7.445171; 3.387650;-0.521663;,
       7.271981; 3.290983;-0.683975;,
       7.134886; 3.279651;-0.661246;,
       7.134886; 3.279651;-0.661246;,
       7.271981; 3.290983;-0.683975;,
       7.136286; 3.407095;-0.914902;,
       7.271981; 3.290983;-0.683975;,
       7.273123; 3.395017;-0.891037;,
       7.136286; 3.407095;-0.914902;,
       6.356505; 4.370285;-1.944982;,
       6.385273; 4.484442;-2.020003;,
       6.076579; 4.639323;-1.896740;,
       6.385273; 4.484442;-2.020003;,
       6.210751; 4.661173;-2.000264;,
       6.076579; 4.639323;-1.896740;,
       6.076579; 4.639323;-1.896740;,
       6.210751; 4.661173;-2.000264;,
       6.293890; 4.933729;-1.813071;,
       6.210751; 4.661173;-2.000264;,
       6.343911; 4.867816;-1.935464;,
       6.293890; 4.933729;-1.813071;,
       6.293890; 4.933729;-1.813071;,
       6.343911; 4.867816;-1.935464;,
       6.621062; 4.834120;-1.748725;,
       6.343911; 4.867816;-1.935464;,
       6.558124; 4.775434;-1.907750;,
       6.621062; 4.834120;-1.748725;,
       6.621062; 4.834120;-1.748725;,
       6.558124; 4.775434;-1.907750;,
       6.671776; 4.523480;-1.840789;,
       6.558124; 4.775434;-1.907750;,
       6.579281; 4.593942;-1.952364;,
       6.671776; 4.523480;-1.840789;,
       6.671776; 4.523480;-1.840789;,
       6.579281; 4.593942;-1.952364;,
       6.356505; 4.370285;-1.944982;,
       6.579281; 4.593942;-1.952364;,
       6.385273; 4.484442;-2.020003;,
       6.356505; 4.370285;-1.944982;,
       6.106212; 4.818293;-0.571301;,
       6.383167; 4.981674;-0.406862;,
       6.001252; 4.695971;-0.114757;,
       6.383167; 4.981674;-0.406862;,
       6.314025; 4.864472;-0.028361;,
       6.001252; 4.695971;-0.114757;,
       6.001252; 4.695971;-0.114757;,
       6.314025; 4.864472;-0.028361;,
       6.101642; 4.402225; 0.256810;,
       6.314025; 4.864472;-0.028361;,
       6.379310; 4.630450; 0.292188;,
       6.101642; 4.402225; 0.256810;,
       6.101642; 4.402225; 0.256810;,
       6.379310; 4.630450; 0.292188;,
       6.221271; 4.186452; 0.374157;,
       6.379310; 4.630450; 0.292188;,
       6.499094; 4.192122; 0.330666;,
       6.221271; 4.186452; 0.374157;,
       6.221271; 4.186452; 0.374157;,
       6.499094; 4.192122; 0.330666;,
       6.354640; 3.583791; 1.010984;,
       6.499094; 4.192122; 0.330666;,
       6.682805; 3.574511; 0.895546;,
       6.354640; 3.583791; 1.010984;,
       6.354640; 3.583791; 1.010984;,
       6.682805; 3.574511; 0.895546;,
       6.403872; 3.446030; 1.031594;,
       6.682805; 3.574511; 0.895546;,
       6.618728; 3.412174; 0.942821;,
       6.403872; 3.446030; 1.031594;,
       6.621062; 4.834120;-1.748725;,
       6.587884; 4.784646;-1.002004;,
       6.293890; 4.933729;-1.813071;,
       6.587884; 4.784646;-1.002004;,
       6.188035; 4.795690;-1.034959;,
       6.293890; 4.933729;-1.813071;,
       6.293890; 4.933729;-1.813071;,
       6.188035; 4.795690;-1.034959;,
       6.076579; 4.639323;-1.896740;,
       6.188035; 4.795690;-1.034959;,
       6.111189; 4.564711;-1.120204;,
       6.076579; 4.639323;-1.896740;,
       6.076579; 4.639323;-1.896740;,
       6.111189; 4.564711;-1.120204;,
       6.356505; 4.370285;-1.944982;,
       6.111189; 4.564711;-1.120204;,
       6.434117; 4.291117;-1.282502;,
       6.356505; 4.370285;-1.944982;,
       6.356505; 4.370285;-1.944982;,
       6.434117; 4.291117;-1.282502;,
       6.671776; 4.523480;-1.840789;,
       6.434117; 4.291117;-1.282502;,
       6.697213; 4.525319;-1.160026;,
       6.671776; 4.523480;-1.840789;,
       6.671776; 4.523480;-1.840789;,
       6.697213; 4.525319;-1.160026;,
       6.621062; 4.834120;-1.748725;,
       6.697213; 4.525319;-1.160026;,
       6.587884; 4.784646;-1.002004;,
       6.621062; 4.834120;-1.748725;,
       6.805768; 3.905038;-0.689197;,
       7.136286; 3.407095;-0.914902;,
       6.963831; 4.069466;-0.696050;,
       7.136286; 3.407095;-0.914902;,
       7.412113; 3.690826;-0.922314;,
       6.963831; 4.069466;-0.696050;,
       6.963831; 4.069466;-0.696050;,
       7.412113; 3.690826;-0.922314;,
       7.105400; 4.076706;-0.419792;,
       7.105400; 4.076706;-0.419792;,
       7.412113; 3.690826;-0.922314;,
       7.564899; 3.691336;-0.610878;,
       7.105400; 4.076706;-0.419792;,
       7.564899; 3.691336;-0.610878;,
       7.040798; 3.929971;-0.257709;,
       7.564899; 3.691336;-0.610878;,
       7.409378; 3.441842;-0.426753;,
       7.040798; 3.929971;-0.257709;,
       7.040798; 3.929971;-0.257709;,
       7.409378; 3.441842;-0.426753;,
       6.804326; 3.773731;-0.427853;,
       7.409378; 3.441842;-0.426753;,
       7.134886; 3.279651;-0.661246;,
       6.804326; 3.773731;-0.427853;,
       6.804326; 3.773731;-0.427853;,
       7.134886; 3.279651;-0.661246;,
       6.805768; 3.905038;-0.689197;,
       7.134886; 3.279651;-0.661246;,
       7.136286; 3.407095;-0.914902;,
       6.805768; 3.905038;-0.689197;,
       6.625311; 4.847908;-0.375503;,
       6.803710; 4.587886;-0.463812;,
       6.690857; 4.788345;-0.064530;,
       6.803710; 4.587886;-0.463812;,
       6.909281; 4.558677;-0.178717;,
       6.690857; 4.788345;-0.064530;,
       6.690857; 4.788345;-0.064530;,
       6.909281; 4.558677;-0.178717;,
       6.622311; 4.574694; 0.168283;,
       6.909281; 4.558677;-0.178717;,
       6.800826; 4.325204; 0.059012;,
       6.622311; 4.574694; 0.168283;,
       6.963831; 4.069466;-0.696050;,
       6.893514; 4.265528;-0.763825;,
       6.694663; 4.117163;-0.785321;,
       6.963831; 4.069466;-0.696050;,
       6.694663; 4.117163;-0.785321;,
       6.805768; 3.905038;-0.689197;,
       6.690857; 4.788345;-0.064530;,
       6.314025; 4.864472;-0.028361;,
       6.625311; 4.847908;-0.375503;,
       6.314025; 4.864472;-0.028361;,
       6.383167; 4.981674;-0.406862;,
       6.625311; 4.847908;-0.375503;,
       6.625311; 4.847908;-0.375503;,
       6.383167; 4.981674;-0.406862;,
       6.597536; 4.805430;-0.688754;,
       6.383167; 4.981674;-0.406862;,
       6.337763; 4.888682;-0.720911;,
       6.597536; 4.805430;-0.688754;,
       6.597536; 4.805430;-0.688754;,
       6.337763; 4.888682;-0.720911;,
       6.587884; 4.784646;-1.002004;,
       6.337763; 4.888682;-0.720911;,
       6.188035; 4.795690;-1.034959;,
       6.587884; 4.784646;-1.002004;,
       6.803710; 4.587886;-0.463812;,
       6.930324; 4.423695;-0.520714;,
       6.909281; 4.558677;-0.178717;,
       6.930324; 4.423695;-0.520714;,
       7.023068; 4.437150;-0.239149;,
       6.909281; 4.558677;-0.178717;,
       6.909281; 4.558677;-0.178717;,
       7.023068; 4.437150;-0.239149;,
       6.800826; 4.325204; 0.059012;,
       7.023068; 4.437150;-0.239149;,
       6.927907; 4.203628;-0.082709;,
       6.800826; 4.325204; 0.059012;,
       6.446185; 3.149185; 0.774831;,
       6.418584; 3.141363; 0.638213;,
       6.271062; 3.271285; 0.903305;,
       6.418584; 3.141363; 0.638213;,
       6.137906; 3.341894; 0.822804;,
       6.271062; 3.271285; 0.903305;,
       6.271062; 3.271285; 0.903305;,
       6.137906; 3.341894; 0.822804;,
       6.403872; 3.446030; 1.031594;,
       6.137906; 3.341894; 0.822804;,
       6.354640; 3.583791; 1.010984;,
       6.403872; 3.446030; 1.031594;,
       6.418584; 3.141363; 0.638213;,
       6.446185; 3.149185; 0.774831;,
       6.734080; 3.315003; 0.701713;,
       6.446185; 3.149185; 0.774831;,
       6.640294; 3.267954; 0.824023;,
       6.734080; 3.315003; 0.701713;,
       6.734080; 3.315003; 0.701713;,
       6.640294; 3.267954; 0.824023;,
       6.682805; 3.574511; 0.895546;,
       6.640294; 3.267954; 0.824023;,
       6.618728; 3.412174; 0.942821;,
       6.682805; 3.574511; 0.895546;,
       6.221271; 4.186452; 0.374157;,
       6.354640; 3.583791; 1.010984;,
       6.144700; 3.980529; 0.239043;,
       6.354640; 3.583791; 1.010984;,
       6.137906; 3.341894; 0.822804;,
       6.144700; 3.980529; 0.239043;,
       6.144700; 3.980529; 0.239043;,
       6.137906; 3.341894; 0.822804;,
       6.380242; 3.808290; 0.089115;,
       6.137906; 3.341894; 0.822804;,
       6.418584; 3.141363; 0.638213;,
       6.380242; 3.808290; 0.089115;,
       6.380242; 3.808290; 0.089115;,
       6.418584; 3.141363; 0.638213;,
       6.591331; 4.028938; 0.183629;,
       6.418584; 3.141363; 0.638213;,
       6.734080; 3.315003; 0.701713;,
       6.591331; 4.028938; 0.183629;,
       6.591331; 4.028938; 0.183629;,
       6.734080; 3.315003; 0.701713;,
       6.499094; 4.192122; 0.330666;,
       6.734080; 3.315003; 0.701713;,
       6.682805; 3.574511; 0.895546;,
       6.499094; 4.192122; 0.330666;,
       6.563992; 3.964366;-0.169136;,
       6.762366; 4.069291;-0.061179;,
       7.040798; 3.929971;-0.257709;,
       6.563992; 3.964366;-0.169136;,
       7.040798; 3.929971;-0.257709;,
       6.804326; 3.773731;-0.427853;,
       6.690857; 4.788345;-0.064530;,
       6.622311; 4.574694; 0.168283;,
       6.379310; 4.630450; 0.292188;,
       6.690857; 4.788345;-0.064530;,
       6.379310; 4.630450; 0.292188;,
       6.314025; 4.864472;-0.028361;,
       6.776543; 4.566175;-0.811919;,
       6.697213; 4.525319;-1.160026;,
       6.434117; 4.291117;-1.282502;,
       6.776543; 4.566175;-0.811919;,
       6.434117; 4.291117;-1.282502;,
       6.542439; 4.201783;-1.012287;,
       6.803710; 4.587886;-0.463812;,
       6.625311; 4.847908;-0.375503;,
       6.597536; 4.805430;-0.688754;,
       6.803710; 4.587886;-0.463812;,
       6.597536; 4.805430;-0.688754;,
       6.776543; 4.566175;-0.811919;,
       6.697213; 4.525319;-1.160026;,
       6.776543; 4.566175;-0.811919;,
       6.587884; 4.784646;-1.002004;,
       6.776543; 4.566175;-0.811919;,
       6.597536; 4.805430;-0.688754;,
       6.587884; 4.784646;-1.002004;,
       6.379310; 4.630450; 0.292188;,
       6.622311; 4.574694; 0.168283;,
       6.499094; 4.192122; 0.330666;,
       6.622311; 4.574694; 0.168283;,
       6.591331; 4.028938; 0.183629;,
       6.499094; 4.192122; 0.330666;,
       6.591331; 4.028938; 0.183629;,
       6.622311; 4.574694; 0.168283;,
       6.800826; 4.325204; 0.059012;,
       6.800826; 4.325204; 0.059012;,
       6.762366; 4.069291;-0.061179;,
       6.591331; 4.028938; 0.183629;,
       6.591331; 4.028938; 0.183629;,
       6.762366; 4.069291;-0.061179;,
       6.380242; 3.808290; 0.089115;,
       6.762366; 4.069291;-0.061179;,
       6.563992; 3.964366;-0.169136;,
       6.380242; 3.808290; 0.089115;,
       6.380242; 3.808290; 0.089115;,
       6.563992; 3.964366;-0.169136;,
       6.144700; 3.980529; 0.239043;,
       6.563992; 3.964366;-0.169136;,
       6.295524; 3.943527;-0.133929;,
       6.144700; 3.980529; 0.239043;,
       6.144700; 3.980529; 0.239043;,
       6.295524; 3.943527;-0.133929;,
       6.121993; 4.077811;-0.001581;,
       6.295524; 3.943527;-0.133929;,
       6.240689; 4.129713;-0.397932;,
       6.121993; 4.077811;-0.001581;,
       6.121993; 4.077811;-0.001581;,
       6.240689; 4.129713;-0.397932;,
       6.004925; 4.411796;-0.257505;,
       6.004925; 4.411796;-0.257505;,
       6.240689; 4.129713;-0.397932;,
       6.176117; 4.458159;-0.656349;,
       6.004925; 4.411796;-0.257505;,
       6.176117; 4.458159;-0.656349;,
       6.106212; 4.818293;-0.571301;,
       6.176117; 4.458159;-0.656349;,
       6.111189; 4.564711;-1.120204;,
       6.106212; 4.818293;-0.571301;,
       6.106212; 4.818293;-0.571301;,
       6.111189; 4.564711;-1.120204;,
       6.188035; 4.795690;-1.034959;,
       6.188035; 4.795690;-1.034959;,
       6.337763; 4.888682;-0.720911;,
       6.106212; 4.818293;-0.571301;,
       6.106212; 4.818293;-0.571301;,
       6.337763; 4.888682;-0.720911;,
       6.383167; 4.981674;-0.406862;,
       6.295524; 3.943527;-0.133929;,
       6.563992; 3.964366;-0.169136;,
       6.240689; 4.129713;-0.397932;,
       6.563992; 3.964366;-0.169136;,
       6.571720; 4.041279;-0.440536;,
       6.240689; 4.129713;-0.397932;,
       6.358019; 4.278319;-0.679865;,
       6.240689; 4.129713;-0.397932;,
       6.571720; 4.041279;-0.440536;,
       6.571720; 4.041279;-0.440536;,
       6.694663; 4.117163;-0.785321;,
       6.358019; 4.278319;-0.679865;,
       6.358019; 4.278319;-0.679865;,
       6.694663; 4.117163;-0.785321;,
       6.542439; 4.201783;-1.012287;,
       6.694663; 4.117163;-0.785321;,
       6.893514; 4.265528;-0.763825;,
       6.542439; 4.201783;-1.012287;,
       6.542439; 4.201783;-1.012287;,
       6.893514; 4.265528;-0.763825;,
       6.776543; 4.566175;-0.811919;,
       6.893514; 4.265528;-0.763825;,
       6.803710; 4.587886;-0.463812;,
       6.776543; 4.566175;-0.811919;,
       6.803710; 4.587886;-0.463812;,
       6.893514; 4.265528;-0.763825;,
       6.930324; 4.423695;-0.520714;,
       6.893514; 4.265528;-0.763825;,
       6.963831; 4.069466;-0.696050;,
       6.930324; 4.423695;-0.520714;,
       6.930324; 4.423695;-0.520714;,
       6.963831; 4.069466;-0.696050;,
       7.023068; 4.437150;-0.239149;,
       6.963831; 4.069466;-0.696050;,
       7.105400; 4.076706;-0.419792;,
       7.023068; 4.437150;-0.239149;,
       7.023068; 4.437150;-0.239149;,
       7.105400; 4.076706;-0.419792;,
       7.040798; 3.929971;-0.257709;,
       7.040798; 3.929971;-0.257709;,
       6.927907; 4.203628;-0.082709;,
       7.023068; 4.437150;-0.239149;,
       6.927907; 4.203628;-0.082709;,
       7.040798; 3.929971;-0.257709;,
       6.762366; 4.069291;-0.061179;,
       6.762366; 4.069291;-0.061179;,
       6.800826; 4.325204; 0.059012;,
       6.927907; 4.203628;-0.082709;,
       6.176117; 4.458159;-0.656349;,
       6.240689; 4.129713;-0.397932;,
       6.358019; 4.278319;-0.679865;,
       6.358019; 4.278319;-0.679865;,
       6.111189; 4.564711;-1.120204;,
       6.176117; 4.458159;-0.656349;,
       6.111189; 4.564711;-1.120204;,
       6.358019; 4.278319;-0.679865;,
       6.542439; 4.201783;-1.012287;,
       6.542439; 4.201783;-1.012287;,
       6.434117; 4.291117;-1.282502;,
       6.111189; 4.564711;-1.120204;,
       6.694663; 4.117163;-0.785321;,
       6.571720; 4.041279;-0.440536;,
       6.805768; 3.905038;-0.689197;,
       6.571720; 4.041279;-0.440536;,
       6.804326; 3.773731;-0.427853;,
       6.805768; 3.905038;-0.689197;,
       6.804326; 3.773731;-0.427853;,
       6.571720; 4.041279;-0.440536;,
       6.563992; 3.964366;-0.169136;,
       6.106212; 4.818293;-0.571301;,
       6.001252; 4.695971;-0.114757;,
       6.004925; 4.411796;-0.257505;,
       6.001252; 4.695971;-0.114757;,
       6.101642; 4.402225; 0.256810;,
       6.004925; 4.411796;-0.257505;,
       6.004925; 4.411796;-0.257505;,
       6.101642; 4.402225; 0.256810;,
       6.121993; 4.077811;-0.001581;,
       6.101642; 4.402225; 0.256810;,
       6.221271; 4.186452; 0.374157;,
       6.121993; 4.077811;-0.001581;,
       6.121993; 4.077811;-0.001581;,
       6.221271; 4.186452; 0.374157;,
       6.144700; 3.980529; 0.239043;,
       7.447308; 3.582174;-0.908829;,
       7.273123; 3.395017;-0.891037;,
       7.690070; 3.154376;-0.879972;,
       7.273123; 3.395017;-0.891037;,
       7.271981; 3.290983;-0.683975;,
       7.690070; 3.154376;-0.879972;,
       7.690070; 3.154376;-0.879972;,
       7.271981; 3.290983;-0.683975;,
       7.445171; 3.387650;-0.521663;,
       7.445171; 3.387650;-0.521663;,
       7.557894; 3.574715;-0.669510;,
       7.690070; 3.154376;-0.879972;,
       7.690070; 3.154376;-0.879972;,
       7.557894; 3.574715;-0.669510;,
       7.447308; 3.582174;-0.908829;,
       6.385273; 4.484442;-2.020003;,
       6.579281; 4.593942;-1.952364;,
       6.483205; 4.715208;-2.411127;,
       6.579281; 4.593942;-1.952364;,
       6.558124; 4.775434;-1.907750;,
       6.483205; 4.715208;-2.411127;,
       6.483205; 4.715208;-2.411127;,
       6.558124; 4.775434;-1.907750;,
       6.343911; 4.867816;-1.935464;,
       6.343911; 4.867816;-1.935464;,
       6.210751; 4.661173;-2.000264;,
       6.483205; 4.715208;-2.411127;,
       6.483205; 4.715208;-2.411127;,
       6.210751; 4.661173;-2.000264;,
       6.385273; 4.484442;-2.020003;,
       6.446185; 3.149185; 0.774831;,
       6.539644; 2.972695; 1.194281;,
       6.640294; 3.267954; 0.824023;,
       6.539644; 2.972695; 1.194281;,
       6.618728; 3.412174; 0.942821;,
       6.640294; 3.267954; 0.824023;,
       6.618728; 3.412174; 0.942821;,
       6.539644; 2.972695; 1.194281;,
       6.403872; 3.446030; 1.031594;,
       6.539644; 2.972695; 1.194281;,
       6.271062; 3.271285; 0.903305;,
       6.403872; 3.446030; 1.031594;,
       6.271062; 3.271285; 0.903305;,
       6.539644; 2.972695; 1.194281;,
       6.446185; 3.149185; 0.774831;;
      152;
      3;0;1;2;,
      3;3;4;5;,
      3;6;7;8;,
      3;9;10;11;,
      3;12;13;14;,
      3;15;16;17;,
      3;18;19;20;,
      3;21;22;23;,
      3;24;25;26;,
      3;27;28;29;,
      3;30;31;32;,
      3;33;34;35;,
      3;36;37;38;,
      3;39;40;41;,
      3;42;43;44;,
      3;45;46;47;,
      3;48;49;50;,
      3;51;52;53;,
      3;54;55;56;,
      3;57;58;59;,
      3;60;61;62;,
      3;63;64;65;,
      3;66;67;68;,
      3;69;70;71;,
      3;72;73;74;,
      3;75;76;77;,
      3;78;79;80;,
      3;81;82;83;,
      3;84;85;86;,
      3;87;88;89;,
      3;90;91;92;,
      3;93;94;95;,
      3;96;97;98;,
      3;99;100;101;,
      3;102;103;104;,
      3;105;106;107;,
      3;108;109;110;,
      3;111;112;113;,
      3;114;115;116;,
      3;117;118;119;,
      3;120;121;122;,
      3;123;124;125;,
      3;126;127;128;,
      3;129;130;131;,
      3;132;133;134;,
      3;135;136;137;,
      3;138;139;140;,
      3;141;142;143;,
      3;144;145;146;,
      3;147;148;149;,
      3;150;151;152;,
      3;153;154;155;,
      3;156;157;158;,
      3;159;160;161;,
      3;162;163;164;,
      3;165;166;167;,
      3;168;169;170;,
      3;171;172;173;,
      3;174;175;176;,
      3;177;178;179;,
      3;180;181;182;,
      3;183;184;185;,
      3;186;187;188;,
      3;189;190;191;,
      3;192;193;194;,
      3;195;196;197;,
      3;198;199;200;,
      3;201;202;203;,
      3;204;205;206;,
      3;207;208;209;,
      3;210;211;212;,
      3;213;214;215;,
      3;216;217;218;,
      3;219;220;221;,
      3;222;223;224;,
      3;225;226;227;,
      3;228;229;230;,
      3;231;232;233;,
      3;234;235;236;,
      3;237;238;239;,
      3;240;241;242;,
      3;243;244;245;,
      3;246;247;248;,
      3;249;250;251;,
      3;252;253;254;,
      3;255;256;257;,
      3;258;259;260;,
      3;261;262;263;,
      3;264;265;266;,
      3;267;268;269;,
      3;270;271;272;,
      3;273;274;275;,
      3;276;277;278;,
      3;279;280;281;,
      3;282;283;284;,
      3;285;286;287;,
      3;288;289;290;,
      3;291;292;293;,
      3;294;295;296;,
      3;297;298;299;,
      3;300;301;302;,
      3;303;304;305;,
      3;306;307;308;,
      3;309;310;311;,
      3;312;313;314;,
      3;315;316;317;,
      3;318;319;320;,
      3;321;322;323;,
      3;324;325;326;,
      3;327;328;329;,
      3;330;331;332;,
      3;333;334;335;,
      3;336;337;338;,
      3;339;340;341;,
      3;342;343;344;,
      3;345;346;347;,
      3;348;349;350;,
      3;351;352;353;,
      3;354;355;356;,
      3;357;358;359;,
      3;360;361;362;,
      3;363;364;365;,
      3;366;367;368;,
      3;369;370;371;,
      3;372;373;374;,
      3;375;376;377;,
      3;378;379;380;,
      3;381;382;383;,
      3;384;385;386;,
      3;387;388;389;,
      3;390;391;392;,
      3;393;394;395;,
      3;396;397;398;,
      3;399;400;401;,
      3;402;403;404;,
      3;405;406;407;,
      3;408;409;410;,
      3;411;412;413;,
      3;414;415;416;,
      3;417;418;419;,
      3;420;421;422;,
      3;423;424;425;,
      3;426;427;428;,
      3;429;430;431;,
      3;432;433;434;,
      3;435;436;437;,
      3;438;439;440;,
      3;441;442;443;,
      3;444;445;446;,
      3;447;448;449;,
      3;450;451;452;,
      3;453;454;455;;
      MeshNormals { //Mesh Normals
        456;
         0.404004; 0.453505; 0.794397;,
         0.056215; 0.540391; 0.839503;,
        -0.395276;-0.413709; 0.820093;,
         0.056215; 0.540391; 0.839503;,
        -0.503281;-0.115970; 0.856288;,
        -0.395276;-0.413709; 0.820093;,
        -0.916349;-0.361614;-0.171789;,
        -0.395276;-0.413709; 0.820093;,
        -0.503281;-0.115970; 0.856288;,
        -0.503281;-0.115970; 0.856288;,
        -0.996857;-0.062807;-0.047914;,
        -0.916349;-0.361614;-0.171789;,
        -0.916349;-0.361614;-0.171789;,
        -0.996857;-0.062807;-0.047914;,
        -0.377514; 0.428114;-0.821070;,
        -0.996857;-0.062807;-0.047914;,
        -0.518601; 0.604816;-0.604327;,
        -0.377514; 0.428114;-0.821070;,
        -0.377514; 0.428114;-0.821070;,
        -0.518601; 0.604816;-0.604327;,
         0.420454; 0.899655;-0.117405;,
        -0.518601; 0.604816;-0.604327;,
         0.056124; 0.997436;-0.044282;,
         0.420454; 0.899655;-0.117405;,
         0.420454; 0.899655;-0.117405;,
         0.056124; 0.997436;-0.044282;,
         0.404004; 0.453505; 0.794397;,
         0.056124; 0.997436;-0.044282;,
         0.056215; 0.540391; 0.839503;,
         0.404004; 0.453505; 0.794397;,
         0.129429; 0.853145; 0.505325;,
         0.015473; 0.691519; 0.722160;,
         0.917661; 0.036164; 0.395642;,
         0.015473; 0.691519; 0.722160;,
         0.711386;-0.066073; 0.699667;,
         0.917661; 0.036164; 0.395642;,
         0.917661; 0.036164; 0.395642;,
         0.711386;-0.066073; 0.699667;,
         0.284890;-0.933561; 0.217353;,
         0.711386;-0.066073; 0.699667;,
         0.156560;-0.869869; 0.467727;,
         0.284890;-0.933561; 0.217353;,
         0.284890;-0.933561; 0.217353;,
         0.156560;-0.869869; 0.467727;,
        -0.724174;-0.668874; 0.167821;,
         0.156560;-0.869869; 0.467727;,
        -0.720786;-0.580554; 0.378613;,
        -0.724174;-0.668874; 0.167821;,
        -0.724174;-0.668874; 0.167821;,
        -0.720786;-0.580554; 0.378613;,
        -0.860439; 0.353771; 0.366649;,
        -0.720786;-0.580554; 0.378613;,
        -0.813135; 0.232917; 0.533372;,
        -0.860439; 0.353771; 0.366649;,
        -0.860439; 0.353771; 0.366649;,
        -0.813135; 0.232917; 0.533372;,
         0.129429; 0.853145; 0.505325;,
        -0.813135; 0.232917; 0.533372;,
         0.015473; 0.691519; 0.722160;,
         0.129429; 0.853145; 0.505325;,
         0.824152;-0.551042; 0.130772;,
        -0.012055;-0.999359;-0.033021;,
         0.867763;-0.442244;-0.226630;,
        -0.012055;-0.999359;-0.033021;,
         0.178442;-0.884335;-0.431349;,
         0.867763;-0.442244;-0.226630;,
         0.867763;-0.442244;-0.226630;,
         0.178442;-0.884335;-0.431349;,
         0.786798;-0.143681;-0.600238;,
         0.178442;-0.884335;-0.431349;,
         0.010407;-0.546342;-0.837489;,
         0.786798;-0.143681;-0.600238;,
         0.786798;-0.143681;-0.600238;,
         0.010407;-0.546342;-0.837489;,
         0.592151;-0.281808;-0.754906;,
         0.010407;-0.546342;-0.837489;,
        -0.611438;-0.324442;-0.721702;,
         0.592151;-0.281808;-0.754906;,
         0.592151;-0.281808;-0.754906;,
        -0.611438;-0.324442;-0.721702;,
         0.294137;-0.411664;-0.862545;,
        -0.611438;-0.324442;-0.721702;,
        -0.764916;-0.322703;-0.557451;,
         0.294137;-0.411664;-0.862545;,
         0.294137;-0.411664;-0.862545;,
        -0.764916;-0.322703;-0.557451;,
         0.152867;-0.142430;-0.977905;,
        -0.764916;-0.322703;-0.557451;,
        -0.731956;-0.040345;-0.680135;,
         0.152867;-0.142430;-0.977905;,
        -0.724174;-0.668874; 0.167821;,
        -0.557207;-0.827540; 0.067995;,
         0.284890;-0.933561; 0.217353;,
        -0.557207;-0.827540; 0.067995;,
         0.589709;-0.804285; 0.072878;,
         0.284890;-0.933561; 0.217353;,
         0.284890;-0.933561; 0.217353;,
         0.589709;-0.804285; 0.072878;,
         0.917661; 0.036164; 0.395642;,
         0.589709;-0.804285; 0.072878;,
         0.957213; 0.288369; 0.023530;,
         0.917661; 0.036164; 0.395642;,
         0.917661; 0.036164; 0.395642;,
         0.957213; 0.288369; 0.023530;,
         0.129429; 0.853145; 0.505325;,
         0.957213; 0.288369; 0.023530;,
         0.013764; 0.994049; 0.107761;,
         0.129429; 0.853145; 0.505325;,
         0.129429; 0.853145; 0.505325;,
         0.013764; 0.994049; 0.107761;,
        -0.860439; 0.353771; 0.366649;,
         0.013764; 0.994049; 0.107761;,
        -0.967803; 0.242500; 0.067019;,
        -0.860439; 0.353771; 0.366649;,
        -0.860439; 0.353771; 0.366649;,
        -0.967803; 0.242500; 0.067019;,
        -0.724174;-0.668874; 0.167821;,
        -0.967803; 0.242500; 0.067019;,
        -0.557207;-0.827540; 0.067995;,
        -0.724174;-0.668874; 0.167821;,
         0.578661; 0.371685; 0.725913;,
         0.404004; 0.453505; 0.794397;,
        -0.481582;-0.309549; 0.819880;,
         0.404004; 0.453505; 0.794397;,
        -0.395276;-0.413709; 0.820093;,
        -0.481582;-0.309549; 0.819880;,
        -0.481582;-0.309549; 0.819880;,
        -0.395276;-0.413709; 0.820093;,
        -0.873989;-0.479934;-0.076022;,
        -0.873989;-0.479934;-0.076022;,
        -0.395276;-0.413709; 0.820093;,
        -0.916349;-0.361614;-0.171789;,
        -0.873989;-0.479934;-0.076022;,
        -0.916349;-0.361614;-0.171789;,
        -0.446272; 0.274239;-0.851833;,
        -0.916349;-0.361614;-0.171789;,
        -0.377514; 0.428114;-0.821070;,
        -0.446272; 0.274239;-0.851833;,
        -0.446272; 0.274239;-0.851833;,
        -0.377514; 0.428114;-0.821070;,
         0.598773; 0.755516;-0.265755;,
        -0.377514; 0.428114;-0.821070;,
         0.420454; 0.899655;-0.117405;,
         0.598773; 0.755516;-0.265755;,
         0.598773; 0.755516;-0.265755;,
         0.420454; 0.899655;-0.117405;,
         0.578661; 0.371685; 0.725913;,
         0.420454; 0.899655;-0.117405;,
         0.404004; 0.453505; 0.794397;,
         0.578661; 0.371685; 0.725913;,
        -0.610553;-0.791925; 0.004975;,
        -0.774987;-0.606922; 0.176000;,
        -0.560076;-0.759056;-0.331828;,
        -0.774987;-0.606922; 0.176000;,
        -0.778863;-0.582720;-0.231910;,
        -0.560076;-0.759056;-0.331828;,
        -0.560076;-0.759056;-0.331828;,
        -0.778863;-0.582720;-0.231910;,
        -0.600604;-0.327555;-0.729331;,
        -0.778863;-0.582720;-0.231910;,
        -0.687399; 0.008850;-0.726188;,
        -0.600604;-0.327555;-0.729331;,
        -0.481582;-0.309549; 0.819880;,
        -0.761711;-0.068514; 0.644246;,
         0.091220; 0.760826; 0.642476;,
        -0.481582;-0.309549; 0.819880;,
         0.091220; 0.760826; 0.642476;,
         0.578661; 0.371685; 0.725913;,
        -0.560076;-0.759056;-0.331828;,
         0.178442;-0.884335;-0.431349;,
        -0.610553;-0.791925; 0.004975;,
         0.178442;-0.884335;-0.431349;,
        -0.012055;-0.999359;-0.033021;,
        -0.610553;-0.791925; 0.004975;,
        -0.610553;-0.791925; 0.004975;,
        -0.012055;-0.999359;-0.033021;,
        -0.592853;-0.792993; 0.140172;,
        -0.012055;-0.999359;-0.033021;,
         0.045198;-0.975646; 0.214606;,
        -0.592853;-0.792993; 0.140172;,
        -0.592853;-0.792993; 0.140172;,
         0.045198;-0.975646; 0.214606;,
        -0.557207;-0.827540; 0.067995;,
         0.045198;-0.975646; 0.214606;,
         0.589709;-0.804285; 0.072878;,
        -0.557207;-0.827540; 0.067995;,
        -0.774987;-0.606922; 0.176000;,
        -0.786035;-0.496200; 0.368603;,
        -0.778863;-0.582720;-0.231910;,
        -0.786035;-0.496200; 0.368603;,
        -0.894070;-0.417341;-0.162542;,
        -0.778863;-0.582720;-0.231910;,
        -0.778863;-0.582720;-0.231910;,
        -0.894070;-0.417341;-0.162542;,
        -0.687399; 0.008850;-0.726188;,
        -0.894070;-0.417341;-0.162542;,
        -0.680990; 0.158269;-0.714927;,
        -0.687399; 0.008850;-0.726188;,
         0.025361; 0.993805; 0.108127;,
         0.097049; 0.895108; 0.435072;,
         0.711203; 0.524705;-0.467788;,
         0.097049; 0.895108; 0.435072;,
         0.924345; 0.320658;-0.206702;,
         0.711203; 0.524705;-0.467788;,
         0.711203; 0.524705;-0.467788;,
         0.924345; 0.320658;-0.206702;,
         0.152867;-0.142430;-0.977905;,
         0.924345; 0.320658;-0.206702;,
         0.294137;-0.411664;-0.862545;,
         0.152867;-0.142430;-0.977905;,
         0.097049; 0.895108; 0.435072;,
         0.025361; 0.993805; 0.108127;,
        -0.886563; 0.432234; 0.164769;,
         0.025361; 0.993805; 0.108127;,
        -0.823969; 0.544847;-0.155583;,
        -0.886563; 0.432234; 0.164769;,
        -0.886563; 0.432234; 0.164769;,
        -0.823969; 0.544847;-0.155583;,
        -0.764916;-0.322703;-0.557451;,
        -0.823969; 0.544847;-0.155583;,
        -0.731956;-0.040345;-0.680135;,
        -0.764916;-0.322703;-0.557451;,
         0.592151;-0.281808;-0.754906;,
         0.294137;-0.411664;-0.862545;,
         0.980529; 0.188269; 0.055727;,
         0.294137;-0.411664;-0.862545;,
         0.924345; 0.320658;-0.206702;,
         0.980529; 0.188269; 0.055727;,
         0.980529; 0.188269; 0.055727;,
         0.924345; 0.320658;-0.206702;,
         0.124363; 0.697287; 0.705893;,
         0.924345; 0.320658;-0.206702;,
         0.097049; 0.895108; 0.435072;,
         0.124363; 0.697287; 0.705893;,
         0.124363; 0.697287; 0.705893;,
         0.097049; 0.895108; 0.435072;,
        -0.922452; 0.277047;-0.268807;,
         0.097049; 0.895108; 0.435072;,
        -0.886563; 0.432234; 0.164769;,
        -0.922452; 0.277047;-0.268807;,
        -0.922452; 0.277047;-0.268807;,
        -0.886563; 0.432234; 0.164769;,
        -0.611438;-0.324442;-0.721702;,
        -0.886563; 0.432234; 0.164769;,
        -0.764916;-0.322703;-0.557451;,
        -0.611438;-0.324442;-0.721702;,
         0.042909; 0.995636; 0.082522;,
        -0.487838; 0.635639;-0.598254;,
        -0.446272; 0.274239;-0.851833;,
         0.042909; 0.995636; 0.082522;,
        -0.446272; 0.274239;-0.851833;,
         0.598773; 0.755516;-0.265755;,
        -0.560076;-0.759056;-0.331828;,
        -0.600604;-0.327555;-0.729331;,
         0.010407;-0.546342;-0.837489;,
        -0.560076;-0.759056;-0.331828;,
         0.010407;-0.546342;-0.837489;,
         0.178442;-0.884335;-0.431349;,
        -0.896908;-0.331828; 0.292215;,
        -0.967803; 0.242500; 0.067019;,
         0.013764; 0.994049; 0.107761;,
        -0.896908;-0.331828; 0.292215;,
         0.013764; 0.994049; 0.107761;,
        -0.108737; 0.867763; 0.484909;,
        -0.774987;-0.606922; 0.176000;,
        -0.610553;-0.791925; 0.004975;,
        -0.592853;-0.792993; 0.140172;,
        -0.774987;-0.606922; 0.176000;,
        -0.592853;-0.792993; 0.140172;,
        -0.896908;-0.331828; 0.292215;,
        -0.967803; 0.242500; 0.067019;,
        -0.896908;-0.331828; 0.292215;,
        -0.557207;-0.827540; 0.067995;,
        -0.896908;-0.331828; 0.292215;,
        -0.592853;-0.792993; 0.140172;,
        -0.557207;-0.827540; 0.067995;,
         0.010407;-0.546342;-0.837489;,
        -0.600604;-0.327555;-0.729331;,
        -0.611438;-0.324442;-0.721702;,
        -0.600604;-0.327555;-0.729331;,
        -0.922452; 0.277047;-0.268807;,
        -0.611438;-0.324442;-0.721702;,
        -0.922452; 0.277047;-0.268807;,
        -0.600604;-0.327555;-0.729331;,
        -0.687399; 0.008850;-0.726188;,
        -0.687399; 0.008850;-0.726188;,
        -0.487838; 0.635639;-0.598254;,
        -0.922452; 0.277047;-0.268807;,
        -0.922452; 0.277047;-0.268807;,
        -0.487838; 0.635639;-0.598254;,
         0.124363; 0.697287; 0.705893;,
        -0.487838; 0.635639;-0.598254;,
         0.042909; 0.995636; 0.082522;,
         0.124363; 0.697287; 0.705893;,
         0.124363; 0.697287; 0.705893;,
         0.042909; 0.995636; 0.082522;,
         0.980529; 0.188269; 0.055727;,
         0.042909; 0.995636; 0.082522;,
         0.275430; 0.930692; 0.240669;,
         0.980529; 0.188269; 0.055727;,
         0.980529; 0.188269; 0.055727;,
         0.275430; 0.930692; 0.240669;,
         0.890439; 0.450758; 0.062319;,
         0.275430; 0.930692; 0.240669;,
         0.554888; 0.702353; 0.445814;,
         0.890439; 0.450758; 0.062319;,
         0.890439; 0.450758; 0.062319;,
         0.554888; 0.702353; 0.445814;,
         0.960082; 0.227851; 0.162206;,
         0.960082; 0.227851; 0.162206;,
         0.554888; 0.702353; 0.445814;,
         0.872768; 0.429273; 0.232307;,
         0.960082; 0.227851; 0.162206;,
         0.872768; 0.429273; 0.232307;,
         0.824152;-0.551042; 0.130772;,
         0.872768; 0.429273; 0.232307;,
         0.957213; 0.288369; 0.023530;,
         0.824152;-0.551042; 0.130772;,
         0.824152;-0.551042; 0.130772;,
         0.957213; 0.288369; 0.023530;,
         0.589709;-0.804285; 0.072878;,
         0.589709;-0.804285; 0.072878;,
         0.045198;-0.975646; 0.214606;,
         0.824152;-0.551042; 0.130772;,
         0.824152;-0.551042; 0.130772;,
         0.045198;-0.975646; 0.214606;,
        -0.012055;-0.999359;-0.033021;,
         0.275430; 0.930692; 0.240669;,
         0.042909; 0.995636; 0.082522;,
         0.554888; 0.702353; 0.445814;,
         0.042909; 0.995636; 0.082522;,
         0.536180; 0.772759; 0.339549;,
         0.554888; 0.702353; 0.445814;,
         0.561418; 0.761315; 0.324259;,
         0.554888; 0.702353; 0.445814;,
         0.536180; 0.772759; 0.339549;,
         0.536180; 0.772759; 0.339549;,
         0.091220; 0.760826; 0.642476;,
         0.561418; 0.761315; 0.324259;,
         0.561418; 0.761315; 0.324259;,
         0.091220; 0.760826; 0.642476;,
        -0.108737; 0.867763; 0.484909;,
         0.091220; 0.760826; 0.642476;,
        -0.761711;-0.068514; 0.644246;,
        -0.108737; 0.867763; 0.484909;,
        -0.108737; 0.867763; 0.484909;,
        -0.761711;-0.068514; 0.644246;,
        -0.896908;-0.331828; 0.292215;,
        -0.761711;-0.068514; 0.644246;,
        -0.774987;-0.606922; 0.176000;,
        -0.896908;-0.331828; 0.292215;,
        -0.774987;-0.606922; 0.176000;,
        -0.761711;-0.068514; 0.644246;,
        -0.786035;-0.496200; 0.368603;,
        -0.761711;-0.068514; 0.644246;,
        -0.481582;-0.309549; 0.819880;,
        -0.786035;-0.496200; 0.368603;,
        -0.786035;-0.496200; 0.368603;,
        -0.481582;-0.309549; 0.819880;,
        -0.894070;-0.417341;-0.162542;,
        -0.481582;-0.309549; 0.819880;,
        -0.873989;-0.479934;-0.076022;,
        -0.894070;-0.417341;-0.162542;,
        -0.894070;-0.417341;-0.162542;,
        -0.873989;-0.479934;-0.076022;,
        -0.446272; 0.274239;-0.851833;,
        -0.446272; 0.274239;-0.851833;,
        -0.680990; 0.158269;-0.714927;,
        -0.894070;-0.417341;-0.162542;,
        -0.680990; 0.158269;-0.714927;,
        -0.446272; 0.274239;-0.851833;,
        -0.487838; 0.635639;-0.598254;,
        -0.487838; 0.635639;-0.598254;,
        -0.687399; 0.008850;-0.726188;,
        -0.680990; 0.158269;-0.714927;,
         0.872768; 0.429273; 0.232307;,
         0.554888; 0.702353; 0.445814;,
         0.561418; 0.761315; 0.324259;,
         0.561418; 0.761315; 0.324259;,
         0.957213; 0.288369; 0.023530;,
         0.872768; 0.429273; 0.232307;,
         0.957213; 0.288369; 0.023530;,
         0.561418; 0.761315; 0.324259;,
        -0.108737; 0.867763; 0.484909;,
        -0.108737; 0.867763; 0.484909;,
         0.013764; 0.994049; 0.107761;,
         0.957213; 0.288369; 0.023530;,
         0.091220; 0.760826; 0.642476;,
         0.536180; 0.772759; 0.339549;,
         0.578661; 0.371685; 0.725913;,
         0.536180; 0.772759; 0.339549;,
         0.598773; 0.755516;-0.265755;,
         0.578661; 0.371685; 0.725913;,
         0.598773; 0.755516;-0.265755;,
         0.536180; 0.772759; 0.339549;,
         0.042909; 0.995636; 0.082522;,
         0.824152;-0.551042; 0.130772;,
         0.867763;-0.442244;-0.226630;,
         0.960082; 0.227851; 0.162206;,
         0.867763;-0.442244;-0.226630;,
         0.786798;-0.143681;-0.600238;,
         0.960082; 0.227851; 0.162206;,
         0.960082; 0.227851; 0.162206;,
         0.786798;-0.143681;-0.600238;,
         0.890439; 0.450758; 0.062319;,
         0.786798;-0.143681;-0.600238;,
         0.592151;-0.281808;-0.754906;,
         0.890439; 0.450758; 0.062319;,
         0.890439; 0.450758; 0.062319;,
         0.592151;-0.281808;-0.754906;,
         0.980529; 0.188269; 0.055727;,
        -0.503281;-0.115970; 0.856288;,
         0.056215; 0.540391; 0.839503;,
        -0.661519; 0.671529; 0.333750;,
         0.056215; 0.540391; 0.839503;,
         0.056124; 0.997436;-0.044282;,
        -0.661519; 0.671529; 0.333750;,
        -0.661519; 0.671529; 0.333750;,
         0.056124; 0.997436;-0.044282;,
        -0.518601; 0.604816;-0.604327;,
        -0.518601; 0.604816;-0.604327;,
        -0.996857;-0.062807;-0.047914;,
        -0.661519; 0.671529; 0.333750;,
        -0.661519; 0.671529; 0.333750;,
        -0.996857;-0.062807;-0.047914;,
        -0.503281;-0.115970; 0.856288;,
         0.015473; 0.691519; 0.722160;,
        -0.813135; 0.232917; 0.533372;,
        -0.169469;-0.103763; 0.980041;,
        -0.813135; 0.232917; 0.533372;,
        -0.720786;-0.580554; 0.378613;,
        -0.169469;-0.103763; 0.980041;,
        -0.169469;-0.103763; 0.980041;,
        -0.720786;-0.580554; 0.378613;,
         0.156560;-0.869869; 0.467727;,
         0.156560;-0.869869; 0.467727;,
         0.711386;-0.066073; 0.699667;,
        -0.169469;-0.103763; 0.980041;,
        -0.169469;-0.103763; 0.980041;,
         0.711386;-0.066073; 0.699667;,
         0.015473; 0.691519; 0.722160;,
         0.025361; 0.993805; 0.108127;,
        -0.160375; 0.725089;-0.669668;,
        -0.823969; 0.544847;-0.155583;,
        -0.160375; 0.725089;-0.669668;,
        -0.731956;-0.040345;-0.680135;,
        -0.823969; 0.544847;-0.155583;,
        -0.731956;-0.040345;-0.680135;,
        -0.160375; 0.725089;-0.669668;,
         0.152867;-0.142430;-0.977905;,
        -0.160375; 0.725089;-0.669668;,
         0.711203; 0.524705;-0.467788;,
         0.152867;-0.142430;-0.977905;,
         0.711203; 0.524705;-0.467788;,
        -0.160375; 0.725089;-0.669668;,
         0.025361; 0.993805; 0.108127;;
        152;
        3;0;1;2;,
        3;3;4;5;,
        3;6;7;8;,
        3;9;10;11;,
        3;12;13;14;,
        3;15;16;17;,
        3;18;19;20;,
        3;21;22;23;,
        3;24;25;26;,
        3;27;28;29;,
        3;30;31;32;,
        3;33;34;35;,
        3;36;37;38;,
        3;39;40;41;,
        3;42;43;44;,
        3;45;46;47;,
        3;48;49;50;,
        3;51;52;53;,
        3;54;55;56;,
        3;57;58;59;,
        3;60;61;62;,
        3;63;64;65;,
        3;66;67;68;,
        3;69;70;71;,
        3;72;73;74;,
        3;75;76;77;,
        3;78;79;80;,
        3;81;82;83;,
        3;84;85;86;,
        3;87;88;89;,
        3;90;91;92;,
        3;93;94;95;,
        3;96;97;98;,
        3;99;100;101;,
        3;102;103;104;,
        3;105;106;107;,
        3;108;109;110;,
        3;111;112;113;,
        3;114;115;116;,
        3;117;118;119;,
        3;120;121;122;,
        3;123;124;125;,
        3;126;127;128;,
        3;129;130;131;,
        3;132;133;134;,
        3;135;136;137;,
        3;138;139;140;,
        3;141;142;143;,
        3;144;145;146;,
        3;147;148;149;,
        3;150;151;152;,
        3;153;154;155;,
        3;156;157;158;,
        3;159;160;161;,
        3;162;163;164;,
        3;165;166;167;,
        3;168;169;170;,
        3;171;172;173;,
        3;174;175;176;,
        3;177;178;179;,
        3;180;181;182;,
        3;183;184;185;,
        3;186;187;188;,
        3;189;190;191;,
        3;192;193;194;,
        3;195;196;197;,
        3;198;199;200;,
        3;201;202;203;,
        3;204;205;206;,
        3;207;208;209;,
        3;210;211;212;,
        3;213;214;215;,
        3;216;217;218;,
        3;219;220;221;,
        3;222;223;224;,
        3;225;226;227;,
        3;228;229;230;,
        3;231;232;233;,
        3;234;235;236;,
        3;237;238;239;,
        3;240;241;242;,
        3;243;244;245;,
        3;246;247;248;,
        3;249;250;251;,
        3;252;253;254;,
        3;255;256;257;,
        3;258;259;260;,
        3;261;262;263;,
        3;264;265;266;,
        3;267;268;269;,
        3;270;271;272;,
        3;273;274;275;,
        3;276;277;278;,
        3;279;280;281;,
        3;282;283;284;,
        3;285;286;287;,
        3;288;289;290;,
        3;291;292;293;,
        3;294;295;296;,
        3;297;298;299;,
        3;300;301;302;,
        3;303;304;305;,
        3;306;307;308;,
        3;309;310;311;,
        3;312;313;314;,
        3;315;316;317;,
        3;318;319;320;,
        3;321;322;323;,
        3;324;325;326;,
        3;327;328;329;,
        3;330;331;332;,
        3;333;334;335;,
        3;336;337;338;,
        3;339;340;341;,
        3;342;343;344;,
        3;345;346;347;,
        3;348;349;350;,
        3;351;352;353;,
        3;354;355;356;,
        3;357;358;359;,
        3;360;361;362;,
        3;363;364;365;,
        3;366;367;368;,
        3;369;370;371;,
        3;372;373;374;,
        3;375;376;377;,
        3;378;379;380;,
        3;381;382;383;,
        3;384;385;386;,
        3;387;388;389;,
        3;390;391;392;,
        3;393;394;395;,
        3;396;397;398;,
        3;399;400;401;,
        3;402;403;404;,
        3;405;406;407;,
        3;408;409;410;,
        3;411;412;413;,
        3;414;415;416;,
        3;417;418;419;,
        3;420;421;422;,
        3;423;424;425;,
        3;426;427;428;,
        3;429;430;431;,
        3;432;433;434;,
        3;435;436;437;,
        3;438;439;440;,
        3;441;442;443;,
        3;444;445;446;,
        3;447;448;449;,
        3;450;451;452;,
        3;453;454;455;;
      } //End of Mesh Normals
      MeshMaterialList { //Mesh Material List
        1;
        152;
        0,
        0,
        0,
        0,
        0,
        0,
        0,
        0,
        0,
        0,
        0,
        0,
        0,
        0,
        0,
        0,
        0,
        0,
        0,
        0,
        0,
        0,
        0,
        0,
        0,
        0,
        0,
        0,
        0,
        0,
        0,
        0,
        0,
        0,
        0,
        0,
        0,
        0,
        0,
        0,
        0,
        0,
        0,
        0,
        0,
        0,
        0,
        0,
        0,
        0,
        0,
        0,
        0,
        0,
        0,
        0,
        0,
        0,
        0,
        0,
        0,
        0,
        0,
        0,
        0,
        0,
        0,
        0,
        0,
        0,
        0,
        0,
        0,
        0,
        0,
        0,
        0,
        0,
        0,
        0,
        0,
        0,
        0,
        0,
        0,
        0,
        0,
        0,
        0,
        0,
        0,
        0,
        0,
        0,
        0,
        0,
        0,
        0,
        0,
        0,
        0,
        0,
        0,
        0,
        0,
        0,
        0,
        0,
        0,
        0,
        0,
        0,
        0,
        0,
        0,
        0,
        0,
        0,
        0,
        0,
        0,
        0,
        0,
        0,
        0,
        0,
        0,
        0,
        0,
        0,
        0,
        0,
        0,
        0,
        0,
        0,
        0,
        0,
        0,
        0,
        0,
        0,
        0,
        0,
        0,
        0,
        0,
        0,
        0,
        0,
        0,
        0;;
        Material mat_0 {
           0.640000; 0.640000; 0.640000; 1.000000;;
           92.156863;
           0.250000; 0.250000; 0.250000;;
           0.000000; 0.000000; 0.000000;;
          TextureFilename {"Textures/yungerer_1_0.tga";}
        }
      } //End of Mesh Material List
      MeshTextureCoords { //Mesh UV Coordinates
        456;
         0.076900; 0.939632;,
         0.079696; 0.939942;,
         0.082492; 0.933449;,
         0.079696; 0.939942;,
         0.083216; 0.935830;,
         0.082492; 0.933449;,
         0.085835; 0.934239;,
         0.082492; 0.933449;,
         0.083216; 0.935830;,
         0.083216; 0.935830;,
         0.085647; 0.936608;,
         0.085835; 0.934239;,
         0.085835; 0.934239;,
         0.085647; 0.936608;,
         0.082822; 0.940132;,
         0.085647; 0.936608;,
         0.083475; 0.941052;,
         0.082822; 0.940132;,
         0.082822; 0.940132;,
         0.083475; 0.941052;,
         0.077070; 0.943053;,
         0.083475; 0.941052;,
         0.079834; 0.942734;,
         0.077070; 0.943053;,
         0.077070; 0.943053;,
         0.079834; 0.942734;,
         0.076900; 0.939632;,
         0.079834; 0.942734;,
         0.079696; 0.939942;,
         0.076900; 0.939632;,
         0.060274; 0.916183;,
         0.060800; 0.913515;,
         0.054632; 0.910519;,
         0.060800; 0.913515;,
         0.057274; 0.909762;,
         0.054632; 0.910519;,
         0.054632; 0.910519;,
         0.057274; 0.909762;,
         0.059107; 0.904350;,
         0.057274; 0.909762;,
         0.060026; 0.905450;,
         0.059107; 0.904350;,
         0.059107; 0.904350;,
         0.060026; 0.905450;,
         0.065796; 0.906640;,
         0.060026; 0.905450;,
         0.064395; 0.907498;,
         0.065796; 0.906640;,
         0.065796; 0.906640;,
         0.064395; 0.907498;,
         0.066753; 0.913111;,
         0.064395; 0.907498;,
         0.064789; 0.911304;,
         0.066753; 0.913111;,
         0.066753; 0.913111;,
         0.064789; 0.911304;,
         0.060274; 0.916183;,
         0.064789; 0.911304;,
         0.060800; 0.913515;,
         0.060274; 0.916183;,
         0.056266; 0.910118;,
         0.062014; 0.906988;,
         0.054492; 0.913971;,
         0.062014; 0.906988;,
         0.060906; 0.910521;,
         0.054492; 0.913971;,
         0.054492; 0.913971;,
         0.060906; 0.910521;,
         0.056819; 0.921286;,
         0.060906; 0.910521;,
         0.062481; 0.916415;,
         0.056819; 0.921286;,
         0.056819; 0.921286;,
         0.062481; 0.916415;,
         0.059338; 0.926247;,
         0.062481; 0.916415;,
         0.064942; 0.925983;,
         0.059338; 0.926247;,
         0.059338; 0.926247;,
         0.064942; 0.925983;,
         0.062541; 0.940935;,
         0.064942; 0.925983;,
         0.069110; 0.940800;,
         0.062541; 0.940935;,
         0.062541; 0.940935;,
         0.069110; 0.940800;,
         0.063556; 0.943963;,
         0.069110; 0.940800;,
         0.067846; 0.944441;,
         0.063556; 0.943963;,
         0.065796; 0.906640;,
         0.065704; 0.909669;,
         0.059107; 0.904350;,
         0.065704; 0.909669;,
         0.057565; 0.909384;,
         0.059107; 0.904350;,
         0.059107; 0.904350;,
         0.057565; 0.909384;,
         0.054632; 0.910519;,
         0.057565; 0.909384;,
         0.055939; 0.914164;,
         0.054632; 0.910519;,
         0.054632; 0.910519;,
         0.055939; 0.914164;,
         0.060274; 0.916183;,
         0.055939; 0.914164;,
         0.062366; 0.919622;,
         0.060274; 0.916183;,
         0.060274; 0.916183;,
         0.062366; 0.919622;,
         0.066753; 0.913111;,
         0.062366; 0.919622;,
         0.067800; 0.914852;,
         0.066753; 0.913111;,
         0.066753; 0.913111;,
         0.067800; 0.914852;,
         0.065796; 0.906640;,
         0.067800; 0.914852;,
         0.065704; 0.909669;,
         0.065796; 0.906640;,
         0.070370; 0.929488;,
         0.076900; 0.939632;,
         0.073572; 0.925899;,
         0.076900; 0.939632;,
         0.082492; 0.933449;,
         0.073572; 0.925899;,
         0.073572; 0.925899;,
         0.082492; 0.933449;,
         0.076660; 0.926452;,
         0.076660; 0.926452;,
         0.082492; 0.933449;,
         0.085835; 0.934239;,
         0.076660; 0.926452;,
         0.085835; 0.934239;,
         0.075475; 0.930056;,
         0.085835; 0.934239;,
         0.082822; 0.940132;,
         0.075475; 0.930056;,
         0.075475; 0.930056;,
         0.082822; 0.940132;,
         0.070544; 0.933013;,
         0.082822; 0.940132;,
         0.077070; 0.943053;,
         0.070544; 0.933013;,
         0.070544; 0.933013;,
         0.077070; 0.943053;,
         0.070370; 0.929488;,
         0.077070; 0.943053;,
         0.076900; 0.939632;,
         0.070370; 0.929488;,
         0.066952; 0.909939;,
         0.070503; 0.915312;,
         0.068525; 0.912035;,
         0.070503; 0.915312;,
         0.072868; 0.916680;,
         0.068525; 0.912035;,
         0.068525; 0.912035;,
         0.072868; 0.916680;,
         0.067315; 0.917272;,
         0.072868; 0.916680;,
         0.070852; 0.922363;,
         0.067315; 0.917272;,
         0.073572; 0.925899;,
         0.072092; 0.921488;,
         0.068040; 0.924661;,
         0.073572; 0.925899;,
         0.068040; 0.924661;,
         0.070370; 0.929488;,
         0.068525; 0.912035;,
         0.060906; 0.910521;,
         0.066952; 0.909939;,
         0.060906; 0.910521;,
         0.062014; 0.906988;,
         0.066952; 0.909939;,
         0.066952; 0.909939;,
         0.062014; 0.906988;,
         0.066144; 0.910039;,
         0.062014; 0.906988;,
         0.060848; 0.908181;,
         0.066144; 0.910039;,
         0.066144; 0.910039;,
         0.060848; 0.908181;,
         0.065704; 0.909669;,
         0.060848; 0.908181;,
         0.057565; 0.909384;,
         0.065704; 0.909669;,
         0.070503; 0.915312;,
         0.073028; 0.918701;,
         0.072868; 0.916680;,
         0.073028; 0.918701;,
         0.075130; 0.919139;,
         0.072868; 0.916680;,
         0.072868; 0.916680;,
         0.075130; 0.919139;,
         0.070852; 0.922363;,
         0.075130; 0.919139;,
         0.073321; 0.924608;,
         0.070852; 0.922363;,
         0.064214; 0.949706;,
         0.063548; 0.949520;,
         0.060761; 0.947419;,
         0.063548; 0.949520;,
         0.057996; 0.945695;,
         0.060761; 0.947419;,
         0.060761; 0.947419;,
         0.057996; 0.945695;,
         0.063556; 0.943963;,
         0.057996; 0.945695;,
         0.062541; 0.940935;,
         0.063556; 0.943963;,
         0.063548; 0.949520;,
         0.064214; 0.949706;,
         0.069999; 0.945899;,
         0.064214; 0.949706;,
         0.068191; 0.947247;,
         0.069999; 0.945899;,
         0.069999; 0.945899;,
         0.068191; 0.947247;,
         0.069110; 0.940800;,
         0.068191; 0.947247;,
         0.067846; 0.944441;,
         0.069110; 0.940800;,
         0.059338; 0.926247;,
         0.062541; 0.940935;,
         0.057679; 0.930354;,
         0.062541; 0.940935;,
         0.057996; 0.945695;,
         0.057679; 0.930354;,
         0.057679; 0.930354;,
         0.057996; 0.945695;,
         0.062342; 0.933663;,
         0.057996; 0.945695;,
         0.063548; 0.949520;,
         0.062342; 0.933663;,
         0.062342; 0.933663;,
         0.063548; 0.949520;,
         0.066699; 0.929117;,
         0.063548; 0.949520;,
         0.069999; 0.945899;,
         0.066699; 0.929117;,
         0.066699; 0.929117;,
         0.069999; 0.945899;,
         0.064942; 0.925983;,
         0.069999; 0.945899;,
         0.069110; 0.940800;,
         0.064942; 0.925983;,
         0.065869; 0.929592;,
         0.069978; 0.927586;,
         0.075475; 0.930056;,
         0.065869; 0.929592;,
         0.075475; 0.930056;,
         0.070544; 0.933013;,
         0.068525; 0.912035;,
         0.067315; 0.917272;,
         0.062481; 0.916415;,
         0.068525; 0.912035;,
         0.062481; 0.916415;,
         0.060906; 0.910521;,
         0.069681; 0.914873;,
         0.067800; 0.914852;,
         0.062366; 0.919622;,
         0.069681; 0.914873;,
         0.062366; 0.919622;,
         0.064774; 0.922251;,
         0.070503; 0.915312;,
         0.066952; 0.909939;,
         0.066144; 0.910039;,
         0.070503; 0.915312;,
         0.066144; 0.910039;,
         0.069681; 0.914873;,
         0.067800; 0.914852;,
         0.069681; 0.914873;,
         0.065704; 0.909669;,
         0.069681; 0.914873;,
         0.066144; 0.910039;,
         0.065704; 0.909669;,
         0.062481; 0.916415;,
         0.067315; 0.917272;,
         0.064942; 0.925983;,
         0.067315; 0.917272;,
         0.066699; 0.929117;,
         0.064942; 0.925983;,
         0.066699; 0.929117;,
         0.067315; 0.917272;,
         0.070852; 0.922363;,
         0.070852; 0.922363;,
         0.069978; 0.927586;,
         0.066699; 0.929117;,
         0.066699; 0.929117;,
         0.069978; 0.927586;,
         0.062342; 0.933663;,
         0.069978; 0.927586;,
         0.065869; 0.929592;,
         0.062342; 0.933663;,
         0.062342; 0.933663;,
         0.065869; 0.929592;,
         0.057679; 0.930354;,
         0.065869; 0.929592;,
         0.060449; 0.930162;,
         0.057679; 0.930354;,
         0.057679; 0.930354;,
         0.060449; 0.930162;,
         0.057031; 0.927622;,
         0.060449; 0.930162;,
         0.059130; 0.925450;,
         0.057031; 0.927622;,
         0.057031; 0.927622;,
         0.059130; 0.925450;,
         0.054456; 0.919741;,
         0.059130; 0.925450;,
         0.057618; 0.917677;,
         0.054456; 0.919741;,
         0.054456; 0.919741;,
         0.057618; 0.917677;,
         0.056266; 0.910118;,
         0.057618; 0.917677;,
         0.055939; 0.914164;,
         0.056266; 0.910118;,
         0.056266; 0.910118;,
         0.055939; 0.914164;,
         0.057565; 0.909384;,
         0.057565; 0.909384;,
         0.060848; 0.908181;,
         0.056266; 0.910118;,
         0.056266; 0.910118;,
         0.060848; 0.908181;,
         0.062014; 0.906988;,
         0.060449; 0.930162;,
         0.065869; 0.929592;,
         0.059130; 0.925450;,
         0.065869; 0.929592;,
         0.065814; 0.927217;,
         0.059130; 0.925450;,
         0.059130; 0.925450;,
         0.065814; 0.927217;,
         0.061291; 0.921486;,
         0.065814; 0.927217;,
         0.068040; 0.924661;,
         0.061291; 0.921486;,
         0.061291; 0.921486;,
         0.068040; 0.924661;,
         0.064774; 0.922251;,
         0.068040; 0.924661;,
         0.072092; 0.921488;,
         0.064774; 0.922251;,
         0.064774; 0.922251;,
         0.072092; 0.921488;,
         0.069681; 0.914873;,
         0.072092; 0.921488;,
         0.070503; 0.915312;,
         0.069681; 0.914873;,
         0.070503; 0.915312;,
         0.072092; 0.921488;,
         0.073028; 0.918701;,
         0.072092; 0.921488;,
         0.073572; 0.925899;,
         0.073028; 0.918701;,
         0.073028; 0.918701;,
         0.073572; 0.925899;,
         0.075130; 0.919139;,
         0.073572; 0.925899;,
         0.076660; 0.926452;,
         0.075130; 0.919139;,
         0.075130; 0.919139;,
         0.076660; 0.926452;,
         0.075475; 0.930056;,
         0.075475; 0.930056;,
         0.073321; 0.924608;,
         0.075130; 0.919139;,
         0.073321; 0.924608;,
         0.075475; 0.930056;,
         0.069978; 0.927586;,
         0.069978; 0.927586;,
         0.070852; 0.922363;,
         0.073321; 0.924608;,
         0.059130; 0.925450;,
         0.061291; 0.921486;,
         0.057618; 0.917677;,
         0.061291; 0.921486;,
         0.055939; 0.914164;,
         0.057618; 0.917677;,
         0.055939; 0.914164;,
         0.061291; 0.921486;,
         0.064774; 0.922251;,
         0.064774; 0.922251;,
         0.062366; 0.919622;,
         0.055939; 0.914164;,
         0.068040; 0.924661;,
         0.065814; 0.927217;,
         0.070370; 0.929488;,
         0.065814; 0.927217;,
         0.070544; 0.933013;,
         0.070370; 0.929488;,
         0.070544; 0.933013;,
         0.065814; 0.927217;,
         0.065869; 0.929592;,
         0.056266; 0.910118;,
         0.054492; 0.913971;,
         0.054456; 0.919741;,
         0.054492; 0.913971;,
         0.056819; 0.921286;,
         0.054456; 0.919741;,
         0.054456; 0.919741;,
         0.056819; 0.921286;,
         0.057031; 0.927622;,
         0.056819; 0.921286;,
         0.059338; 0.926247;,
         0.057031; 0.927622;,
         0.057031; 0.927622;,
         0.059338; 0.926247;,
         0.057679; 0.930354;,
         0.280763; 0.978519;,
         0.269605; 0.946743;,
         0.255997; 0.968949;,
         0.269605; 0.946743;,
         0.242643; 0.946743;,
         0.255997; 0.968949;,
         0.255997; 0.968949;,
         0.242643; 0.946743;,
         0.230350; 0.978519;,
         0.230350; 0.978519;,
         0.255504; 0.996499;,
         0.255997; 0.968949;,
         0.255997; 0.968949;,
         0.255504; 0.996499;,
         0.280763; 0.978519;,
         0.269605; 0.946743;,
         0.280763; 0.978519;,
         0.255997; 0.968949;,
         0.280763; 0.978519;,
         0.255504; 0.996499;,
         0.255997; 0.968949;,
         0.255997; 0.968949;,
         0.255504; 0.996499;,
         0.230350; 0.978519;,
         0.230350; 0.978519;,
         0.242643; 0.946743;,
         0.255997; 0.968949;,
         0.255997; 0.968949;,
         0.242643; 0.946743;,
         0.269605; 0.946743;,
         0.280763; 0.978519;,
         0.255997; 0.968949;,
         0.269605; 0.946743;,
         0.255997; 0.968949;,
         0.242643; 0.946743;,
         0.269605; 0.946743;,
         0.242643; 0.946743;,
         0.255997; 0.968949;,
         0.230350; 0.978519;,
         0.255997; 0.968949;,
         0.255504; 0.996499;,
         0.230350; 0.978519;,
         0.255504; 0.996499;,
         0.255997; 0.968949;,
         0.280763; 0.978519;;
      } //End of Mesh UV Coordinates
    } //End of Mesh Mesh
  } //End of yungerer_mat_0
} //End of Root Frame
