xof 0303txt 0032

template AnimTicksPerSecond {
  <9E415A43-7BA6-4a73-8743-B73D47E88476>
  DWORD AnimTicksPerSecond;
}

template XSkinMeshHeader {
  <3cf169ce-ff7c-44ab-93c0-f78f62d172e2>
  WORD nMaxSkinWeightsPerVertex;
  WORD nMaxSkinWeightsPerFace;
  WORD nBones;
}

template SkinWeights {
  <6f0d123b-bad2-4167-a0d0-80224f25fabb>
  STRING transformNodeName;
  DWORD nWeights;
  array DWORD vertexIndices[nWeights];
  array float weights[nWeights];
  Matrix4x4 matrixOffset;
}

Frame Root {
  FrameTransformMatrix {
     1.000000, 0.000000, 0.000000, 0.000000,
     0.000000, 0.000000, 1.000000, 0.000000,
     0.000000, 1.000000,-0.000000, 0.000000,
     0.000000, 0.000000, 0.000000, 1.000000;;
  }
  Frame kekking_mat_0 {
    FrameTransformMatrix {
       1.000000, 0.000000, 0.000000, 0.000000,
       0.000000, 1.000000, 0.000000, 0.000000,
       0.000000, 0.000000, 1.000000, 0.000000,
       0.000000, 0.000000, 0.000000, 1.000000;;
    }
    Mesh { //Mesh Mesh
      108;
       4.277518; 0.810401; 3.654626;,
       4.870689; 0.509435; 3.744764;,
       5.005837; 0.588521; 3.115553;,
       4.870689; 0.509435; 3.744764;,
       5.324019; 0.526461; 3.592968;,
       5.005837; 0.588521; 3.115553;,
       5.411251; 1.112119; 3.022054;,
       5.005837; 0.588521; 3.115553;,
       5.324019; 0.526461; 3.592968;,
       5.324019; 0.526461; 3.592968;,
       5.548894; 0.769792; 3.517172;,
       5.411251; 1.112119; 3.022054;,
       5.411251; 1.112119; 3.022054;,
       5.548894; 0.769792; 3.517172;,
       5.569319; 1.171355; 3.702302;,
       5.569319; 1.171355; 3.702302;,
       5.548894; 0.769792; 3.517172;,
       5.324019; 0.526461; 3.592968;,
       5.569319; 1.171355; 3.702302;,
       5.324019; 0.526461; 3.592968;,
       5.424201; 1.476230; 3.955227;,
       5.324019; 0.526461; 3.592968;,
       4.899782; 1.599027; 4.203866;,
       5.424201; 1.476230; 3.955227;,
       5.424201; 1.476230; 3.955227;,
       4.899782; 1.599027; 4.203866;,
       5.756080; 2.371740; 3.592968;,
       4.899782; 1.599027; 4.203866;,
       4.911356; 2.516937; 4.004277;,
       5.756080; 2.371740; 3.592968;,
       5.756080; 2.371740; 3.592968;,
       4.911356; 2.516937; 4.004277;,
       5.357433; 2.588259; 3.744764;,
       5.357433; 2.588259; 3.744764;,
       5.443422; 2.457395; 3.115553;,
       5.756080; 2.371740; 3.592968;,
       5.756080; 2.371740; 3.592968;,
       5.443422; 2.457395; 3.115553;,
       5.574243; 1.808242; 3.022054;,
       5.574243; 1.808242; 3.022054;,
       5.849555; 2.053878; 3.517172;,
       5.756080; 2.371740; 3.592968;,
       5.756080; 2.371740; 3.592968;,
       5.849555; 2.053878; 3.517172;,
       5.689582; 1.684989; 3.702302;,
       5.849555; 2.053878; 3.517172;,
       5.574243; 1.808242; 3.022054;,
       5.689582; 1.684989; 3.702302;,
       5.689582; 1.684989; 3.702302;,
       5.574243; 1.808242; 3.022054;,
       5.357534; 1.491840; 3.372292;,
       5.357534; 1.491840; 3.372292;,
       5.424201; 1.476230; 3.955227;,
       5.689582; 1.684989; 3.702302;,
       5.689582; 1.684989; 3.702302;,
       5.424201; 1.476230; 3.955227;,
       5.756080; 2.371740; 3.592968;,
       5.424201; 1.476230; 3.955227;,
       5.357534; 1.491840; 3.372292;,
       5.569319; 1.171355; 3.702302;,
       5.357534; 1.491840; 3.372292;,
       5.411251; 1.112119; 3.022054;,
       5.569319; 1.171355; 3.702302;,
       5.443422; 2.457395; 3.115553;,
       5.357433; 2.588259; 3.744764;,
       4.692315; 2.581921; 3.654626;,
       5.357433; 2.588259; 3.744764;,
       4.911356; 2.516937; 4.004277;,
       4.692315; 2.581921; 3.654626;,
       4.283429; 1.743334; 3.817868;,
       4.494697; 1.693867; 4.231578;,
       4.420568; 1.387079; 4.231389;,
       4.494697; 1.693867; 4.231578;,
       4.899782; 1.599027; 4.203866;,
       4.420568; 1.387079; 4.231389;,
       4.420568; 1.387079; 4.231389;,
       4.899782; 1.599027; 4.203866;,
       4.502645; 0.771378; 4.004277;,
       4.899782; 1.599027; 4.203866;,
       5.324019; 0.526461; 3.592968;,
       4.502645; 0.771378; 4.004277;,
       4.502645; 0.771378; 4.004277;,
       5.324019; 0.526461; 3.592968;,
       4.870689; 0.509435; 3.744764;,
       4.870689; 0.509435; 3.744764;,
       4.277518; 0.810401; 3.654626;,
       4.502645; 0.771378; 4.004277;,
       4.494697; 1.693867; 4.231578;,
       4.564471; 2.001675; 4.231389;,
       4.899782; 1.599027; 4.203866;,
       4.564471; 2.001675; 4.231389;,
       4.911356; 2.516937; 4.004277;,
       4.899782; 1.599027; 4.203866;,
       4.911356; 2.516937; 4.004277;,
       4.564471; 2.001675; 4.231389;,
       4.692315; 2.581921; 3.654626;,
       4.502645; 0.771378; 4.004277;,
       4.277518; 0.810401; 3.654626;,
       4.420568; 1.387079; 4.231389;,
       4.277518; 0.810401; 3.654626;,
       4.283429; 1.743334; 3.817868;,
       4.420568; 1.387079; 4.231389;,
       4.494697; 1.693867; 4.231578;,
       4.283429; 1.743334; 3.817868;,
       4.564471; 2.001675; 4.231389;,
       4.283429; 1.743334; 3.817868;,
       4.692315; 2.581921; 3.654626;,
       4.564471; 2.001675; 4.231389;;
      36;
      3;0;1;2;,
      3;3;4;5;,
      3;6;7;8;,
      3;9;10;11;,
      3;12;13;14;,
      3;15;16;17;,
      3;18;19;20;,
      3;21;22;23;,
      3;24;25;26;,
      3;27;28;29;,
      3;30;31;32;,
      3;33;34;35;,
      3;36;37;38;,
      3;39;40;41;,
      3;42;43;44;,
      3;45;46;47;,
      3;48;49;50;,
      3;51;52;53;,
      3;54;55;56;,
      3;57;58;59;,
      3;60;61;62;,
      3;63;64;65;,
      3;66;67;68;,
      3;69;70;71;,
      3;72;73;74;,
      3;75;76;77;,
      3;78;79;80;,
      3;81;82;83;,
      3;84;85;86;,
      3;87;88;89;,
      3;90;91;92;,
      3;93;94;95;,
      3;96;97;98;,
      3;99;100;101;,
      3;102;103;104;,
      3;105;106;107;;
      MeshNormals { //Mesh Normals
        108;
         0.747429; 0.621448;-0.234748;,
         0.048616; 0.909604;-0.412580;,
        -0.221809; 0.899014; 0.377514;,
         0.048616; 0.909604;-0.412580;,
        -0.510208; 0.826868;-0.236518;,
        -0.221809; 0.899014; 0.377514;,
        -0.895138; 0.162267; 0.415174;,
        -0.221809; 0.899014; 0.377514;,
        -0.510208; 0.826868;-0.236518;,
        -0.510208; 0.826868;-0.236518;,
        -0.882504; 0.470138;-0.009583;,
        -0.895138; 0.162267; 0.415174;,
        -0.895138; 0.162267; 0.415174;,
        -0.882504; 0.470138;-0.009583;,
        -0.954436;-0.018677;-0.297800;,
        -0.954436;-0.018677;-0.297800;,
        -0.882504; 0.470138;-0.009583;,
        -0.510208; 0.826868;-0.236518;,
        -0.954436;-0.018677;-0.297800;,
        -0.510208; 0.826868;-0.236518;,
        -0.671590; 0.157231;-0.724021;,
        -0.510208; 0.826868;-0.236518;,
        -0.301401; 0.070559;-0.950865;,
        -0.671590; 0.157231;-0.724021;,
        -0.671590; 0.157231;-0.724021;,
        -0.301401; 0.070559;-0.950865;,
        -0.824274;-0.514389;-0.236518;,
        -0.301401; 0.070559;-0.950865;,
         0.017121;-0.683920;-0.729331;,
        -0.824274;-0.514389;-0.236518;,
        -0.824274;-0.514389;-0.236518;,
         0.017121;-0.683920;-0.729331;,
        -0.360240;-0.836634;-0.412580;,
        -0.360240;-0.836634;-0.412580;,
        -0.597888;-0.707083; 0.377514;,
        -0.824274;-0.514389;-0.236518;,
        -0.824274;-0.514389;-0.236518;,
        -0.597888;-0.707083; 0.377514;,
        -0.874111; 0.251991; 0.415174;,
        -0.874111; 0.251991; 0.415174;,
        -0.999512;-0.029481;-0.009583;,
        -0.824274;-0.514389;-0.236518;,
        -0.824274;-0.514389;-0.236518;,
        -0.999512;-0.029481;-0.009583;,
        -0.846919; 0.440474;-0.297800;,
        -0.999512;-0.029481;-0.009583;,
        -0.874111; 0.251991; 0.415174;,
        -0.846919; 0.440474;-0.297800;,
        -0.846919; 0.440474;-0.297800;,
        -0.874111; 0.251991; 0.415174;,
        -0.946440; 0.221595; 0.234718;,
        -0.946440; 0.221595; 0.234718;,
        -0.671590; 0.157231;-0.724021;,
        -0.846919; 0.440474;-0.297800;,
        -0.846919; 0.440474;-0.297800;,
        -0.671590; 0.157231;-0.724021;,
        -0.824274;-0.514389;-0.236518;,
        -0.671590; 0.157231;-0.724021;,
        -0.946440; 0.221595; 0.234718;,
        -0.954436;-0.018677;-0.297800;,
        -0.946440; 0.221595; 0.234718;,
        -0.895138; 0.162267; 0.415174;,
        -0.954436;-0.018677;-0.297800;,
        -0.597888;-0.707083; 0.377514;,
        -0.360240;-0.836634;-0.412580;,
         0.393841;-0.888668;-0.234748;,
        -0.360240;-0.836634;-0.412580;,
         0.017121;-0.683920;-0.729331;,
         0.393841;-0.888668;-0.234748;,
         0.909665;-0.212989;-0.356487;,
         0.473922;-0.110965;-0.873531;,
         0.513230; 0.136967;-0.847224;,
         0.473922;-0.110965;-0.873531;,
        -0.301401; 0.070559;-0.950865;,
         0.513230; 0.136967;-0.847224;,
         0.513230; 0.136967;-0.847224;,
        -0.301401; 0.070559;-0.950865;,
         0.318949; 0.605213;-0.729331;,
        -0.301401; 0.070559;-0.950865;,
        -0.510208; 0.826868;-0.236518;,
         0.318949; 0.605213;-0.729331;,
         0.318949; 0.605213;-0.729331;,
        -0.510208; 0.826868;-0.236518;,
         0.048616; 0.909604;-0.412580;,
         0.048616; 0.909604;-0.412580;,
         0.747429; 0.621448;-0.234748;,
         0.318949; 0.605213;-0.729331;,
         0.473922;-0.110965;-0.873531;,
         0.399091;-0.350597;-0.847224;,
        -0.301401; 0.070559;-0.950865;,
         0.399091;-0.350597;-0.847224;,
         0.017121;-0.683920;-0.729331;,
        -0.301401; 0.070559;-0.950865;,
         0.017121;-0.683920;-0.729331;,
         0.399091;-0.350597;-0.847224;,
         0.393841;-0.888668;-0.234748;,
         0.318949; 0.605213;-0.729331;,
         0.747429; 0.621448;-0.234748;,
         0.513230; 0.136967;-0.847224;,
         0.747429; 0.621448;-0.234748;,
         0.909665;-0.212989;-0.356487;,
         0.513230; 0.136967;-0.847224;,
         0.473922;-0.110965;-0.873531;,
         0.909665;-0.212989;-0.356487;,
         0.399091;-0.350597;-0.847224;,
         0.909665;-0.212989;-0.356487;,
         0.393841;-0.888668;-0.234748;,
         0.399091;-0.350597;-0.847224;;
        36;
        3;0;1;2;,
        3;3;4;5;,
        3;6;7;8;,
        3;9;10;11;,
        3;12;13;14;,
        3;15;16;17;,
        3;18;19;20;,
        3;21;22;23;,
        3;24;25;26;,
        3;27;28;29;,
        3;30;31;32;,
        3;33;34;35;,
        3;36;37;38;,
        3;39;40;41;,
        3;42;43;44;,
        3;45;46;47;,
        3;48;49;50;,
        3;51;52;53;,
        3;54;55;56;,
        3;57;58;59;,
        3;60;61;62;,
        3;63;64;65;,
        3;66;67;68;,
        3;69;70;71;,
        3;72;73;74;,
        3;75;76;77;,
        3;78;79;80;,
        3;81;82;83;,
        3;84;85;86;,
        3;87;88;89;,
        3;90;91;92;,
        3;93;94;95;,
        3;96;97;98;,
        3;99;100;101;,
        3;102;103;104;,
        3;105;106;107;;
      } //End of Mesh Normals
      MeshMaterialList { //Mesh Material List
        1;
        36;
        0,
        0,
        0,
        0,
        0,
        0,
        0,
        0,
        0,
        0,
        0,
        0,
        0,
        0,
        0,
        0,
        0,
        0,
        0,
        0,
        0,
        0,
        0,
        0,
        0,
        0,
        0,
        0,
        0,
        0,
        0,
        0,
        0,
        0,
        0,
        0;;
        Material mat_0 {
           0.640000; 0.640000; 0.640000; 1.000000;;
           92.156863;
           0.250000; 0.250000; 0.250000;;
           0.000000; 0.000000; 0.000000;;
          TextureFilename {"Textures/kekking_1_0.tga";}
        }
      } //End of Mesh Material List
      MeshTextureCoords { //Mesh UV Coordinates
        108;
         1.073720; 0.860661;,
         1.197800; 0.342061;,
         1.046760;-0.032210;,
         1.197800; 0.342061;,
         1.018030;-0.125840;,
         1.046760;-0.032210;,
         0.266157;-0.237270;,
         1.046760;-0.032210;,
         1.018030;-0.125840;,
         1.018030;-0.125840;,
         0.639035;-0.261470;,
         0.266157;-0.237270;,
         0.266157;-0.237270;,
         0.639035;-0.261470;,
         0.169858;-0.096200;,
         0.639035;-0.261470;,
         1.018030;-0.125840;,
         0.169858;-0.096200;,
         0.169858;-0.096200;,
         1.018030;-0.125840;,
        -0.115917; 0.199616;,
         1.018030;-0.125840;,
        -0.056245; 0.917628;,
        -0.115917; 0.199616;,
        -0.115917; 0.199616;,
        -0.056245; 0.917628;,
         1.018030;-0.125840;,
        -0.056245; 0.917628;,
         1.073720; 0.860661;,
         1.018030;-0.125840;,
         1.018030;-0.125840;,
         1.073720; 0.860661;,
         1.197800; 0.342061;,
         1.197800; 0.342061;,
         1.046760;-0.032210;,
         1.018030;-0.125840;,
         1.018030;-0.125840;,
         1.046760;-0.032210;,
         0.266157;-0.237270;,
         0.266157;-0.237270;,
         0.639035;-0.261470;,
         1.018030;-0.125840;,
         1.018030;-0.125840;,
         0.639035;-0.261470;,
         0.169858;-0.096200;,
         0.639035;-0.261470;,
         0.266157;-0.237270;,
         0.169858;-0.096200;,
         0.169858;-0.096200;,
         0.266157;-0.237270;,
        -0.138542; 0.044120;,
        -0.138542; 0.044120;,
        -0.115917; 0.199616;,
         0.169858;-0.096200;,
         0.169858;-0.096200;,
        -0.115917; 0.199616;,
         1.018030;-0.125840;,
        -0.115917; 0.199616;,
        -0.138542; 0.044120;,
         0.169858;-0.096200;,
        -0.138542; 0.044120;,
         0.266157;-0.237270;,
         0.169858;-0.096200;,
         1.046760;-0.032210;,
         1.197800; 0.342061;,
         1.073720; 0.860661;,
         1.197800; 0.342061;,
         1.063950; 0.860661;,
         1.073720; 0.860661;,
        -0.019624; 1.184961;,
        -0.015962; 1.188624;,
         0.373495; 1.177675;,
        -0.015962; 1.188624;,
        -0.056245; 0.917628;,
         0.373495; 1.177675;,
         0.373495; 1.177675;,
        -0.056245; 0.917628;,
         1.073720; 0.860661;,
        -0.056245; 0.917628;,
         1.018030;-0.125840;,
         1.073720; 0.860661;,
         1.073720; 0.860661;,
         1.018030;-0.125840;,
         1.197800; 0.342061;,
         1.197800; 0.342061;,
         1.068850; 0.866439;,
         1.073720; 0.860661;,
        -0.015962; 1.188624;,
         0.373495; 1.177675;,
        -0.056245; 0.917628;,
         0.373495; 1.177675;,
         1.073720; 0.860661;,
        -0.056245; 0.917628;,
         1.073720; 0.860661;,
         0.373495; 1.177675;,
         1.068850; 0.866439;,
         1.063950; 0.860661;,
         1.073720; 0.860661;,
         0.373495; 1.177675;,
         1.073720; 0.860661;,
        -0.015962; 1.188624;,
         0.373495; 1.177675;,
        -0.019624; 1.184961;,
        -0.015962; 1.188624;,
         0.373495; 1.177675;,
        -0.015962; 1.188624;,
         1.073720; 0.860661;,
         0.373495; 1.177675;;
      } //End of Mesh UV Coordinates
    } //End of Mesh Mesh
  } //End of kekking_mat_0
} //End of Root Frame
