# Blender v2.66 (sub 1) OBJ File: 'BR_Bronzong-Shiny01.blend'
# www.blender.org
mtllib BR_Bronzong-Shiny01.mtl
o dohtakun
v 0.958747 3.317655 0.031924
v 0.958747 3.317655 0.031924
v 1.719306 2.977926 0.031924
v 1.719306 2.977926 0.031924
v 1.946028 3.370621 0.031924
v 1.946028 3.370621 0.031924
v 1.082770 3.737866 0.031924
v 1.082770 3.737866 0.031924
v 2.410527 2.467207 0.031924
v 2.410527 2.467207 0.031924
v 2.977926 1.719306 0.031924
v 2.977926 1.719306 0.031924
v 3.370623 1.946028 0.031924
v 3.370623 1.946028 0.031924
v 2.723640 2.773511 0.031924
v 2.723640 2.773511 0.031924
v 3.323228 0.896742 0.031924
v 3.323228 0.896742 0.031924
v 3.746298 1.010103 0.031924
v 3.746298 1.010103 0.031924
v 3.304068 -0.908783 0.031924
v 3.304068 -0.908783 0.031924
v 2.977926 -1.719306 0.031924
v 2.977926 -1.719306 0.031924
v 3.370623 -1.946027 0.031924
v 3.370623 -1.946027 0.031924
v 3.727139 -1.022144 0.031924
v 3.727139 -1.022144 0.031924
v 2.428028 -2.492543 0.031924
v 2.428028 -2.492543 0.031924
v 2.741140 -2.798848 0.031924
v 2.741140 -2.798848 0.031924
v 1.719306 -2.977925 0.031924
v 1.719306 -2.977925 0.031924
v 0.949445 -3.293805 0.031924
v 0.949445 -3.293805 0.031924
v 1.073469 -3.714020 0.031924
v 1.073469 -3.714020 0.031924
v 1.946028 -3.370622 0.031924
v 1.946028 -3.370622 0.031924
v 1.842404 3.191138 -1.140497
v 1.025687 3.542957 -1.140497
v 3.191137 1.842404 -1.140497
v 2.579746 2.630374 -1.140497
v 3.552931 0.958290 -1.140497
v 3.191137 -1.842403 -1.140497
v 3.533771 -0.970332 -1.140497
v 2.596866 -2.655160 -1.140497
v 1.016588 -3.519629 -1.140497
v 1.842404 -3.191136 -1.140497
v 0.000000 0.004918 -1.257576
v 3.055462 -0.842169 -1.257576
v 3.055462 -0.842169 -1.257576
v 3.172156 0.005180 -1.257576
v 3.172156 0.005180 -1.257576
v 0.000000 0.004996 -9.135355
v 1.103904 -1.767705 -9.135355
v 0.568121 -1.998992 -9.135355
v 0.885471 3.067877 -1.257576
v 0.885471 3.067877 -1.257576
v 1.586078 2.747170 -1.257576
v 1.586078 2.747170 -1.257576
v 2.225749 2.284074 -1.257576
v 2.225749 2.284074 -1.257576
v 2.747169 1.586078 -1.257576
v 2.747169 1.586078 -1.257576
v 3.074621 0.830128 -1.257576
v 3.074621 0.830128 -1.257576
v 2.747169 -1.586078 -1.257576
v 2.747169 -1.586078 -1.257576
v 2.242871 -2.308861 -1.257576
v 2.242871 -2.308861 -1.257576
v 1.586078 -2.747165 -1.257576
v 1.586078 -2.747165 -1.257576
v 0.876370 -3.044547 -1.257576
v 0.876370 -3.044547 -1.257576
v 1.812030 -1.013775 -9.135355
v 1.464193 -1.455416 -9.135355
v 0.961926 -3.334420 -2.672707
v 1.742477 -3.018056 -2.672707
v 2.458863 -2.520157 -2.672707
v 3.018057 -1.742476 -2.672707
v 3.347304 -0.920368 -2.672707
v 3.366464 0.908326 -2.672707
v 3.018057 1.742476 -2.672707
v 2.441740 2.495371 -2.672707
v 1.742475 3.018057 -2.672707
v 0.971025 3.357748 -2.672707
v 0.802759 -2.795141 -8.154706
v 0.802759 -2.795141 -8.154706
v 1.451512 -2.514093 -8.154706
v 1.451512 -2.514093 -8.154706
v 2.057030 -2.127059 -8.154706
v 2.057030 -2.127059 -8.154706
v 2.514092 -1.451511 -8.154706
v 2.514092 -1.451511 -8.154706
v 2.804356 -0.774886 -8.154706
v 2.804356 -0.774886 -8.154706
v 2.823516 0.762845 -8.154706
v 2.823516 0.762845 -8.154706
v 2.514092 1.451512 -8.154706
v 2.514092 1.451512 -8.154706
v 2.039907 2.102274 -8.154706
v 2.039907 2.102274 -8.154706
v 1.451512 2.514093 -8.154706
v 1.451512 2.514093 -8.154706
v 0.811860 2.818469 -8.154706
v 0.811860 2.818469 -8.154706
v 0.860252 2.982426 -8.301090
v 1.539975 2.667315 -8.301090
v 1.591307 2.756224 -8.655000
v 0.888331 3.077567 -8.655000
v 1.539975 -2.667314 -8.301090
v 0.851151 -2.959098 -8.301090
v 0.879231 -3.054239 -8.655000
v 1.591307 -2.756223 -8.655000
v 2.162077 2.221788 -8.301090
v 2.667314 1.539975 -8.301090
v 2.756224 1.591307 -8.655000
v 2.232970 2.291140 -8.655000
v 2.667315 -1.539974 -8.301090
v 2.179200 -2.246572 -8.301090
v 2.250091 -2.315922 -8.655000
v 2.756224 -1.591307 -8.655000
v 2.988590 0.807076 -8.301090
v 3.084377 0.832742 -8.655000
v 2.969431 -0.819117 -8.301090
v 3.065218 -0.844784 -8.655000
v 1.348661 2.335949 -9.135355
v 0.754963 2.623284 -9.135355
v 0.829665 2.876384 -9.028185
v 0.829665 2.876384 -9.028185
v 1.485220 2.572477 -9.028185
v 1.485220 2.572477 -9.028185
v 0.746186 -2.600783 -9.135355
v 1.348663 -2.335953 -9.135355
v 1.485220 -2.572476 -9.028185
v 1.485220 -2.572476 -9.028185
v 0.820888 -2.853886 -9.028185
v 0.820888 -2.853886 -9.028185
v 2.335953 1.348661 -9.135355
v 1.896614 1.958300 -9.135355
v 2.085203 2.142792 -9.028185
v 2.085203 2.142792 -9.028185
v 2.572476 1.485220 -9.028185
v 2.572476 1.485220 -9.028185
v 1.913125 -1.982203 -9.135355
v 2.335953 -1.348661 -9.135355
v 2.572477 -1.485219 -9.028185
v 2.572477 -1.485219 -9.028185
v 2.101717 -2.166694 -9.028185
v 2.101717 -2.166694 -9.028185
v 2.627508 0.710100 -9.135355
v 2.882329 0.778380 -9.028185
v 2.882329 0.778380 -9.028185
v 2.609029 -0.721714 -9.135355
v 2.863851 -0.789993 -9.028185
v 2.863851 -0.789993 -9.028185
v 1.034418 1.817953 -9.135355
v 0.577081 2.021963 -9.135355
v 1.795853 1.063268 -9.135355
v 1.447336 1.520946 -9.135355
v 2.013724 0.547932 -9.135355
v 2.002947 -0.514821 -9.135355
v 0.000000 -2.903023 -8.154706
v 0.000000 -2.903023 -8.154706
v 0.000000 -3.079949 -8.301089
v 0.000000 -3.182614 -8.655000
v 0.000000 -2.970440 -9.028185
v 0.000000 -2.970440 -9.028185
v 0.000000 -2.697321 -9.135355
v 0.000000 -2.045651 -9.135355
v 0.000000 2.697322 -9.135355
v 0.000000 2.045651 -9.135355
v 0.000000 2.970440 -9.028183
v 0.000000 2.970440 -9.028183
v 0.000000 3.182614 -8.655000
v 0.000000 3.079949 -8.301090
v 0.000000 2.903023 -8.154705
v 0.000000 2.903023 -8.154705
v 0.000000 3.484953 -2.672707
v 0.000000 3.684807 -1.140497
v 0.000000 3.892056 0.031924
v 0.000000 3.892056 0.031924
v 0.000000 3.438613 0.031924
v 0.000000 3.438613 0.031924
v 0.000000 3.172156 -1.257576
v 0.000000 3.172156 -1.257576
v 0.000000 -3.172156 -1.257576
v 0.000000 -3.172156 -1.257576
v 0.000000 -3.438612 0.031924
v 0.000000 -3.438612 0.031924
v 0.000000 -3.892055 0.031924
v 0.000000 -3.892055 0.031924
v 0.000000 -3.684807 -1.140497
v 0.000000 -3.484955 -2.672706
v 3.438613 0.005180 0.031924
v 3.438613 0.005180 0.031924
v 3.892056 0.005180 0.031924
v 3.892056 0.005180 0.031924
v 3.684807 0.005180 -1.140497
v 3.484954 0.005180 -2.672707
v 2.903023 0.005180 -8.154706
v 2.903023 0.005180 -8.154706
v 3.079949 0.005180 -8.301090
v 3.182614 0.005180 -8.655000
v 2.970440 0.004996 -9.028185
v 2.970440 0.004996 -9.028185
v 2.697321 0.004996 -9.135355
v 2.078004 0.005101 -9.135355
v -0.958748 3.317655 0.031924
v -0.958748 3.317655 0.031924
v -1.082771 3.737866 0.031924
v -1.082771 3.737866 0.031924
v -1.946029 3.370621 0.031924
v -1.946029 3.370621 0.031924
v -1.719307 2.977926 0.031924
v -1.719307 2.977926 0.031924
v -2.410528 2.467207 0.031924
v -2.410528 2.467207 0.031924
v -2.723641 2.773511 0.031924
v -2.723641 2.773511 0.031924
v -3.370624 1.946028 0.031924
v -3.370624 1.946028 0.031924
v -2.977926 1.719306 0.031924
v -2.977926 1.719306 0.031924
v -3.746299 1.010103 0.031924
v -3.746299 1.010103 0.031924
v -3.323228 0.896742 0.031924
v -3.323228 0.896742 0.031924
v -3.304068 -0.908783 0.031924
v -3.304068 -0.908783 0.031924
v -3.727139 -1.022144 0.031924
v -3.727139 -1.022144 0.031924
v -3.370624 -1.946027 0.031924
v -3.370624 -1.946027 0.031924
v -2.977926 -1.719306 0.031924
v -2.977926 -1.719306 0.031924
v -2.741141 -2.798848 0.031924
v -2.741141 -2.798848 0.031924
v -2.428028 -2.492543 0.031924
v -2.428028 -2.492543 0.031924
v -1.719307 -2.977925 0.031924
v -1.719307 -2.977925 0.031924
v -1.946029 -3.370622 0.031924
v -1.946029 -3.370622 0.031924
v -1.073469 -3.714020 0.031924
v -1.073469 -3.714020 0.031924
v -0.949446 -3.293805 0.031924
v -0.949446 -3.293805 0.031924
v -1.025688 3.542957 -1.140497
v -1.842404 3.191137 -1.140497
v -2.579746 2.630374 -1.140497
v -3.191138 1.842404 -1.140497
v -3.552932 0.958290 -1.140497
v -3.533772 -0.970332 -1.140497
v -3.191138 -1.842403 -1.140497
v -2.596866 -2.655160 -1.140497
v -1.842404 -3.191136 -1.140497
v -1.016589 -3.519629 -1.140497
v -3.172157 0.005180 -1.257576
v -3.172157 0.005180 -1.257576
v -3.055462 -0.842169 -1.257576
v -3.055462 -0.842169 -1.257576
v -0.568122 -1.998992 -9.135355
v -1.103905 -1.767705 -9.135355
v -1.586079 2.747170 -1.257576
v -1.586079 2.747170 -1.257576
v -0.885472 3.067877 -1.257576
v -0.885472 3.067877 -1.257576
v -2.747170 1.586078 -1.257576
v -2.747170 1.586078 -1.257576
v -2.225749 2.284074 -1.257576
v -2.225749 2.284074 -1.257576
v -3.074622 0.830128 -1.257576
v -3.074622 0.830128 -1.257576
v -2.747170 -1.586078 -1.257576
v -2.747170 -1.586078 -1.257576
v -2.242872 -2.308861 -1.257576
v -2.242872 -2.308861 -1.257576
v -0.876371 -3.044547 -1.257576
v -0.876371 -3.044547 -1.257576
v -1.586079 -2.747165 -1.257576
v -1.586079 -2.747165 -1.257576
v -1.464194 -1.455416 -9.135355
v -1.812031 -1.013775 -9.135354
v -1.742478 -3.018056 -2.672707
v -0.961926 -3.334420 -2.672707
v -3.018058 -1.742476 -2.672707
v -2.458864 -2.520156 -2.672707
v -3.347305 -0.920368 -2.672707
v -3.018058 1.742476 -2.672707
v -3.366465 0.908326 -2.672707
v -2.441741 2.495371 -2.672707
v -0.971026 3.357747 -2.672707
v -1.742476 3.018057 -2.672707
v -1.451512 -2.514093 -8.154706
v -1.451512 -2.514093 -8.154706
v -0.802760 -2.795141 -8.154706
v -0.802760 -2.795141 -8.154706
v -2.514093 -1.451512 -8.154706
v -2.514093 -1.451512 -8.154706
v -2.057031 -2.127059 -8.154706
v -2.057031 -2.127059 -8.154706
v -2.804357 -0.774886 -8.154706
v -2.804357 -0.774886 -8.154706
v -2.514093 1.451512 -8.154706
v -2.514093 1.451512 -8.154706
v -2.823517 0.762845 -8.154706
v -2.823517 0.762845 -8.154706
v -2.039908 2.102274 -8.154706
v -2.039908 2.102274 -8.154706
v -0.811860 2.818468 -8.154704
v -0.811860 2.818468 -8.154704
v -1.451512 2.514092 -8.154706
v -1.451512 2.514092 -8.154706
v -0.860252 2.982426 -8.301090
v -0.888332 3.077567 -8.655000
v -1.591308 2.756224 -8.655000
v -1.539975 2.667315 -8.301090
v -1.539975 -2.667314 -8.301090
v -1.591308 -2.756223 -8.655000
v -0.879232 -3.054239 -8.655000
v -0.851151 -2.959098 -8.301090
v -2.162078 2.221788 -8.301090
v -2.232971 2.291140 -8.655000
v -2.756224 1.591307 -8.655000
v -2.667315 1.539975 -8.301090
v -2.667315 -1.539974 -8.301090
v -2.756225 -1.591307 -8.655000
v -2.250092 -2.315922 -8.655000
v -2.179201 -2.246572 -8.301090
v -3.084378 0.832742 -8.655000
v -2.988591 0.807076 -8.301090
v -2.969431 -0.819117 -8.301090
v -3.065218 -0.844784 -8.655000
v -1.348662 2.335949 -9.135355
v -1.485221 2.572477 -9.028185
v -1.485221 2.572477 -9.028185
v -0.829666 2.876384 -9.028185
v -0.829666 2.876384 -9.028185
v -0.754964 2.623284 -9.135355
v -0.746187 -2.600783 -9.135355
v -0.820888 -2.853886 -9.028185
v -0.820888 -2.853886 -9.028185
v -1.485221 -2.572476 -9.028184
v -1.485221 -2.572476 -9.028184
v -1.348664 -2.335952 -9.135355
v -2.335953 1.348661 -9.135355
v -2.572477 1.485220 -9.028185
v -2.572477 1.485220 -9.028185
v -2.085204 2.142792 -9.028185
v -2.085204 2.142792 -9.028185
v -1.896615 1.958300 -9.135356
v -1.913126 -1.982203 -9.135355
v -2.101718 -2.166694 -9.028184
v -2.101718 -2.166694 -9.028184
v -2.572478 -1.485219 -9.028184
v -2.572478 -1.485219 -9.028184
v -2.335953 -1.348661 -9.135355
v -2.627509 0.710100 -9.135354
v -2.882330 0.778380 -9.028184
v -2.882330 0.778380 -9.028184
v -2.863852 -0.789993 -9.028184
v -2.863852 -0.789993 -9.028184
v -2.609030 -0.721714 -9.135355
v -0.577082 2.021963 -9.135355
v -1.034418 1.817953 -9.135355
v -1.447337 1.520946 -9.135355
v -1.795854 1.063268 -9.135355
v -2.013725 0.547932 -9.135355
v -2.002948 -0.514821 -9.135354
v -3.438614 0.005180 0.031924
v -3.438614 0.005180 0.031924
v -3.892057 0.005180 0.031924
v -3.892057 0.005180 0.031924
v -3.684808 0.005180 -1.140497
v -3.484955 0.005180 -2.672707
v -2.903024 0.005180 -8.154706
v -2.903024 0.005180 -8.154706
v -3.079950 0.005180 -8.301090
v -3.182614 0.005180 -8.655000
v -2.970441 0.004996 -9.028185
v -2.970441 0.004996 -9.028185
v -2.697322 0.004996 -9.135355
v -2.078005 0.005101 -9.135355
v 2.236659 2.963499 -1.692255
v 2.402604 2.835762 -1.879553
v 2.146895 3.082707 -2.373352
v 2.095233 3.122787 -2.317247
v 1.590317 3.340580 -1.878014
v 1.779892 3.247369 -1.691390
v 1.984607 3.191538 -2.317037
v 1.925643 3.220211 -2.372933
v 1.382711 3.379323 -2.534586
v 1.429466 3.396284 -2.200024
v 1.889826 3.230489 -2.457042
v 1.868201 3.230536 -2.551082
v 1.504405 3.206358 -3.195898
v 1.385708 3.327920 -2.871266
v 1.877561 3.211328 -2.645180
v 1.902405 3.183906 -2.729404
v 1.893032 2.924253 -3.446839
v 1.669540 3.074954 -3.380927
v 1.954067 3.143826 -2.785510
v 2.008218 3.107635 -2.803441
v 2.316691 2.701540 -3.197437
v 2.126306 2.791084 -3.381793
v 2.064693 3.075074 -2.785719
v 2.123657 3.046402 -2.729824
v 2.528633 2.667157 -2.536757
v 2.480345 2.647627 -2.873339
v 2.159474 3.036124 -2.645714
v 2.181099 3.036077 -2.551675
v 2.524103 2.715991 -2.202098
v 2.171739 3.055286 -2.457577
v 2.029379 3.140919 -2.552462
v 2.041082 3.158978 -2.299315
v 2.012355 3.110693 -1.622942
v 2.138352 2.757489 -1.553064
v 2.320701 2.618208 -1.761161
v 1.638639 3.068030 -1.552211
v 1.893414 2.918977 -1.470447
v 1.253831 3.231789 -2.128232
v 1.431297 3.170971 -1.759395
v 1.204520 3.154502 -2.886481
v 1.199850 3.213424 -2.505962
v 1.513267 2.873775 -3.461872
v 1.333387 3.018553 -3.257815
v 2.014455 2.562291 -3.462916
v 1.758162 2.707654 -3.540432
v 2.404908 2.408532 -2.888349
v 2.223303 2.465494 -3.259418
v 2.454393 2.485593 -2.130912
v 2.460983 2.429653 -2.508352
v -2.236659 2.963499 -1.692255
v -2.095233 3.122787 -2.317247
v -2.146895 3.082707 -2.373352
v -2.402604 2.835762 -1.879553
v -1.590317 3.340580 -1.878014
v -1.925643 3.220211 -2.372933
v -1.984607 3.191538 -2.317037
v -1.779892 3.247369 -1.691390
v -1.382711 3.379323 -2.534586
v -1.868201 3.230536 -2.551082
v -1.889826 3.230489 -2.457042
v -1.429466 3.396284 -2.200024
v -1.504405 3.206358 -3.195898
v -1.902405 3.183906 -2.729404
v -1.877561 3.211328 -2.645180
v -1.385708 3.327920 -2.871266
v -1.893032 2.924253 -3.446839
v -2.008218 3.107635 -2.803441
v -1.954067 3.143826 -2.785510
v -1.669540 3.074954 -3.380927
v -2.316691 2.701540 -3.197437
v -2.123657 3.046402 -2.729824
v -2.064693 3.075074 -2.785719
v -2.126306 2.791084 -3.381793
v -2.528633 2.667157 -2.536757
v -2.181099 3.036077 -2.551675
v -2.159474 3.036124 -2.645714
v -2.480345 2.647627 -2.873339
v -2.171739 3.055286 -2.457577
v -2.524103 2.715991 -2.202098
v -2.029379 3.140919 -2.552462
v -2.041082 3.158978 -2.299315
v -2.012355 3.110693 -1.622942
v -2.320701 2.618208 -1.761161
v -2.138352 2.757489 -1.553064
v -1.893414 2.918977 -1.470447
v -1.638639 3.068030 -1.552211
v -1.431297 3.170971 -1.759395
v -1.253831 3.231789 -2.128232
v -1.199850 3.213424 -2.505962
v -1.204520 3.154502 -2.886481
v -1.333387 3.018553 -3.257815
v -1.513267 2.873775 -3.461872
v -1.758162 2.707654 -3.540432
v -2.014455 2.562291 -3.462916
v -2.223303 2.465494 -3.259418
v -2.404908 2.408532 -2.888349
v -2.460983 2.429653 -2.508352
v -2.454393 2.485593 -2.130912
v 0.505332 -0.505117 -11.056177
v 0.505332 -0.505117 -11.056177
v 0.281420 -0.505117 -11.159184
v 0.281420 -0.505117 -11.159184
v 0.911525 -0.505117 -12.193733
v 1.362494 -0.505117 -11.944004
v 0.000000 -0.505117 -11.211911
v 0.000000 -0.505117 -11.211911
v 0.000000 -0.505117 -11.211911
v 0.000000 -0.505117 -11.211911
v 0.000000 -0.505117 -12.385589
v 0.000000 -0.505117 -12.385589
v 1.103917 -0.505117 -9.012116
v 1.103917 -0.505117 -9.012116
v 0.970441 -0.505117 -10.400775
v 0.970441 -0.505117 -10.400775
v 2.319348 -0.505117 -10.667425
v 1.863117 -0.505117 -12.978908
v 1.863117 -0.505117 -12.978908
v 1.528943 -0.505117 -12.895582
v 1.528943 -0.505117 -12.895582
v 1.528943 0.505117 -12.895582
v 1.528943 0.505117 -12.895582
v 1.863117 0.505117 -12.978908
v 1.863117 0.505117 -12.978908
v 1.174453 -0.505117 -12.625427
v 1.174453 -0.505117 -12.625427
v 0.000000 -0.505117 -12.875340
v 0.000000 -0.505117 -12.875340
v 0.000000 -0.505117 -12.875340
v 0.000000 -0.505117 -12.875340
v 0.000000 0.505117 -12.875340
v 0.000000 0.505117 -12.875340
v 0.000000 0.505117 -12.875340
v 0.000000 0.505117 -12.875340
v 1.174453 0.505117 -12.625427
v 1.174453 0.505117 -12.625427
v 2.870407 -0.505117 -10.778691
v 2.870407 -0.505117 -10.778691
v 2.870407 0.505117 -10.778691
v 2.870407 0.505117 -10.778691
v 1.720169 0.505117 -12.314475
v 0.281420 0.505117 -11.159184
v 0.281420 0.505117 -11.159184
v 0.505332 0.505117 -11.056177
v 0.505332 0.505117 -11.056177
v 0.000000 0.505117 -11.211911
v 0.000000 0.505117 -11.211911
v 0.000000 0.505117 -11.211911
v 0.000000 0.505117 -11.211911
v 0.970441 0.505117 -10.400775
v 0.970441 0.505117 -10.400775
v 1.285409 -0.505117 -6.284535
v 1.285409 -0.505117 -6.284535
v 1.285409 -0.505117 -6.284535
v 1.103917 0.505117 -9.012116
v 1.103917 0.505117 -9.012116
v 1.285409 0.505117 -6.284535
v 1.285409 0.505117 -6.284535
v 1.285409 0.505117 -6.284535
v 2.567103 0.505117 -11.340319
v 2.224747 0.505117 -11.813104
v 2.224747 0.505117 -11.813104
v 2.224747 0.505117 -11.813104
v 0.729244 0.505117 -10.878570
v 0.729244 0.505117 -10.878570
v 0.882284 0.505117 -10.657965
v 0.882284 0.505117 -10.657965
v 2.887509 -0.505117 -12.052101
v 2.887509 -0.505117 -12.052101
v 2.415253 -0.505117 -12.018661
v 2.415253 -0.505117 -12.018661
v 2.415253 0.505117 -12.018661
v 2.415253 0.505117 -12.018661
v 2.887509 0.505117 -12.052101
v 2.887509 0.505117 -12.052101
v 0.882284 -0.505117 -10.657965
v 0.882284 -0.505117 -10.657965
v 0.729244 -0.505117 -10.878571
v 0.729244 -0.505117 -10.878571
v 1.784438 -0.505117 -11.537957
v 2.071055 -0.505117 -11.139420
v 1.720169 -0.505117 -12.314475
v 2.224747 -0.505117 -11.813104
v 2.224747 -0.505117 -11.813104
v 2.224747 -0.505117 -11.813104
v 2.416614 -0.505117 -12.017315
v 2.416614 -0.505117 -12.017315
v 2.416614 0.505117 -12.017315
v 2.416614 0.505117 -12.017315
v 2.567103 -0.505117 -11.340319
v 3.206597 -0.505117 -11.017148
v 3.206597 -0.505117 -11.017148
v 3.206597 0.505117 -11.017148
v 3.206597 0.505117 -11.017148
v 2.458800 0.505117 -12.422050
v 2.458800 0.505117 -12.422050
v 2.458800 -0.505117 -12.422050
v 2.458800 -0.505117 -12.422050
v 2.271760 -0.505117 -12.817932
v 2.271760 -0.505117 -12.817932
v 2.271760 0.505117 -12.817932
v 2.271760 0.505117 -12.817932
v 3.372502 0.505117 -11.382786
v 3.372502 0.505117 -11.382786
v 3.372502 -0.505117 -11.382786
v 3.372502 -0.505117 -11.382786
v 3.263067 0.505117 -11.793696
v 3.263067 0.505117 -11.793696
v 3.263067 -0.505117 -11.793696
v 3.263067 -0.505117 -11.793696
v -0.505332 -0.505117 -11.056177
v -0.505332 -0.505117 -11.056177
v -1.362495 -0.505117 -11.944004
v -0.911525 -0.505117 -12.193733
v -0.281420 -0.505117 -11.159184
v -0.281420 -0.505117 -11.159184
v -2.319349 -0.505117 -10.667425
v -0.970442 -0.505117 -10.400775
v -0.970442 -0.505117 -10.400775
v -1.103918 -0.505117 -9.012116
v -1.103918 -0.505117 -9.012116
v -1.863118 -0.505117 -12.978908
v -1.863118 -0.505117 -12.978908
v -1.863118 0.505117 -12.978908
v -1.863118 0.505117 -12.978908
v -1.528944 0.505117 -12.895582
v -1.528944 0.505117 -12.895582
v -1.528944 -0.505117 -12.895582
v -1.528944 -0.505117 -12.895582
v -1.174454 -0.505117 -12.625427
v -1.174454 -0.505117 -12.625427
v -1.174454 0.505117 -12.625427
v -1.174454 0.505117 -12.625427
v -2.870408 0.505117 -10.778691
v -2.870408 0.505117 -10.778691
v -2.870408 -0.505117 -10.778691
v -2.870408 -0.505117 -10.778691
v -1.720170 0.505117 -12.314475
v -0.505332 0.505117 -11.056177
v -0.505332 0.505117 -11.056177
v -0.281420 0.505117 -11.159184
v -0.281420 0.505117 -11.159184
v -0.970442 0.505117 -10.400775
v -0.970442 0.505117 -10.400775
v -1.285410 -0.505117 -6.284535
v -1.285410 -0.505117 -6.284535
v -1.285410 -0.505117 -6.284535
v -1.285410 0.505117 -6.284535
v -1.285410 0.505117 -6.284535
v -1.285410 0.505117 -6.284535
v -1.103918 0.505117 -9.012116
v -1.103918 0.505117 -9.012116
v -2.567104 0.505117 -11.340319
v -0.882285 0.505117 -10.657965
v -0.882285 0.505117 -10.657965
v -0.729244 0.505117 -10.878570
v -0.729244 0.505117 -10.878570
v -2.224748 0.505117 -11.813104
v -2.224748 0.505117 -11.813104
v -2.224748 0.505117 -11.813104
v -2.887510 -0.505117 -12.052101
v -2.887510 -0.505117 -12.052101
v -2.887510 0.505117 -12.052101
v -2.887510 0.505117 -12.052101
v -2.415254 0.505117 -12.018661
v -2.415254 0.505117 -12.018661
v -2.415254 -0.505117 -12.018661
v -2.415254 -0.505117 -12.018661
v -0.882285 -0.505117 -10.657965
v -0.882285 -0.505117 -10.657965
v -2.071056 -0.505117 -11.139419
v -1.784439 -0.505117 -11.537956
v -0.729245 -0.505117 -10.878571
v -0.729245 -0.505117 -10.878571
v -1.720170 -0.505117 -12.314475
v -2.416615 0.505117 -12.017315
v -2.416615 0.505117 -12.017315
v -2.416615 -0.505117 -12.017315
v -2.416615 -0.505117 -12.017315
v -2.224748 -0.505117 -11.813104
v -2.224748 -0.505117 -11.813104
v -2.224748 -0.505117 -11.813104
v -2.567104 -0.505117 -11.340319
v -3.206598 0.505117 -11.017148
v -3.206598 0.505117 -11.017148
v -3.206598 -0.505117 -11.017148
v -3.206598 -0.505117 -11.017148
v -2.458801 0.505117 -12.422050
v -2.458801 0.505117 -12.422050
v -2.458801 -0.505117 -12.422050
v -2.458801 -0.505117 -12.422050
v -2.271760 0.505117 -12.817932
v -2.271760 0.505117 -12.817932
v -2.271760 -0.505117 -12.817932
v -2.271760 -0.505117 -12.817932
v -3.372503 0.505117 -11.382786
v -3.372503 0.505117 -11.382786
v -3.372503 -0.505117 -11.382786
v -3.372503 -0.505117 -11.382786
v -3.263068 0.505117 -11.793696
v -3.263068 0.505117 -11.793696
v -3.263068 -0.505117 -11.793696
v -3.263068 -0.505117 -11.793696
v 10.137287 -0.505778 -4.587963
v 10.137287 -0.505778 -4.587963
v 10.137287 0.505778 -4.587963
v 10.137287 0.505778 -4.587963
v 8.702025 0.505778 -2.843054
v 8.702025 0.505778 -2.843054
v 8.702025 -0.505778 -2.843054
v 8.702025 -0.505778 -2.843054
v 10.091616 0.505117 -4.793113
v 10.091616 0.505117 -4.793113
v 10.091616 -0.505117 -4.793113
v 10.091616 -0.505117 -4.793113
v 8.465249 0.505117 -2.872524
v 8.465249 0.505117 -2.872524
v 8.465249 -0.505117 -2.872524
v 8.465249 -0.505117 -2.872524
v -10.137288 -0.505778 -4.587963
v -10.137288 -0.505778 -4.587963
v -8.702026 -0.505778 -2.843054
v -8.702026 -0.505778 -2.843054
v -8.702026 0.505778 -2.843054
v -8.702026 0.505778 -2.843054
v -10.137288 0.505778 -4.587963
v -10.137288 0.505778 -4.587963
v -10.091617 -0.505117 -4.793113
v -10.091617 -0.505117 -4.793113
v -10.091617 0.505117 -4.793113
v -10.091617 0.505117 -4.793113
v -8.465250 0.505117 -2.872524
v -8.465250 0.505117 -2.872524
v -8.465250 -0.505117 -2.872524
v -8.465250 -0.505117 -2.872524
v 3.260296 -0.505117 -9.972730
v 3.260296 -0.505117 -9.972730
v 3.260296 0.505117 -9.972729
v 3.260296 0.505117 -9.972729
v 3.304560 -0.505117 -7.613819
v 3.304560 -0.505117 -7.613819
v 3.588500 -0.505117 -7.429271
v 3.588500 -0.505117 -7.429271
v 3.588500 0.505117 -7.429270
v 3.588500 0.505117 -7.429270
v 3.304560 0.505117 -7.613818
v 3.304560 0.505117 -7.613818
v 4.015712 -0.505117 -9.159747
v 4.015712 -0.505117 -9.159747
v 4.015712 0.505117 -9.159747
v 4.015712 0.505117 -9.159747
v 5.189234 0.505117 -8.250772
v 5.189234 0.505117 -8.250772
v 5.189234 -0.505117 -8.250772
v 5.189234 -0.505117 -8.250772
v 5.999734 -0.505117 -7.659462
v 5.999734 -0.505117 -7.659462
v 5.999734 0.505117 -7.659462
v 5.999734 0.505117 -7.659462
v 4.196556 0.505117 -6.943932
v 4.196556 0.505117 -6.943932
v 4.884977 0.505117 -6.318516
v 4.884977 0.505117 -6.318516
v 4.196557 -0.505117 -6.943932
v 4.196557 -0.505117 -6.943932
v 4.884977 -0.505117 -6.318517
v 4.884977 -0.505117 -6.318517
v 6.806988 0.505117 -7.051310
v 6.806988 0.505117 -7.051310
v 6.806988 -0.505117 -7.051310
v 6.806988 -0.505117 -7.051310
v 9.106341 -0.505117 -5.444533
v 9.106341 -0.505117 -5.444533
v 9.106341 0.505117 -5.444533
v 9.106341 0.505117 -5.444533
v 5.602201 0.505117 -5.646307
v 5.602201 0.505117 -5.646307
v 7.624553 0.505117 -3.685431
v 7.624553 0.505117 -3.685431
v 7.624553 -0.505117 -3.685431
v 7.624553 -0.505117 -3.685431
v 5.602202 -0.505117 -5.646307
v 5.602202 -0.505117 -5.646307
v 7.868283 -0.505117 -6.278874
v 7.868283 -0.505117 -6.278874
v 7.868283 0.505117 -6.278874
v 7.868283 0.505117 -6.278874
v 6.552603 -0.505117 -4.745567
v 6.552603 -0.505117 -4.745567
v 6.552603 0.505117 -4.745566
v 6.552603 0.505117 -4.745566
v -3.260297 -0.505117 -9.972730
v -3.260297 -0.505117 -9.972730
v -3.260297 0.505117 -9.972729
v -3.260297 0.505117 -9.972729
v -3.304562 -0.505117 -7.613819
v -3.304562 -0.505117 -7.613819
v -3.304562 0.505117 -7.613819
v -3.304562 0.505117 -7.613819
v -3.588501 0.505117 -7.429270
v -3.588501 0.505117 -7.429270
v -3.588501 -0.505117 -7.429271
v -3.588501 -0.505117 -7.429271
v -4.015713 -0.505117 -9.159747
v -4.015713 -0.505117 -9.159747
v -4.015713 0.505117 -9.159747
v -4.015713 0.505117 -9.159747
v -5.189236 -0.505117 -8.250773
v -5.189236 -0.505117 -8.250773
v -5.189236 0.505117 -8.250772
v -5.189236 0.505117 -8.250772
v -5.999736 0.505117 -7.659462
v -5.999736 0.505117 -7.659462
v -5.999735 -0.505117 -7.659462
v -5.999735 -0.505117 -7.659462
v -4.196557 0.505117 -6.943932
v -4.196557 0.505117 -6.943932
v -4.884978 0.505117 -6.318516
v -4.884978 0.505117 -6.318516
v -4.196558 -0.505117 -6.943932
v -4.196558 -0.505117 -6.943932
v -4.884978 -0.505117 -6.318517
v -4.884978 -0.505117 -6.318517
v -6.806989 0.505117 -7.051310
v -6.806989 0.505117 -7.051310
v -6.806989 -0.505117 -7.051310
v -6.806989 -0.505117 -7.051310
v -9.106343 -0.505117 -5.444533
v -9.106343 -0.505117 -5.444533
v -9.106343 0.505117 -5.444533
v -9.106343 0.505117 -5.444533
v -5.602203 0.505117 -5.646307
v -5.602203 0.505117 -5.646307
v -7.624554 0.505117 -3.685430
v -7.624554 0.505117 -3.685430
v -7.624554 -0.505117 -3.685430
v -7.624554 -0.505117 -3.685430
v -5.602203 -0.505117 -5.646307
v -5.602203 -0.505117 -5.646307
v -7.868284 -0.505117 -6.278874
v -7.868284 -0.505117 -6.278874
v -7.868284 0.505117 -6.278874
v -7.868284 0.505117 -6.278874
v -6.552604 -0.505117 -4.745567
v -6.552604 -0.505117 -4.745567
v -6.552604 0.505117 -4.745566
v -6.552604 0.505117 -4.745566
vt 0.912309 0.751320
vt 0.906130 0.812432
vt 0.896263 0.802554
vt 0.932659 0.770292
vt 0.914725 0.739230
vt 0.937030 0.760253
vt 0.866663 0.812432
vt 0.860373 0.751320
vt 0.876530 0.802554
vt 0.839911 0.770292
vt 0.861253 0.827278
vt 0.824530 0.806268
vt 0.858489 0.843871
vt 0.819022 0.843871
vt 0.861253 0.860464
vt 0.824530 0.881738
vt 0.866663 0.875310
vt 0.839911 0.917977
vt 0.876530 0.885188
vt 0.860373 0.936686
vt 0.886397 0.888332
vt 0.886397 0.946409
vt 0.896263 0.885188
vt 0.912309 0.936686
vt 0.906130 0.875310
vt 0.932659 0.917977
vt 0.911541 0.860464
vt 0.948152 0.881738
vt 0.914304 0.843871
vt 0.953772 0.843871
vt 0.911541 0.827278
vt 0.948152 0.806268
vt 0.886397 0.799410
vt 0.886397 0.741333
vt 0.857907 0.739241
vt 0.886390 0.727457
vt 0.835477 0.760244
vt 0.818539 0.801438
vt 0.812251 0.843892
vt 0.818552 0.886690
vt 0.835449 0.928160
vt 0.857823 0.948756
vt 0.886390 0.960199
vt 0.914810 0.948766
vt 0.937059 0.928150
vt 0.954114 0.886644
vt 0.960549 0.843892
vt 0.954127 0.801484
vt 0.196204 0.586005
vt 0.153842 0.586005
vt 0.244883 0.586005
vt 0.289725 0.586005
vt 0.336486 0.586005
vt 0.383246 0.586005
vt 0.383247 0.586005
vt 0.430007 0.586005
vt 0.476768 0.586005
vt 0.521610 0.586005
vt 0.570289 0.586005
vt 0.612651 0.586005
vt 0.663089 0.586005
vt 0.101728 0.586005
vt 0.153842 0.648088
vt 0.196204 0.648088
vt 0.244883 0.648088
vt 0.289725 0.648088
vt 0.336486 0.648088
vt 0.383247 0.648088
vt 0.430007 0.648088
vt 0.476768 0.648088
vt 0.521610 0.648088
vt 0.570289 0.648088
vt 0.612651 0.648088
vt 0.663089 0.648088
vt 0.101728 0.648088
vt 0.114907 0.058261
vt 0.111498 0.013114
vt 0.111498 0.058261
vt 0.114907 0.013114
vt 0.118823 0.058261
vt 0.118823 0.013114
vt 0.122431 0.058261
vt 0.122431 0.013114
vt 0.126193 0.058261
vt 0.126193 0.013114
vt 0.129956 0.058261
vt 0.129956 0.013114
vt 0.133718 0.058261
vt 0.133718 0.013114
vt 0.137480 0.058261
vt 0.137480 0.013114
vt 0.141088 0.058261
vt 0.141088 0.013114
vt 0.145005 0.058261
vt 0.145005 0.013114
vt 0.148413 0.058261
vt 0.148413 0.013114
vt 0.152529 0.058261
vt 0.152529 0.013114
vt 0.107382 0.058261
vt 0.107382 0.013114
vt 0.570289 0.733413
vt 0.612651 0.733413
vt 0.521610 0.733413
vt 0.476768 0.733413
vt 0.430007 0.733413
vt 0.383247 0.733413
vt 0.336486 0.733413
vt 0.289725 0.733413
vt 0.244883 0.733413
vt 0.196204 0.733413
vt 0.153842 0.733413
vt 0.101728 0.733413
vt 0.663089 0.733413
vt 0.570289 0.975999
vt 0.612651 0.975999
vt 0.521610 0.975999
vt 0.476768 0.975999
vt 0.430007 0.975999
vt 0.383247 0.975999
vt 0.336486 0.975999
vt 0.289725 0.975999
vt 0.244883 0.975999
vt 0.196204 0.975999
vt 0.153842 0.975999
vt 0.101728 0.975999
vt 0.663089 0.975999
vt 0.026658 0.073957
vt 0.017490 0.079505
vt 0.017490 0.073957
vt 0.026658 0.079505
vt 0.037192 0.073957
vt 0.037192 0.079505
vt 0.046897 0.073957
vt 0.046897 0.079505
vt 0.057016 0.073957
vt 0.057016 0.079505
vt 0.067136 0.073957
vt 0.067136 0.079505
vt 0.077255 0.073957
vt 0.077255 0.079505
vt 0.087374 0.073957
vt 0.087374 0.079505
vt 0.097079 0.073957
vt 0.097079 0.079505
vt 0.107613 0.073957
vt 0.107613 0.079505
vt 0.116781 0.073957
vt 0.116781 0.079505
vt 0.127852 0.073957
vt 0.127852 0.079505
vt 0.006419 0.073957
vt 0.006419 0.079505
vt 0.026658 0.071662
vt 0.017490 0.071662
vt 0.037192 0.071662
vt 0.046897 0.071662
vt 0.057016 0.071662
vt 0.067136 0.071662
vt 0.077255 0.071662
vt 0.087374 0.071662
vt 0.097079 0.071662
vt 0.107613 0.071662
vt 0.116781 0.071662
vt 0.127852 0.071662
vt 0.006419 0.071662
vt 0.026658 0.085356
vt 0.017490 0.087036
vt 0.017490 0.085356
vt 0.026658 0.087036
vt 0.037192 0.085356
vt 0.037192 0.087036
vt 0.046897 0.085356
vt 0.046897 0.087036
vt 0.057016 0.085356
vt 0.057016 0.087036
vt 0.067136 0.085356
vt 0.067136 0.087036
vt 0.077255 0.085356
vt 0.077255 0.087036
vt 0.087374 0.085356
vt 0.087374 0.087036
vt 0.097079 0.085356
vt 0.097079 0.087036
vt 0.107613 0.085356
vt 0.107613 0.087036
vt 0.116781 0.085356
vt 0.116781 0.087036
vt 0.127852 0.085356
vt 0.127852 0.087036
vt 0.006419 0.085356
vt 0.006419 0.087036
vt 0.086868 0.333851
vt 0.132665 0.367098
vt 0.096354 0.329488
vt 0.113561 0.377677
vt 0.074947 0.336085
vt 0.074947 0.385805
vt 0.117256 0.301723
vt 0.215753 0.283591
vt 0.121711 0.224691
vt 0.173199 0.313019
vt 0.112322 0.312618
vt 0.162681 0.333014
vt 0.105839 0.321964
vt 0.150539 0.349897
vt 0.157535 0.433647
vt 0.143746 0.493911
vt 0.143746 0.433647
vt 0.157535 0.493911
vt 0.171325 0.433647
vt 0.171325 0.493911
vt 0.180149 0.433647
vt 0.180149 0.493911
vt 0.188973 0.433647
vt 0.188973 0.493911
vt 0.184244 0.433647
vt 0.184244 0.493911
vt 0.123823 0.433647
vt 0.061640 0.493911
vt 0.061640 0.433647
vt 0.123823 0.493911
vt 0.216827 0.493911
vt 0.255059 0.433647
vt 0.255059 0.493911
vt 0.216827 0.433647
vt 0.233231 0.493911
vt 0.233231 0.433647
vt 0.230297 0.493911
vt 0.230297 0.433647
vt 0.227364 0.493911
vt 0.227364 0.433647
vt 0.213145 0.493911
vt 0.213145 0.433647
vt 0.198927 0.493911
vt 0.198927 0.433647
vt 0.124699 0.395965
vt 0.147817 0.382792
vt 0.169192 0.361553
vt 0.183695 0.341524
vt 0.196543 0.317732
vt 0.074947 0.406552
vt 0.494649 0.155905
vt 0.494297 0.241828
vt 0.487003 0.151019
vt 0.452504 0.156325
vt 0.409213 0.161927
vt 0.395922 0.163415
vt 0.343737 0.167987
vt 0.311883 0.169580
vt 0.280704 0.169024
vt 0.268807 0.167532
vt 0.073533 0.263126
vt 0.068830 0.222102
vt 0.068830 0.263126
vt 0.073533 0.222102
vt 0.081584 0.263126
vt 0.081584 0.222102
vt 0.089635 0.263126
vt 0.089635 0.222102
vt 0.095137 0.263126
vt 0.095137 0.222102
vt 0.099325 0.263126
vt 0.099325 0.222102
vt 0.102869 0.263126
vt 0.102869 0.222102
vt 0.109632 0.263126
vt 0.109632 0.222102
vt 0.310378 0.234618
vt 0.257023 0.234141
vt 0.344185 0.235152
vt 0.390168 0.235736
vt 0.422426 0.238446
vt 0.453914 0.242328
vt 0.487979 0.246724
vt 0.249626 0.235506
vt 0.331502 0.375095
vt 0.298744 0.368405
vt 0.298744 0.382066
vt 0.324168 0.363054
vt 0.346723 0.366422
vt 0.336747 0.356089
vt 0.360797 0.352437
vt 0.348516 0.344763
vt 0.370346 0.339250
vt 0.356510 0.333647
vt 0.378806 0.323585
vt 0.363436 0.320482
vt 0.391454 0.301106
vt 0.191168 0.493911
vt 0.191168 0.433647
vt 0.121578 0.433647
vt 0.121578 0.493911
vt 0.129399 0.099151
vt 0.262697 0.169422
vt 0.177262 0.370261
vt 0.198845 0.372203
vt 0.214755 0.361256
vt 0.218339 0.343323
vt 0.210786 0.327834
vt 0.422841 0.352595
vt 0.430359 0.350030
vt 0.426709 0.345070
vt 0.431424 0.353555
vt 0.430651 0.356586
vt 0.428462 0.358770
vt 0.423866 0.360055
vt 0.419244 0.357756
vt 0.413652 0.362341
vt 0.422259 0.361533
vt 0.421956 0.365459
vt 0.419797 0.368244
vt 0.416219 0.369467
vt 0.412448 0.369169
vt 0.407022 0.365639
vt 0.139716 0.409438
vt 0.153872 0.412967
vt 0.170676 0.406655
vt 0.179107 0.390899
vt 0.177320 0.370204
vt 0.036348 0.066580
vt 0.027108 0.035108
vt 0.043999 0.064530
vt 0.027108 0.068721
vt 0.050434 0.058094
vt 0.056363 0.052166
vt 0.058626 0.043720
vt 0.060889 0.035275
vt 0.058626 0.026830
vt 0.056363 0.018385
vt 0.050434 0.012457
vt 0.043999 0.006021
vt 0.036348 0.003971
vt 0.027108 0.001495
vt 0.898491 0.826724
vt 0.886397 0.843871
vt 0.892444 0.821336
vt 0.901806 0.834821
vt 0.903500 0.843871
vt 0.901806 0.852921
vt 0.898491 0.861018
vt 0.892444 0.866405
vt 0.886397 0.868120
vt 0.880350 0.866405
vt 0.874303 0.861018
vt 0.870987 0.852921
vt 0.869293 0.843871
vt 0.870987 0.834821
vt 0.874303 0.826724
vt 0.880350 0.821336
vt 0.886397 0.819621
usemtl mat_0
s 1
f 387/1 389/2 390/3
f 387/1 388/4 389/2
f 420/5 388/4 387/1
f 420/5 421/6 388/4
f 394/7 392/8 393/9
f 394/7 391/10 392/8
f 397/11 391/10 394/7
f 397/11 396/12 391/10
f 398/13 396/12 397/11
f 398/13 395/14 396/12
f 401/15 395/14 398/13
f 401/15 400/16 395/14
f 402/17 400/16 401/15
f 402/17 399/18 400/16
f 405/19 399/18 402/17
f 405/19 404/20 399/18
f 406/21 404/20 405/19
f 406/21 403/22 404/20
f 409/23 403/22 406/21
f 409/23 408/24 403/22
f 410/25 408/24 409/23
f 410/25 407/26 408/24
f 413/27 407/26 410/25
f 413/27 412/28 407/26
f 414/29 412/28 413/27
f 414/29 411/30 412/28
f 416/31 411/30 414/29
f 416/31 415/32 411/30
f 389/2 415/32 416/31
f 389/2 388/4 415/32
f 392/8 418/33 393/9
f 392/8 419/34 418/33
f 422/35 419/34 392/8
f 422/35 423/36 419/34
f 419/34 390/3 418/33
f 419/34 387/1 390/3
f 423/36 387/1 419/34
f 423/36 420/5 387/1
f 425/37 396/12 424/38
f 425/37 391/10 396/12
f 422/35 391/10 425/37
f 422/35 392/8 391/10
f 427/39 400/16 426/40
f 427/39 395/14 400/16
f 424/38 395/14 427/39
f 424/38 396/12 395/14
f 429/41 404/20 428/42
f 429/41 399/18 404/20
f 426/40 399/18 429/41
f 426/40 400/16 399/18
f 431/43 408/24 430/44
f 431/43 403/22 408/24
f 428/42 403/22 431/43
f 428/42 404/20 403/22
f 433/45 412/28 432/46
f 433/45 407/26 412/28
f 430/44 407/26 433/45
f 430/44 408/24 407/26
f 435/47 415/32 434/48
f 435/47 411/30 415/32
f 432/46 411/30 435/47
f 432/46 412/28 411/30
f 421/6 434/48 415/32
f 388/4 421/6 415/32
f 439/4 437/3 438/2
f 439/4 436/1 437/3
f 469/6 436/1 439/4
f 469/6 470/5 436/1
f 440/10 442/9 443/8
f 440/10 441/7 442/9
f 447/12 441/7 440/10
f 447/12 446/11 441/7
f 444/14 446/11 447/12
f 444/14 445/13 446/11
f 451/16 445/13 444/14
f 451/16 450/15 445/13
f 448/18 450/15 451/16
f 448/18 449/17 450/15
f 455/20 449/17 448/18
f 455/20 454/19 449/17
f 452/22 454/19 455/20
f 452/22 453/21 454/19
f 459/24 453/21 452/22
f 459/24 458/23 453/21
f 456/26 458/23 459/24
f 456/26 457/25 458/23
f 463/28 457/25 456/26
f 463/28 462/27 457/25
f 460/30 462/27 463/28
f 460/30 461/29 462/27
f 465/32 461/29 460/30
f 465/32 464/31 461/29
f 439/4 464/31 465/32
f 439/4 438/2 464/31
f 468/34 442/9 467/33
f 468/34 443/8 442/9
f 471/36 443/8 468/34
f 471/36 472/35 443/8
f 436/1 467/33 437/3
f 436/1 468/34 467/33
f 470/5 468/34 436/1
f 470/5 471/36 468/34
f 440/10 474/38 447/12
f 440/10 473/37 474/38
f 443/8 473/37 440/10
f 443/8 472/35 473/37
f 444/14 476/40 451/16
f 444/14 475/39 476/40
f 447/12 475/39 444/14
f 447/12 474/38 475/39
f 448/18 478/42 455/20
f 448/18 477/41 478/42
f 451/16 477/41 448/18
f 451/16 476/40 477/41
f 452/22 480/44 459/24
f 452/22 479/43 480/44
f 455/20 479/43 452/22
f 455/20 478/42 479/43
f 456/26 482/46 463/28
f 456/26 481/45 482/46
f 459/24 481/45 456/26
f 459/24 480/44 481/45
f 460/30 484/48 465/32
f 460/30 483/47 484/48
f 463/28 483/47 460/30
f 463/28 482/46 483/47
f 465/32 484/48 469/6
f 439/4 465/32 469/6
usemtl mat_1
f 7/49 1/50 3/50
f 3/49 5/49 7/50
f 9/51 5/49 3/49
f 9/51 15/51 5/49
f 11/52 15/51 9/51
f 11/52 13/52 15/51
f 17/53 13/52 11/52
f 17/53 19/53 13/52
f 198/54 19/53 17/53
f 198/54 199/55 19/53
f 21/56 199/55 198/54
f 21/56 27/56 199/55
f 23/57 27/56 21/56
f 23/57 25/57 27/56
f 29/58 25/57 23/57
f 29/58 31/58 25/57
f 33/59 31/58 29/58
f 33/59 39/59 31/58
f 35/60 39/59 33/59
f 35/60 37/60 39/59
f 192/61 37/60 35/60
f 192/61 193/61 37/60
f 249/60 193/61 192/61
f 249/60 247/60 193/61
f 243/59 247/60 249/60
f 243/59 245/59 247/60
f 241/58 245/59 243/59
f 241/58 239/58 245/59
f 237/57 239/58 241/58
f 237/57 235/57 239/58
f 231/56 235/57 237/57
f 231/56 233/56 235/57
f 374/54 233/56 231/56
f 374/54 375/55 233/56
f 229/53 375/55 374/54
f 229/53 227/53 375/55
f 225/52 227/53 229/53
f 225/52 223/52 227/53
f 219/51 223/52 225/52
f 219/51 221/51 223/52
f 217/49 221/51 219/51
f 217/49 215/49 221/51
f 211/50 215/49 217/49
f 211/50 213/50 215/49
f 185/62 213/50 211/50
f 185/62 184/62 213/50
f 1/50 184/62 185/62
f 1/50 7/50 184/62
f 6/49 42/63 8/50
f 6/49 41/64 42/63
f 16/51 41/64 6/49
f 16/51 44/65 41/64
f 14/52 44/65 16/51
f 14/52 43/66 44/65
f 20/53 43/66 14/52
f 20/53 45/67 43/66
f 200/55 45/67 20/53
f 200/55 201/68 45/67
f 28/56 201/68 200/55
f 28/56 47/69 201/68
f 26/57 47/69 28/56
f 26/57 46/70 47/69
f 32/58 46/70 26/57
f 32/58 48/71 46/70
f 40/59 48/71 32/58
f 40/59 50/72 48/71
f 38/60 50/72 40/59
f 38/60 49/73 50/72
f 194/61 49/73 38/60
f 194/61 195/74 49/73
f 248/60 195/74 194/61
f 248/60 260/73 195/74
f 246/59 260/73 248/60
f 246/59 259/72 260/73
f 240/58 259/72 246/59
f 240/58 258/71 259/72
f 236/57 258/71 240/58
f 236/57 257/70 258/71
f 234/56 257/70 236/57
f 234/56 256/69 257/70
f 376/55 256/69 234/56
f 376/55 377/68 256/69
f 228/53 377/68 376/55
f 228/53 255/67 377/68
f 224/52 255/67 228/53
f 224/52 254/66 255/67
f 222/51 254/66 224/52
f 222/51 253/65 254/66
f 216/49 253/65 222/51
f 216/49 252/64 253/65
f 214/50 252/64 216/49
f 214/50 251/63 252/64
f 183/62 251/63 214/50
f 183/62 182/75 251/63
f 8/50 182/75 183/62
f 8/50 42/63 182/75
f 61/76 2/77 59/78
f 61/76 4/79 2/77
f 63/80 4/79 61/76
f 63/80 10/81 4/79
f 65/82 10/81 63/80
f 65/82 12/83 10/81
f 67/84 12/83 65/82
f 67/84 18/85 12/83
f 55/86 18/85 67/84
f 55/86 197/87 18/85
f 53/88 197/87 55/86
f 53/88 22/89 197/87
f 69/90 22/89 53/88
f 69/90 24/91 22/89
f 71/92 24/91 69/90
f 71/92 30/93 24/91
f 73/94 30/93 71/92
f 73/94 34/95 30/93
f 75/96 34/95 73/94
f 75/96 36/97 34/95
f 190/98 36/97 75/96
f 190/98 191/99 36/97
f 281/96 191/99 190/98
f 281/96 250/97 191/99
f 283/94 250/97 281/96
f 283/94 244/95 250/97
f 279/92 244/95 283/94
f 279/92 242/93 244/95
f 277/90 242/93 279/92
f 277/90 238/91 242/93
f 264/88 238/91 277/90
f 264/88 232/89 238/91
f 262/86 232/89 264/88
f 262/86 373/87 232/89
f 275/84 373/87 262/86
f 275/84 230/85 373/87
f 271/82 230/85 275/84
f 271/82 226/83 230/85
f 273/80 226/83 271/82
f 273/80 220/81 226/83
f 267/76 220/81 273/80
f 267/76 218/79 220/81
f 269/78 218/79 267/76
f 269/78 212/77 218/79
f 187/100 212/77 269/78
f 187/100 186/101 212/77
f 59/78 186/101 187/100
f 59/78 2/77 186/101
f 80/102 49/73 79/103
f 80/102 50/72 49/73
f 81/104 50/72 80/102
f 81/104 48/71 50/72
f 82/105 48/71 81/104
f 82/105 46/70 48/71
f 83/106 46/70 82/105
f 83/106 47/69 46/70
f 202/107 47/69 83/106
f 202/107 201/68 47/69
f 84/108 201/68 202/107
f 84/108 45/67 201/68
f 85/109 45/67 84/108
f 85/109 43/66 45/67
f 86/110 43/66 85/109
f 86/110 44/65 43/66
f 87/111 44/65 86/110
f 87/111 41/64 44/65
f 88/112 41/64 87/111
f 88/112 42/63 41/64
f 181/113 42/63 88/112
f 181/113 182/75 42/63
f 295/112 182/75 181/113
f 295/112 251/63 182/75
f 296/111 251/63 295/112
f 296/111 252/64 251/63
f 294/110 252/64 296/111
f 294/110 253/65 252/64
f 292/109 253/65 294/110
f 292/109 254/66 253/65
f 293/108 254/66 292/109
f 293/108 255/67 254/66
f 378/107 255/67 293/108
f 378/107 377/68 255/67
f 291/106 377/68 378/107
f 291/106 256/69 377/68
f 289/105 256/69 291/106
f 289/105 257/70 256/69
f 290/104 257/70 289/105
f 290/104 258/71 257/70
f 287/102 258/71 290/104
f 287/102 259/72 258/71
f 288/103 259/72 287/102
f 288/103 260/73 259/72
f 196/114 260/73 288/103
f 196/114 195/74 260/73
f 79/103 195/74 196/114
f 79/103 49/73 195/74
f 91/115 79/103 89/116
f 91/115 80/102 79/103
f 93/117 80/102 91/115
f 93/117 81/104 80/102
f 95/118 81/104 93/117
f 95/118 82/105 81/104
f 97/119 82/105 95/118
f 97/119 83/106 82/105
f 203/120 83/106 97/119
f 203/120 202/107 83/106
f 99/121 202/107 203/120
f 99/121 84/108 202/107
f 101/122 84/108 99/121
f 101/122 85/109 84/108
f 103/123 85/109 101/122
f 103/123 86/110 85/109
f 105/124 86/110 103/123
f 105/124 87/111 86/110
f 107/125 87/111 105/124
f 107/125 88/112 87/111
f 180/126 88/112 107/125
f 180/126 181/113 88/112
f 313/125 181/113 180/126
f 313/125 295/112 181/113
f 315/124 295/112 313/125
f 315/124 296/111 295/112
f 311/123 296/111 315/124
f 311/123 294/110 296/111
f 307/122 294/110 311/123
f 307/122 292/109 294/110
f 309/121 292/109 307/122
f 309/121 293/108 292/109
f 379/120 293/108 309/121
f 379/120 378/107 293/108
f 305/119 378/107 379/120
f 305/119 291/106 378/107
f 301/118 291/106 305/119
f 301/118 289/105 291/106
f 303/117 289/105 301/118
f 303/117 290/104 289/105
f 297/115 290/104 303/117
f 297/115 287/102 290/104
f 299/116 287/102 297/115
f 299/116 288/103 287/102
f 166/127 288/103 299/116
f 166/127 196/114 288/103
f 89/116 196/114 166/127
f 89/116 79/103 196/114
f 110/128 112/129 109/130
f 110/128 111/131 112/129
f 117/132 111/131 110/128
f 117/132 120/133 111/131
f 118/134 120/133 117/132
f 118/134 119/135 120/133
f 125/136 119/135 118/134
f 125/136 126/137 119/135
f 205/138 126/137 125/136
f 205/138 206/139 126/137
f 127/140 206/139 205/138
f 127/140 128/141 206/139
f 121/142 128/141 127/140
f 121/142 124/143 128/141
f 122/144 124/143 121/142
f 122/144 123/145 124/143
f 113/146 123/145 122/144
f 113/146 116/147 123/145
f 114/148 116/147 113/146
f 114/148 115/149 116/147
f 167/150 115/149 114/148
f 167/150 168/151 115/149
f 324/148 168/151 167/150
f 324/148 323/149 168/151
f 321/146 323/149 324/148
f 321/146 322/147 323/149
f 332/144 322/147 321/146
f 332/144 331/145 322/147
f 329/142 331/145 332/144
f 329/142 330/143 331/145
f 335/140 330/143 329/142
f 335/140 336/141 330/143
f 381/138 336/141 335/140
f 381/138 382/139 336/141
f 334/136 382/139 381/138
f 334/136 333/137 382/139
f 328/134 333/137 334/136
f 328/134 327/135 333/137
f 325/132 327/135 328/134
f 325/132 326/133 327/135
f 320/128 326/133 325/132
f 320/128 319/131 326/133
f 317/130 319/131 320/128
f 317/130 318/129 319/131
f 178/152 318/129 317/130
f 178/152 177/153 318/129
f 109/130 177/153 178/152
f 109/130 112/129 177/153
f 106/154 109/130 108/155
f 106/154 110/128 109/130
f 104/156 110/128 106/154
f 104/156 117/132 110/128
f 102/157 117/132 104/156
f 102/157 118/134 117/132
f 100/158 118/134 102/157
f 100/158 125/136 118/134
f 204/159 125/136 100/158
f 204/159 205/138 125/136
f 98/160 205/138 204/159
f 98/160 127/140 205/138
f 96/161 127/140 98/160
f 96/161 121/142 127/140
f 94/162 121/142 96/161
f 94/162 122/144 121/142
f 92/163 122/144 94/162
f 92/163 113/146 122/144
f 90/164 113/146 92/163
f 90/164 114/148 113/146
f 165/165 114/148 90/164
f 165/165 167/150 114/148
f 300/164 167/150 165/165
f 300/164 324/148 167/150
f 298/163 324/148 300/164
f 298/163 321/146 324/148
f 304/162 321/146 298/163
f 304/162 332/144 321/146
f 302/161 332/144 304/162
f 302/161 329/142 332/144
f 306/160 329/142 302/161
f 306/160 335/140 329/142
f 380/159 335/140 306/160
f 380/159 381/138 335/140
f 310/158 381/138 380/159
f 310/158 334/136 381/138
f 308/157 334/136 310/158
f 308/157 328/134 334/136
f 312/156 328/134 308/157
f 312/156 325/132 328/134
f 316/154 325/132 312/156
f 316/154 320/128 325/132
f 314/155 320/128 316/154
f 314/155 317/130 320/128
f 179/166 317/130 314/155
f 179/166 178/152 317/130
f 108/155 178/152 179/166
f 108/155 109/130 178/152
f 133/167 130/168 131/169
f 133/167 129/170 130/168
f 143/171 129/170 133/167
f 143/171 142/172 129/170
f 145/173 142/172 143/171
f 145/173 141/174 142/172
f 154/175 141/174 145/173
f 154/175 153/176 141/174
f 208/177 153/176 154/175
f 208/177 209/178 153/176
f 157/179 209/178 208/177
f 157/179 156/180 209/178
f 149/181 156/180 157/179
f 149/181 148/182 156/180
f 151/183 148/182 149/181
f 151/183 147/184 148/182
f 137/185 147/184 151/183
f 137/185 136/186 147/184
f 139/187 136/186 137/185
f 139/187 135/188 136/186
f 170/189 135/188 139/187
f 170/189 171/190 135/188
f 344/187 171/190 170/189
f 344/187 343/188 171/190
f 346/185 343/188 344/187
f 346/185 348/186 343/188
f 356/183 348/186 346/185
f 356/183 355/184 348/186
f 358/181 355/184 356/183
f 358/181 360/182 355/184
f 364/179 360/182 358/181
f 364/179 366/180 360/182
f 384/177 366/180 364/179
f 384/177 385/178 366/180
f 362/175 385/178 384/177
f 362/175 361/176 385/178
f 350/173 361/176 362/175
f 350/173 349/174 361/176
f 352/171 349/174 350/173
f 352/171 354/172 349/174
f 338/167 354/172 352/171
f 338/167 337/170 354/172
f 340/169 337/170 338/167
f 340/169 342/168 337/170
f 175/191 342/168 340/169
f 175/191 173/192 342/168
f 131/169 173/192 175/191
f 131/169 130/168 173/192
f 138/185 115/149 140/187
f 138/185 116/147 115/149
f 152/183 116/147 138/185
f 152/183 123/145 116/147
f 150/181 123/145 152/183
f 150/181 124/143 123/145
f 158/179 124/143 150/181
f 158/179 128/141 124/143
f 207/177 128/141 158/179
f 207/177 206/139 128/141
f 155/175 206/139 207/177
f 155/175 126/137 206/139
f 146/173 126/137 155/175
f 146/173 119/135 126/137
f 144/171 119/135 146/173
f 144/171 120/133 119/135
f 134/167 120/133 144/171
f 134/167 111/131 120/133
f 132/169 111/131 134/167
f 132/169 112/129 111/131
f 176/191 112/129 132/169
f 176/191 177/153 112/129
f 341/169 177/153 176/191
f 341/169 318/129 177/153
f 339/167 318/129 341/169
f 339/167 319/131 318/129
f 353/171 319/131 339/167
f 353/171 326/133 319/131
f 351/173 326/133 353/171
f 351/173 327/135 326/133
f 363/175 327/135 351/173
f 363/175 333/137 327/135
f 383/177 333/137 363/175
f 383/177 382/139 333/137
f 365/179 382/139 383/177
f 365/179 336/141 382/139
f 359/181 336/141 365/179
f 359/181 330/143 336/141
f 357/183 330/143 359/181
f 357/183 331/145 330/143
f 347/185 331/145 357/183
f 347/185 322/147 331/145
f 345/187 322/147 347/185
f 345/187 323/149 322/147
f 169/189 323/149 345/187
f 169/189 168/151 323/149
f 140/187 168/151 169/189
f 140/187 115/149 168/151
f 129/170 160/168 130/168
f 129/170 159/170 160/168
f 142/172 159/170 129/170
f 142/172 162/172 159/170
f 141/174 162/172 142/172
f 141/174 161/174 162/172
f 153/176 161/174 141/174
f 153/176 163/176 161/174
f 209/178 163/176 153/176
f 209/178 210/178 163/176
f 156/180 210/178 209/178
f 156/180 164/180 210/178
f 148/182 164/180 156/180
f 148/182 77/182 164/180
f 147/184 77/182 148/182
f 147/184 78/184 77/182
f 136/186 78/184 147/184
f 136/186 57/186 78/184
f 135/188 57/186 136/186
f 135/188 58/188 57/186
f 171/190 58/188 135/188
f 171/190 172/190 58/188
f 343/188 172/190 171/190
f 343/188 265/188 172/190
f 348/186 265/188 343/188
f 348/186 266/186 265/188
f 355/184 266/186 348/186
f 355/184 285/184 266/186
f 360/182 285/184 355/184
f 360/182 286/182 285/184
f 366/180 286/182 360/182
f 366/180 372/180 286/182
f 385/178 372/180 366/180
f 385/178 386/178 372/180
f 361/176 386/178 385/178
f 361/176 371/176 386/178
f 349/174 371/176 361/176
f 349/174 370/174 371/176
f 354/172 370/174 349/174
f 354/172 369/172 370/174
f 337/170 369/172 354/172
f 337/170 368/170 369/172
f 342/168 368/170 337/170
f 342/168 367/168 368/170
f 173/192 367/168 342/168
f 173/192 174/192 367/168
f 130/168 174/192 173/192
f 130/168 160/168 174/192
f 487/193 490/194 485/195
f 487/193 489/196 490/194
f 491/197 489/196 487/193
f 491/197 495/198 489/196
f 499/199 721/200 497/201
f 499/199 501/202 721/200
f 561/203 501/202 499/199
f 561/203 566/204 501/202
f 563/205 566/204 561/203
f 563/205 565/206 566/204
f 485/195 565/206 563/205
f 485/195 490/194 565/206
f 508/207 504/208 506/209
f 508/207 502/210 504/208
f 586/211 502/210 508/207
f 586/211 584/212 502/210
f 581/213 584/212 586/211
f 581/213 582/214 584/212
f 573/215 582/214 581/213
f 573/215 571/216 582/214
f 547/217 571/216 573/215
f 547/217 568/218 571/216
f 520/219 512/220 516/221
f 520/219 510/222 512/220
f 506/209 510/222 520/219
f 506/209 504/208 510/222
f 522/223 723/224 722/225
f 522/223 524/226 723/224
f 576/227 524/226 522/223
f 576/227 578/228 524/226
f 590/229 578/228 576/227
f 590/229 589/230 578/228
f 594/231 589/230 590/229
f 594/231 593/232 589/230
f 553/233 593/232 594/231
f 553/233 559/234 593/232
f 555/235 559/234 553/233
f 555/235 557/236 559/234
f 569/218 557/236 555/235
f 569/218 548/217 557/236
f 529/195 521/237 527/193
f 529/195 526/238 521/237
f 549/205 526/238 529/195
f 549/205 546/239 526/238
f 551/203 546/239 549/205
f 551/203 545/240 546/239
f 535/199 545/240 551/203
f 535/199 525/241 545/240
f 517/242 531/197 527/193
f 521/237 517/242 527/193
f 693/243 689/244 691/244
f 693/243 695/243 689/244
f 702/245 695/243 693/243
f 702/245 703/245 695/243
f 764/246 703/245 702/245
f 764/246 765/246 703/245
f 775/247 765/246 764/246
f 775/247 774/247 765/246
f 762/248 774/247 775/247
f 762/248 768/248 774/247
f 748/249 768/248 762/248
f 748/249 752/249 768/248
f 746/250 752/249 748/249
f 746/250 749/250 752/249
f 729/251 749/250 746/250
f 729/251 727/251 749/250
f 731/252 727/251 729/251
f 731/252 725/252 727/251
f 488/253 532/254 492/255
f 488/253 528/256 532/254
f 486/257 528/256 488/253
f 486/257 530/258 528/256
f 564/259 530/258 486/257
f 564/259 550/260 530/258
f 562/261 550/260 564/259
f 562/261 552/262 550/260
f 500/263 552/262 562/261
f 500/263 536/264 552/262
f 498/265 536/264 500/263
f 498/265 541/266 536/264
f 538/267 541/266 498/265
f 538/267 543/268 541/266
f 737/269 733/270 735/270
f 737/269 739/269 733/270
f 743/271 739/269 737/269
f 743/271 741/271 739/269
f 753/272 741/271 743/271
f 753/272 755/272 741/271
f 771/273 755/272 753/272
f 771/273 769/273 755/272
f 759/274 769/273 771/273
f 759/274 757/274 769/273
f 697/275 757/274 759/274
f 697/275 699/275 757/274
f 691/244 699/275 697/275
f 691/244 689/244 699/275
f 745/250 736/270 730/251
f 745/250 738/269 736/270
f 747/249 738/269 745/250
f 747/249 744/271 738/269
f 761/248 744/271 747/249
f 761/248 754/272 744/271
f 776/247 754/272 761/248
f 776/247 772/273 754/272
f 763/246 772/273 776/247
f 763/246 760/274 772/273
f 701/245 760/274 763/246
f 701/245 698/275 760/274
f 694/243 698/275 701/245
f 694/243 692/244 698/275
f 740/269 728/251 734/270
f 740/269 750/250 728/251
f 742/271 750/250 740/269
f 742/271 751/249 750/250
f 756/272 751/249 742/271
f 756/272 767/248 751/249
f 770/273 767/248 756/272
f 770/273 773/247 767/248
f 758/274 773/247 770/273
f 758/274 766/246 773/247
f 700/275 766/246 758/274
f 700/275 704/245 766/246
f 690/244 704/245 700/275
f 690/244 696/243 704/245
f 726/252 721/276 734/270
f 728/251 726/252 734/270
f 723/276 735/270 733/270
f 722/276 723/276 733/270
f 736/270 724/276 732/252
f 730/251 736/270 732/252
f 511/277 495/278 513/279
f 511/277 489/280 495/278
f 567/281 489/280 511/277
f 567/281 490/282 489/280
f 570/283 490/282 567/281
f 570/283 565/284 490/282
f 575/285 565/284 570/283
f 575/285 566/286 565/284
f 523/287 566/286 575/285
f 523/287 501/288 566/286
f 721/289 501/288 523/287
f 725/290 731/291 544/292
f 539/293 725/290 544/292
f 635/292 783/291 781/290
f 632/293 635/292 781/290
f 599/196 596/195 598/194
f 599/196 600/193 596/195
f 496/198 600/193 599/196
f 496/198 493/197 600/193
f 602/202 605/201 777/200
f 602/202 603/199 605/201
f 656/204 603/199 602/202
f 656/204 654/203 603/199
f 657/206 654/203 656/204
f 657/206 658/205 654/203
f 598/194 658/205 657/206
f 598/194 596/195 658/205
f 611/209 607/210 609/207
f 611/209 613/208 607/210
f 617/219 613/208 611/209
f 617/219 615/222 613/208
f 518/221 615/222 617/219
f 518/221 514/220 615/222
f 619/226 778/225 779/224
f 619/226 621/223 778/225
f 669/228 621/223 619/226
f 669/228 671/227 621/223
f 682/230 671/227 669/228
f 682/230 683/229 671/227
f 686/232 683/229 682/230
f 686/232 687/231 683/229
f 648/234 687/231 686/232
f 648/234 646/233 687/231
f 650/236 646/233 648/234
f 650/236 652/235 646/233
f 645/217 652/235 650/236
f 645/217 666/218 652/235
f 626/193 623/238 624/195
f 626/193 618/237 623/238
f 533/197 618/237 626/193
f 533/197 519/242 618/237
f 711/244 707/243 709/243
f 711/244 705/244 707/243
f 715/275 705/244 711/244
f 715/275 713/275 705/244
f 815/274 713/275 715/275
f 815/274 813/274 713/275
f 827/273 813/274 815/274
f 827/273 825/273 813/274
f 809/272 825/273 827/273
f 809/272 811/272 825/273
f 797/271 811/272 809/272
f 797/271 799/271 811/272
f 795/269 799/271 797/271
f 795/269 793/269 799/271
f 791/270 793/269 795/269
f 791/270 789/270 793/269
f 779/276 789/270 791/270
f 779/276 778/276 789/270
f 627/256 494/255 534/254
f 627/256 601/253 494/255
f 625/258 601/253 627/256
f 625/258 597/257 601/253
f 642/260 597/257 625/258
f 642/260 659/259 597/257
f 640/262 659/259 642/260
f 640/262 655/261 659/259
f 629/264 655/261 640/262
f 629/264 604/263 655/261
f 637/266 604/263 629/264
f 637/266 606/265 604/263
f 634/268 606/265 637/266
f 634/268 631/267 606/265
f 785/251 781/252 783/252
f 785/251 787/251 781/252
f 802/250 787/251 785/251
f 802/250 805/250 787/251
f 804/249 805/250 802/250
f 804/249 808/249 805/250
f 818/248 808/249 804/249
f 818/248 824/248 808/249
f 831/247 824/248 818/248
f 831/247 830/247 824/248
f 820/246 830/247 831/247
f 820/246 821/246 830/247
f 718/245 821/246 820/246
f 718/245 719/245 821/246
f 709/243 719/245 718/245
f 709/243 707/243 719/245
f 641/205 638/240 639/203
f 641/205 643/239 638/240
f 624/195 643/239 641/205
f 624/195 623/238 643/239
f 661/215 665/218 644/217
f 661/215 663/216 665/218
f 674/213 663/216 661/215
f 674/213 675/214 663/216
f 677/211 675/214 674/213
f 677/211 679/212 675/214
f 609/207 679/212 677/211
f 609/207 607/210 679/212
f 786/251 796/269 801/250
f 786/251 792/270 796/269
f 784/252 792/270 786/251
f 784/252 780/276 792/270
f 810/272 803/249 798/271
f 810/272 817/248 803/249
f 828/273 817/248 810/272
f 828/273 832/247 817/248
f 816/274 832/247 828/273
f 816/274 819/246 832/247
f 716/275 819/246 816/274
f 716/275 717/245 819/246
f 712/244 717/245 716/275
f 712/244 710/243 717/245
f 790/270 806/250 794/269
f 790/270 788/251 806/250
f 777/276 788/251 790/270
f 777/276 782/252 788/251
f 814/274 720/245 714/275
f 814/274 822/246 720/245
f 826/273 822/246 814/274
f 826/273 829/247 822/246
f 812/272 829/247 826/273
f 812/272 823/248 829/247
f 800/271 823/248 812/272
f 800/271 807/249 823/248
f 794/269 807/249 800/271
f 794/269 806/250 807/249
f 628/199 639/203 638/240
f 620/241 628/199 638/240
f 708/243 706/244 714/275
f 720/245 708/243 714/275
f 798/271 803/249 801/250
f 796/269 798/271 801/250
f 599/280 515/279 496/278
f 599/280 616/277 515/279
f 598/282 616/277 599/280
f 598/282 660/281 616/277
f 657/284 660/281 598/282
f 657/284 667/283 660/281
f 656/286 667/283 657/284
f 656/286 668/285 667/283
f 602/288 668/285 656/286
f 602/288 622/287 668/285
f 777/289 622/287 602/288
f 535/199 724/200 525/241
f 535/199 540/201 724/200
f 542/294 724/200 540/201
f 542/294 732/295 724/200
f 721/200 537/294 497/201
f 721/200 726/295 537/294
f 545/240 558/296 546/239
f 545/240 560/297 558/296
f 592/298 560/297 545/240
f 545/240 588/299 592/298
f 579/300 588/299 545/240
f 545/240 525/241 579/300
f 575/301 577/302 523/303
f 575/301 591/304 577/302
f 595/305 591/304 575/301
f 575/301 554/306 595/305
f 556/307 554/306 575/301
f 575/301 570/308 556/307
f 567/309 572/310 570/308
f 567/309 583/311 572/310
f 585/312 583/311 567/309
f 567/309 503/313 585/312
f 505/314 503/313 567/309
f 567/309 511/315 505/314
f 526/238 507/316 521/237
f 526/238 509/317 507/316
f 587/318 509/317 526/238
f 526/238 580/319 587/318
f 574/320 580/319 526/238
f 526/238 546/239 574/320
f 780/200 628/199 620/241
f 780/200 636/201 628/199
f 633/294 636/201 780/200
f 780/200 784/295 633/294
f 630/294 777/200 605/201
f 630/294 782/295 777/200
f 651/296 638/240 643/239
f 651/296 649/297 638/240
f 685/298 638/240 649/297
f 685/298 681/299 638/240
f 670/300 638/240 681/299
f 670/300 620/241 638/240
f 672/302 668/301 622/303
f 672/302 684/304 668/301
f 688/305 668/301 684/304
f 688/305 647/306 668/301
f 653/307 668/301 647/306
f 653/307 667/308 668/301
f 664/310 660/309 667/308
f 664/310 676/311 660/309
f 680/312 660/309 676/311
f 680/312 608/313 660/309
f 614/314 660/309 608/313
f 614/314 616/315 660/309
f 612/316 623/238 618/237
f 612/316 610/317 623/238
f 678/318 623/238 610/317
f 678/318 673/319 623/238
f 662/320 623/238 673/319
f 662/320 643/239 623/238
f 54/86 51/86 52/88
f 54/86 68/84 51/86
f 66/82 51/86 68/84
f 66/82 64/80 51/86
f 62/76 51/86 64/80
f 62/76 60/78 51/86
f 188/100 51/86 60/78
f 188/100 270/78 51/86
f 268/76 51/86 270/78
f 268/76 274/80 51/86
f 272/82 51/86 274/80
f 272/82 276/84 51/86
f 261/86 51/86 276/84
f 261/86 263/88 51/86
f 278/90 51/86 263/88
f 278/90 280/92 51/86
f 284/94 51/86 280/92
f 284/94 282/96 51/86
f 189/98 51/86 282/96
f 189/98 76/96 51/86
f 74/94 51/86 76/96
f 74/94 72/92 51/86
f 70/90 51/86 72/92
f 70/90 52/88 51/86
f 58/321 56/322 57/323
f 58/321 172/324 56/322
f 265/321 56/322 172/324
f 265/321 266/323 56/322
f 285/325 56/322 266/323
f 285/325 286/326 56/322
f 372/327 56/322 286/326
f 372/327 386/328 56/322
f 371/329 56/322 386/328
f 371/329 370/330 56/322
f 369/331 56/322 370/330
f 369/331 368/332 56/322
f 367/333 56/322 368/332
f 367/333 174/334 56/322
f 160/333 56/322 174/334
f 160/333 159/332 56/322
f 162/331 56/322 159/332
f 162/331 161/330 56/322
f 163/329 56/322 161/330
f 163/329 210/328 56/322
f 164/327 56/322 210/328
f 164/327 77/326 56/322
f 78/325 56/322 77/326
f 78/325 57/323 56/322
f 389/335 417/336 390/337
f 389/335 416/338 417/336
f 414/339 417/336 416/338
f 414/339 413/340 417/336
f 410/341 417/336 413/340
f 410/341 409/342 417/336
f 406/343 417/336 409/342
f 406/343 405/344 417/336
f 402/345 417/336 405/344
f 402/345 401/346 417/336
f 398/347 417/336 401/346
f 398/347 397/348 417/336
f 394/349 417/336 397/348
f 394/349 393/350 417/336
f 418/351 417/336 393/350
f 418/351 390/337 417/336
f 466/336 438/335 437/337
f 466/336 464/338 438/335
f 461/339 464/338 466/336
f 466/336 462/340 461/339
f 457/341 462/340 466/336
f 466/336 458/342 457/341
f 453/343 458/342 466/336
f 466/336 454/344 453/343
f 449/345 454/344 466/336
f 466/336 450/346 449/345
f 445/347 450/346 466/336
f 466/336 446/348 445/347
f 441/349 446/348 466/336
f 466/336 442/350 441/349
f 467/351 442/350 466/336
f 466/336 437/337 467/351
