# Blender v2.66 (sub 1) OBJ File: 'BR_Medicham.blend'
# www.blender.org
mtllib BR_Medicham.mtl
o charem
v 1.840660 -0.550902 -0.552940
v 1.006150 1.047740 -1.039190
v 2.675920 1.010820 -1.039190
v 1.628050 -0.413920 -0.508230
v 1.840640 -0.366141 -0.705080
v 1.840640 -0.366141 -0.705080
v 1.840640 0.087886 -0.715080
v 1.840640 0.087886 -0.715080
v 1.637290 -0.150225 -0.680070
v 1.637290 -0.150225 -0.680070
v 2.043980 -0.150225 -0.680070
v 2.043980 -0.150225 -0.680070
v 3.049590 -0.152131 -1.039190
v 2.675920 -1.291310 -1.039190
v 0.954679 -1.243170 -1.039190
v 0.581009 -0.152131 -1.039190
v 2.060080 -0.409364 -0.246500
v 1.621230 -0.409364 -0.246500
v 1.565820 0.179295 -0.000190
v 1.540850 0.218839 -0.322120
v 1.840640 0.298650 -0.555490
v 2.115450 0.179295 -0.000190
v 2.140410 0.218839 -0.322120
v 2.053260 -0.413920 -0.508230
v 0.864746 -1.172375 -5.362570
v 1.130380 -1.407560 -5.268520
v 0.239877 -1.052512 -3.830313
v 0.632597 -0.152125 -4.008305
v 0.007574 -0.152132 -3.359071
v 0.007574 -0.152132 -3.359071
v 0.239877 0.712449 -3.830314
v 0.864746 0.861470 -5.362560
v 1.239660 -1.232780 -4.924950
v 1.239660 -1.232780 -4.924950
v 1.515720 -0.152132 -5.373100
v 1.515720 -0.152132 -5.373100
v 0.366383 -1.156664 -3.769225
v 0.366383 -1.156664 -3.769225
v 0.366383 0.826120 -3.769224
v 0.366383 0.826120 -3.769224
v 1.239660 0.928510 -4.924950
v 1.239660 0.928510 -4.924950
v 1.378910 -0.151456 -5.759780
v 1.130380 1.104730 -5.268520
v 1.007110 -0.151514 -5.686770
v -0.239877 -1.052516 -3.830313
v -1.130380 -1.407560 -5.268520
v -0.864746 -1.172375 -5.362570
v -0.632597 -0.152129 -4.008305
v -0.007574 -0.152136 -3.359071
v -0.007574 -0.152136 -3.359071
v -0.239878 0.712445 -3.830314
v -0.864746 0.861470 -5.362560
v -1.239670 -1.232780 -4.924950
v -1.239670 -1.232780 -4.924950
v -1.515720 -0.152136 -5.373100
v -1.515720 -0.152136 -5.373100
v -0.366383 -1.156667 -3.769225
v -0.366383 -1.156667 -3.769225
v -0.366384 0.826120 -3.769223
v -0.366384 0.826120 -3.769223
v -1.239670 0.928510 -4.924950
v -1.239670 0.928510 -4.924950
v -1.130380 1.104730 -5.268520
v -1.378910 -0.151456 -5.759780
v -1.007110 -0.151514 -5.686770
v -0.449750 0.161611 -3.729358
v -0.487446 0.425661 -4.115885
v -0.798089 -0.250031 -3.950428
v 0.000000 0.225863 -3.619131
v 0.000000 0.688537 -4.083642
v 0.000000 -0.259522 -3.381509
v -0.373639 -0.668535 -3.785745
v -0.981851 -0.814208 -4.545260
v 0.000000 0.830210 -4.965700
v -1.053510 0.520344 -5.082780
v -0.910594 -0.656483 -5.319160
v 0.000000 -1.034540 -5.328570
v 0.000000 -1.172943 -4.631750
v 0.000000 -1.016387 -3.874585
v 0.000000 0.520123 -6.022890
v -0.485486 0.279569 -6.084960
v -0.424641 -0.368016 -6.197210
v 0.000000 -0.627840 -6.205000
v 0.424641 -0.368016 -6.197210
v 1.053510 0.520344 -5.082780
v 0.487446 0.425661 -4.115885
v 0.798088 -0.250031 -3.950429
v 0.981851 -0.814208 -4.545260
v 0.373639 -0.668535 -3.785745
v 0.449750 0.161612 -3.729358
v 0.910594 -0.656483 -5.319160
v 0.485486 0.279569 -6.084960
v 1.599400 0.880280 -0.039150
v 1.840640 0.794682 -0.381530
v 1.840640 1.244030 -0.413890
v 2.081870 0.880280 -0.039150
v -1.621230 -0.409365 -0.246500
v -2.060080 -0.409365 -0.246500
v -1.840660 -0.550903 -0.552940
v -1.540860 0.218835 -0.322120
v -1.565820 0.179291 -0.000190
v -1.628050 -0.413921 -0.508230
v -1.840640 0.298646 -0.555490
v -2.115450 0.179291 -0.000190
v -2.140410 0.218835 -0.322120
v -2.053260 -0.413921 -0.508230
v -2.675920 1.010820 -1.039190
v -1.006150 1.047740 -1.039190
v -1.840640 -0.366145 -0.705080
v -1.840640 -0.366145 -0.705080
v -1.637290 -0.150229 -0.680070
v -1.637290 -0.150229 -0.680070
v -1.840640 0.087882 -0.715080
v -1.840640 0.087882 -0.715080
v -2.043990 -0.150229 -0.680070
v -2.043990 -0.150229 -0.680070
v -2.675920 -1.291310 -1.039190
v -3.049590 -0.152135 -1.039190
v -0.581009 -0.152135 -1.039190
v -0.954679 -1.243170 -1.039190
v -1.599400 0.880270 -0.039150
v -1.840640 0.794679 -0.381530
v -1.840640 1.244020 -0.413880
v -2.081870 0.880270 -0.039150
v 2.256230 0.506475 -10.103300
v 1.700580 0.586888 -10.458301
v 1.716350 0.977440 -10.488270
v 2.291470 1.053070 -10.146600
v 2.017180 0.530180 -9.796360
v 1.537440 0.609248 -10.249530
v 2.301840 0.846590 -9.509880
v 2.451430 0.611648 -9.776840
v 2.522630 0.931500 -9.552500
v 2.264170 1.230250 -9.585230
v 1.855910 1.062910 -9.631360
v 2.455390 1.203840 -9.741170
v 2.572390 0.817350 -9.860890
v 1.421630 0.991810 -10.131041
v 1.993190 1.375390 -9.834160
v 1.513200 1.205890 -10.266570
v 0.771541 -0.453757 -8.683870
v 1.085490 0.496108 -8.548030
v 0.000000 -0.474360 -11.383241
v 0.000000 -0.474360 -11.383241
v -0.390879 0.750432 -8.153950
v -0.615839 1.933440 -9.489950
v -0.542548 1.883240 -9.788440
v -0.542548 1.883240 -9.788440
v -1.004600 1.506370 -9.951241
v -1.004600 1.506370 -9.951241
v 0.000000 -0.807047 -8.830970
v 0.000000 2.061510 -9.721170
v 0.000000 2.061510 -9.721170
v 0.861429 1.228570 -10.962250
v 0.755229 0.213327 -11.293120
v 0.000000 0.698398 -11.406501
v -1.399570 0.553463 -10.403160
v -1.399570 0.553463 -10.403160
v -1.476350 0.398535 -9.864580
v -1.126700 1.574880 -9.406250
v -1.027870 1.559030 -10.018930
v -1.404130 0.573713 -10.479150
v -1.008800 -0.492456 -10.879311
v -1.008800 -0.492456 -10.879311
v -1.014140 -0.470157 -10.959150
v -0.555117 1.961360 -9.846770
v 0.000000 -0.918295 -11.133940
v 0.000000 -0.925690 -11.076530
v 0.000000 -0.925690 -11.076530
v -1.389460 0.362693 -9.028780
v 1.389460 0.362693 -9.028780
v 1.476350 0.398535 -9.864580
v 1.126700 1.574880 -9.406250
v 1.399570 0.553464 -10.403160
v 1.399570 0.553464 -10.403160
v 1.004600 1.506370 -9.951241
v 1.004600 1.506370 -9.951241
v 1.268880 1.004210 -10.515161
v 1.268880 1.004210 -10.515161
v 0.984883 1.569670 -10.494720
v 1.027870 1.559030 -10.018930
v 0.615839 1.933440 -9.489950
v 1.404130 0.573714 -10.479150
v 1.332390 0.849230 -10.464231
v 1.332390 0.849230 -10.464231
v 0.000000 1.713810 -10.985340
v 0.000000 2.103220 -10.343600
v 0.000000 -1.194370 -9.487710
v -1.064110 -0.717025 -9.342610
v -1.162970 -0.743504 -10.320180
v 0.000000 -1.243600 -10.491961
v -0.771541 -0.453757 -8.683870
v -1.085490 0.496108 -8.548030
v -1.244780 0.909050 -10.668450
v -1.316370 0.753624 -10.607730
v -1.142310 0.437888 -10.933340
v -0.984883 1.569670 -10.494720
v -1.268880 1.004210 -10.515161
v -1.268880 1.004210 -10.515161
v -1.332390 0.849230 -10.464231
v -1.332390 0.849230 -10.464231
v 1.008800 -0.492456 -10.879311
v 1.008800 -0.492456 -10.879311
v 1.014140 -0.470157 -10.959150
v 0.000000 -0.109497 -11.433520
v 0.555116 1.961360 -9.846770
v 0.000000 2.165100 -9.770150
v 0.542548 1.883240 -9.788440
v 0.542548 1.883240 -9.788440
v 0.191751 -0.266406 -11.382421
v -0.861430 1.228570 -10.962250
v 0.390879 0.750432 -8.153950
v -0.191751 -0.266405 -11.382421
v -0.755230 0.213327 -11.293120
v 1.064110 -0.717024 -9.342610
v 1.162970 -0.743504 -10.320180
v 1.316370 0.753626 -10.607730
v 1.244780 0.909050 -10.668450
v 1.142310 0.437888 -10.933340
v 0.710093 1.930040 -9.185861
v 0.000000 2.123590 -9.324161
v 0.998899 1.504480 -8.896280
v 0.734339 1.536010 -8.566650
v 0.739967 1.244540 -8.405251
v -0.739968 1.244540 -8.405251
v -0.734340 1.536010 -8.566650
v -0.998900 1.504480 -8.896280
v -0.727343 1.876020 -8.894330
v 0.727343 1.876020 -8.894330
v 0.000000 1.481240 -8.218030
v 0.397159 1.548820 -8.302560
v -0.397160 1.548820 -8.302560
v -0.710094 1.930040 -9.185861
v -0.177380 -0.202645 -7.554470
v -0.238672 0.133099 -7.532150
v -0.273333 0.138033 -7.147810
v 0.000000 0.243652 -7.115450
v 0.000000 0.227049 -7.504110
v -0.217440 -0.244764 -7.172270
v -0.250861 -0.151332 -7.349880
v -0.242435 -0.039279 -7.478870
v -0.262519 -0.041357 -7.229150
v -0.262519 -0.041357 -7.229150
v -0.287841 0.071065 -7.351270
v 0.217440 -0.244764 -7.172270
v 0.177380 -0.202645 -7.554470
v 0.273333 0.138033 -7.147810
v 0.238672 0.133099 -7.532150
v 0.250861 -0.151332 -7.349880
v 0.242435 -0.039279 -7.478870
v 0.255210 0.070266 -7.351290
v 0.262519 -0.041357 -7.229150
v 0.262519 -0.041357 -7.229150
v 0.283556 -0.150999 -7.349840
v 0.275286 -0.038698 -7.479010
v -0.255211 0.070266 -7.351290
v -0.283557 -0.150999 -7.349840
v -0.275286 -0.038698 -7.479010
v -2.344860 -0.002062 -7.487300
v -2.343570 0.121382 -7.349790
v -2.344860 -0.002038 -7.205060
v -2.343390 -0.129977 -7.347660
v -2.435230 0.188668 -7.347810
v -4.835790 0.428414 -7.334910
v -5.512100 0.464733 -7.571740
v -5.001460 0.500861 -7.103860
v -5.521340 0.569349 -7.162230
v -5.545330 -0.011987 -7.621130
v -5.512100 -0.488687 -7.571700
v -4.835790 -0.452598 -7.334870
v -4.835790 -0.012111 -7.600450
v -5.562330 -0.011941 -7.170960
v -5.521340 -0.593241 -7.162160
v -5.263830 -0.524786 -7.103810
v -4.835790 -0.012069 -7.069330
v -4.995310 1.116630 -7.334910
v -5.010610 1.194580 -7.103860
v -5.490100 1.108880 -7.448350
v -5.500050 1.188370 -7.162230
v -6.489050 -0.315708 -7.398340
v -6.377060 -0.863597 -7.405360
v -6.317480 -0.928780 -7.129540
v -6.445340 -0.318715 -7.110450
v -6.489060 0.303038 -7.398380
v -6.445340 0.294762 -7.110480
v -6.317490 0.904830 -7.129620
v -6.377070 0.839530 -7.405400
v -2.436550 -0.006193 -7.503010
v -2.432900 -0.193660 -7.343860
v -4.738580 -0.419057 -7.334870
v -4.738580 -0.012111 -7.604580
v -4.738580 -0.012068 -7.065200
v -4.738580 0.394875 -7.334910
v -2.436550 -0.006168 -7.192590
v 5.010620 1.194580 -7.103860
v 4.995310 1.116630 -7.334910
v 5.490100 1.108890 -7.448350
v 5.500050 1.188380 -7.162230
v 4.835790 0.428415 -7.334910
v 5.512100 0.464734 -7.571740
v 5.001460 0.500861 -7.103860
v 5.521340 0.569349 -7.162230
v 5.512100 -0.488686 -7.571700
v 5.545340 -0.011987 -7.621130
v 4.835790 -0.012110 -7.600450
v 4.835790 -0.452597 -7.334870
v 5.263830 -0.524785 -7.103810
v 5.521340 -0.593241 -7.162160
v 5.562330 -0.011941 -7.170960
v 4.738580 -0.012067 -7.065200
v 4.738580 0.394875 -7.334910
v 0.287841 0.071065 -7.351270
v 2.343570 0.121382 -7.349790
v 2.344860 -0.002061 -7.487300
v 2.344860 -0.002037 -7.205060
v 2.343390 -0.129976 -7.347660
v 2.435230 0.188669 -7.347810
v 6.377070 -0.863596 -7.405360
v 6.489050 -0.315707 -7.398340
v 6.445340 -0.318714 -7.110450
v 6.317480 -0.928779 -7.129540
v 6.377070 0.839530 -7.405400
v 6.317490 0.904830 -7.129620
v 6.445340 0.294763 -7.110480
v 6.489060 0.303039 -7.398380
v 2.432900 -0.193660 -7.343860
v 2.436550 -0.006192 -7.503010
v 4.738580 -0.012111 -7.604580
v 4.738580 -0.419056 -7.334870
v 4.835790 -0.012068 -7.069330
v 2.436550 -0.006167 -7.192590
v -0.368594 -0.897548 -13.732639
v 0.000000 -0.418541 -13.217631
v 0.368593 -0.897548 -13.732639
v 0.000000 -1.393030 -13.816113
v 0.000000 -1.663054 -13.425606
v 0.480063 -1.528543 -12.716390
v -0.480064 -1.528543 -12.716390
v 0.371654 -0.912994 -11.846183
v -0.371654 -0.912994 -11.846183
v 0.586881 -1.270237 -13.480985
v 0.779802 -0.897708 -12.990131
v 0.000000 -0.098638 -12.177904
v 0.539421 -0.454163 -12.020279
v -0.586881 -1.270237 -13.480985
v -0.539421 -0.454165 -12.020279
v -0.779802 -0.897708 -12.990131
v -1.716350 0.977440 -10.488270
v -2.522630 0.931500 -9.552500
v -2.264170 1.230250 -9.585230
v -2.455390 1.203840 -9.741170
v -2.572390 0.817350 -9.860890
v -2.291470 1.053070 -10.146600
v -1.513200 1.205890 -10.266570
v -1.993190 1.375390 -9.834160
v -1.421630 0.991810 -10.131030
v -1.700580 0.586888 -10.458301
v -2.256230 0.506475 -10.103300
v -1.537440 0.609248 -10.249530
v -2.017180 0.530180 -9.796360
v -2.451430 0.611648 -9.776840
v -2.301840 0.846590 -9.509880
v -1.855910 1.062910 -9.631360
v 0.333385 2.052550 -8.982181
v 0.333385 2.052550 -8.982181
v -0.333385 2.052550 -8.982181
v -0.333385 2.052550 -8.982181
v 0.333385 1.897050 -8.433550
v 0.333385 1.897050 -8.433550
v 0.000000 1.893540 -8.358500
v 0.000000 1.893540 -8.358500
v 0.471476 1.959790 -8.715550
v 0.471476 1.959790 -8.715550
v 0.000000 2.128740 -9.068541
v 0.000000 2.128740 -9.068541
v -0.333385 1.897050 -8.433550
v -0.333385 1.897050 -8.433550
v -0.471477 1.959790 -8.715550
v -0.471477 1.959790 -8.715550
v -0.383284 2.003090 -8.592920
v 0.383284 2.003090 -8.592920
v -0.120147 2.257410 -8.979430
v 0.120147 2.257410 -8.979430
v 0.102967 2.191110 -8.558041
v -0.102967 2.191110 -8.558041
v 0.000000 2.199780 -8.638530
v -0.123300 2.232520 -8.807760
v 0.123300 2.232520 -8.807760
v 0.228616 2.161050 -8.685660
v -0.228616 2.161050 -8.685660
v -0.294158 2.107190 -8.706800
v 0.294821 2.106760 -8.705530
v 0.000000 2.094700 -8.671041
v -0.158268 2.032690 -8.679510
v -0.207904 2.001690 -8.717780
v 0.207904 2.001690 -8.717780
v 0.158268 2.032690 -8.679510
v -0.114454 2.174700 -8.762731
v 0.000000 2.183870 -8.780701
v 0.114454 2.174700 -8.762731
v 0.000000 1.939690 -8.684140
v 1.753050 1.878190 -2.138410
v 3.031660 1.247090 -2.138410
v 3.513720 -0.152131 -2.138410
v 2.259450 -0.152132 -4.898550
v 0.033796 -0.152131 -2.138410
v 0.474341 1.371580 -2.138420
v 3.031660 -1.675840 -2.138410
v 2.774630 -1.567700 -3.705941
v 3.191280 -0.152131 -3.705942
v 1.537150 -1.940650 -3.705942
v 1.753050 -2.068560 -2.138410
v 0.526055 -1.675840 -2.138410
v 2.774630 1.127400 -3.705941
v 1.537150 1.739900 -3.705941
v -1.753050 1.878190 -2.138410
v -3.031650 1.247090 -2.138410
v -3.513720 -0.152136 -2.138410
v -2.259450 -0.152136 -4.898550
v -0.033796 -0.152135 -2.138410
v -0.474342 1.371570 -2.138420
v -3.031650 -1.675850 -2.138410
v -3.191280 -0.152136 -3.705942
v -2.774630 -1.567700 -3.705941
v -1.537150 -1.940650 -3.705942
v -1.753050 -2.068560 -2.138420
v -0.526055 -1.675850 -2.138410
v -2.774630 1.127400 -3.705942
v -1.537150 1.739900 -3.705942
v 0.212367 0.012966 -8.292090
v -0.212367 0.012966 -8.292090
v 0.000000 -0.168132 -8.310420
v 0.000000 0.204362 -8.216391
v 0.000000 0.204362 -8.216391
v 0.295091 2.042970 -8.471510
v -0.295091 2.042970 -8.471510
v -0.122580 2.119410 -8.468810
v 0.122580 2.119410 -8.468810
v 0.305270 2.196510 -8.930710
v -0.304867 2.196720 -8.931460
v -0.133857 2.277200 -8.899950
v 0.133857 2.277200 -8.899950
vt 0.590488 0.131538
vt 0.620311 0.133733
vt 0.592429 0.133733
vt 0.622251 0.131538
vt 0.593689 0.131538
vt 0.619050 0.131538
vt 0.500000 0.548873
vt 0.486207 0.572351
vt 0.484204 0.550696
vt 0.500000 0.570771
vt 0.515796 0.550696
vt 0.513793 0.572351
vt 0.500000 0.392499
vt 0.449722 0.344831
vt 0.443259 0.387625
vt 0.500000 0.349837
vt 0.556741 0.387625
vt 0.550278 0.344831
vt 0.471944 0.474378
vt 0.447377 0.431230
vt 0.439118 0.417911
vt 0.475460 0.480703
vt 0.487434 0.552074
vt 0.500000 0.470881
vt 0.528056 0.474378
vt 0.524540 0.480703
vt 0.512566 0.552074
vt 0.181458 0.574582
vt 0.211323 0.561238
vt 0.220541 0.561238
vt 0.182729 0.567629
vt 0.180924 0.551508
vt 0.182154 0.551508
vt 0.210967 0.548220
vt 0.210438 0.548220
vt 0.483613 0.562079
vt 0.485503 0.562081
vt 0.484829 0.555279
vt 0.364566 0.562076
vt 0.484091 0.569357
vt 0.364491 0.569824
vt 0.483366 0.562160
vt 0.364491 0.553921
vt 0.364576 0.561957
vt 0.181458 0.574579
vt 0.125000 0.564812
vt 0.179537 0.577364
vt 0.131472 0.565207
vt 0.180924 0.551504
vt 0.134915 0.549667
vt 0.178555 0.552000
vt 0.127526 0.548591
vt 0.134915 0.549671
vt 0.125000 0.564814
vt 0.127526 0.548592
vt 0.131472 0.565210
vt 0.359193 0.570709
vt 0.359403 0.561742
vt 0.359193 0.553219
vt 0.359269 0.561965
vt 0.220542 0.576199
vt 0.226159 0.561236
vt 0.220542 0.561236
vt 0.226159 0.576432
vt 0.226159 0.561238
vt 0.220541 0.546274
vt 0.226159 0.546041
vt 0.560882 0.417911
vt 0.552623 0.431230
vt 0.489749 0.573609
vt 0.510251 0.573609
vt 0.516527 0.637574
vt 0.528085 0.623373
vt 0.539008 0.633739
vt 0.528681 0.650086
vt 0.471319 0.650086
vt 0.460992 0.633739
vt 0.471914 0.623373
vt 0.483473 0.637574
vt 0.788677 0.561238
vt 0.818542 0.574582
vt 0.779459 0.561238
vt 0.817271 0.567629
vt 0.789562 0.548220
vt 0.817846 0.551508
vt 0.789032 0.548220
vt 0.819076 0.551508
vt 0.515171 0.555279
vt 0.514497 0.562081
vt 0.516387 0.562079
vt 0.635509 0.569824
vt 0.516634 0.562160
vt 0.635434 0.562076
vt 0.515909 0.569357
vt 0.635424 0.561957
vt 0.635509 0.553921
vt 0.865085 0.549671
vt 0.868528 0.565210
vt 0.872474 0.548592
vt 0.875000 0.564814
vt 0.821445 0.552000
vt 0.820463 0.577364
vt 0.872474 0.548591
vt 0.875000 0.564812
vt 0.865085 0.549667
vt 0.868528 0.565207
vt 0.819076 0.551504
vt 0.818542 0.574579
vt 0.640597 0.561742
vt 0.640807 0.570709
vt 0.640731 0.561965
vt 0.640807 0.553219
vt 0.779458 0.561236
vt 0.773841 0.576432
vt 0.779458 0.576199
vt 0.773840 0.561236
vt 0.779458 0.546274
vt 0.773841 0.546041
vt 0.773841 0.561238
vt 0.436898 0.726161
vt 0.424060 0.730139
vt 0.445263 0.755659
vt 0.419894 0.701696
vt 0.442262 0.674438
vt 0.424609 0.657493
vt 0.458137 0.639506
vt 0.443476 0.626911
vt 0.500000 0.682265
vt 0.500000 0.647400
vt 0.557738 0.674438
vt 0.541863 0.639506
vt 0.575391 0.657493
vt 0.556524 0.626911
vt 0.580106 0.701696
vt 0.554737 0.755659
vt 0.575940 0.730139
vt 0.563102 0.726161
vt 0.000000 0.000000
vt 0.500000 0.603911
vt 0.521550 0.605649
vt 0.525310 0.614657
vt 0.500000 0.601199
vt 0.474690 0.614657
vt 0.478450 0.605649
vt -0.053571 0.399554
vt 0.514010 0.569349
vt 0.514749 0.562161
vt 0.485990 0.569349
vt 0.485251 0.562161
vt 0.500000 0.481142
vt 0.195805 0.548217
vt 0.804195 0.548217
vt 0.784382 -1.137030
vt 0.279018 -0.008929
vt 1.392990 -0.443119
vt -0.129350 -0.642702
vt -0.477741 -0.417367
vt -0.494185 0.016434
vt 0.551157 0.637072
vt 0.534434 0.611178
vt 0.535136 0.617604
vt 0.448843 0.637072
vt 0.465566 0.611178
vt 0.472739 0.610409
vt 0.527261 0.610409
vt 0.500000 0.610904
vt 0.512273 0.615169
vt 0.500000 0.620259
vt 0.487727 0.615169
vt 0.464863 0.617604
vt 0.606370 0.145572
vt 0.594083 0.146285
vt 0.589045 0.149677
vt 0.606370 0.153024
vt 0.606370 0.154847
vt 0.606370 0.162826
vt 0.623694 0.149677
vt 0.618656 0.146285
vt 0.392606 0.354110
vt 0.434407 0.363433
vt 0.439480 0.341654
vt 0.500000 0.361616
vt 0.500000 0.335444
vt 0.560520 0.341654
vt 0.500000 0.322055
vt 0.565592 0.363433
vt 0.607394 0.354110
vt 1.625900 1.687370
vt -0.750338 0.330580
vt -0.497994 1.642420
vt 1.625900 -0.134415
vt -0.834293 -0.302393
vt -2.248960 1.309330
vt -2.168590 -0.003776
vt 0.500000 0.904449
vt 0.500000 -0.601011
vt 1.834290 -0.302393
vt 3.248960 1.309330
vt 3.168580 -0.003776
vt 0.629464 1.424110
vt 1.276790 0.477679
vt 1.339290 1.486610
vt 0.504464 0.468750
vt -0.098214 1.437500
vt -0.254464 0.477679
vt -0.035714 -0.174107
vt 0.959821 -0.174107
vt 0.513862 0.347342
vt 0.585125 0.357371
vt 0.550614 0.429191
vt 0.500438 0.320791
vt 0.558077 0.445761
vt 0.804688 -0.002604
vt 0.656143 0.220482
vt 0.099432 0.150568
vt 0.216146 0.002604
vt 0.011364 0.019886
vt 0.565953 0.368558
vt 0.917614 0.252841
vt 0.833053 0.451546
vt 0.981771 0.000000
vt 0.675198 0.380871
vt 0.676235 0.339581
vt 0.654640 0.339581
vt 0.703056 0.380871
vt 0.660345 0.439751
vt 0.684423 0.439751
vt 0.601308 0.380871
vt 0.588832 0.439751
vt 0.530401 0.380871
vt 0.521173 0.442128
vt 0.501953 0.380871
vt 0.500438 0.426722
vt 0.533576 0.339581
vt 0.555171 0.339581
vt 0.558145 0.339581
vt 0.527412 0.380871
vt 0.593128 0.702532
vt 0.622422 0.689055
vt 0.592273 0.701558
vt 0.624334 0.690466
vt 0.582105 0.694665
vt 0.608149 0.679379
vt 0.577137 0.689931
vt 0.600701 0.672293
vt 0.583420 0.694191
vt 0.609451 0.678225
vt 0.484488 0.747033
vt 0.520037 0.770741
vt 0.515512 0.747033
vt 0.479963 0.770741
vt 0.477486 0.751682
vt 0.467453 0.778065
vt 0.500000 0.755900
vt 0.500000 0.784159
vt 0.522514 0.751682
vt 0.532547 0.778065
vt 0.391851 0.679379
vt 0.406872 0.702532
vt 0.375667 0.690466
vt 0.417895 0.694665
vt 0.399299 0.672293
vt 0.422864 0.689931
vt 0.390549 0.678225
vt 0.416580 0.694191
vt 0.377578 0.689055
vt 0.407728 0.701558
vt 0.500000 0.736099
vt 0.489596 0.734330
vt 0.510404 0.734330
vt 0.606370 0.327031
vt 0.594618 0.326092
vt 0.606370 0.327406
vt 0.618121 0.326092
vt 0.571640 0.485540
vt 0.630573 0.484549
vt 0.587593 0.502374
vt 0.500000 0.734403
vt 0.459022 0.731079
vt 0.444973 0.719446
vt 0.500000 0.725705
vt 0.555027 0.719446
vt 0.540978 0.731079
vt 0.561981 0.718343
vt 0.546741 0.719195
vt 0.567541 0.708901
vt 0.553439 0.702635
vt 0.568849 0.703475
vt 0.551877 0.684983
vt 0.572295 0.701712
vt 0.576187 0.702296
vt 0.571426 0.706793
vt 0.438019 0.718343
vt 0.423813 0.702296
vt 0.428575 0.706793
vt 0.432459 0.708901
vt 0.431151 0.703475
vt 0.427706 0.701712
vt 0.448123 0.684983
vt 0.446561 0.702635
vt 0.453260 0.719195
vt 0.500000 0.790003
vt 0.475505 0.791442
vt 0.484616 0.798208
vt 0.515384 0.798208
vt 0.524495 0.791442
vt 0.500000 0.800554
vt 0.907796 0.198019
vt 0.500001 0.422310
vt 0.965140 0.724565
vt 0.500001 0.027052
vt 0.092207 0.198019
vt 0.034863 0.724565
vt 0.500001 0.958014
vt 0.633228 0.676136
vt 0.639576 0.680440
vt 0.636876 0.669540
vt 0.633013 0.677520
vt 0.624897 0.668055
vt 0.622852 0.670631
vt 0.366772 0.676136
vt 0.360424 0.680440
vt 0.366987 0.677520
vt 0.375104 0.668055
vt 0.377148 0.670631
vt 0.363124 0.669540
vt 0.193750 0.889167
vt -0.028977 0.847985
vt -0.220328 0.934807
vt 0.831250 0.855833
vt 0.447998 0.779755
vt 2.041490 0.809870
vt 1.397320 0.750595
vt 0.617188 0.593750
vt 0.851563 0.093750
vt 0.851563 0.593750
vt 0.617188 0.093750
vt 0.351563 0.593750
vt 0.351563 0.093750
vt 0.062500 0.593750
vt 0.062500 0.093750
vt 0.910156 0.593750
vt 0.910156 0.093750
vt 0.968750 0.593750
vt 0.968750 0.093750
vt 0.059036 0.769671
vt 0.500000 0.070670
vt 0.257244 1.076280
vt 0.164314 0.870572
vt 0.500000 1.070650
vt 0.835686 0.870572
vt 0.940964 0.769672
vt 0.742757 1.076280
vt 0.500000 1.105380
vt 0.411634 0.148577
vt 0.588304 0.148577
vt 0.574171 0.204896
vt 0.425767 0.204896
vt 0.403508 0.488952
vt 0.586551 0.569389
vt 0.413387 0.569389
vt 0.596431 0.488952
vt 0.411115 0.420130
vt 0.588823 0.420130
vt 0.287317 0.178726
vt 0.335221 0.333428
vt 0.499969 0.275960
vt 0.499969 0.343959
vt 0.664717 0.333428
vt 0.614022 0.374196
vt 0.712426 0.371382
vt 0.649791 0.420697
vt 0.582448 0.399543
vt 0.719956 0.546513
vt 0.839730 0.433803
vt 0.740216 0.646052
vt 0.712622 0.178726
vt 0.776175 0.305084
vt 0.740216 0.196526
vt 0.499969 0.128609
vt 0.259721 0.196526
vt 0.223763 0.305084
vt 0.287990 0.372407
vt 0.385916 0.374196
vt 0.350147 0.420697
vt 0.417490 0.399543
vt 0.499969 0.412789
vt 0.280272 0.547129
vt 0.259721 0.646052
vt 0.499969 0.698096
vt 0.160208 0.433803
vt -0.067576 0.489168
vt 0.499704 0.043480
vt -0.111968 0.043357
vt 0.499704 0.444413
vt 0.235162 1.009440
vt 0.499704 0.979407
vt 0.500000 0.466997
vt 0.244636 1.039370
vt -0.054143 0.526868
vt 0.500000 1.007630
vt 1.054140 0.526868
vt 0.755364 1.039370
vt 1.111380 0.043357
vt 1.066980 0.489168
vt 0.764246 1.009440
vt -0.093763 0.560701
vt 0.500000 -0.017161
vt -0.043291 -0.042200
vt 0.500000 0.599195
vt -0.015051 0.941773
vt 0.500000 1.005160
vt 1.043290 -0.042200
vt 1.093760 0.560701
vt 1.015050 0.941773
vt 0.500000 0.015922
vt -0.097019 0.032411
vt 1.097020 0.032411
vt 0.028773 -0.051993
vt 1.016220 0.501966
vt 1.016220 -0.003823
vt -0.057092 0.501966
vt 0.028773 1.025820
vt 1.016220 0.989691
vt 0.500000 0.418342
vt 0.840055 -0.063910
vt 1.128160 0.787460
vt 0.500000 0.022762
vt 0.159945 -0.063910
vt -0.128162 0.787460
vt 0.500000 1.065290
vt 0.120038 0.954853
vt -0.126938 -1.142170
vt 0.056174 -1.084050
vt 0.408664 0.858103
vt 0.902011 -0.807432
vt 0.726959 0.993553
vt 1.008700 0.265003
vt 0.120033 0.954856
vt 0.056168 -1.084040
vt -0.126942 -1.142170
vt 0.408659 0.858106
vt 0.902007 -0.807425
vt 0.726954 0.993559
vt 1.008690 0.265003
usemtl mat_0
s 1
f 19/1 97/2 94/3
f 19/1 22/4 97/2
f 18/5 22/4 19/1
f 18/5 17/6 22/4
f 105/4 122/3 125/2
f 105/4 102/1 122/3
f 99/6 102/1 105/4
f 99/6 98/5 102/1
f 238/7 236/8 237/9
f 238/7 239/10 236/8
f 248/11 239/10 238/7
f 248/11 249/12 239/10
f 79/13 73/14 74/15
f 79/13 80/16 73/14
f 89/17 80/16 79/13
f 89/17 90/18 80/16
f 82/19 77/20 76/21
f 82/19 83/22 77/20
f 237/9 83/22 82/19
f 237/9 240/23 83/22
f 81/24 237/9 82/19
f 81/24 238/7 237/9
f 93/25 238/7 81/24
f 93/25 248/11 238/7
f 85/26 248/11 93/25
f 85/26 246/27 248/11
f 266/28 277/29 265/30
f 266/28 279/31 277/29
f 268/32 279/31 266/28
f 268/32 280/33 279/31
f 267/34 280/33 268/32
f 267/34 278/35 280/33
f 258/36 241/37 244/38
f 261/39 259/40 260/41
f 261/39 245/42 259/40
f 262/43 245/42 261/39
f 262/43 244/38 245/42
f 263/44 244/38 262/43
f 263/44 258/36 244/38
f 260/41 258/36 263/44
f 260/41 259/40 258/36
f 270/45 281/46 269/47
f 270/45 282/48 281/46
f 274/49 282/48 270/45
f 274/49 283/50 282/48
f 273/51 283/50 274/49
f 273/51 284/52 283/50
f 269/47 284/52 273/51
f 269/47 281/46 284/52
f 284/52 281/46 282/48
f 283/50 284/52 282/48
f 287/53 285/54 286/55
f 287/53 288/56 285/54
f 268/32 288/56 287/53
f 268/32 266/28 288/56
f 263/44 289/57 260/41
f 263/44 290/58 289/57
f 262/43 290/58 263/44
f 262/43 295/59 290/58
f 261/39 295/59 262/43
f 261/39 264/60 295/59
f 260/41 264/60 261/39
f 260/41 289/57 264/60
f 272/61 291/62 271/63
f 272/61 292/64 291/62
f 265/30 292/64 272/61
f 265/30 294/65 292/64
f 276/66 294/65 265/30
f 276/66 293/67 294/65
f 271/63 293/67 276/66
f 271/63 291/62 293/67
f 286/55 268/32 287/53
f 286/55 273/51 268/32
f 285/54 273/51 286/55
f 285/54 269/47 273/51
f 288/56 269/47 285/54
f 288/56 266/28 269/47
f 292/64 290/58 291/62
f 292/64 289/57 290/58
f 294/65 289/57 292/64
f 294/65 264/60 289/57
f 293/67 264/60 294/65
f 293/67 295/59 264/60
f 291/62 295/59 293/67
f 291/62 290/58 295/59
f 277/29 279/31 280/33
f 278/35 277/29 280/33
f 85/26 93/25 86/68
f 92/69 85/26 86/68
f 246/27 240/23 235/70
f 247/71 246/27 235/70
f 365/72 373/73 230/74
f 221/75 365/72 230/74
f 234/76 229/77 379/78
f 367/79 234/76 379/78
f 297/80 301/81 300/82
f 297/80 298/83 301/81
f 296/84 298/83 297/80
f 296/84 299/85 298/83
f 302/86 299/85 296/84
f 302/86 303/87 299/85
f 254/88 250/89 255/90
f 315/91 313/92 314/93
f 315/91 256/94 313/92
f 317/95 256/94 315/91
f 317/95 255/90 256/94
f 316/96 255/90 317/95
f 316/96 254/88 255/90
f 314/93 254/88 316/96
f 314/93 313/92 254/88
f 303/87 298/83 299/85
f 303/87 301/81 298/83
f 324/97 301/81 303/87
f 324/97 323/98 301/81
f 325/99 323/98 324/97
f 325/99 326/100 323/98
f 310/101 326/100 325/99
f 310/101 305/102 326/100
f 321/103 305/102 310/101
f 321/103 320/104 305/102
f 322/105 320/104 321/103
f 322/105 319/106 320/104
f 309/107 319/106 322/105
f 309/107 304/108 319/106
f 304/108 305/102 320/104
f 319/106 304/108 320/104
f 315/91 327/109 317/95
f 315/91 328/110 327/109
f 314/93 328/110 315/91
f 314/93 318/111 328/110
f 316/96 318/111 314/93
f 316/96 332/112 318/111
f 317/95 332/112 316/96
f 317/95 327/109 332/112
f 307/113 329/114 306/115
f 307/113 330/116 329/114
f 331/117 330/116 307/113
f 331/117 311/118 330/116
f 300/82 311/118 331/117
f 300/82 312/119 311/118
f 306/115 312/119 300/82
f 306/115 329/114 312/119
f 325/99 324/97 303/87
f 310/101 325/99 303/87
f 330/116 328/110 329/114
f 330/116 327/109 328/110
f 311/118 327/109 330/116
f 311/118 332/112 327/109
f 312/119 332/112 311/118
f 312/119 318/111 332/112
f 329/114 318/111 312/119
f 329/114 328/110 318/111
f 301/81 323/98 326/100
f 305/102 301/81 326/100
f 322/105 321/103 310/101
f 309/107 322/105 310/101
f 191/120 158/121 165/122
f 191/120 160/123 158/121
f 190/124 160/123 191/120
f 190/124 171/125 160/123
f 193/126 171/125 190/124
f 193/126 194/127 171/125
f 189/128 193/126 190/124
f 189/128 152/129 193/126
f 216/130 152/129 189/128
f 216/130 142/131 152/129
f 172/132 142/131 216/130
f 172/132 143/133 142/131
f 173/134 204/135 175/136
f 173/134 217/137 204/135
f 172/132 217/137 173/134
f 172/132 216/130 217/137
f 183/138 365/138 221/138
f 371/139 232/140 369/141
f 371/139 231/142 232/140
f 377/143 231/142 371/139
f 377/143 233/144 231/142
f 147/145 234/76 367/79
f 251/146 255/90 250/89
f 251/146 256/94 255/90
f 252/147 256/94 251/146
f 252/147 313/92 256/94
f 242/148 245/42 257/149
f 242/148 259/40 245/42
f 241/37 259/40 242/148
f 241/37 258/36 259/40
f 244/38 257/149 245/42
f 313/92 252/147 254/88
f 240/23 84/150 83/22
f 240/23 246/27 84/150
f 85/26 84/150 246/27
f 278/35 265/30 277/29
f 278/35 267/34 265/30
f 276/66 265/30 267/34
f 267/34 273/51 276/66
f 268/32 273/51 267/34
f 271/63 274/49 270/45
f 271/63 275/151 274/49
f 276/66 275/151 271/63
f 276/66 273/51 275/151
f 274/49 275/151 273/51
f 300/82 296/84 297/80
f 300/82 302/86 296/84
f 331/117 302/86 300/82
f 331/117 310/101 302/86
f 308/152 310/101 331/117
f 308/152 309/107 310/101
f 307/113 309/107 308/152
f 307/113 304/108 309/107
f 331/117 307/113 308/152
f 310/101 303/87 302/86
f 171/153 161/154 160/155
f 171/153 228/156 161/154
f 229/157 161/154 228/156
f 229/157 234/158 161/154
f 147/145 161/154 234/158
f 174/154 172/153 173/155
f 174/154 223/156 172/153
f 230/157 223/156 174/154
f 174/154 221/158 230/157
f 183/145 221/158 174/154
f 223/159 143/133 172/132
f 223/159 225/160 143/133
f 224/161 225/160 223/159
f 224/161 232/140 225/160
f 369/141 232/140 224/161
f 224/161 373/73 369/141
f 230/74 373/73 224/161
f 224/161 223/159 230/74
f 194/127 228/162 171/125
f 194/127 226/163 228/162
f 146/164 226/163 194/127
f 146/164 233/144 226/163
f 231/142 233/144 146/164
f 146/164 213/165 231/142
f 435/166 213/165 146/164
f 435/166 431/167 213/165
f 143/133 213/165 431/167
f 143/133 225/160 213/165
f 232/140 213/165 225/160
f 232/140 231/142 213/165
f 431/167 142/131 143/133
f 431/167 433/168 142/131
f 247/71 433/168 431/167
f 247/71 235/70 433/168
f 432/169 433/168 235/70
f 432/169 193/126 433/168
f 194/127 193/126 432/169
f 432/169 146/164 194/127
f 435/166 146/164 432/169
f 433/168 152/129 142/131
f 433/168 193/126 152/129
f 236/8 432/169 235/70
f 236/8 434/166 432/169
f 239/10 434/166 236/8
f 239/10 249/12 434/166
f 431/167 434/166 249/12
f 249/12 247/71 431/167
f 251/146 247/71 249/12
f 251/146 250/89 247/71
f 246/27 247/71 250/89
f 250/89 253/88 246/27
f 248/11 246/27 253/88
f 253/88 252/147 248/11
f 249/12 248/11 252/147
f 252/147 251/146 249/12
f 235/70 242/148 236/8
f 235/70 241/37 242/148
f 240/23 241/37 235/70
f 240/23 243/38 241/37
f 237/9 243/38 240/23
f 237/9 257/149 243/38
f 236/8 257/149 237/9
f 236/8 242/148 257/149
f 227/170 228/162 226/163
f 227/170 229/77 228/162
f 379/78 229/77 227/170
f 227/170 377/143 379/78
f 233/144 377/143 227/170
f 227/170 226/163 233/144
f 18/5 1/171 17/6
f 4/5 1/172 18/171
f 20/173 4/172 18/5
f 18/5 19/1 20/173
f 94/3 20/173 19/1
f 94/3 95/174 20/173
f 96/175 95/174 94/3
f 96/175 97/2 95/174
f 94/3 97/2 96/175
f 95/174 21/176 20/173
f 95/174 23/177 21/176
f 97/2 23/177 95/174
f 97/2 22/4 23/177
f 17/6 23/177 22/4
f 17/6 24/178 23/177
f 1/171 24/178 17/6
f 99/6 100/171 98/5
f 99/6 107/178 100/171
f 106/177 107/178 99/6
f 99/6 105/4 106/177
f 125/2 106/177 105/4
f 125/2 123/174 106/177
f 124/175 123/174 125/2
f 124/175 122/3 123/174
f 125/2 122/3 124/175
f 103/172 98/5 100/171
f 103/172 101/173 98/5
f 102/1 98/5 101/173
f 101/173 122/3 102/1
f 123/174 122/3 101/173
f 101/173 104/176 123/174
f 106/177 123/174 104/176
f 69/179 74/15 73/14
f 69/179 77/20 74/15
f 76/21 77/20 69/179
f 69/179 68/180 76/21
f 67/181 68/180 69/179
f 67/181 71/182 68/180
f 70/183 71/182 67/181
f 70/183 91/184 71/182
f 72/185 91/184 70/183
f 72/185 90/18 91/184
f 80/16 90/18 72/185
f 72/185 73/14 80/16
f 67/181 73/14 72/185
f 67/181 69/179 73/14
f 67/181 72/185 70/183
f 91/184 87/186 71/182
f 91/184 88/187 87/186
f 90/18 88/187 91/184
f 90/18 89/17 88/187
f 92/69 88/187 89/17
f 92/69 86/68 88/187
f 87/186 88/187 86/68
usemtl mat_1
f 187/188 181/189 155/190
f 187/188 188/191 181/189
f 212/190 188/191 187/188
f 212/190 198/189 188/191
f 167/192 198/193 162/194
f 167/192 188/195 198/193
f 208/196 188/195 167/192
f 208/196 207/197 188/195
f 181/198 188/195 207/197
f 207/197 182/199 181/198
f 430/200 422/201 60/202
f 430/200 417/203 422/201
f 429/204 417/203 430/200
f 429/204 418/205 417/203
f 108/206 417/203 418/205
f 108/206 109/207 417/203
f 422/201 417/203 109/207
f 408/201 416/200 39/202
f 408/201 403/203 416/200
f 2/207 403/203 408/201
f 2/207 3/206 403/203
f 404/205 403/203 3/206
f 404/205 415/204 403/203
f 416/200 403/203 415/204
f 27/208 28/209 25/210
f 27/208 29/211 28/209
f 31/208 28/209 29/211
f 31/208 32/210 28/209
f 45/212 28/209 32/210
f 45/212 25/210 28/209
f 48/210 49/209 46/208
f 48/210 66/212 49/209
f 53/210 49/209 66/212
f 53/210 52/208 49/209
f 50/211 49/209 52/208
f 50/211 46/208 49/209
usemtl mat_2
f 42/213 44/214 31/215
f 40/216 42/213 31/215
f 38/216 27/215 26/214
f 34/213 38/216 26/214
f 64/214 63/213 61/216
f 52/215 64/214 61/216
f 46/215 59/216 55/213
f 47/214 46/215 55/213
f 29/217 40/216 31/215
f 27/215 38/216 29/217
f 52/215 61/216 50/217
f 50/217 59/216 46/215
f 25/218 26/214 27/215
f 25/218 43/219 26/214
f 45/220 43/219 25/218
f 45/220 32/218 43/219
f 44/214 43/219 32/218
f 44/214 36/221 43/219
f 42/213 36/221 44/214
f 31/215 44/214 32/218
f 36/221 26/214 43/219
f 36/221 34/213 26/214
f 47/214 48/218 46/215
f 47/214 65/219 48/218
f 57/221 65/219 47/214
f 57/221 64/214 65/219
f 63/213 64/214 57/221
f 47/214 55/213 57/221
f 65/219 66/220 48/218
f 65/219 53/218 66/220
f 64/214 53/218 65/219
f 64/214 52/215 53/218
usemtl mat_3
f 409/222 13/223 14/224
f 409/222 405/225 13/223
f 410/226 405/225 409/222
f 410/226 411/227 405/225
f 413/228 410/226 409/222
f 413/228 412/229 410/226
f 414/230 412/229 413/228
f 414/230 37/231 412/229
f 407/232 37/231 414/230
f 407/232 30/233 37/231
f 16/234 414/230 15/235
f 16/234 407/232 414/230
f 2/236 407/232 16/234
f 2/236 408/237 407/232
f 404/222 411/227 415/226
f 404/222 405/225 411/227
f 3/224 405/225 404/222
f 3/224 13/223 405/225
f 119/223 423/222 118/224
f 119/223 419/225 423/222
f 108/224 419/225 119/223
f 108/224 418/222 419/225
f 419/225 425/226 423/222
f 419/225 424/227 425/226
f 418/222 424/227 419/225
f 418/222 429/226 424/227
f 426/229 427/228 423/222
f 425/226 426/229 423/222
f 428/230 120/234 121/235
f 428/230 421/232 120/234
f 58/231 421/232 428/230
f 58/231 51/233 421/232
f 422/237 109/236 120/234
f 421/232 422/237 120/234
f 128/238 126/239 127/240
f 128/238 129/241 126/239
f 141/242 129/241 128/238
f 141/242 140/243 129/241
f 139/244 140/243 141/242
f 139/244 136/245 140/243
f 131/246 136/245 139/244
f 131/246 130/247 136/245
f 127/240 130/247 131/246
f 127/240 126/239 130/247
f 341/248 338/249 340/250
f 341/248 339/251 338/249
f 347/252 339/251 341/248
f 347/252 348/253 339/251
f 344/254 348/253 347/252
f 344/254 334/255 348/253
f 345/256 334/255 344/254
f 345/256 343/257 334/255
f 340/250 343/257 345/256
f 340/250 338/249 343/257
f 356/258 349/259 354/260
f 356/258 355/261 349/259
f 364/262 355/261 356/258
f 364/262 357/263 355/261
f 361/264 357/263 364/262
f 361/264 360/265 357/263
f 359/266 360/265 361/264
f 359/266 358/267 360/265
f 354/260 358/267 359/266
f 354/260 349/259 358/267
f 206/268 347/252 214/269
f 206/268 344/254 347/252
f 211/270 344/254 206/268
f 211/270 345/256 344/254
f 14/224 413/228 409/222
f 14/224 15/235 413/228
f 6/271 15/235 14/224
f 6/271 10/272 15/235
f 16/234 15/235 10/272
f 10/272 2/236 16/234
f 8/273 2/236 10/272
f 8/273 3/224 2/236
f 12/274 3/224 8/273
f 12/274 13/223 3/224
f 14/224 13/223 12/274
f 12/274 6/271 14/224
f 15/235 414/230 413/228
f 33/275 412/229 37/231
f 33/275 410/226 412/229
f 406/276 410/226 33/275
f 406/276 411/227 410/226
f 415/226 411/227 406/276
f 406/276 416/229 415/226
f 41/275 416/229 406/276
f 41/275 39/231 416/229
f 35/277 406/276 33/275
f 35/277 41/275 406/276
f 39/231 407/232 408/237
f 39/231 30/233 407/232
f 427/228 118/224 423/222
f 427/228 121/235 118/224
f 428/230 121/235 427/228
f 427/228 426/229 428/230
f 58/231 428/230 426/229
f 426/229 54/275 58/231
f 425/226 54/275 426/229
f 425/226 420/276 54/275
f 424/227 420/276 425/226
f 424/227 429/226 420/276
f 430/229 420/276 429/226
f 430/229 62/275 420/276
f 60/231 62/275 430/229
f 420/276 56/277 54/275
f 420/276 62/275 56/277
f 421/232 60/231 422/237
f 421/232 51/233 60/231
f 211/270 340/250 345/256
f 211/270 144/278 340/250
f 341/248 340/250 144/278
f 144/278 214/269 341/248
f 347/252 341/248 214/269
f 214/269 215/279 206/268
f 214/269 166/280 215/279
f 168/281 166/280 214/269
f 214/269 145/278 168/281
f 211/270 168/281 145/278
f 211/270 205/282 168/281
f 156/283 205/282 211/270
f 156/283 220/284 205/282
f 155/285 220/284 156/283
f 155/285 219/286 220/284
f 181/287 219/286 155/285
f 181/287 179/288 219/286
f 182/289 179/288 181/287
f 182/289 185/290 179/288
f 184/291 185/290 182/289
f 184/291 218/292 185/290
f 220/284 218/292 184/291
f 220/284 219/286 218/292
f 128/238 218/292 219/286
f 128/238 127/240 218/292
f 131/246 218/292 127/240
f 131/246 186/290 218/292
f 139/244 186/290 131/246
f 139/244 180/288 186/290
f 141/242 180/288 139/244
f 141/242 128/238 180/288
f 219/286 180/288 128/238
f 184/291 205/282 220/284
f 156/283 211/270 206/268
f 121/235 111/271 118/224
f 121/235 113/272 111/271
f 120/234 113/272 121/235
f 120/234 109/236 113/272
f 115/273 113/272 109/236
f 109/236 108/224 115/273
f 117/274 115/273 108/224
f 108/224 119/223 117/274
f 118/224 117/274 119/223
f 118/224 111/271 117/274
f 166/280 197/293 215/279
f 166/280 163/294 197/293
f 196/295 197/293 163/294
f 196/295 195/296 197/293
f 349/259 195/296 196/295
f 349/259 200/297 195/296
f 355/261 200/297 349/259
f 355/261 357/263 200/297
f 202/298 200/297 357/263
f 357/263 360/265 202/298
f 196/295 202/298 360/265
f 360/265 358/267 196/295
f 349/259 196/295 358/267
f 163/294 201/298 196/295
f 163/294 162/299 201/298
f 199/297 201/298 162/299
f 162/299 198/300 199/297
f 195/296 199/297 198/300
f 198/300 212/301 195/296
f 197/293 195/296 212/301
f 212/301 215/279 197/293
f 339/251 337/302 338/249
f 339/251 346/303 337/302
f 348/253 346/303 339/251
f 348/253 333/304 346/303
f 334/255 333/304 348/253
f 334/255 335/305 333/304
f 343/257 335/305 334/255
f 343/257 342/306 335/305
f 338/249 342/306 343/257
f 338/249 337/302 342/306
f 336/307 342/306 337/302
f 336/307 335/305 342/306
f 333/304 335/305 336/307
f 336/307 346/303 333/304
f 337/302 346/303 336/307
f 156/308 157/309 155/310
f 156/308 206/311 157/309
f 215/312 157/309 206/311
f 215/312 212/313 157/309
f 187/314 157/309 212/313
f 187/314 155/310 157/309
f 137/315 129/241 140/243
f 137/315 138/316 129/241
f 134/317 138/316 137/315
f 134/317 133/318 138/316
f 132/319 133/318 134/317
f 132/319 130/247 133/318
f 136/245 130/247 132/319
f 132/319 135/320 136/245
f 134/317 135/320 132/319
f 134/317 137/315 135/320
f 140/243 135/320 137/315
f 140/243 136/245 135/320
f 126/239 133/318 130/247
f 126/239 138/316 133/318
f 129/241 138/316 126/239
f 354/260 352/321 356/258
f 354/260 353/322 352/321
f 359/266 353/322 354/260
f 359/266 362/323 353/322
f 361/264 362/323 359/266
f 361/264 363/324 362/323
f 364/262 363/324 361/264
f 364/262 351/325 363/324
f 356/258 351/325 364/262
f 356/258 352/321 351/325
f 350/326 351/325 352/321
f 350/326 363/324 351/325
f 362/323 363/324 350/326
f 350/326 353/322 362/323
f 352/321 353/322 350/326
usemtl mat_4
f 148/327 147/328 153/329
f 148/327 150/330 147/328
f 161/331 147/328 150/330
f 150/330 158/332 161/331
f 160/333 161/331 158/332
usemtl mat_5
f 163/334 151/335 162/336
f 163/334 159/337 151/335
f 166/338 159/337 163/334
f 166/338 164/339 159/337
f 168/340 164/339 166/338
f 168/340 169/341 164/339
f 205/338 169/341 168/340
f 205/338 203/339 169/341
f 184/334 203/339 205/338
f 184/334 176/337 203/339
f 182/336 176/337 184/334
f 182/336 178/335 176/337
f 207/342 178/335 182/336
f 207/342 209/343 178/335
f 208/344 209/343 207/342
f 208/344 154/345 209/343
f 167/342 154/345 208/344
f 167/342 149/343 154/345
f 162/336 149/343 167/342
f 162/336 151/335 149/343
f 396/346 402/347 399/348
f 396/346 395/349 402/347
f 394/350 402/347 395/349
f 394/350 398/351 402/347
f 397/352 402/347 398/351
f 397/352 401/353 402/347
f 400/354 402/347 401/353
f 400/354 399/348 402/347
usemtl mat_6
f 438/355 439/356 385/357
f 386/358 438/355 385/357
f 442/359 384/360 383/361
f 442/359 443/362 384/360
f 388/363 443/362 442/359
f 388/363 389/364 443/362
f 386/358 437/365 438/355
f 386/358 391/366 437/365
f 387/367 391/366 386/358
f 387/367 394/368 391/366
f 390/369 394/368 387/367
f 390/369 398/370 394/368
f 393/371 398/370 390/369
f 393/371 397/372 398/370
f 401/373 397/372 393/371
f 393/371 389/364 401/373
f 443/362 389/364 393/371
f 393/371 440/374 443/362
f 374/375 440/374 393/371
f 374/375 366/376 440/374
f 384/360 440/374 366/376
f 384/360 443/362 440/374
f 385/357 387/367 386/358
f 385/357 390/369 387/367
f 436/377 390/369 385/357
f 436/377 382/378 390/369
f 370/379 382/378 436/377
f 370/379 374/375 382/378
f 393/371 382/378 374/375
f 393/371 390/369 382/378
f 439/356 436/377 385/357
f 439/356 372/380 436/377
f 438/355 372/380 439/356
f 438/355 437/365 372/380
f 378/381 372/380 437/365
f 437/365 381/382 378/381
f 391/366 381/382 437/365
f 391/366 392/383 381/382
f 395/384 392/383 391/366
f 395/384 396/385 392/383
f 399/386 392/383 396/385
f 399/386 388/363 392/383
f 400/387 388/363 399/386
f 400/387 389/364 388/363
f 401/373 389/364 400/387
f 372/380 370/379 436/377
f 394/368 395/384 391/366
f 442/359 392/383 388/363
f 442/359 441/388 392/383
f 383/361 441/388 442/359
f 383/361 368/389 441/388
f 376/390 368/389 383/361
f 383/361 384/360 376/390
f 366/376 376/390 384/360
f 380/391 441/388 368/389
f 380/391 392/383 441/388
f 381/382 392/383 380/391
f 380/391 378/381 381/382
usemtl mat_7
f 77/392 79/393 74/394
f 77/392 78/395 79/393
f 83/396 78/395 77/392
f 83/396 84/397 78/395
f 75/398 82/399 76/400
f 75/398 81/401 82/399
f 86/402 81/401 75/398
f 86/402 93/403 81/401
f 78/395 89/404 79/393
f 78/395 92/405 89/404
f 84/397 92/405 78/395
f 84/397 85/406 92/405
f 191/407 189/408 190/409
f 191/407 192/410 189/408
f 165/411 192/410 191/407
f 165/411 170/412 192/410
f 192/410 216/413 189/408
f 192/410 217/414 216/413
f 170/412 217/414 192/410
f 170/412 204/415 217/414
f 71/416 76/400 68/417
f 71/416 75/398 76/400
f 86/402 75/398 71/416
f 71/416 87/418 86/402
f 270/419 272/420 271/421
f 270/419 269/422 272/420
f 266/423 272/420 269/422
f 266/423 265/424 272/420
f 306/420 304/419 307/421
f 306/420 305/422 304/419
f 301/423 305/422 306/420
f 306/420 300/424 301/423
f 222/425 365/426 183/427
f 222/425 375/428 365/426
f 367/429 375/428 222/425
f 222/425 147/430 367/429
f 153/431 147/430 222/425
f 222/425 183/427 153/431
usemtl mat_8
f 5/432 1/433 4/434
f 24/432 1/434 5/433
f 11/435 24/434 5/432
f 11/435 23/436 24/434
f 7/437 23/436 11/435
f 7/437 21/438 23/436
f 20/436 21/438 7/437
f 7/437 9/435 20/436
f 4/434 20/436 9/435
f 9/435 5/432 4/434
f 110/439 103/440 100/441
f 110/439 112/442 103/440
f 101/443 103/440 112/442
f 112/442 114/444 101/443
f 104/445 101/443 114/444
f 114/444 106/443 104/445
f 116/442 106/443 114/444
f 116/442 107/440 106/443
f 110/439 107/440 116/442
f 110/439 100/441 107/440
usemtl mat_9
f 183/328 210/327 153/329
f 183/328 177/330 210/327
f 174/331 177/330 183/328
f 174/331 175/332 177/330
f 173/333 175/332 174/331
