# Blender v2.66 (sub 1) OBJ File: 'BR_Shroomish-Shiny01.blend'
# www.blender.org
mtllib BR_Shroomish-Shiny01.mtl
o kinococo
v -0.806945 1.412840 -2.398887
v -0.806945 1.412840 -2.398887
v -1.213336 1.178190 -2.394010
v 0.746603 1.412840 -2.417531
v 0.746603 1.412840 -2.417531
v 1.152994 1.178190 -2.422408
v 1.152994 -1.188310 -2.422408
v 1.586063 -0.438161 -2.427605
v 0.747165 -1.404830 -2.417227
v 0.402898 -1.621410 -2.413406
v -0.030597 -1.620250 -2.405534
v -1.213336 -1.188310 -2.394010
v -0.463240 -1.621410 -2.403012
v -1.429870 -0.813236 -2.391412
v -1.646404 -0.438161 -2.388813
v -1.646404 -0.005061 -2.388813
v -1.646404 0.428039 -2.388813
v 1.586063 0.428039 -2.427605
v 1.586063 -0.005061 -2.427605
v -0.365918 1.226930 -2.871053
v -0.937747 0.896757 -2.864191
v 0.866201 0.896757 -2.885839
v 0.294373 1.226930 -2.878977
v 0.866201 -0.907320 -2.885839
v 0.566717 -0.599513 -3.146494
v 0.787004 -0.217937 -3.149138
v 1.196349 -0.335450 -2.889802
v 0.580287 -1.072400 -2.882408
v 0.185167 -0.819816 -3.141916
v 0.294373 -1.237490 -2.878977
v -0.035773 -1.237490 -2.875015
v -0.937747 -0.907320 -2.864191
v -0.636956 -0.599513 -3.132050
v -0.255407 -0.819816 -3.136629
v -0.365918 -1.237490 -2.871053
v -1.102816 -0.621385 -2.862210
v -0.857243 -0.217937 -3.129406
v -1.267894 -0.335450 -2.860229
v -1.267894 -0.005281 -2.860229
v -0.636956 0.604247 -3.132050
v -0.857243 0.222670 -3.129406
v -1.267894 0.324888 -2.860229
v -0.255407 0.824550 -3.136629
v -0.035773 1.226930 -2.875015
v 0.566717 0.604247 -3.146494
v 0.185167 0.824550 -3.141916
v 1.196349 0.324888 -2.889802
v 0.787004 0.222670 -3.149138
v 1.196349 -0.005281 -2.889802
v -0.949505 1.577170 -1.828286
v -0.514454 1.827920 -1.833516
v -1.366628 1.333910 -1.823290
v 0.469920 1.826980 -1.845329
v 0.875061 1.574380 -1.851971
v -0.021883 1.825260 -1.839418
v 1.979450 -0.004617 -1.150213
v 0.957610 -1.752870 -1.137951
v -1.027864 -1.752120 -1.114124
v -2.012183 -0.002444 -1.102311
v -1.024224 1.721410 -1.114167
v 0.955299 1.721270 -1.137923
v 1.713229 0.991870 -1.147018
v 1.715469 -1.004950 -1.147045
v -0.012835 -2.000640 -1.126305
v -1.748302 -1.005860 -1.105478
v -1.741213 0.993078 -1.105563
v -0.013193 1.993750 -1.126300
v 1.380438 1.393210 -1.310087
v 1.315519 1.335000 -1.855477
v 0.920817 1.643020 -1.303601
v 1.891941 0.505027 -1.316225
v 1.807443 0.482133 -1.861380
v 1.897358 -0.518216 -1.317350
v 1.809503 -0.496206 -1.861405
v 1.805644 -0.004452 -1.861349
v 1.891929 -0.004646 -1.317215
v 1.378498 -1.404370 -1.310063
v 1.313659 -1.345700 -1.855455
v 0.494075 -1.915920 -1.299450
v 0.464384 -1.835880 -1.845263
v 0.876011 -1.607850 -1.850563
v 0.921740 -1.677950 -1.307752
v -0.529702 -1.919580 -1.288224
v -0.515730 -1.837670 -1.833501
v -0.023878 -1.837670 -1.839394
v -0.016144 -1.916440 -1.293987
v -1.417461 -1.403160 -1.276510
v -1.364588 -1.344760 -1.823314
v -1.929024 -0.516916 -1.270371
v -1.855693 -0.496661 -1.817421
v -1.613220 -0.922731 -1.820321
v -1.675994 -0.962959 -1.274398
v -1.929014 0.505842 -1.270372
v -1.853973 0.484710 -1.817441
v -1.856123 -0.005867 -1.817406
v -1.929022 -0.004344 -1.271031
v -1.418063 1.396080 -1.277563
v -0.529702 1.909020 -1.288224
v -0.983134 1.646650 -1.281433
v 0.496105 1.906630 -1.299474
v -0.015278 1.906440 -1.294327
v -0.031032 1.637900 -2.407888
v -0.031032 1.637900 -2.407888
v -0.030171 1.735450 -2.408209
v -0.030171 1.735450 -2.408209
v 0.327135 0.366248 -0.334920
v 0.221140 0.366248 -0.178449
v 0.589389 0.518794 -0.182868
v 0.586756 0.366248 -0.402320
v 0.847918 0.366248 -0.341170
v 0.957639 0.366248 -0.187288
v 0.851643 0.366248 -0.030816
v 0.592023 0.366248 0.036585
v 0.330859 0.366248 -0.024567
v 0.218506 -0.002029 -0.397901
v 0.068605 -0.002029 -0.176619
v 0.585665 -0.002029 -0.493222
v 0.955005 -0.002029 -0.406740
v 1.110170 -0.002029 -0.189118
v 0.960272 -0.002029 0.032166
v 0.593114 -0.002029 0.127486
v 0.223773 -0.002029 0.041004
v 0.327135 -0.370305 -0.334920
v 0.221140 -0.370305 -0.178449
v 0.586756 -0.370305 -0.402320
v 0.847918 -0.370305 -0.341170
v 0.957639 -0.370305 -0.187288
v 0.851643 -0.370305 -0.030816
v 0.592023 -0.370305 0.036585
v 0.330859 -0.370305 -0.024567
v 0.589389 -0.522850 -0.182868
v -0.227900 0.366248 -0.173060
v -0.337619 0.366248 -0.326943
v -0.596149 0.518794 -0.168641
v -0.598783 0.366248 -0.388093
v -0.858403 0.366248 -0.320693
v -0.964399 0.366248 -0.164222
v -0.854678 0.366248 -0.010339
v -0.593516 0.366248 0.050812
v -0.333895 0.366248 -0.016589
v -0.230533 -0.002029 -0.392513
v -0.075365 -0.002029 -0.174891
v -0.599874 -0.002029 -0.478995
v -0.967032 -0.002029 -0.383674
v -1.116930 -0.002029 -0.162391
v -0.961765 -0.002029 0.055231
v -0.592425 -0.002029 0.141713
v -0.225266 -0.002029 0.046393
v -0.337619 -0.370305 -0.326943
v -0.227900 -0.370305 -0.173060
v -0.598783 -0.370305 -0.388093
v -0.858403 -0.370305 -0.320693
v -0.964399 -0.370305 -0.164222
v -0.854678 -0.370305 -0.010339
v -0.593516 -0.370305 0.050812
v -0.333895 -0.370305 -0.016589
v -0.596149 -0.522850 -0.168641
v 1.622466 0.432433 -0.829179
v 1.622466 -0.442996 -0.829179
v 1.797206 0.478811 -1.021067
v 1.172034 -1.201140 -0.828350
v 0.427630 -1.618490 -0.813905
v 1.311181 -1.331260 -1.015234
v -0.499290 -1.815350 -0.993508
v -0.449748 -1.615600 -0.802336
v -1.206760 -1.201140 -0.795227
v -1.644439 -0.442996 -0.789975
v -1.644439 0.432433 -0.789975
v -1.823733 -0.489374 -0.977614
v -1.203107 1.173890 -0.795013
v -0.448670 1.628290 -0.804325
v -1.337698 1.320700 -0.983446
v 0.426697 1.628290 -0.814830
v 1.169815 1.175670 -0.829046
v 0.472763 1.804790 -1.005173
v 1.312621 1.319250 -1.015252
v 1.796676 -0.491344 -1.021061
v 0.470794 -1.815880 -1.005149
v -1.339148 -1.329820 -0.983429
v -1.823203 0.480781 -0.977620
v -0.497321 1.805320 -0.993531
v 2.051809 1.583620 -0.693191
v 1.837979 1.837910 -0.747748
v 1.936905 1.934850 -0.613675
v 1.587000 2.055100 -0.691111
v 1.800700 1.800670 -0.636556
v 1.929074 1.271250 -0.919532
v 1.272094 1.937640 -0.916408
v 1.578675 1.582590 -0.832333
v 1.622073 1.626180 -1.003584
v 2.570062 0.340098 -0.699410
v 2.511920 0.666906 -0.755835
v 2.646284 0.702198 -0.622188
v 2.403242 0.980815 -0.700906
v 2.461203 0.653958 -0.644483
v 2.307227 0.129582 -0.924070
v 2.071437 1.035180 -0.926001
v 2.159563 0.574923 -0.839304
v 2.218670 0.589950 -1.010744
v 2.397164 -0.995967 -0.697335
v 2.510111 -0.684212 -0.755814
v 2.644334 -0.720022 -0.622165
v 2.573020 -0.357692 -0.702944
v 2.459893 -0.669399 -0.644467
v 2.063924 -1.048220 -0.921150
v 2.312489 -0.146069 -0.928894
v 2.158834 -0.588207 -0.839295
v 2.217260 -0.605772 -1.010727
v 1.579453 -2.066580 -0.687522
v 1.833039 -1.853410 -0.747688
v 1.931595 -1.950730 -0.613611
v 2.050857 -1.601770 -0.696677
v 1.797131 -1.814810 -0.636513
v 1.264362 -1.946560 -0.911555
v 1.930657 -1.289600 -0.924312
v 1.576675 -1.595140 -0.832309
v 1.618224 -1.640590 -1.003538
v 0.336019 -2.584870 -0.672600
v 0.662118 -2.527400 -0.733637
v 0.699031 -2.660150 -0.598820
v 0.976648 -2.418070 -0.683786
v 0.650501 -2.475350 -0.622753
v 0.122785 -2.324740 -0.897856
v 1.028262 -2.088990 -0.913482
v 0.569089 -2.176070 -0.820218
v 0.582067 -2.237230 -0.991104
v -0.999949 -2.411960 -0.656568
v -0.688902 -2.525600 -0.717423
v -0.723087 -2.658200 -0.581754
v -0.361762 -2.587870 -0.667725
v -0.672761 -2.474050 -0.606872
v -1.054931 -2.081430 -0.883722
v -0.152903 -2.330060 -0.899308
v -0.593956 -2.175340 -0.806260
v -0.613569 -2.235820 -0.976755
v -2.070484 -1.594180 -0.643721
v -1.858015 -1.848470 -0.703393
v -1.953705 -1.945410 -0.566986
v -1.605750 -2.065660 -0.652796
v -1.818089 -1.811240 -0.593128
v -1.953206 -1.281810 -0.872943
v -1.296351 -1.948210 -0.885586
v -1.600816 -1.593150 -0.794177
v -1.648311 -1.636740 -0.964338
v -2.588737 -0.350660 -0.637501
v -2.531967 -0.677468 -0.695305
v -2.663074 -0.712760 -0.558473
v -2.421991 -0.991378 -0.643001
v -2.478581 -0.664521 -0.585202
v -2.331369 -0.140145 -0.868404
v -2.095683 -1.045750 -0.875993
v -2.181704 -0.585484 -0.787206
v -2.244908 -0.600512 -0.957178
v -2.415839 0.985404 -0.639576
v -2.530157 0.673650 -0.695328
v -2.661134 0.709459 -0.558496
v -2.591779 0.347129 -0.640963
v -2.477282 0.658836 -0.585218
v -2.088067 1.037650 -0.871324
v -2.336736 0.135506 -0.873100
v -2.180984 0.577644 -0.787215
v -2.243499 0.595210 -0.957195
v -1.598118 2.056020 -0.649389
v -1.853085 1.842850 -0.703453
v -1.948385 1.940160 -0.567049
v -2.069606 1.591210 -0.647230
v -1.814519 1.804240 -0.593172
v -1.288504 1.936000 -0.880919
v -1.954913 1.279030 -0.877683
v -1.598826 1.584580 -0.794201
v -1.644462 1.630030 -0.964384
v -0.354689 2.574300 -0.664311
v -0.682159 2.516840 -0.717505
v -0.715825 2.649590 -0.581841
v -0.995402 2.407510 -0.660121
v -0.667884 2.464790 -0.606932
v -0.146922 2.314180 -0.894619
v -1.052518 2.078430 -0.888512
v -0.591235 2.165510 -0.806293
v -0.608309 2.226670 -0.976818
v 0.981279 2.401390 -0.680344
v 0.668861 2.515040 -0.733718
v 0.706291 2.647640 -0.598907
v 0.343008 2.577300 -0.676182
v 0.655378 2.463480 -0.622812
v 1.030789 2.070860 -0.908752
v 0.128652 2.319500 -0.902686
v 0.571811 2.164780 -0.820250
v 0.587326 2.225260 -0.991167
v 0.756901 -0.769257 -0.488251
v 1.036515 -0.284916 -0.491607
v 0.272594 -1.048890 -0.482439
v -0.286634 -1.048890 -0.475728
v -0.770941 -0.769257 -0.469916
v -1.050555 -0.284916 -0.466561
v -1.050555 0.274353 -0.466561
v -0.770941 0.758694 -0.469916
v -0.286634 1.038330 -0.475728
v 0.272594 1.038330 -0.482439
v 0.756901 0.758694 -0.488251
v 1.036515 0.274353 -0.491607
v -0.004420 -0.005281 -0.262441
v -0.038658 0.001876 -3.386497
v -0.038802 -0.087760 -3.569079
v -0.229157 -0.257947 -3.506490
v -0.127318 -0.023445 -3.568017
v -0.345348 0.101583 -3.505096
v -0.093508 0.080619 -3.568423
v -0.039343 0.323195 -3.508768
v 0.015904 0.080619 -3.569736
v 0.265968 0.100629 -3.512432
v 0.049714 -0.023445 -3.570141
v 0.148657 -0.258537 -3.511024
v -0.039160 -0.407594 -3.451676
v -0.037223 -0.489342 -3.290288
v -0.315712 -0.387002 -3.302907
v -0.428474 -0.124720 -3.447004
v -0.504262 -0.149968 -3.286763
v -0.503676 0.165118 -3.300651
v -0.279769 0.332979 -3.448789
v -0.325878 0.399105 -3.287344
v -0.038705 0.503795 -3.306231
v 0.201450 0.332979 -3.454564
v 0.251420 0.399105 -3.294272
v 0.428050 0.151837 -3.311832
v 0.350154 -0.124720 -3.456348
v 0.429766 -0.149968 -3.297972
v 0.262640 -0.389419 -3.309847
v -0.207817 -0.354660 -3.733183
v -0.043716 -0.243299 -3.831369
v -0.042066 -0.444862 -3.693889
v -0.044049 -0.387256 -3.859087
v 0.122693 -0.354660 -3.737149
v -0.330469 -0.265541 -3.731711
v -0.276788 -0.073950 -3.828572
v -0.466822 -0.136237 -3.688792
v -0.414021 -0.118435 -3.854647
v -0.432603 0.048815 -3.730485
v -0.385753 0.193013 -3.731047
v -0.187763 0.200062 -3.829640
v -0.304579 0.363129 -3.690738
v -0.272704 0.316525 -3.856343
v -0.118365 0.387296 -3.734256
v 0.033242 0.387296 -3.736076
v 0.100330 0.200062 -3.833097
v 0.220447 0.363129 -3.697039
v 0.184607 0.316525 -3.861831
v 0.300630 0.193013 -3.739284
v 0.347479 0.048815 -3.739846
v 0.189356 -0.073950 -3.834166
v 0.382689 -0.136237 -3.698986
v 0.325924 -0.118435 -3.863527
v 0.245346 -0.265541 -3.738621
v -0.463240 1.735450 -2.403012
v -0.463240 1.735450 -2.403012
v 0.402898 1.735450 -2.413406
v 0.402898 1.735450 -2.413406
v -0.462481 1.637890 -2.403031
v -0.462481 1.637890 -2.403031
v 0.403495 1.637910 -2.413103
v 0.403495 1.637910 -2.413103
vt 0.726302 0.098765
vt 0.838024 0.005647
vt 0.793231 0.024547
vt 0.789204 0.070968
vt 0.676403 0.161269
vt 0.760612 0.132609
vt 0.890032 0.024547
vt 0.863123 0.098765
vt 0.808490 0.161269
vt 0.856017 0.363927
vt 0.857030 0.204580
vt 0.856768 0.363929
vt 0.856017 0.204560
vt 0.856367 0.363929
vt 0.856017 0.204260
vt 0.877467 0.098765
vt 0.961689 0.005647
vt 0.948901 0.024547
vt 0.894997 0.070968
vt 0.856367 0.131306
vt 0.984333 0.024547
vt 0.927547 0.098765
vt 0.856017 0.161269
vt 0.760251 0.204260
vt 0.760251 0.363929
vt 0.673595 0.204560
vt 0.673595 0.363927
vt 0.927490 0.098765
vt 0.961645 0.005647
vt 0.984289 0.024547
vt 0.894952 0.070968
vt 0.856710 0.131306
vt 0.948857 0.024547
vt 0.877410 0.098765
vt 0.808890 0.161068
vt 0.862968 0.098765
vt 0.837903 0.005647
vt 0.889912 0.024547
vt 0.789079 0.070968
vt 0.760251 0.131306
vt 0.793110 0.024547
vt 0.726147 0.098765
vt 0.673595 0.161269
vt 0.499896 0.363927
vt 0.404334 0.204580
vt 0.404156 0.363929
vt 0.500122 0.204459
vt 0.594937 0.363929
vt 0.595287 0.204260
vt 0.701188 0.098765
vt 0.623621 0.005647
vt 0.691058 0.024547
vt 0.605748 0.070968
vt 0.595145 0.131687
vt 0.558825 0.024547
vt 0.514288 0.098765
vt 0.500349 0.161068
vt 0.238923 0.363929
vt 0.238747 0.204260
vt 0.485501 0.098765
vt 0.376214 0.005647
vt 0.441011 0.024547
vt 0.394082 0.070968
vt 0.404505 0.131306
vt 0.308778 0.024547
vt 0.298600 0.098765
vt 0.319380 0.159967
vt 0.273698 0.098765
vt 0.161976 0.005647
vt 0.206769 0.024547
vt 0.210796 0.070968
vt 0.238747 0.131306
vt 0.109968 0.024547
vt 0.150843 0.083808
vt 0.190528 0.161269
vt 0.143245 0.363927
vt 0.143333 0.204260
vt 0.143665 0.363929
vt 0.143332 0.204459
vt 0.143331 0.363929
vt 0.143331 0.204260
vt 0.122533 0.098765
vt 0.038311 0.005647
vt 0.051099 0.024547
vt 0.105003 0.070968
vt 0.143331 0.131306
vt 0.015667 0.024547
vt 0.072453 0.098765
vt 0.143418 0.161068
vt 0.072510 0.098765
vt 0.038355 0.005647
vt 0.015711 0.024547
vt 0.105048 0.070968
vt 0.143333 0.131306
vt 0.051143 0.024547
vt 0.122590 0.098765
vt 0.191793 0.161068
vt 0.137032 0.098765
vt 0.162097 0.005647
vt 0.110088 0.024547
vt 0.210921 0.070968
vt 0.238527 0.131306
vt 0.206890 0.024547
vt 0.273853 0.098765
vt 0.319793 0.160496
vt 0.298812 0.098765
vt 0.376379 0.005647
vt 0.308942 0.024547
vt 0.394252 0.070968
vt 0.404665 0.131306
vt 0.441175 0.024547
vt 0.485712 0.098765
vt 0.500284 0.161269
vt 0.514499 0.098765
vt 0.623786 0.005647
vt 0.558989 0.024547
vt 0.605918 0.070968
vt 0.596015 0.132609
vt 0.691222 0.024547
vt 0.701400 0.098765
vt 0.612968 0.762265
vt 0.729815 0.682395
vt 0.668236 0.682395
vt 0.654056 0.762265
vt 0.566618 0.803389
vt 0.603255 0.798451
vt 0.542139 0.875409
vt 0.586205 0.855110
vt 0.563952 0.955927
vt 0.593982 0.941249
vt 0.388458 0.762265
vt 0.438421 0.682395
vt 0.331764 0.682395
vt 0.459625 0.762265
vt 0.439707 0.803389
vt 0.500775 0.797711
vt 0.459233 0.875409
vt 0.500775 0.855110
vt 0.464512 0.955927
vt 0.500775 0.941249
vt 0.270185 0.682395
vt 0.347370 0.762265
vt 0.185397 0.543369
vt 0.269694 0.543369
vt 0.541801 0.762265
vt 0.561579 0.682395
vt 0.227545 0.543369
vt 0.300974 0.682395
vt 0.814603 0.543369
vt 0.501163 0.896852
vt 0.500775 0.990143
vt 0.537038 0.955927
vt 0.449631 0.990143
vt 0.437598 0.955927
vt 0.481739 0.896852
vt 0.415186 0.955927
vt 0.433737 0.875409
vt 0.407569 0.941249
vt 0.415346 0.855110
vt 0.398296 0.798451
vt 0.398461 0.803389
vt 0.437435 0.797896
vt 0.447977 0.855110
vt 0.500492 0.803389
vt 0.500885 0.875409
vt 0.564115 0.797896
vt 0.553573 0.855110
vt 0.602915 0.803389
vt 0.567881 0.875409
vt 0.469166 0.990143
vt 0.425467 0.955927
vt 0.489158 0.896852
vt 0.484141 0.955927
vt 0.443170 0.941249
vt 0.532384 0.990143
vt 0.517409 0.955927
vt 0.513167 0.896852
vt 0.576084 0.955927
vt 0.558380 0.941249
vt 0.551920 0.990143
vt 0.586364 0.955927
vt 0.520586 0.896852
vt 0.584298 0.543369
vt 0.614908 0.682395
vt 0.651309 0.543270
vt 0.651201 0.543369
vt 0.730306 0.543369
vt 0.500000 0.682395
vt 0.866069 -0.000000
vt 0.845211 0.043446
vt 0.800133 0.126563
vt 0.760612 0.204260
vt 0.909927 0.126563
vt 0.971507 0.043446
vt 1.000000 -0.000000
vt 0.909882 0.126563
vt 0.971463 0.043446
vt 0.999956 -0.000000
vt 0.800009 0.126563
vt 0.845091 0.043446
vt 0.865949 -0.000000
vt 0.609749 0.126563
vt 0.626252 0.043446
vt 0.633886 -0.000000
vt 0.390082 0.126563
vt 0.373584 0.043446
vt 0.365949 -0.000000
vt 0.199867 0.126563
vt 0.154789 0.043446
vt 0.133931 -0.000000
vt 0.190528 0.204560
vt 0.090073 0.126563
vt 0.028493 0.043446
vt 0.000000 -0.000000
vt 0.090118 0.126563
vt 0.028537 0.043446
vt 0.000044 -0.000000
vt 0.238636 0.204580
vt 0.199991 0.126563
vt 0.154909 0.043446
vt 0.134051 -0.000000
vt 0.319757 0.204173
vt 0.390251 0.126563
vt 0.373748 0.043446
vt 0.366114 -0.000000
vt 0.676403 0.204560
vt 0.595666 0.204260
vt 0.609918 0.126563
vt 0.626416 0.043446
vt 0.634051 -0.000000
vt 0.500714 0.831928
vt 0.500775 1.000000
vt 0.419590 1.000000
vt 0.450600 1.000000
vt 0.550950 1.000000
vt 0.581960 1.000000
vt 0.541083 0.174531
vt 0.541083 0.102238
vt 0.560819 0.153357
vt 0.513172 0.102238
vt 0.608467 0.204476
vt 0.608467 0.174531
vt 0.675850 0.174531
vt 0.656114 0.153357
vt 0.703761 0.102238
vt 0.675850 0.102238
vt 0.675850 0.029945
vt 0.656114 0.051119
vt 0.608467 0.000000
vt 0.608467 0.029945
vt 0.541083 0.029945
vt 0.560819 0.051119
vt 0.458917 0.102238
vt 0.458917 0.174531
vt 0.439181 0.153357
vt 0.486828 0.102238
vt 0.439181 0.051119
vt 0.458917 0.029945
vt 0.391533 0.029945
vt 0.391533 0.000000
vt 0.343886 0.051119
vt 0.324150 0.029945
vt 0.324150 0.102238
vt 0.296239 0.102238
vt 0.343886 0.153357
vt 0.324150 0.174531
vt 0.391533 0.174531
vt 0.391533 0.204476
vt 0.762105 0.240499
vt 0.605461 0.159497
vt 0.691875 0.240499
vt 0.644063 0.159497
vt 0.762106 0.240499
vt 0.689483 0.241560
vt 0.570231 0.240499
vt 0.538602 0.159497
vt 0.429769 0.240499
vt 0.461398 0.159497
vt 0.308125 0.240499
vt 0.394539 0.159497
vt 0.237895 0.240499
vt 0.355937 0.159497
vt 0.237894 0.240499
vt 0.569355 0.241560
vt 0.608467 0.102238
vt 0.391533 0.102238
vt 0.846262 0.361729
vt 0.833653 0.344208
vt 0.799872 0.361729
vt 0.744251 0.344208
vt 0.673131 0.361729
vt 0.589402 0.344208
vt 0.500000 0.361729
vt 0.410598 0.344208
vt 0.326869 0.361729
vt 0.255749 0.344208
vt 0.200128 0.361729
vt 0.166347 0.344208
vt 0.153738 0.361729
vt 0.500000 0.131052
vt 0.004316 0.968240
vt 0.254576 0.969884
vt 0.326954 0.996871
vt 0.680564 0.996350
vt 0.730398 0.969884
vt 0.992878 0.968761
vt 0.254576 0.965768
vt 0.219011 0.880877
vt -0.057955 0.880685
vt 0.489198 0.880685
vt 0.492487 0.969884
vt 0.765338 0.880877
vt 1.053910 0.880685
vt 0.733045 0.965768
vt 0.493811 0.965768
vt 0.220011 0.812186
vt -0.060881 0.814262
vt 0.486270 0.812092
vt 0.775942 0.811667
vt 1.045130 0.811667
vt 0.503759 0.996611
vt 0.482711 0.802616
vt 0.539063 0.523438
vt 0.984816 1.149010
vt 0.539063 1.136720
vt 0.984816 0.523181
vt 0.539063 0.000000
vt 0.960938 0.000000
vt -0.402344 0.003906
vt -0.398438 0.523438
vt 0.024613 0.503715
vt 0.976563 -0.617188
vt 0.056355 -0.606779
vt 0.983580 0.503715
vt 0.088589 1.757150
vt 0.942795 1.736860
vt 0.486056 0.698237
vt -0.110411 0.013055
vt -0.121029 0.701009
vt 0.485175 -0.011819
vt 1.110220 0.706935
vt 1.087850 0.013055
vt -0.324219 1.136720
vt 1.045860 1.363350
vt 0.047336 1.363350
vt -0.106982 0.463610
vt 1.191100 0.463610
vt 0.914776 0.959014
vt -0.095825 0.959014
vt -0.281446 -0.062919
vt 1.086650 -0.068503
vt 1.070310 0.605469
vt 0.264309 1.150780
vt 0.882813 1.144530
vt 0.264309 0.599529
vt 1.140630 0.027344
vt 0.260227 0.029726
vt -0.054743 1.100690
vt -0.129836 0.620495
vt -0.161420 0.067428
vt -0.262500 0.471875
vt 0.206250 0.959375
vt -0.228125 0.965625
vt 0.162500 0.487500
vt -0.287299 -0.028417
vt 0.132813 -0.023438
vt 0.493750 0.962500
vt 1.146880 0.503125
vt 1.053130 0.953125
vt 0.512500 0.487500
vt 1.212500 0.068750
vt 0.496875 -0.028125
vt 1.065980 1.538430
vt 0.486056 1.538430
vt -0.020028 1.518730
vt 0.656250 -0.692810
vt -0.284658 -0.614157
usemtl mat_0
s 1
f 188/1 186/2 185/3
f 188/1 189/4 186/2
f 61/5 189/4 188/1
f 61/5 176/6 189/4
f 189/4 182/7 186/2
f 189/4 187/8 182/7
f 176/6 187/8 189/4
f 176/6 62/9 187/8
f 75/10 73/11 74/12
f 75/10 76/13 73/11
f 72/14 76/13 75/10
f 72/14 71/15 76/13
f 197/16 195/17 194/18
f 197/16 198/19 195/17
f 62/9 198/19 197/16
f 62/9 160/20 198/19
f 198/19 191/21 195/17
f 198/19 196/22 191/21
f 160/20 196/22 198/19
f 160/20 56/23 196/22
f 77/24 74/12 73/11
f 77/24 78/25 74/12
f 82/26 78/25 77/24
f 82/26 81/27 78/25
f 206/28 204/29 203/30
f 206/28 207/31 204/29
f 56/23 207/31 206/28
f 56/23 177/32 207/31
f 207/31 200/33 204/29
f 207/31 205/34 200/33
f 177/32 205/34 207/31
f 177/32 63/35 205/34
f 215/36 213/37 212/38
f 215/36 216/39 213/37
f 63/35 216/39 215/36
f 63/35 163/40 216/39
f 216/39 209/41 213/37
f 216/39 214/42 209/41
f 163/40 214/42 216/39
f 163/40 57/43 214/42
f 85/44 83/45 84/46
f 85/44 86/47 83/45
f 80/48 86/47 85/44
f 80/48 79/49 86/47
f 224/50 222/51 221/52
f 224/50 225/53 222/51
f 57/43 225/53 224/50
f 57/43 178/54 225/53
f 225/53 218/55 222/51
f 225/53 223/56 218/55
f 178/54 223/56 225/53
f 178/54 64/57 223/56
f 88/58 84/46 83/45
f 87/59 88/58 83/45
f 233/60 231/61 230/62
f 233/60 234/63 231/61
f 64/57 234/63 233/60
f 64/57 164/64 234/63
f 234/63 227/65 231/61
f 234/63 232/66 227/65
f 164/64 232/66 234/63
f 164/64 58/67 232/66
f 242/68 240/69 239/70
f 242/68 243/71 240/69
f 58/67 243/71 242/68
f 58/67 179/72 243/71
f 243/71 236/73 240/69
f 243/71 241/74 236/73
f 179/72 241/74 243/71
f 179/72 65/75 241/74
f 95/76 93/77 94/78
f 95/76 96/79 93/77
f 90/80 96/79 95/76
f 90/80 89/81 96/79
f 251/82 249/83 248/84
f 251/82 252/85 249/83
f 65/75 252/85 251/82
f 65/75 169/86 252/85
f 252/85 245/87 249/83
f 252/85 250/88 245/87
f 169/86 250/88 252/85
f 169/86 59/89 250/88
f 260/90 258/91 257/92
f 260/90 261/93 258/91
f 59/89 261/93 260/90
f 59/89 180/94 261/93
f 261/93 254/95 258/91
f 261/93 259/96 254/95
f 180/94 259/96 261/93
f 180/94 66/97 259/96
f 269/98 267/99 266/100
f 269/98 270/101 267/99
f 66/97 270/101 269/98
f 66/97 172/102 270/101
f 270/101 263/103 267/99
f 270/101 268/104 263/103
f 172/102 268/104 270/101
f 172/102 60/105 268/104
f 278/106 276/107 275/108
f 278/106 279/109 276/107
f 60/105 279/109 278/106
f 60/105 181/110 279/109
f 279/109 272/111 276/107
f 279/109 277/112 272/111
f 181/110 277/112 279/109
f 181/110 67/113 277/112
f 287/114 285/115 284/116
f 287/114 288/117 285/115
f 67/113 288/117 287/114
f 67/113 175/118 288/117
f 288/117 281/119 285/115
f 288/117 286/120 281/119
f 175/118 286/120 288/117
f 175/118 61/5 286/120
f 25/121 27/122 24/123
f 25/121 26/124 27/122
f 328/125 26/124 25/121
f 328/125 327/126 26/124
f 313/127 327/126 328/125
f 313/127 326/128 327/126
f 353/129 326/128 313/127
f 353/129 351/130 326/128
f 33/131 35/132 32/133
f 33/131 34/134 35/132
f 316/135 34/134 33/131
f 316/135 315/136 34/134
f 305/137 315/136 316/135
f 305/137 314/138 315/136
f 329/139 314/138 305/137
f 329/139 331/140 314/138
f 42/141 40/131 41/142
f 42/141 21/133 40/131
f 17/143 21/133 42/141
f 17/143 3/144 21/133
f 22/123 46/145 23/146
f 22/123 45/121 46/145
f 47/122 45/121 22/123
f 47/122 48/124 45/121
f 14/147 32/133 12/144
f 14/147 36/148 32/133
f 15/143 36/148 14/147
f 15/143 38/141 36/148
f 16/143 38/141 15/143
f 16/143 39/141 38/141
f 17/143 39/141 16/143
f 17/143 42/141 39/141
f 18/149 49/122 47/122
f 18/149 19/149 49/122
f 72/14 19/149 18/149
f 72/14 75/10 19/149
f 95/76 15/143 90/80
f 95/76 16/143 15/143
f 94/78 16/143 95/76
f 94/78 17/143 16/143
f 304/150 329/139 305/137
f 304/150 330/151 329/139
f 313/127 330/151 304/150
f 313/127 333/152 330/151
f 314/138 333/152 313/127
f 314/138 331/140 333/152
f 335/153 305/137 334/154
f 335/153 306/155 305/137
f 338/156 306/155 335/153
f 338/156 307/157 306/155
f 336/158 307/157 338/156
f 336/158 317/159 307/157
f 334/154 317/159 336/158
f 334/154 305/137 317/159
f 316/135 317/159 305/137
f 316/135 318/160 317/159
f 33/131 318/160 316/135
f 33/131 37/142 318/160
f 319/161 317/159 318/160
f 319/161 307/157 317/159
f 321/162 307/157 319/161
f 321/162 320/163 307/157
f 322/164 320/163 321/162
f 322/164 309/165 320/163
f 324/166 309/165 322/164
f 324/166 323/167 309/165
f 325/168 323/167 324/166
f 325/168 311/169 323/167
f 327/126 311/169 325/168
f 327/126 326/128 311/169
f 340/170 307/157 339/171
f 340/170 308/172 307/157
f 343/173 308/172 340/170
f 343/173 309/165 308/172
f 341/174 309/165 343/173
f 341/174 320/163 309/165
f 339/171 320/163 341/174
f 339/171 307/157 320/163
f 345/175 309/165 344/176
f 345/175 310/177 309/165
f 348/178 310/177 345/175
f 348/178 311/169 310/177
f 346/179 311/169 348/178
f 346/179 323/167 311/169
f 344/176 323/167 346/179
f 344/176 309/165 323/167
f 350/180 311/169 349/181
f 350/180 312/182 311/169
f 353/129 312/182 350/180
f 353/129 313/127 312/182
f 349/181 311/169 326/128
f 351/130 349/181 326/128
f 328/125 314/138 313/127
f 328/125 315/136 314/138
f 25/121 315/136 328/125
f 25/121 29/145 315/136
f 41/142 318/160 37/142
f 41/142 319/161 318/160
f 40/131 319/161 41/142
f 40/131 321/162 319/161
f 43/134 321/162 40/131
f 43/134 322/164 321/162
f 45/121 322/164 46/145
f 45/121 324/166 322/164
f 48/124 324/166 45/121
f 48/124 325/168 324/166
f 26/124 325/168 48/124
f 26/124 327/126 325/168
f 19/149 27/122 49/122
f 19/149 8/149 27/122
f 75/10 8/149 19/149
f 75/10 74/12 8/149
f 10/183 30/146 28/184
f 9/185 10/183 28/184
f 22/123 4/186 6/187
f 22/123 23/146 4/186
f 28/184 25/121 24/123
f 28/184 29/145 25/121
f 30/146 29/145 28/184
f 30/146 31/188 29/145
f 34/134 29/145 31/188
f 34/134 315/136 29/145
f 31/188 35/132 34/134
f 36/148 33/131 32/133
f 36/148 37/142 33/131
f 38/141 37/142 36/148
f 38/141 39/141 37/142
f 41/142 37/142 39/141
f 39/141 42/141 41/142
f 44/188 43/134 20/132
f 44/188 46/145 43/134
f 23/146 46/145 44/188
f 322/164 43/134 46/145
f 49/122 48/124 47/122
f 49/122 26/124 48/124
f 27/122 26/124 49/122
f 184/189 185/3 186/2
f 184/189 183/190 185/3
f 182/7 183/190 184/189
f 182/7 187/8 183/190
f 190/191 183/190 187/8
f 190/191 188/1 183/190
f 61/5 188/1 190/191
f 190/191 68/192 61/5
f 62/9 68/192 190/191
f 62/9 71/15 68/192
f 199/193 71/15 62/9
f 199/193 56/23 71/15
f 196/22 56/23 199/193
f 199/193 192/194 196/22
f 197/16 192/194 199/193
f 197/16 194/18 192/194
f 193/195 192/194 194/18
f 193/195 191/21 192/194
f 195/17 191/21 193/195
f 193/195 194/18 195/17
f 186/2 182/7 184/189
f 188/1 185/3 183/190
f 192/194 191/21 196/22
f 190/191 187/8 62/9
f 62/9 197/16 199/193
f 56/23 76/13 71/15
f 56/23 73/11 76/13
f 208/196 73/11 56/23
f 208/196 63/35 73/11
f 205/34 63/35 208/196
f 208/196 201/197 205/34
f 206/28 201/197 208/196
f 206/28 203/30 201/197
f 202/198 201/197 203/30
f 202/198 200/33 201/197
f 204/29 200/33 202/198
f 202/198 203/30 204/29
f 201/197 200/33 205/34
f 56/23 206/28 208/196
f 63/35 77/24 73/11
f 63/35 217/199 77/24
f 215/36 217/199 63/35
f 215/36 210/200 217/199
f 212/38 210/200 215/36
f 212/38 211/201 210/200
f 213/37 211/201 212/38
f 213/37 209/41 211/201
f 210/200 211/201 209/41
f 209/41 214/42 210/200
f 217/199 210/200 214/42
f 214/42 57/43 217/199
f 77/24 217/199 57/43
f 57/43 82/26 77/24
f 79/49 82/26 57/43
f 57/43 226/202 79/49
f 224/50 226/202 57/43
f 224/50 219/203 226/202
f 221/52 219/203 224/50
f 221/52 220/204 219/203
f 222/51 220/204 221/52
f 222/51 218/55 220/204
f 219/203 220/204 218/55
f 218/55 223/56 219/203
f 226/202 219/203 223/56
f 223/56 64/57 226/202
f 79/49 226/202 64/57
f 64/57 86/47 79/49
f 83/45 86/47 64/57
f 64/57 235/205 83/45
f 233/60 235/205 64/57
f 233/60 228/206 235/205
f 230/62 228/206 233/60
f 230/62 229/207 228/206
f 231/61 229/207 230/62
f 231/61 227/65 229/207
f 228/206 229/207 227/65
f 227/65 232/66 228/206
f 235/205 228/206 232/66
f 232/66 58/67 235/205
f 83/45 235/205 58/67
f 58/67 87/59 83/45
f 244/208 87/59 58/67
f 244/208 65/75 87/59
f 241/74 65/75 244/208
f 244/208 237/209 241/74
f 242/68 237/209 244/208
f 242/68 239/70 237/209
f 238/210 237/209 239/70
f 238/210 236/73 237/209
f 240/69 236/73 238/210
f 238/210 239/70 240/69
f 237/209 236/73 241/74
f 58/67 242/68 244/208
f 65/75 92/211 87/59
f 65/75 89/81 92/211
f 253/212 89/81 65/75
f 253/212 59/89 89/81
f 250/88 59/89 253/212
f 253/212 246/213 250/88
f 251/82 246/213 253/212
f 251/82 248/84 246/213
f 247/214 246/213 248/84
f 247/214 245/87 246/213
f 249/83 245/87 247/214
f 247/214 248/84 249/83
f 246/213 245/87 250/88
f 65/75 251/82 253/212
f 59/89 96/79 89/81
f 59/89 93/77 96/79
f 262/215 93/77 59/89
f 262/215 66/97 93/77
f 259/96 66/97 262/215
f 262/215 255/216 259/96
f 260/90 255/216 262/215
f 260/90 257/92 255/216
f 256/217 255/216 257/92
f 256/217 254/95 255/216
f 258/91 254/95 256/217
f 256/217 257/92 258/91
f 255/216 254/95 259/96
f 59/89 260/90 262/215
f 66/97 97/218 93/77
f 66/97 271/219 97/218
f 269/98 271/219 66/97
f 269/98 264/220 271/219
f 266/100 264/220 269/98
f 266/100 265/221 264/220
f 267/99 265/221 266/100
f 267/99 263/103 265/221
f 264/220 265/221 263/103
f 263/103 268/104 264/220
f 271/219 264/220 268/104
f 268/104 60/105 271/219
f 97/218 271/219 60/105
f 60/105 99/222 97/218
f 98/45 99/222 60/105
f 60/105 280/223 98/45
f 278/106 280/223 60/105
f 278/106 273/224 280/223
f 275/108 273/224 278/106
f 275/108 274/225 273/224
f 276/107 274/225 275/108
f 276/107 272/111 274/225
f 273/224 274/225 272/111
f 272/111 277/112 273/224
f 280/223 273/224 277/112
f 277/112 67/113 280/223
f 98/45 280/223 67/113
f 70/226 61/5 68/192
f 70/226 100/227 61/5
f 289/228 61/5 100/227
f 289/228 286/120 61/5
f 282/229 286/120 289/228
f 282/229 281/119 286/120
f 283/230 281/119 282/229
f 283/230 285/115 281/119
f 284/116 285/115 283/230
f 283/230 282/229 284/116
f 287/114 284/116 282/229
f 282/229 289/228 287/114
f 67/113 287/114 289/228
f 289/228 100/227 67/113
f 305/137 303/231 304/150
f 305/137 306/155 303/231
f 307/157 303/231 306/155
f 307/157 308/172 303/231
f 309/165 303/231 308/172
f 309/165 310/177 303/231
f 311/169 303/231 310/177
f 311/169 312/182 303/231
f 313/127 303/231 312/182
f 313/127 304/150 303/231
f 330/151 332/232 329/139
f 330/151 333/152 332/232
f 331/140 332/232 333/152
f 331/140 329/139 332/232
f 334/154 337/233 335/153
f 334/154 336/158 337/233
f 338/156 337/233 336/158
f 338/156 335/153 337/233
f 339/171 342/234 340/170
f 339/171 341/174 342/234
f 343/173 342/234 341/174
f 343/173 340/170 342/234
f 344/176 347/235 345/175
f 344/176 346/179 347/235
f 348/178 347/235 346/179
f 348/178 345/175 347/235
f 349/181 352/236 350/180
f 349/181 351/130 352/236
f 353/129 352/236 351/130
f 353/129 350/180 352/236
usemtl mat_1
f 115/237 107/238 106/239
f 115/237 116/240 107/238
f 123/239 116/240 115/237
f 123/239 124/238 116/240
f 117/241 106/239 109/242
f 117/241 115/237 106/239
f 125/242 115/237 117/241
f 125/242 123/239 115/237
f 118/243 109/242 110/244
f 118/243 117/241 109/242
f 126/244 117/241 118/243
f 126/244 125/242 117/241
f 119/245 110/244 111/246
f 119/245 118/243 110/244
f 127/246 118/243 119/245
f 127/246 126/244 118/243
f 120/247 111/246 112/248
f 120/247 119/245 111/246
f 128/248 119/245 120/247
f 128/248 127/246 119/245
f 121/249 112/248 113/250
f 121/249 120/247 112/248
f 129/250 120/247 121/249
f 129/250 128/248 120/247
f 122/251 113/250 114/252
f 122/251 121/249 113/250
f 130/252 121/249 122/251
f 130/252 129/250 121/249
f 116/240 114/252 107/238
f 116/240 122/251 114/252
f 124/238 122/251 116/240
f 124/238 130/252 122/251
f 132/253 141/254 133/255
f 132/253 142/256 141/254
f 140/257 142/256 132/253
f 140/257 148/258 142/256
f 139/259 148/258 140/257
f 139/259 147/260 148/258
f 138/261 147/260 139/259
f 138/261 146/262 147/260
f 137/263 146/262 138/261
f 137/263 145/264 146/262
f 136/265 145/264 137/263
f 136/265 144/266 145/264
f 135/267 144/266 136/265
f 135/267 143/268 144/266
f 133/255 143/268 135/267
f 133/255 141/254 143/268
f 142/256 149/255 141/254
f 142/256 150/253 149/255
f 148/258 150/253 142/256
f 148/258 156/257 150/253
f 147/260 156/257 148/258
f 147/260 155/259 156/257
f 146/262 155/259 147/260
f 146/262 154/261 155/259
f 145/264 154/261 146/262
f 145/264 153/263 154/261
f 144/266 153/263 145/264
f 144/266 152/265 153/263
f 143/268 152/265 144/266
f 143/268 151/267 152/265
f 141/254 151/267 143/268
f 141/254 149/255 151/267
f 159/269 290/270 161/271
f 159/269 291/272 290/270
f 158/273 291/272 159/269
f 158/273 301/272 291/272
f 174/274 301/272 158/273
f 174/274 300/270 301/272
f 173/275 300/270 174/274
f 173/275 299/276 300/270
f 171/277 299/276 173/275
f 171/277 298/278 299/276
f 170/279 298/278 171/277
f 170/279 297/280 298/278
f 168/281 297/280 170/279
f 168/281 296/282 297/280
f 167/283 296/282 168/281
f 167/283 295/282 296/282
f 166/279 295/282 167/283
f 166/279 294/280 295/282
f 165/277 294/280 166/279
f 165/277 293/278 294/280
f 162/284 293/278 165/277
f 162/284 292/276 293/278
f 161/271 292/276 162/284
f 161/271 290/270 292/276
f 107/238 108/285 106/239
f 107/238 114/252 108/285
f 113/250 108/285 114/252
f 113/250 112/248 108/285
f 111/246 108/285 112/248
f 111/246 110/244 108/285
f 109/242 108/285 110/244
f 109/242 106/239 108/285
f 123/239 131/285 124/238
f 123/239 125/242 131/285
f 126/244 131/285 125/242
f 126/244 127/246 131/285
f 128/248 131/285 127/246
f 128/248 129/250 131/285
f 130/252 131/285 129/250
f 130/252 124/238 131/285
f 133/255 134/286 132/253
f 133/255 135/267 134/286
f 136/265 134/286 135/267
f 136/265 137/263 134/286
f 138/261 134/286 137/263
f 138/261 139/259 134/286
f 140/257 134/286 139/259
f 140/257 132/253 134/286
f 150/253 157/286 149/255
f 150/253 156/257 157/286
f 155/259 157/286 156/257
f 155/259 154/261 157/286
f 153/263 157/286 154/261
f 153/263 152/265 157/286
f 151/267 157/286 152/265
f 151/267 149/255 157/286
f 159/269 56/287 158/273
f 159/269 177/288 56/287
f 63/289 177/288 159/269
f 159/269 161/271 63/289
f 163/290 63/289 161/271
f 161/271 57/291 163/290
f 162/284 57/291 161/271
f 162/284 178/292 57/291
f 64/293 178/292 162/284
f 162/284 165/277 64/293
f 164/294 64/293 165/277
f 165/277 58/295 164/294
f 166/279 58/295 165/277
f 166/279 179/296 58/295
f 65/297 179/296 166/279
f 166/279 167/283 65/297
f 169/298 65/297 167/283
f 167/283 59/299 169/298
f 168/281 59/299 167/283
f 168/281 180/298 59/299
f 66/297 180/298 168/281
f 168/281 170/279 66/297
f 172/296 66/297 170/279
f 170/279 60/295 172/296
f 171/277 60/295 170/279
f 171/277 181/294 60/295
f 67/293 181/294 171/277
f 171/277 173/275 67/293
f 175/292 67/293 173/275
f 173/275 61/291 175/292
f 174/274 61/291 173/275
f 174/274 176/290 61/291
f 62/289 176/290 174/274
f 174/274 158/273 62/289
f 160/288 62/289 158/273
f 158/273 56/287 160/288
f 291/272 302/300 290/270
f 291/272 301/272 302/300
f 300/270 302/300 301/272
f 300/270 299/276 302/300
f 298/278 302/300 299/276
f 298/278 297/280 302/300
f 296/282 302/300 297/280
f 296/282 295/282 302/300
f 294/280 302/300 295/282
f 294/280 293/278 302/300
f 292/276 302/300 293/278
f 292/276 290/270 302/300
usemtl mat_2
f 1/301 354/302 20/303
f 23/304 356/305 4/306
f 358/302 355/307 2/301
f 51/308 1/301 50/309
f 359/308 1/302 51/301
f 55/310 359/302 51/308
f 55/310 102/311 359/302
f 53/312 102/311 55/310
f 53/312 361/305 102/311
f 54/313 361/305 53/312
f 54/313 4/306 361/305
f 5/306 357/305 360/314
f 103/315 355/302 358/307
f 103/315 104/311 355/302
f 360/314 104/311 103/315
f 360/314 357/305 104/311
f 98/316 50/309 99/317
f 98/316 51/308 50/309
f 101/318 51/308 98/316
f 101/318 55/310 51/308
f 100/319 55/310 101/318
f 100/319 53/312 55/310
f 70/320 53/312 100/319
f 70/320 54/313 53/312
f 105/311 20/303 354/302
f 105/311 44/321 20/303
f 356/305 44/321 105/311
f 356/305 23/304 44/321
f 67/322 101/318 98/316
f 67/322 100/319 101/318
usemtl mat_3
f 52/323 1/324 3/325
f 50/323 1/326 52/324
f 97/327 50/326 52/323
f 97/327 99/328 50/326
f 68/327 54/326 70/328
f 68/327 69/323 54/326
f 71/329 69/323 68/327
f 71/329 72/330 69/323
f 80/331 82/332 79/333
f 80/331 81/334 82/332
f 10/335 81/334 80/331
f 10/335 9/336 81/334
f 91/337 89/338 90/339
f 91/337 92/340 89/338
f 88/341 92/340 91/337
f 88/341 87/342 92/340
f 52/323 93/329 97/327
f 52/323 94/330 93/329
f 3/325 94/330 52/323
f 3/325 17/343 94/330
f 43/344 40/345 21/346
f 20/347 43/344 21/346
f 47/348 22/349 6/350
f 18/351 47/348 6/350
f 8/352 24/353 27/354
f 8/352 7/355 24/353
f 74/356 7/355 8/352
f 74/356 78/357 7/355
f 7/355 28/358 24/353
f 7/355 9/359 28/358
f 78/357 9/359 7/355
f 78/357 81/360 9/359
f 10/361 31/362 30/363
f 10/361 11/364 31/362
f 80/365 11/364 10/361
f 80/365 85/366 11/364
f 35/367 12/368 32/369
f 35/367 13/370 12/368
f 31/362 13/370 35/367
f 31/362 11/364 13/370
f 13/370 88/371 12/368
f 13/370 84/372 88/371
f 11/364 84/372 13/370
f 11/364 85/366 84/372
f 91/337 12/373 88/341
f 91/337 14/374 12/373
f 90/339 14/374 91/337
f 90/339 15/375 14/374
f 6/325 72/330 18/343
f 6/325 69/323 72/330
f 4/324 69/323 6/325
f 4/324 54/326 69/323
f 1/376 21/346 3/377
f 1/376 20/347 21/346
