xof 0303txt 0032

template AnimTicksPerSecond {
  <9E415A43-7BA6-4a73-8743-B73D47E88476>
  DWORD AnimTicksPerSecond;
}

template XSkinMeshHeader {
  <3cf169ce-ff7c-44ab-93c0-f78f62d172e2>
  WORD nMaxSkinWeightsPerVertex;
  WORD nMaxSkinWeightsPerFace;
  WORD nBones;
}

template SkinWeights {
  <6f0d123b-bad2-4167-a0d0-80224f25fabb>
  STRING transformNodeName;
  DWORD nWeights;
  array DWORD vertexIndices[nWeights];
  array float weights[nWeights];
  Matrix4x4 matrixOffset;
}

Frame Root {
  FrameTransformMatrix {
     1.000000, 0.000000, 0.000000, 0.000000,
     0.000000, 0.000000, 1.000000, 0.000000,
     0.000000, 1.000000,-0.000000, 0.000000,
     0.000000, 0.000000, 0.000000, 1.000000;;
  }
  Frame huntail_mat_0 {
    FrameTransformMatrix {
       1.000000, 0.000000, 0.000000, 0.000000,
       0.000000, 1.000000, 0.000000, 0.000000,
       0.000000, 0.000000, 1.000000, 0.000000,
       0.000000, 0.000000, 0.000000, 1.000000;;
    }
    Mesh { //Mesh Mesh
      48;
       1.196303;-0.539826; 0.093693;,
       1.196852;-1.180550; 0.537614;,
       0.935603;-0.876784; 1.039061;,
       1.196303;-0.539826; 0.093693;,
       0.935603;-0.876784; 1.039061;,
       0.714301;-0.430237; 1.244663;,
       1.196303;-0.539826; 0.093693;,
       0.714301;-0.430237; 1.244663;,
       0.913176;-0.081179; 0.190824;,
       0.714301;-0.430237; 1.244663;,
       1.047478;-0.592601; 0.048127;,
       0.913176;-0.081179; 0.190824;,
       0.913176;-0.081179; 0.190824;,
       1.047478;-0.592601; 0.048127;,
       1.043866; 0.426334;-0.823841;,
       1.047478;-0.592601; 0.048127;,
       1.302003;-0.241291;-0.893692;,
       1.043866; 0.426334;-0.823841;,
       1.043866; 0.426334;-0.823841;,
       1.302003;-0.241291;-0.893692;,
       1.196303;-0.539826; 0.093693;,
       1.302003;-0.241291;-0.893692;,
       1.413755;-0.804347;-0.606547;,
       1.196303;-0.539826; 0.093693;,
       1.196303;-0.539826; 0.093693;,
       1.413755;-0.804347;-0.606547;,
       1.378993;-1.163697;-0.076804;,
       1.413755;-0.804347;-0.606547;,
       1.047478;-0.592601; 0.048127;,
       1.378993;-1.163697;-0.076804;,
       1.378993;-1.163697;-0.076804;,
       1.047478;-0.592601; 0.048127;,
       1.196852;-1.180550; 0.537614;,
       1.047478;-0.592601; 0.048127;,
       0.935603;-0.876784; 1.039061;,
       1.196852;-1.180550; 0.537614;,
       0.714301;-0.430237; 1.244663;,
       0.935603;-0.876784; 1.039061;,
       1.047478;-0.592601; 0.048127;,
       1.378993;-1.163697;-0.076804;,
       1.196852;-1.180550; 0.537614;,
       1.196303;-0.539826; 0.093693;,
       1.196303;-0.539826; 0.093693;,
       0.913176;-0.081179; 0.190824;,
       1.043866; 0.426334;-0.823841;,
       1.302003;-0.241291;-0.893692;,
       1.047478;-0.592601; 0.048127;,
       1.413755;-0.804347;-0.606547;;
      16;
      3;0;1;2;,
      3;3;4;5;,
      3;6;7;8;,
      3;9;10;11;,
      3;12;13;14;,
      3;15;16;17;,
      3;18;19;20;,
      3;21;22;23;,
      3;24;25;26;,
      3;27;28;29;,
      3;30;31;32;,
      3;33;34;35;,
      3;36;37;38;,
      3;39;40;41;,
      3;42;43;44;,
      3;45;46;47;;
      MeshNormals { //Mesh Normals
        48;
        -0.905576;-0.319346;-0.279153;,
        -0.209204; 0.906522;-0.366619;,
         0.019807; 0.620746;-0.783746;,
        -0.905576;-0.319346;-0.279153;,
         0.019807; 0.620746;-0.783746;,
         0.369152;-0.274361;-0.887936;,
        -0.905576;-0.319346;-0.279153;,
         0.369152;-0.274361;-0.887936;,
         0.398999;-0.866665;-0.299387;,
         0.369152;-0.274361;-0.887936;,
         0.905484; 0.322855; 0.275307;,
         0.398999;-0.866665;-0.299387;,
         0.398999;-0.866665;-0.299387;,
         0.905484; 0.322855; 0.275307;,
         0.125340;-0.826838; 0.548265;,
         0.905484; 0.322855; 0.275307;,
        -0.302072; 0.029176; 0.952818;,
         0.125340;-0.826838; 0.548265;,
         0.125340;-0.826838; 0.548265;,
        -0.302072; 0.029176; 0.952818;,
        -0.905576;-0.319346;-0.279153;,
        -0.302072; 0.029176; 0.952818;,
        -0.416364; 0.547258; 0.726035;,
        -0.905576;-0.319346;-0.279153;,
        -0.905576;-0.319346;-0.279153;,
        -0.416364; 0.547258; 0.726035;,
        -0.385449; 0.895749; 0.221442;,
        -0.416364; 0.547258; 0.726035;,
         0.905484; 0.322855; 0.275307;,
        -0.385449; 0.895749; 0.221442;,
        -0.385449; 0.895749; 0.221442;,
         0.905484; 0.322855; 0.275307;,
        -0.209204; 0.906522;-0.366619;,
         0.905484; 0.322855; 0.275307;,
         0.019807; 0.620746;-0.783746;,
        -0.209204; 0.906522;-0.366619;,
         0.369152;-0.274361;-0.887936;,
         0.019807; 0.620746;-0.783746;,
         0.905484; 0.322855; 0.275307;,
        -0.385449; 0.895749; 0.221442;,
        -0.209204; 0.906522;-0.366619;,
        -0.905576;-0.319346;-0.279153;,
        -0.905576;-0.319346;-0.279153;,
         0.398999;-0.866665;-0.299387;,
         0.125340;-0.826838; 0.548265;,
        -0.302072; 0.029176; 0.952818;,
         0.905484; 0.322855; 0.275307;,
        -0.416364; 0.547258; 0.726035;;
        16;
        3;0;1;2;,
        3;3;4;5;,
        3;6;7;8;,
        3;9;10;11;,
        3;12;13;14;,
        3;15;16;17;,
        3;18;19;20;,
        3;21;22;23;,
        3;24;25;26;,
        3;27;28;29;,
        3;30;31;32;,
        3;33;34;35;,
        3;36;37;38;,
        3;39;40;41;,
        3;42;43;44;,
        3;45;46;47;;
      } //End of Mesh Normals
      MeshMaterialList { //Mesh Material List
        1;
        16;
        0,
        0,
        0,
        0,
        0,
        0,
        0,
        0,
        0,
        0,
        0,
        0,
        0,
        0,
        0,
        0;;
        Material mat_0 {
           0.640000; 0.640000; 0.640000; 1.000000;;
           92.156863;
           0.250000; 0.250000; 0.250000;;
           0.000000; 0.000000; 0.000000;;
          TextureFilename {"Textures/huntail_0_0.tga";}
        }
      } //End of Mesh Material List
      MeshTextureCoords { //Mesh UV Coordinates
        48;
         0.771277; 0.137735;,
         0.958252; 0.548821;,
         0.500000; 0.543050;,
         0.500000; 0.543050;,
         0.958252; 0.548821;,
         1.000000; 0.868758;,
         0.500000; 0.543050;,
         1.000000; 0.868758;,
         0.500000; 0.870658;,
         1.000000; 0.868758;,
         0.500000; 0.543050;,
         0.500000; 0.870658;,
         0.500000; 0.870658;,
         0.500000; 0.543050;,
         0.000000; 1.000000;,
         0.500000; 0.543050;,
         0.041749; 0.548821;,
         0.000000; 1.000000;,
         0.000000; 1.000000;,
         0.041749; 0.548821;,
         0.500000; 0.543050;,
         0.041749; 0.548821;,
         0.228723; 0.137735;,
         0.500000; 0.543050;,
         0.500000; 0.543050;,
         0.228723; 0.137735;,
         0.500000; 0.000000;,
         0.228723; 0.137735;,
         0.500000; 0.543050;,
         0.500000; 0.000000;,
         0.500000; 0.000000;,
         0.500000; 0.543050;,
         0.771277; 0.137735;,
         0.500000; 0.543050;,
         0.958252; 0.548821;,
         0.771277; 0.137735;,
         1.000000; 0.868758;,
         0.958252; 0.548821;,
         0.500000; 0.543050;,
         0.771277; 0.137735;,
         0.500000; 0.543050;,
         0.500000; 0.000000;,
         0.500000; 0.543050;,
         0.500000; 0.870658;,
         0.000000; 1.000000;,
         0.041749; 0.548821;,
         0.500000; 0.543050;,
         0.228723; 0.137735;;
      } //End of Mesh UV Coordinates
    } //End of Mesh Mesh
  } //End of huntail_mat_0
} //End of Root Frame
