# Blender v2.66 (sub 1) OBJ File: 'BR_Nosepass-Shiny01.blend'
# www.blender.org
mtllib BR_Nosepass-Shiny01.mtl
o nosepass
v 2.612426 0.966547 -4.495290
v 2.612426 0.966547 -4.495290
v 2.612426 0.966547 -4.495290
v 3.009145 -0.077262 -4.495290
v 3.009145 -0.077262 -4.495290
v 3.009145 -0.077262 -4.495290
v 5.121622 -0.437325 -4.495290
v 5.121622 -0.437325 -4.495290
v 5.113605 0.968606 -4.495290
v 3.319257 1.938180 -4.948060
v 3.319257 1.938180 -4.948060
v 3.319257 1.938180 -4.948060
v 3.007427 2.011014 -4.495290
v 3.007427 2.011014 -4.495290
v 3.007427 2.011014 -4.495290
v 5.119309 2.374551 -4.495290
v 5.119309 2.374551 -4.495290
v 5.112793 1.955985 -5.411050
v 5.112793 1.955985 -5.411050
v 5.112793 1.955985 -5.411050
v 4.506226 0.968104 -5.523430
v 4.506226 0.968104 -5.523430
v 4.506226 0.968104 -5.523430
v 3.320854 -0.003916 -4.948060
v 3.320854 -0.003916 -4.948060
v 3.320854 -0.003916 -4.948060
v 2.924196 0.966803 -4.948060
v 2.924196 0.966803 -4.948060
v 2.924196 0.966803 -4.948060
v 2.924196 0.966803 -4.948060
v 5.114417 -0.018772 -5.411050
v 5.114417 -0.018772 -5.411050
v 5.114417 -0.018772 -5.411050
v 7.672990 0.246900 -5.019870
v 7.672990 0.246900 -5.019870
v 7.672990 0.246900 -5.019870
v 7.671799 1.694520 -5.019870
v 7.671799 1.694520 -5.019870
v 7.671799 1.694520 -5.019870
v 7.834329 1.694653 -4.495290
v 7.834329 1.694653 -4.495290
v 7.834329 1.694653 -4.495290
v 7.834924 0.970843 -4.495290
v 7.834924 0.970843 -4.495290
v 7.835520 0.247034 -4.495290
v 7.835520 0.247034 -4.495290
v 7.835520 0.247034 -4.495290
v 6.563499 2.034668 -4.495290
v 6.563499 2.034668 -4.495290
v 6.565250 -0.095075 -4.495290
v 6.565250 -0.095075 -4.495290
v 6.518820 1.376221 -4.901750
v 6.518682 1.544581 -4.495290
v 6.518682 1.544581 -4.495290
v 6.231336 1.467335 -4.495290
v 6.231336 1.467335 -4.495290
v 6.231455 1.321525 -4.847290
v 6.519489 0.563305 -4.901750
v 6.519627 0.394945 -4.495290
v 6.519627 0.394945 -4.495290
v 6.806964 0.472192 -4.495290
v 6.806964 0.472192 -4.495290
v 6.806844 0.617996 -4.847290
v 7.093965 0.970234 -4.495290
v 7.093965 0.970234 -4.495290
v 6.806145 1.467808 -4.495290
v 6.806145 1.467808 -4.495290
v 7.016718 1.257581 -4.495290
v 7.016718 1.257581 -4.495290
v 5.944335 0.969289 -4.495290
v 5.944335 0.969289 -4.495290
v 6.232154 0.471719 -4.495290
v 6.232154 0.471719 -4.495290
v 6.021581 0.681944 -4.495290
v 6.021581 0.681944 -4.495290
v 7.017190 0.682762 -4.495290
v 7.017190 0.682762 -4.495290
v 7.016787 1.173401 -4.698520
v 6.021512 0.766123 -4.698520
v 6.021109 1.256762 -4.495290
v 6.021109 1.256762 -4.495290
v 6.021345 0.969352 -4.782700
v 6.021178 1.172582 -4.698520
v 6.519155 0.969761 -5.070110
v 6.231745 0.969525 -4.993100
v 6.232034 0.617523 -4.847290
v 7.016954 0.970171 -4.782700
v 7.017121 0.766942 -4.698520
v 6.806555 0.969998 -4.993100
v 6.806265 1.321998 -4.847290
v 0.720158 0.070582 0.000000
v 0.720158 0.070582 0.000000
v 0.287022 0.884799 -0.000005
v 0.287022 0.884799 -0.000005
v 0.287022 0.884799 -0.000005
v 0.234592 -1.098148 -0.000005
v 0.234592 -1.098148 -0.000005
v 0.234592 -1.098148 -0.000005
v 0.969612 -0.530254 0.000000
v 0.969612 -0.530254 0.000000
v 0.166290 0.961345 -0.662725
v 0.166290 0.961345 -0.662725
v 0.070828 1.021869 -2.474340
v 0.070828 1.021869 -2.474340
v 0.009565 -1.295183 -2.474340
v 0.009565 -1.295183 -2.474340
v 0.108928 -1.208181 -0.662725
v 0.108928 -1.208181 -0.662725
v 0.968624 0.671827 0.000000
v 0.968624 0.671827 0.000000
v 0.939904 1.623793 -0.000005
v 0.939904 1.623793 -0.000005
v 0.939904 1.623793 -0.000005
v 1.571661 -1.751848 -0.000005
v 1.571661 -1.751848 -0.000005
v 1.571661 -1.751848 -0.000005
v 1.570861 -0.778718 0.000000
v 1.570861 -0.778718 0.000000
v 1.571962 -2.118288 -2.474340
v 1.571962 -2.118288 -2.474340
v 1.571962 -2.118288 -2.474340
v 1.571848 -1.978878 -0.662725
v 1.571848 -1.978878 -0.662725
v 2.170707 0.672815 0.000000
v 2.170707 0.672815 0.000000
v 2.119235 1.624773 -0.000005
v 2.119235 1.624773 -0.000005
v 2.119235 1.624773 -0.000005
v 1.568885 1.624321 -0.000005
v 1.568885 1.624321 -0.000005
v 1.569463 0.921280 0.000000
v 1.569463 0.921280 0.000000
v 2.573647 -1.259924 -0.000005
v 2.573647 -1.259924 -0.000005
v 2.573647 -1.259924 -0.000005
v 2.171696 -0.529265 0.000000
v 2.171696 -0.529265 0.000000
v 3.132994 -1.292604 -2.474340
v 3.132994 -1.292604 -2.474340
v 3.033493 -1.205766 -0.662725
v 3.033493 -1.205766 -0.662725
v 2.256793 1.918977 -0.662725
v 2.256793 1.918977 -0.662725
v 2.303489 2.044625 -2.474340
v 2.303489 2.044625 -2.474340
v 0.833583 2.043406 -2.474340
v 0.833583 2.043406 -2.474340
v 0.880481 1.917845 -0.662725
v 0.880481 1.917845 -0.662725
v 2.904170 -0.972015 -0.000005
v 2.904170 -0.972015 -0.000005
v 2.904170 -0.972015 -0.000005
v 2.851952 0.886912 -0.000005
v 2.851952 0.886912 -0.000005
v 2.851952 0.886912 -0.000005
v 2.420161 0.071980 0.000000
v 2.420161 0.071980 0.000000
v 3.067919 1.024333 -2.474340
v 3.067919 1.024333 -2.474340
v 2.972558 0.963656 -0.662725
v 2.972558 0.963656 -0.662725
v 2.361376 1.440352 -0.000005
v 2.361376 1.440352 -0.000005
v 2.361376 1.440352 -0.000005
v 2.242063 1.845444 -0.497045
v 2.242063 1.845444 -0.497045
v 2.242063 1.845444 -0.497045
v 2.970567 -1.150858 -0.331365
v 2.970567 -1.150858 -0.331365
v 2.970567 -1.150858 -0.331365
v 1.269395 0.371554 -0.736122
v 1.570162 0.071281 -0.850000
v 1.569812 0.496281 -0.736122
v 1.870435 0.372048 -0.736122
v 1.995162 0.071630 -0.736122
v 1.870929 -0.228993 -0.736122
v 1.570511 -0.353719 -0.736122
v 1.269889 -0.229487 -0.736122
v 1.145162 0.070931 -0.736122
v 2.091100 -0.448808 -0.425000
v 2.306282 0.071886 -0.425000
v 2.090244 0.592225 -0.425000
v 1.569557 0.807402 -0.425000
v 1.049214 0.591369 -0.425000
v 0.834037 0.070675 -0.425000
v 1.050070 -0.449664 -0.425000
v 1.570767 -0.664840 -0.425000
v 2.543098 1.426482 -3.396040
v 2.543098 1.426482 -3.396040
v 2.543098 1.426482 -3.396040
v 0.571952 -1.500350 -3.364400
v 0.571952 -1.500350 -3.364400
v 0.571952 -1.500350 -3.364400
v 0.594988 1.424870 -3.396040
v 0.594988 1.424870 -3.396040
v 0.594988 1.424870 -3.396040
v 2.570953 -1.498706 -3.364400
v 2.570953 -1.498706 -3.364400
v 2.570953 -1.498706 -3.364400
v -0.968522 -0.531848 0.000000
v -0.968522 -0.531848 0.000000
v -0.232570 -1.098532 -0.000005
v -0.232570 -1.098532 -0.000005
v -0.232570 -1.098532 -0.000005
v -0.288261 0.884326 -0.000005
v -0.288261 0.884326 -0.000005
v -0.288261 0.884326 -0.000005
v -0.720057 0.069398 0.000000
v -0.720057 0.069398 0.000000
v -0.106724 -1.208358 -0.662725
v -0.106724 -1.208358 -0.662725
v -0.007218 -1.295196 -2.474340
v -0.007218 -1.295196 -2.474340
v -0.072292 1.021751 -2.474340
v -0.072292 1.021751 -2.474340
v -0.167654 0.961070 -0.662725
v -0.167654 0.961070 -0.662725
v -0.942357 1.622246 -0.000005
v -0.942357 1.622246 -0.000005
v -0.942357 1.622246 -0.000005
v -0.969510 0.670233 0.000000
v -0.969510 0.670233 0.000000
v -1.569358 -0.781301 0.000000
v -1.569358 -0.781301 0.000000
v -1.234563 -1.590456 -0.000005
v -1.234563 -1.590456 -0.000005
v -1.234563 -1.590456 -0.000005
v -1.568371 -1.981460 -0.662725
v -1.568371 -1.981460 -0.662725
v -1.568256 -2.120870 -2.474340
v -1.568256 -2.120870 -2.474340
v -1.568256 -2.120870 -2.474340
v -1.570756 0.918699 0.000000
v -1.570756 0.918699 0.000000
v -1.571334 1.621738 -0.000005
v -1.571334 1.621738 -0.000005
v -1.885824 1.621480 -0.000005
v -1.885824 1.621480 -0.000005
v -1.885824 1.621480 -0.000005
v -2.171591 0.669245 0.000000
v -2.171591 0.669245 0.000000
v -2.170603 -0.532836 0.000000
v -2.170603 -0.532836 0.000000
v -2.905626 -1.100720 -0.000005
v -2.905626 -1.100720 -0.000005
v -2.905626 -1.100720 -0.000005
v -1.735695 -1.672718 -0.000005
v -1.735695 -1.672718 -0.000005
v -1.735695 -1.672718 -0.000005
v -3.031285 -1.210753 -0.662725
v -3.031285 -1.210753 -0.662725
v -3.130654 -1.297755 -2.474340
v -3.130654 -1.297755 -2.474340
v -0.883417 1.916394 -0.662725
v -0.883417 1.916394 -0.662725
v -0.836727 2.042033 -2.474340
v -0.836727 2.042033 -2.474340
v -2.306629 2.040834 -2.474340
v -2.306629 2.040834 -2.474340
v -2.259736 1.915262 -0.662725
v -2.259736 1.915262 -0.662725
v -2.420057 0.068000 0.000000
v -2.420057 0.068000 0.000000
v -2.853196 0.882220 -0.000005
v -2.853196 0.882220 -0.000005
v -2.853196 0.882220 -0.000005
v -2.973919 0.958766 -0.662725
v -2.973919 0.958766 -0.662725
v -3.069389 1.019286 -2.474340
v -3.069389 1.019286 -2.474340
v -2.363532 1.436467 -0.000005
v -2.363532 1.436467 -0.000005
v -2.363532 1.436467 -0.000005
v -2.230025 1.768237 -0.331365
v -2.230025 1.768237 -0.331365
v -2.230025 1.768237 -0.331365
v -1.568418 -1.924700 -0.497045
v -1.568418 -1.924700 -0.497045
v -1.568418 -1.924700 -0.497045
v -1.570407 0.493699 -0.736122
v -1.570057 0.068699 -0.850000
v -1.269784 0.369466 -0.736122
v -1.870824 0.368972 -0.736122
v -1.995057 0.068349 -0.736122
v -1.870330 -0.232069 -0.736122
v -1.569708 -0.356301 -0.736122
v -1.269290 -0.231575 -0.736122
v -1.145057 0.069048 -0.736122
v -2.306177 0.068093 -0.425000
v -2.090149 -0.452246 -0.425000
v -2.091005 0.588787 -0.425000
v -1.570662 0.804820 -0.425000
v -1.049965 0.589643 -0.425000
v -0.833936 0.069304 -0.425000
v -1.049109 -0.451390 -0.425000
v -1.569452 -0.667423 -0.425000
v -2.545230 1.422297 -3.396040
v -2.545230 1.422297 -3.396040
v -2.545230 1.422297 -3.396040
v -0.597115 1.423889 -3.396040
v -0.597115 1.423889 -3.396040
v -0.597115 1.423889 -3.396040
v -0.569268 -1.501289 -3.364400
v -0.569268 -1.501289 -3.364400
v -0.569268 -1.501289 -3.364400
v -2.568265 -1.502933 -3.364400
v -2.568265 -1.502933 -3.364400
v -2.568265 -1.502933 -3.364400
v -5.115181 0.960211 -4.495280
v -5.120875 -0.445731 -4.495280
v -5.120875 -0.445731 -4.495280
v -3.008993 -0.082194 -4.495280
v -3.008993 -0.082194 -4.495280
v -3.008993 -0.082194 -4.495280
v -2.614002 0.962266 -4.495280
v -2.614002 0.962266 -4.495280
v -2.614002 0.962266 -4.495280
v -5.123188 2.366138 -4.495280
v -5.123188 2.366138 -4.495280
v -3.010711 2.006075 -4.495280
v -3.010711 2.006075 -4.495280
v -3.010711 2.006075 -4.495280
v -3.322430 1.932728 -4.948050
v -3.322430 1.932728 -4.948050
v -3.322430 1.932728 -4.948050
v -4.507802 0.960708 -5.523420
v -4.507802 0.960708 -5.523420
v -4.507802 0.960708 -5.523420
v -5.115993 1.947583 -5.411040
v -5.115993 1.947583 -5.411040
v -5.115993 1.947583 -5.411040
v -3.320833 -0.009360 -4.948050
v -3.320833 -0.009360 -4.948050
v -3.320833 -0.009360 -4.948050
v -2.925772 0.962009 -4.948050
v -2.925772 0.962009 -4.948050
v -2.925772 0.962009 -4.948050
v -2.925772 0.962009 -4.948050
v -5.114369 -0.027166 -5.411040
v -5.114369 -0.027166 -5.411040
v -5.114369 -0.027166 -5.411040
v -7.835905 0.234163 -4.495280
v -7.835905 0.234163 -4.495280
v -7.835905 0.234163 -4.495280
v -7.836501 0.957973 -4.495280
v -7.836501 0.957973 -4.495280
v -7.837096 1.681786 -4.495280
v -7.837096 1.681786 -4.495280
v -7.837096 1.681786 -4.495280
v -7.674566 1.681919 -5.019860
v -7.674566 1.681919 -5.019860
v -7.674566 1.681919 -5.019860
v -7.673376 0.234297 -5.019860
v -7.673376 0.234297 -5.019860
v -7.673376 0.234297 -5.019860
v -6.566816 2.023890 -4.495280
v -6.566816 2.023890 -4.495280
v -6.565065 -0.105855 -4.495280
v -6.565065 -0.105855 -4.495280
v -6.233601 1.311294 -4.847280
v -6.233720 1.457094 -4.495280
v -6.233720 1.457094 -4.495280
v -6.521194 1.533868 -4.495280
v -6.521194 1.533868 -4.495280
v -6.521055 1.365508 -4.901730
v -6.807841 0.606818 -4.847280
v -6.807722 0.461014 -4.495280
v -6.807722 0.461014 -4.495280
v -6.520248 0.384239 -4.495280
v -6.520248 0.384239 -4.495280
v -6.520387 0.552599 -4.901730
v -7.018767 1.246058 -4.495280
v -7.018767 1.246058 -4.495280
v -6.808540 1.456621 -4.495280
v -6.808540 1.456621 -4.495280
v -7.095541 0.958582 -4.495280
v -7.095541 0.958582 -4.495280
v -6.022685 0.672056 -4.495280
v -6.022685 0.672056 -4.495280
v -6.232902 0.461486 -4.495280
v -6.232902 0.461486 -4.495280
v -5.945911 0.959528 -4.495280
v -5.945911 0.959528 -4.495280
v -7.018294 0.671238 -4.495280
v -7.018294 0.671238 -4.495280
v -7.018698 1.161878 -4.698510
v -6.022754 0.756236 -4.698510
v -6.023158 1.246877 -4.495280
v -6.023158 1.246877 -4.495280
v -6.023088 1.162697 -4.698510
v -6.022921 0.959464 -4.782690
v -6.233022 0.607290 -4.847280
v -6.233311 0.959291 -4.993080
v -6.520721 0.959055 -5.070100
v -7.018363 0.755418 -4.698510
v -7.018530 0.958646 -4.782690
v -6.808420 1.310821 -4.847280
v -6.808131 0.958819 -4.993080
v -1.364144 1.841019 -6.191690
v -1.364144 1.841019 -6.191690
v -0.848899 2.006163 -6.188150
v -0.848899 2.006163 -6.188150
v -0.748148 2.065435 -7.013720
v -0.748148 2.065435 -7.013720
v -0.748148 2.065435 -7.013720
v -1.313801 1.910080 -6.896250
v -1.026402 2.495077 -6.166190
v -1.026402 2.495077 -6.166190
v -0.514225 2.495498 -6.166190
v -0.514225 2.495498 -6.166190
v -0.514225 2.495498 -6.166190
v -0.505519 2.255565 -6.173640
v -0.505519 2.255565 -6.173640
v -0.505519 2.255565 -6.173640
v -0.513797 3.401569 -6.217230
v -0.513797 3.401569 -6.217230
v -2.973302 -0.375829 -6.194820
v -2.973302 -0.375829 -6.194820
v -2.760242 -0.424367 -6.065640
v -2.806342 -0.229352 -6.069520
v -2.614599 -0.464738 -5.835580
v -2.694447 -0.126962 -5.842290
v -2.611521 -0.486154 -5.566270
v -2.703712 -0.096124 -5.574030
v -2.751814 -0.482877 -5.329880
v -2.831652 -0.145102 -5.336600
v -2.997896 -0.455786 -5.189760
v -3.043997 -0.260770 -5.193630
v -3.231292 -0.412094 -5.183440
v -3.231292 -0.412094 -5.183440
v -3.200495 -0.152985 -5.231230
v -3.200495 -0.152985 -5.231230
v -3.033918 -0.623746 -5.221860
v -2.872785 -0.773843 -5.385490
v -3.188477 -0.844013 -5.470850
v -3.188477 -0.844013 -5.470850
v -3.204896 -0.662731 -5.271140
v -3.204896 -0.662731 -5.271140
v -2.764785 -0.822144 -5.630480
v -3.133458 -0.903729 -5.729050
v -3.133458 -0.903729 -5.729050
v -2.738859 -0.755707 -5.891190
v -3.054562 -0.825876 -5.976550
v -3.054562 -0.825876 -5.976550
v -2.801964 -0.592333 -6.097750
v -2.990782 -0.631332 -6.147030
v -2.990782 -0.631332 -6.147030
v -3.136185 0.041561 -5.401710
v -3.136185 0.041561 -5.401710
v -3.055359 0.119414 -5.649210
v -3.055359 0.119414 -5.649210
v -2.998980 0.059700 -5.907400
v -2.998980 0.059700 -5.907400
v -2.982161 -0.121582 -6.107110
v -2.982161 -0.121582 -6.107110
v -1.879275 1.549705 -6.195230
v -1.879275 1.549705 -6.195230
v -2.050467 2.159415 -6.204510
v -2.050467 2.159415 -6.204510
v -2.050467 2.159415 -6.204510
v -1.122138 0.009507 -9.594040
v -1.122138 0.009507 -9.594040
v -1.122138 0.009507 -9.594040
v -1.205362 0.244884 -9.459930
v -1.205362 0.244884 -9.459930
v -0.000267 0.324874 -9.540500
v 0.000756 -0.918388 -10.138200
v 0.000756 -0.918388 -10.138200
v -0.603837 -0.923454 -10.137200
v -0.603837 -0.923454 -10.137200
v -0.603837 -0.923454 -10.137200
v -2.720378 0.981736 -6.241580
v -2.720378 0.981736 -6.241580
v -2.720378 0.981736 -6.241580
v -3.627995 1.537097 -3.012270
v -3.627995 1.537097 -3.012270
v -2.893462 2.786201 -3.012270
v -2.893462 2.786201 -3.012270
v -2.260997 3.777112 -3.012270
v -2.260997 3.777112 -3.012270
v -2.260997 3.777112 -3.012270
v -2.260997 3.777112 -3.012270
v -2.237959 3.426551 -4.036630
v -2.237959 3.426551 -4.036630
v -3.804211 -1.921749 -3.012270
v -3.804211 -1.921749 -3.012270
v -3.804211 -1.921749 -3.012270
v -3.804211 -1.921749 -3.012270
v -3.247488 -1.718861 -1.657300
v -3.247488 -1.718861 -1.657300
v -3.247488 -1.718861 -1.657300
v -3.035228 1.346464 -1.657300
v -3.035228 1.346464 -1.657300
v -2.946563 -0.314244 -6.577640
v -2.946563 -0.314244 -6.577640
v -2.247212 -0.545694 -8.441690
v -3.081822 -1.421345 -6.074570
v -2.244300 -2.177136 -7.857820
v -2.244300 -2.177136 -7.857820
v -1.376861 -2.285283 -9.754340
v -1.376861 -2.285283 -9.754340
v -1.376861 -2.285283 -9.754340
v 0.003336 -4.057418 -3.012270
v 0.003336 -4.057418 -3.012270
v 0.003336 -4.057418 -3.012270
v 0.003336 -4.057418 -3.012270
v 0.002865 -3.484429 -1.657300
v 0.002865 -3.484429 -1.657300
v 0.002865 -3.484429 -1.657300
v -1.763996 3.338480 -1.657300
v -1.763996 3.338480 -1.657300
v -1.763996 3.338480 -1.657300
v -1.370702 -3.415088 -5.896480
v 0.003055 -3.714989 -5.747750
v 0.003055 -3.714989 -5.747750
v -0.003192 3.881679 -3.012270
v -0.003192 3.881679 -3.012270
v -0.002819 3.428189 -1.657300
v -0.002819 3.428189 -1.657300
v 0.702726 -0.922379 -10.137200
v 0.702726 -0.922379 -10.137200
v 0.702726 -0.922379 -10.137200
v 1.380618 -2.283015 -9.754340
v 1.380618 -2.283015 -9.754340
v 1.380618 -2.283015 -9.754340
v 0.002628 -3.196119 -9.416490
v 0.002628 -3.196119 -9.416490
v 0.002628 -3.196119 -9.416490
v -0.951274 -1.444323 -10.011300
v -0.951274 -1.444323 -10.011300
v -0.951274 -1.444323 -10.011300
v -0.001582 1.924119 -8.482260
v -1.852409 1.931927 -8.253410
v -1.852409 1.931927 -8.253410
v -1.852409 1.931927 -8.253410
v -0.002061 2.507369 -7.930260
v -0.002061 2.507369 -7.930260
v 3.250310 -1.713518 -1.657300
v 3.250310 -1.713518 -1.657300
v 3.250310 -1.713518 -1.657300
v 3.033010 1.351455 -1.657300
v 3.033010 1.351455 -1.657300
v 1.758503 3.341377 -1.657300
v 1.758503 3.341377 -1.657300
v 1.758503 3.341377 -1.657300
v -1.864652 1.789047 -7.738870
v -3.357154 -2.027161 -4.599580
v -3.357154 -2.027161 -4.599580
v -3.075529 -1.291920 -5.988190
v -1.048402 -3.244433 -7.517990
v 0.002849 -3.464819 -7.449680
v 0.002849 -3.464819 -7.449680
v -2.910097 -2.132584 -6.186890
v -2.910097 -2.132584 -6.186890
v -3.382190 0.789329 -4.206990
v -3.382190 0.789329 -4.206990
v -1.844182 3.114624 -4.793770
v -1.844182 3.114624 -4.793770
v -1.844182 3.114624 -4.793770
v -1.784769 2.478653 -5.803380
v -1.784769 2.478653 -5.803380
v -1.784769 2.478653 -5.803380
v -1.348459 2.649792 -5.883440
v -1.348459 2.649792 -5.883440
v -0.513767 2.650478 -5.883440
v -0.513767 2.650478 -5.883440
v -0.513767 2.650478 -5.883440
v -0.002902 3.529189 -4.013630
v -0.760280 4.885286 -6.886960
v -0.760280 4.885286 -6.886960
v -0.760280 4.885286 -6.886960
v -0.005513 6.703698 -6.715390
v -0.005513 6.703698 -6.715390
v -0.005513 6.703698 -6.715390
v -0.467969 5.563387 -6.786120
v -0.005162 6.276578 -7.579750
v -0.005162 6.276578 -7.579750
v -0.001876 2.281239 -7.798540
v -0.001876 2.281239 -7.798540
v -0.001876 2.281239 -7.798540
v -1.265466 1.988500 -7.755800
v -0.478986 2.111897 -7.772730
v -0.814516 3.222541 -4.853780
v -0.814516 3.222541 -4.853780
v -0.814516 3.222541 -4.853780
v -0.003823 4.648539 -5.613410
v -0.003823 4.648539 -5.613410
v -0.003823 4.648539 -5.613410
v -0.002651 3.223879 -4.854470
v -0.002268 2.757599 -5.805880
v -0.002268 2.757599 -5.805880
v -0.002268 2.757599 -5.805880
v 0.501809 2.256393 -6.173640
v 0.501809 2.256393 -6.173640
v 0.501809 2.256393 -6.173640
v 0.510120 2.496340 -6.166190
v 0.510120 2.496340 -6.166190
v 0.510120 2.496340 -6.166190
v 1.022297 2.496762 -6.166190
v 1.022297 2.496762 -6.166190
v 0.744750 2.066663 -7.013720
v 0.744750 2.066663 -7.013720
v 0.744750 2.066663 -7.013720
v 0.508202 3.402409 -6.217230
v 0.508202 3.402409 -6.217230
v 2.806716 -0.224736 -6.069520
v 2.760936 -0.419827 -6.065640
v 2.973916 -0.370938 -6.194820
v 2.973916 -0.370938 -6.194820
v 2.694652 -0.122530 -5.842290
v 2.615360 -0.460437 -5.835580
v 2.703866 -0.091677 -5.574030
v 2.612317 -0.481858 -5.566270
v 2.831886 -0.140444 -5.336600
v 2.752604 -0.478351 -5.329880
v 3.044421 -0.255763 -5.193630
v 2.998642 -0.450854 -5.189760
v 3.200742 -0.147721 -5.231230
v 3.200742 -0.147721 -5.231230
v 3.231966 -0.406779 -5.183440
v 3.231966 -0.406779 -5.183440
v 3.034940 -0.618755 -5.221860
v 3.205982 -0.657459 -5.271140
v 3.205982 -0.657459 -5.271140
v 3.189861 -0.838768 -5.470850
v 3.189861 -0.838768 -5.470850
v 2.874053 -0.769117 -5.385490
v 3.134940 -0.898574 -5.729050
v 3.134940 -0.898574 -5.729050
v 2.766133 -0.817596 -5.630480
v 3.055916 -0.820851 -5.976550
v 3.055916 -0.820851 -5.976550
v 2.740099 -0.751201 -5.891190
v 2.991816 -0.626412 -6.147030
v 2.991816 -0.626412 -6.147030
v 2.802934 -0.587724 -6.097750
v 3.136112 0.046719 -5.401710
v 3.136112 0.046719 -5.401710
v 3.055159 0.124439 -5.649210
v 3.055159 0.124439 -5.649210
v 2.998878 0.064632 -5.907400
v 2.998878 0.064632 -5.907400
v 2.982357 -0.116677 -6.107110
v 2.982357 -0.116677 -6.107110
v 2.046912 2.162784 -6.204510
v 2.046912 2.162784 -6.204510
v 2.046912 2.162784 -6.204510
v 1.876724 1.552794 -6.195230
v 1.876724 1.552794 -6.195230
v 1.361115 1.843260 -6.191690
v 1.361115 1.843260 -6.191690
v 0.845598 2.007556 -6.188150
v 0.845598 2.007556 -6.188150
v 1.204957 0.246866 -9.459930
v 1.204957 0.246866 -9.459930
v 2.888876 2.790956 -3.012270
v 2.888876 2.790956 -3.012270
v 3.625462 1.543062 -3.012270
v 3.625462 1.543062 -3.012270
v 2.718760 0.986209 -6.241580
v 2.718760 0.986209 -6.241580
v 2.718760 0.986209 -6.241580
v 2.232320 3.430227 -4.036630
v 2.232320 3.430227 -4.036630
v 2.254781 3.780826 -3.012270
v 2.254781 3.780826 -3.012270
v 2.254781 3.780826 -3.012270
v 2.254781 3.780826 -3.012270
v 3.807366 -1.915490 -3.012270
v 3.807366 -1.915490 -3.012270
v 3.807366 -1.915490 -3.012270
v 3.807366 -1.915490 -3.012270
v 3.084156 -1.416274 -6.074570
v 2.248106 -0.541997 -8.441690
v 2.947075 -0.309398 -6.577640
v 2.947075 -0.309398 -6.577640
v 2.247878 -2.173442 -7.857820
v 2.247878 -2.173442 -7.857820
v 1.376317 -3.412829 -5.896480
v 1.849229 1.934971 -8.253410
v 1.849229 1.934971 -8.253410
v 1.849229 1.934971 -8.253410
v 1.861707 1.792112 -7.738870
v 1.053737 -3.242705 -7.517990
v 2.913601 -2.127795 -6.186890
v 2.913601 -2.127795 -6.186890
v 3.380888 0.794891 -4.206990
v 3.380888 0.794891 -4.206990
v 3.360484 -2.021637 -4.599580
v 3.360484 -2.021637 -4.599580
v 1.780690 2.481585 -5.803380
v 1.780690 2.481585 -5.803380
v 1.780690 2.481585 -5.803380
v 1.839057 3.117653 -4.793770
v 1.839057 3.117653 -4.793770
v 1.839057 3.117653 -4.793770
v 1.344100 2.652006 -5.883440
v 1.344100 2.652006 -5.883440
v 0.752244 4.886530 -6.886960
v 0.752244 4.886530 -6.886960
v 0.752244 4.886530 -6.886960
v 0.458818 5.564149 -6.786120
v 0.475512 2.112682 -7.772730
v 1.262193 1.990579 -7.755800
v 0.809215 3.223877 -4.853780
v 0.809215 3.223877 -4.853780
v 0.809215 3.223877 -4.853780
v 2.871999 0.500780 -5.903480
v 2.871999 0.500780 -5.903480
v -2.859841 0.596351 -5.970590
v -2.859841 0.596351 -5.970590
v -2.941251 -0.352585 -6.367320
v -2.941251 -0.352585 -6.367320
v -2.872819 0.496056 -5.903480
v -2.872819 0.496056 -5.903480
v 2.858857 0.601054 -5.970590
v 2.858857 0.601054 -5.970590
v 3.077649 -1.286860 -5.988190
v 2.941827 -0.347747 -6.367320
v 2.941827 -0.347747 -6.367320
v 1.310658 1.912238 -6.896250
v 0.509407 2.651320 -5.883440
v 0.509407 2.651320 -5.883440
v 0.509407 2.651320 -5.883440
vt 0.897737 0.764662
vt 0.925306 0.401086
vt 0.897737 0.401086
vt 0.925306 0.582874
vt 0.925306 0.764662
vt 0.106619 0.845113
vt 0.159501 0.826757
vt 0.092356 0.582873
vt 0.039474 0.582873
vt 0.709796 0.850322
vt 0.464883 0.935981
vt 0.709796 0.315426
vt 0.464883 0.229767
vt 0.159501 0.338991
vt 0.106619 0.320635
vt 0.463720 0.334890
vt 0.463720 0.830858
vt 0.360698 0.582873
vt 0.840848 0.235677
vt 0.872488 0.736551
vt 0.865421 0.736551
vt 0.693302 0.235677
vt 0.807268 0.052449
vt 0.557221 0.052449
vt 0.576401 0.235677
vt 0.586216 0.736551
vt 0.558849 0.052449
vt 0.296471 0.736551
vt 0.296196 0.235677
vt 3.906960 0.736551
vt 3.642620 0.736551
vt 3.672020 0.235677
vt 3.922110 0.235677
vt 4.865420 0.736551
vt 4.872490 0.736551
vt 3.699230 0.991384
vt 4.737530 0.982634
vt 3.430050 0.235677
vt 3.352580 0.736551
vt 3.815810 0.991384
vt 4.296470 0.736551
vt 4.296200 0.235677
vt 4.385290 0.982634
vt 4.693300 0.235677
vt 4.557220 0.052449
vt 3.619950 0.052449
vt 3.748000 0.052449
vt 3.691100 0.189870
vt 3.712240 0.052449
vt 3.942630 0.052449
vt 3.809410 0.052449
vt 4.279620 0.052449
vt 4.296010 0.144063
vt 0.296013 0.144063
vt 0.356672 0.052449
vt 0.737528 0.982634
vt 0.385287 0.982634
vt 0.279623 0.052449
vt 2.528920 0.249748
vt 1.543460 0.723959
vt 2.971960 0.723959
vt 1.572670 0.249748
vt 2.368690 0.076273
vt 1.612880 0.076273
vt 1.840900 0.723959
vt 1.852970 0.249748
vt 2.143230 0.723959
vt 2.145330 0.249748
vt 2.819700 0.723959
vt 2.553040 0.723959
vt 2.540440 0.249748
vt 2.795290 0.249748
vt 3.121630 0.723959
vt 3.065710 0.249748
vt 2.959600 0.965227
vt 2.655000 0.965227
vt 2.148210 0.076273
vt 2.523310 0.076273
vt 2.929880 0.076273
vt 2.793990 0.076273
vt 2.761970 0.163010
vt 2.755170 0.076273
vt 2.667190 0.076273
vt 1.858140 0.206379
vt 1.912100 0.076273
vt 1.828060 0.076273
vt 1.685910 0.956943
vt 2.054310 0.956943
vt 0.411564 0.499548
vt 0.323127 0.499548
vt 0.432865 0.539004
vt 0.265787 0.490086
vt 0.400643 0.618169
vt 0.500000 0.700059
vt 0.500000 0.725922
vt 0.401932 0.633153
vt 0.599357 0.618169
vt 0.734213 0.490086
vt 0.676873 0.499548
vt 0.567134 0.539004
vt 0.598068 0.633153
vt 0.500000 0.467630
vt 0.258050 0.370745
vt 0.393338 0.377838
vt 0.500000 0.597889
vt 0.606662 0.377838
vt 0.741950 0.370745
vt 0.500000 0.490380
vt 0.588436 0.499548
vt 0.432711 0.532970
vt 0.433829 0.533851
vt 0.439120 0.606249
vt 0.567289 0.532970
vt 0.566171 0.533851
vt 0.560880 0.606249
vt -0.052440 0.601332
vt -0.124348 0.824059
vt 0.279258 0.792367
vt 0.315211 0.602287
vt 0.697066 1.019690
vt 0.687975 1.158510
vt 1.327070 0.615746
vt 0.707972 0.603243
vt 0.681965 1.153310
vt 0.691056 1.016630
vt 0.701963 0.606588
vt 1.321060 0.618899
vt -0.130175 0.824008
vt -0.058268 0.604708
vt 0.309384 0.605648
vt 0.273430 0.792803
vt 0.073894 0.595406
vt -0.291472 0.595406
vt -0.297541 0.597416
vt 0.833541 0.605746
vt -0.656838 1.071330
vt -0.316386 1.028830
vt -0.656838 1.035790
vt 0.244734 1.024260
vt -0.303369 0.600851
vt -0.297299 0.598873
vt 0.068067 0.598873
vt 0.827531 0.609053
vt 0.238907 1.021130
vt -0.322212 1.025630
vt 0.333250 0.466665
vt 0.173211 0.336015
vt 0.307990 0.369636
vt 0.173649 0.466665
vt 0.307990 0.563694
vt 0.173211 0.597315
vt 0.177589 0.590391
vt 0.199588 0.415005
vt 0.177589 0.415005
vt 0.199588 0.765776
vt 0.177589 0.765776
vt 0.788674 0.825683
vt 0.830872 0.843394
vt 0.884452 0.590390
vt 0.842253 0.590390
vt 0.349558 0.848418
vt 0.544990 0.931061
vt 0.349558 0.332363
vt 0.544990 0.249720
vt 0.830872 0.337388
vt 0.788674 0.355098
vt 0.545918 0.829640
vt 0.545918 0.351141
vt 0.054297 0.345896
vt 0.132767 0.545727
vt 0.144510 0.833560
vt 0.091474 0.954369
vt 0.295737 0.913222
vt 0.231540 0.834864
vt 0.365770 0.834864
vt 0.397868 0.913222
vt 0.867231 0.545727
vt 0.945701 0.345896
vt 0.908524 0.954369
vt 0.855488 0.833560
vt 0.768458 0.834864
vt 0.704261 0.913222
vt 0.602130 0.913222
vt 0.634228 0.834864
vt 0.628126 0.590390
vt 0.065621 0.512925
vt 0.047281 0.466665
vt 0.052195 0.493373
vt 0.000000 0.466665
vt 0.083960 0.520081
vt 0.000000 0.533927
vt 0.081075 0.565621
vt 0.102300 0.420405
vt 0.120639 0.466665
vt 0.115725 0.439957
vt 0.083960 0.413249
vt 0.081075 0.367709
vt 0.052195 0.439957
vt 0.065621 0.420405
vt 0.000000 0.399403
vt 0.052195 0.485550
vt 0.115725 0.493373
vt 0.102300 0.512925
vt 0.115725 0.485550
vt 0.499999 0.072537
vt 0.049759 0.082529
vt 0.499999 0.330943
vt 0.950239 0.082529
vt 0.338107 0.548742
vt 0.661891 0.548742
vt 0.499999 0.548832
vt 0.499999 0.807125
vt 0.826351 0.466663
vt 0.692010 0.369635
vt 0.826789 0.336014
vt 0.666750 0.466663
vt 0.826789 0.597313
vt 0.692010 0.563692
vt 0.897700 0.512923
vt 0.916040 0.504434
vt 0.916040 0.520079
vt 0.897700 0.499374
vt 0.884275 0.493371
vt 0.884275 0.485549
vt 0.934379 0.420404
vt 0.916040 0.428893
vt 0.916040 0.413247
vt 0.934379 0.433953
vt 0.947805 0.439955
vt 0.947805 0.447778
vt 1.000000 0.466663
vt 0.947805 0.493371
vt 0.952719 0.466663
vt 0.934379 0.512923
vt 1.000000 0.533925
vt 0.918925 0.565619
vt 0.884275 0.439955
vt 0.879360 0.466663
vt 0.897700 0.420404
vt 0.918925 0.367708
vt 1.000000 0.399402
vt 0.897700 0.466663
vt 0.916040 0.466663
vt 0.897700 0.433953
vt 0.884275 0.466663
vt 0.884275 0.447778
vt 0.934379 0.466663
vt 0.934379 0.499374
vt 0.947805 0.466663
vt 0.947805 0.485549
vt 0.514911 0.274979
vt 0.545957 0.383548
vt 0.518361 0.459244
vt 0.561843 0.327695
vt 0.600196 0.214130
vt 0.600196 0.304560
vt 0.664159 0.259767
vt 0.638548 0.327695
vt 0.561843 0.439401
vt 0.560060 0.527868
vt 0.600196 0.462537
vt 0.600196 0.527868
vt 0.638548 0.439401
vt 0.635314 0.527868
vt 0.682030 0.459245
vt 0.685264 0.286496
vt 0.654435 0.383548
vt 0.650756 0.510712
vt 0.633410 0.335178
vt 0.647168 0.383548
vt 0.633410 0.431919
vt 0.600196 0.451954
vt 0.566981 0.431919
vt 0.553223 0.383548
vt 0.566981 0.335178
vt 0.600196 0.315143
vt 0.600196 0.423042
vt 0.581019 0.411475
vt 0.573076 0.383548
vt 0.581019 0.355622
vt 0.600196 0.344054
vt 0.619372 0.355622
vt 0.627315 0.383548
vt 0.619372 0.411475
vt 0.481652 0.459244
vt 0.438170 0.327695
vt 0.485102 0.274979
vt 0.454056 0.383548
vt 0.439953 0.527868
vt 0.438170 0.439401
vt 0.399817 0.527868
vt 0.399817 0.462537
vt 0.379750 0.527868
vt 0.361465 0.439401
vt 0.421138 0.229342
vt 0.399817 0.304560
vt 0.361465 0.327695
vt 0.389157 0.221736
vt 0.314533 0.274980
vt 0.345578 0.383548
vt 0.317983 0.459245
vt 0.349257 0.510712
vt 0.352845 0.383548
vt 0.366603 0.335178
vt 0.399817 0.315143
vt 0.433032 0.335178
vt 0.446790 0.383548
vt 0.433032 0.431919
vt 0.399817 0.451954
vt 0.366603 0.431919
vt 0.418994 0.411475
vt 0.399817 0.423042
vt 0.380641 0.411475
vt 0.372698 0.383548
vt 0.380641 0.355622
vt 0.399817 0.344054
vt 0.418994 0.355622
vt 0.426937 0.383548
vt 0.102300 0.499376
vt 0.083960 0.504436
vt 0.065621 0.499376
vt 0.065621 0.433955
vt 0.083960 0.428894
vt 0.102300 0.433955
vt 0.115725 0.447780
vt 0.083960 0.466665
vt 0.102300 0.466665
vt 0.065621 0.466665
vt 0.052195 0.466665
vt 0.052195 0.447780
vt 0.115725 0.466665
vt 0.334058 0.576796
vt 0.355946 0.599920
vt 0.337820 0.599536
vt 0.365452 0.577460
vt 0.332067 0.550178
vt 0.368319 0.550944
vt 0.332382 0.526813
vt 0.363777 0.527477
vt 0.334919 0.512963
vt 0.353045 0.513346
vt 0.319313 0.516136
vt 0.298856 0.540747
vt 0.315704 0.521007
vt 0.305353 0.532309
vt 0.293303 0.566267
vt 0.300856 0.556525
vt 0.300532 0.590730
vt 0.307028 0.582293
vt 0.318605 0.607581
vt 0.322215 0.602710
vt 0.381146 0.533913
vt 0.363073 0.517061
vt 0.388375 0.558376
vt 0.382821 0.583896
vt 0.365974 0.603635
vt 0.707313 0.217564
vt 0.292686 0.217564
vt 0.500000 0.053247
vt 0.306391 0.502399
vt 0.693608 0.502399
vt 0.387613 0.687415
vt 0.612386 0.687415
vt 0.500000 0.695616
vt 0.338997 0.512338
vt 0.342347 0.612305
vt 0.600196 0.383548
vt 0.399817 0.383548
vt 0.102760 0.254650
vt 0.233323 0.549610
vt 0.173926 0.390983
vt 0.299635 0.549610
vt 0.299635 0.236366
vt 0.299635 0.058482
vt 0.020780 0.044271
vt 0.578489 0.044271
vt 0.496509 0.254650
vt 0.401622 0.549610
vt 0.161254 0.614796
vt 0.299635 -0.053782
vt 0.267690 0.740854
vt 0.519273 0.748357
vt 0.338025 0.981057
vt 0.088461 0.137500
vt 0.307397 0.477192
vt 0.144171 0.335998
vt 0.349625 0.430235
vt 0.393473 0.344145
vt 0.346451 0.396278
vt 0.362682 0.364715
vt 0.644225 0.870717
vt 0.465373 0.978618
vt 0.736040 0.785885
vt 0.199880 0.534497
vt 0.293321 0.492844
vt 0.537396 0.969421
vt 0.516432 0.177464
vt 0.465898 0.353081
vt 0.487628 0.380334
vt 0.550983 0.396700
vt 0.566966 0.001847
vt 0.633143 0.419053
vt 0.567832 0.400984
vt 0.431435 0.339835
vt 0.454139 0.486776
vt 0.443282 0.466565
vt 0.371355 0.457488
vt 0.405818 0.470734
vt 0.468765 0.511023
vt 0.490803 0.414291
vt 0.474571 0.445854
vt 0.853658 0.628142
vt 0.499999 0.179246
vt 0.499999 0.027056
vt 0.093502 0.027056
vt 0.023825 0.179246
vt 0.976173 0.179246
vt 0.906496 0.027056
vt 0.328148 0.503200
vt 0.499999 0.677655
vt 0.499999 0.486495
vt 0.368491 0.687624
vt 0.135674 0.535819
vt 0.218972 0.723497
vt 0.327494 0.939930
vt 0.499999 0.894442
vt 0.079750 0.357533
vt 0.631507 0.687624
vt 0.671851 0.503200
vt 0.781027 0.723497
vt 0.864325 0.535819
vt 0.672505 0.939930
vt 0.920249 0.357533
vt 0.408620 0.546655
vt 0.508000 0.031833
vt 0.731115 0.031833
vt 0.908102 0.031833
vt 0.845453 0.195139
vt 0.618980 0.540746
vt 0.087612 0.553101
vt 0.118244 0.313946
vt 0.582070 0.313946
vt 0.610991 0.553101
vt 0.799918 0.553101
vt 0.883349 0.313946
vt 0.949785 0.553101
vt 0.543242 0.316256
vt 0.153845 0.597624
vt 0.239496 0.311351
vt 0.543242 0.603333
vt 0.846989 0.311351
vt 0.932639 0.597624
vt 0.600250 0.794375
vt 0.447927 0.705996
vt 0.527257 0.794375
vt 0.379754 0.549343
vt 0.712512 0.794375
vt 0.600250 0.354521
vt 0.820745 0.549343
vt 0.608983 0.608213
vt 0.623385 0.580324
vt 0.693182 0.613248
usemtl mat_0
s 1
f 37/1 45/2 34/3
f 37/1 43/4 45/2
f 40/5 43/4 37/1
f 14/6 12/7 27/8
f 2/9 14/6 27/8
f 48/10 41/5 38/1
f 16/11 48/10 38/1
f 46/2 50/12 8/13
f 35/3 46/2 8/13
f 25/14 6/15 3/9
f 28/8 25/14 3/9
f 39/1 36/3 31/16
f 19/17 39/1 31/16
f 31/16 22/18 19/17
f 16/11 10/7 13/6
f 16/11 20/17 10/7
f 38/1 20/17 16/11
f 21/18 11/7 18/17
f 21/18 30/8 11/7
f 24/14 8/13 5/15
f 24/14 33/16 8/13
f 35/3 8/13 33/16
f 26/14 23/18 32/16
f 26/14 29/8 23/18
usemtl mat_1
f 107/19 103/20 105/21
f 107/19 101/22 103/20
f 98/23 101/22 107/19
f 98/23 95/24 101/22
f 122/25 106/21 119/26
f 122/25 108/19 106/21
f 116/27 108/19 122/25
f 116/27 97/23 108/19
f 120/26 138/28 140/29
f 123/25 120/26 140/29
f 159/30 145/31 143/32
f 161/33 159/30 143/32
f 105/34 103/35 194/36
f 191/37 105/34 194/36
f 144/31 148/38 142/32
f 144/31 146/39 148/38
f 190/40 146/39 144/31
f 190/40 196/36 146/39
f 139/41 160/33 141/42
f 139/41 158/30 160/33
f 197/43 158/30 139/41
f 197/43 189/40 158/30
f 102/44 147/39 104/35
f 102/44 149/38 147/39
f 94/45 149/38 102/44
f 94/45 112/46 149/38
f 142/32 127/47 165/48
f 142/32 130/49 127/47
f 148/38 130/49 142/32
f 148/38 113/46 130/49
f 154/50 166/48 163/51
f 154/50 143/32 166/48
f 161/33 143/32 154/50
f 141/42 151/52 168/53
f 141/42 155/50 151/52
f 160/33 155/50 141/42
f 115/27 169/54 134/55
f 115/27 140/29 169/54
f 123/25 140/29 115/27
f 145/31 159/30 188/40
f 119/26 106/21 192/56
f 195/36 104/35 147/39
f 198/57 138/28 120/26
f 199/57 121/26 193/56
f 128/47 164/51 167/48
f 152/58 135/55 170/54
usemtl mat_2
f 216/59 212/60 214/61
f 216/59 210/62 212/60
f 207/63 210/62 216/59
f 207/63 204/64 210/62
f 230/65 213/60 211/62
f 228/66 230/65 211/62
f 252/67 231/65 229/66
f 250/68 252/67 229/66
f 259/69 270/70 268/71
f 261/72 259/69 268/71
f 256/73 260/72 254/74
f 256/73 258/69 260/72
f 302/75 258/69 256/73
f 302/75 299/76 258/69
f 251/68 269/70 253/67
f 251/68 267/71 269/70
f 245/77 267/71 251/68
f 245/77 266/78 267/71
f 255/74 215/61 257/73
f 255/74 217/59 215/61
f 219/79 217/59 255/74
f 219/79 206/63 217/59
f 236/80 274/81 238/82
f 236/80 260/72 274/81
f 220/79 260/72 236/80
f 220/79 254/74 260/72
f 261/72 272/83 275/81
f 261/72 265/78 272/83
f 268/71 265/78 261/72
f 246/77 277/84 248/85
f 246/77 229/66 277/84
f 250/68 229/66 246/77
f 228/66 226/86 278/84
f 228/66 203/64 226/86
f 211/62 203/64 228/66
f 297/76 270/70 259/69
f 214/61 212/60 303/87
f 300/75 214/61 303/87
f 304/87 213/60 230/65
f 253/67 269/70 298/76
f 306/88 253/67 298/76
f 257/73 215/61 301/75
f 231/65 252/67 307/88
f 305/87 232/65 308/88
f 273/83 239/82 276/81
f 227/86 249/85 279/84
usemtl mat_3
f 566/89 564/90 416/91
f 561/92 569/93 416/91
f 564/90 561/92 416/91
f 576/94 579/95 405/96
f 570/93 576/94 405/96
f 699/97 692/98 698/99
f 605/100 699/97 698/99
f 580/95 577/94 700/97
f 602/101 580/95 700/97
f 586/102 559/103 583/104
f 586/102 573/105 559/103
f 705/106 573/105 586/102
f 705/106 696/107 573/105
f 591/108 587/102 585/104
f 707/106 588/102 592/108
f 605/100 698/99 723/109
f 410/110 404/96 413/111
f 410/110 415/91 404/96
f 571/93 404/96 415/91
f 558/103 570/93 562/92
f 558/103 575/112 570/93
f 572/105 575/112 558/103
f 572/105 576/94 575/112
f 570/93 575/112 576/94
f 601/101 597/113 594/114
f 601/101 604/100 597/113
f 701/97 604/100 601/101
f 700/97 695/107 693/98
f 700/97 702/115 695/107
f 577/94 702/115 700/97
f 577/94 574/105 702/115
f 695/107 702/115 574/105
usemtl mat_4
f 401/116 403/117 406/118
f 399/119 401/116 406/118
f 546/120 534/121 473/122
f 457/123 546/120 473/122
f 681/124 683/125 649/126
f 661/127 681/124 649/126
f 603/128 653/129 651/130
f 721/131 603/128 651/130
f 407/132 409/133 412/134
f 402/116 407/132 412/134
f 402/116 458/135 407/132
f 400/119 458/135 402/116
f 400/119 456/123 458/135
f 474/122 458/135 456/123
f 537/136 582/137 578/138
f 537/136 581/139 582/137
f 534/121 581/139 537/136
f 534/121 546/120 581/139
f 401/116 414/134 403/117
f 593/140 596/141 599/142
f 645/143 593/140 599/142
f 645/143 652/129 593/140
f 648/126 652/129 645/143
f 648/126 650/130 652/129
f 648/126 645/143 662/127
f 681/124 704/144 683/125
f 681/124 703/145 704/144
f 537/136 703/145 681/124
f 537/136 578/138 703/145
f 603/128 595/140 653/129
f 649/126 721/131 651/130
f 649/126 704/144 721/131
f 683/125 704/144 649/126
f 581/139 399/119 406/118
f 581/139 457/123 399/119
f 546/120 457/123 581/139
f 582/137 403/117 578/138
f 582/137 581/139 403/117
f 406/118 403/117 581/139
f 603/128 703/145 578/138
f 603/128 704/144 703/145
f 721/131 704/144 603/128
usemtl mat_5
f 315/146 310/147 312/148
f 315/146 309/149 310/147
f 322/150 309/149 315/146
f 322/150 319/151 309/149
f 345/152 353/153 342/154
f 345/152 350/155 353/153
f 347/156 350/155 345/152
f 325/157 321/158 316/159
f 335/160 325/157 316/159
f 348/156 356/161 318/162
f 351/155 348/156 318/162
f 358/163 343/154 354/153
f 311/164 358/163 354/153
f 314/165 333/166 336/160
f 317/159 314/165 336/160
f 355/153 352/155 330/167
f 339/168 355/153 330/167
f 484/169 557/170 560/171
f 459/172 484/169 560/171
f 408/173 563/174 565/175
f 411/176 408/173 565/175
f 694/177 664/178 646/179
f 691/180 694/177 646/179
f 697/181 600/182 598/183
f 722/184 697/181 598/183
f 330/167 327/185 339/168
f 374/186 376/187 372/188
f 374/186 346/189 376/187
f 364/190 346/189 374/186
f 364/190 349/191 346/189
f 357/192 349/191 364/190
f 380/193 382/194 378/195
f 380/193 309/149 382/194
f 370/196 309/149 380/193
f 370/196 310/147 309/149
f 359/197 310/147 370/196
f 384/198 370/196 368/199
f 384/198 359/197 370/196
f 376/187 359/197 384/198
f 376/187 344/200 359/197
f 346/189 344/200 376/187
f 386/201 373/188 377/187
f 388/202 364/190 362/203
f 388/202 357/192 364/190
f 382/194 357/192 388/202
f 382/194 319/151 357/192
f 309/149 319/151 382/194
f 383/194 389/202 390/204
f 517/205 484/169 482/206
f 517/205 568/207 484/169
f 668/208 568/207 517/205
f 668/208 664/178 568/207
f 584/209 557/170 484/169
f 664/178 694/177 706/210
f 589/211 664/178 706/210
f 589/211 568/207 664/178
f 584/209 568/207 589/211
f 584/209 484/169 568/207
f 323/157 318/162 320/158
f 323/157 331/167 318/162
f 351/155 318/162 331/167
f 324/157 326/185 329/167
f 324/157 338/160 326/185
f 311/164 332/166 313/165
f 311/164 341/168 332/166
f 354/153 341/168 311/164
f 328/185 334/166 340/168
f 328/185 337/160 334/166
f 408/173 560/171 563/174
f 408/173 459/172 560/171
f 589/211 590/212 584/209
f 589/211 706/210 590/212
f 691/180 600/182 697/181
f 691/180 646/179 600/182
usemtl mat_6
f 9/213 4/214 7/215
f 9/213 1/216 4/214
f 17/217 1/216 9/213
f 15/217 1/218 17/216
f 55/219 52/220 53/221
f 55/219 57/222 52/220
f 81/223 57/222 55/219
f 81/223 83/224 57/222
f 61/225 58/226 59/227
f 61/225 63/228 58/226
f 77/229 63/228 61/225
f 77/229 88/230 63/228
f 44/231 68/232 64/233
f 44/231 66/234 68/232
f 42/235 66/234 44/231
f 42/235 54/221 66/234
f 49/236 54/221 42/235
f 9/213 74/237 70/238
f 9/213 72/239 74/237
f 7/215 72/239 9/213
f 7/215 60/227 72/239
f 51/240 60/227 7/215
f 51/240 62/225 60/227
f 51/240 76/229 62/225
f 47/241 76/229 51/240
f 47/241 64/233 76/229
f 44/231 64/233 47/241
f 49/236 56/219 54/221
f 49/236 80/223 56/219
f 17/217 80/223 49/236
f 17/217 70/238 80/223
f 9/213 70/238 17/217
f 85/242 58/226 84/243
f 85/242 86/244 58/226
f 82/245 86/244 85/242
f 82/245 79/246 86/244
f 89/247 52/220 84/243
f 89/247 90/248 52/220
f 87/249 90/248 89/247
f 87/249 78/250 90/248
f 73/239 79/246 75/237
f 73/239 86/244 79/246
f 59/227 86/244 73/239
f 59/227 58/226 86/244
f 85/242 83/224 82/245
f 85/242 57/222 83/224
f 84/243 57/222 85/242
f 84/243 52/220 57/222
f 67/234 78/250 69/232
f 67/234 90/248 78/250
f 53/221 90/248 67/234
f 53/221 52/220 90/248
f 89/247 88/230 87/249
f 89/247 63/228 88/230
f 84/243 63/228 89/247
f 84/243 58/226 63/228
f 96/251 91/252 93/253
f 96/251 99/254 91/252
f 114/255 99/254 96/251
f 114/255 117/256 99/254
f 133/257 117/256 114/255
f 133/257 136/258 117/256
f 109/259 93/253 91/252
f 109/259 111/260 93/253
f 131/261 111/260 109/259
f 131/261 129/262 111/260
f 124/263 129/262 131/261
f 124/263 126/264 129/262
f 153/265 136/258 150/266
f 153/265 156/267 136/258
f 162/268 156/267 153/265
f 162/268 124/263 156/267
f 157/267 180/269 137/258
f 157/267 181/270 180/269
f 125/263 181/270 157/267
f 125/263 182/271 181/270
f 132/261 182/271 125/263
f 132/261 183/272 182/271
f 110/259 183/272 132/261
f 110/259 184/273 183/272
f 92/252 184/273 110/259
f 92/252 185/274 184/273
f 100/254 185/274 92/252
f 100/254 186/275 185/274
f 118/256 186/275 100/254
f 118/256 187/276 186/275
f 137/258 187/276 118/256
f 137/258 180/269 187/276
f 184/273 173/277 183/272
f 184/273 171/278 173/277
f 185/274 171/278 184/273
f 185/274 179/279 171/278
f 186/275 179/279 185/274
f 186/275 178/280 179/279
f 187/276 178/280 186/275
f 187/276 177/281 178/280
f 180/269 177/281 187/276
f 180/269 176/282 177/281
f 181/270 176/282 180/269
f 181/270 175/283 176/282
f 182/271 175/283 181/270
f 182/271 174/284 175/283
f 183/272 174/284 182/271
f 183/272 173/277 174/284
f 124/263 162/268 126/264
f 136/258 133/257 150/266
f 205/285 200/286 202/287
f 205/285 208/288 200/286
f 218/289 208/288 205/285
f 218/289 221/290 208/288
f 235/291 221/290 218/289
f 235/291 233/292 221/290
f 237/293 233/292 235/291
f 237/293 240/294 233/292
f 225/295 202/287 200/286
f 223/296 225/295 200/286
f 242/297 247/298 223/296
f 242/297 244/299 247/298
f 262/300 244/299 242/297
f 262/300 264/301 244/299
f 240/294 264/301 262/300
f 240/294 271/302 264/301
f 243/297 289/303 263/300
f 243/297 290/304 289/303
f 224/296 290/304 243/297
f 224/296 296/305 290/304
f 201/286 296/305 224/296
f 201/286 295/306 296/305
f 209/288 295/306 201/286
f 209/288 294/307 295/306
f 222/290 294/307 209/288
f 222/290 293/308 294/307
f 234/292 293/308 222/290
f 234/292 292/309 293/308
f 241/294 292/309 234/292
f 241/294 291/310 292/309
f 263/300 291/310 241/294
f 263/300 289/303 291/310
f 292/309 282/311 293/308
f 292/309 280/312 282/311
f 291/310 280/312 292/309
f 291/310 283/313 280/312
f 289/303 283/313 291/310
f 289/303 284/314 283/313
f 290/304 284/314 289/303
f 290/304 285/315 284/314
f 296/305 285/315 290/304
f 296/305 286/316 285/315
f 295/306 286/316 296/305
f 295/306 287/317 286/316
f 294/307 287/317 295/306
f 294/307 288/318 287/317
f 293/308 288/318 294/307
f 293/308 282/311 288/318
f 240/294 237/293 271/302
f 223/296 247/298 225/295
f 363/190 360/319 361/203
f 363/190 365/320 360/319
f 375/186 365/320 363/190
f 375/186 397/321 365/320
f 373/188 397/321 375/186
f 373/188 386/201 397/321
f 369/196 366/322 367/199
f 369/196 371/323 366/322
f 381/193 371/323 369/196
f 381/193 392/324 371/323
f 379/195 392/324 381/193
f 379/195 387/325 392/324
f 394/326 392/324 393/327
f 394/326 371/323 392/324
f 398/328 371/323 394/326
f 398/328 366/322 371/323
f 396/329 366/322 398/328
f 396/329 395/330 366/322
f 394/326 397/321 398/328
f 394/326 365/320 397/321
f 393/327 365/320 394/326
f 393/327 360/319 365/320
f 391/331 360/319 393/327
f 391/331 390/204 360/319
f 391/331 393/327 392/324
f 387/325 391/331 392/324
f 385/198 367/199 366/322
f 395/330 385/198 366/322
f 389/202 361/203 360/319
f 390/204 389/202 360/319
f 396/329 398/328 397/321
f 386/201 396/329 397/321
f 421/332 420/333 419/334
f 421/332 422/335 420/333
f 423/336 422/335 421/332
f 423/336 424/337 422/335
f 425/338 424/337 423/336
f 425/338 426/339 424/337
f 427/340 426/339 425/338
f 427/340 428/341 426/339
f 433/342 435/343 437/344
f 433/342 434/345 435/343
f 427/340 434/345 433/342
f 427/340 425/338 434/345
f 434/345 440/346 435/343
f 434/345 439/347 440/346
f 425/338 439/347 434/345
f 425/338 423/336 439/347
f 439/347 443/348 440/346
f 439/347 442/349 443/348
f 423/336 442/349 439/347
f 423/336 421/332 442/349
f 442/349 446/350 443/348
f 442/349 445/351 446/350
f 421/332 445/351 442/349
f 421/332 419/334 445/351
f 448/352 428/341 431/353
f 448/352 426/339 428/341
f 450/354 426/339 448/352
f 450/354 424/337 426/339
f 452/355 424/337 450/354
f 452/355 422/335 424/337
f 454/356 422/335 452/355
f 454/356 420/333 422/335
f 538/357 491/358 508/359
f 538/357 493/360 491/358
f 541/361 493/360 538/357
f 541/361 512/362 493/360
f 543/363 512/362 541/361
f 543/363 519/364 512/362
f 606/333 611/332 607/334
f 606/333 610/335 611/332
f 643/356 610/335 606/333
f 643/356 641/355 610/335
f 610/335 613/336 611/332
f 610/335 612/337 613/336
f 641/355 612/337 610/335
f 641/355 639/354 612/337
f 612/337 615/338 613/336
f 612/337 614/339 615/338
f 639/354 614/339 612/337
f 639/354 637/352 614/339
f 614/339 617/340 615/338
f 614/339 616/341 617/340
f 637/352 616/341 614/339
f 637/352 618/353 616/341
f 625/343 622/342 623/344
f 625/343 627/345 622/342
f 628/346 627/345 625/343
f 628/346 630/347 627/345
f 631/348 630/347 628/346
f 631/348 633/349 630/347
f 634/350 633/349 631/348
f 634/350 636/351 633/349
f 627/345 617/340 622/342
f 627/345 615/338 617/340
f 630/347 615/338 627/345
f 630/347 613/336 615/338
f 633/349 613/336 630/347
f 633/349 611/332 613/336
f 636/351 611/332 633/349
f 636/351 607/334 611/332
f 78/250 65/233 69/232
f 78/250 87/249 65/233
f 88/230 65/233 87/249
f 88/230 77/229 65/233
f 79/246 71/238 75/237
f 79/246 82/245 71/238
f 83/224 71/238 82/245
f 83/224 81/223 71/238
f 383/194 387/325 379/195
f 383/194 391/331 387/325
f 390/204 391/331 383/194
f 395/330 377/187 385/198
f 395/330 396/329 377/187
f 386/201 377/187 396/329
f 428/341 429/365 431/353
f 428/341 427/340 429/365
f 433/342 429/365 427/340
f 433/342 437/344 429/365
f 445/351 417/366 446/350
f 445/351 419/334 417/366
f 420/333 417/366 419/334
f 420/333 454/356 417/366
f 620/365 616/341 618/353
f 620/365 617/340 616/341
f 622/342 617/340 620/365
f 620/365 623/344 622/342
f 608/366 636/351 634/350
f 608/366 607/334 636/351
f 606/333 607/334 608/366
f 608/366 643/356 606/333
f 172/367 173/277 171/278
f 172/367 174/284 173/277
f 175/283 174/284 172/367
f 172/367 176/282 175/283
f 177/281 176/282 172/367
f 172/367 178/280 177/281
f 179/279 178/280 172/367
f 172/367 171/278 179/279
f 281/368 282/311 280/312
f 281/368 288/318 282/311
f 287/317 288/318 281/368
f 281/368 286/316 287/317
f 285/315 286/316 281/368
f 281/368 284/314 285/315
f 283/313 284/314 281/368
f 281/368 280/312 283/313
usemtl mat_7
f 464/369 469/370 461/371
f 464/369 467/372 469/370
f 466/373 467/372 464/369
f 532/374 464/369 533/375
f 532/374 466/373 464/369
f 680/376 466/373 532/374
f 680/376 654/377 466/373
f 521/378 467/372 466/373
f 654/377 521/378 466/373
f 531/379 463/371 471/370
f 536/380 532/374 533/375
f 536/380 680/376 532/374
usemtl mat_8
f 498/381 496/382 500/383
f 487/384 549/385 547/386
f 487/384 441/387 549/385
f 430/388 441/387 487/384
f 430/388 436/389 441/387
f 438/390 436/389 430/388
f 500/383 462/391 530/392
f 500/383 465/393 462/391
f 496/382 465/393 500/383
f 496/382 498/381 553/394
f 497/395 496/382 553/394
f 524/383 522/396 655/393
f 674/382 524/383 655/393
f 677/381 674/382 673/395
f 685/394 677/381 673/395
f 687/397 638/398 640/399
f 708/400 687/397 640/399
f 475/401 472/402 710/403
f 555/397 475/401 710/403
f 660/402 658/401 687/397
f 716/403 660/402 687/397
f 449/398 555/397 715/400
f 451/399 449/398 715/400
f 432/404 555/397 449/398
f 432/404 475/401 555/397
f 430/388 475/401 432/404
f 430/388 487/384 475/401
f 524/383 674/382 677/381
f 671/384 687/397 658/401
f 671/384 638/398 687/397
f 621/388 638/398 671/384
f 621/388 619/404 638/398
f 441/387 712/405 549/385
f 441/387 418/406 712/405
f 444/407 418/406 441/387
f 444/407 447/408 418/406
f 556/397 711/403 714/400
f 629/387 690/386 718/385
f 629/387 671/384 690/386
f 626/389 671/384 629/387
f 626/389 621/388 671/384
f 624/390 621/388 626/389
f 676/409 718/385 673/395
f 676/409 719/405 718/385
f 717/403 719/405 676/409
f 717/403 709/400 719/405
f 712/405 451/399 715/400
f 712/405 453/410 451/399
f 418/406 453/410 712/405
f 418/406 455/411 453/410
f 495/409 714/400 711/403
f 495/409 713/405 714/400
f 497/395 713/405 495/409
f 497/395 549/385 713/405
f 709/400 717/403 688/397
f 609/406 718/385 720/405
f 609/406 629/387 718/385
f 635/408 629/387 609/406
f 635/408 632/407 629/387
f 642/410 708/400 640/399
f 642/410 720/405 708/400
f 644/411 720/405 642/410
f 644/411 609/406 720/405
f 494/409 496/382 497/395
f 494/409 472/402 496/382
f 710/403 472/402 494/409
f 535/412 496/382 472/402
f 535/412 465/393 496/382
f 674/382 675/409 673/395
f 674/382 660/402 675/409
f 682/412 660/402 674/382
f 674/382 655/393 682/412
f 675/409 660/402 716/403
f 497/395 547/386 549/385
f 497/395 553/394 547/386
f 690/386 673/395 718/385
f 690/386 685/394 673/395
usemtl mat_9
f 503/413 507/414 490/415
f 486/416 503/413 490/415
f 509/414 505/413 670/417
f 540/418 509/414 670/417
f 513/419 551/420 514/421
f 513/419 550/422 551/420
f 554/423 550/422 513/419
f 554/423 499/424 550/422
f 499/424 502/425 527/426
f 550/422 499/424 527/426
f 548/427 554/423 513/419
f 488/416 548/427 513/419
f 684/428 515/421 552/420
f 684/428 679/429 515/421
f 678/430 679/429 684/428
f 678/430 686/431 679/429
f 678/430 684/428 528/426
f 525/432 678/430 528/426
f 686/431 689/433 672/417
f 679/429 686/431 672/417
f 527/426 551/420 550/422
f 684/428 552/420 528/426
f 504/413 513/419 514/421
f 504/413 488/416 513/419
f 679/429 506/413 515/421
f 679/429 672/417 506/413
usemtl mat_10
f 472/434 475/435 477/436
f 477/436 479/437 483/438
f 460/439 472/434 477/436
f 483/438 460/439 477/436
f 660/434 647/439 663/438
f 656/436 660/434 663/438
f 656/436 658/435 660/434
f 663/438 665/437 656/436
usemtl mat_11
f 485/440 489/441 492/442
f 476/443 485/440 492/442
f 539/441 669/440 659/443
f 542/442 539/441 659/443
f 478/444 510/445 480/446
f 478/444 492/442 510/445
f 476/443 492/442 478/444
f 542/442 666/446 544/445
f 542/442 657/444 666/446
f 659/443 657/444 542/442
usemtl mat_12
f 518/447 481/448 511/449
f 518/447 516/450 481/448
f 545/451 516/450 518/447
f 545/451 667/452 516/450
usemtl mat_13
f 468/453 529/454 470/455
f 468/453 501/456 529/454
f 520/457 501/456 468/453
f 520/457 526/458 501/456
f 523/459 526/458 520/457
usemtl mat_14
f 410/460 567/461 415/462
f 604/462 724/461 597/460
