xof 0303txt 0032

template AnimTicksPerSecond {
  <9E415A43-7BA6-4a73-8743-B73D47E88476>
  DWORD AnimTicksPerSecond;
}

template XSkinMeshHeader {
  <3cf169ce-ff7c-44ab-93c0-f78f62d172e2>
  WORD nMaxSkinWeightsPerVertex;
  WORD nMaxSkinWeightsPerFace;
  WORD nBones;
}

template SkinWeights {
  <6f0d123b-bad2-4167-a0d0-80224f25fabb>
  STRING transformNodeName;
  DWORD nWeights;
  array DWORD vertexIndices[nWeights];
  array float weights[nWeights];
  Matrix4x4 matrixOffset;
}

Frame Root {
  FrameTransformMatrix {
     1.000000, 0.000000, 0.000000, 0.000000,
     0.000000, 0.000000, 1.000000, 0.000000,
     0.000000, 1.000000,-0.000000, 0.000000,
     0.000000, 0.000000, 0.000000, 1.000000;;
  }
  Frame rougela_mat_0 {
    FrameTransformMatrix {
       1.000000, 0.000000, 0.000000, 0.000000,
       0.000000, 1.000000, 0.000000, 0.000000,
       0.000000, 0.000000, 1.000000, 0.000000,
       0.000000, 0.000000, 0.000000, 1.000000;;
    }
    Mesh { //Mesh Mesh
      432;
       0.403463; 4.871388;-1.077416;,
       0.348747; 5.533151;-0.933328;,
      -0.348747; 5.533151;-0.933328;,
       0.403463; 4.871388;-1.077416;,
      -0.348747; 5.533151;-0.933328;,
      -0.403463; 4.871388;-1.077417;,
       0.403463; 4.871388;-1.077416;,
      -0.403463; 4.871388;-1.077417;,
       0.382900; 4.197909;-1.216001;,
      -0.403463; 4.871388;-1.077417;,
      -0.382900; 4.197909;-1.216001;,
       0.382900; 4.197909;-1.216001;,
       0.382900; 4.197909;-1.216001;,
      -0.382900; 4.197909;-1.216001;,
       0.323185; 3.707513;-1.293903;,
      -0.382900; 4.197909;-1.216001;,
      -0.323184; 3.707513;-1.293903;,
       0.323185; 3.707513;-1.293903;,
       0.323185; 3.707513;-1.293903;,
      -0.323184; 3.707513;-1.293903;,
       0.829062; 3.653409;-0.279303;,
      -0.323184; 3.707513;-1.293903;,
      -0.910894; 3.653409;-0.279304;,
       0.829062; 3.653409;-0.279303;,
       0.829062; 3.653409;-0.279303;,
      -0.910894; 3.653409;-0.279304;,
       1.079364; 3.655976; 0.670847;,
      -0.910894; 3.653409;-0.279304;,
      -1.343138; 3.653434; 0.680895;,
       1.079364; 3.655976; 0.670847;,
       1.079364; 3.655976; 0.670847;,
      -1.343138; 3.653434; 0.680895;,
       1.206818; 3.673940; 1.694410;,
      -1.343138; 3.653434; 0.680895;,
      -1.670879; 3.637790; 1.835929;,
       1.206818; 3.673940; 1.694410;,
      -0.260061; 6.064247;-0.786221;,
      -0.348747; 5.533151;-0.933328;,
       0.348747; 5.533151;-0.933328;,
      -0.260061; 6.064247;-0.786221;,
       0.348747; 5.533151;-0.933328;,
       0.260061; 6.064247;-0.786221;,
      -0.260061; 6.064247;-0.786221;,
       0.260061; 6.064247;-0.786221;,
      -0.492965; 6.064247;-0.002467;,
       0.260061; 6.064247;-0.786221;,
       0.499776; 6.064247;-0.002467;,
      -0.492965; 6.064247;-0.002467;,
      -0.403463; 4.871388;-1.077417;,
      -0.348747; 5.533151;-0.933328;,
      -0.846165; 5.548973;-0.033475;,
      -0.846165; 5.548973;-0.033475;,
      -1.035719; 4.871388;-0.093300;,
      -0.403463; 4.871388;-1.077417;,
      -0.403463; 4.871388;-1.077417;,
      -1.035719; 4.871388;-0.093300;,
      -0.382900; 4.197909;-1.216001;,
      -1.035719; 4.871388;-0.093300;,
      -1.092883; 4.197909;-0.186412;,
      -0.382900; 4.197909;-1.216001;,
      -0.382900; 4.197909;-1.216001;,
      -1.092883; 4.197909;-0.186412;,
      -0.323184; 3.707513;-1.293903;,
      -1.092883; 4.197909;-0.186412;,
      -0.910894; 3.653409;-0.279304;,
      -0.323184; 3.707513;-1.293903;,
      -0.846165; 5.548973;-0.033475;,
      -0.348747; 5.533151;-0.933328;,
      -0.260061; 6.064247;-0.786221;,
      -0.260061; 6.064247;-0.786221;,
      -0.492965; 6.064247;-0.002467;,
      -0.846165; 5.548973;-0.033475;,
      -0.846165; 5.548973;-0.033475;,
      -0.492965; 6.064247;-0.002467;,
      -1.028429; 5.543734; 0.611079;,
      -0.492965; 6.064247;-0.002467;,
      -0.546089; 6.064247; 0.500285;,
      -1.028429; 5.543734; 0.611079;,
      -1.028429; 5.543734; 0.611079;,
      -0.546089; 6.064247; 0.500285;,
      -0.868882; 5.531471; 1.152299;,
      -0.546089; 6.064247; 0.500285;,
      -0.506685; 6.064247; 0.861353;,
      -0.868882; 5.531471; 1.152299;,
      -0.868882; 5.531471; 1.152299;,
      -0.506685; 6.064247; 0.861353;,
       0.715441; 5.533587; 1.141295;,
      -0.506685; 6.064247; 0.861353;,
       0.484149; 6.064247; 0.861353;,
       0.715441; 5.533587; 1.141295;,
       0.715441; 5.533587; 1.141295;,
       0.484149; 6.064247; 0.861353;,
       0.938703; 5.544263; 0.608327;,
       0.484149; 6.064247; 0.861353;,
       0.556683; 6.064247; 0.500285;,
       0.938703; 5.544263; 0.608327;,
       0.938703; 5.544263; 0.608327;,
       0.556683; 6.064247; 0.500285;,
       0.817519; 5.548973;-0.033475;,
       0.556683; 6.064247; 0.500285;,
       0.499776; 6.064247;-0.002467;,
       0.817519; 5.548973;-0.033475;,
       0.817519; 5.548973;-0.033475;,
       0.499776; 6.064247;-0.002467;,
       0.348747; 5.533151;-0.933328;,
       0.499776; 6.064247;-0.002467;,
       0.260061; 6.064247;-0.786221;,
       0.348747; 5.533151;-0.933328;,
      -0.846165; 5.548973;-0.033475;,
      -1.028429; 5.543734; 0.611079;,
      -1.035719; 4.871388;-0.093300;,
      -1.028429; 5.543734; 0.611079;,
      -1.387130; 4.865717; 0.732178;,
      -1.035719; 4.871388;-0.093300;,
      -1.035719; 4.871388;-0.093300;,
      -1.387130; 4.865717; 0.732178;,
      -1.092883; 4.197909;-0.186412;,
      -1.387130; 4.865717; 0.732178;,
      -1.540596; 4.194474; 0.724007;,
      -1.092883; 4.197909;-0.186412;,
      -1.092883; 4.197909;-0.186412;,
      -1.540596; 4.194474; 0.724007;,
      -0.910894; 3.653409;-0.279304;,
      -1.540596; 4.194474; 0.724007;,
      -1.343138; 3.653434; 0.680895;,
      -0.910894; 3.653409;-0.279304;,
      -1.387130; 4.865717; 0.732178;,
      -1.028429; 5.543734; 0.611079;,
      -1.395949; 4.806325; 1.804933;,
      -1.028429; 5.543734; 0.611079;,
      -0.868882; 5.531471; 1.152299;,
      -1.395949; 4.806325; 1.804933;,
      -1.395949; 4.806325; 1.804933;,
      -0.868882; 5.531471; 1.152299;,
       1.065037; 4.836452; 1.665552;,
      -0.868882; 5.531471; 1.152299;,
       0.715441; 5.533587; 1.141295;,
       1.065037; 4.836452; 1.665552;,
       1.065037; 4.836452; 1.665552;,
       0.715441; 5.533587; 1.141295;,
       1.189203; 4.868124; 0.721544;,
       0.715441; 5.533587; 1.141295;,
       0.938703; 5.544263; 0.608327;,
       1.189203; 4.868124; 0.721544;,
       1.189203; 4.868124; 0.721544;,
       0.938703; 5.544263; 0.608327;,
       0.971615; 4.871388;-0.093300;,
       0.938703; 5.544263; 0.608327;,
       0.817519; 5.548973;-0.033475;,
       0.971615; 4.871388;-0.093300;,
       0.971615; 4.871388;-0.093300;,
       0.817519; 5.548973;-0.033475;,
       0.403463; 4.871388;-1.077416;,
       0.817519; 5.548973;-0.033475;,
       0.348747; 5.533151;-0.933328;,
       0.403463; 4.871388;-1.077416;,
      -0.506685; 6.064247; 0.861353;,
      -0.546089; 6.064247; 0.500285;,
       0.484149; 6.064247; 0.861353;,
      -0.546089; 6.064247; 0.500285;,
      -0.492965; 6.064247;-0.002467;,
       0.484149; 6.064247; 0.861353;,
       0.484149; 6.064247; 0.861353;,
      -0.492965; 6.064247;-0.002467;,
       0.556683; 6.064247; 0.500285;,
      -0.492965; 6.064247;-0.002467;,
       0.499776; 6.064247;-0.002467;,
       0.556683; 6.064247; 0.500285;,
       0.284938; 4.173193; 3.820151;,
       0.759403; 4.173193; 3.820151;,
       0.315499; 4.001194; 3.795598;,
       0.759403; 4.173193; 3.820151;,
       0.731749; 4.001194; 3.795598;,
       0.315499; 4.001194; 3.795598;,
       0.315499; 4.001194; 3.795598;,
       0.731749; 4.001194; 3.795598;,
       0.236765; 3.916679; 3.675861;,
       0.731749; 4.001194; 3.795598;,
       0.821420; 3.916679; 3.675861;,
       0.236765; 3.916679; 3.675861;,
       0.236765; 3.916679; 3.675861;,
       0.821420; 3.916679; 3.675861;,
       0.135298; 3.822425; 3.407679;,
       0.821420; 3.916679; 3.675861;,
       0.881701; 3.835089; 3.404700;,
       0.135298; 3.822425; 3.407679;,
       0.135298; 3.822425; 3.407679;,
       0.881701; 3.835089; 3.404700;,
      -0.270899; 3.739633; 3.188042;,
       0.881701; 3.835089; 3.404700;,
       0.931946; 3.812808; 3.146562;,
      -0.270899; 3.739633; 3.188042;,
       0.714256; 4.339580; 3.794871;,
       0.759403; 4.173193; 3.820151;,
       0.331800; 4.339580; 3.794871;,
       0.759403; 4.173193; 3.820151;,
       0.284938; 4.173193; 3.820151;,
       0.331800; 4.339580; 3.794871;,
       0.331800; 4.339580; 3.794871;,
       0.284938; 4.173193; 3.820151;,
       0.265574; 4.397008; 3.675180;,
       0.284938; 4.173193; 3.820151;,
       0.147990; 4.157121; 3.677977;,
       0.265574; 4.397008; 3.675180;,
       0.265574; 4.397008; 3.675180;,
       0.147990; 4.157121; 3.677977;,
       0.179312; 4.426670; 3.416936;,
       0.147990; 4.157121; 3.677977;,
       0.046388; 4.125495; 3.426280;,
       0.179312; 4.426670; 3.416936;,
       0.179312; 4.426670; 3.416936;,
       0.046388; 4.125495; 3.426280;,
      -0.118873; 4.463519; 3.226372;,
       0.046388; 4.125495; 3.426280;,
      -0.148226; 4.103125; 3.353717;,
      -0.118873; 4.463519; 3.226372;,
      -0.118873; 4.463519; 3.226372;,
      -0.148226; 4.103125; 3.353717;,
      -1.007812; 4.317194; 2.989038;,
      -0.148226; 4.103125; 3.353717;,
      -1.047668; 4.059972; 3.108373;,
      -1.007812; 4.317194; 2.989038;,
      -1.007812; 4.317194; 2.989038;,
      -1.047668; 4.059972; 3.108373;,
      -1.342811; 4.457933; 2.599535;,
      -1.047668; 4.059972; 3.108373;,
      -1.563080; 4.101120; 2.576855;,
      -1.342811; 4.457933; 2.599535;,
      -1.342811; 4.457933; 2.599535;,
      -1.563080; 4.101120; 2.576855;,
      -1.395949; 4.806325; 1.804933;,
      -1.563080; 4.101120; 2.576855;,
      -1.784306; 4.167060; 1.715016;,
      -1.395949; 4.806325; 1.804933;,
      -1.395949; 4.806325; 1.804933;,
      -1.784306; 4.167060; 1.715016;,
      -1.387130; 4.865717; 0.732178;,
      -1.784306; 4.167060; 1.715016;,
      -1.540596; 4.194474; 0.724007;,
      -1.387130; 4.865717; 0.732178;,
       1.206818; 3.673940; 1.694410;,
       1.422533; 4.182993; 1.706438;,
       1.079364; 3.655976; 0.670847;,
       1.422533; 4.182993; 1.706438;,
       1.301089; 4.196730; 0.720132;,
       1.079364; 3.655976; 0.670847;,
       1.079364; 3.655976; 0.670847;,
       1.301089; 4.196730; 0.720132;,
       0.829062; 3.653409;-0.279303;,
       1.301089; 4.196730; 0.720132;,
       1.013267; 4.197909;-0.186412;,
       0.829062; 3.653409;-0.279303;,
       0.829062; 3.653409;-0.279303;,
       1.013267; 4.197909;-0.186412;,
       0.323185; 3.707513;-1.293903;,
       1.013267; 4.197909;-0.186412;,
       0.382900; 4.197909;-1.216001;,
       0.323185; 3.707513;-1.293903;,
       0.971615; 4.871388;-0.093300;,
       1.013267; 4.197909;-0.186412;,
       1.189203; 4.868124; 0.721544;,
       1.013267; 4.197909;-0.186412;,
       1.301089; 4.196730; 0.720132;,
       1.189203; 4.868124; 0.721544;,
       1.189203; 4.868124; 0.721544;,
       1.301089; 4.196730; 0.720132;,
       1.065037; 4.836452; 1.665552;,
       1.301089; 4.196730; 0.720132;,
       1.422533; 4.182993; 1.706438;,
       1.065037; 4.836452; 1.665552;,
       1.065037; 4.836452; 1.665552;,
       1.422533; 4.182993; 1.706438;,
       0.961087; 4.540747; 2.564115;,
       1.422533; 4.182993; 1.706438;,
       1.291855; 4.145165; 2.562184;,
       0.961087; 4.540747; 2.564115;,
       0.961087; 4.540747; 2.564115;,
       1.291855; 4.145165; 2.562184;,
       0.893725; 4.445677; 3.145119;,
       1.291855; 4.145165; 2.562184;,
       1.087317; 4.132942; 3.145832;,
       0.893725; 4.445677; 3.145119;,
       0.893725; 4.445677; 3.145119;,
       1.087317; 4.132942; 3.145832;,
       0.867508; 4.425325; 3.403832;,
       1.087317; 4.132942; 3.145832;,
       1.006696; 4.130207; 3.404266;,
       0.867508; 4.425325; 3.403832;,
       0.867508; 4.425325; 3.403832;,
       1.006696; 4.130207; 3.404266;,
       0.791550; 4.397008; 3.675180;,
       1.006696; 4.130207; 3.404266;,
       0.909437; 4.157121; 3.677977;,
       0.791550; 4.397008; 3.675180;,
       0.791550; 4.397008; 3.675180;,
       0.909437; 4.157121; 3.677977;,
       0.714256; 4.339580; 3.794871;,
       0.909437; 4.157121; 3.677977;,
       0.759403; 4.173193; 3.820151;,
       0.714256; 4.339580; 3.794871;,
       0.971615; 4.871388;-0.093300;,
       0.403463; 4.871388;-1.077416;,
       0.382900; 4.197909;-1.216001;,
       0.971615; 4.871388;-0.093300;,
       0.382900; 4.197909;-1.216001;,
       1.013267; 4.197909;-0.186412;,
      -1.343138; 3.653434; 0.680895;,
      -1.540596; 4.194474; 0.724007;,
      -1.670879; 3.637790; 1.835929;,
      -1.540596; 4.194474; 0.724007;,
      -1.784306; 4.167060; 1.715016;,
      -1.670879; 3.637790; 1.835929;,
      -1.670879; 3.637790; 1.835929;,
      -1.784306; 4.167060; 1.715016;,
      -1.461629; 3.706836; 2.584336;,
      -1.784306; 4.167060; 1.715016;,
      -1.563080; 4.101120; 2.576855;,
      -1.461629; 3.706836; 2.584336;,
      -1.461629; 3.706836; 2.584336;,
      -1.563080; 4.101120; 2.576855;,
      -1.000685; 3.771120; 3.040717;,
      -1.563080; 4.101120; 2.576855;,
      -1.047668; 4.059972; 3.108373;,
      -1.000685; 3.771120; 3.040717;,
      -1.000685; 3.771120; 3.040717;,
      -1.047668; 4.059972; 3.108373;,
      -0.270899; 3.739633; 3.188042;,
      -1.047668; 4.059972; 3.108373;,
      -0.148226; 4.103125; 3.353717;,
      -0.270899; 3.739633; 3.188042;,
      -0.270899; 3.739633; 3.188042;,
      -0.148226; 4.103125; 3.353717;,
       0.135298; 3.822425; 3.407679;,
      -0.148226; 4.103125; 3.353717;,
       0.046388; 4.125495; 3.426280;,
       0.135298; 3.822425; 3.407679;,
       0.135298; 3.822425; 3.407679;,
       0.046388; 4.125495; 3.426280;,
       0.236765; 3.916679; 3.675861;,
       0.046388; 4.125495; 3.426280;,
       0.147990; 4.157121; 3.677977;,
       0.236765; 3.916679; 3.675861;,
       0.236765; 3.916679; 3.675861;,
       0.147990; 4.157121; 3.677977;,
       0.315499; 4.001194; 3.795598;,
       0.147990; 4.157121; 3.677977;,
       0.284938; 4.173193; 3.820151;,
       0.315499; 4.001194; 3.795598;,
      -1.000685; 3.771120; 3.040717;,
      -0.270899; 3.739633; 3.188042;,
      -1.670879; 3.637790; 1.835929;,
      -1.000685; 3.771120; 3.040717;,
      -1.670879; 3.637790; 1.835929;,
      -1.461629; 3.706836; 2.584336;,
       1.422533; 4.182993; 1.706438;,
       1.206818; 3.673940; 1.694410;,
       1.291855; 4.145165; 2.562184;,
       1.206818; 3.673940; 1.694410;,
       1.125493; 3.726834; 2.561923;,
       1.291855; 4.145165; 2.562184;,
       1.291855; 4.145165; 2.562184;,
       1.125493; 3.726834; 2.561923;,
       1.087317; 4.132942; 3.145832;,
       1.125493; 3.726834; 2.561923;,
       0.931946; 3.812808; 3.146562;,
       1.087317; 4.132942; 3.145832;,
       1.087317; 4.132942; 3.145832;,
       0.931946; 3.812808; 3.146562;,
       1.006696; 4.130207; 3.404266;,
       0.931946; 3.812808; 3.146562;,
       0.881701; 3.835089; 3.404700;,
       1.006696; 4.130207; 3.404266;,
       1.006696; 4.130207; 3.404266;,
       0.881701; 3.835089; 3.404700;,
       0.909437; 4.157121; 3.677977;,
       0.881701; 3.835089; 3.404700;,
       0.821420; 3.916679; 3.675861;,
       0.909437; 4.157121; 3.677977;,
       0.909437; 4.157121; 3.677977;,
       0.821420; 3.916679; 3.675861;,
       0.759403; 4.173193; 3.820151;,
       0.821420; 3.916679; 3.675861;,
       0.731749; 4.001194; 3.795598;,
       0.759403; 4.173193; 3.820151;,
      -1.395949; 4.806325; 1.804933;,
       1.065037; 4.836452; 1.665552;,
      -0.674598; 4.651780; 2.658575;,
       1.065037; 4.836452; 1.665552;,
       0.961087; 4.540747; 2.564115;,
      -0.674598; 4.651780; 2.658575;,
      -0.674598; 4.651780; 2.658575;,
       0.961087; 4.540747; 2.564115;,
      -0.118873; 4.463519; 3.226372;,
       0.961087; 4.540747; 2.564115;,
       0.893725; 4.445677; 3.145119;,
      -0.118873; 4.463519; 3.226372;,
      -0.118873; 4.463519; 3.226372;,
       0.893725; 4.445677; 3.145119;,
       0.179312; 4.426670; 3.416936;,
       0.893725; 4.445677; 3.145119;,
       0.867508; 4.425325; 3.403832;,
       0.179312; 4.426670; 3.416936;,
       0.179312; 4.426670; 3.416936;,
       0.867508; 4.425325; 3.403832;,
       0.265574; 4.397008; 3.675180;,
       0.867508; 4.425325; 3.403832;,
       0.791550; 4.397008; 3.675180;,
       0.265574; 4.397008; 3.675180;,
       0.265574; 4.397008; 3.675180;,
       0.791550; 4.397008; 3.675180;,
       0.331800; 4.339580; 3.794871;,
       0.791550; 4.397008; 3.675180;,
       0.714256; 4.339580; 3.794871;,
       0.331800; 4.339580; 3.794871;,
      -0.674598; 4.651780; 2.658575;,
      -1.342811; 4.457933; 2.599535;,
      -1.395949; 4.806325; 1.804933;,
      -0.118873; 4.463519; 3.226372;,
      -1.007812; 4.317194; 2.989038;,
      -1.342811; 4.457933; 2.599535;,
      -0.118873; 4.463519; 3.226372;,
      -1.342811; 4.457933; 2.599535;,
      -0.674598; 4.651780; 2.658575;,
      -1.670879; 3.637790; 1.835929;,
      -0.270899; 3.739633; 3.188042;,
       1.206818; 3.673940; 1.694410;,
      -0.270899; 3.739633; 3.188042;,
       0.931946; 3.812808; 3.146562;,
       1.206818; 3.673940; 1.694410;,
       1.206818; 3.673940; 1.694410;,
       0.931946; 3.812808; 3.146562;,
       1.125493; 3.726834; 2.561923;;
      144;
      3;0;1;2;,
      3;3;4;5;,
      3;6;7;8;,
      3;9;10;11;,
      3;12;13;14;,
      3;15;16;17;,
      3;18;19;20;,
      3;21;22;23;,
      3;24;25;26;,
      3;27;28;29;,
      3;30;31;32;,
      3;33;34;35;,
      3;36;37;38;,
      3;39;40;41;,
      3;42;43;44;,
      3;45;46;47;,
      3;48;49;50;,
      3;51;52;53;,
      3;54;55;56;,
      3;57;58;59;,
      3;60;61;62;,
      3;63;64;65;,
      3;66;67;68;,
      3;69;70;71;,
      3;72;73;74;,
      3;75;76;77;,
      3;78;79;80;,
      3;81;82;83;,
      3;84;85;86;,
      3;87;88;89;,
      3;90;91;92;,
      3;93;94;95;,
      3;96;97;98;,
      3;99;100;101;,
      3;102;103;104;,
      3;105;106;107;,
      3;108;109;110;,
      3;111;112;113;,
      3;114;115;116;,
      3;117;118;119;,
      3;120;121;122;,
      3;123;124;125;,
      3;126;127;128;,
      3;129;130;131;,
      3;132;133;134;,
      3;135;136;137;,
      3;138;139;140;,
      3;141;142;143;,
      3;144;145;146;,
      3;147;148;149;,
      3;150;151;152;,
      3;153;154;155;,
      3;156;157;158;,
      3;159;160;161;,
      3;162;163;164;,
      3;165;166;167;,
      3;168;169;170;,
      3;171;172;173;,
      3;174;175;176;,
      3;177;178;179;,
      3;180;181;182;,
      3;183;184;185;,
      3;186;187;188;,
      3;189;190;191;,
      3;192;193;194;,
      3;195;196;197;,
      3;198;199;200;,
      3;201;202;203;,
      3;204;205;206;,
      3;207;208;209;,
      3;210;211;212;,
      3;213;214;215;,
      3;216;217;218;,
      3;219;220;221;,
      3;222;223;224;,
      3;225;226;227;,
      3;228;229;230;,
      3;231;232;233;,
      3;234;235;236;,
      3;237;238;239;,
      3;240;241;242;,
      3;243;244;245;,
      3;246;247;248;,
      3;249;250;251;,
      3;252;253;254;,
      3;255;256;257;,
      3;258;259;260;,
      3;261;262;263;,
      3;264;265;266;,
      3;267;268;269;,
      3;270;271;272;,
      3;273;274;275;,
      3;276;277;278;,
      3;279;280;281;,
      3;282;283;284;,
      3;285;286;287;,
      3;288;289;290;,
      3;291;292;293;,
      3;294;295;296;,
      3;297;298;299;,
      3;300;301;302;,
      3;303;304;305;,
      3;306;307;308;,
      3;309;310;311;,
      3;312;313;314;,
      3;315;316;317;,
      3;318;319;320;,
      3;321;322;323;,
      3;324;325;326;,
      3;327;328;329;,
      3;330;331;332;,
      3;333;334;335;,
      3;336;337;338;,
      3;339;340;341;,
      3;342;343;344;,
      3;345;346;347;,
      3;348;349;350;,
      3;351;352;353;,
      3;354;355;356;,
      3;357;358;359;,
      3;360;361;362;,
      3;363;364;365;,
      3;366;367;368;,
      3;369;370;371;,
      3;372;373;374;,
      3;375;376;377;,
      3;378;379;380;,
      3;381;382;383;,
      3;384;385;386;,
      3;387;388;389;,
      3;390;391;392;,
      3;393;394;395;,
      3;396;397;398;,
      3;399;400;401;,
      3;402;403;404;,
      3;405;406;407;,
      3;408;409;410;,
      3;411;412;413;,
      3;414;415;416;,
      3;417;418;419;,
      3;420;421;422;,
      3;423;424;425;,
      3;426;427;428;,
      3;429;430;431;;
      MeshNormals { //Mesh Normals
        432;
        -0.510483;-0.193487; 0.837794;,
        -0.519456;-0.286691; 0.804926;,
         0.495499;-0.261910; 0.828150;,
        -0.510483;-0.193487; 0.837794;,
         0.495499;-0.261910; 0.828150;,
         0.491745;-0.198767; 0.847713;,
        -0.510483;-0.193487; 0.837794;,
         0.491745;-0.198767; 0.847713;,
        -0.499710;-0.119175; 0.857936;,
         0.491745;-0.198767; 0.847713;,
         0.476424;-0.124332; 0.870357;,
        -0.499710;-0.119175; 0.857936;,
        -0.499710;-0.119175; 0.857936;,
         0.476424;-0.124332; 0.870357;,
        -0.366161; 0.559648; 0.743431;,
         0.476424;-0.124332; 0.870357;,
         0.346782; 0.561541; 0.751244;,
        -0.366161; 0.559648; 0.743431;,
        -0.366161; 0.559648; 0.743431;,
         0.346782; 0.561541; 0.751244;,
        -0.580584; 0.773492; 0.254189;,
         0.346782; 0.561541; 0.751244;,
         0.554643; 0.771020; 0.312784;,
        -0.580584; 0.773492; 0.254189;,
        -0.580584; 0.773492; 0.254189;,
         0.554643; 0.771020; 0.312784;,
        -0.569292; 0.815027; 0.107578;,
         0.554643; 0.771020; 0.312784;,
         0.568529; 0.793451; 0.217139;,
        -0.569292; 0.815027; 0.107578;,
        -0.569292; 0.815027; 0.107578;,
         0.568529; 0.793451; 0.217139;,
        -0.578539; 0.815241;-0.025025;,
         0.568529; 0.793451; 0.217139;,
         0.674398; 0.736320;-0.054781;,
        -0.578539; 0.815241;-0.025025;,
         0.365551;-0.728324; 0.579547;,
         0.495499;-0.261910; 0.828150;,
        -0.519456;-0.286691; 0.804926;,
         0.365551;-0.728324; 0.579547;,
        -0.519456;-0.286691; 0.804926;,
        -0.426862;-0.709067; 0.561235;,
         0.365551;-0.728324; 0.579547;,
        -0.426862;-0.709067; 0.561235;,
         0.460219;-0.880459; 0.113804;,
        -0.426862;-0.709067; 0.561235;,
        -0.511368;-0.846706; 0.146794;,
         0.460219;-0.880459; 0.113804;,
         0.491745;-0.198767; 0.847713;,
         0.495499;-0.261910; 0.828150;,
         0.857662;-0.390576; 0.334361;,
         0.857662;-0.390576; 0.334361;,
         0.868526;-0.219031; 0.444563;,
         0.491745;-0.198767; 0.847713;,
         0.491745;-0.198767; 0.847713;,
         0.868526;-0.219031; 0.444563;,
         0.476424;-0.124332; 0.870357;,
         0.868526;-0.219031; 0.444563;,
         0.873714; 0.017426; 0.486068;,
         0.476424;-0.124332; 0.870357;,
         0.476424;-0.124332; 0.870357;,
         0.873714; 0.017426; 0.486068;,
         0.346782; 0.561541; 0.751244;,
         0.873714; 0.017426; 0.486068;,
         0.554643; 0.771020; 0.312784;,
         0.346782; 0.561541; 0.751244;,
         0.857662;-0.390576; 0.334361;,
         0.495499;-0.261910; 0.828150;,
         0.365551;-0.728324; 0.579547;,
         0.365551;-0.728324; 0.579547;,
         0.460219;-0.880459; 0.113804;,
         0.857662;-0.390576; 0.334361;,
         0.857662;-0.390576; 0.334361;,
         0.460219;-0.880459; 0.113804;,
         0.824580;-0.563952; 0.044832;,
         0.460219;-0.880459; 0.113804;,
         0.435041;-0.900266;-0.014161;,
         0.824580;-0.563952; 0.044832;,
         0.824580;-0.563952; 0.044832;,
         0.435041;-0.900266;-0.014161;,
         0.402112;-0.724448;-0.559832;,
         0.435041;-0.900266;-0.014161;,
         0.335002;-0.832636;-0.440992;,
         0.402112;-0.724448;-0.559832;,
         0.402112;-0.724448;-0.559832;,
         0.335002;-0.832636;-0.440992;,
        -0.488754;-0.597552;-0.635609;,
         0.335002;-0.832636;-0.440992;,
        -0.329753;-0.818232;-0.470840;,
        -0.488754;-0.597552;-0.635609;,
        -0.488754;-0.597552;-0.635609;,
        -0.329753;-0.818232;-0.470840;,
        -0.891293;-0.448164;-0.068392;,
        -0.329753;-0.818232;-0.470840;,
        -0.492508;-0.870266;-0.003082;,
        -0.891293;-0.448164;-0.068392;,
        -0.891293;-0.448164;-0.068392;,
        -0.492508;-0.870266;-0.003082;,
        -0.875301;-0.379406; 0.299783;,
        -0.492508;-0.870266;-0.003082;,
        -0.511368;-0.846706; 0.146794;,
        -0.875301;-0.379406; 0.299783;,
        -0.875301;-0.379406; 0.299783;,
        -0.511368;-0.846706; 0.146794;,
        -0.519456;-0.286691; 0.804926;,
        -0.511368;-0.846706; 0.146794;,
        -0.426862;-0.709067; 0.561235;,
        -0.519456;-0.286691; 0.804926;,
         0.857662;-0.390576; 0.334361;,
         0.824580;-0.563952; 0.044832;,
         0.868526;-0.219031; 0.444563;,
         0.824580;-0.563952; 0.044832;,
         0.910886;-0.353008; 0.213630;,
         0.868526;-0.219031; 0.444563;,
         0.868526;-0.219031; 0.444563;,
         0.910886;-0.353008; 0.213630;,
         0.873714; 0.017426; 0.486068;,
         0.910886;-0.353008; 0.213630;,
         0.941435; 0.033540; 0.335429;,
         0.873714; 0.017426; 0.486068;,
         0.873714; 0.017426; 0.486068;,
         0.941435; 0.033540; 0.335429;,
         0.554643; 0.771020; 0.312784;,
         0.941435; 0.033540; 0.335429;,
         0.568529; 0.793451; 0.217139;,
         0.554643; 0.771020; 0.312784;,
         0.910886;-0.353008; 0.213630;,
         0.824580;-0.563952; 0.044832;,
         0.598437;-0.741325;-0.303720;,
         0.824580;-0.563952; 0.044832;,
         0.402112;-0.724448;-0.559832;,
         0.598437;-0.741325;-0.303720;,
         0.598437;-0.741325;-0.303720;,
         0.402112;-0.724448;-0.559832;,
        -0.640675;-0.695730;-0.324717;,
         0.402112;-0.724448;-0.559832;,
        -0.488754;-0.597552;-0.635609;,
        -0.640675;-0.695730;-0.324717;,
        -0.640675;-0.695730;-0.324717;,
        -0.488754;-0.597552;-0.635609;,
        -0.959807;-0.278787; 0.031465;,
        -0.488754;-0.597552;-0.635609;,
        -0.891293;-0.448164;-0.068392;,
        -0.959807;-0.278787; 0.031465;,
        -0.959807;-0.278787; 0.031465;,
        -0.891293;-0.448164;-0.068392;,
        -0.912778;-0.177770; 0.367687;,
        -0.891293;-0.448164;-0.068392;,
        -0.875301;-0.379406; 0.299783;,
        -0.912778;-0.177770; 0.367687;,
        -0.912778;-0.177770; 0.367687;,
        -0.875301;-0.379406; 0.299783;,
        -0.510483;-0.193487; 0.837794;,
        -0.875301;-0.379406; 0.299783;,
        -0.519456;-0.286691; 0.804926;,
        -0.510483;-0.193487; 0.837794;,
         0.335002;-0.832636;-0.440992;,
         0.435041;-0.900266;-0.014161;,
        -0.329753;-0.818232;-0.470840;,
         0.435041;-0.900266;-0.014161;,
         0.460219;-0.880459; 0.113804;,
        -0.329753;-0.818232;-0.470840;,
        -0.329753;-0.818232;-0.470840;,
         0.460219;-0.880459; 0.113804;,
        -0.492508;-0.870266;-0.003082;,
         0.460219;-0.880459; 0.113804;,
        -0.511368;-0.846706; 0.146794;,
        -0.492508;-0.870266;-0.003082;,
         0.431745;-0.045625;-0.900815;,
        -0.404797;-0.025971;-0.913999;,
         0.284768; 0.473006;-0.833735;,
        -0.404797;-0.025971;-0.913999;,
        -0.284249; 0.465529;-0.838099;,
         0.284768; 0.473006;-0.833735;,
         0.284768; 0.473006;-0.833735;,
        -0.284249; 0.465529;-0.838099;,
         0.469436; 0.693960;-0.545885;,
        -0.284249; 0.465529;-0.838099;,
        -0.502304; 0.692831;-0.517319;,
         0.469436; 0.693960;-0.545885;,
         0.469436; 0.693960;-0.545885;,
        -0.502304; 0.692831;-0.517319;,
         0.296884; 0.771905;-0.562090;,
        -0.502304; 0.692831;-0.517319;,
        -0.535478; 0.800348;-0.269539;,
         0.296884; 0.771905;-0.562090;,
         0.296884; 0.771905;-0.562090;,
        -0.535478; 0.800348;-0.269539;,
         0.147191; 0.813837;-0.562090;,
        -0.535478; 0.800348;-0.269539;,
        -0.523362; 0.822230;-0.223609;,
         0.147191; 0.813837;-0.562090;,
        -0.263924;-0.555864;-0.788232;,
        -0.404797;-0.025971;-0.913999;,
         0.303995;-0.550798;-0.777276;,
        -0.404797;-0.025971;-0.913999;,
         0.431745;-0.045625;-0.900815;,
         0.303995;-0.550798;-0.777276;,
         0.303995;-0.550798;-0.777276;,
         0.431745;-0.045625;-0.900815;,
         0.460463;-0.789514;-0.405683;,
         0.431745;-0.045625;-0.900815;,
         0.852992;-0.054262;-0.519089;,
         0.460463;-0.789514;-0.405683;,
         0.460463;-0.789514;-0.405683;,
         0.852992;-0.054262;-0.519089;,
         0.351115;-0.856349;-0.378643;,
         0.852992;-0.054262;-0.519089;,
         0.670888;-0.064333;-0.738731;,
         0.351115;-0.856349;-0.378643;,
         0.351115;-0.856349;-0.378643;,
         0.670888;-0.064333;-0.738731;,
         0.188696;-0.766289;-0.614124;,
         0.670888;-0.064333;-0.738731;,
         0.344096;-0.042238;-0.937956;,
         0.188696;-0.766289;-0.614124;,
         0.188696;-0.766289;-0.614124;,
         0.344096;-0.042238;-0.937956;,
         0.400037;-0.590075;-0.701254;,
         0.344096;-0.042238;-0.937956;,
         0.493820;-0.060335;-0.867428;,
         0.400037;-0.590075;-0.701254;,
         0.400037;-0.590075;-0.701254;,
         0.493820;-0.060335;-0.867428;,
         0.586688;-0.646413;-0.487747;,
         0.493820;-0.060335;-0.867428;,
         0.874905;-0.108707;-0.471908;,
         0.586688;-0.646413;-0.487747;,
         0.586688;-0.646413;-0.487747;,
         0.874905;-0.108707;-0.471908;,
         0.598437;-0.741325;-0.303720;,
         0.874905;-0.108707;-0.471908;,
         0.992553;-0.118748;-0.027009;,
         0.598437;-0.741325;-0.303720;,
         0.598437;-0.741325;-0.303720;,
         0.992553;-0.118748;-0.027009;,
         0.910886;-0.353008; 0.213630;,
         0.992553;-0.118748;-0.027009;,
         0.941435; 0.033540; 0.335429;,
         0.910886;-0.353008; 0.213630;,
        -0.578539; 0.815241;-0.025025;,
        -0.996734;-0.069399;-0.040712;,
        -0.569292; 0.815027; 0.107578;,
        -0.996734;-0.069399;-0.040712;,
        -0.985107; 0.057894; 0.161840;,
        -0.569292; 0.815027; 0.107578;,
        -0.569292; 0.815027; 0.107578;,
        -0.985107; 0.057894; 0.161840;,
        -0.580584; 0.773492; 0.254189;,
        -0.985107; 0.057894; 0.161840;,
        -0.918058; 0.049135; 0.393323;,
        -0.580584; 0.773492; 0.254189;,
        -0.580584; 0.773492; 0.254189;,
        -0.918058; 0.049135; 0.393323;,
        -0.366161; 0.559648; 0.743431;,
        -0.918058; 0.049135; 0.393323;,
        -0.499710;-0.119175; 0.857936;,
        -0.366161; 0.559648; 0.743431;,
        -0.912778;-0.177770; 0.367687;,
        -0.918058; 0.049135; 0.393323;,
        -0.959807;-0.278787; 0.031465;,
        -0.918058; 0.049135; 0.393323;,
        -0.985107; 0.057894; 0.161840;,
        -0.959807;-0.278787; 0.031465;,
        -0.959807;-0.278787; 0.031465;,
        -0.985107; 0.057894; 0.161840;,
        -0.640675;-0.695730;-0.324717;,
        -0.985107; 0.057894; 0.161840;,
        -0.996734;-0.069399;-0.040712;,
        -0.640675;-0.695730;-0.324717;,
        -0.640675;-0.695730;-0.324717;,
        -0.996734;-0.069399;-0.040712;,
        -0.470565;-0.846858;-0.247658;,
        -0.996734;-0.069399;-0.040712;,
        -0.965789;-0.134648;-0.221564;,
        -0.470565;-0.846858;-0.247658;,
        -0.470565;-0.846858;-0.247658;,
        -0.965789;-0.134648;-0.221564;,
        -0.474807;-0.861019;-0.182073;,
        -0.965789;-0.134648;-0.221564;,
        -0.949370;-0.044618;-0.310923;,
        -0.474807;-0.861019;-0.182073;,
        -0.474807;-0.861019;-0.182073;,
        -0.949370;-0.044618;-0.310923;,
        -0.523362;-0.829707;-0.194006;,
        -0.949370;-0.044618;-0.310923;,
        -0.950957;-0.001648;-0.309275;,
        -0.523362;-0.829707;-0.194006;,
        -0.523362;-0.829707;-0.194006;,
        -0.950957;-0.001648;-0.309275;,
        -0.472671;-0.787744;-0.394971;,
        -0.950957;-0.001648;-0.309275;,
        -0.860012;-0.044343;-0.508316;,
        -0.472671;-0.787744;-0.394971;,
        -0.472671;-0.787744;-0.394971;,
        -0.860012;-0.044343;-0.508316;,
        -0.263924;-0.555864;-0.788232;,
        -0.860012;-0.044343;-0.508316;,
        -0.404797;-0.025971;-0.913999;,
        -0.263924;-0.555864;-0.788232;,
        -0.912778;-0.177770; 0.367687;,
        -0.510483;-0.193487; 0.837794;,
        -0.499710;-0.119175; 0.857936;,
        -0.912778;-0.177770; 0.367687;,
        -0.499710;-0.119175; 0.857936;,
        -0.918058; 0.049135; 0.393323;,
         0.568529; 0.793451; 0.217139;,
         0.941435; 0.033540; 0.335429;,
         0.674398; 0.736320;-0.054781;,
         0.941435; 0.033540; 0.335429;,
         0.992553;-0.118748;-0.027009;,
         0.674398; 0.736320;-0.054781;,
         0.674398; 0.736320;-0.054781;,
         0.992553;-0.118748;-0.027009;,
         0.557146; 0.727683;-0.400037;,
         0.992553;-0.118748;-0.027009;,
         0.874905;-0.108707;-0.471908;,
         0.557146; 0.727683;-0.400037;,
         0.557146; 0.727683;-0.400037;,
         0.874905;-0.108707;-0.471908;,
         0.344340; 0.684957;-0.642018;,
         0.874905;-0.108707;-0.471908;,
         0.493820;-0.060335;-0.867428;,
         0.344340; 0.684957;-0.642018;,
         0.344340; 0.684957;-0.642018;,
         0.493820;-0.060335;-0.867428;,
         0.147191; 0.813837;-0.562090;,
         0.493820;-0.060335;-0.867428;,
         0.344096;-0.042238;-0.937956;,
         0.147191; 0.813837;-0.562090;,
         0.147191; 0.813837;-0.562090;,
         0.344096;-0.042238;-0.937956;,
         0.296884; 0.771905;-0.562090;,
         0.344096;-0.042238;-0.937956;,
         0.670888;-0.064333;-0.738731;,
         0.296884; 0.771905;-0.562090;,
         0.296884; 0.771905;-0.562090;,
         0.670888;-0.064333;-0.738731;,
         0.469436; 0.693960;-0.545885;,
         0.670888;-0.064333;-0.738731;,
         0.852992;-0.054262;-0.519089;,
         0.469436; 0.693960;-0.545885;,
         0.469436; 0.693960;-0.545885;,
         0.852992;-0.054262;-0.519089;,
         0.284768; 0.473006;-0.833735;,
         0.852992;-0.054262;-0.519089;,
         0.431745;-0.045625;-0.900815;,
         0.284768; 0.473006;-0.833735;,
         0.344340; 0.684957;-0.642018;,
         0.147191; 0.813837;-0.562090;,
         0.674398; 0.736320;-0.054781;,
         0.344340; 0.684957;-0.642018;,
         0.674398; 0.736320;-0.054781;,
         0.557146; 0.727683;-0.400037;,
        -0.996734;-0.069399;-0.040712;,
        -0.578539; 0.815241;-0.025025;,
        -0.965789;-0.134648;-0.221564;,
        -0.578539; 0.815241;-0.025025;,
        -0.421339; 0.890957;-0.169103;,
        -0.965789;-0.134648;-0.221564;,
        -0.965789;-0.134648;-0.221564;,
        -0.421339; 0.890957;-0.169103;,
        -0.949370;-0.044618;-0.310923;,
        -0.421339; 0.890957;-0.169103;,
        -0.523362; 0.822230;-0.223609;,
        -0.949370;-0.044618;-0.310923;,
        -0.949370;-0.044618;-0.310923;,
        -0.523362; 0.822230;-0.223609;,
        -0.950957;-0.001648;-0.309275;,
        -0.523362; 0.822230;-0.223609;,
        -0.535478; 0.800348;-0.269539;,
        -0.950957;-0.001648;-0.309275;,
        -0.950957;-0.001648;-0.309275;,
        -0.535478; 0.800348;-0.269539;,
        -0.860012;-0.044343;-0.508316;,
        -0.535478; 0.800348;-0.269539;,
        -0.502304; 0.692831;-0.517319;,
        -0.860012;-0.044343;-0.508316;,
        -0.860012;-0.044343;-0.508316;,
        -0.502304; 0.692831;-0.517319;,
        -0.404797;-0.025971;-0.913999;,
        -0.502304; 0.692831;-0.517319;,
        -0.284249; 0.465529;-0.838099;,
        -0.404797;-0.025971;-0.913999;,
         0.598437;-0.741325;-0.303720;,
        -0.640675;-0.695730;-0.324717;,
         0.128758;-0.919675;-0.370922;,
        -0.640675;-0.695730;-0.324717;,
        -0.470565;-0.846858;-0.247658;,
         0.128758;-0.919675;-0.370922;,
         0.128758;-0.919675;-0.370922;,
        -0.470565;-0.846858;-0.247658;,
         0.188696;-0.766289;-0.614124;,
        -0.470565;-0.846858;-0.247658;,
        -0.474807;-0.861019;-0.182073;,
         0.188696;-0.766289;-0.614124;,
         0.188696;-0.766289;-0.614124;,
        -0.474807;-0.861019;-0.182073;,
         0.351115;-0.856349;-0.378643;,
        -0.474807;-0.861019;-0.182073;,
        -0.523362;-0.829707;-0.194006;,
         0.351115;-0.856349;-0.378643;,
         0.351115;-0.856349;-0.378643;,
        -0.523362;-0.829707;-0.194006;,
         0.460463;-0.789514;-0.405683;,
        -0.523362;-0.829707;-0.194006;,
        -0.472671;-0.787744;-0.394971;,
         0.460463;-0.789514;-0.405683;,
         0.460463;-0.789514;-0.405683;,
        -0.472671;-0.787744;-0.394971;,
         0.303995;-0.550798;-0.777276;,
        -0.472671;-0.787744;-0.394971;,
        -0.263924;-0.555864;-0.788232;,
         0.303995;-0.550798;-0.777276;,
         0.128758;-0.919675;-0.370922;,
         0.586688;-0.646413;-0.487747;,
         0.598437;-0.741325;-0.303720;,
         0.188696;-0.766289;-0.614124;,
         0.400037;-0.590075;-0.701254;,
         0.586688;-0.646413;-0.487747;,
         0.188696;-0.766289;-0.614124;,
         0.586688;-0.646413;-0.487747;,
         0.128758;-0.919675;-0.370922;,
         0.674398; 0.736320;-0.054781;,
         0.147191; 0.813837;-0.562090;,
        -0.578539; 0.815241;-0.025025;,
         0.147191; 0.813837;-0.562090;,
        -0.523362; 0.822230;-0.223609;,
        -0.578539; 0.815241;-0.025025;,
        -0.578539; 0.815241;-0.025025;,
        -0.523362; 0.822230;-0.223609;,
        -0.421339; 0.890957;-0.169103;;
        144;
        3;0;1;2;,
        3;3;4;5;,
        3;6;7;8;,
        3;9;10;11;,
        3;12;13;14;,
        3;15;16;17;,
        3;18;19;20;,
        3;21;22;23;,
        3;24;25;26;,
        3;27;28;29;,
        3;30;31;32;,
        3;33;34;35;,
        3;36;37;38;,
        3;39;40;41;,
        3;42;43;44;,
        3;45;46;47;,
        3;48;49;50;,
        3;51;52;53;,
        3;54;55;56;,
        3;57;58;59;,
        3;60;61;62;,
        3;63;64;65;,
        3;66;67;68;,
        3;69;70;71;,
        3;72;73;74;,
        3;75;76;77;,
        3;78;79;80;,
        3;81;82;83;,
        3;84;85;86;,
        3;87;88;89;,
        3;90;91;92;,
        3;93;94;95;,
        3;96;97;98;,
        3;99;100;101;,
        3;102;103;104;,
        3;105;106;107;,
        3;108;109;110;,
        3;111;112;113;,
        3;114;115;116;,
        3;117;118;119;,
        3;120;121;122;,
        3;123;124;125;,
        3;126;127;128;,
        3;129;130;131;,
        3;132;133;134;,
        3;135;136;137;,
        3;138;139;140;,
        3;141;142;143;,
        3;144;145;146;,
        3;147;148;149;,
        3;150;151;152;,
        3;153;154;155;,
        3;156;157;158;,
        3;159;160;161;,
        3;162;163;164;,
        3;165;166;167;,
        3;168;169;170;,
        3;171;172;173;,
        3;174;175;176;,
        3;177;178;179;,
        3;180;181;182;,
        3;183;184;185;,
        3;186;187;188;,
        3;189;190;191;,
        3;192;193;194;,
        3;195;196;197;,
        3;198;199;200;,
        3;201;202;203;,
        3;204;205;206;,
        3;207;208;209;,
        3;210;211;212;,
        3;213;214;215;,
        3;216;217;218;,
        3;219;220;221;,
        3;222;223;224;,
        3;225;226;227;,
        3;228;229;230;,
        3;231;232;233;,
        3;234;235;236;,
        3;237;238;239;,
        3;240;241;242;,
        3;243;244;245;,
        3;246;247;248;,
        3;249;250;251;,
        3;252;253;254;,
        3;255;256;257;,
        3;258;259;260;,
        3;261;262;263;,
        3;264;265;266;,
        3;267;268;269;,
        3;270;271;272;,
        3;273;274;275;,
        3;276;277;278;,
        3;279;280;281;,
        3;282;283;284;,
        3;285;286;287;,
        3;288;289;290;,
        3;291;292;293;,
        3;294;295;296;,
        3;297;298;299;,
        3;300;301;302;,
        3;303;304;305;,
        3;306;307;308;,
        3;309;310;311;,
        3;312;313;314;,
        3;315;316;317;,
        3;318;319;320;,
        3;321;322;323;,
        3;324;325;326;,
        3;327;328;329;,
        3;330;331;332;,
        3;333;334;335;,
        3;336;337;338;,
        3;339;340;341;,
        3;342;343;344;,
        3;345;346;347;,
        3;348;349;350;,
        3;351;352;353;,
        3;354;355;356;,
        3;357;358;359;,
        3;360;361;362;,
        3;363;364;365;,
        3;366;367;368;,
        3;369;370;371;,
        3;372;373;374;,
        3;375;376;377;,
        3;378;379;380;,
        3;381;382;383;,
        3;384;385;386;,
        3;387;388;389;,
        3;390;391;392;,
        3;393;394;395;,
        3;396;397;398;,
        3;399;400;401;,
        3;402;403;404;,
        3;405;406;407;,
        3;408;409;410;,
        3;411;412;413;,
        3;414;415;416;,
        3;417;418;419;,
        3;420;421;422;,
        3;423;424;425;,
        3;426;427;428;,
        3;429;430;431;;
      } //End of Mesh Normals
      MeshMaterialList { //Mesh Material List
        1;
        144;
        0,
        0,
        0,
        0,
        0,
        0,
        0,
        0,
        0,
        0,
        0,
        0,
        0,
        0,
        0,
        0,
        0,
        0,
        0,
        0,
        0,
        0,
        0,
        0,
        0,
        0,
        0,
        0,
        0,
        0,
        0,
        0,
        0,
        0,
        0,
        0,
        0,
        0,
        0,
        0,
        0,
        0,
        0,
        0,
        0,
        0,
        0,
        0,
        0,
        0,
        0,
        0,
        0,
        0,
        0,
        0,
        0,
        0,
        0,
        0,
        0,
        0,
        0,
        0,
        0,
        0,
        0,
        0,
        0,
        0,
        0,
        0,
        0,
        0,
        0,
        0,
        0,
        0,
        0,
        0,
        0,
        0,
        0,
        0,
        0,
        0,
        0,
        0,
        0,
        0,
        0,
        0,
        0,
        0,
        0,
        0,
        0,
        0,
        0,
        0,
        0,
        0,
        0,
        0,
        0,
        0,
        0,
        0,
        0,
        0,
        0,
        0,
        0,
        0,
        0,
        0,
        0,
        0,
        0,
        0,
        0,
        0,
        0,
        0,
        0,
        0,
        0,
        0,
        0,
        0,
        0,
        0,
        0,
        0,
        0,
        0,
        0,
        0,
        0,
        0,
        0,
        0,
        0,
        0;;
        Material mat_0 {
           0.640000; 0.640000; 0.640000; 1.000000;;
           92.156863;
           0.250000; 0.250000; 0.250000;;
           0.000000; 0.000000; 0.000000;;
          TextureFilename {"Textures/rougela_0_0.tga";}
        }
      } //End of Mesh Material List
      MeshTextureCoords { //Mesh UV Coordinates
        432;
         0.624326; 0.423739;,
         0.624326; 0.423739;,
         0.631454; 0.464416;,
         0.631454; 0.464416;,
         0.624326; 0.423739;,
         0.631454; 0.464416;,
         0.631454; 0.464416;,
         0.631454; 0.464416;,
         0.638582; 0.505094;,
         0.631454; 0.464416;,
         0.638582; 0.505094;,
         0.638582; 0.505094;,
         0.638582; 0.505094;,
         0.638582; 0.505094;,
         0.645709; 0.545771;,
         0.638582; 0.505094;,
         0.645709; 0.545771;,
         0.645709; 0.545771;,
         0.645709; 0.545771;,
         0.645709; 0.545771;,
         0.601168; 0.545771;,
         0.645709; 0.545771;,
         0.601168; 0.545771;,
         0.601168; 0.545771;,
         0.601168; 0.545771;,
         0.601168; 0.545771;,
         0.541066; 0.545771;,
         0.601168; 0.545771;,
         0.541066; 0.545771;,
         0.541066; 0.545771;,
         0.541066; 0.545771;,
         0.541066; 0.545771;,
         0.480963; 0.545771;,
         0.541066; 0.545771;,
         0.480963; 0.545771;,
         0.480963; 0.545771;,
         0.617199; 0.383062;,
         0.624326; 0.423739;,
         0.624326; 0.423739;,
         0.624326; 0.423739;,
         0.617199; 0.383062;,
         0.617199; 0.383062;,
         0.617199; 0.383062;,
         0.617199; 0.383062;,
         0.572657; 0.383062;,
         0.617199; 0.383062;,
         0.572657; 0.383062;,
         0.572657; 0.383062;,
         0.631454; 0.464416;,
         0.624326; 0.423739;,
         0.579785; 0.423739;,
         0.579785; 0.423739;,
         0.586913; 0.464416;,
         0.631454; 0.464416;,
         0.631454; 0.464416;,
         0.586913; 0.464416;,
         0.638582; 0.505094;,
         0.586913; 0.464416;,
         0.594040; 0.505094;,
         0.638582; 0.505094;,
         0.638582; 0.505094;,
         0.594040; 0.505094;,
         0.645709; 0.545771;,
         0.594040; 0.505094;,
         0.601168; 0.545771;,
         0.645709; 0.545771;,
         0.579785; 0.423739;,
         0.624326; 0.423739;,
         0.617199; 0.383062;,
         0.617199; 0.383062;,
         0.572657; 0.383062;,
         0.579785; 0.423739;,
         0.579785; 0.423739;,
         0.572657; 0.383062;,
         0.542196; 0.423739;,
         0.572657; 0.383062;,
         0.550386; 0.383062;,
         0.542196; 0.423739;,
         0.542196; 0.423739;,
         0.550386; 0.383062;,
         0.504607; 0.423739;,
         0.550386; 0.383062;,
         0.528116; 0.383062;,
         0.504607; 0.423739;,
         0.504607; 0.423739;,
         0.528116; 0.383062;,
         0.504607; 0.423739;,
         0.528116; 0.383062;,
         0.528116; 0.383062;,
         0.504607; 0.423739;,
         0.504607; 0.423739;,
         0.528116; 0.383062;,
         0.542196; 0.423739;,
         0.528116; 0.383062;,
         0.550386; 0.383062;,
         0.542196; 0.423739;,
         0.542196; 0.423739;,
         0.550386; 0.383062;,
         0.579785; 0.423739;,
         0.550386; 0.383062;,
         0.572657; 0.383062;,
         0.579785; 0.423739;,
         0.579785; 0.423739;,
         0.572657; 0.383062;,
         0.624326; 0.423739;,
         0.572657; 0.383062;,
         0.617199; 0.383062;,
         0.624326; 0.423739;,
         0.579785; 0.423739;,
         0.542196; 0.423739;,
         0.586913; 0.464416;,
         0.542196; 0.423739;,
         0.534006; 0.464416;,
         0.586913; 0.464416;,
         0.586913; 0.464416;,
         0.534006; 0.464416;,
         0.594040; 0.505094;,
         0.534006; 0.464416;,
         0.537536; 0.505094;,
         0.594040; 0.505094;,
         0.594040; 0.505094;,
         0.537536; 0.505094;,
         0.601168; 0.545771;,
         0.537536; 0.505094;,
         0.541066; 0.545771;,
         0.601168; 0.545771;,
         0.534006; 0.464416;,
         0.542196; 0.423739;,
         0.481099; 0.464416;,
         0.542196; 0.423739;,
         0.504607; 0.423739;,
         0.481099; 0.464416;,
         0.481099; 0.464416;,
         0.504607; 0.423739;,
         0.481099; 0.464416;,
         0.504607; 0.423739;,
         0.504607; 0.423739;,
         0.481099; 0.464416;,
         0.481099; 0.464416;,
         0.504607; 0.423739;,
         0.534006; 0.464416;,
         0.504607; 0.423739;,
         0.542196; 0.423739;,
         0.534006; 0.464416;,
         0.534006; 0.464416;,
         0.542196; 0.423739;,
         0.586913; 0.464416;,
         0.542196; 0.423739;,
         0.579785; 0.423739;,
         0.586913; 0.464416;,
         0.586913; 0.464416;,
         0.579785; 0.423739;,
         0.631454; 0.464416;,
         0.579785; 0.423739;,
         0.624326; 0.423739;,
         0.631454; 0.464416;,
         0.528116; 0.383062;,
         0.550386; 0.383062;,
         0.528116; 0.383062;,
         0.550386; 0.383062;,
         0.572657; 0.383062;,
         0.528116; 0.383062;,
         0.528116; 0.383062;,
         0.572657; 0.383062;,
         0.550386; 0.383062;,
         0.572657; 0.383062;,
         0.572657; 0.383062;,
         0.550386; 0.383062;,
         0.379409; 0.504747;,
         0.379409; 0.504747;,
         0.379347; 0.523494;,
         0.379409; 0.504747;,
         0.379347; 0.523494;,
         0.379347; 0.523494;,
         0.379347; 0.523494;,
         0.379347; 0.523494;,
         0.389449; 0.530374;,
         0.379347; 0.523494;,
         0.389449; 0.530374;,
         0.389449; 0.530374;,
         0.389449; 0.530374;,
         0.389449; 0.530374;,
         0.402351; 0.536437;,
         0.389449; 0.530374;,
         0.402351; 0.536437;,
         0.402351; 0.536437;,
         0.402351; 0.536437;,
         0.402351; 0.536437;,
         0.405150; 0.535619;,
         0.402351; 0.536437;,
         0.405150; 0.535619;,
         0.405150; 0.535619;,
         0.379470; 0.486000;,
         0.379409; 0.504747;,
         0.379470; 0.486000;,
         0.379409; 0.504747;,
         0.379409; 0.504747;,
         0.379470; 0.486000;,
         0.379470; 0.486000;,
         0.379409; 0.504747;,
         0.389574; 0.482330;,
         0.379409; 0.504747;,
         0.389512; 0.506352;,
         0.389574; 0.482330;,
         0.389574; 0.482330;,
         0.389512; 0.506352;,
         0.402479; 0.481069;,
         0.389512; 0.506352;,
         0.402415; 0.508753;,
         0.402479; 0.481069;,
         0.402479; 0.481069;,
         0.402415; 0.508753;,
         0.405279; 0.483476;,
         0.402415; 0.508753;,
         0.405215; 0.509548;,
         0.405279; 0.483476;,
         0.405279; 0.483476;,
         0.405215; 0.509548;,
         0.410761; 0.493193;,
         0.405215; 0.509548;,
         0.410697; 0.509548;,
         0.410761; 0.493193;,
         0.410761; 0.493193;,
         0.410697; 0.509548;,
         0.445930; 0.478805;,
         0.410697; 0.509548;,
         0.445864; 0.507321;,
         0.445930; 0.478805;,
         0.445930; 0.478805;,
         0.445864; 0.507321;,
         0.481099; 0.464416;,
         0.445864; 0.507321;,
         0.481031; 0.505094;,
         0.481099; 0.464416;,
         0.481099; 0.464416;,
         0.481031; 0.505094;,
         0.534006; 0.464416;,
         0.481031; 0.505094;,
         0.537536; 0.505094;,
         0.534006; 0.464416;,
         0.480963; 0.545771;,
         0.481031; 0.505094;,
         0.541066; 0.545771;,
         0.481031; 0.505094;,
         0.537536; 0.505094;,
         0.541066; 0.545771;,
         0.541066; 0.545771;,
         0.537536; 0.505094;,
         0.601168; 0.545771;,
         0.537536; 0.505094;,
         0.594040; 0.505094;,
         0.601168; 0.545771;,
         0.601168; 0.545771;,
         0.594040; 0.505094;,
         0.645709; 0.545771;,
         0.594040; 0.505094;,
         0.638582; 0.505094;,
         0.645709; 0.545771;,
         0.586913; 0.464416;,
         0.594040; 0.505094;,
         0.534006; 0.464416;,
         0.594040; 0.505094;,
         0.537536; 0.505094;,
         0.534006; 0.464416;,
         0.534006; 0.464416;,
         0.537536; 0.505094;,
         0.481099; 0.464416;,
         0.537536; 0.505094;,
         0.481031; 0.505094;,
         0.481099; 0.464416;,
         0.481099; 0.464416;,
         0.481031; 0.505094;,
         0.443189; 0.473946;,
         0.481031; 0.505094;,
         0.443123; 0.507321;,
         0.443189; 0.473946;,
         0.443189; 0.473946;,
         0.443123; 0.507321;,
         0.405279; 0.483476;,
         0.443123; 0.507321;,
         0.405215; 0.509548;,
         0.405279; 0.483476;,
         0.405279; 0.483476;,
         0.405215; 0.509548;,
         0.402479; 0.481069;,
         0.405215; 0.509548;,
         0.402415; 0.508753;,
         0.402479; 0.481069;,
         0.402479; 0.481069;,
         0.402415; 0.508753;,
         0.389575; 0.482330;,
         0.402415; 0.508753;,
         0.389512; 0.506352;,
         0.389575; 0.482330;,
         0.389575; 0.482330;,
         0.389512; 0.506352;,
         0.379470; 0.486000;,
         0.389512; 0.506352;,
         0.379409; 0.504747;,
         0.379470; 0.486000;,
         0.586913; 0.464416;,
         0.631454; 0.464416;,
         0.638582; 0.505094;,
         0.586913; 0.464416;,
         0.638582; 0.505094;,
         0.594040; 0.505094;,
         0.541066; 0.545771;,
         0.537536; 0.505094;,
         0.480963; 0.545771;,
         0.537536; 0.505094;,
         0.481031; 0.505094;,
         0.480963; 0.545771;,
         0.480963; 0.545771;,
         0.481031; 0.505094;,
         0.445798; 0.535837;,
         0.481031; 0.505094;,
         0.445864; 0.507321;,
         0.445798; 0.535837;,
         0.445798; 0.535837;,
         0.445864; 0.507321;,
         0.410633; 0.525902;,
         0.445864; 0.507321;,
         0.410697; 0.509548;,
         0.410633; 0.525902;,
         0.410633; 0.525902;,
         0.410697; 0.509548;,
         0.405150; 0.535619;,
         0.410697; 0.509548;,
         0.405215; 0.509548;,
         0.405150; 0.535619;,
         0.405150; 0.535619;,
         0.405215; 0.509548;,
         0.402351; 0.536437;,
         0.405215; 0.509548;,
         0.402415; 0.508753;,
         0.402351; 0.536437;,
         0.402351; 0.536437;,
         0.402415; 0.508753;,
         0.389449; 0.530374;,
         0.402415; 0.508753;,
         0.389512; 0.506352;,
         0.389449; 0.530374;,
         0.389449; 0.530374;,
         0.389512; 0.506352;,
         0.379347; 0.523494;,
         0.389512; 0.506352;,
         0.379409; 0.504747;,
         0.379347; 0.523494;,
         0.410633; 0.525902;,
         0.405150; 0.535619;,
         0.480963; 0.545771;,
         0.410633; 0.525902;,
         0.480963; 0.545771;,
         0.445798; 0.535837;,
         0.481031; 0.505094;,
         0.480963; 0.545771;,
         0.443123; 0.507321;,
         0.480963; 0.545771;,
         0.443057; 0.540695;,
         0.443123; 0.507321;,
         0.443123; 0.507321;,
         0.443057; 0.540695;,
         0.405215; 0.509548;,
         0.443057; 0.540695;,
         0.405150; 0.535619;,
         0.405215; 0.509548;,
         0.405215; 0.509548;,
         0.405150; 0.535619;,
         0.402415; 0.508753;,
         0.405150; 0.535619;,
         0.402351; 0.536437;,
         0.402415; 0.508753;,
         0.402415; 0.508753;,
         0.402351; 0.536437;,
         0.389512; 0.506352;,
         0.402351; 0.536437;,
         0.389449; 0.530374;,
         0.389512; 0.506352;,
         0.389512; 0.506352;,
         0.389449; 0.530374;,
         0.379409; 0.504747;,
         0.389449; 0.530374;,
         0.379347; 0.523494;,
         0.379409; 0.504747;,
         0.481099; 0.464416;,
         0.481099; 0.464416;,
         0.443189; 0.473946;,
         0.481099; 0.464416;,
         0.443189; 0.473946;,
         0.443189; 0.473946;,
         0.443189; 0.473946;,
         0.443189; 0.473946;,
         0.405279; 0.483476;,
         0.443189; 0.473946;,
         0.405279; 0.483476;,
         0.405279; 0.483476;,
         0.405279; 0.483476;,
         0.405279; 0.483476;,
         0.402479; 0.481069;,
         0.405279; 0.483476;,
         0.402479; 0.481069;,
         0.402479; 0.481069;,
         0.402479; 0.481069;,
         0.402479; 0.481069;,
         0.389574; 0.482330;,
         0.402479; 0.481069;,
         0.389575; 0.482330;,
         0.389574; 0.482330;,
         0.389574; 0.482330;,
         0.389575; 0.482330;,
         0.379470; 0.486000;,
         0.389575; 0.482330;,
         0.379470; 0.486000;,
         0.379470; 0.486000;,
         0.443189; 0.473946;,
         0.445930; 0.478805;,
         0.481099; 0.464416;,
         0.405279; 0.483476;,
         0.410761; 0.493193;,
         0.445930; 0.478805;,
         0.405279; 0.483476;,
         0.445930; 0.478805;,
         0.443189; 0.473946;,
         0.480963; 0.545771;,
         0.405150; 0.535619;,
         0.480963; 0.545771;,
         0.405150; 0.535619;,
         0.405150; 0.535619;,
         0.480963; 0.545771;,
         0.480963; 0.545771;,
         0.405150; 0.535619;,
         0.443057; 0.540695;;
      } //End of Mesh UV Coordinates
    } //End of Mesh Mesh
  } //End of rougela_mat_0
} //End of Root Frame
