xof 0303txt 0032

template AnimTicksPerSecond {
  <9E415A43-7BA6-4a73-8743-B73D47E88476>
  DWORD AnimTicksPerSecond;
}

template XSkinMeshHeader {
  <3cf169ce-ff7c-44ab-93c0-f78f62d172e2>
  WORD nMaxSkinWeightsPerVertex;
  WORD nMaxSkinWeightsPerFace;
  WORD nBones;
}

template SkinWeights {
  <6f0d123b-bad2-4167-a0d0-80224f25fabb>
  STRING transformNodeName;
  DWORD nWeights;
  array DWORD vertexIndices[nWeights];
  array float weights[nWeights];
  Matrix4x4 matrixOffset;
}

Frame Root {
  FrameTransformMatrix {
     1.000000, 0.000000, 0.000000, 0.000000,
     0.000000, 0.000000, 1.000000, 0.000000,
     0.000000, 1.000000,-0.000000, 0.000000,
     0.000000, 0.000000, 0.000000, 1.000000;;
  }
  Frame heracros_f_mat_0 {
    FrameTransformMatrix {
       1.000000, 0.000000, 0.000000, 0.000000,
       0.000000, 1.000000, 0.000000, 0.000000,
       0.000000, 0.000000, 1.000000, 0.000000,
       0.000000, 0.000000, 0.000000, 1.000000;;
    }
    Mesh { //Mesh Mesh
      6;
      -0.608430; 0.805706; 1.747650;,
       7.836260; 3.338780;-0.099369;,
       8.021110; 0.584185;-2.993870;,
      -0.608430; 0.805706; 1.747650;,
       8.021110; 0.584185;-2.993870;,
      -0.416347;-1.945350;-1.147040;;
      2;
      3;0;1;2;,
      3;3;4;5;;
      MeshNormals { //Mesh Normals
        6;
        -0.344676; 0.668905;-0.658589;,
        -0.344676; 0.668905;-0.658589;,
        -0.344676; 0.668905;-0.658589;,
        -0.344676; 0.668905;-0.658589;,
        -0.344676; 0.668905;-0.658589;,
        -0.344676; 0.668905;-0.658589;;
        2;
        3;0;1;2;,
        3;3;4;5;;
      } //End of Mesh Normals
      MeshMaterialList { //Mesh Material List
        1;
        2;
        0,
        0;;
        Material mat_0 {
           0.640000; 0.640000; 0.640000; 1.000000;;
           92.156863;
           0.250000; 0.250000; 0.250000;;
           0.000000; 0.000000; 0.000000;;
          TextureFilename {"Textures/heracros_f_2_0.tga";}
        }
      } //End of Mesh Material List
      MeshTextureCoords { //Mesh UV Coordinates
        6;
         0.000000; 0.000000;,
         0.000000; 1.000000;,
         1.000000; 1.000000;,
         0.000000; 0.000000;,
         1.000000; 1.000000;,
         1.000000; 0.000000;;
      } //End of Mesh UV Coordinates
    } //End of Mesh Mesh
  } //End of heracros_f_mat_0
} //End of Root Frame
