# Blender v2.66 (sub 1) OBJ File: 'BR_Heracross.blend'
# www.blender.org
mtllib BR_Heracross.mtl
o heracros
v -0.416347 -1.147040 1.945350
v 8.021110 -2.993870 -0.584185
v 7.836260 -0.099369 -3.338780
v -0.608430 1.747650 -0.805706
vt 1.000000 0.000000
vt 0.000000 0.000000
vt 0.000000 1.000000
vt 1.000000 1.000000
usemtl mat_0
s 1
f 2/1 3/2 4/3
f 1/4 2/1 4/3
