# Blender v2.66 (sub 1) OBJ File: 'BR_Jirachi.blend'
# www.blender.org
mtllib BR_Jirachi.mtl
o jirachi
v 0.618834 -2.296580 -4.852489
v 0.710034 -2.280360 -4.811922
v 0.520096 -2.314140 -4.798899
v 0.330157 -2.347920 -4.811922
v 0.421356 -2.331700 -4.852489
v 0.710034 -2.280360 -4.813442
v 0.618834 -2.296580 -4.854009
v 0.520096 -2.314140 -4.800419
v 0.421356 -2.331700 -4.854009
v 0.330157 -2.347910 -4.813442
v 0.630845 -1.975260 -4.822478
v 0.465072 -2.004740 -4.814936
v 0.546238 -1.990300 -4.840310
v 0.299296 -2.034220 -4.822478
v 0.383904 -2.019170 -4.840310
v 0.630845 -1.975260 -4.823999
v 0.546238 -1.990300 -4.841830
v 0.465072 -2.004740 -4.816457
v 0.299296 -2.034220 -4.823999
v 0.383904 -2.019170 -4.841830
v 0.410053 -1.695370 -4.824981
v 0.550644 -1.670360 -4.824981
v 0.269458 -1.720370 -4.824981
v 0.550644 -1.670360 -4.830117
v 0.410053 -1.695370 -4.830117
v 0.269458 -1.720370 -4.830117
v 0.478076 -1.364090 -4.824981
v 0.231980 -1.407850 -4.824981
v 0.478076 -1.364090 -4.830117
v 0.231980 -1.407850 -4.830117
v 0.207530 -0.135451 -4.824982
v 0.062327 -0.161274 -4.824982
v 0.110258 -0.471931 -4.824982
v 0.269647 -0.443586 -4.824982
v 0.110258 -0.471931 -4.830118
v 0.062327 -0.161274 -4.830118
v 0.207530 -0.135451 -4.830118
v 0.269647 -0.443586 -4.830118
v 0.754818 -2.869340 -4.889085
v 0.882632 -2.914160 -4.786812
v 0.386661 -3.002370 -4.786812
v 0.491187 -2.916220 -4.889085
v 0.634648 -2.958260 -4.765586
v 0.882632 -2.914160 -4.788027
v 0.754818 -2.869340 -4.890301
v 0.491186 -2.916220 -4.890301
v 0.386661 -3.002370 -4.788027
v 0.634648 -2.958260 -4.766801
v 0.790214 -2.585290 -4.803778
v 0.693114 -2.602560 -4.868753
v 0.575121 -2.623540 -4.782657
v 0.360026 -2.661790 -4.803778
v 0.457126 -2.644520 -4.868753
v 0.790214 -2.585290 -4.805299
v 0.575121 -2.623540 -4.784177
v 0.693114 -2.602560 -4.870274
v 0.360026 -2.661790 -4.805299
v 0.457126 -2.644520 -4.870274
v 0.335332 -0.751099 -4.824981
v 0.154625 -0.783236 -4.824981
v 0.335332 -0.751099 -4.830118
v 0.154625 -0.783236 -4.830118
v 0.407104 -1.057480 -4.824981
v 0.192889 -1.095580 -4.824981
v 0.192889 -1.095580 -4.830117
v 0.407104 -1.057480 -4.830117
v -0.630845 -1.975260 -4.822478
v -0.546238 -1.990300 -4.840310
v -0.465072 -2.004740 -4.814936
v -0.299296 -2.034220 -4.822478
v -0.383904 -2.019170 -4.840310
v -0.630845 -1.975260 -4.823999
v -0.465072 -2.004740 -4.816457
v -0.546238 -1.990300 -4.841830
v -0.299296 -2.034220 -4.823999
v -0.383904 -2.019170 -4.841830
v -0.710034 -2.280360 -4.811922
v -0.618834 -2.296580 -4.852489
v -0.520096 -2.314140 -4.798899
v -0.421356 -2.331700 -4.852489
v -0.330157 -2.347920 -4.811922
v -0.618834 -2.296580 -4.854009
v -0.710034 -2.280360 -4.813442
v -0.520096 -2.314140 -4.800419
v -0.330157 -2.347910 -4.813442
v -0.421356 -2.331700 -4.854009
v -0.478076 -1.364090 -4.824981
v -0.231980 -1.407850 -4.824981
v -0.478076 -1.364090 -4.830117
v -0.231980 -1.407850 -4.830117
v -0.550644 -1.670360 -4.824981
v -0.410053 -1.695370 -4.824981
v -0.269458 -1.720370 -4.824981
v -0.410053 -1.695370 -4.830117
v -0.550644 -1.670360 -4.830117
v -0.269458 -1.720370 -4.830117
v -0.110258 -0.471931 -4.824982
v -0.062327 -0.161274 -4.824982
v -0.207530 -0.135451 -4.824982
v -0.269647 -0.443586 -4.824982
v -0.207530 -0.135451 -4.830118
v -0.062327 -0.161274 -4.830118
v -0.110258 -0.471931 -4.830118
v -0.269647 -0.443586 -4.830118
v -0.790214 -2.585290 -4.803778
v -0.575121 -2.623540 -4.782657
v -0.693114 -2.602560 -4.868753
v -0.360026 -2.661790 -4.803778
v -0.457126 -2.644520 -4.868753
v -0.790214 -2.585290 -4.805299
v -0.693114 -2.602560 -4.870274
v -0.575121 -2.623540 -4.784177
v -0.360026 -2.661790 -4.805299
v -0.457126 -2.644520 -4.870274
v -0.882632 -2.914160 -4.786812
v -0.754818 -2.869340 -4.889085
v -0.491187 -2.916220 -4.889085
v -0.386661 -3.002370 -4.786812
v -0.634648 -2.958260 -4.765586
v -0.754818 -2.869340 -4.890301
v -0.882632 -2.914160 -4.788027
v -0.386661 -3.002370 -4.788027
v -0.491186 -2.916220 -4.890301
v -0.634648 -2.958260 -4.766801
v -0.335332 -0.751099 -4.824981
v -0.154625 -0.783236 -4.824981
v -0.335332 -0.751099 -4.830118
v -0.154625 -0.783236 -4.830118
v -0.192889 -1.095580 -4.824981
v -0.407104 -1.057480 -4.824981
v -0.407104 -1.057480 -4.830117
v -0.192889 -1.095580 -4.830117
v 0.252099 0.062080 -4.825502
v 0.302045 -0.035244 -4.758373
v 0.173380 -0.035270 -4.935220
v -0.302045 -0.035244 -4.758373
v -0.252099 0.062080 -4.825502
v -0.259078 -0.125113 -4.828587
v -0.173380 -0.035270 -4.935220
v 0.259078 -0.125113 -4.828587
v -0.136747 0.171112 -4.788004
v 0.000000 -0.097338 -4.954780
v -0.153151 -0.160045 -4.827438
v -0.130218 -0.086739 -4.938460
v 0.000000 0.107015 -4.955780
v -0.090970 0.004839 -4.955280
v -0.150585 0.027163 -4.948160
v 0.000007 0.203271 -4.787133
v -0.114129 0.144295 -4.880415
v 0.136747 0.171112 -4.788004
v 0.114129 0.144295 -4.880415
v 0.153151 -0.160045 -4.827438
v 0.000000 -0.184578 -4.821371
v 0.120333 -0.086739 -4.938460
v 0.140700 0.027163 -4.948160
v 0.090970 0.004839 -4.955280
v 0.504729 -0.023052 -4.750772
v 0.502701 0.055814 -4.823622
v 0.504729 -0.047438 -4.750772
v 0.505018 -0.035245 -4.690485
v 0.505018 -0.035245 -4.690485
v 0.502701 -0.125344 -4.823622
v 0.503654 -0.035245 -4.900290
v 0.329010 -0.029258 -3.992949
v 0.291131 0.080979 -3.992948
v 0.257498 0.049222 -3.935911
v 0.123749 -0.031523 -3.992991
v 0.179974 -0.010826 -3.935912
v 0.198275 0.049222 -3.935912
v 0.170119 0.103259 -3.992982
v 0.227887 -0.107585 -3.992948
v 0.343244 0.107277 -4.156361
v 0.227886 0.005771 -3.900051
v 0.275799 -0.010826 -3.935912
v 0.227886 -0.047937 -3.935912
v -0.198275 0.049222 -3.935912
v -0.179974 -0.010826 -3.935912
v -0.123749 -0.031523 -3.992991
v -0.257498 0.049222 -3.935911
v -0.291131 0.080979 -3.992948
v -0.329010 -0.029258 -3.992949
v -0.343244 0.107277 -4.156361
v -0.227886 -0.107585 -3.992948
v -0.170119 0.103259 -3.992982
v -0.227886 0.005771 -3.900051
v -0.275799 -0.010826 -3.935912
v -0.227886 -0.047937 -3.935912
v -0.618100 -0.195427 -5.149850
v -0.883442 -0.141016 -5.304070
v -0.855794 -0.362148 -5.234940
v -0.430201 -0.276063 -5.045100
v -0.596333 -0.371407 -5.168660
v -0.487431 -0.539100 -5.240140
v -0.825454 -0.559054 -5.317500
v -0.498739 -0.667926 -5.509360
v -1.069220 -0.201083 -5.396280
v -1.112220 -0.407578 -5.368620
v -1.004630 -0.568046 -5.896130
v -0.839471 -0.369054 -6.063180
v -0.810299 -0.561565 -5.944210
v -0.640235 -0.040961 -5.335510
v -0.653109 0.053488 -5.506840
v -0.653109 0.053488 -5.506840
v -0.721303 0.048985 -5.549570
v -0.484973 -0.095985 -5.055280
v -0.591037 -0.086323 -5.146470
v -0.337302 0.348772 -5.114570
v -0.228207 0.195504 -4.976330
v -0.000001 0.452518 -5.106070
v 0.000000 0.256216 -4.989630
v -0.509363 0.250662 -5.636770
v 0.653109 0.053488 -5.506840
v 0.653109 0.053488 -5.506840
v 0.509363 0.250662 -5.636770
v -0.090970 0.004839 -4.946400
v 0.000000 -0.088406 -4.945900
v 0.000000 0.107015 -4.946900
v 0.090970 0.004839 -4.946400
v 0.802929 -0.653051 -5.626800
v 1.054690 -0.618289 -5.627700
v 1.012540 -0.566137 -5.409840
v 0.000000 -0.276786 -6.534450
v 0.324733 -0.197902 -6.455170
v 0.455934 -0.313285 -6.186280
v 0.487431 -0.539100 -5.240140
v 0.596333 -0.371407 -5.168660
v 0.430202 -0.276063 -5.045100
v 0.357987 0.040640 -6.470130
v 0.554209 -0.072397 -6.068520
v 0.531913 0.228878 -5.309440
v 0.491244 0.175912 -5.132560
v 0.591037 -0.086323 -5.146470
v 0.000000 0.426669 -5.867850
v 0.377901 0.206435 -5.981010
v 0.297998 0.241605 -6.305520
v 0.520355 0.233810 -5.492610
v 0.137391 0.133540 -6.786540
v 0.000000 0.274596 -6.684590
v 0.000000 -0.056561 -6.765090
v -0.000001 0.168563 -6.910380
v 0.839471 -0.369054 -6.063180
v 0.367527 0.412098 -5.538670
v 0.349015 0.393988 -5.647170
v 0.196820 0.508262 -5.569770
v 0.000000 0.344745 -6.390800
v 0.000000 0.528282 -5.703510
v 0.000000 0.583050 -5.535630
v 0.386361 0.350691 -5.773440
v 0.640235 -0.040961 -5.335510
v 0.721303 0.048985 -5.549570
v 0.646447 0.148100 -5.633920
v 0.503185 0.212609 -5.575500
v 0.000000 0.572699 -5.289070
v 0.202128 0.531168 -5.292230
v 0.396738 0.421924 -5.295390
v 0.337302 0.348772 -5.114570
v 0.484973 -0.095985 -5.055280
v 0.457170 -0.546516 -5.974110
v 0.168796 -0.576542 -5.985830
v 0.466037 -0.668342 -5.772390
v 0.498739 -0.667925 -5.509360
v 0.197517 -0.726559 -5.533260
v 0.384183 0.075953 -5.011210
v 0.228207 0.195504 -4.976330
v 0.283240 -0.101019 -4.969990
v 0.177871 -0.580619 -5.212780
v 0.000000 -0.240517 -4.959440
v 0.000000 -0.436239 -5.055700
v -0.168796 -0.576542 -5.985830
v -0.197517 -0.726559 -5.533260
v -0.177871 -0.580619 -5.212780
v 1.351580 -0.544182 -5.634280
v 1.478410 -0.478573 -5.637640
v 1.369040 -0.456039 -5.536320
v 1.004630 -0.568046 -5.896130
v 1.113620 -0.411678 -5.923250
v 1.369040 -0.456039 -5.744620
v 1.056070 -0.189242 -5.882440
v 1.069220 -0.201083 -5.396280
v 1.112220 -0.407578 -5.368620
v 1.388420 -0.366104 -5.634280
v 0.875743 -0.075831 -5.929730
v 0.887116 0.023625 -5.639400
v 0.855794 -0.362148 -5.234940
v 0.825453 -0.559054 -5.317500
v 0.883442 -0.141016 -5.304070
v 0.810299 -0.561565 -5.944210
v 0.618100 -0.195427 -5.149850
v 0.600865 0.166297 -5.739030
v 1.157550 -0.168230 -5.638240
v -1.012540 -0.566137 -5.409840
v -1.054690 -0.618289 -5.627700
v -0.802929 -0.653051 -5.626800
v -0.455934 -0.313286 -6.186280
v -0.324733 -0.197902 -6.455170
v -0.554209 -0.072397 -6.068520
v -0.357987 0.040640 -6.470130
v -0.491244 0.175912 -5.132560
v -0.531913 0.228878 -5.309440
v -0.297998 0.241605 -6.305520
v -0.377901 0.206435 -5.981010
v -0.520355 0.233810 -5.492610
v -0.137391 0.133540 -6.786540
v -0.196820 0.508262 -5.569770
v -0.349015 0.393988 -5.647170
v -0.367527 0.412098 -5.538670
v -0.386361 0.350691 -5.773440
v -0.646447 0.148100 -5.633920
v -0.503185 0.212609 -5.575500
v -0.202128 0.531168 -5.292230
v -0.396738 0.421924 -5.295390
v -0.457170 -0.546515 -5.974110
v -0.466037 -0.668342 -5.772390
v -0.283240 -0.101019 -4.969990
v -0.384183 0.075953 -5.011210
v -1.113620 -0.411678 -5.923250
v -1.056070 -0.189242 -5.882440
v -1.369040 -0.456039 -5.536320
v -1.369040 -0.456039 -5.744620
v -1.351580 -0.544182 -5.634280
v -1.478410 -0.478573 -5.637640
v -1.388420 -0.366104 -5.634280
v -0.887116 0.023625 -5.639400
v -0.875743 -0.075830 -5.929730
v -0.600865 0.166297 -5.739030
v -1.157550 -0.168230 -5.638240
v -0.518559 0.102032 -5.383740
v -0.526876 0.235646 -5.360650
v -0.550802 0.188724 -5.084720
v -0.520032 0.032746 -5.112110
v -0.647564 -0.109047 -5.167170
v -0.618662 -0.080527 -4.943580
v -0.821312 -0.115339 -4.990320
v -0.605392 0.124725 -4.897106
v -0.805867 -0.094861 -5.194840
v -0.747200 -0.021241 -5.449340
v -0.642571 0.242442 -5.383920
v -0.625937 -0.017353 -5.430100
v -0.709104 0.202910 -5.112390
v -0.757591 0.117371 -5.431180
v -0.836637 0.061117 -5.167450
v -0.808042 0.089913 -4.943850
v -0.726384 -0.009678 -4.876522
v -1.607990 -0.784192 -5.062700
v -1.405460 -0.714456 -5.062700
v -1.607990 -0.784192 -4.790143
v -1.405460 -0.714456 -4.790143
v -1.607990 -0.784192 -5.335260
v -1.405460 -0.714456 -5.335260
v -1.405460 -0.714456 -5.607810
v -1.607990 -0.784192 -5.607810
v -0.107098 0.438034 -6.212130
v 0.107098 0.438034 -6.212130
v -0.107098 0.522736 -5.953060
v 0.107098 0.522736 -5.953060
v -0.107098 0.353333 -6.471190
v 0.107098 0.353333 -6.471190
v 0.107098 0.268632 -6.730250
v -0.107098 0.268632 -6.730250
v 1.405460 -0.714457 -5.062700
v 1.607990 -0.784192 -5.062700
v 1.405460 -0.714457 -4.790143
v 1.607990 -0.784192 -4.790143
v 1.405460 -0.714457 -5.335260
v 1.607990 -0.784192 -5.335260
v 1.607990 -0.784192 -5.607810
v 1.405460 -0.714456 -5.607810
v 0.747200 -0.021241 -5.449340
v 0.625937 -0.017353 -5.430100
v 0.518559 0.102032 -5.383740
v 0.757591 0.117371 -5.431180
v 0.642571 0.242442 -5.383920
v 0.526876 0.235647 -5.360650
v 0.709104 0.202910 -5.112390
v 0.550802 0.188724 -5.084720
v 0.647564 -0.109047 -5.167170
v 0.805867 -0.094861 -5.194840
v 0.821312 -0.115339 -4.990320
v 0.808042 0.089913 -4.943850
v 0.836637 0.061117 -5.167450
v 0.618662 -0.080527 -4.943580
v 0.726384 -0.009678 -4.876522
v 0.605392 0.124725 -4.897106
v 0.520032 0.032746 -5.112110
v -0.867426 -0.047768 -4.741920
v -0.538805 -0.047594 -4.748321
v -0.538805 -0.022896 -4.748321
v -0.867426 -0.035019 -4.741920
v -0.859008 -0.131551 -4.816198
v -0.859008 0.048763 -4.816198
v -0.534452 0.055775 -4.821121
v -0.860269 -0.041394 -4.889070
v -0.539464 -0.035245 -4.898594
v 0.538805 -0.047594 -4.748321
v 0.867426 -0.047768 -4.741920
v 0.867426 -0.035019 -4.741920
v 0.538805 -0.022896 -4.748321
v 0.859008 0.048763 -4.816198
v 0.859008 -0.131550 -4.816198
v 0.860269 -0.041394 -4.889070
v 0.539464 -0.035245 -4.898594
v 0.534452 0.055775 -4.821121
v -0.504729 -0.023052 -4.750772
v -0.505018 -0.035245 -4.690485
v -0.505018 -0.035245 -4.690485
v -0.504729 -0.047438 -4.750772
v -0.502701 0.055814 -4.823622
v -0.502701 -0.125344 -4.823622
v -0.503654 -0.035245 -4.900290
v -0.142593 0.170674 -4.085905
v 0.000000 0.107065 -4.028256
v 0.142593 0.170674 -4.085905
v 0.101162 0.095731 -4.030559
v -0.101162 0.095731 -4.030559
v -0.348762 0.108697 -4.181158
v -0.224144 -0.236915 -4.177938
v -0.098089 -0.162503 -4.080434
v -0.103886 -0.100622 -4.031865
v 0.000000 -0.110776 -4.029082
v 0.000000 -0.013609 -4.022821
v 0.103886 -0.100622 -4.031865
v 0.348762 0.108697 -4.181158
v 0.224144 -0.236915 -4.177938
v 0.098090 -0.162503 -4.080434
v 0.000000 -0.260858 -4.181077
v 0.000000 -0.175650 -4.072730
v -0.950776 0.001790 -4.804750
v -0.950776 -0.084578 -4.804750
v -0.933403 -0.004311 -4.882322
v -0.933403 -0.004311 -4.882322
v -0.933403 -0.078477 -4.882322
v -0.933403 -0.078477 -4.882322
v -0.879837 -0.041394 -4.774702
v -0.877277 -0.132149 -4.816726
v -0.877277 0.049361 -4.816726
v -0.882538 -0.041394 -4.887692
v -1.039150 -0.041394 -4.873295
v -1.010460 -0.130661 -4.866954
v -0.858029 -0.035244 -4.602829
v -1.010460 0.047873 -4.866954
v 0.877277 0.049361 -4.816726
v 0.877277 -0.132149 -4.816726
v 0.950776 -0.084578 -4.804750
v 0.950776 0.001790 -4.804750
v 0.933403 -0.078477 -4.882322
v 0.933403 -0.078477 -4.882322
v 0.933403 -0.004311 -4.882322
v 0.933403 -0.004311 -4.882322
v 0.879837 -0.041394 -4.774702
v 0.882538 -0.041394 -4.887692
v 1.039150 -0.041394 -4.873295
v 0.858029 -0.035244 -4.602829
v 1.010460 -0.130661 -4.866954
v 1.010460 0.047873 -4.866954
v 0.267337 0.061689 -4.825384
v 0.308166 -0.035244 -4.758136
v 0.227643 -0.035244 -4.914290
v 0.273880 -0.125127 -4.828277
v -0.539427 -0.035245 -4.680033
v -0.539427 -0.035245 -4.680033
v -0.534452 -0.126207 -4.821121
v 0.539427 -0.035245 -4.680033
v 0.539427 -0.035245 -4.680033
v 0.534452 -0.126207 -4.821121
v -0.308166 -0.035244 -4.758136
v -0.267337 0.061689 -4.825384
v -0.273880 -0.125127 -4.828277
v -0.227643 -0.035244 -4.914290
v 0.215235 0.240036 -4.321425
v 0.199967 0.237245 -4.428505
v 0.000000 0.279323 -4.416943
v -0.199967 0.237245 -4.428505
v -0.215235 0.240036 -4.321425
v -0.178269 0.233178 -4.546991
v -0.426656 -0.072329 -4.285244
v -0.359717 -0.179454 -4.283042
v -0.380633 0.112346 -4.363075
v -0.202894 0.215491 -4.203423
v 0.202894 0.215491 -4.203423
v 0.426656 -0.072329 -4.285244
v 0.380633 0.112346 -4.363075
v 0.359717 -0.179454 -4.283042
v 0.000000 0.273808 -4.293688
v 0.000000 0.224051 -4.158767
v 0.178269 0.233178 -4.546991
v 0.347231 0.104972 -4.562782
v 0.218902 -0.239670 -4.515827
v 0.346569 -0.173723 -4.507202
v 0.359546 -0.184695 -4.397192
v 0.242550 -0.254429 -4.398017
v 0.000000 -0.279240 -4.520493
v 0.000000 -0.297893 -4.394474
v 0.244129 -0.257335 -4.288261
v 0.000000 -0.297082 -4.295525
v 0.423613 -0.076781 -4.393130
v 0.408031 -0.075322 -4.493082
v 0.366314 0.109526 -4.462066
v 0.315191 -0.159131 -4.617435
v 0.197364 -0.217922 -4.627862
v 0.000000 -0.252879 -4.634480
v -0.378020 -0.071702 -4.600137
v 0.378020 -0.071702 -4.600137
v -0.197364 -0.217922 -4.627862
v -0.218902 -0.239670 -4.515827
v -0.346569 -0.173723 -4.507202
v -0.315191 -0.159131 -4.617435
v 0.000000 0.269805 -4.547887
v -0.408031 -0.075322 -4.493082
v -0.366314 0.109526 -4.462066
v -0.347231 0.104972 -4.562782
v -0.359546 -0.184695 -4.397192
v -0.423613 -0.076781 -4.393130
v -0.242550 -0.254429 -4.398017
v -0.244129 -0.257335 -4.288261
v -0.147179 0.160225 -4.070597
v -0.223827 -0.190530 -4.096431
v -0.224554 -0.179835 -4.079304
v -0.406883 -0.064966 -4.180075
v -0.402543 -0.062065 -4.160060
v 0.147179 0.160225 -4.070597
v 0.406883 -0.064966 -4.180075
v 0.223827 -0.190530 -4.096431
v 0.224554 -0.179835 -4.079304
v 0.402543 -0.062065 -4.160060
vt 0.534284 0.307252
vt 0.564531 0.307252
vt 0.519381 0.307252
vt 0.583846 0.307252
vt 0.604271 0.307252
vt 0.548080 0.307252
vt 0.559978 0.307252
vt 0.626588 0.307252
vt 0.648656 0.307252
vt 0.572133 0.307252
vt 0.627505 0.307252
vt 0.671221 0.307252
vt 0.669851 0.312344
vt 0.696160 0.306421
vt 0.692425 0.316390
vt 0.720783 0.302914
vt 0.715522 0.321793
vt 0.745715 0.300209
vt 0.734708 0.328547
vt 0.774452 0.294572
vt 0.583787 0.307252
vt 0.619374 0.312344
vt 0.593065 0.306421
vt 0.631020 0.316390
vt 0.602661 0.302914
vt 0.642142 0.321793
vt 0.611949 0.300209
vt 0.652733 0.328547
vt 0.620231 0.294572
vt 0.564531 0.308958
vt 0.534284 0.308958
vt 0.519381 0.308958
vt 0.583846 0.308958
vt 0.604271 0.308958
vt 0.548080 0.308958
vt 0.559978 0.308958
vt 0.626588 0.308958
vt 0.648656 0.308958
vt 0.572133 0.308958
vt 0.627505 0.308958
vt 0.583787 0.308958
vt 0.619374 0.312849
vt 0.593065 0.306926
vt 0.631020 0.316895
vt 0.602661 0.303419
vt 0.642142 0.322298
vt 0.611949 0.300714
vt 0.652733 0.328951
vt 0.620231 0.294976
vt 0.671221 0.308958
vt 0.669851 0.312849
vt 0.696160 0.306926
vt 0.692425 0.316895
vt 0.720783 0.303419
vt 0.715522 0.322298
vt 0.745715 0.300714
vt 0.734708 0.328951
vt 0.774452 0.294976
vt 0.435469 0.307252
vt 0.465715 0.307252
vt 0.480619 0.307252
vt 0.416154 0.307252
vt 0.395730 0.307252
vt 0.451920 0.307252
vt 0.440022 0.307252
vt 0.373412 0.307252
vt 0.351344 0.307252
vt 0.427867 0.307252
vt 0.372495 0.307252
vt 0.416213 0.307252
vt 0.380626 0.312344
vt 0.406935 0.306421
vt 0.368980 0.316390
vt 0.397339 0.302914
vt 0.357858 0.321793
vt 0.388051 0.300209
vt 0.347267 0.328547
vt 0.379769 0.294572
vt 0.328779 0.307252
vt 0.330149 0.312344
vt 0.303840 0.306421
vt 0.307575 0.316390
vt 0.279217 0.302914
vt 0.284478 0.321793
vt 0.254285 0.300209
vt 0.265292 0.328547
vt 0.225548 0.294572
vt 0.465715 0.308958
vt 0.435469 0.308958
vt 0.480619 0.308958
vt 0.416154 0.308958
vt 0.395730 0.308958
vt 0.451920 0.308958
vt 0.440022 0.308958
vt 0.373412 0.308958
vt 0.351344 0.308958
vt 0.427867 0.308958
vt 0.372495 0.308958
vt 0.328779 0.308958
vt 0.330149 0.312849
vt 0.303840 0.306926
vt 0.307575 0.316895
vt 0.279217 0.303419
vt 0.284478 0.322298
vt 0.254285 0.300714
vt 0.265292 0.328951
vt 0.225548 0.294976
vt 0.416213 0.308958
vt 0.380626 0.312849
vt 0.406935 0.306926
vt 0.368980 0.316895
vt 0.397339 0.303419
vt 0.357858 0.322298
vt 0.388051 0.300714
vt 0.347267 0.328951
vt 0.379769 0.294976
vt 0.644613 0.303915
vt 0.661722 0.298588
vt 0.678832 0.293192
vt 0.697342 0.287521
vt 0.644613 0.304420
vt 0.661722 0.299093
vt 0.678832 0.293697
vt 0.697342 0.287925
vt 0.355387 0.303915
vt 0.338278 0.298588
vt 0.321168 0.293192
vt 0.302658 0.287521
vt 0.355387 0.304420
vt 0.338278 0.299093
vt 0.321168 0.293697
vt 0.302658 0.287925
vt 0.593920 0.285125
vt 0.583128 0.307386
vt 0.578390 0.307425
vt 0.595823 0.285047
vt 0.580560 0.308450
vt 0.585162 0.308347
vt 0.343056 0.282600
vt 0.404177 0.285047
vt 0.342966 0.262574
vt 0.421610 0.307425
vt 0.416872 0.307386
vt 0.406080 0.285125
vt 0.414838 0.308347
vt 0.419440 0.308450
vt 0.656944 0.282600
vt 0.657034 0.262574
vt 0.391554 0.093381
vt 0.454235 0.056653
vt 0.455661 0.061739
vt 0.393269 0.085143
vt 0.373481 0.093021
vt 0.374830 0.086372
vt 0.430402 0.065235
vt 0.430175 0.059546
vt 0.343687 0.306800
vt 0.343390 0.332267
vt 0.429215 0.336919
vt 0.381643 0.153812
vt 0.367333 0.127957
vt 0.471713 0.350537
vt 0.500000 0.347420
vt 0.500000 0.350371
vt 0.471713 0.347585
vt 0.500000 0.350702
vt 0.500000 0.347750
vt 0.528287 0.350537
vt 0.528287 0.347585
vt 0.333814 0.305970
vt 0.343056 0.282601
vt 0.343686 0.306800
vt 0.332460 0.281786
vt 0.232894 0.304334
vt 0.230276 0.279660
vt 0.225577 0.328084
vt 0.227213 0.304510
vt 0.232502 0.328542
vt 0.332255 0.331706
vt 0.608446 0.093381
vt 0.632667 0.127957
vt 0.618357 0.153812
vt 0.626519 0.093021
vt 0.606731 0.085143
vt 0.625170 0.086372
vt 0.590526 0.030859
vt 0.602305 0.030859
vt 0.544339 0.061739
vt 0.545765 0.056653
vt 0.666186 0.305970
vt 0.656313 0.306800
vt 0.667540 0.281786
vt 0.767106 0.304334
vt 0.769724 0.279660
vt 0.570785 0.336919
vt 0.656610 0.332267
vt 0.774423 0.328084
vt 0.772787 0.304510
vt 0.767498 0.328542
vt 0.667745 0.331706
vt 0.667733 0.259102
vt 0.569598 0.065235
vt 0.569825 0.059546
vt 0.570861 0.030859
vt 0.585759 0.011912
vt 0.570861 0.011913
vt 0.555962 0.011913
vt 0.538479 0.030873
vt 0.611800 0.165145
vt 0.568067 0.204554
vt 0.607765 0.201689
vt 0.575420 0.165419
vt 0.611853 0.127226
vt 0.575911 0.128959
vt 0.500000 0.206104
vt 0.500000 0.164242
vt 0.500000 0.131372
vt 0.569697 0.092311
vt 0.500000 0.093354
vt 0.530501 0.059921
vt 0.500000 0.057362
vt 0.532303 0.043787
vt 0.500000 0.042863
vt 0.631721 0.163796
vt 0.626876 0.196999
vt 0.598008 0.238307
vt 0.617544 0.232561
vt 0.332267 0.259102
vt 0.613904 0.186695
vt 0.607970 0.220152
vt 0.500000 0.243970
vt 0.547622 0.308068
vt 0.561370 0.241771
vt 0.500000 0.306053
vt 0.438630 0.241771
vt 0.452378 0.308068
vt 0.392235 0.201689
vt 0.431933 0.204554
vt 0.401992 0.238307
vt 0.373124 0.196999
vt 0.382456 0.232561
vt 0.386096 0.186695
vt 0.392030 0.220152
vt 0.656944 0.282601
vt 0.656314 0.306800
vt 0.368279 0.163796
vt 0.388200 0.165145
vt 0.424580 0.165419
vt 0.430303 0.092311
vt 0.469499 0.059921
vt 0.424089 0.128959
vt 0.467697 0.043787
vt 0.388147 0.127226
vt 0.409474 0.030859
vt 0.397695 0.030859
vt 0.429139 0.030859
vt 0.429139 0.011913
vt 0.461521 0.030873
vt 0.444038 0.011913
vt 0.414241 0.011912
vt 0.500000 0.361947
vt 0.570960 0.357528
vt 0.429040 0.357528
vt 0.233198 0.233455
vt 0.226417 0.290550
vt 0.204359 0.300531
vt 0.185802 0.321195
vt 0.209761 0.326300
vt 0.176880 0.323301
vt 0.766802 0.233455
vt 0.446088 0.343871
vt 0.459509 0.344949
vt 0.453176 0.348169
vt 0.464512 0.325667
vt 0.457479 0.294969
vt 0.500002 0.294679
vt 0.535488 0.325667
vt 0.543750 0.348169
vt 0.553912 0.343871
vt 0.537417 0.344949
vt 0.542521 0.294969
vt 0.433073 0.139976
vt 0.436911 0.100777
vt 0.500000 0.085943
vt 0.563089 0.100777
vt 0.566927 0.139976
vt 0.500000 0.130762
vt 0.773583 0.290550
vt 0.795641 0.300531
vt 0.814198 0.321195
vt 0.790239 0.326300
vt 0.823120 0.323301
vt 0.552898 0.030871
vt 0.531456 0.043353
vt 0.500000 0.042588
vt 0.468544 0.043353
vt 0.447102 0.030871
vt 0.419932 0.011912
vt 0.429139 0.000000
vt 0.438347 0.011913
vt 0.661803 0.529032
vt 0.703082 0.533758
vt 0.656464 0.556568
vt 0.665397 0.468185
vt 0.699079 0.476845
vt 0.683781 0.412697
vt 0.652751 0.409426
vt 0.650801 0.383753
vt 0.619461 0.369114
vt 0.588073 0.355422
vt 0.604883 0.403450
vt 0.296918 0.533758
vt 0.338197 0.529032
vt 0.343536 0.556568
vt 0.334603 0.468185
vt 0.300921 0.476845
vt 0.316219 0.412697
vt 0.347249 0.409426
vt 0.349199 0.383753
vt 0.380540 0.369114
vt 0.395117 0.403450
vt 0.411927 0.355422
vt 0.580068 0.011912
vt 0.570861 0.000000
vt 0.561653 0.011913
vt 0.500000 0.040783
vt 0.621003 0.305371
vt 0.620986 0.376764
vt 0.627735 0.297365
vt 0.619166 0.383512
vt 0.648906 0.321462
vt 0.642660 0.397061
vt 0.452115 0.428037
vt 0.543122 0.334374
vt 0.456878 0.334374
vt 0.547884 0.428037
vt 0.459078 0.560305
vt 0.540921 0.560305
vt 0.662371 0.305451
vt 0.646299 0.383565
vt 0.690274 0.321543
vt 0.669793 0.397114
vt 0.683542 0.329548
vt 0.667974 0.403862
vt 0.662169 0.432802
vt 0.647453 0.370243
vt 0.650418 0.420315
vt 0.725859 0.364361
vt 0.736068 0.460714
vt 0.781626 0.398076
vt 0.807803 0.460714
vt 0.849342 0.460714
vt 0.781626 0.518387
vt 0.849724 0.492959
vt 0.784732 0.544733
vt 0.747754 0.536887
vt 0.706976 0.590786
vt 0.688752 0.562489
vt 0.603619 0.624405
vt 0.594687 0.551780
vt 0.612982 0.497923
vt 0.620911 0.421050
vt 0.618169 0.339998
vt 0.688752 0.364060
vt 0.648610 0.301877
vt 0.709816 0.327294
vt 0.666843 0.316954
vt 0.636122 0.313806
vt 0.615866 0.286901
vt 0.604295 0.282140
vt 0.500000 0.288466
vt 0.500000 0.258712
vt 0.580291 0.264344
vt 0.500000 0.251811
vt 0.784732 0.376695
vt 0.752079 0.384458
vt 0.678934 0.462985
vt 0.757505 0.460714
vt 0.823217 0.460714
vt 0.875000 0.460714
vt 0.849724 0.428468
vt 0.724459 0.549423
vt 0.638386 0.482720
vt 0.643468 0.454012
vt 0.619198 0.453719
vt 0.685524 0.268139
vt 0.682880 0.255774
vt 0.642514 0.243336
vt 0.645158 0.255700
vt 0.666870 0.236099
vt 0.632503 0.584470
vt 0.577639 0.675638
vt 0.585589 0.694263
vt 0.532848 0.785460
vt 0.558751 0.646817
vt 0.500000 0.756074
vt 0.500000 0.671397
vt 0.500000 0.525824
vt 0.590351 0.549782
vt 0.584424 0.505555
vt 0.578498 0.461328
vt 0.545330 0.438707
vt 0.500000 0.477795
vt 0.500000 0.779278
vt 0.500000 0.712801
vt 0.500000 0.821153
vt 0.500000 0.428728
vt 0.615889 0.440383
vt -0.759169 0.675842
vt 1.003510 0.730690
vt -1.150620 0.759262
vt 1.003520 0.660544
vt -0.283286 0.918979
vt 1.003520 0.916566
vt 0.172231 0.472804
vt 0.125000 0.388344
vt 0.172231 0.380634
vt 0.125000 0.480514
vt 0.172231 0.564974
vt 0.125000 0.572684
vt 0.172231 0.657144
vt 0.125000 0.664854
vt 0.524976 0.734077
vt 0.475024 0.637106
vt 0.524976 0.637106
vt 0.475024 0.734077
vt 0.524976 0.831049
vt 0.475024 0.831049
vt 0.524976 0.928020
vt 0.475024 0.928020
vt 0.875000 0.480514
vt 0.827769 0.380634
vt 0.875000 0.388344
vt 0.827769 0.472804
vt 0.875000 0.572684
vt 0.827769 0.564974
vt 0.875000 0.664854
vt 0.827769 0.657144
vt 0.966438 0.840618
vt 0.745496 0.805424
vt 0.970632 0.815953
vt 0.733281 0.831980
vt 0.957308 0.865816
vt 0.712645 0.861792
vt 0.499998 0.829003
vt 0.499998 0.862020
vt 0.695620 0.922308
vt 0.500008 0.922090
vt 0.287352 0.861792
vt 0.304376 0.922308
vt 0.266715 0.831980
vt 0.033558 0.840618
vt 0.042689 0.865816
vt 0.029365 0.815953
vt 0.254500 0.805424
vt 0.499998 0.798413
vt 0.067491 0.931692
vt 0.932506 0.931692
vt 0.151984 0.972571
vt 0.561577 0.956024
vt 0.562214 0.989747
vt 0.548882 0.882253
vt 0.074881 0.889655
vt 0.513368 0.829905
vt 1.009980 0.829627
vt 1.041220 0.881956
vt 1.051210 0.936849
vt 1.068040 0.962543
vt -0.284490 0.971275
vt -0.318696 0.898193
usemtl mat_0
s 1
f 33/1 31/2 32/3
f 33/1 34/4 31/2
f 59/5 34/4 33/1
f 33/1 60/6 59/5
f 64/7 59/5 60/6
f 64/7 63/8 59/5
f 27/9 63/8 64/7
f 64/7 28/10 27/9
f 21/11 27/9 28/10
f 21/11 22/12 27/9
f 13/13 22/12 21/11
f 13/13 11/14 22/12
f 1/15 11/14 13/13
f 1/15 2/16 11/14
f 2/17 1/16 50/15
f 50/17 49/18 2/16
f 39/19 49/18 50/17
f 39/19 40/20 49/18
f 23/21 21/11 28/10
f 23/21 15/22 21/11
f 14/23 15/22 23/21
f 14/23 5/24 15/22
f 4/25 5/24 14/23
f 4/25 53/26 5/24
f 52/27 53/26 4/25
f 52/27 42/28 53/26
f 41/29 42/28 52/27
f 37/30 35/31 36/32
f 37/30 38/33 35/31
f 61/34 35/31 38/33
f 61/34 62/35 35/31
f 65/36 62/35 61/34
f 61/34 66/37 65/36
f 29/38 65/36 66/37
f 29/38 30/39 65/36
f 25/40 30/39 29/38
f 25/40 26/41 30/39
f 20/42 26/41 25/40
f 20/42 19/43 26/41
f 9/44 19/43 20/42
f 9/44 10/45 19/43
f 58/46 10/45 9/44
f 58/46 57/47 10/45
f 46/48 57/47 58/46
f 46/48 47/49 57/47
f 24/50 25/40 29/38
f 24/50 17/51 25/40
f 16/52 17/51 24/50
f 16/52 7/53 17/51
f 6/54 7/53 16/52
f 6/54 56/55 7/53
f 54/56 56/55 6/54
f 54/56 45/57 56/55
f 44/58 45/57 54/56
f 99/59 97/60 98/61
f 99/59 100/62 97/60
f 125/63 97/60 100/62
f 125/63 126/64 97/60
f 129/65 126/64 125/63
f 125/63 130/66 129/65
f 87/67 129/65 130/66
f 87/67 88/68 129/65
f 92/69 88/68 87/67
f 92/69 93/70 88/68
f 71/71 93/70 92/69
f 71/71 70/72 93/70
f 80/73 70/72 71/71
f 80/73 81/74 70/72
f 109/75 81/74 80/73
f 109/75 108/76 81/74
f 117/77 108/76 109/75
f 117/77 118/78 108/76
f 91/79 92/69 87/67
f 91/79 68/80 92/69
f 67/81 68/80 91/79
f 67/81 78/82 68/80
f 77/83 78/82 67/81
f 77/83 107/84 78/82
f 105/85 107/84 77/83
f 105/85 116/86 107/84
f 115/87 116/86 105/85
f 103/88 101/89 102/90
f 103/88 104/91 101/89
f 127/92 104/91 103/88
f 103/88 128/93 127/92
f 132/94 127/92 128/93
f 132/94 131/95 127/92
f 89/96 131/95 132/94
f 132/94 90/97 89/96
f 94/98 89/96 90/97
f 94/98 95/99 89/96
f 74/100 95/99 94/98
f 74/100 72/101 95/99
f 82/102 72/101 74/100
f 82/102 83/103 72/101
f 111/104 83/103 82/102
f 111/104 110/105 83/103
f 120/106 110/105 111/104
f 120/106 121/107 110/105
f 96/108 94/98 90/97
f 96/108 76/109 94/98
f 75/110 76/109 96/108
f 75/110 86/111 76/109
f 85/112 86/111 75/110
f 85/112 114/113 86/111
f 113/114 114/113 85/112
f 113/114 123/115 114/113
f 122/116 123/115 113/114
f 12/117 13/13 21/11
f 12/117 3/118 13/13
f 15/22 3/118 12/117
f 15/22 5/24 3/118
f 53/26 3/118 5/24
f 53/26 51/119 3/118
f 42/28 51/119 53/26
f 42/28 43/120 51/119
f 39/19 51/119 43/120
f 39/19 50/17 51/119
f 3/118 51/119 50/17
f 50/17 1/15 3/118
f 3/13 1/118 13/15
f 15/22 12/117 21/11
f 18/121 25/40 17/51
f 18/121 20/42 25/40
f 8/122 20/42 18/121
f 8/122 9/44 20/42
f 58/46 9/44 8/122
f 8/122 55/123 58/46
f 56/55 55/123 8/122
f 56/55 45/57 55/123
f 48/124 55/123 45/57
f 48/124 46/48 55/123
f 58/46 55/123 46/48
f 17/51 8/122 18/121
f 17/51 7/53 8/122
f 56/55 8/122 7/53
f 69/125 92/69 68/80
f 69/125 71/71 92/69
f 79/126 71/71 69/125
f 79/126 80/73 71/71
f 109/75 80/73 79/126
f 79/126 106/127 109/75
f 107/84 106/127 79/126
f 107/84 116/86 106/127
f 119/128 106/127 116/86
f 119/128 117/77 106/127
f 109/75 106/127 117/77
f 68/80 79/126 69/125
f 68/80 78/82 79/126
f 107/84 79/126 78/82
f 73/129 74/100 94/98
f 73/129 84/130 74/100
f 76/109 84/130 73/129
f 76/109 86/111 84/130
f 114/113 84/130 86/111
f 114/113 112/131 84/130
f 123/115 112/131 114/113
f 123/115 124/132 112/131
f 120/106 112/131 124/132
f 120/106 111/104 112/131
f 84/130 112/131 111/104
f 111/104 82/102 84/130
f 74/100 84/130 82/102
f 76/109 73/129 94/98
usemtl mat_1
f 134/133 455/134 133/135
f 134/133 456/136 455/134
f 140/137 456/136 134/133
f 140/137 458/138 456/136
f 406/139 465/140 405/141
f 465/140 137/142 466/143
f 465/140 136/144 137/142
f 467/145 136/144 465/140
f 467/145 138/146 136/144
f 456/136 159/147 160/148
f 415/149 515/150 410/151
f 415/149 182/152 515/150
f 518/153 182/152 415/149
f 518/153 519/154 182/152
f 516/155 519/154 518/153
f 516/155 517/156 519/154
f 408/157 465/140 406/139
f 408/157 467/145 465/140
f 409/158 467/145 408/157
f 409/158 468/159 467/145
f 477/160 475/161 518/153
f 415/149 477/160 518/153
f 146/162 216/163 142/164
f 146/162 215/165 216/163
f 145/166 215/165 146/162
f 145/166 217/167 215/165
f 156/168 217/167 145/166
f 156/168 218/169 217/167
f 142/164 218/169 156/168
f 142/164 216/163 218/169
f 391/170 403/171 407/172
f 391/170 387/173 403/171
f 390/174 387/173 391/170
f 390/174 388/175 387/173
f 390/174 436/176 435/177
f 390/174 392/178 436/176
f 391/170 392/178 390/174
f 391/170 393/179 392/178
f 407/172 393/179 391/170
f 407/172 409/158 393/179
f 422/180 480/181 481/182
f 422/180 521/183 480/181
f 172/184 521/183 422/180
f 172/184 524/185 521/183
f 165/186 524/185 172/184
f 165/186 164/187 524/185
f 172/184 422/180 412/188
f 520/189 172/184 412/188
f 464/190 159/147 162/191
f 464/190 394/192 159/147
f 399/193 394/192 464/190
f 399/193 395/194 394/192
f 162/191 457/195 163/196
f 162/191 458/138 457/195
f 159/147 458/138 162/191
f 159/147 456/136 458/138
f 399/193 450/197 442/198
f 399/193 400/199 450/197
f 464/190 400/199 399/193
f 464/190 401/200 400/199
f 162/191 401/200 464/190
f 162/191 163/196 401/200
f 462/201 160/148 159/147
f 394/192 462/201 159/147
f 524/185 522/202 521/183
f 524/185 523/203 522/202
f 164/187 523/203 524/185
f 164/187 171/204 523/203
f 174/205 171/204 164/187
f 174/205 175/206 171/204
f 168/207 167/208 171/204
f 175/206 168/207 171/204
f 461/170 385/175 389/174
f 461/170 386/173 385/175
f 408/157 386/173 461/170
f 408/157 406/139 386/173
f 489/209 487/210 488/211
f 489/209 490/212 487/210
f 482/213 490/212 489/209
f 482/213 493/214 490/212
f 490/212 491/215 487/210
f 490/212 492/216 491/215
f 493/214 492/216 490/212
f 493/214 494/217 492/216
f 423/218 494/217 493/214
f 423/218 425/219 494/217
f 424/220 425/219 423/218
f 424/220 426/221 425/219
f 421/222 426/221 424/220
f 421/222 419/223 426/221
f 488/211 495/224 489/209
f 488/211 496/225 495/224
f 498/226 496/225 488/211
f 498/226 502/227 496/225
f 460/228 404/141 403/171
f 387/173 460/228 403/171
f 496/225 481/182 495/224
f 496/225 497/229 481/182
f 502/227 497/229 496/225
f 502/227 486/230 497/229
f 461/170 409/158 408/157
f 461/170 393/179 409/158
f 389/174 393/179 461/170
f 389/174 392/178 393/179
f 434/177 392/178 389/174
f 434/177 436/176 392/178
f 500/231 152/232 499/233
f 500/231 153/234 152/232
f 503/235 153/234 500/231
f 503/235 143/236 153/234
f 505/237 503/235 504/238
f 505/237 506/239 503/235
f 508/240 506/239 505/237
f 508/240 501/241 506/239
f 509/242 501/241 508/240
f 509/242 510/243 501/241
f 500/231 504/238 503/235
f 500/231 491/215 504/238
f 499/233 491/215 500/231
f 499/233 487/210 491/215
f 498/226 487/210 499/233
f 498/226 488/211 487/210
f 405/141 459/228 386/173
f 406/139 405/141 386/173
f 397/192 161/148 463/201
f 397/192 157/244 161/148
f 402/190 157/244 397/192
f 402/190 158/245 157/244
f 401/200 158/245 402/190
f 401/200 163/196 158/245
f 402/190 400/199 401/200
f 402/190 398/193 400/199
f 397/192 398/193 402/190
f 397/192 396/194 398/193
f 450/197 400/199 398/193
f 441/198 450/197 398/193
f 508/240 477/160 509/242
f 508/240 512/246 477/160
f 505/237 512/246 508/240
f 505/237 511/247 512/246
f 504/238 511/247 505/237
f 504/238 513/248 511/247
f 491/215 513/248 504/238
f 491/215 492/216 513/248
f 416/249 426/221 417/250
f 416/249 425/219 426/221
f 514/251 425/219 416/249
f 514/251 494/217 425/219
f 513/248 494/217 514/251
f 513/248 492/216 494/217
f 418/252 417/250 426/221
f 419/223 418/252 426/221
f 514/251 476/253 511/247
f 513/248 514/251 511/247
f 519/154 180/254 182/152
f 519/154 181/255 180/254
f 517/156 181/255 519/154
f 517/156 183/256 181/255
f 187/257 178/258 177/259
f 187/257 183/256 178/258
f 186/260 183/256 187/257
f 186/260 181/255 183/256
f 210/261 218/169 264/262
f 210/261 217/167 218/169
f 208/263 217/167 210/261
f 208/263 215/165 217/167
f 459/228 385/175 386/173
f 459/228 439/264 385/175
f 388/175 385/175 439/264
f 388/175 433/265 385/175
f 435/177 433/265 388/175
f 435/177 427/266 433/265
f 440/267 427/266 435/177
f 440/267 430/268 427/266
f 388/175 390/174 435/177
f 460/228 388/175 439/264
f 460/228 387/173 388/175
f 435/177 429/268 440/267
f 435/177 436/176 429/268
f 431/268 429/268 436/176
f 431/268 437/269 429/268
f 428/266 437/269 431/268
f 428/266 427/266 437/269
f 433/265 427/266 428/266
f 428/266 434/177 433/265
f 438/267 434/177 428/266
f 438/267 431/268 434/177
f 436/176 434/177 431/268
f 437/269 427/266 429/268
f 438/267 428/266 432/268
f 434/177 385/175 433/265
f 434/177 389/174 385/175
f 395/194 462/201 394/192
f 395/194 452/270 462/201
f 396/194 452/270 395/194
f 396/194 463/201 452/270
f 397/192 463/201 396/194
f 465/140 403/171 404/141
f 465/140 466/143 403/171
f 407/172 403/171 466/143
f 466/143 468/159 407/172
f 139/271 468/159 466/143
f 139/271 467/145 468/159
f 138/146 467/145 139/271
f 139/271 144/272 138/146
f 147/273 144/272 139/271
f 147/273 146/162 144/272
f 145/166 146/162 147/273
f 147/273 149/274 145/166
f 137/142 149/274 147/273
f 137/142 141/275 149/274
f 148/276 149/274 141/275
f 148/276 145/166 149/274
f 151/277 145/166 148/276
f 151/277 155/278 145/166
f 133/135 155/278 151/277
f 133/135 135/279 155/278
f 455/134 135/279 133/135
f 455/134 457/195 135/279
f 158/245 457/195 455/134
f 158/245 163/196 457/195
f 468/159 409/158 407/172
f 139/271 137/142 147/273
f 139/271 466/143 137/142
f 455/134 157/244 158/245
f 455/134 456/136 157/244
f 161/148 157/244 456/136
f 458/138 135/279 457/195
f 458/138 140/137 135/279
f 154/280 135/279 140/137
f 154/280 155/278 135/279
f 156/168 155/278 154/280
f 156/168 145/166 155/278
f 142/164 144/272 146/162
f 142/164 143/236 144/272
f 153/234 143/236 142/164
f 142/164 152/232 153/234
f 154/280 152/232 142/164
f 154/280 140/137 152/232
f 498/226 152/232 140/137
f 498/226 499/233 152/232
f 142/164 156/168 154/280
f 143/236 138/146 144/272
f 143/236 506/239 138/146
f 503/235 506/239 143/236
f 150/281 151/277 148/276
f 150/281 133/135 151/277
f 140/137 502/227 498/226
f 140/137 134/133 502/227
f 133/135 502/227 134/133
f 133/135 486/230 502/227
f 501/241 138/146 506/239
f 501/241 136/144 138/146
f 137/142 136/144 501/241
f 501/241 510/243 137/142
f 415/149 473/282 477/160
f 415/149 478/283 473/282
f 410/151 478/283 415/149
f 410/151 484/284 478/283
f 412/188 484/284 410/151
f 412/188 479/285 484/284
f 422/180 479/285 412/188
f 422/180 469/286 479/285
f 481/182 469/286 422/180
f 483/287 479/285 469/286
f 483/287 484/284 479/285
f 478/283 484/284 483/287
f 483/287 473/282 478/283
f 396/194 441/198 398/193
f 396/194 449/288 441/198
f 395/194 449/288 396/194
f 395/194 442/198 449/288
f 399/193 442/198 395/194
f 443/289 453/290 446/291
f 443/289 442/198 453/290
f 449/288 442/198 443/289
f 443/289 444/289 449/288
f 451/292 444/289 443/289
f 451/292 447/291 444/289
f 445/291 447/291 451/292
f 445/291 450/197 447/291
f 442/198 450/197 445/291
f 445/291 453/290 442/198
f 451/292 443/289 445/291
f 444/289 441/198 449/288
f 444/289 454/290 441/198
f 448/291 454/290 444/289
f 447/291 441/198 454/290
f 447/291 450/197 441/198
f 520/189 165/186 172/184
f 520/189 170/293 165/186
f 413/294 170/293 520/189
f 413/294 167/208 170/293
f 421/222 167/208 413/294
f 421/222 171/204 167/208
f 523/203 171/204 421/222
f 421/222 522/202 523/203
f 424/220 522/202 421/222
f 424/220 423/218 522/202
f 482/213 522/202 423/218
f 482/213 521/183 522/202
f 480/181 521/183 482/213
f 482/213 489/209 480/181
f 495/224 480/181 489/209
f 495/224 481/182 480/181
f 423/218 493/214 482/213
f 412/188 413/294 520/189
f 412/188 411/295 413/294
f 410/151 411/295 412/188
f 410/151 414/296 411/295
f 515/150 414/296 410/151
f 515/150 184/297 414/296
f 180/254 184/297 515/150
f 180/254 179/298 184/297
f 181/255 179/298 180/254
f 181/255 186/260 179/298
f 185/299 179/298 186/260
f 185/299 176/300 179/298
f 177/259 176/300 185/299
f 177/259 178/258 176/300
f 184/297 176/300 178/258
f 184/297 179/298 176/300
f 515/150 182/152 180/254
f 178/258 414/296 184/297
f 178/258 418/252 414/296
f 183/256 418/252 178/258
f 183/256 517/156 418/252
f 516/155 418/252 517/156
f 516/155 417/250 418/252
f 416/249 417/250 516/155
f 516/155 476/253 416/249
f 518/153 476/253 516/155
f 518/153 475/161 476/253
f 511/247 476/253 475/161
f 475/161 512/246 511/247
f 477/160 512/246 475/161
f 476/253 514/251 416/249
f 185/299 187/257 177/259
f 185/299 186/260 187/257
f 236/301 213/302 252/303
f 236/301 230/304 213/302
f 249/305 213/302 230/304
f 230/304 232/306 249/305
f 231/307 232/306 230/304
f 231/307 257/308 232/306
f 263/309 257/308 231/307
f 263/309 265/310 257/308
f 264/262 265/310 263/309
f 264/262 218/169 265/310
f 216/163 265/310 218/169
f 263/309 256/311 264/262
f 263/309 231/307 256/311
f 202/312 302/313 309/314
f 202/312 299/315 302/313
f 201/316 299/315 202/312
f 201/316 206/317 299/315
f 298/318 299/315 206/317
f 206/317 205/319 298/318
f 315/320 298/318 205/319
f 315/320 207/321 298/318
f 208/263 207/321 315/320
f 315/320 314/322 208/263
f 205/319 314/322 315/320
f 314/322 215/165 208/263
f 314/322 216/163 215/165
f 166/323 165/186 170/293
f 166/323 164/187 165/186
f 174/205 164/187 166/323
f 166/323 173/324 174/205
f 169/325 173/324 166/323
f 169/325 168/207 173/324
f 167/208 168/207 169/325
f 169/325 170/293 167/208
f 166/323 170/293 169/325
f 173/324 175/206 174/205
f 173/324 168/207 175/206
f 418/252 420/326 414/296
f 418/252 419/223 420/326
f 421/222 420/326 419/223
f 421/222 413/294 420/326
f 411/295 420/326 413/294
f 411/295 414/296 420/326
usemtl mat_2
f 330/327 328/328 329/329
f 330/327 327/330 328/328
f 331/331 327/330 330/327
f 331/331 338/332 327/330
f 270/333 266/334 271/335
f 270/333 262/336 266/334
f 269/337 262/336 270/333
f 269/337 259/338 262/336
f 373/328 374/339 372/340
f 373/328 375/329 374/339
f 370/330 375/329 373/328
f 370/330 384/327 375/329
f 369/332 384/327 370/330
f 369/332 376/331 384/327
f 380/341 372/340 374/339
f 380/341 371/342 372/340
f 377/343 371/342 380/341
f 377/343 368/344 371/342
f 337/340 329/329 328/328
f 337/340 339/339 329/329
f 340/342 339/339 337/340
f 340/342 341/341 339/339
f 336/344 341/341 340/342
f 336/344 335/343 341/341
f 204/345 201/346 202/347
f 204/345 189/348 201/346
f 323/349 189/348 204/345
f 323/349 196/350 189/348
f 326/351 196/350 323/349
f 326/351 322/352 196/350
f 317/353 322/352 326/351
f 317/353 319/354 322/352
f 316/355 319/354 317/353
f 316/355 198/356 319/354
f 199/357 198/356 316/355
f 199/357 200/358 198/356
f 294/359 200/358 199/357
f 294/359 312/360 200/358
f 269/338 312/360 294/359
f 269/338 313/361 312/360
f 270/336 313/361 269/338
f 270/336 195/362 313/361
f 193/363 195/362 270/336
f 193/363 194/364 195/362
f 192/365 194/364 193/363
f 192/365 190/366 194/364
f 188/367 190/366 192/365
f 188/367 189/348 190/366
f 201/346 189/348 188/367
f 188/367 206/368 201/346
f 205/369 206/368 188/367
f 188/367 191/370 205/369
f 192/365 191/370 188/367
f 192/365 193/363 191/370
f 271/334 191/370 193/363
f 271/334 268/371 191/370
f 267/372 191/370 268/371
f 267/372 314/373 191/370
f 216/374 314/373 267/372
f 267/372 265/373 216/374
f 227/370 265/373 267/372
f 227/370 257/369 265/373
f 288/367 257/369 227/370
f 288/367 232/368 257/369
f 249/346 232/368 288/367
f 288/367 286/348 249/346
f 284/366 286/348 288/367
f 284/366 280/375 286/348
f 285/364 280/375 284/366
f 285/364 221/376 280/375
f 219/377 221/376 285/364
f 219/377 220/378 221/376
f 275/356 220/378 219/377
f 275/356 272/379 220/378
f 277/354 272/379 275/356
f 277/354 273/380 272/379
f 281/352 273/380 277/354
f 281/352 274/381 273/380
f 279/350 274/381 281/352
f 279/350 280/375 274/381
f 286/348 280/375 279/350
f 279/350 283/349 286/348
f 290/351 283/349 279/350
f 290/351 278/353 283/349
f 281/352 278/353 290/351
f 281/352 277/354 278/353
f 276/355 278/353 277/354
f 276/355 241/357 278/353
f 275/356 241/357 276/355
f 275/356 287/358 241/357
f 219/377 287/358 275/356
f 219/377 260/361 287/358
f 261/362 260/361 219/377
f 261/362 262/336 260/361
f 225/363 262/336 261/362
f 225/363 266/334 262/336
f 227/370 266/334 225/363
f 227/370 268/371 266/334
f 267/372 268/371 227/370
f 266/334 268/371 271/335
f 275/356 276/355 277/354
f 281/352 290/351 279/350
f 270/336 271/334 193/363
f 191/370 314/373 205/369
f 274/381 272/379 273/380
f 274/381 221/376 272/379
f 280/375 221/376 274/381
f 221/376 220/378 272/379
f 285/364 261/362 219/377
f 285/364 225/363 261/362
f 226/365 225/363 285/364
f 226/365 227/370 225/363
f 288/367 227/370 226/365
f 226/365 284/366 288/367
f 285/364 284/366 226/365
f 317/353 199/357 316/355
f 317/353 324/382 199/357
f 323/349 324/382 317/353
f 323/349 325/383 324/382
f 308/384 325/383 323/349
f 308/384 211/385 325/383
f 337/340 211/385 308/384
f 337/340 328/328 211/385
f 327/330 211/385 328/328
f 327/330 338/332 211/385
f 203/347 211/385 338/332
f 338/332 336/344 203/347
f 331/331 336/344 338/332
f 331/331 335/343 336/344
f 333/386 335/343 331/331
f 333/386 341/341 335/343
f 342/387 341/341 333/386
f 342/387 339/339 341/341
f 334/388 339/339 342/387
f 334/388 329/329 339/339
f 330/327 329/329 334/388
f 334/388 332/389 330/327
f 343/390 332/389 334/388
f 343/390 333/386 332/389
f 342/387 333/386 343/390
f 343/390 334/388 342/387
f 317/353 326/351 323/349
f 331/331 332/389 333/386
f 331/331 330/327 332/389
f 313/361 200/358 312/360
f 313/361 293/377 200/358
f 195/362 293/377 313/361
f 195/362 194/364 293/377
f 291/376 293/377 194/364
f 291/376 292/378 293/377
f 320/379 292/378 291/376
f 320/379 198/356 292/378
f 319/354 198/356 320/379
f 320/379 321/380 319/354
f 318/381 321/380 320/379
f 318/381 322/352 321/380
f 196/350 322/352 318/381
f 318/381 197/375 196/350
f 291/376 197/375 318/381
f 291/376 194/364 197/375
f 190/366 197/375 194/364
f 190/366 189/348 197/375
f 196/350 197/375 189/348
f 319/354 321/380 322/352
f 320/379 291/376 318/381
f 198/356 293/377 292/378
f 198/356 200/358 293/377
f 204/345 308/384 323/349
f 204/345 340/342 308/384
f 336/344 340/342 204/345
f 204/345 203/347 336/344
f 308/384 340/342 337/340
f 259/338 260/361 262/336
f 259/338 258/360 260/361
f 224/359 258/360 259/338
f 224/359 287/358 258/360
f 241/357 287/358 224/359
f 224/359 229/391 241/357
f 223/392 229/391 224/359
f 223/392 228/393 229/391
f 237/394 228/393 223/392
f 237/394 235/395 228/393
f 238/396 235/395 237/394
f 238/396 245/397 235/395
f 300/395 245/397 238/396
f 300/395 233/398 245/397
f 301/399 233/398 300/395
f 301/399 307/400 233/398
f 325/383 307/400 301/399
f 325/383 211/385 307/400
f 305/401 307/400 211/385
f 305/401 304/402 307/400
f 246/403 307/400 304/402
f 246/403 233/398 307/400
f 248/400 233/398 246/403
f 248/400 234/399 233/398
f 289/383 234/399 248/400
f 289/383 282/382 234/399
f 283/349 282/382 289/383
f 283/349 278/353 282/382
f 241/357 282/382 278/353
f 241/357 229/391 282/382
f 234/399 282/382 229/391
f 229/391 235/395 234/399
f 228/393 235/395 229/391
f 258/360 287/358 260/361
f 235/395 233/398 234/399
f 235/395 245/397 233/398
f 301/399 324/382 325/383
f 301/399 296/391 324/382
f 300/395 296/391 301/399
f 300/395 297/393 296/391
f 303/394 297/393 300/395
f 303/394 295/392 297/393
f 239/404 295/392 303/394
f 239/404 222/405 295/392
f 223/392 222/405 239/404
f 223/392 224/359 222/405
f 259/338 222/405 224/359
f 259/338 269/337 222/405
f 239/404 237/394 223/392
f 239/404 240/406 237/394
f 303/394 240/406 239/404
f 303/394 238/396 240/406
f 300/395 238/396 303/394
f 237/394 240/406 238/396
f 295/392 296/391 297/393
f 295/392 294/359 296/391
f 222/405 294/359 295/392
f 222/405 269/338 294/359
f 199/357 296/391 294/359
f 199/357 324/382 296/391
f 247/407 246/403 304/402
f 247/407 244/402 246/403
f 248/400 246/403 244/402
f 244/402 243/401 248/400
f 214/385 248/400 243/401
f 214/385 289/383 248/400
f 251/384 289/383 214/385
f 251/384 283/349 289/383
f 250/345 283/349 251/384
f 250/345 286/348 283/349
f 249/346 286/348 250/345
f 250/345 213/347 249/346
f 252/408 214/385 243/401
f 252/408 213/347 214/385
f 211/385 309/408 305/401
f 211/385 202/347 309/408
f 251/384 371/342 250/345
f 251/384 372/340 371/342
f 214/385 372/340 251/384
f 214/385 373/328 372/340
f 370/330 373/328 214/385
f 214/385 369/332 370/330
f 212/347 369/332 214/385
f 212/347 368/344 369/332
f 250/345 368/344 212/347
f 250/345 371/342 368/344
f 368/344 376/331 369/332
f 368/344 377/343 376/331
f 378/386 376/331 377/343
f 378/386 381/389 376/331
f 382/390 381/389 378/386
f 382/390 383/388 381/389
f 379/387 383/388 382/390
f 379/387 374/339 383/388
f 380/341 374/339 379/387
f 379/387 378/386 380/341
f 382/390 378/386 379/387
f 377/343 380/341 378/386
f 375/329 383/388 374/339
f 375/329 384/327 383/388
f 381/389 383/388 384/327
f 384/327 376/331 381/389
usemtl mat_3
f 208/409 209/410 207/411
f 208/409 210/412 209/410
f 264/409 209/410 210/412
f 264/409 256/411 209/410
f 254/413 209/410 256/411
f 254/413 253/414 209/410
f 310/413 209/410 253/414
f 310/413 207/411 209/410
usemtl mat_4
f 345/415 346/416 347/417
f 345/415 344/418 346/416
f 349/419 344/418 345/415
f 349/419 348/420 344/418
f 350/421 348/420 349/419
f 350/421 351/422 348/420
f 353/423 354/424 355/425
f 353/423 352/426 354/424
f 357/427 352/426 353/423
f 357/427 356/428 352/426
f 358/429 356/428 357/427
f 358/429 359/430 356/428
f 361/431 362/432 363/433
f 361/431 360/434 362/432
f 365/435 360/434 361/431
f 365/435 364/436 360/434
f 366/437 364/436 365/435
f 366/437 367/438 364/436
usemtl mat_5
f 497/439 469/440 481/441
f 497/439 470/442 469/440
f 486/443 470/442 497/439
f 486/443 485/444 470/442
f 485/444 471/445 470/442
f 485/444 507/446 471/445
f 150/447 507/446 485/444
f 150/447 148/448 507/446
f 474/449 148/448 141/450
f 474/449 507/446 148/448
f 472/451 507/446 474/449
f 472/451 471/445 507/446
f 509/452 474/449 510/453
f 509/452 472/451 474/449
f 477/454 472/451 509/452
f 477/454 473/455 472/451
f 471/445 469/440 470/442
f 471/445 483/456 469/440
f 473/455 483/456 471/445
f 471/445 472/451 473/455
f 137/457 474/449 141/450
f 137/457 510/453 474/449
f 133/458 485/444 486/443
f 133/458 150/447 485/444
usemtl mat_6
f 244/459 242/460 243/461
f 244/459 255/462 242/460
f 254/463 255/462 244/459
f 254/463 256/464 255/462
f 231/465 255/462 256/464
f 231/465 230/466 255/462
f 236/467 255/462 230/466
f 236/467 242/460 255/462
f 252/468 242/460 236/467
f 252/468 243/461 242/460
f 247/469 254/463 244/459
f 247/469 253/470 254/463
f 310/463 253/470 247/469
f 247/469 304/459 310/463
f 311/462 310/463 304/459
f 311/462 207/464 310/463
f 298/465 207/464 311/462
f 311/462 299/466 298/465
f 302/467 299/466 311/462
f 311/462 306/460 302/467
f 304/459 306/460 311/462
f 304/459 305/461 306/460
f 309/468 306/460 305/461
f 309/468 302/467 306/460
