# Blender v2.66 (sub 1) OBJ File: 'BR_Cradily-Shiny01.blend'
# www.blender.org
mtllib BR_Cradily-Shiny01.mtl
o yuradle
v -1.712780 1.656700 -1.564932
v -0.995966 1.968490 -1.748389
v -1.325350 1.128700 -2.247412
v -1.581220 1.890880 -0.905652
v -2.165590 0.399467 -0.905652
v 0.000000 1.121300 0.091060
v -1.075640 2.218630 -0.905652
v 0.000000 2.529730 -0.905652
v -0.995966 1.968490 -0.256441
v -1.919220 1.148500 -1.748389
v 0.000000 1.554810 -2.478412
v 0.000000 2.242600 -1.748389
v -2.086520 0.656003 -1.564932
v 0.000000 2.242600 -0.256441
v -1.757470 1.540660 -0.243488
v -2.041880 0.771927 -0.243488
v 1.325350 1.128700 -2.247412
v 0.995967 1.968490 -1.748389
v 1.712780 1.656700 -1.564932
v 1.581220 1.890880 -0.905652
v 1.919220 1.148500 -1.748389
v 2.165590 0.399466 -0.905652
v 1.075650 2.218630 -0.905652
v 0.995967 1.968490 -0.256441
v 2.086520 0.656002 -1.564932
v 1.757480 1.540660 -0.243488
v 2.041880 0.771926 -0.243488
v -1.589100 -0.006789 -2.430642
v -2.107970 0.000000 -1.748389
v -2.276610 0.000000 -0.905652
v -2.107970 0.000000 -0.247412
v 0.000000 0.000000 0.160428
v 1.589100 -0.006789 -2.430642
v 2.107970 0.000000 -1.748389
v 2.276610 0.000000 -0.905652
v 2.107970 0.000000 -0.247412
v -3.814150 1.155820 -0.899828
v -3.677530 1.459180 -0.345098
v -3.417740 2.080920 -0.345098
v -3.377050 2.175290 -1.450199
v -3.719320 1.361280 -1.450199
v -3.281490 2.380270 -0.899828
v -2.103610 1.675200 -0.242019
v -2.058870 1.791370 -1.563660
v -2.438070 0.790429 -1.563660
v -2.393240 0.906838 -0.242019
v -1.930610 2.027840 -0.904807
v -2.520430 0.534327 -0.904807
v 1.919220 -1.522990 -1.748389
v 1.325350 -1.482450 -2.191382
v -1.325350 -1.482450 -2.191382
v -0.995966 -2.390830 -1.689259
v -1.712780 -2.031190 -1.564932
v -1.581220 -2.265370 -0.905652
v -1.919220 -1.522990 -1.748389
v -2.165590 -0.773953 -0.905652
v -0.996007 -2.390830 -0.247356
v -1.075640 -2.640970 -0.905652
v 0.000000 -1.908550 -2.394422
v -1.757460 -1.915150 -0.247356
v 0.000000 -1.433750 0.095598
v -2.086520 -1.030490 -1.564932
v -2.041880 -1.146410 -0.243488
v 0.000000 -2.717620 -1.689259
v 1.712780 -2.031190 -1.564932
v 0.995967 -2.390830 -1.689259
v 1.581220 -2.265370 -0.905652
v 2.165590 -0.773952 -0.905652
v 2.041880 -1.146410 -0.243488
v 1.075650 -2.640970 -0.905652
v 2.086520 -1.030490 -1.564932
v 1.757460 -1.915150 -0.247356
v 0.996007 -2.390830 -0.247356
v 3.804020 1.151440 -0.899828
v 3.271260 2.375890 -0.899828
v 3.407510 2.076530 -0.345098
v 3.366820 2.170910 -1.450199
v 3.709190 1.356900 -1.450199
v 3.667400 1.454800 -0.345098
v 2.093480 1.670340 -0.242019
v 2.427940 0.785571 -1.563660
v 2.048740 1.786510 -1.563660
v 2.383110 0.901981 -0.242019
v 1.920480 2.022980 -0.904807
v 2.510290 0.529469 -0.904807
v -3.647230 -1.458230 -0.899828
v -3.112900 -2.682680 -0.899828
v -3.249150 -2.383320 -0.345098
v -3.208460 -2.477700 -1.450199
v -3.552400 -1.663690 -1.450199
v -3.510600 -1.761590 -0.345098
v -1.936680 -2.010430 -0.242019
v -2.271150 -1.125660 -1.563660
v -1.891940 -2.126590 -1.563660
v -2.226320 -1.242060 -0.242019
v -1.763690 -2.363060 -0.904807
v -2.353500 -0.869554 -0.904807
v 0.000075 -4.048060 -0.990376
v 0.000002 -4.268580 -0.709231
v -0.306603 -4.041300 -0.710344
v -0.000077 -3.986970 -0.423136
v 0.306604 -4.041310 -0.710516
v 3.647230 -1.458230 -0.899828
v 3.510610 -1.761590 -0.345098
v 3.249150 -2.383320 -0.345098
v 3.208460 -2.477690 -1.450199
v 3.552400 -1.663690 -1.450199
v 3.112900 -2.682680 -0.899828
v 1.936680 -2.010430 -0.242019
v 1.891950 -2.126590 -1.563660
v 2.271150 -1.125650 -1.563660
v 2.226320 -1.242060 -0.242019
v 1.763690 -2.363060 -0.904807
v 2.353500 -0.869553 -0.904807
v 0.000000 -1.307300 -11.161252
v 1.333890 0.000000 -11.161252
v 0.000000 1.307300 -11.161252
v -1.333890 0.000000 -11.161252
v -0.917887 -0.980475 -11.161252
v -0.917887 0.980474 -11.161252
v 0.917887 -0.980475 -11.161252
v 0.917887 0.980474 -11.161252
v -1.136050 1.096930 -11.096052
v 0.000000 -0.005239 -11.653152
v 0.000000 1.564120 -11.042252
v 0.000000 -1.574590 -11.042252
v -1.136050 -1.107410 -11.096052
v -1.661330 -0.005238 -11.112552
v -2.360980 -0.005239 -11.895452
v -1.544920 -1.502410 -11.862453
v -1.544920 1.491930 -11.862453
v 0.000000 -2.137030 -11.754852
v 0.000000 2.126550 -11.754852
v 1.136050 1.096930 -11.096052
v 1.136050 -1.107410 -11.096052
v 1.661330 -0.005238 -11.112552
v 1.544920 -1.502410 -11.862453
v 2.360980 -0.005239 -11.895452
v 1.544920 1.491930 -11.862453
v -2.105000 -0.615916 -15.609752
v -1.717860 -0.354990 -16.287252
v -1.649890 -0.806923 -16.205751
v -2.105000 0.813776 -15.609752
v -2.231470 1.002800 -15.083152
v -1.649890 1.000810 -16.205751
v -1.904730 -0.456131 -15.476252
v -1.904730 -0.456131 -15.476252
v -1.477360 -0.170767 -16.195251
v -1.477360 -0.170767 -16.195251
v -2.047320 0.803285 -14.954952
v -2.047320 0.803285 -14.954952
v -1.904730 0.653989 -15.476252
v -1.904730 0.653989 -15.476252
v -2.381560 0.699999 -14.485752
v -2.462380 0.098929 -14.055852
v -2.320450 1.002800 -14.055852
v -2.146800 0.540437 -14.460152
v -2.146800 0.540437 -14.460152
v -2.117650 0.098929 -14.153852
v -2.117650 0.098929 -14.153852
v -2.146800 -0.342580 -14.460152
v -2.146800 -0.342580 -14.460152
v -2.047320 -0.605427 -14.954952
v -2.047320 -0.605427 -14.954952
v -2.231470 -0.804938 -15.083152
v -2.381560 -0.502142 -14.485752
v -2.320450 -0.804938 -14.055852
v -0.942313 -2.083200 -14.055852
v 0.000000 -2.262990 -14.055852
v 0.000000 2.460850 -14.055852
v -0.942313 2.281060 -14.055852
v -1.741170 1.769060 -14.055852
v -0.666316 2.281060 -14.875152
v -1.291710 1.769060 -15.569652
v -1.717860 0.548878 -16.287252
v -1.741170 -1.571200 -14.055852
v -0.666316 -2.083200 -14.875152
v 0.000000 2.281060 -15.214452
v 0.000000 1.769060 -16.196751
v -0.703980 1.769060 -16.052351
v 0.000000 1.002800 -16.853052
v -0.881899 1.002800 -16.668552
v -0.759306 0.366641 -16.537851
v -0.759306 0.366641 -16.537851
v 0.000000 0.366640 -16.714252
v 0.000000 0.366640 -16.714252
v 0.000000 -0.168781 -16.714252
v 0.000000 -0.168781 -16.714252
v -0.759306 -0.168782 -16.537851
v -0.759306 -0.168782 -16.537851
v -0.918230 -0.353004 -16.766851
v 0.000000 -0.353004 -16.968351
v 0.000000 -0.804938 -16.853052
v -0.881899 -0.804938 -16.668552
v -0.703980 -1.571200 -16.052351
v -1.291710 -1.571200 -15.569652
v 0.000000 -1.571200 -16.196751
v 0.000000 -2.083200 -15.214452
v -0.918230 0.550863 -16.766851
v 0.000000 0.550863 -16.968351
v -1.477360 0.364655 -16.195251
v -1.477360 0.364655 -16.195251
v 1.649890 -0.806923 -16.205751
v 1.717860 -0.354990 -16.287252
v 2.105000 -0.615916 -15.609752
v 1.649890 1.000810 -16.205751
v 2.320730 1.002800 -15.083152
v 2.105000 0.813776 -15.609752
v 1.477360 -0.168781 -16.127352
v 1.477360 -0.168781 -16.127352
v 1.904730 -0.456131 -15.476252
v 1.904730 -0.456131 -15.476252
v 1.477360 0.366641 -16.127352
v 1.477360 0.366641 -16.127352
v 2.047320 0.803285 -14.954952
v 2.047320 0.803285 -14.954952
v 1.904730 0.653989 -15.476252
v 1.904730 0.653989 -15.476252
v 2.250830 1.002790 -14.055852
v 2.462380 0.098929 -14.055852
v 2.381560 0.699999 -14.485752
v 2.117650 0.098929 -14.153852
v 2.117650 0.098929 -14.153852
v 2.146800 0.540437 -14.460152
v 2.146800 0.540437 -14.460152
v 2.146800 -0.342580 -14.460152
v 2.146800 -0.342580 -14.460152
v 2.320730 -0.804938 -15.083152
v 2.047320 -0.605427 -14.954952
v 2.047320 -0.605427 -14.954952
v 2.250830 -0.804938 -14.055852
v 2.381560 -0.502142 -14.485752
v 0.942314 -2.083200 -14.055852
v 0.942314 2.281060 -14.055852
v 1.741170 1.769060 -14.055852
v 1.741170 -1.571200 -14.055852
v 0.666316 2.281060 -14.875152
v 1.291710 1.769060 -15.569652
v 1.717860 0.548877 -16.287252
v 0.666316 -2.083200 -14.875152
v 0.881899 1.002800 -16.668552
v 0.703980 1.769060 -16.052351
v 0.789678 -0.168782 -16.593851
v 0.789678 -0.168782 -16.593851
v 0.789678 0.366641 -16.593851
v 0.789678 0.366641 -16.593851
v 0.881899 -0.804938 -16.668552
v 0.918230 -0.353004 -16.766851
v 1.291710 -1.571200 -15.569652
v 0.703980 -1.571200 -16.052351
v 0.918230 0.550863 -16.766851
v -0.666316 -2.187370 -13.655352
v -1.591840 -1.675370 -13.439052
v -0.666316 2.176890 -13.655352
v 0.000000 2.242350 -13.439552
v 0.000000 1.982660 -12.812052
v -2.042700 0.898629 -13.202652
v -2.210980 -0.005239 -13.023352
v -2.042700 -0.909106 -13.202652
v 0.000000 -1.993140 -12.812052
v 0.000000 -2.252830 -13.439552
v -1.607760 1.664890 -13.439052
v 0.666316 -2.187370 -13.655352
v 0.666316 2.176890 -13.655352
v 2.210980 -0.005239 -13.023352
v 2.042700 0.898629 -13.202652
v 2.042700 -0.909106 -13.202652
v 1.591840 -1.675370 -13.439052
v 1.607760 1.664890 -13.439052
v 3.649270 -5.588790 -10.928452
v 3.334720 -6.046710 -10.959852
v 3.334720 -6.046710 -11.196552
v 3.649270 -5.588790 -11.227952
v 2.779200 -6.052870 -10.928452
v 2.779200 -6.052870 -11.227952
v 2.487370 -5.801240 -10.906052
v 2.487370 -5.801240 -11.250352
v 3.602850 -5.206260 -10.906052
v 3.602850 -5.206260 -11.250352
v 1.728620 -4.443950 -10.906052
v 1.728620 -4.443950 -11.250352
v 2.898260 -3.820070 -10.906052
v 2.898260 -3.820070 -11.250352
v 1.079810 -3.028020 -10.906052
v 1.079810 -3.028020 -11.250352
v 2.083740 -2.492530 -10.906052
v 2.083740 -2.492530 -11.250352
v 0.530001 -1.702690 -10.906052
v 0.530001 -1.702690 -11.250352
v 0.231058 -0.837724 -10.906052
v 0.231058 -0.837724 -11.250352
v 0.737478 -0.567605 -10.906052
v 1.289310 -1.297680 -10.906052
v 1.289310 -1.297680 -11.250352
v 0.737478 -0.567605 -11.250352
v 6.453560 -1.880960 -10.928452
v 6.513510 -2.433270 -10.959852
v 6.513510 -2.433270 -11.196552
v 6.453560 -1.880960 -11.227952
v 6.096240 -2.800050 -10.928452
v 6.096240 -2.800050 -11.227952
v 5.710910 -2.799440 -10.906052
v 5.710910 -2.799440 -11.250352
v 6.169010 -1.621120 -10.906052
v 6.169010 -1.621120 -11.250352
v 4.250770 -2.264700 -10.906052
v 4.250770 -2.264700 -11.250352
v 4.731120 -1.029170 -10.906052
v 4.731120 -1.029170 -11.250352
v 2.835780 -1.613830 -10.906052
v 2.835780 -1.613830 -11.250352
v 3.248080 -0.553341 -10.906052
v 3.248080 -0.553341 -11.250352
v 1.554940 -0.967134 -10.906052
v 1.554940 -0.967134 -11.250352
v 0.764417 -0.506037 -10.906052
v 0.764417 -0.506037 -11.250352
v 0.972395 0.028913 -10.906052
v 1.866770 -0.165047 -10.906052
v 1.866770 -0.165047 -11.250352
v 0.972395 0.028913 -11.250352
v 0.972396 -0.028913 -11.250252
v 0.972396 -0.028913 -10.905952
v 6.453570 1.880960 -11.227852
v 6.513500 2.433270 -11.196452
v 6.513500 2.433270 -10.959752
v 6.453570 1.880960 -10.928252
v 6.096240 2.800040 -11.227852
v 6.096240 2.800040 -10.928252
v 5.710900 2.799440 -11.250252
v 5.710900 2.799440 -10.905952
v 6.169010 1.621120 -10.905952
v 6.169010 1.621120 -11.250252
v 4.250760 2.264700 -11.250252
v 4.250760 2.264700 -10.905952
v 4.731120 1.029160 -11.250252
v 4.731120 1.029160 -10.905952
v 2.835780 1.613830 -11.250252
v 2.835780 1.613830 -10.905952
v 3.248080 0.553340 -11.250252
v 3.248080 0.553340 -10.905952
v 1.554940 0.967134 -11.250252
v 1.554940 0.967134 -10.905952
v 0.764417 0.506037 -11.250252
v 0.764417 0.506037 -10.905952
v 1.866780 0.165046 -11.250252
v 1.866780 0.165046 -10.905952
v 3.649280 5.588790 -11.227952
v 3.334720 6.046710 -11.196452
v 3.334720 6.046710 -10.959852
v 3.649280 5.588790 -10.928352
v 2.779200 6.052870 -11.227952
v 2.779200 6.052870 -10.928352
v 2.487370 5.801240 -11.250352
v 2.487370 5.801240 -10.905952
v 3.602850 5.206260 -10.905952
v 3.602850 5.206260 -11.250352
v 1.728620 4.443950 -11.250352
v 1.728620 4.443950 -10.905952
v 2.898270 3.820070 -11.250352
v 2.898270 3.820070 -10.905952
v 1.079810 3.028020 -11.250352
v 1.079810 3.028020 -10.905952
v 2.083740 2.492530 -11.250352
v 2.083740 2.492530 -10.905952
v 0.530001 1.702690 -11.250352
v 0.530001 1.702690 -10.905952
v 0.231058 0.837725 -11.250352
v 0.231058 0.837725 -10.905952
v 0.737479 0.567606 -11.250352
v 1.289310 1.297680 -11.250352
v 1.289310 1.297680 -10.905952
v 0.737479 0.567606 -10.905952
v -3.649270 -5.588780 -11.227952
v -3.334720 -6.046710 -11.196552
v -3.334720 -6.046710 -10.959852
v -3.649270 -5.588790 -10.928352
v -2.779200 -6.052880 -11.227952
v -2.779200 -6.052870 -10.928352
v -2.487370 -5.801240 -11.250352
v -2.487370 -5.801240 -10.906052
v -3.602850 -5.206260 -10.906052
v -3.602850 -5.206260 -11.250352
v -1.728620 -4.443950 -11.250352
v -1.728620 -4.443950 -10.906052
v -2.898260 -3.820070 -11.250352
v -2.898260 -3.820070 -10.906052
v -1.079810 -3.028010 -11.250352
v -1.079810 -3.028010 -10.906052
v -2.083740 -2.492530 -11.250352
v -2.083740 -2.492530 -10.906052
v -0.530001 -1.702690 -11.250352
v -0.530001 -1.702690 -10.906052
v -0.231058 -0.837725 -11.250352
v -0.231058 -0.837724 -10.906052
v -0.737478 -0.567606 -11.250352
v -1.289310 -1.297680 -11.250352
v -1.289310 -1.297680 -10.906052
v -0.737479 -0.567606 -10.906052
v -6.453560 -1.880950 -11.227952
v -6.513500 -2.433260 -11.196552
v -6.513500 -2.433260 -10.959852
v -6.453560 -1.880950 -10.928452
v -6.096240 -2.800040 -11.227952
v -6.096240 -2.800040 -10.928452
v -5.710910 -2.799440 -11.250352
v -5.710910 -2.799440 -10.906052
v -6.169010 -1.621120 -10.906052
v -6.169010 -1.621120 -11.250352
v -4.250770 -2.264700 -11.250352
v -4.250770 -2.264700 -10.906052
v -4.731120 -1.029160 -11.250352
v -4.731120 -1.029160 -10.906052
v -2.835780 -1.613830 -11.250352
v -2.835780 -1.613830 -10.906052
v -3.248080 -0.553340 -11.250352
v -3.248080 -0.553340 -10.906052
v -1.554940 -0.967134 -11.250352
v -1.554940 -0.967134 -10.906052
v -0.764417 -0.506037 -11.250352
v -0.764417 -0.506037 -10.906052
v -0.972395 0.028912 -11.250352
v -1.866770 -0.165047 -11.250352
v -1.866770 -0.165046 -10.906052
v -0.972395 0.028913 -10.906052
v -6.453560 1.880950 -10.928452
v -6.513510 2.433260 -10.959852
v -6.513510 2.433260 -11.196552
v -6.453560 1.880950 -11.227952
v -6.096240 2.800040 -10.928452
v -6.096240 2.800040 -11.227952
v -5.710910 2.799440 -10.906052
v -5.710910 2.799440 -11.250352
v -6.169010 1.621120 -10.906052
v -6.169010 1.621120 -11.250352
v -4.250770 2.264700 -10.906052
v -4.250770 2.264700 -11.250352
v -4.731120 1.029160 -10.906052
v -4.731120 1.029160 -11.250352
v -2.835780 1.613830 -10.906052
v -2.835780 1.613830 -11.250352
v -3.248080 0.553340 -10.906052
v -3.248080 0.553340 -11.250352
v -1.554940 0.967134 -10.906052
v -1.554940 0.967134 -11.250352
v -0.764417 0.506037 -10.906052
v -0.764417 0.506037 -11.250352
v -0.972395 -0.028912 -10.906052
v -1.866770 0.165047 -10.906052
v -1.866770 0.165046 -11.250352
v -0.972395 -0.028913 -11.250352
v -3.649270 5.588790 -10.928452
v -3.334720 6.046710 -10.959852
v -3.334720 6.046710 -11.196552
v -3.649270 5.588790 -11.227952
v -2.779200 6.052880 -10.928452
v -2.779200 6.052880 -11.227952
v -2.487370 5.801240 -10.906052
v -2.487370 5.801240 -11.250352
v -3.602850 5.206260 -10.906052
v -3.602850 5.206260 -11.250352
v -1.728620 4.443950 -10.906052
v -1.728620 4.443950 -11.250352
v -2.898260 3.820080 -10.906052
v -2.898260 3.820080 -11.250352
v -1.079810 3.028020 -10.906052
v -1.079810 3.028020 -11.250352
v -2.083740 2.492530 -10.906052
v -2.083740 2.492530 -11.250352
v -0.530001 1.702690 -10.906052
v -0.530001 1.702690 -11.250352
v -0.231058 0.837725 -10.906052
v -0.231058 0.837725 -11.250352
v -0.737478 0.567606 -10.906052
v -1.289310 1.297680 -10.906052
v -1.289310 1.297680 -11.250352
v -0.737479 0.567605 -11.250352
v -0.871435 0.787374 -2.814892
v 0.871436 0.787374 -2.814892
v -0.871435 -0.944693 -2.814892
v 0.871436 -0.944693 -2.814892
v -1.266490 -0.008758 -2.783692
v 0.000000 1.092390 -2.840232
v 1.266490 -0.008758 -2.783692
v 0.000000 -1.249710 -2.840232
v -3.037220 1.157600 -0.291054
v -2.731890 1.871150 -0.291054
v -3.082320 1.048690 -1.507509
v -3.174540 0.811721 -0.902541
v -2.568380 2.206520 -0.902541
v -2.686730 1.980220 -1.507509
v 2.721760 1.866640 -0.291054
v 3.027090 1.153080 -0.291054
v 3.072190 1.044170 -1.507509
v 3.164410 0.807203 -0.902541
v 2.558250 2.202000 -0.902541
v 2.676600 1.975700 -1.507509
v -2.564970 -2.182910 -0.291054
v -2.870300 -1.469360 -0.291054
v -2.915400 -1.360450 -1.507509
v -3.007620 -1.123480 -0.902541
v -2.401460 -2.518280 -0.902541
v -2.519800 -2.291980 -1.507509
v -0.477317 -2.927270 -0.710861
v 0.000000 -2.867510 -0.247356
v 0.477318 -2.927270 -0.710861
v 0.000000 -2.939290 -1.234566
v 2.870300 -1.469360 -0.291054
v 2.564970 -2.182910 -0.291054
v 2.915400 -1.360450 -1.507509
v 2.519810 -2.291980 -1.507509
v 3.007620 -1.123480 -0.902541
v 2.401460 -2.518280 -0.902541
v 0.636737 -0.635658 -9.486702
v 0.000000 -0.813641 -9.486702
v 0.815023 0.000000 -9.486702
v 0.000000 0.813642 -9.486702
v 0.636737 0.635658 -9.486702
v -0.636737 -0.635658 -9.486702
v -0.636737 0.635658 -9.486702
v -0.815023 0.000000 -9.486702
v -0.740985 0.000000 -4.132992
v 0.000000 0.739730 -4.132992
v 0.740985 0.000000 -4.132992
v 0.000000 -0.739730 -4.132992
v -0.446142 0.000000 -5.906932
v 0.000000 -0.445386 -5.906932
v 0.446142 0.000000 -5.906932
v 0.000000 0.445385 -5.906932
v 0.000000 0.445385 -7.642062
v -0.446142 0.000000 -7.642062
v 0.446142 0.000000 -7.642062
v 0.000000 -0.445386 -7.642062
v -1.652720 -0.005238 -12.385452
v -1.017940 -1.128750 -12.360452
v -1.017940 1.118270 -12.360452
v 0.000000 -1.604980 -12.278952
v 0.000000 1.594500 -12.278952
v 1.652720 -0.005238 -12.385452
v 1.017940 -1.128750 -12.360452
v 1.017940 1.118270 -12.360452
vt 0.423546 0.111439
vt 0.368521 0.100729
vt 0.378620 0.062239
vt 0.398261 0.140573
vt 0.500000 0.154059
vt 0.433105 0.173703
vt 0.500000 0.175183
vt 0.500000 0.250656
vt 0.566895 0.173703
vt 0.556881 0.250656
vt 0.597220 0.171881
vt 0.621985 0.151270
vt 0.601739 0.137301
vt 0.647326 0.111439
vt 0.631479 0.100729
vt 0.645232 0.100654
vt 0.621380 0.062239
vt 0.635387 0.062190
vt 0.648667 0.023495
vt 0.684345 0.062057
vt 0.696896 0.026358
vt 0.749417 0.029513
vt 0.720334 0.026358
vt 0.769487 0.029513
vt 0.730875 0.062057
vt 0.779974 0.061899
vt 0.772695 0.094030
vt 0.746293 0.094030
vt 0.723797 0.097376
vt 0.693429 0.097376
vt 0.738957 0.061899
vt 0.670900 0.023495
vt 0.680663 0.062190
vt 0.674341 0.100654
vt 0.666238 0.062239
vt 0.660169 0.100729
vt 0.661815 0.111439
vt 0.686377 0.100654
vt 0.692699 0.062190
vt 0.742911 0.062057
vt 0.682936 0.023495
vt 0.732370 0.026358
vt 0.660703 0.023495
vt 0.708932 0.026358
vt 0.696381 0.062057
vt 0.761573 0.029513
vt 0.751114 0.061899
vt 0.792010 0.061899
vt 0.758449 0.094030
vt 0.784731 0.094030
vt 0.735833 0.097376
vt 0.657268 0.100654
vt 0.705465 0.097376
vt 0.781523 0.029513
vt 0.601739 0.140573
vt 0.576454 0.111439
vt 0.656742 0.023581
vt 0.661815 0.023810
vt 0.500000 0.000000
vt 0.500000 0.003784
vt 0.634909 0.023807
vt 0.576457 0.023807
vt 0.582570 0.062239
vt 0.576454 0.107987
vt 0.500000 0.081442
vt 0.500000 0.107987
vt 0.423546 0.107987
vt 0.500000 0.149155
vt 0.398261 0.137301
vt 0.378015 0.151270
vt 0.402780 0.171881
vt 0.443119 0.250656
vt 0.352674 0.111439
vt 0.338185 0.111439
vt 0.339831 0.100729
vt 0.333762 0.062239
vt 0.312845 0.100654
vt 0.306523 0.062190
vt 0.256311 0.062057
vt 0.316286 0.023495
vt 0.266852 0.026358
vt 0.338520 0.023495
vt 0.290290 0.026358
vt 0.302842 0.062057
vt 0.237642 0.029513
vt 0.248101 0.061899
vt 0.207212 0.061899
vt 0.240765 0.094030
vt 0.214492 0.094030
vt 0.263390 0.097376
vt 0.341954 0.100654
vt 0.293757 0.097376
vt 0.217700 0.029513
vt 0.351800 0.062190
vt 0.365090 0.023581
vt 0.343258 0.023581
vt 0.338185 0.023810
vt 0.325240 0.062239
vt 0.325659 0.100654
vt 0.354768 0.100654
vt 0.417430 0.062239
vt 0.463359 0.050867
vt 0.476464 0.050837
vt 0.500000 0.023807
vt 0.499994 0.034069
vt 0.523536 0.050847
vt 0.500000 0.050772
vt 0.500006 0.067185
vt 0.536641 0.050867
vt 0.329100 0.023495
vt 0.351333 0.023495
vt 0.279666 0.026358
vt 0.303104 0.026358
vt 0.250583 0.029513
vt 0.315655 0.062057
vt 0.261043 0.061899
vt 0.253707 0.094030
vt 0.220026 0.061899
vt 0.227305 0.094030
vt 0.269125 0.062057
vt 0.276204 0.097376
vt 0.306571 0.097376
vt 0.364613 0.062190
vt 0.365091 0.023807
vt 0.423543 0.023807
vt 0.230513 0.029513
vt 0.319337 0.062190
vt 0.647423 0.062190
vt 0.634910 0.023581
vt 0.674760 0.062239
vt 0.548878 0.563212
vt 0.534247 0.455520
vt 0.562564 0.563212
vt 0.500000 0.455520
vt 0.500000 0.563212
vt 0.451122 0.563212
vt 0.465753 0.455520
vt 0.437436 0.563212
vt 0.003141 0.175368
vt 0.001732 0.370084
vt 0.702966 0.197283
vt 0.691745 0.360204
vt 0.656159 0.467431
vt 0.484375 0.565104
vt 0.000324 0.564801
vt 0.000324 0.699588
vt 0.524876 0.691778
vt 0.713542 0.617188
vt 0.514292 0.792805
vt 0.003141 0.806240
vt 0.004549 0.892541
vt 0.262713 0.928240
vt 0.500000 0.459897
vt 0.500000 0.928240
vt 0.262713 0.459897
vt 0.042841 0.043581
vt 0.500000 0.043581
vt 0.957159 0.043581
vt 0.737287 0.459897
vt 0.737287 0.928240
vt 0.002018 0.110893
vt 0.402563 0.097077
vt 0.002001 -0.002388
vt 0.343076 0.191727
vt 0.002052 0.345527
vt 0.256702 0.411775
vt 0.511352 0.478023
vt 0.684135 0.272560
vt 0.402562 0.097077
vt 0.989717 0.628516
vt 0.635145 0.993614
vt 0.998239 0.995515
vt 0.986152 0.393517
vt 0.803124 0.196543
vt 0.144197 0.702638
vt 0.205239 0.995630
vt 0.002102 0.696680
vt 0.635270 0.993614
vt 0.448851 0.877796
vt 0.400844 0.918346
vt 0.366342 0.829964
vt 0.427665 0.829964
vt 0.551149 0.806584
vt 0.572335 0.829964
vt 0.633658 0.829964
vt 0.622195 0.793959
vt 0.500000 0.993272
vt 0.445960 0.946522
vt 0.500000 0.954955
vt 0.432302 0.982497
vt 0.500000 1.000000
vt 0.429513 0.988240
vt 0.554040 0.946522
vt 0.567698 0.982497
vt 0.599156 0.918346
vt 0.626652 0.955480
vt 0.373348 0.955480
vt 0.570487 0.988240
vt 0.321874 0.829964
vt 0.317183 0.855062
vt 0.328704 0.889942
vt 0.310979 0.829964
vt 0.343195 0.780151
vt 0.330277 0.769686
vt 0.338413 0.920682
vt 0.368131 0.960237
vt 0.376583 0.793959
vt 0.448851 0.806584
vt 0.500000 0.757350
vt 0.500000 0.793984
vt 0.500000 0.829964
vt 0.551149 0.877796
vt 0.678148 0.889942
vt 0.661587 0.920682
vt 0.631869 0.960237
vt 0.500000 0.897608
vt 0.623417 0.793959
vt 0.377805 0.793959
vt 0.656805 0.780151
vt 0.672782 0.829964
vt 0.689021 0.829964
vt 0.682817 0.855062
vt 0.669723 0.769686
vt 0.919837 0.006793
vt 0.968750 0.998079
vt 0.957880 0.006793
vt 0.931625 0.998079
vt 0.881793 0.006793
vt 0.894500 0.998079
vt 0.944973 0.024457
vt 0.906250 0.998641
vt 0.900815 0.024457
vt 0.951766 0.999321
vt 0.989130 0.024457
vt 0.997283 1.000000
vt 0.149445 0.941544
vt 0.438793 0.824295
vt 0.437502 0.949796
vt 0.226722 0.819470
vt 0.027497 0.923035
vt 0.136906 0.809918
vt 0.725668 0.947470
vt 0.650918 0.823832
vt 0.847970 0.931472
vt 0.740911 0.816130
vt 0.405444 0.153336
vt 0.615950 0.151496
vt 0.705296 0.139352
vt 0.195021 0.147167
vt 0.105944 0.133188
vt 0.802989 0.021739
vt 0.798913 0.998641
vt 0.725543 1.000000
vt 0.724185 0.021739
vt 0.634511 0.021739
vt 0.634511 0.998641
vt 0.527174 0.991848
vt 0.565217 0.008152
vt 0.543478 0.006793
vt 0.539521 0.997758
vt 0.666548 0.996158
vt 0.645991 0.007143
vt 0.760814 0.007498
vt 0.778533 0.997283
vt 0.500962 0.999977
vt 0.499038 0.000026
vt 0.262285 1.000440
vt 0.739639 0.999518
vt 0.843103 -0.000635
vt 0.999038 -0.000979
vt 0.154974 0.000688
vt -0.000961 0.000944
vt 0.404731 0.910245
vt 0.595767 0.940948
vt 0.213103 0.937013
vt 0.050510 0.973255
vt 0.051544 0.872738
vt 0.757580 0.980527
vt 0.758614 0.880009
vt 1.335540 0.936009
vt 1.495820 0.855653
vt 1.495820 0.936009
vt 1.335540 0.855653
vt 1.175270 0.936009
vt 1.175270 0.855653
vt -0.018807 0.837767
vt -0.018807 0.965695
vt -0.265827 0.899782
vt 0.381876 0.795723
vt 0.381876 1.007140
vt 0.756289 0.980951
vt 0.756289 0.820120
vt -0.018806 0.965695
vt -0.018806 0.837767
vt -0.265826 0.899782
vt 0.031250 0.806250
vt 0.871939 0.042267
vt 0.976845 0.101601
vt 1.000000 0.358286
vt 0.929161 0.614972
vt 0.824591 0.850764
vt 0.716485 1.000000
vt 0.128061 0.042267
vt 0.023155 0.101601
vt -0.000000 0.358286
vt 0.070839 0.614972
vt 0.175409 0.850764
vt 0.283515 1.000000
vt 0.824590 0.850764
vt 0.147690 0.041134
vt 0.522256 0.000000
vt 0.522255 0.000000
vt 0.039098 0.100118
vt 0.000001 0.356569
vt 0.000000 0.356569
vt 0.054896 0.613300
vt 0.144821 0.849251
vt 0.243657 0.998713
vt 0.891568 0.043346
vt 0.992790 0.102954
vt 1.000000 0.359543
vt 0.913218 0.615852
vt 0.794003 0.851182
vt 0.794002 0.851182
vt 0.676627 1.000000
vt 0.136132 0.041801
vt 0.509151 0.000000
vt 0.029711 0.100991
vt -0.000000 0.357580
vt 0.064284 0.614284
vt 0.162832 0.850142
vt 0.267126 0.999470
vt 0.880010 0.042711
vt 0.983401 0.102157
vt 1.000000 0.358803
vt 0.922605 0.615334
vt 0.812013 0.850936
vt 0.700096 1.000000
vt 0.141910 0.041467
vt 0.515702 0.000000
vt 0.141911 0.041468
vt 0.034405 0.100553
vt 0.034404 0.100553
vt 0.000000 0.357074
vt 0.059590 0.613792
vt 0.153827 0.849697
vt 0.255392 0.999091
vt 0.885788 0.043028
vt 0.988094 0.102555
vt 0.988093 0.102555
vt 1.000000 0.359173
vt 0.917911 0.615593
vt 0.803007 0.851059
vt 0.688361 1.000000
vt 0.127473 0.042299
vt 0.499333 0.000000
vt 0.022677 0.101641
vt 0.022678 0.101641
vt -0.000000 0.358324
vt 0.071317 0.614998
vt 0.176326 0.850777
vt 0.284709 1.000000
vt 0.871352 0.042233
vt 0.871351 0.042233
vt 0.976367 0.101556
vt 1.000000 0.358235
vt 0.929638 0.614921
vt 0.825507 0.850719
vt 0.717679 0.999961
vt 0.871939 0.042268
vt 0.929160 0.614972
usemtl mat_0
s 1
f 2/1 1/2 4/3
f 3/1 1/4 2/2
f 11/5 3/4 2/1
f 11/5 478/6 3/4
f 483/7 478/6 11/5
f 483/7 523/8 478/6
f 479/9 523/8 483/7
f 479/9 524/10 523/8
f 484/11 524/10 479/9
f 484/11 481/9 524/10
f 33/12 481/9 484/11
f 33/12 50/13 481/9
f 49/14 50/13 33/12
f 49/14 65/15 50/13
f 110/16 65/15 49/14
f 110/16 67/17 65/15
f 113/18 67/17 110/16
f 113/18 109/19 67/17
f 513/20 109/19 113/18
f 513/20 509/21 109/19
f 105/22 509/21 513/20
f 105/22 508/23 509/21
f 104/24 508/23 105/22
f 104/24 512/25 508/23
f 103/26 512/25 104/24
f 103/26 107/27 512/25
f 106/28 107/27 103/26
f 106/28 510/29 107/27
f 511/30 510/29 106/28
f 511/30 110/16 510/29
f 513/20 110/16 511/30
f 513/20 113/18 110/16
f 105/22 103/26 104/24
f 105/22 108/31 103/26
f 513/20 108/31 105/22
f 513/20 106/28 108/31
f 511/30 106/28 513/20
f 103/26 108/31 106/28
f 508/23 109/19 509/21
f 508/23 112/32 109/19
f 512/25 112/32 508/23
f 512/25 114/33 112/32
f 111/34 114/33 512/25
f 111/34 68/35 114/33
f 71/36 68/35 111/34
f 71/36 34/37 68/35
f 49/14 34/37 71/36
f 49/14 33/12 34/37
f 21/14 34/37 33/12
f 21/14 25/36 34/37
f 81/38 25/36 21/14
f 81/38 85/39 25/36
f 495/40 85/39 81/38
f 495/40 83/41 85/39
f 493/42 83/41 495/40
f 493/42 80/43 83/41
f 492/44 80/43 493/42
f 492/44 496/45 80/43
f 76/46 496/45 492/44
f 76/46 75/47 496/45
f 74/48 75/47 76/46
f 74/48 77/49 75/47
f 78/50 77/49 74/48
f 78/50 494/51 77/49
f 495/40 494/51 78/50
f 495/40 81/38 494/51
f 82/52 494/51 81/38
f 82/52 497/53 494/51
f 496/45 497/53 82/52
f 496/45 77/49 497/53
f 75/47 77/49 496/45
f 494/51 497/53 77/49
f 493/42 76/46 492/44
f 493/42 79/54 76/46
f 495/40 79/54 493/42
f 495/40 74/48 79/54
f 78/50 74/48 495/40
f 76/46 79/54 74/48
f 21/14 82/52 81/38
f 21/14 19/15 82/52
f 17/55 19/15 21/14
f 17/55 18/56 19/15
f 11/5 18/56 17/55
f 17/55 479/9 11/5
f 33/12 479/9 17/55
f 33/12 484/11 479/9
f 33/12 17/55 21/14
f 479/9 483/7 11/5
f 510/29 512/25 107/27
f 510/29 111/34 512/25
f 110/16 111/34 510/29
f 110/16 49/14 111/34
f 71/36 111/34 49/14
f 68/35 112/32 114/33
f 68/35 69/57 112/32
f 36/58 69/57 68/35
f 36/58 32/59 69/57
f 61/60 69/57 32/59
f 61/60 72/61 69/57
f 73/62 72/61 61/60
f 73/62 67/17 72/61
f 70/63 67/17 73/62
f 70/63 66/64 67/17
f 507/65 66/64 70/63
f 507/65 64/66 66/64
f 52/67 64/66 507/65
f 52/67 59/68 64/66
f 51/69 59/68 52/67
f 51/69 480/6 59/68
f 28/70 480/6 51/69
f 28/70 482/71 480/6
f 478/6 482/71 28/70
f 478/6 522/72 482/71
f 523/8 522/72 478/6
f 28/70 3/4 478/6
f 28/70 10/73 3/4
f 29/74 10/73 28/70
f 29/74 13/75 10/73
f 5/76 13/75 29/74
f 5/76 45/77 13/75
f 48/78 45/77 5/76
f 48/78 489/79 45/77
f 46/80 489/79 48/78
f 46/80 486/81 489/79
f 43/82 486/81 46/80
f 43/82 487/83 486/81
f 490/84 487/83 43/82
f 490/84 39/85 487/83
f 42/86 39/85 490/84
f 42/86 37/87 39/85
f 40/88 37/87 42/86
f 40/88 41/89 37/87
f 488/90 41/89 40/88
f 488/90 489/79 41/89
f 45/77 489/79 488/90
f 488/90 44/91 45/77
f 491/92 44/91 488/90
f 491/92 490/84 44/91
f 40/88 490/84 491/92
f 40/88 42/86 490/84
f 40/88 491/92 488/90
f 39/85 486/81 487/83
f 39/85 38/93 486/81
f 37/87 38/93 39/85
f 37/87 489/79 38/93
f 41/89 489/79 37/87
f 489/79 486/81 38/93
f 10/73 1/2 3/4
f 44/73 1/91 10/2
f 45/77 44/91 10/73
f 10/73 13/75 45/77
f 4/91 1/3 44/2
f 44/91 47/94 4/3
f 490/84 47/94 44/91
f 490/84 43/82 47/94
f 4/3 47/94 43/82
f 43/82 15/95 4/3
f 46/80 15/95 43/82
f 46/80 16/96 15/95
f 48/78 16/96 46/80
f 48/78 5/76 16/96
f 31/97 16/96 5/76
f 5/76 30/98 31/97
f 29/74 30/98 5/76
f 29/74 56/76 30/98
f 62/75 56/76 29/74
f 62/75 93/99 56/76
f 55/73 93/99 62/75
f 55/73 94/100 93/99
f 53/2 94/100 55/73
f 53/2 54/3 94/100
f 52/67 54/3 53/2
f 52/67 58/101 54/3
f 507/65 58/101 52/67
f 507/65 504/102 58/101
f 100/103 504/102 507/65
f 100/103 505/104 504/102
f 101/105 505/104 100/103
f 101/105 102/106 505/104
f 99/107 102/106 101/105
f 99/107 98/108 102/106
f 100/103 98/108 99/107
f 100/103 507/65 98/108
f 102/106 98/108 507/65
f 507/65 506/109 102/106
f 70/63 506/109 507/65
f 70/63 73/62 506/109
f 505/104 506/109 73/62
f 505/104 102/106 506/109
f 100/103 99/107 101/105
f 53/2 51/69 52/67
f 53/2 55/73 51/69
f 28/70 51/69 55/73
f 55/73 29/74 28/70
f 62/75 29/74 55/73
f 56/76 31/97 30/98
f 56/76 63/96 31/97
f 95/110 63/96 56/76
f 95/110 92/111 63/96
f 499/112 92/111 95/110
f 499/112 498/113 92/111
f 88/114 498/113 499/112
f 88/114 502/115 498/113
f 87/116 502/115 88/114
f 87/116 89/117 502/115
f 86/118 89/117 87/116
f 86/118 90/119 89/117
f 501/120 90/119 86/118
f 501/120 500/121 90/119
f 93/99 500/121 501/120
f 93/99 94/100 500/121
f 503/122 500/121 94/100
f 503/122 89/117 500/121
f 502/115 89/117 503/122
f 503/122 94/100 502/115
f 96/123 502/115 94/100
f 96/123 92/111 502/115
f 54/3 92/111 96/123
f 54/3 60/124 92/111
f 57/125 60/124 54/3
f 57/125 61/60 60/124
f 505/104 61/60 57/125
f 505/104 73/62 61/60
f 89/117 90/119 500/121
f 54/3 96/123 94/100
f 92/111 498/113 502/115
f 88/114 86/118 87/116
f 88/114 91/126 86/118
f 499/112 91/126 88/114
f 499/112 501/120 91/126
f 95/110 501/120 499/112
f 95/110 97/127 501/120
f 56/76 97/127 95/110
f 56/76 93/99 97/127
f 501/120 97/127 93/99
f 501/120 86/118 91/126
f 58/101 57/125 54/3
f 58/101 504/102 57/125
f 505/104 57/125 504/102
f 66/64 65/15 67/17
f 66/64 50/13 65/15
f 59/68 50/13 66/64
f 59/68 481/9 50/13
f 485/7 481/9 59/68
f 485/7 525/8 481/9
f 480/6 525/8 485/7
f 480/6 522/72 525/8
f 482/71 522/72 480/6
f 66/64 64/66 59/68
f 480/6 485/7 59/68
f 481/9 525/8 524/10
f 72/61 112/32 69/57
f 72/61 109/19 112/32
f 67/17 109/19 72/61
f 60/124 63/96 92/111
f 60/124 61/60 63/96
f 32/59 63/96 61/60
f 32/59 31/97 63/96
f 20/17 19/15 18/56
f 20/17 82/52 19/15
f 84/128 82/52 20/17
f 84/128 496/45 82/52
f 80/43 496/45 84/128
f 84/128 20/17 80/43
f 26/129 80/43 20/17
f 26/129 83/41 80/43
f 27/57 83/41 26/129
f 27/57 22/35 83/41
f 36/58 22/35 27/57
f 36/58 35/130 22/35
f 68/35 35/130 36/58
f 68/35 34/37 35/130
f 22/35 35/130 34/37
f 34/37 25/36 22/35
f 85/39 22/35 25/36
f 85/39 83/41 22/35
f 518/131 532/132 516/133
f 518/131 530/134 532/132
f 517/135 530/134 518/131
f 517/135 520/136 530/134
f 531/137 530/134 520/136
f 520/136 521/138 531/137
f 519/136 531/137 521/138
f 519/136 533/134 531/137
f 515/135 533/134 519/136
f 515/135 514/131 533/134
f 532/132 533/134 514/131
f 514/131 516/133 532/132
usemtl mat_1
f 32/139 6/140 31/141
f 32/139 36/141 6/140
f 27/142 6/140 36/141
f 27/142 26/143 6/140
f 24/144 6/140 26/143
f 24/144 14/145 6/140
f 8/146 14/145 24/144
f 8/146 9/144 14/145
f 7/147 9/144 8/146
f 7/147 4/148 9/144
f 2/149 4/148 7/147
f 7/147 8/146 2/149
f 12/150 2/149 8/146
f 12/150 11/151 2/149
f 18/149 11/151 12/150
f 12/150 8/146 18/149
f 23/147 18/149 8/146
f 23/147 20/148 18/149
f 24/144 20/148 23/147
f 24/144 26/143 20/148
f 24/144 23/147 8/146
f 9/144 6/140 14/145
f 9/144 15/143 6/140
f 4/148 15/143 9/144
f 16/142 6/140 15/143
f 16/142 31/141 6/140
usemtl mat_2
f 531/152 529/153 530/154
f 531/152 526/155 529/153
f 527/153 526/155 531/152
f 527/153 522/156 526/155
f 525/157 522/156 527/153
f 527/153 524/158 525/157
f 528/159 524/158 527/153
f 528/159 529/153 524/158
f 532/160 529/153 528/159
f 532/160 530/154 529/153
f 527/153 532/160 528/159
f 527/153 533/154 532/160
f 531/152 533/154 527/153
f 522/156 529/153 526/155
f 522/156 523/157 529/153
f 524/158 529/153 523/157
usemtl mat_3
f 193/161 191/162 192/163
f 193/161 194/164 191/162
f 197/165 194/164 193/161
f 197/165 195/166 194/164
f 196/167 142/168 194/164
f 195/166 196/167 194/164
f 247/164 192/163 248/169
f 247/164 193/161 192/163
f 250/166 193/161 247/164
f 250/166 197/165 193/161
f 203/168 249/167 250/166
f 247/164 203/168 250/166
f 165/170 176/171 167/172
f 165/170 196/167 176/171
f 142/168 196/167 165/170
f 165/170 140/173 142/168
f 141/174 142/168 140/173
f 141/174 191/162 142/168
f 194/164 142/168 191/162
f 176/171 177/175 168/176
f 176/171 196/167 177/175
f 195/166 177/175 196/167
f 195/166 198/177 177/175
f 197/165 198/177 195/166
f 197/165 250/166 198/177
f 240/175 198/177 250/166
f 250/166 249/167 240/175
f 236/178 240/175 249/167
f 236/178 233/176 240/175
f 236/178 228/170 231/172
f 236/178 249/167 228/170
f 203/168 228/170 249/167
f 203/168 205/173 228/170
f 204/174 205/173 203/168
f 203/168 248/169 204/174
f 247/164 248/169 203/168
usemtl mat_4
f 173/179 174/180 172/181
f 171/182 173/179 172/181
f 263/183 233/184 236/185
f 268/186 263/183 236/185
f 181/187 180/188 179/189
f 181/187 182/190 180/188
f 200/191 182/190 181/187
f 200/191 199/192 182/190
f 242/193 181/187 179/189
f 242/193 241/194 181/187
f 238/195 241/194 242/193
f 238/195 206/196 241/194
f 145/197 174/180 180/188
f 182/190 145/197 180/188
f 200/191 181/187 241/194
f 251/198 200/191 241/194
f 167/199 166/200 165/201
f 167/199 155/202 166/200
f 259/203 155/202 167/199
f 259/203 258/204 155/202
f 257/203 155/202 258/204
f 257/203 156/199 155/202
f 172/181 156/199 257/203
f 172/181 144/201 156/199
f 174/180 144/201 172/181
f 174/180 145/197 144/201
f 143/205 144/201 145/197
f 145/197 175/206 143/205
f 199/192 175/206 145/197
f 145/197 182/190 199/192
f 156/199 154/200 155/202
f 156/199 144/201 154/200
f 262/207 172/181 257/203
f 262/207 254/208 172/181
f 256/209 254/208 262/207
f 256/209 255/210 254/208
f 264/183 255/210 256/209
f 264/183 170/211 255/210
f 234/184 170/211 264/183
f 234/184 237/212 170/211
f 235/185 237/212 234/184
f 235/185 238/195 237/212
f 207/213 238/195 235/185
f 207/213 206/196 238/195
f 208/214 206/196 207/213
f 208/214 239/215 206/196
f 251/198 206/196 239/215
f 251/198 241/194 206/196
f 170/211 254/208 255/210
f 170/211 171/182 254/208
f 173/179 171/182 170/211
f 170/211 178/216 173/179
f 237/212 178/216 170/211
f 237/212 242/193 178/216
f 238/195 242/193 237/212
f 254/208 171/182 172/181
f 264/183 235/185 234/184
f 264/183 269/217 235/185
f 256/209 269/217 264/183
f 167/199 253/218 259/203
f 167/199 176/181 253/218
f 168/182 253/218 176/181
f 168/182 252/208 253/218
f 169/211 252/208 168/182
f 169/211 261/210 252/208
f 263/183 261/210 169/211
f 263/183 260/209 261/210
f 268/186 260/209 263/183
f 260/209 252/208 261/210
f 260/209 253/218 252/208
f 177/179 169/211 168/182
f 177/179 198/216 169/211
f 240/212 169/211 198/216
f 240/212 233/184 169/211
f 263/183 169/211 233/184
f 179/189 178/216 242/193
f 179/189 180/188 178/216
f 173/179 178/216 180/188
f 180/188 174/180 173/179
f 266/219 235/185 269/217
f 266/219 219/220 235/185
f 220/221 219/220 266/219
f 220/221 221/222 219/220
f 207/213 219/220 221/222
f 207/213 235/185 219/220
f 265/223 220/221 266/219
f 265/223 267/219 220/221
f 231/220 220/221 267/219
f 231/220 232/222 220/221
f 228/213 232/222 231/220
f 267/219 236/185 231/220
f 267/219 268/186 236/185
usemtl mat_5
f 184/224 200/225 186/226
f 184/224 199/227 200/225
f 201/228 199/227 184/224
f 201/228 175/229 199/227
f 190/230 141/231 148/232
f 190/230 191/233 141/231
f 188/234 191/233 190/230
f 188/234 192/235 191/233
f 244/230 192/235 188/234
f 244/230 248/233 192/235
f 209/232 248/233 244/230
f 209/232 204/231 248/233
f 130/236 128/237 129/238
f 130/236 127/239 128/237
f 132/240 127/239 130/236
f 132/240 126/241 127/239
f 137/236 126/241 132/240
f 137/236 135/239 126/241
f 138/238 135/239 137/236
f 138/238 136/237 135/239
f 139/242 136/237 138/238
f 139/242 134/243 136/237
f 133/244 134/243 139/242
f 133/244 125/245 134/243
f 131/242 125/245 133/244
f 131/242 123/243 125/245
f 129/238 123/243 131/242
f 129/238 128/237 123/243
f 131/242 534/246 129/238
f 131/242 536/247 534/246
f 133/244 536/247 131/242
f 133/244 538/248 536/247
f 139/242 538/248 133/244
f 139/242 541/247 538/248
f 138/238 541/247 139/242
f 138/238 539/246 541/247
f 137/236 539/246 138/238
f 137/236 540/249 539/246
f 132/240 540/249 137/236
f 132/240 537/250 540/249
f 130/236 537/250 132/240
f 130/236 535/249 537/250
f 129/238 535/249 130/236
f 129/238 534/246 535/249
f 251/227 186/226 200/225
f 251/227 246/224 186/226
f 239/229 246/224 251/227
f 239/229 214/228 246/224
f 141/231 146/251 148/232
f 141/231 140/252 146/251
f 165/253 146/251 140/252
f 165/253 163/254 146/251
f 162/255 163/254 165/253
f 165/253 166/256 162/255
f 155/257 162/255 166/256
f 155/257 159/258 162/255
f 157/259 159/258 155/257
f 155/257 154/260 157/259
f 144/261 157/259 154/260
f 144/261 151/262 157/259
f 153/263 151/262 144/261
f 144/261 143/264 153/263
f 175/229 153/263 143/264
f 175/229 201/228 153/263
f 211/251 204/231 209/232
f 211/251 205/252 204/231
f 228/253 205/252 211/251
f 211/251 229/254 228/253
f 227/255 228/253 229/254
f 227/255 232/256 228/253
f 220/257 232/256 227/255
f 227/255 222/258 220/257
f 224/259 220/257 222/258
f 224/259 221/260 220/257
f 207/261 221/260 224/259
f 224/259 215/262 207/261
f 217/263 207/261 215/262
f 217/263 208/264 207/261
f 239/229 208/264 217/263
f 217/263 214/228 239/229
f 515/265 115/266 514/267
f 515/265 519/268 115/266
f 119/269 115/266 519/268
f 519/268 118/270 119/269
f 521/268 118/270 519/268
f 521/268 520/268 118/270
f 120/269 118/270 520/268
f 520/268 117/266 120/269
f 517/265 117/266 520/268
f 517/265 518/267 117/266
f 122/271 117/266 518/267
f 518/267 116/272 122/271
f 516/267 116/272 518/267
f 516/267 514/267 116/272
f 121/271 116/272 514/267
f 514/267 115/266 121/271
f 258/273 534/246 257/274
f 258/273 259/275 534/246
f 535/249 534/246 259/275
f 259/275 253/276 535/249
f 260/277 535/249 253/276
f 260/277 537/250 535/249
f 540/249 537/250 260/277
f 260/277 268/276 540/249
f 267/275 540/249 268/276
f 267/275 539/246 540/249
f 265/273 539/246 267/275
f 265/273 266/274 539/246
f 541/247 539/246 266/274
f 266/274 269/278 541/247
f 256/279 541/247 269/278
f 256/279 538/248 541/247
f 536/247 538/248 256/279
f 256/279 262/278 536/247
f 257/274 536/247 262/278
f 257/274 534/246 536/247
usemtl mat_6
f 189/280 185/281 187/282
f 189/280 183/283 185/281
f 149/284 183/283 189/280
f 149/284 202/285 183/283
f 245/283 187/282 185/281
f 245/283 243/280 187/282
f 213/285 243/280 245/283
f 213/285 210/284 243/280
f 158/286 161/287 160/288
f 158/286 150/289 161/287
f 164/290 161/287 150/289
f 150/289 147/291 164/290
f 152/292 147/291 150/289
f 152/292 202/285 147/291
f 149/284 147/291 202/285
f 213/285 212/291 210/284
f 213/285 218/292 212/291
f 216/289 212/291 218/292
f 216/289 230/290 212/291
f 226/293 230/290 216/289
f 216/289 225/294 226/293
f 223/295 226/293 225/294
f 124/296 125/296 123/296
f 124/296 134/296 125/296
f 136/296 134/296 124/296
f 124/296 135/296 136/296
f 126/296 135/296 124/296
f 124/296 127/296 126/296
f 128/296 127/296 124/296
f 124/296 123/296 128/296
usemtl mat_7
f 273/297 271/59 272/59
f 273/297 270/297 271/59
f 279/298 270/297 273/297
f 279/298 278/298 270/297
f 283/299 278/298 279/298
f 283/299 282/299 278/298
f 287/300 282/299 283/299
f 287/300 286/300 282/299
f 294/301 286/300 287/300
f 294/301 293/301 286/300
f 295/302 293/301 294/301
f 295/302 292/302 293/301
f 274/303 272/59 271/59
f 274/303 275/303 272/59
f 276/304 275/303 274/303
f 276/304 277/304 275/303
f 280/305 277/304 276/304
f 280/305 281/305 277/304
f 284/306 281/305 280/305
f 284/306 285/306 281/305
f 288/307 285/306 284/306
f 288/307 289/307 285/306
f 290/308 289/307 288/307
f 290/308 291/308 289/307
f 278/298 274/303 270/297
f 278/298 276/304 274/303
f 282/299 276/304 278/298
f 282/299 280/305 276/304
f 286/300 280/305 282/299
f 286/300 284/306 280/305
f 293/301 284/306 286/300
f 293/301 288/307 284/306
f 292/302 288/307 293/301
f 292/302 290/308 288/307
f 294/301 291/308 295/302
f 294/301 289/307 291/308
f 287/300 289/307 294/301
f 287/300 285/306 289/307
f 283/299 285/306 287/300
f 283/299 281/305 285/306
f 279/298 281/305 283/299
f 279/298 277/304 281/305
f 273/297 277/304 279/298
f 273/297 275/303 277/304
f 273/297 272/59 275/303
f 274/303 271/59 270/297
f 299/297 297/59 298/59
f 299/297 296/297 297/59
f 305/298 296/297 299/297
f 305/298 304/298 296/297
f 309/299 304/298 305/298
f 309/299 308/299 304/298
f 313/300 308/299 309/299
f 313/300 312/300 308/299
f 320/309 312/300 313/300
f 320/309 319/309 312/300
f 321/302 319/309 320/309
f 321/302 318/302 319/309
f 300/303 298/59 297/59
f 300/303 301/303 298/59
f 302/304 301/303 300/303
f 302/304 303/304 301/303
f 306/305 303/304 302/304
f 306/305 307/305 303/304
f 310/306 307/305 306/305
f 310/306 311/306 307/305
f 314/307 311/306 310/306
f 314/307 315/307 311/306
f 316/308 315/307 314/307
f 316/308 317/308 315/307
f 304/298 300/303 296/297
f 304/298 302/304 300/303
f 308/299 302/304 304/298
f 308/299 306/305 302/304
f 312/300 306/305 308/299
f 312/300 310/306 306/305
f 319/309 310/306 312/300
f 319/309 314/307 310/306
f 318/302 314/307 319/309
f 318/302 316/308 314/307
f 320/309 317/308 321/302
f 320/309 315/307 317/308
f 313/300 315/307 320/309
f 313/300 311/306 315/307
f 309/299 311/306 313/300
f 309/299 307/305 311/306
f 305/298 307/305 309/299
f 305/298 303/304 307/305
f 299/297 303/304 305/298
f 299/297 301/303 303/304
f 299/297 298/59 301/303
f 300/303 297/59 296/297
f 327/310 325/311 326/312
f 327/310 324/310 325/311
f 332/313 324/310 327/310
f 332/313 333/313 324/310
f 337/314 333/313 332/313
f 337/314 336/315 333/313
f 341/316 336/315 337/314
f 341/316 340/316 336/315
f 347/317 340/316 341/316
f 347/317 346/317 340/316
f 323/318 346/317 347/317
f 323/318 322/318 346/317
f 328/319 326/312 325/311
f 328/319 329/319 326/312
f 330/320 329/319 328/319
f 330/320 331/320 329/319
f 334/321 331/320 330/320
f 334/321 335/321 331/320
f 338/322 335/321 334/321
f 338/322 339/322 335/321
f 342/323 339/322 338/322
f 342/323 343/324 339/322
f 344/325 343/324 342/323
f 344/325 345/325 343/324
f 331/320 327/310 329/319
f 331/320 332/313 327/310
f 335/321 332/313 331/320
f 335/321 337/314 332/313
f 339/322 337/314 335/321
f 339/322 341/316 337/314
f 343/324 341/316 339/322
f 343/324 347/317 341/316
f 345/325 347/317 343/324
f 345/325 323/318 347/317
f 342/323 322/318 344/325
f 342/323 346/317 322/318
f 338/322 346/317 342/323
f 338/322 340/316 346/317
f 334/321 340/316 338/322
f 334/321 336/315 340/316
f 330/320 336/315 334/321
f 330/320 333/313 336/315
f 328/319 333/313 330/320
f 328/319 324/310 333/313
f 328/319 325/311 324/310
f 327/310 326/312 329/319
f 351/326 349/327 350/327
f 351/326 348/326 349/327
f 356/328 348/326 351/326
f 356/328 357/328 348/326
f 361/329 357/328 356/328
f 361/329 360/329 357/328
f 365/330 360/329 361/329
f 365/330 364/330 360/329
f 372/331 364/330 365/330
f 372/331 371/331 364/330
f 373/332 371/331 372/331
f 373/332 370/332 371/331
f 352/333 350/327 349/327
f 352/333 353/333 350/327
f 354/334 353/333 352/333
f 354/334 355/334 353/333
f 358/335 355/334 354/334
f 358/335 359/335 355/334
f 362/336 359/335 358/335
f 362/336 363/336 359/335
f 366/337 363/336 362/336
f 366/337 367/337 363/336
f 368/338 367/337 366/337
f 368/338 369/338 367/337
f 355/334 351/326 353/333
f 355/334 356/328 351/326
f 359/335 356/328 355/334
f 359/335 361/329 356/328
f 363/336 361/329 359/335
f 363/336 365/330 361/329
f 367/337 365/330 363/336
f 367/337 372/331 365/330
f 369/338 372/331 367/337
f 369/338 373/332 372/331
f 366/337 370/332 368/338
f 366/337 371/331 370/332
f 362/336 371/331 366/337
f 362/336 364/330 371/331
f 358/335 364/330 362/336
f 358/335 360/329 364/330
f 354/334 360/329 358/335
f 354/334 357/328 360/329
f 352/333 357/328 354/334
f 352/333 348/326 357/328
f 352/333 349/327 348/326
f 351/326 350/327 353/333
f 377/339 375/340 376/340
f 377/339 374/341 375/340
f 382/342 374/341 377/339
f 382/342 383/343 374/341
f 387/344 383/343 382/342
f 387/344 386/344 383/343
f 391/345 386/344 387/344
f 391/345 390/345 386/344
f 398/346 390/345 391/345
f 398/346 397/346 390/345
f 399/347 397/346 398/346
f 399/347 396/347 397/346
f 378/348 376/340 375/340
f 378/348 379/348 376/340
f 380/349 379/348 378/348
f 380/349 381/350 379/348
f 384/351 381/350 380/349
f 384/351 385/351 381/350
f 388/352 385/351 384/351
f 388/352 389/352 385/351
f 392/353 389/352 388/352
f 392/353 393/353 389/352
f 394/354 393/353 392/353
f 394/354 395/354 393/353
f 381/350 377/339 379/348
f 381/350 382/342 377/339
f 385/351 382/342 381/350
f 385/351 387/344 382/342
f 389/352 387/344 385/351
f 389/352 391/345 387/344
f 393/353 391/345 389/352
f 393/353 398/346 391/345
f 395/354 398/346 393/353
f 395/354 399/347 398/346
f 392/353 396/347 394/354
f 392/353 397/346 396/347
f 388/352 397/346 392/353
f 388/352 390/345 397/346
f 384/351 390/345 388/352
f 384/351 386/344 390/345
f 380/349 386/344 384/351
f 380/349 383/343 386/344
f 378/348 383/343 380/349
f 378/348 374/341 383/343
f 378/348 375/340 374/341
f 377/339 376/340 379/348
f 403/355 401/356 402/356
f 403/355 400/355 401/356
f 408/357 400/355 403/355
f 408/357 409/358 400/355
f 413/359 409/358 408/357
f 413/359 412/359 409/358
f 417/360 412/359 413/359
f 417/360 416/360 412/359
f 424/361 416/360 417/360
f 424/361 423/361 416/360
f 425/362 423/361 424/361
f 425/362 422/362 423/361
f 404/363 402/356 401/356
f 404/363 405/364 402/356
f 406/365 405/364 404/363
f 406/365 407/365 405/364
f 410/366 407/365 406/365
f 410/366 411/366 407/365
f 414/367 411/366 410/366
f 414/367 415/367 411/366
f 418/368 415/367 414/367
f 418/368 419/368 415/367
f 420/369 419/368 418/368
f 420/369 421/369 419/368
f 407/365 403/355 405/364
f 407/365 408/357 403/355
f 411/366 408/357 407/365
f 411/366 413/359 408/357
f 415/367 413/359 411/366
f 415/367 417/360 413/359
f 419/368 417/360 415/367
f 419/368 424/361 417/360
f 421/369 424/361 419/368
f 421/369 425/362 424/361
f 418/368 422/362 420/369
f 418/368 423/361 422/362
f 414/367 423/361 418/368
f 414/367 416/360 423/361
f 410/366 416/360 414/367
f 410/366 412/359 416/360
f 406/365 412/359 410/366
f 406/365 409/358 412/359
f 404/363 409/358 406/365
f 404/363 400/355 409/358
f 404/363 401/356 400/355
f 403/355 402/356 405/364
f 429/297 427/59 428/59
f 429/297 426/297 427/59
f 435/298 426/297 429/297
f 435/298 434/298 426/297
f 439/299 434/298 435/298
f 439/299 438/299 434/298
f 443/300 438/299 439/299
f 443/300 442/300 438/299
f 450/301 442/300 443/300
f 450/301 449/301 442/300
f 451/302 449/301 450/301
f 451/302 448/302 449/301
f 430/303 428/59 427/59
f 430/303 431/303 428/59
f 432/304 431/303 430/303
f 432/304 433/304 431/303
f 436/305 433/304 432/304
f 436/305 437/305 433/304
f 440/306 437/305 436/305
f 440/306 441/306 437/305
f 444/307 441/306 440/306
f 444/307 445/307 441/306
f 446/308 445/307 444/307
f 446/308 447/308 445/307
f 434/298 430/303 426/297
f 434/298 432/304 430/303
f 438/299 432/304 434/298
f 438/299 436/305 432/304
f 442/300 436/305 438/299
f 442/300 440/306 436/305
f 449/301 440/306 442/300
f 449/301 444/307 440/306
f 448/302 444/307 449/301
f 448/302 446/308 444/307
f 450/301 447/308 451/302
f 450/301 445/307 447/308
f 443/300 445/307 450/301
f 443/300 441/306 445/307
f 439/299 441/306 443/300
f 439/299 437/305 441/306
f 435/298 437/305 439/299
f 435/298 433/304 437/305
f 429/297 433/304 435/298
f 429/297 431/303 433/304
f 429/297 428/59 431/303
f 430/303 427/59 426/297
f 455/297 453/59 454/59
f 455/297 452/370 453/59
f 461/298 452/370 455/297
f 461/298 460/298 452/370
f 465/299 460/298 461/298
f 465/299 464/299 460/298
f 469/371 464/299 465/299
f 469/371 468/371 464/299
f 476/309 468/371 469/371
f 476/309 475/309 468/371
f 477/302 475/309 476/309
f 477/302 474/302 475/309
f 456/303 454/59 453/59
f 456/303 457/303 454/59
f 458/304 457/303 456/303
f 458/304 459/304 457/303
f 462/305 459/304 458/304
f 462/305 463/305 459/304
f 466/306 463/305 462/305
f 466/306 467/306 463/305
f 470/307 467/306 466/306
f 470/307 471/307 467/306
f 472/308 471/307 470/307
f 472/308 473/308 471/307
f 460/298 456/303 452/370
f 460/298 458/304 456/303
f 464/299 458/304 460/298
f 464/299 462/305 458/304
f 468/371 462/305 464/299
f 468/371 466/306 462/305
f 475/309 466/306 468/371
f 475/309 470/307 466/306
f 474/302 470/307 475/309
f 474/302 472/308 470/307
f 476/309 473/308 477/302
f 476/309 471/307 473/308
f 469/371 471/307 476/309
f 469/371 467/306 471/307
f 465/299 467/306 469/371
f 465/299 463/305 467/306
f 461/298 463/305 465/299
f 461/298 459/304 463/305
f 455/297 459/304 461/298
f 455/297 457/303 459/304
f 455/297 454/59 457/303
f 456/303 453/59 452/370
