# 
# Wavefront material file
# Created with Kaydara FBX
# 

newmtl Material__231
map_Kd pm0248_51_Eye1.png
Ka 0.588000 0.588000 0.588000
Kd 0.588000 0.588000 0.588000
Ks 0.000000 0.000000 0.000000
illum 2
Ns 2.000000
Tr 1.000000

newmtl Material__232
map_Kd pm0248_51_BodyA1.png
Ka 0.588000 0.588000 0.588000
Kd 0.588000 0.588000 0.588000
Ks 0.000000 0.000000 0.000000
illum 2
Ns 2.000000
Tr 1.000000

newmtl Material__233
map_Kd pm0248_51_BodyB1.png
Ka 0.588000 0.588000 0.588000
Kd 0.588000 0.588000 0.588000
Ks 0.000000 0.000000 0.000000
illum 2
Ns 2.000000
Tr 1.000000

newmtl Material__234
map_Kd pm0248_51_BodyC1.png
Ka 0.588000 0.588000 0.588000
Kd 0.588000 0.588000 0.588000
Ks 0.000000 0.000000 0.000000
illum 2
Ns 2.000000
Tr 1.000000
