# Blender v2.66 (sub 1) OBJ File: 'BR_Dialga-Shiny01.blend'
# www.blender.org
mtllib BR_Dialga-Shiny01.mtl
o dialga
v 1.041613 20.646276 -37.138687
v 0.969547 20.812075 -37.110344
v 1.107775 20.797344 -37.953083
v 1.097385 20.998070 -37.102566
v 1.281140 20.957640 -37.124352
v 1.243250 20.622149 -37.159859
v 0.710474 21.132656 -37.032417
v 0.000000 21.387295 -36.923569
v 2.130630 19.734364 -37.198467
v 2.130630 19.734364 -37.198467
v 2.234652 20.101093 -37.580605
v 1.635737 21.204613 -37.379333
v 1.631459 20.609161 -37.013680
v 1.631459 20.609161 -37.013680
v 0.966234 21.140261 -36.869568
v 0.966234 21.140261 -36.869568
v 0.991657 21.753292 -37.253212
v 2.088755 19.601397 -37.552811
v 1.391949 20.761873 -37.177811
v 0.770409 21.365341 -37.340916
v 0.000000 21.615854 -37.275421
v 0.000000 22.061123 -37.180096
v 1.426478 20.883045 -37.449463
v 2.544823 18.108795 -37.581486
v 2.544823 18.108795 -37.581486
v 0.000000 21.412621 -36.802288
v 0.000000 21.412621 -36.802288
v 0.000000 21.352516 -36.817291
v 0.000000 21.352516 -36.817291
v 0.964437 21.094326 -36.888836
v 0.964437 21.094326 -36.888836
v 1.631107 20.560127 -37.030983
v 1.631107 20.560127 -37.030983
v 2.109437 19.704077 -37.199589
v 2.109437 19.704077 -37.199589
v 1.369340 20.763756 -37.157867
v -1.041613 20.646276 -37.138687
v -1.107775 20.797344 -37.953083
v -1.097385 20.998070 -37.102566
v -1.281140 20.957640 -37.124352
v -1.243250 20.622149 -37.159859
v -0.710474 21.132656 -37.032417
v -2.130630 19.734364 -37.198467
v -2.130630 19.734364 -37.198467
v -1.631459 20.609161 -37.013680
v -1.631459 20.609161 -37.013680
v -1.635737 21.204613 -37.379333
v -2.234652 20.101093 -37.580605
v -0.966234 21.140261 -36.869568
v -0.966234 21.140261 -36.869568
v -0.991657 21.753292 -37.253212
v -2.088755 19.601397 -37.552811
v -1.391949 20.761873 -37.177811
v -0.770409 21.365341 -37.340916
v -2.124596 19.690529 -37.674133
v -1.426478 20.883045 -37.449463
v -2.544823 18.108795 -37.581486
v -2.544823 18.108795 -37.581486
v -0.964437 21.094326 -36.888836
v -0.964437 21.094326 -36.888836
v -1.631107 20.560127 -37.030983
v -1.631107 20.560127 -37.030983
v -2.109437 19.704077 -37.199589
v -2.109437 19.704077 -37.199589
v -1.369340 20.763756 -37.157867
v 0.000000 19.146749 -41.284012
v 0.697000 19.112888 -41.101292
v 0.782477 17.878824 -42.021244
v 0.000000 17.943974 -42.136047
v 2.466912 16.212978 -41.281780
v 3.011226 15.895520 -40.221199
v 3.011226 15.895520 -40.221199
v 2.731976 13.503845 -42.514458
v 1.248400 20.499039 -39.265163
v 1.725123 19.710567 -39.657120
v 2.201848 18.922113 -40.049103
v 1.394000 19.043079 -40.804016
v 1.564955 17.839880 -41.785503
v 0.867955 16.404106 -42.788673
v 0.000000 15.073159 -43.087357
v 0.000000 16.454376 -42.894188
v 0.000000 11.411272 -38.379929
v 1.465790 11.437860 -38.462372
v 0.000000 13.789312 -43.339169
v 2.446905 12.172860 -43.286991
v 0.000000 12.552762 -43.780315
v 2.379410 11.726086 -40.859795
v 0.377105 4.332264 -40.979706
v 0.000000 4.332264 -40.979706
v 0.000000 -3.962501 -48.249115
v 0.000000 6.584926 -47.169842
v 1.537547 6.525547 -47.031300
v 0.265377 -3.725212 -48.512115
v 0.000000 -3.725215 -48.512169
v 3.180387 5.200034 -44.001163
v 2.437211 18.604626 -38.988457
v 1.903955 19.669323 -38.665199
v 0.000000 18.287165 -37.927856
v 1.414398 20.918413 -37.428356
v 1.414398 20.918413 -37.428356
v 0.743356 21.448748 -37.309319
v 0.000000 21.675512 -37.249264
v 0.312100 19.865801 -40.556007
v 1.254861 20.527449 -39.103733
v 0.624199 20.866590 -39.438217
v 0.644725 21.015762 -38.992188
v 2.672576 18.287149 -37.927826
v 2.082787 19.628078 -37.673279
v 2.082787 19.628078 -37.673279
v 0.713567 21.144968 -37.817589
v 0.683778 21.041374 -38.325859
v 0.000000 21.277317 -38.270290
v 0.000000 21.392128 -37.759777
v 0.000000 20.441912 -40.156052
v 1.328092 20.736334 -37.925076
v 1.281318 20.625589 -38.442646
v 1.993371 19.648701 -38.169239
v 2.554893 18.445883 -38.458130
v 0.000000 21.320450 -38.844978
v 0.000000 21.175030 -39.419666
v 1.735909 16.315153 -42.509747
v -0.782477 17.878824 -42.021244
v -0.697000 19.112888 -41.101292
v -2.466912 16.212978 -41.281780
v -2.731976 13.503845 -42.514458
v -3.011226 15.895520 -40.221199
v -3.011226 15.895520 -40.221199
v -1.248400 20.499039 -39.265163
v -1.394000 19.043079 -40.804016
v -2.201848 18.922113 -40.049103
v -1.725123 19.710567 -39.657120
v -1.564955 17.839880 -41.785503
v -0.867955 16.404106 -42.788673
v -1.465790 11.437860 -38.462372
v -2.446905 12.172860 -43.286991
v -2.379410 11.726086 -40.859795
v -0.377105 4.332264 -40.979706
v -0.265377 -3.725212 -48.512115
v -1.537547 6.525547 -47.031300
v -3.180387 5.200034 -44.001163
v -2.437211 18.604626 -38.988457
v -1.903955 19.669323 -38.665199
v -0.743356 21.448748 -37.309319
v -1.414398 20.918413 -37.428356
v -1.414398 20.918413 -37.428356
v -0.312100 19.865801 -40.556007
v -1.254861 20.527449 -39.103733
v -0.644725 21.015762 -38.992188
v -0.624199 20.866590 -39.438217
v -2.672576 18.287149 -37.927826
v -2.082787 19.628078 -37.673279
v -2.082787 19.628078 -37.673279
v -0.713567 21.144968 -37.817589
v -0.683778 21.041374 -38.325859
v -1.328092 20.736334 -37.925076
v -1.281318 20.625589 -38.442646
v -1.993371 19.648701 -38.169239
v -2.554893 18.445883 -38.458130
v -1.735909 16.315153 -42.509747
v 10.307224 -12.324371 -8.517715
v 13.365536 -9.014093 -9.142021
v 13.325365 -10.475759 -8.995204
v 12.120921 -11.607781 -8.928430
v 8.764163 -11.662209 -8.656627
v 7.859348 -10.455226 -8.204411
v 8.204654 -8.515192 -8.432424
v 9.446318 -6.901975 -8.515635
v 11.058297 -6.826222 -8.890684
v 12.674927 -7.516296 -8.969066
v 5.135761 -14.707936 -15.510980
v -5.135761 -14.707936 -15.510980
v 0.000000 -6.908626 -23.762897
v 2.586481 -6.823761 -23.223545
v -2.586481 -6.823761 -23.223545
v 8.081371 9.025228 -8.558758
v 9.437778 8.556681 -8.427307
v 11.360207 9.264886 -9.239542
v 9.954896 14.010269 -9.745453
v 11.437318 13.800335 -10.239347
v 7.648449 11.886321 -8.804217
v 7.351028 10.192414 -8.337034
v 8.528543 13.260255 -9.165343
v 12.618434 10.523121 -9.762048
v 12.494299 12.318554 -10.151924
v 3.834605 13.048883 -17.548853
v 3.164433 14.244354 -21.434589
v 0.000000 13.478657 -17.511866
v 0.000000 14.416961 -21.001986
v 0.000000 12.307813 -15.612242
v 0.000000 10.137251 -14.594509
v 0.000000 7.903803 -13.643799
v -3.834605 13.048883 -17.548853
v -3.164433 14.244354 -21.434589
v 11.412154 -7.194410 -12.531193
v 10.024294 -6.446492 -11.986608
v 8.433800 -6.681371 -11.240134
v 12.236411 -10.582108 -12.411143
v 12.230077 -8.788839 -12.686467
v 0.204200 -57.179897 -17.357351
v 0.164465 -57.161312 -17.145775
v 0.000000 -57.179901 -17.609781
v 0.164465 -57.161308 -17.568924
v 0.000000 -57.179901 -17.104921
v 0.000000 -57.212708 -17.357355
v -0.204200 -57.179897 -17.357351
v -0.164465 -57.161312 -17.145775
v -0.164465 -57.161308 -17.568924
v -10.307224 -12.324371 -8.517715
v -13.365536 -9.014093 -9.142021
v -13.325365 -10.475759 -8.995204
v -12.120921 -11.607781 -8.928430
v -8.764163 -11.662209 -8.656627
v -7.859348 -10.455226 -8.204411
v -8.204654 -8.515192 -8.432424
v -9.446318 -6.901975 -8.515635
v -11.058297 -6.826222 -8.890684
v -12.674927 -7.516296 -8.969066
v -9.437778 8.556681 -8.427307
v -8.081371 9.025228 -8.558758
v -11.360207 9.264886 -9.239542
v -9.954896 14.010269 -9.745453
v -11.437318 13.800335 -10.239347
v -7.648449 11.886321 -8.804217
v -7.351028 10.192414 -8.337034
v -8.528543 13.260255 -9.165343
v -12.494299 12.318554 -10.151924
v -12.618434 10.523121 -9.762048
v -10.024294 -6.446492 -11.986608
v -11.412154 -7.194410 -12.531193
v -8.433800 -6.681371 -11.240134
v -12.230077 -8.788839 -12.686467
v -12.236411 -10.582108 -12.411143
v 0.000000 -14.592752 -22.387741
v 0.000000 -11.321362 -12.570532
v 0.000000 -12.649677 -12.793070
v 2.997145 -16.641346 -14.398458
v 4.575557 -15.850189 -17.475246
v 0.000000 -14.114296 -12.836424
v 0.000000 -16.631630 -12.974666
v 2.560266 -16.524740 -20.063623
v 0.000000 -16.462337 -21.520655
v -4.575557 -15.850189 -17.475246
v -2.997145 -16.641346 -14.398458
v -2.560266 -16.524740 -20.063623
v 0.000000 -12.809361 -23.141497
v 5.147165 -9.912083 -21.587189
v 6.567869 -6.386041 -19.683872
v 6.720688 -9.634711 -19.714664
v 0.000000 -10.257860 -23.493025
v 2.554580 -10.113757 -22.804247
v 4.847851 -12.805393 -21.233793
v 7.509737 -6.214863 -18.168001
v 7.788140 -9.436005 -18.362112
v -2.508859 -14.576653 -21.515114
v -5.147165 -9.912083 -21.587189
v -6.720688 -9.634711 -19.714664
v -6.567869 -6.386041 -19.683872
v -2.554580 -10.113757 -22.804247
v -4.847851 -12.805393 -21.233793
v -7.509737 -6.214863 -18.168001
v -7.788140 -9.436005 -18.362112
v 2.457452 -12.829366 -22.367075
v 2.508859 -14.576653 -21.515114
v 4.479851 -7.396564 -12.236502
v 3.815013 -8.932094 -12.095248
v 5.670889 -5.740171 -12.609139
v 0.000000 -4.558162 -12.576148
v 5.282892 -11.815679 -12.537773
v 6.068948 -11.774267 -12.079086
v 5.642578 -13.732447 -13.877331
v 6.902891 -13.256632 -13.013454
v 8.013560 -4.771334 -17.359707
v 7.521694 -2.494792 -18.155834
v 7.912377 -12.968556 -15.118738
v 8.584368 -12.733263 -14.426385
v 5.002525 -14.579288 -19.580557
v 0.000000 -8.828352 -12.452682
v 7.325370 -2.720108 -16.177235
v -2.457452 -12.829366 -22.367075
v -4.479851 -7.396564 -12.236502
v -3.815013 -8.932094 -12.095248
v -5.670889 -5.740171 -12.609139
v -5.282892 -11.815679 -12.537773
v -6.068948 -11.774267 -12.079086
v -6.902891 -13.256632 -13.013454
v -5.642578 -13.732447 -13.877331
v -8.013560 -4.771334 -17.359707
v -7.521694 -2.494792 -18.155834
v -7.912377 -12.968556 -15.118738
v -8.584368 -12.733263 -14.426385
v -5.002525 -14.579288 -19.580557
v -7.325370 -2.720108 -16.177235
v 1.287197 7.921938 -13.680305
v 1.443681 9.924219 -14.711377
v 5.666855 10.500751 -22.765638
v 6.906250 9.733103 -20.282467
v 7.154985 7.061090 -20.259260
v 5.867685 7.870842 -23.170811
v 5.078620 12.507006 -17.017036
v 2.367144 11.935810 -15.862650
v 6.307192 11.957647 -19.947010
v 6.952730 11.704049 -18.894739
v 7.574808 9.643562 -19.121008
v 2.363881 7.901783 -13.615881
v 2.496663 9.786423 -14.747722
v 3.237756 8.263266 -13.230693
v 5.019319 6.718976 -13.082696
v 7.636173 6.543172 -15.714153
v 6.546852 6.127645 -13.711273
v 3.364487 11.784225 -15.647267
v 6.113871 5.603952 -14.188086
v 4.499713 6.235278 -13.469495
v 3.339715 10.046214 -14.154507
v 4.270568 11.860801 -15.035695
v 8.218974 9.754383 -18.013725
v 7.569564 11.822917 -17.815405
v 8.492914 7.584991 -17.728138
v 5.895270 12.332847 -16.343996
v 7.916173 7.027503 -18.906727
v 4.897954 -8.960580 -11.964282
v 12.151360 -6.998714 -1.137477
v 12.151360 -6.998714 -1.137477
v 13.049106 -7.326889 -1.154011
v 13.049106 -7.326889 -1.154011
v 12.243158 -7.291341 -2.269273
v 12.243158 -7.291341 -2.269273
v 12.783091 -7.463836 -5.899735
v 12.783091 -7.463836 -5.899735
v 12.783091 -7.463836 -5.899735
v 12.180322 -7.311814 -10.891138
v 10.731853 -6.627530 -10.587344
v 13.049431 -10.358788 -10.864416
v 13.047520 -8.714479 -10.969947
v 9.951725 -12.081888 -10.455939
v 11.818877 -11.564105 -10.702500
v 7.613895 -10.048814 -10.102935
v 8.414002 -11.457117 -10.258468
v 9.046819 -6.843470 -10.182326
v 7.924904 -8.223554 -10.051853
v 5.581460 -9.315598 -11.626348
v 9.108439 -12.423956 -11.501668
v 10.936337 -11.909736 -12.003149
v 6.934375 -10.023374 -10.892859
v 7.641060 -11.691445 -11.161714
v 7.297608 -8.092718 -10.911345
v 13.056230 -7.677812 -2.329570
v 13.056230 -7.677812 -2.329570
v 4.108916 -11.705830 -12.545053
v 4.388671 -13.491831 -13.636384
v 6.061942 -6.861409 -12.288036
v 7.146392 -5.710853 -13.174030
v 7.251626 -13.221276 -16.942924
v 6.553087 -13.820068 -15.310760
v 5.811184 -14.636333 -17.229454
v 2.821289 -14.655680 -13.378553
v 9.609196 -9.136950 -16.044161
v 8.860373 -9.236409 -17.003502
v 8.294627 -6.072215 -16.904776
v 9.144862 -6.378268 -15.711981
v 9.481594 -11.532335 -15.712629
v 8.694504 -11.803828 -16.655910
v 6.478149 -7.287350 -11.863348
v 7.557762 -6.072647 -12.564367
v 7.924071 -5.485356 -14.646701
v 7.584986 -4.679186 -15.439619
v 6.635940 -12.390752 -19.239502
v 8.448109 -5.825746 -14.079154
v 5.458281 -14.087170 -14.471386
v 4.616654 -14.068168 -13.695957
v 7.645412 -12.102938 -17.972569
v 7.060238 8.307741 -11.068047
v 6.328755 9.602882 -11.105885
v 12.163257 14.379898 -5.236785
v 12.163257 14.379898 -5.236785
v 12.163257 14.379898 -5.236785
v 10.184532 8.321523 -12.395716
v 8.472859 7.786489 -11.433903
v 9.351607 8.916224 -2.041481
v 8.509255 9.563675 -1.993174
v 12.152383 10.202685 -11.627028
v 11.279708 9.595803 -13.270947
v 11.068718 11.420185 -13.790038
v 11.957326 12.076380 -12.039618
v 9.139979 8.350533 -10.311640
v 10.961762 8.922928 -10.968946
v 7.131152 10.021969 -10.127697
v 7.824932 8.796968 -10.075367
v 8.162392 12.991687 -10.870388
v 7.229394 12.644488 -12.119463
v 6.411235 11.245097 -11.482141
v 7.300144 11.631977 -10.394194
v 10.962215 13.495741 -12.072017
v 9.635888 13.729229 -11.607618
v 10.034129 12.954838 -13.764011
v 8.604193 13.285921 -13.094537
v 12.151963 15.080726 -2.676675
v 12.151963 15.080726 -2.676675
v 12.553565 15.778122 -1.338337
v 12.553565 15.778122 -1.338337
v 14.887339 18.561836 0.000000
v 14.887339 18.561836 0.000000
v 14.887339 18.561836 0.000000
v 13.437214 15.242838 -1.354100
v 13.437214 15.242838 -1.354100
v 12.847761 14.598125 -2.708197
v 12.847761 14.598125 -2.708197
v 12.955167 16.475519 0.000000
v 12.955167 16.475519 0.000000
v 14.026667 15.887552 0.000000
v 14.026667 15.887552 0.000000
v 14.527777 14.180206 0.000000
v 11.292433 15.796333 0.000000
v 9.629700 15.117146 0.000000
v 14.879370 12.303916 0.000000
v 11.741354 9.917671 0.000000
v 8.915408 11.894525 0.000000
v 11.468016 9.495739 -1.206176
v 11.050144 9.186970 -2.407893
v 9.010531 13.505836 0.000000
v 9.279659 14.471855 -1.219503
v 8.790855 13.209648 -1.172525
v 12.592147 10.085061 -2.633384
v 13.052703 10.422688 -1.316692
v 8.584350 11.753527 -1.117197
v 13.513259 10.760316 0.000000
v 10.948456 14.968093 -1.281981
v 13.278118 12.920174 -2.783537
v 13.712082 12.683531 -1.398445
v 14.106848 11.572056 -1.407006
v 13.708474 11.242222 -2.858878
v 8.397824 11.499367 -2.238853
v 8.571180 12.913460 -2.345050
v 9.056994 14.155479 -2.451248
v 10.604479 14.618103 -2.563961
v 11.993855 -12.288677 -1.959781
v 9.987666 -12.935341 -1.559081
v 13.290995 -4.839497 -0.001372
v 13.290995 -4.839497 -0.001372
v 13.290995 -4.839497 -0.001372
v 12.059560 -6.706088 -0.005682
v 12.059560 -6.706088 -0.005682
v 8.709742 -10.025917 -0.971467
v 8.846334 -10.215302 -0.038319
v 8.843059 -9.057592 -0.037234
v 8.907475 -9.024903 -1.069330
v 13.041905 -6.975924 0.021555
v 13.041905 -6.975924 0.021555
v 13.884358 -11.235155 0.016865
v 14.551416 -10.265078 0.032073
v 9.278293 -12.693783 -1.510428
v 12.812481 -12.123276 -0.002777
v 9.056046 -11.430599 -0.037139
v 10.633281 -8.019388 -2.198097
v 8.621154 -11.128696 -1.708224
v 12.403168 -12.205976 -0.981279
v 13.150431 -11.701372 -2.142732
v 13.517395 -11.468264 -1.062934
v 8.573202 -9.836592 -1.904615
v 8.838600 -11.279648 -0.872681
v 13.796661 -8.620501 0.026814
v 10.451309 -7.873839 -0.021458
v 10.542295 -8.174273 -1.109778
v 14.092726 -10.691096 -1.068840
v 13.696196 -9.540024 -1.101513
v 13.808852 -10.911119 -2.299769
v 9.023403 -8.747437 -2.126922
v 13.432541 -9.294465 -2.314670
v 3.490529 11.472723 -26.132975
v 3.083713 9.160247 -26.775782
v 1.336751 15.009781 -26.949192
v 2.493189 14.173082 -27.319359
v 3.035746 12.272592 -27.991951
v 2.918468 13.644462 -25.490168
v 1.549391 14.522811 -25.027712
v 0.000000 15.396006 -26.729259
v 0.000000 14.950687 -24.715490
v -3.490529 11.472723 -26.132975
v -3.083713 9.160247 -26.775782
v -1.336751 15.009781 -26.949192
v -2.493189 14.173082 -27.319359
v -3.035746 12.272592 -27.991951
v -1.549391 14.522811 -25.027712
v -2.918468 13.644462 -25.490168
v 6.804707 -4.782544 -13.465247
v 3.193829 -29.281197 -17.357353
v 2.135405 -29.197735 -15.147461
v 0.000000 -29.281191 -20.664288
v 2.135404 -29.197737 -19.567245
v 2.826464 -33.692741 -17.357351
v 1.888157 -33.645592 -15.374042
v 0.000000 -33.692741 -20.327606
v 1.888157 -33.645592 -19.340662
v 0.000000 -29.281208 -14.050425
v 0.000000 -33.692905 -14.387165
v -3.193829 -29.281197 -17.357353
v -2.135405 -29.197735 -15.147461
v -2.135404 -29.197737 -19.567245
v -1.888157 -33.645592 -15.374042
v -2.826464 -33.692741 -17.357351
v -1.888157 -33.645592 -19.340662
v 3.511266 -24.821373 -17.369242
v 2.336486 -24.760284 -14.921545
v 0.000000 -24.784243 -20.999538
v 2.334708 -24.765373 -19.802593
v 0.000000 -24.786688 -13.709736
v -2.336486 -24.760284 -14.921545
v -3.511266 -24.821373 -17.369242
v -2.334708 -24.765373 -19.802593
v 2.432923 -38.031384 -17.357351
v 1.631154 -37.926239 -15.605003
v 0.000000 -38.031384 -19.974932
v 1.631153 -37.926235 -19.109701
v 2.032530 -42.350578 -17.357355
v 1.359389 -42.296104 -15.863568
v 0.000000 -42.350567 -19.590792
v 1.359389 -42.296104 -18.851137
v 0.000000 -38.031384 -14.739774
v 0.000000 -42.350723 -15.123972
v -2.432923 -38.031384 -17.357351
v -1.631154 -37.926239 -15.605003
v -1.631153 -37.926235 -19.109701
v -1.359389 -42.296104 -15.863568
v -2.032530 -42.350578 -17.357355
v -1.359389 -42.296104 -18.851137
v 1.672218 -46.283154 -17.357357
v 1.123083 -46.170444 -16.129185
v 0.000000 -46.283142 -19.181593
v 1.123083 -46.170448 -18.585520
v 0.857005 -53.522579 -17.357409
v 1.292075 -50.075294 -17.357353
v 0.868212 -50.008678 -16.429722
v 0.590376 -53.368656 -16.721020
v 0.000000 -53.522411 -18.283661
v 0.000000 -50.075459 -18.737309
v 0.868212 -50.008678 -18.284979
v 0.590376 -53.368660 -17.993677
v 0.448251 -56.227829 -17.357351
v 0.310677 -56.184746 -16.998732
v 0.000000 -56.227829 -17.872000
v 0.310677 -56.184746 -17.715969
v 0.000000 -46.283138 -15.533111
v 0.000000 -50.075287 -15.977457
v 0.000000 -53.522411 -16.431042
v 0.000000 -56.227829 -16.842703
v -1.672218 -46.283154 -17.357357
v -1.123083 -46.170444 -16.129185
v -1.123083 -46.170448 -18.585520
v -0.857005 -53.522579 -17.357409
v -0.590376 -53.368656 -16.721020
v -0.868212 -50.008678 -16.429722
v -1.292075 -50.075294 -17.357353
v -0.590376 -53.368660 -17.993677
v -0.868212 -50.008678 -18.284979
v -0.310677 -56.184746 -16.998732
v -0.448251 -56.227829 -17.357351
v -0.310677 -56.184746 -17.715969
v 5.111705 -6.640993 -21.878700
v -5.111705 -6.640993 -21.878700
v 6.440470 -2.673791 -20.047132
v 4.747125 -2.885708 -22.046892
v 4.732584 1.026779 -22.411701
v 6.316668 0.998002 -20.391323
v 0.000000 -3.100919 -24.139488
v 0.000000 1.636154 -25.030544
v 2.645527 0.978387 -23.923241
v 2.498462 -3.066249 -23.516739
v 2.855554 4.925659 -25.146826
v 0.000000 5.181955 -26.166250
v 5.236679 4.571497 -22.881670
v 7.112001 3.862544 -16.517492
v 7.430985 4.137994 -18.695951
v 7.593489 5.389080 -18.745068
v 7.063729 4.998185 -16.519344
v 2.658450 4.408659 -13.520829
v 2.911215 0.569764 -13.379758
v 4.406539 0.610780 -13.677639
v 4.150055 4.112703 -13.723772
v 0.000000 4.467699 -13.412734
v 0.000000 0.487303 -13.244554
v 3.323644 -4.266273 -12.763823
v 6.253394 -3.057495 -13.883081
v 6.061851 0.353389 -14.667731
v 4.975208 -3.737306 -13.081275
v 5.868166 3.623148 -14.597037
v 5.970367 4.644222 -14.435726
v 4.356388 5.340905 -13.640154
v 7.087227 6.004996 -16.529247
v 7.284389 1.004005 -18.483809
v 7.057393 0.801011 -16.523102
v -6.440470 -2.673791 -20.047132
v -6.316668 0.998002 -20.391323
v -4.732584 1.026779 -22.411701
v -4.747125 -2.885708 -22.046892
v -2.498462 -3.066249 -23.516739
v -2.645527 0.978387 -23.923241
v -2.855554 4.925659 -25.146826
v -5.236679 4.571497 -22.881670
v -7.112001 3.862544 -16.517492
v -7.063729 4.998185 -16.519344
v -7.593489 5.389080 -18.745068
v -7.430985 4.137994 -18.695951
v -2.658450 4.408659 -13.520829
v -4.150055 4.112703 -13.723772
v -4.406539 0.610780 -13.677639
v -2.911215 0.569764 -13.379758
v -3.323644 -4.266273 -12.763823
v -6.253394 -3.057495 -13.883081
v -4.975208 -3.737306 -13.081275
v -6.061851 0.353389 -14.667731
v -5.868166 3.623148 -14.597037
v -5.970367 4.644222 -14.435726
v -4.356388 5.340905 -13.640154
v -7.087227 6.004996 -16.529247
v -7.284389 1.004005 -18.483809
v -7.057393 0.801011 -16.523102
v 0.956143 17.166920 -33.474979
v 1.733947 16.284002 -33.704258
v 0.955363 17.727337 -34.853142
v 2.266454 14.771605 -34.233894
v 1.031932 16.034138 -30.492687
v 1.751331 15.806240 -32.377350
v 0.964577 16.625416 -32.092190
v 2.400176 13.693407 -31.403049
v 1.952476 12.012468 -32.034924
v 1.836655 12.682337 -33.531525
v 2.276670 14.313685 -32.954433
v 0.000000 11.128477 -32.503094
v 0.000000 11.878059 -33.999073
v 0.000000 18.231588 -34.828884
v 0.000000 17.604303 -33.394306
v 0.000000 16.389914 -30.361860
v 0.000000 17.000359 -31.955231
v -0.956143 17.166920 -33.474979
v -0.955363 17.727337 -34.853142
v -1.733947 16.284002 -33.704258
v -2.266454 14.771605 -34.233894
v -1.031932 16.034138 -30.492687
v -0.964577 16.625416 -32.092190
v -1.751331 15.806240 -32.377350
v -2.400176 13.693407 -31.403049
v -2.276670 14.313685 -32.954433
v -1.836655 12.682337 -33.531525
v -1.952476 12.012468 -32.034924
v 1.730412 16.772610 -35.027630
v 1.830799 13.120009 -34.763527
v 1.839742 13.542253 -35.999271
v 2.274515 15.227800 -35.513451
v 0.000000 12.253549 -35.093288
v 0.000000 12.605693 -36.191998
v 0.000000 12.439711 -36.944660
v 2.074129 13.552721 -37.372486
v 2.323274 15.418729 -36.676880
v -1.730412 16.772610 -35.027630
v -2.274515 15.227800 -35.513451
v -1.839742 13.542253 -35.999271
v -1.830799 13.120009 -34.763527
v -2.074129 13.552721 -37.372486
v -2.323274 15.418729 -36.676880
v 1.613664 18.132143 -35.691010
v 1.954530 17.284737 -35.981274
v 2.124596 19.690529 -37.674133
v -0.969547 20.812075 -37.110344
v -1.613664 18.132143 -35.691010
v -1.954530 17.284737 -35.981274
v 0.000000 8.156417 -27.884806
v 2.087788 14.717301 -29.141443
v 1.134917 15.519991 -28.860895
v 2.599409 10.231282 -28.664360
v 2.135437 11.285236 -30.559334
v 2.605769 13.072378 -29.850531
v 0.000000 9.236704 -29.458614
v 0.000000 10.290437 -31.043428
v 1.886838 15.236113 -30.771032
v 0.000000 15.867876 -28.732027
v -1.134917 15.519991 -28.860895
v -2.087788 14.717301 -29.141443
v -2.599409 10.231282 -28.664360
v -2.605769 13.072378 -29.850531
v -2.135437 11.285236 -30.559334
v -1.886838 15.236113 -30.771032
v 5.147912 12.667795 -22.239712
v 0.874733 18.764641 -35.627617
v -0.874733 18.764641 -35.627617
v 6.529868 4.316017 -20.414864
v -6.529868 4.316017 -20.414864
v 2.464193 6.671860 -13.652549
v 0.000000 19.137480 -35.552570
v -1.287197 7.921938 -13.680305
v -5.666855 10.500751 -22.765638
v -5.867685 7.870842 -23.170811
v -7.154985 7.061090 -20.259260
v -6.906250 9.733103 -20.282467
v -2.367144 11.935810 -15.862650
v -5.078620 12.507006 -17.017036
v -6.307192 11.957647 -19.947010
v -6.952730 11.704049 -18.894739
v -7.574808 9.643562 -19.121008
v -1.443681 9.924219 -14.711377
v -2.496663 9.786423 -14.747722
v -2.363881 7.901783 -13.615881
v -5.019319 6.718976 -13.082696
v -3.237756 8.263266 -13.230693
v -7.636173 6.543172 -15.714153
v -6.546852 6.127645 -13.711273
v -3.364487 11.784225 -15.647267
v -4.499713 6.235278 -13.469495
v -6.113871 5.603952 -14.188086
v -3.339715 10.046214 -14.154507
v -4.270568 11.860801 -15.035695
v -8.218974 9.754383 -18.013725
v -7.569564 11.822917 -17.815405
v -8.492914 7.584991 -17.728138
v -5.895270 12.332847 -16.343996
v -7.916173 7.027503 -18.906727
v -4.897954 -8.960580 -11.964282
v -12.151360 -6.998714 -1.137477
v -12.151360 -6.998714 -1.137477
v -13.049087 -7.326879 -1.154009
v -13.049087 -7.326879 -1.154009
v -12.783091 -7.463836 -5.899735
v -12.783091 -7.463836 -5.899735
v -12.783091 -7.463836 -5.899735
v -12.243158 -7.291341 -2.269273
v -12.243158 -7.291341 -2.269273
v -12.180322 -7.311814 -10.891138
v -10.731853 -6.627530 -10.587344
v -13.047520 -8.714479 -10.969947
v -13.049431 -10.358788 -10.864416
v -11.818877 -11.564105 -10.702500
v -9.951725 -12.081888 -10.455939
v -8.414002 -11.457117 -10.258468
v -7.613895 -10.048814 -10.102935
v -7.924904 -8.223554 -10.051853
v -9.046819 -6.843470 -10.182326
v -5.581460 -9.315598 -11.626348
v -10.936337 -11.909736 -12.003149
v -9.108439 -12.423956 -11.501668
v -7.641060 -11.691445 -11.161714
v -6.934375 -10.023374 -10.892859
v -7.297608 -8.092718 -10.911345
v -13.056230 -7.677812 -2.329570
v -13.056230 -7.677812 -2.329570
v -4.108916 -11.705830 -12.545053
v -4.388671 -13.491831 -13.636384
v -6.061942 -6.861409 -12.288036
v -7.146392 -5.710853 -13.174030
v -7.251626 -13.221276 -16.942924
v -5.811184 -14.636333 -17.229454
v -6.553087 -13.820068 -15.310760
v -2.821289 -14.655680 -13.378553
v -9.609196 -9.136950 -16.044161
v -9.144862 -6.378268 -15.711981
v -8.294627 -6.072215 -16.904776
v -8.860373 -9.236409 -17.003502
v -8.694504 -11.803828 -16.655910
v -9.481594 -11.532335 -15.712629
v -6.478149 -7.287350 -11.863348
v -7.557762 -6.072647 -12.564367
v -7.924071 -5.485356 -14.646701
v -7.584986 -4.679186 -15.439619
v -6.635940 -12.390752 -19.239502
v -8.448109 -5.825746 -14.079154
v -5.458281 -14.087170 -14.471386
v -4.616654 -14.068168 -13.695957
v -7.645412 -12.102938 -17.972569
v -7.060238 8.307741 -11.068047
v -6.328755 9.602882 -11.105885
v -12.163257 14.379898 -5.236785
v -12.163257 14.379898 -5.236785
v -12.163257 14.379898 -5.236785
v -8.472859 7.786489 -11.433903
v -10.184532 8.321523 -12.395716
v -9.351607 8.916224 -2.041481
v -8.509255 9.563675 -1.993174
v -12.152383 10.202685 -11.627028
v -11.957326 12.076380 -12.039618
v -11.068718 11.420185 -13.790038
v -11.279708 9.595803 -13.270947
v -10.961762 8.922928 -10.968946
v -9.139979 8.350533 -10.311640
v -7.131152 10.021969 -10.127697
v -7.824932 8.796968 -10.075367
v -8.162392 12.991687 -10.870388
v -7.300144 11.631977 -10.394194
v -6.411235 11.245097 -11.482141
v -7.229394 12.644488 -12.119463
v -9.635888 13.729229 -11.607618
v -10.962215 13.495741 -12.072017
v -10.034129 12.954838 -13.764011
v -8.604193 13.285921 -13.094537
v -14.887339 18.561836 0.000000
v -14.887339 18.561836 0.000000
v -14.887339 18.561836 0.000000
v -12.553565 15.778122 -1.338337
v -12.553565 15.778122 -1.338337
v -12.151963 15.080726 -2.676675
v -12.151963 15.080726 -2.676675
v -12.847761 14.598125 -2.708197
v -12.847761 14.598125 -2.708197
v -13.437214 15.242838 -1.354100
v -13.437214 15.242838 -1.354100
v -14.026667 15.887552 0.000000
v -14.026667 15.887552 0.000000
v -12.955167 16.475519 0.000000
v -12.955167 16.475519 0.000000
v -14.527777 14.180206 0.000000
v -14.879370 12.303916 0.000000
v -9.629700 15.117146 0.000000
v -11.292433 15.796333 0.000000
v -8.915408 11.894525 0.000000
v -11.741354 9.917671 0.000000
v -11.468016 9.495739 -1.206176
v -11.050144 9.186970 -2.407893
v -9.010531 13.505836 0.000000
v -8.790855 13.209648 -1.172525
v -9.279659 14.471855 -1.219503
v -13.052703 10.422688 -1.316692
v -12.592147 10.085061 -2.633384
v -8.584350 11.753527 -1.117197
v -13.513259 10.760316 0.000000
v -10.948456 14.968093 -1.281981
v -13.278118 12.920174 -2.783537
v -13.708474 11.242222 -2.858878
v -14.106848 11.572056 -1.407006
v -13.712082 12.683531 -1.398445
v -8.571180 12.913460 -2.345050
v -8.397824 11.499367 -2.238853
v -9.056994 14.155479 -2.451248
v -10.604479 14.618103 -2.563961
v -11.993855 -12.288677 -1.959781
v -9.987666 -12.935341 -1.559081
v -13.290995 -4.839497 -0.001372
v -13.290995 -4.839497 -0.001372
v -13.290995 -4.839497 -0.001372
v -12.059560 -6.706088 -0.005682
v -12.059560 -6.706088 -0.005682
v -8.709742 -10.025917 -0.971467
v -8.907475 -9.024903 -1.069330
v -8.843059 -9.057592 -0.037234
v -8.846312 -10.215277 -0.038318
v -13.041905 -6.975924 0.021555
v -13.041905 -6.975924 0.021555
v -13.884358 -11.235155 0.016865
v -14.551416 -10.265078 0.032073
v -9.278293 -12.693783 -1.510428
v -9.056046 -11.430599 -0.037139
v -12.812481 -12.123276 -0.002777
v -10.633281 -8.019388 -2.198097
v -8.621154 -11.128696 -1.708224
v -12.403168 -12.205976 -0.981279
v -13.517395 -11.468264 -1.062934
v -13.150431 -11.701372 -2.142732
v -8.573202 -9.836592 -1.904615
v -8.838600 -11.279648 -0.872681
v -10.451309 -7.873839 -0.021458
v -13.796661 -8.620501 0.026814
v -10.542295 -8.174273 -1.109778
v -13.696196 -9.540024 -1.101513
v -14.092726 -10.691096 -1.068840
v -13.808852 -10.911119 -2.299769
v -9.023403 -8.747437 -2.126922
v -13.432541 -9.294465 -2.314670
v -6.804707 -4.782544 -13.465247
v -5.147912 12.667795 -22.239712
v -2.464193 6.671860 -13.652549
vt 0.399862 0.170619
vt 0.397426 0.160809
vt 0.409281 0.150999
vt 0.404734 0.190238
vt 0.417246 0.160809
vt 0.413075 0.170619
vt 0.443380 0.162462
vt 0.441172 0.174624
vt 0.436754 0.198949
vt 0.439334 0.150299
vt 0.433587 0.174624
vt 0.432004 0.162462
vt 0.430421 0.150299
vt 0.394990 0.150999
vt 0.421417 0.150999
vt 0.445589 0.150299
vt 0.028524 0.805511
vt 0.050467 0.804302
vt 0.046681 0.809401
vt 0.035982 0.800959
vt 0.018199 0.803413
vt 0.027138 0.798629
vt 0.007874 0.801315
vt 0.018440 0.796339
vt 0.064839 0.813292
vt 0.067038 0.807715
vt 0.018685 0.800235
vt 0.022213 0.800904
vt 0.028036 0.802138
vt 0.011888 0.798806
vt 0.037386 0.804041
vt 0.032537 0.803002
vt 0.053119 0.807412
vt 0.050695 0.806893
vt 0.068852 0.810783
vt 0.027812 0.798190
vt 0.019436 0.795792
vt 0.036625 0.800490
vt 0.050810 0.803786
vt 0.811463 0.914085
vt 0.842441 0.892087
vt 0.833548 0.921795
vt 0.812990 0.884641
vt 0.788378 0.901376
vt 0.784282 0.880904
vt 0.763361 0.895007
vt 0.759737 0.875481
vt 0.744153 0.888966
vt 0.739117 0.873768
vt 0.900850 0.948559
vt 0.909742 0.918850
vt 0.769285 0.905269
vt 0.789379 0.906375
vt 0.749190 0.904163
vt 0.755758 0.860587
vt 0.734080 0.858570
vt 0.780991 0.864459
vt 0.813753 0.869919
vt 0.846887 0.877233
vt 0.752311 0.845693
vt 0.729043 0.843372
vt 0.779822 0.848014
vt 0.814517 0.855196
vt 0.851333 0.862379
vt 0.269735 0.761674
vt 0.246213 0.750580
vt 0.269356 0.749221
vt 0.245980 0.761672
vt 0.268977 0.736768
vt 0.246445 0.739488
vt 0.290861 0.720851
vt 0.246056 0.723503
vt 0.047558 0.453957
vt 0.027513 0.460615
vt 0.050737 0.439252
vt 0.031822 0.469100
vt 0.043440 0.415785
vt 0.023204 0.452129
vt 0.046777 0.383843
vt 0.016125 0.426237
vt 0.027077 0.388973
vt 0.011819 0.410483
vt 0.231085 0.457699
vt 0.245642 0.440998
vt 0.251732 0.440909
vt 0.226139 0.457297
vt 0.210438 0.474490
vt 0.207246 0.473823
vt 0.210681 0.502911
vt 0.183538 0.505800
vt 0.210924 0.531333
vt 0.206159 0.544250
vt 0.241622 0.524910
vt 0.241408 0.541143
vt 0.272321 0.518488
vt 0.276657 0.538036
vt 0.285329 0.577132
vt 0.240979 0.573608
vt 0.244490 0.631181
vt 0.213066 0.622446
vt 0.480238 0.442261
vt 0.505931 0.439310
vt 0.505575 0.439310
vt 0.537696 0.437449
vt 0.577738 0.455238
vt 0.541834 0.447274
vt 0.568217 0.435587
vt 0.543016 0.450081
vt 0.580458 0.460852
vt 0.285672 0.230166
vt 0.280627 0.251698
vt 0.274355 0.227449
vt 0.289304 0.254554
vt 0.301726 0.227090
vt 0.304241 0.253952
vt 0.319517 0.217932
vt 0.319517 0.252161
vt 0.371865 0.011635
vt 0.355001 0.028255
vt 0.369250 0.031182
vt 0.355001 0.011635
vt 0.426022 0.011635
vt 0.440521 0.011635
vt 0.428126 0.031300
vt 0.440521 0.028490
vt 0.430231 0.050964
vt 0.440521 0.045346
vt 0.426642 0.096287
vt 0.440521 0.101529
vt 0.426783 0.104405
vt 0.440521 0.104311
vt 0.426436 0.109090
vt 0.440521 0.107092
vt 0.426114 0.123471
vt 0.440521 0.123027
vt 0.426022 0.127580
vt 0.440521 0.127580
vt 0.457916 0.448217
vt 0.451767 0.452643
vt 0.436821 0.456285
vt 0.478671 0.445977
vt 0.256802 0.377247
vt 0.192381 0.339705
vt 0.255597 0.348031
vt 0.193538 0.377164
vt 0.255597 0.406463
vt 0.192945 0.410116
vt 0.258007 0.430881
vt 0.194989 0.437583
vt 0.258007 0.323614
vt 0.194989 0.316912
vt 0.320497 0.377247
vt 0.381622 0.356722
vt 0.383140 0.377247
vt 0.319817 0.352152
vt 0.384659 0.418021
vt 0.319817 0.402342
vt 0.381622 0.397773
vt 0.321024 0.424179
vt 0.384659 0.336473
vt 0.321024 0.330316
vt 0.445502 0.377247
vt 0.500655 0.363050
vt 0.502282 0.377247
vt 0.444716 0.359913
vt 0.503909 0.405225
vt 0.444716 0.394582
vt 0.500655 0.391445
vt 0.448293 0.411864
vt 0.503909 0.349269
vt 0.448293 0.342631
vt 0.557035 0.377247
vt 0.604586 0.369817
vt 0.606806 0.377247
vt 0.556073 0.366506
vt 0.609025 0.391471
vt 0.556073 0.387989
vt 0.604586 0.384678
vt 0.559526 0.398587
vt 0.609025 0.363023
vt 0.559526 0.355908
vt 0.508223 0.572640
vt 0.451450 0.549731
vt 0.505812 0.552633
vt 0.453364 0.575395
vt 0.508752 0.589290
vt 0.454210 0.595668
vt 0.511359 0.602381
vt 0.452485 0.617585
vt 0.504111 0.538523
vt 0.450155 0.532363
vt 0.502402 0.524350
vt 0.449075 0.517889
vt 0.402457 0.575274
vt 0.353950 0.544494
vt 0.400552 0.545757
vt 0.353443 0.575005
vt 0.404015 0.595930
vt 0.353927 0.595917
vt 0.404289 0.613326
vt 0.356094 0.609067
vt 0.398964 0.521160
vt 0.354372 0.519067
vt 0.403594 0.496167
vt 0.357499 0.494366
vt 0.410666 0.462657
vt 0.364073 0.471284
vt 0.421594 0.452137
vt 0.360857 0.456938
vt 0.429564 0.448163
vt 0.360901 0.452528
vt 0.431315 0.447040
vt 0.355455 0.454770
vt 0.084654 0.771551
vt 0.084689 0.749784
vt 0.091403 0.752297
vt 0.077132 0.769504
vt 0.071020 0.779513
vt 0.063993 0.778545
vt 0.042086 0.797092
vt 0.033273 0.794792
vt 0.138472 0.785594
vt 0.117678 0.760647
vt 0.143952 0.768996
vt 0.111563 0.778573
vt 0.140505 0.796715
vt 0.110861 0.788075
vt 0.135729 0.874902
vt 0.102291 0.842842
vt 0.153628 0.771290
vt 0.148300 0.786520
vt 0.077974 0.747272
vt 0.069610 0.767457
vt 0.081217 0.779436
vt 0.150624 0.797048
vt 0.968152 0.975322
vt 0.224271 0.741842
vt 0.235163 0.732673
vt 0.335667 0.718199
vt 0.291509 0.734048
vt 0.164608 0.818257
vt 0.354991 0.761677
vt 0.358878 0.722736
vt 0.334486 0.761676
vt 0.307108 0.627659
vt 0.303940 0.601679
vt 0.258123 0.646251
vt 0.312791 0.519170
vt 0.300430 0.489779
vt 0.317087 0.491582
vt 0.295674 0.518881
vt 0.310280 0.543261
vt 0.620784 0.761672
vt 0.459152 0.737208
vt 0.620785 0.757130
vt 0.459152 0.761676
vt 0.262006 0.899215
vt 0.423071 0.969327
vt 0.421646 0.972445
vt 0.278584 0.859996
vt 0.160578 0.851770
vt 0.304360 0.449363
vt 0.311096 0.453892
vt 0.297220 0.447932
vt 0.320080 0.467492
vt 0.306676 0.577834
vt 0.115994 0.688720
vt 0.115987 0.658524
vt 0.123895 0.662815
vt 0.109522 0.685552
vt 0.107073 0.710881
vt 0.100884 0.707808
vt 0.098152 0.733043
vt 0.092246 0.730065
vt 0.169425 0.708699
vt 0.153416 0.672303
vt 0.182937 0.681791
vt 0.142710 0.698709
vt 0.159429 0.730549
vt 0.133251 0.720715
vt 0.149432 0.752398
vt 0.123792 0.742720
vt 0.195379 0.692387
vt 0.180277 0.714387
vt 0.108079 0.654233
vt 0.103051 0.682384
vt 0.262060 0.221606
vt 0.247398 0.256833
vt 0.243725 0.217336
vt 0.271758 0.248231
vt 0.196630 0.570084
vt 0.172559 0.608448
vt 0.171397 0.558600
vt 0.181643 0.613711
vt 0.158556 0.552722
vt 0.174488 0.505297
vt 0.243477 0.941570
vt 0.154335 0.885702
vt 0.030873 0.707480
vt 0.046508 0.700008
vt 0.038690 0.703744
vt 0.030873 0.671544
vt 0.033030 0.356860
vt 0.047379 0.352785
vt 0.319517 0.010211
vt 0.261215 0.010211
vt 0.312690 0.010211
vt 0.236143 0.010211
vt 0.305626 0.010211
vt 0.250116 0.010211
vt 0.291736 0.010211
vt 0.264090 0.010211
vt 0.287714 0.107307
vt 0.268510 0.107722
vt 0.411523 0.011635
vt 0.391721 0.061971
vt 0.408356 0.062154
vt 0.388730 0.011635
vt 0.057166 0.685776
vt 0.067824 0.671544
vt 0.493524 0.064709
vt 0.514265 0.055814
vt 0.515689 0.110201
vt 0.308906 0.043609
vt 0.319517 0.040790
vt 0.296556 0.059552
vt 0.169617 0.735224
vt 0.158956 0.756060
vt 0.094695 0.704735
vt 0.086339 0.727087
vt 0.030902 0.630096
vt 0.040824 0.632577
vt 0.040318 0.634848
vt 0.030902 0.626826
vt 0.049735 0.639599
vt 0.050747 0.638328
vt 0.058773 0.654744
vt 0.059279 0.654108
vt 0.194411 0.178355
vt 0.162312 0.181763
vt 0.194411 0.169033
vt 0.163727 0.201607
vt 0.194411 0.269319
vt 0.161540 0.276958
vt 0.194411 0.291441
vt 0.161008 0.295282
vt 0.263413 0.178622
vt 0.243691 0.202667
vt 0.244598 0.181715
vt 0.261913 0.206231
vt 0.277222 0.182978
vt 0.274708 0.210124
vt 0.290921 0.179556
vt 0.287276 0.212093
vt 0.305353 0.184605
vt 0.303200 0.210756
vt 0.319517 0.198017
vt 0.319517 0.207974
vt 0.129568 0.149397
vt 0.100616 0.186596
vt 0.099746 0.156821
vt 0.129845 0.183515
vt 0.164330 0.154267
vt 0.194411 0.159711
vt 0.520916 0.203651
vt 0.493108 0.176788
vt 0.519766 0.168159
vt 0.494827 0.208269
vt 0.516494 0.285538
vt 0.491424 0.292763
vt 0.514836 0.316246
vt 0.490478 0.316246
vt 0.546652 0.145929
vt 0.580899 0.196871
vt 0.548949 0.181801
vt 0.569169 0.150570
vt 0.544362 0.059607
vt 0.559450 0.063400
vt 0.412570 0.094850
vt 0.412536 0.104353
vt 0.400265 0.095906
vt 0.400316 0.104387
vt 0.387482 0.094797
vt 0.387562 0.104334
vt 0.371394 0.096216
vt 0.371745 0.104327
vt 0.355001 0.101529
vt 0.355001 0.104311
vt 0.420074 0.064663
vt 0.415798 0.038149
vt 0.378628 0.064545
vt 0.366635 0.050728
vt 0.383679 0.038090
vt 0.253815 0.110327
vt 0.246884 0.045205
vt 0.258952 0.060269
vt 0.243652 0.080199
vt 0.659575 0.377247
vt 0.645238 0.372972
vt 0.659316 0.374683
vt 0.645858 0.377247
vt 0.659316 0.379811
vt 0.645238 0.381523
vt 0.659834 0.380802
vt 0.658525 0.384356
vt 0.659834 0.373693
vt 0.658525 0.370139
vt 0.383262 0.011635
vt 0.194411 0.058183
vt 0.168618 0.028177
vt 0.194411 0.032402
vt 0.166082 0.049733
vt 0.511132 0.031744
vt 0.490390 0.007674
vt 0.507998 0.007674
vt 0.491957 0.036191
vt 0.546548 0.033640
vt 0.559450 0.007674
vt 0.559450 0.035537
vt 0.548734 0.007674
vt 0.533646 0.031744
vt 0.538018 0.007674
vt 0.563486 0.295637
vt 0.565621 0.316246
vt 0.606615 0.300007
vt 0.610611 0.316246
vt 0.400452 0.121477
vt 0.411523 0.127580
vt 0.411898 0.120848
vt 0.400308 0.127580
vt 0.388625 0.121409
vt 0.389093 0.127580
vt 0.371973 0.121417
vt 0.372047 0.127580
vt 0.355001 0.120750
vt 0.355001 0.127580
vt 0.430853 0.519078
vt 0.450421 0.485266
vt 0.432142 0.490190
vt 0.565590 0.570757
vt 0.561189 0.552930
vt 0.567912 0.578967
vt 0.570233 0.587177
vt 0.558511 0.542083
vt 0.555729 0.530811
vt 0.308331 0.462655
vt 0.273818 0.449224
vt 0.290471 0.451309
vt 0.295903 0.457539
vt 0.284112 0.488013
vt 0.269275 0.443727
vt 0.412556 0.109069
vt 0.073962 0.417889
vt 0.063677 0.379442
vt 0.063293 0.438813
vt 0.071825 0.337154
vt 0.056930 0.312978
vt 0.459985 0.202595
vt 0.464075 0.278362
vt 0.464197 0.188325
vt 0.468409 0.174055
vt 0.494855 0.158562
vt 0.472782 0.073605
vt 0.472782 0.040639
vt 0.520983 0.136410
vt 0.592628 0.243172
vt 0.556015 0.223508
vt 0.387688 0.109069
vt 0.400741 0.109270
vt 0.355001 0.107092
vt 0.371825 0.109090
vt 0.355001 0.044874
vt 0.661143 0.377247
vt 0.044063 0.320201
vt 0.037080 0.336647
vt 0.035874 0.324798
vt 0.129403 0.207268
vt 0.127956 0.281155
vt 0.092854 0.204718
vt 0.091544 0.268684
vt 0.081790 0.186577
vt 0.060116 0.253163
vt 0.080182 0.177424
vt 0.078574 0.168271
vt 0.069670 0.043302
vt 0.095033 0.042293
vt 0.069670 0.024961
vt 0.093231 0.024457
vt 0.301377 0.108892
vt 0.312185 0.077007
vt 0.319517 0.071369
vt 0.224717 0.205704
vt 0.222906 0.263995
vt 0.224717 0.199520
vt 0.224717 0.193335
vt 0.236143 0.075198
vt 0.236143 0.042705
vt 0.130440 0.090266
vt 0.120396 0.041284
vt 0.069678 0.816753
vt 0.131795 0.636910
vt 0.164122 0.645897
vt 0.056965 0.777578
vt 0.163476 0.603184
vt 0.072558 0.804203
vt 0.056271 0.800387
vt 0.200864 0.472488
vt 0.219924 0.456792
vt 0.238985 0.441095
vt 0.091225 0.284240
vt 0.127604 0.299123
vt 0.054846 0.269356
vt 0.304853 0.260485
vt 0.319517 0.260485
vt 0.290188 0.260485
vt 0.282152 0.257595
vt 0.274117 0.254706
vt 0.248291 0.266438
vt 0.222465 0.278170
vt 0.024896 0.792394
vt 0.293490 0.761676
vt 0.292500 0.747862
vt 0.223091 0.761672
vt 0.215061 0.751757
vt 0.227697 0.756715
vt 0.205850 0.761672
vt 0.238639 0.756715
vt 0.313988 0.761676
vt 0.122451 0.631496
vt 0.113107 0.626081
vt 0.196449 0.654883
vt 0.210482 0.670387
vt 0.137752 0.041284
vt 0.142825 0.023952
vt 0.147899 0.006620
vt 0.171155 0.006620
vt 0.305864 0.010211
vt 0.286287 0.010211
vt 0.116792 0.023952
vt 0.091429 0.006620
vt 0.113188 0.006620
vt 0.529275 0.055814
vt 0.507174 0.439310
vt 0.031195 0.327425
vt 0.019269 0.360768
vt 0.007343 0.394112
vt 0.466120 0.316246
vt 0.027590 0.293979
vt 0.030394 0.319993
vt 0.359861 0.151275
vt 0.371915 0.187437
vt 0.353834 0.151275
vt 0.365888 0.151275
vt 0.371915 0.151275
vt 0.377942 0.151275
vt 0.383969 0.151275
vt 0.389996 0.151275
vt 0.234034 0.761672
vt 0.623386 0.761672
vt 0.069670 0.006620
vt 0.067810 0.669889
vt 0.030902 0.669889
vt 0.194411 0.006620
vt 0.472782 0.007674
vt 0.042260 0.303478
usemtl mat_0
s 1
f 396/1 398/2 400/3
f 373/4 396/1 400/3
f 403/5 405/6 374/4
f 401/3 403/5 374/4
f 323/7 347/8 328/9
f 438/10 323/7 328/9
f 329/9 326/11 321/12
f 437/10 329/9 321/12
f 791/3 794/2 796/1
f 768/4 791/3 796/1
f 769/4 798/6 800/5
f 792/3 769/4 800/5
f 721/9 742/8 718/7
f 833/10 721/9 718/7
f 716/12 724/11 722/9
f 832/10 716/12 722/9
f 437/10 321/12 440/13
f 402/3 407/14 409/15
f 446/16 323/7 438/10
f 441/13 447/16 439/10
f 12/17 9/18 11/19
f 12/17 13/20 9/18
f 17/21 13/20 12/17
f 17/21 15/22 13/20
f 22/23 15/22 17/21
f 22/23 26/24 15/22
f 51/21 26/24 22/23
f 51/21 49/22 26/24
f 47/17 49/22 51/21
f 47/17 45/20 49/22
f 48/19 45/20 47/17
f 48/19 43/18 45/20
f 150/25 43/18 48/19
f 150/25 57/26 43/18
f 21/27 17/28 20/29
f 21/27 22/30 17/28
f 54/29 22/30 21/27
f 54/29 51/28 22/30
f 56/31 51/28 54/29
f 56/31 47/32 51/28
f 55/33 47/32 56/31
f 55/33 48/34 47/32
f 23/31 11/34 661/33
f 23/31 12/32 11/34
f 20/29 12/32 23/31
f 20/29 17/28 12/32
f 24/26 107/25 11/19
f 9/18 24/26 11/19
f 107/35 661/33 11/34
f 27/24 30/36 16/22
f 27/24 28/37 30/36
f 50/22 28/37 27/24
f 50/22 59/36 28/37
f 46/20 59/36 50/22
f 46/20 61/38 59/36
f 44/18 61/38 46/20
f 44/18 63/39 61/38
f 32/38 16/22 30/36
f 32/38 14/20 16/22
f 34/39 14/20 32/38
f 34/39 10/18 14/20
f 34/39 25/26 10/18
f 400/3 398/2 408/14
f 410/15 403/5 401/3
f 832/10 835/13 716/12
f 793/3 802/15 804/14
f 841/16 833/10 718/7
f 836/13 834/10 842/16
f 150/35 48/34 55/33
f 63/39 44/18 58/26
f 791/3 805/14 794/2
f 803/15 792/3 800/5
usemtl mat_1
f 75/40 96/41 76/42
f 75/40 97/43 96/41
f 104/44 97/43 75/40
f 104/44 116/45 97/43
f 106/46 116/45 104/44
f 106/46 111/47 116/45
f 119/48 111/47 106/46
f 119/48 112/49 111/47
f 148/46 112/49 119/48
f 148/46 154/47 112/49
f 147/44 154/47 148/46
f 147/44 156/45 154/47
f 131/40 156/45 147/44
f 131/40 142/43 156/45
f 130/42 142/43 131/40
f 130/42 141/41 142/43
f 124/50 141/41 130/42
f 124/50 127/51 141/41
f 105/52 104/44 74/53
f 105/52 106/46 104/44
f 120/54 106/46 105/52
f 120/54 119/48 106/46
f 149/52 119/48 120/54
f 149/52 148/46 119/48
f 128/53 148/46 149/52
f 128/53 147/44 148/46
f 112/49 110/55 111/47
f 112/49 113/56 110/55
f 154/47 113/56 112/49
f 154/47 153/55 113/56
f 156/45 153/55 154/47
f 156/45 155/57 153/55
f 142/43 155/57 156/45
f 142/43 157/58 155/57
f 141/41 157/58 142/43
f 141/41 158/59 157/58
f 104/44 75/40 74/53
f 115/57 111/47 110/55
f 115/57 116/45 111/47
f 117/58 116/45 115/57
f 117/58 97/43 116/45
f 118/59 97/43 117/58
f 118/59 96/41 97/43
f 113/56 101/60 110/55
f 113/56 102/61 101/60
f 153/55 102/61 113/56
f 153/55 143/60 102/61
f 155/57 143/60 153/55
f 155/57 145/62 143/60
f 157/58 145/62 155/57
f 157/58 152/63 145/62
f 158/59 152/63 157/58
f 158/59 150/64 152/63
f 100/62 110/55 101/60
f 100/62 115/57 110/55
f 109/63 115/57 100/62
f 109/63 117/58 115/57
f 107/64 117/58 109/63
f 107/64 118/59 117/58
f 107/64 71/51 118/59
f 118/59 72/51 96/41
f 72/51 70/50 76/42
f 96/41 72/51 76/42
f 147/44 128/53 131/40
f 150/64 158/59 126/51
f 158/59 141/41 127/51
usemtl mat_2
f 69/65 67/66 68/67
f 69/65 66/68 67/66
f 122/67 66/68 69/65
f 122/67 123/66 66/68
f 132/69 123/66 122/67
f 132/69 129/70 123/66
f 124/71 129/70 132/69
f 124/71 130/72 129/70
f 233/73 262/74 263/75
f 233/73 245/76 262/74
f 254/75 245/76 233/73
f 254/75 279/74 245/76
f 291/77 279/74 254/75
f 291/77 259/78 279/74
f 748/79 259/78 291/77
f 748/79 761/80 259/78
f 747/81 761/80 748/79
f 747/81 765/82 761/80
f 305/83 293/84 304/85
f 305/83 294/86 293/84
f 310/87 294/86 305/83
f 310/87 300/88 294/86
f 299/89 300/88 310/87
f 299/89 185/90 300/88
f 302/91 185/90 299/89
f 302/91 301/92 185/90
f 303/93 301/92 302/91
f 303/93 296/94 301/92
f 319/95 296/94 303/93
f 319/95 297/96 296/94
f 298/97 296/94 297/96
f 298/97 295/98 296/94
f 469/99 295/98 298/97
f 469/99 468/100 295/98
f 264/101 265/102 320/103
f 234/104 349/105 348/106
f 234/104 235/107 349/105
f 743/106 235/107 234/104
f 743/106 744/105 235/107
f 283/108 744/105 743/106
f 283/108 286/109 744/105
f 372/110 307/111 371/112
f 372/110 306/113 307/111
f 390/114 306/113 372/110
f 390/114 313/115 306/113
f 389/116 313/115 390/114
f 389/116 314/117 313/115
f 443/118 445/119 442/120
f 443/118 444/121 445/119
f 448/122 444/121 443/118
f 448/122 449/123 444/121
f 457/124 449/123 448/122
f 457/124 463/125 449/123
f 456/126 463/125 457/124
f 456/126 465/127 463/125
f 163/128 465/127 456/126
f 163/128 162/129 465/127
f 335/130 162/129 163/128
f 335/130 332/131 162/129
f 342/132 332/131 335/130
f 342/132 197/133 332/131
f 275/134 197/133 342/132
f 275/134 360/135 197/133
f 274/136 360/135 275/134
f 274/136 361/137 360/135
f 266/138 351/139 484/140
f 266/138 350/141 351/139
f 264/101 350/141 266/138
f 264/101 320/103 350/141
f 485/142 502/143 486/144
f 485/142 501/145 502/143
f 488/146 501/145 485/142
f 488/146 504/147 501/145
f 487/148 504/147 488/146
f 487/148 503/149 504/147
f 497/146 503/149 487/148
f 497/146 508/147 503/149
f 495/142 508/147 497/146
f 495/142 507/145 508/147
f 496/144 507/145 495/142
f 496/144 506/143 507/145
f 493/150 506/143 496/144
f 493/150 505/151 506/143
f 486/144 505/151 493/150
f 486/144 502/143 505/151
f 489/152 510/153 509/154
f 489/152 490/155 510/153
f 485/142 490/155 489/152
f 485/142 486/144 490/155
f 511/156 492/157 512/158
f 511/156 491/159 492/157
f 521/158 491/159 511/156
f 521/158 500/157 491/159
f 519/154 500/157 521/158
f 519/154 499/152 500/157
f 520/153 499/152 519/154
f 520/153 498/155 499/152
f 517/160 498/155 520/153
f 517/160 494/161 498/155
f 510/153 494/161 517/160
f 510/153 490/155 494/161
f 513/162 526/163 525/164
f 513/162 514/165 526/163
f 509/154 514/165 513/162
f 509/154 510/153 514/165
f 527/166 516/167 528/168
f 527/166 515/169 516/167
f 547/168 515/169 527/166
f 547/168 524/167 515/169
f 545/164 524/167 547/168
f 545/164 523/162 524/167
f 546/163 523/162 545/164
f 546/163 522/165 523/162
f 541/170 522/165 546/163
f 541/170 518/171 522/165
f 526/163 518/171 541/170
f 526/163 514/165 518/171
f 530/172 532/173 529/174
f 530/172 531/175 532/173
f 525/164 531/175 530/172
f 525/164 526/163 531/175
f 533/176 535/177 536/178
f 533/176 534/179 535/177
f 552/178 534/179 533/176
f 552/178 553/177 534/179
f 548/174 553/177 552/178
f 548/174 551/172 553/177
f 549/173 551/172 548/174
f 549/173 550/175 551/172
f 543/180 550/175 549/173
f 543/180 542/181 550/175
f 532/173 542/181 543/180
f 532/173 531/175 542/181
f 246/182 247/183 248/184
f 246/182 557/185 247/183
f 250/186 557/185 246/182
f 250/186 173/187 557/185
f 249/188 173/187 250/186
f 249/188 172/189 173/187
f 258/186 172/189 249/188
f 258/186 174/187 172/189
f 255/182 174/187 258/186
f 255/182 558/185 174/187
f 256/184 558/185 255/182
f 256/184 257/183 558/185
f 261/190 257/183 256/184
f 261/190 260/191 257/183
f 754/192 260/191 261/190
f 754/192 753/193 260/191
f 560/194 562/195 559/196
f 560/194 561/197 562/195
f 566/198 561/197 560/194
f 566/198 565/199 561/197
f 563/200 565/199 566/198
f 563/200 564/201 565/199
f 594/198 564/201 563/200
f 594/198 595/199 564/201
f 593/194 595/199 594/198
f 593/194 592/197 595/199
f 590/196 592/197 593/194
f 590/196 591/195 592/197
f 288/202 591/195 590/196
f 288/202 614/203 591/195
f 292/204 614/203 288/202
f 292/204 615/205 614/203
f 607/206 615/205 292/204
f 607/206 609/207 615/205
f 608/208 609/207 607/206
f 608/208 604/209 609/207
f 606/210 604/209 608/208
f 606/210 605/211 604/209
f 267/212 605/211 606/210
f 267/212 579/213 605/211
f 580/210 579/213 267/212
f 580/210 575/211 579/213
f 583/208 575/211 580/210
f 583/208 576/209 575/211
f 581/206 576/209 583/208
f 581/206 582/207 576/209
f 278/204 582/207 581/206
f 278/204 589/205 582/207
f 273/202 589/205 278/204
f 273/202 588/203 589/205
f 559/196 588/203 273/202
f 559/196 562/195 588/203
f 644/214 616/215 617/216
f 644/214 618/217 616/215
f 659/218 618/217 644/214
f 659/218 682/219 618/217
f 33/220 682/219 659/218
f 33/220 31/221 682/219
f 646/222 619/223 645/224
f 646/222 647/225 619/223
f 651/226 647/225 646/222
f 651/226 652/227 647/225
f 73/228 652/227 651/226
f 73/228 71/229 652/227
f 648/230 646/222 645/224
f 648/230 649/231 646/222
f 656/224 649/231 648/230
f 656/224 655/222 649/231
f 636/223 655/222 656/224
f 636/223 654/225 655/222
f 635/216 654/225 636/223
f 635/216 653/214 654/225
f 633/215 653/214 635/216
f 633/215 634/217 653/214
f 630/232 634/217 633/215
f 630/232 629/233 634/217
f 616/215 629/233 630/232
f 616/215 618/217 629/233
f 659/218 644/214 660/234
f 649/231 651/226 646/222
f 649/231 650/235 651/226
f 655/222 650/235 649/231
f 655/222 657/226 650/235
f 654/225 657/226 655/222
f 654/225 658/227 657/226
f 653/214 658/227 654/225
f 653/214 664/234 658/227
f 70/50 71/51 73/236
f 76/72 74/237 75/238
f 76/72 77/70 74/237
f 70/71 77/70 76/72
f 70/71 78/69 77/70
f 73/239 78/69 70/71
f 73/239 121/240 78/69
f 650/235 83/241 651/226
f 650/235 82/241 83/241
f 657/226 82/241 650/235
f 657/226 134/241 82/241
f 86/242 73/239 85/243
f 86/242 84/244 73/239
f 135/243 84/244 86/242
f 135/243 125/239 84/244
f 568/245 469/99 567/246
f 568/245 665/247 469/99
f 596/246 665/247 568/245
f 596/246 478/99 665/247
f 571/248 573/249 570/250
f 571/248 572/251 573/249
f 684/252 572/251 571/248
f 684/252 297/96 572/251
f 94/253 92/254 93/255
f 94/253 91/256 92/254
f 138/255 91/256 94/253
f 138/255 139/254 91/256
f 95/257 90/258 93/259
f 95/257 88/260 90/258
f 87/261 88/260 95/257
f 87/261 83/241 88/260
f 574/262 576/209 577/263
f 574/262 575/211 576/209
f 578/264 575/211 574/262
f 578/264 579/213 575/211
f 602/262 579/213 578/264
f 602/262 605/211 579/213
f 603/263 605/211 602/262
f 603/263 604/209 605/211
f 610/265 604/209 603/263
f 610/265 609/207 604/209
f 598/250 609/207 610/265
f 598/250 615/205 609/207
f 601/248 615/205 598/250
f 601/248 614/203 615/205
f 685/252 614/203 601/248
f 685/252 591/195 614/203
f 597/266 591/195 685/252
f 597/266 592/197 591/195
f 596/246 592/197 597/266
f 596/246 595/199 592/197
f 666/267 470/268 471/269
f 666/267 667/270 470/268
f 673/271 667/270 666/267
f 673/271 620/272 667/270
f 621/273 620/272 673/271
f 621/273 622/274 620/272
f 617/216 622/274 621/273
f 617/216 616/215 622/274
f 669/275 472/276 668/277
f 669/275 670/278 472/276
f 624/279 670/278 669/275
f 624/279 623/280 670/278
f 625/281 623/280 624/279
f 625/281 626/282 623/280
f 645/224 626/282 625/281
f 645/224 619/223 626/282
f 671/283 669/275 668/277
f 671/283 672/284 669/275
f 677/277 672/284 671/283
f 677/277 679/275 672/284
f 481/276 679/275 677/277
f 481/276 678/278 679/275
f 480/269 678/278 481/276
f 480/269 676/267 678/278
f 479/268 676/267 480/269
f 479/268 675/270 676/267
f 475/285 675/270 479/268
f 475/285 674/286 675/270
f 470/268 674/286 475/285
f 470/268 667/270 674/286
f 377/287 308/288 376/289
f 377/287 309/290 308/288
f 371/112 309/290 377/287
f 371/112 307/111 309/290
f 681/291 474/292 186/293
f 681/291 473/294 474/292
f 295/98 473/294 681/291
f 295/98 468/100 473/294
f 186/293 301/92 681/291
f 186/293 185/90 301/92
f 188/295 185/90 186/293
f 188/295 187/296 185/90
f 193/293 187/296 188/295
f 193/293 192/90 187/296
f 864/291 192/90 193/293
f 864/291 695/92 192/90
f 689/98 695/92 864/291
f 689/98 692/94 695/92
f 690/97 692/94 689/98
f 690/97 691/96 692/94
f 91/256 85/243 92/254
f 91/256 86/242 85/243
f 139/254 86/242 91/256
f 139/254 135/243 86/242
f 87/261 95/257 92/297
f 85/298 87/261 92/297
f 82/241 88/260 83/241
f 82/241 89/260 88/260
f 134/241 89/260 82/241
f 134/241 137/260 89/260
f 136/261 137/260 134/241
f 136/261 140/257 137/260
f 135/298 140/257 136/261
f 135/298 139/297 140/257
f 102/299 99/300 101/301
f 102/299 98/302 99/300
f 143/301 98/302 102/299
f 143/301 144/300 98/302
f 354/79 353/303 170/304
f 354/79 352/81 353/303
f 366/80 352/81 354/79
f 366/80 370/82 352/81
f 413/305 411/306 412/307
f 413/305 414/308 411/306
f 419/309 414/308 413/305
f 419/309 425/310 414/308
f 416/311 425/310 419/309
f 416/311 415/312 425/310
f 379/313 415/312 416/311
f 379/313 378/314 415/312
f 451/315 450/316 436/317
f 451/315 452/318 450/316
f 448/122 452/318 451/315
f 448/122 443/118 452/318
f 108/319 99/300 98/302
f 107/320 108/319 98/302
f 453/321 325/322 327/323
f 421/324 413/305 420/325
f 421/324 419/309 413/305
f 424/326 419/309 421/324
f 424/326 416/311 419/309
f 627/327 625/281 624/279
f 627/327 628/328 625/281
f 643/279 628/328 627/327
f 643/279 642/281 628/328
f 640/280 642/281 643/279
f 640/280 641/282 642/281
f 680/271 641/282 640/280
f 680/271 639/273 641/282
f 637/272 639/273 680/271
f 637/272 638/274 639/273
f 631/329 638/274 637/272
f 631/329 632/330 638/274
f 620/272 632/330 631/329
f 620/272 622/274 632/330
f 8/331 20/332 7/333
f 8/331 21/334 20/332
f 42/333 21/334 8/331
f 42/333 54/332 21/334
f 53/335 54/332 42/333
f 53/335 56/336 54/332
f 52/337 56/336 53/335
f 52/337 55/338 56/336
f 19/335 661/338 18/337
f 19/335 23/336 661/338
f 7/333 23/336 19/335
f 7/333 20/332 23/336
f 381/339 383/340 380/341
f 381/339 382/342 383/340
f 317/343 382/342 381/339
f 317/343 315/344 382/342
f 319/345 315/344 317/343
f 319/345 303/346 315/344
f 176/347 385/348 177/349
f 176/347 384/350 385/348
f 175/351 384/350 176/347
f 175/351 387/352 384/350
f 181/353 387/352 175/351
f 181/353 386/354 387/352
f 180/355 386/354 181/353
f 180/355 391/356 386/354
f 182/357 391/356 180/355
f 182/357 388/358 391/356
f 386/354 371/112 387/352
f 386/354 372/110 371/112
f 391/356 372/110 386/354
f 391/356 390/114 372/110
f 388/358 390/114 391/356
f 388/358 389/116 390/114
f 179/359 393/360 178/361
f 179/359 392/362 393/360
f 184/363 392/362 179/359
f 184/363 383/340 392/362
f 183/364 383/340 184/363
f 183/364 380/341 383/340
f 194/365 331/366 330/367
f 194/365 195/368 331/366
f 359/369 195/368 194/365
f 359/369 367/370 195/368
f 358/371 367/370 359/369
f 358/371 364/372 367/370
f 161/373 332/374 333/375
f 161/373 162/376 332/374
f 467/377 162/376 161/373
f 467/377 465/378 162/376
f 160/379 335/130 163/128
f 160/379 334/380 335/130
f 164/381 334/380 160/379
f 164/381 337/382 334/380
f 165/383 337/382 164/381
f 165/383 336/384 337/382
f 166/385 336/384 165/383
f 166/385 339/386 336/384
f 167/387 339/386 166/385
f 167/387 338/388 339/386
f 435/389 457/124 455/390
f 435/389 456/126 457/124
f 160/379 456/126 435/389
f 160/379 163/128 456/126
f 454/391 166/385 165/383
f 454/391 458/392 166/385
f 459/393 458/392 454/391
f 459/393 442/120 458/392
f 452/318 442/120 459/393
f 452/318 443/118 442/120
f 418/394 423/395 417/396
f 418/394 422/397 423/395
f 176/347 422/397 418/394
f 176/347 177/349 422/397
f 199/398 538/399 200/400
f 199/398 537/401 538/399
f 202/402 537/401 199/398
f 202/402 540/403 537/401
f 201/404 540/403 202/402
f 201/404 539/405 540/403
f 207/402 539/405 201/404
f 207/402 556/403 539/405
f 205/398 556/403 207/402
f 205/398 555/401 556/403
f 206/400 555/401 205/398
f 206/400 554/399 555/401
f 203/406 554/399 206/400
f 203/406 544/407 554/399
f 200/400 544/407 203/406
f 200/400 538/399 544/407
f 460/123 444/121 449/123
f 460/123 461/408 444/121
f 447/123 461/408 460/123
f 447/123 441/315 461/408
f 92/297 95/257 93/259
f 430/409 428/410 429/411
f 430/409 427/412 428/410
f 183/364 427/412 430/409
f 183/364 184/363 427/412
f 322/413 461/414 441/415
f 322/413 462/416 461/414
f 325/322 462/416 322/413
f 325/322 453/321 462/416
f 464/417 449/418 463/419
f 464/417 460/420 449/418
f 324/421 460/420 464/417
f 324/421 447/422 460/420
f 348/106 320/103 265/102
f 348/106 268/108 320/103
f 349/105 268/108 348/106
f 349/105 270/109 268/108
f 356/423 358/371 359/369
f 356/423 357/424 358/371
f 360/425 357/424 356/423
f 360/425 361/426 357/424
f 269/427 270/428 271/429
f 269/427 268/430 270/428
f 340/431 268/430 269/427
f 340/431 320/432 268/430
f 362/433 320/432 340/431
f 362/433 350/434 320/432
f 363/435 350/434 362/433
f 363/435 351/436 350/434
f 272/437 364/438 358/193
f 272/437 365/439 364/438
f 273/202 365/439 272/437
f 273/202 278/204 365/439
f 493/150 490/155 486/144
f 493/150 494/161 490/155
f 496/144 494/161 493/150
f 496/144 498/155 494/161
f 495/142 498/155 496/144
f 495/142 499/152 498/155
f 497/146 499/152 495/142
f 497/146 500/157 499/152
f 487/148 500/157 497/146
f 487/148 491/159 500/157
f 488/146 491/159 487/148
f 488/146 492/157 491/159
f 485/142 492/157 488/146
f 485/142 489/152 492/157
f 517/160 514/165 510/153
f 517/160 518/171 514/165
f 520/153 518/171 517/160
f 520/153 522/165 518/171
f 519/154 522/165 520/153
f 519/154 523/162 522/165
f 521/158 523/162 519/154
f 521/158 524/167 523/162
f 511/156 524/167 521/158
f 511/156 515/169 524/167
f 512/158 515/169 511/156
f 512/158 516/167 515/169
f 509/154 516/167 512/158
f 509/154 513/162 516/167
f 489/152 509/154 512/158
f 492/157 489/152 512/158
f 541/170 531/175 526/163
f 541/170 542/181 531/175
f 546/163 542/181 541/170
f 546/163 550/175 542/181
f 545/164 550/175 546/163
f 545/164 551/172 550/175
f 547/168 551/172 545/164
f 547/168 553/177 551/172
f 527/166 553/177 547/168
f 527/166 534/179 553/177
f 528/168 534/179 527/166
f 528/168 535/177 534/179
f 525/164 535/177 528/168
f 525/164 530/172 535/177
f 513/162 525/164 528/168
f 516/167 513/162 528/168
f 543/180 538/399 532/173
f 543/180 544/407 538/399
f 549/173 544/407 543/180
f 549/173 554/399 544/407
f 548/174 554/399 549/173
f 548/174 555/401 554/399
f 552/178 555/401 548/174
f 552/178 556/403 555/401
f 533/176 556/403 552/178
f 533/176 539/405 556/403
f 536/178 539/405 533/176
f 536/178 540/403 539/405
f 529/174 540/403 536/178
f 529/174 537/401 540/403
f 532/173 537/401 529/174
f 532/173 538/399 537/401
f 530/172 529/174 536/178
f 535/177 530/172 536/178
f 251/440 248/184 366/441
f 251/440 246/182 248/184
f 262/442 246/182 251/440
f 262/442 250/186 246/182
f 245/443 250/186 262/442
f 245/443 249/188 250/186
f 279/442 249/188 245/443
f 279/442 258/186 249/188
f 259/440 258/186 279/442
f 259/440 255/182 258/186
f 761/441 255/182 259/440
f 761/441 256/184 255/182
f 765/444 256/184 761/441
f 765/444 261/190 256/184
f 755/445 261/190 765/444
f 755/445 754/192 261/190
f 252/191 273/202 272/437
f 252/191 247/183 273/202
f 253/190 247/183 252/191
f 253/190 248/184 247/183
f 370/444 248/184 253/190
f 370/444 366/441 248/184
f 560/194 173/187 566/198
f 560/194 557/185 173/187
f 559/196 557/185 560/194
f 559/196 247/183 557/185
f 172/189 566/198 173/187
f 172/189 563/200 566/198
f 174/187 563/200 172/189
f 174/187 594/198 563/200
f 558/185 594/198 174/187
f 558/185 593/194 594/198
f 257/183 593/194 558/185
f 257/183 590/196 593/194
f 569/266 565/199 567/246
f 569/266 561/197 565/199
f 684/252 561/197 569/266
f 684/252 562/195 561/197
f 571/248 562/195 684/252
f 571/248 588/203 562/195
f 570/250 588/203 571/248
f 570/250 589/205 588/203
f 584/265 589/205 570/250
f 584/265 582/207 589/205
f 577/263 582/207 584/265
f 577/263 576/209 582/207
f 585/446 312/447 586/448
f 585/446 311/449 312/447
f 573/249 311/449 585/446
f 573/249 587/450 311/449
f 572/251 587/450 573/249
f 572/251 319/95 587/450
f 686/451 312/447 304/85
f 686/451 586/448 312/447
f 574/262 586/448 686/451
f 574/262 577/263 586/448
f 686/451 304/85 293/84
f 275/134 270/428 274/136
f 275/134 271/429 270/428
f 342/132 271/429 275/134
f 342/132 341/452 271/429
f 335/130 341/452 342/132
f 335/130 334/380 341/452
f 240/453 501/145 504/147
f 240/453 237/454 501/145
f 263/75 237/454 240/453
f 263/75 276/77 237/454
f 262/74 276/77 263/75
f 262/74 251/78 276/77
f 503/149 240/453 504/147
f 503/149 241/455 240/453
f 508/147 241/455 503/149
f 508/147 244/453 241/455
f 507/145 244/453 508/147
f 507/145 242/454 244/453
f 506/143 242/454 507/145
f 506/143 243/456 242/454
f 505/151 243/456 506/143
f 505/151 239/457 243/456
f 502/143 239/457 505/151
f 502/143 236/456 239/457
f 501/145 236/456 502/143
f 501/145 237/454 236/456
f 354/79 276/77 251/78
f 366/80 354/79 251/78
f 196/458 367/370 363/459
f 196/458 195/368 367/370
f 338/460 195/368 196/458
f 338/460 331/366 195/368
f 167/461 331/366 338/460
f 167/461 168/462 331/366
f 466/463 168/462 167/461
f 466/463 453/321 168/462
f 445/464 453/321 466/463
f 445/464 462/416 453/321
f 169/465 331/366 168/462
f 169/465 330/367 331/366
f 161/373 330/367 169/465
f 161/373 333/375 330/367
f 197/466 333/375 332/374
f 197/466 198/467 333/375
f 360/425 198/467 197/466
f 360/425 356/423 198/467
f 198/467 330/367 333/375
f 198/467 194/365 330/367
f 356/423 194/365 198/467
f 356/423 359/369 194/365
f 343/468 337/382 336/384
f 343/468 344/469 337/382
f 340/431 344/469 343/468
f 340/431 269/427 344/469
f 344/469 334/380 337/382
f 344/469 341/452 334/380
f 269/427 341/452 344/469
f 269/427 271/429 341/452
f 196/470 339/386 338/388
f 196/470 345/471 339/386
f 363/435 345/471 196/470
f 363/435 362/433 345/471
f 345/471 336/384 339/386
f 345/471 343/468 336/384
f 362/433 343/468 345/471
f 362/433 340/431 343/468
f 458/392 167/387 166/385
f 458/392 466/472 167/387
f 442/120 466/472 458/392
f 442/120 445/119 466/472
f 203/406 199/398 200/400
f 203/406 204/473 199/398
f 206/400 204/473 203/406
f 206/400 205/398 204/473
f 204/473 202/402 199/398
f 204/473 201/404 202/402
f 205/398 201/404 204/473
f 205/398 207/402 201/404
f 170/304 239/457 236/456
f 170/304 355/474 239/457
f 368/475 355/474 170/304
f 368/475 369/476 355/474
f 170/304 353/303 368/475
f 394/477 315/344 316/478
f 394/477 382/342 315/344
f 392/362 382/342 394/477
f 392/362 383/340 382/342
f 395/479 316/478 318/480
f 395/479 394/477 316/478
f 393/360 394/477 395/479
f 393/360 392/362 394/477
f 389/481 318/480 314/482
f 389/481 395/479 318/480
f 388/483 395/479 389/481
f 388/483 393/360 395/479
f 182/484 393/360 388/483
f 182/484 178/361 393/360
f 433/485 178/361 182/484
f 433/485 434/486 178/361
f 420/487 434/486 433/485
f 420/487 426/488 434/486
f 431/489 180/355 181/353
f 431/489 432/490 180/355
f 424/326 432/490 431/489
f 424/326 421/324 432/490
f 432/490 182/357 180/355
f 432/490 433/491 182/357
f 421/324 433/491 432/490
f 421/324 420/325 433/491
f 381/492 308/288 317/493
f 381/492 376/289 308/288
f 380/494 376/289 381/492
f 380/494 385/348 376/289
f 183/495 385/348 380/494
f 183/495 177/349 385/348
f 430/496 177/349 183/495
f 430/496 422/397 177/349
f 429/497 422/397 430/496
f 429/497 423/395 422/397
f 414/308 423/395 429/497
f 414/308 425/310 423/395
f 375/498 434/486 397/499
f 384/350 376/289 385/348
f 384/350 377/287 376/289
f 387/352 377/287 384/350
f 387/352 371/112 377/287
f 585/446 570/250 573/249
f 585/446 584/265 570/250
f 586/448 584/265 585/446
f 586/448 577/263 584/265
f 24/26 71/500 107/25
f 644/214 652/227 660/234
f 644/214 647/225 652/227
f 617/216 647/225 644/214
f 617/216 619/223 647/225
f 621/273 619/223 617/216
f 621/273 626/282 619/223
f 673/271 626/282 621/273
f 673/271 623/280 626/282
f 666/267 623/280 673/271
f 666/267 670/278 623/280
f 471/269 670/278 666/267
f 471/269 472/276 670/278
f 473/501 472/276 471/269
f 473/501 468/502 472/276
f 296/94 295/98 681/291
f 301/92 296/94 681/291
f 687/503 618/217 682/219
f 687/503 629/233 618/217
f 683/219 629/233 687/503
f 683/219 634/217 629/233
f 663/218 634/217 683/219
f 663/218 653/214 634/217
f 476/504 186/293 474/292
f 476/504 188/295 186/293
f 482/292 188/295 476/504
f 482/292 193/293 188/295
f 483/294 193/293 482/292
f 483/294 864/291 193/293
f 477/100 864/291 483/294
f 477/100 689/98 864/291
f 478/99 689/98 477/100
f 478/99 690/97 689/98
f 24/505 652/227 71/229
f 24/505 660/234 652/227
f 35/506 660/234 24/505
f 35/506 659/218 660/234
f 241/455 263/75 240/453
f 241/455 233/73 263/75
f 244/453 233/73 241/455
f 244/453 254/75 233/73
f 242/454 254/75 244/453
f 242/454 291/77 254/75
f 572/251 297/96 319/95
f 187/296 300/88 185/90
f 187/296 189/507 300/88
f 192/90 189/507 187/296
f 192/90 693/88 189/507
f 694/89 693/88 192/90
f 694/89 705/87 693/88
f 189/507 294/86 300/88
f 189/507 190/508 294/86
f 693/88 190/508 189/507
f 693/88 698/86 190/508
f 705/87 698/86 693/88
f 705/87 699/83 698/86
f 190/508 293/84 294/86
f 190/508 191/509 293/84
f 698/86 191/509 190/508
f 698/86 688/84 191/509
f 699/83 688/84 698/86
f 699/83 700/85 688/84
f 686/451 293/84 578/264
f 574/262 686/451 578/264
f 299/510 316/478 302/511
f 299/510 318/480 316/478
f 310/512 318/480 299/510
f 310/512 314/482 318/480
f 305/513 314/117 310/514
f 305/513 313/115 314/117
f 304/515 313/115 305/513
f 304/515 306/113 313/115
f 312/516 306/113 304/515
f 312/516 307/111 306/113
f 311/517 307/111 312/516
f 311/517 309/290 307/111
f 587/518 309/290 311/517
f 587/518 308/288 309/290
f 319/519 308/288 587/518
f 319/519 317/493 308/288
f 302/511 316/478 315/344
f 303/346 302/511 315/344
f 29/520 682/219 31/221
f 29/520 687/503 682/219
f 60/221 687/503 29/520
f 60/221 683/219 687/503
f 62/220 683/219 60/221
f 62/220 663/218 683/219
f 659/218 35/506 33/220
f 81/521 68/67 79/522
f 81/521 69/65 68/67
f 133/522 69/65 81/521
f 133/522 122/67 69/65
f 159/240 122/67 133/522
f 159/240 132/69 122/67
f 125/239 132/69 159/240
f 125/239 124/71 132/69
f 114/523 105/524 103/525
f 114/523 120/526 105/524
f 146/525 120/526 114/523
f 146/525 149/524 120/526
f 77/70 103/527 105/524
f 77/70 67/66 103/527
f 78/69 67/66 77/70
f 78/69 68/67 67/66
f 121/240 68/67 78/69
f 121/240 79/522 68/67
f 84/244 79/522 121/240
f 84/244 80/528 79/522
f 159/240 80/528 84/244
f 159/240 133/522 80/528
f 73/239 84/244 121/240
f 77/70 105/524 74/237
f 630/232 622/274 616/215
f 630/232 632/330 622/274
f 633/215 632/330 630/232
f 633/215 638/274 632/330
f 635/216 638/274 633/215
f 635/216 639/273 638/274
f 636/223 639/273 635/216
f 636/223 641/282 639/273
f 656/224 641/282 636/223
f 656/224 642/281 641/282
f 648/230 642/281 656/224
f 648/230 628/328 642/281
f 645/224 628/328 648/230
f 645/224 625/281 628/328
f 631/329 667/270 620/272
f 631/329 674/286 667/270
f 637/272 674/286 631/329
f 637/272 675/270 674/286
f 680/271 675/270 637/272
f 680/271 676/267 675/270
f 640/280 676/267 680/271
f 640/280 678/278 676/267
f 643/279 678/278 640/280
f 643/279 679/275 678/278
f 627/327 679/275 643/279
f 627/327 672/284 679/275
f 624/279 672/284 627/327
f 624/279 669/275 672/284
f 475/285 474/529 470/268
f 475/285 476/530 474/529
f 479/268 476/530 475/285
f 479/268 482/529 476/530
f 480/269 482/529 479/268
f 480/269 483/501 482/529
f 481/276 483/501 480/269
f 481/276 477/502 483/501
f 677/277 477/502 481/276
f 677/277 478/531 477/502
f 671/283 478/531 677/277
f 671/283 665/532 478/531
f 668/277 665/532 671/283
f 668/277 469/531 665/532
f 472/276 469/531 668/277
f 472/276 468/502 469/531
f 473/501 471/269 470/268
f 474/529 473/501 470/268
f 427/412 375/498 406/533
f 404/534 427/412 406/533
f 404/534 428/410 427/412
f 409/535 428/410 404/534
f 409/535 411/536 428/410
f 407/537 412/307 411/306
f 409/538 407/537 411/306
f 399/539 412/540 407/541
f 399/539 426/488 412/540
f 397/499 426/488 399/539
f 397/499 434/486 426/488
f 179/359 427/412 184/363
f 179/359 375/498 427/412
f 178/361 375/498 179/359
f 178/361 434/486 375/498
f 423/395 425/310 415/312
f 417/396 423/395 415/312
f 455/390 457/124 448/122
f 451/315 455/390 448/122
f 467/377 327/323 346/542
f 464/417 467/377 346/542
f 324/421 464/417 346/542
f 277/543 348/106 265/102
f 277/543 234/104 348/106
f 281/102 234/104 277/543
f 281/102 743/106 234/104
f 715/103 743/106 281/102
f 715/103 283/108 743/106
f 484/140 583/208 266/138
f 484/140 581/206 583/208
f 365/439 581/206 484/140
f 365/439 278/204 581/206
f 580/210 266/138 583/208
f 580/210 264/101 266/138
f 267/212 264/101 580/210
f 267/212 265/102 264/101
f 353/303 270/544 368/475
f 353/303 274/545 270/544
f 352/81 274/545 353/303
f 352/81 361/546 274/545
f 367/370 364/372 351/547
f 363/459 367/370 351/547
f 273/202 247/183 559/196
f 365/439 484/140 351/139
f 364/438 365/439 351/139
f 235/548 355/474 369/476
f 349/549 235/548 369/476
f 169/465 467/377 161/373
f 169/465 327/323 467/377
f 168/462 327/323 169/465
f 168/462 453/321 327/323
f 272/437 358/193 252/191
f 357/192 252/191 358/193
f 357/192 253/190 252/191
f 361/445 253/190 357/192
f 361/445 370/444 253/190
f 352/81 370/82 361/546
f 280/101 715/103 281/102
f 702/113 766/112 701/111
f 702/113 767/110 766/112
f 708/115 767/110 702/113
f 708/115 785/114 767/110
f 709/117 785/114 708/115
f 709/117 786/116 785/114
f 839/121 837/120 838/119
f 839/121 840/118 837/120
f 844/123 840/118 839/121
f 844/123 843/122 840/118
f 859/125 843/122 844/123
f 859/125 851/124 843/122
f 860/127 851/124 859/125
f 860/127 852/126 851/124
f 210/129 852/126 860/127
f 210/129 211/128 852/126
f 728/131 211/128 210/129
f 728/131 729/130 211/128
f 232/133 729/130 728/131
f 232/133 736/132 729/130
f 756/135 736/132 232/133
f 756/135 290/134 736/132
f 755/137 290/134 756/135
f 755/137 289/136 290/134
f 745/141 863/140 746/139
f 745/141 282/138 863/140
f 715/103 282/138 745/141
f 715/103 280/101 282/138
f 663/218 664/234 653/214
f 124/50 125/236 126/51
f 129/70 130/72 131/238
f 128/237 129/70 131/238
f 600/251 598/250 599/249
f 600/251 601/248 598/250
f 691/96 601/248 600/251
f 691/96 685/252 601/248
f 137/260 140/257 138/259
f 90/258 137/260 138/259
f 704/290 772/289 703/288
f 704/290 771/287 772/289
f 701/111 771/287 704/290
f 701/111 766/112 771/287
f 749/303 748/79 171/304
f 749/303 747/81 748/79
f 289/545 747/81 749/303
f 289/545 755/546 747/81
f 807/308 809/307 806/306
f 807/308 808/305 809/307
f 820/310 808/305 807/308
f 820/310 814/309 808/305
f 811/312 814/309 820/310
f 811/312 810/311 814/309
f 773/314 810/311 811/312
f 773/314 774/313 810/311
f 846/318 831/317 845/316
f 846/318 847/315 831/317
f 840/118 847/315 846/318
f 840/118 843/122 847/315
f 98/302 144/300 151/319
f 150/320 98/302 151/319
f 848/321 720/323 723/322
f 814/309 816/325 808/305
f 814/309 815/324 816/325
f 810/311 815/324 814/309
f 810/311 819/326 815/324
f 658/227 125/228 657/226
f 658/227 126/229 125/228
f 664/234 126/229 658/227
f 664/234 57/505 126/229
f 663/218 57/505 664/234
f 663/218 64/506 57/505
f 777/342 775/341 776/340
f 777/342 778/339 775/341
f 710/344 778/339 777/342
f 710/344 712/343 778/339
f 697/346 712/343 710/344
f 697/346 714/345 712/343
f 780/350 220/349 779/348
f 780/350 218/347 220/349
f 782/352 218/347 780/350
f 782/352 219/351 218/347
f 781/354 219/351 782/352
f 781/354 224/353 219/351
f 784/356 224/353 781/354
f 784/356 223/355 224/353
f 783/358 223/355 784/356
f 783/358 225/357 223/355
f 767/110 782/352 766/112
f 767/110 781/354 782/352
f 785/114 781/354 767/110
f 785/114 784/356 781/354
f 786/116 784/356 785/114
f 786/116 783/358 784/356
f 788/362 221/361 787/360
f 788/362 222/359 221/361
f 776/340 222/359 788/362
f 776/340 226/363 222/359
f 775/341 226/363 776/340
f 775/341 227/364 226/363
f 228/368 725/367 726/366
f 228/368 229/365 725/367
f 762/370 229/365 228/368
f 762/370 752/369 229/365
f 759/372 752/369 762/370
f 759/372 753/371 752/369
f 210/376 727/375 728/374
f 210/376 209/373 727/375
f 860/378 209/373 210/376
f 860/378 862/377 209/373
f 730/380 211/128 729/130
f 730/380 208/379 211/128
f 731/382 208/379 730/380
f 731/382 212/381 208/379
f 732/384 212/381 731/382
f 732/384 213/383 212/381
f 733/386 213/383 732/384
f 733/386 214/385 213/383
f 734/388 214/385 733/386
f 734/388 215/387 214/385
f 852/126 850/390 851/124
f 852/126 830/389 850/390
f 211/128 830/389 852/126
f 211/128 208/379 830/389
f 853/392 213/383 214/385
f 853/392 849/391 213/383
f 837/120 849/391 853/392
f 837/120 854/393 849/391
f 840/118 854/393 837/120
f 840/118 846/318 854/393
f 818/397 812/396 817/395
f 818/397 813/394 812/396
f 220/349 813/394 818/397
f 220/349 218/347 813/394
f 855/408 844/123 839/121
f 855/408 856/123 844/123
f 836/315 856/123 855/408
f 836/315 842/123 856/123
f 139/297 138/259 140/257
f 822/412 824/411 825/410
f 822/412 823/409 824/411
f 226/363 823/409 822/412
f 226/363 227/364 823/409
f 857/416 836/415 855/414
f 857/416 717/413 836/415
f 848/321 717/413 857/416
f 848/321 723/322 717/413
f 856/420 859/419 844/418
f 856/420 858/417 859/419
f 842/422 858/417 856/420
f 842/422 719/421 858/417
f 754/424 752/369 753/371
f 754/424 751/423 752/369
f 755/426 751/423 754/424
f 755/426 756/425 751/423
f 283/430 285/429 286/428
f 283/430 284/427 285/429
f 715/432 284/427 283/430
f 715/432 735/431 284/427
f 745/434 735/431 715/432
f 745/434 757/433 735/431
f 746/436 757/433 745/434
f 746/436 758/435 757/433
f 760/439 753/193 759/438
f 760/439 287/437 753/193
f 292/204 287/437 760/439
f 292/204 288/202 287/437
f 288/202 257/183 260/191
f 287/437 288/202 260/191
f 707/449 612/448 706/447
f 707/449 611/446 612/448
f 613/450 611/446 707/449
f 613/450 599/249 611/446
f 714/95 599/249 613/450
f 714/95 600/251 599/249
f 612/448 700/85 706/447
f 612/448 865/451 700/85
f 603/263 865/451 612/448
f 603/263 602/262 865/451
f 865/451 688/84 700/85
f 285/429 289/136 286/428
f 285/429 290/134 289/136
f 737/452 290/134 285/429
f 737/452 736/132 290/134
f 730/380 736/132 737/452
f 730/380 729/130 736/132
f 228/368 758/459 762/370
f 228/368 230/458 758/459
f 726/366 230/458 228/368
f 726/366 734/460 230/458
f 216/462 734/460 726/366
f 216/462 215/461 734/460
f 848/321 215/461 216/462
f 848/321 861/463 215/461
f 857/416 861/463 848/321
f 857/416 838/464 861/463
f 725/367 216/462 726/366
f 725/367 217/465 216/462
f 727/375 217/465 725/367
f 727/375 209/373 217/465
f 231/467 728/374 727/375
f 231/467 232/466 728/374
f 751/423 232/466 231/467
f 751/423 756/425 232/466
f 229/365 727/375 725/367
f 229/365 231/467 727/375
f 752/369 231/467 229/365
f 752/369 751/423 231/467
f 738/469 732/384 731/382
f 738/469 739/468 732/384
f 284/427 739/468 738/469
f 284/427 735/431 739/468
f 737/452 731/382 730/380
f 737/452 738/469 731/382
f 285/429 738/469 737/452
f 285/429 284/427 738/469
f 740/471 734/388 733/386
f 740/471 230/470 734/388
f 757/433 230/470 740/471
f 757/433 758/435 230/470
f 739/468 733/386 732/384
f 739/468 740/471 733/386
f 735/431 740/471 739/468
f 735/431 757/433 740/471
f 861/472 214/385 215/387
f 861/472 853/392 214/385
f 838/119 853/392 861/472
f 838/119 837/120 853/392
f 750/474 243/456 239/457
f 750/474 171/304 243/456
f 764/476 171/304 750/474
f 764/476 763/475 171/304
f 171/304 763/475 749/303
f 777/342 711/478 710/344
f 777/342 789/477 711/478
f 776/340 789/477 777/342
f 776/340 788/362 789/477
f 789/477 713/480 711/478
f 789/477 790/479 713/480
f 788/362 790/479 789/477
f 788/362 787/360 790/479
f 790/479 709/482 713/480
f 790/479 786/481 709/482
f 787/360 786/481 790/479
f 787/360 783/483 786/481
f 221/361 783/483 787/360
f 221/361 225/484 783/483
f 829/486 225/484 221/361
f 829/486 828/485 225/484
f 821/488 828/485 829/486
f 821/488 816/487 828/485
f 826/490 224/353 223/355
f 826/490 827/489 224/353
f 815/324 827/489 826/490
f 815/324 819/326 827/489
f 828/491 223/355 225/357
f 828/491 826/490 223/355
f 816/325 826/490 828/491
f 816/325 815/324 826/490
f 772/289 712/493 703/288
f 772/289 778/492 712/493
f 779/348 778/492 772/289
f 779/348 775/494 778/492
f 220/349 775/494 779/348
f 220/349 227/495 775/494
f 818/397 227/495 220/349
f 818/397 823/496 227/495
f 817/395 823/496 818/397
f 817/395 824/497 823/496
f 820/310 824/497 817/395
f 820/310 807/308 824/497
f 770/498 797/499 829/486
f 771/287 779/348 772/289
f 771/287 780/350 779/348
f 766/112 780/350 771/287
f 766/112 782/352 780/350
f 610/265 599/249 598/250
f 610/265 611/446 599/249
f 603/263 611/446 610/265
f 603/263 612/448 611/446
f 57/26 150/25 126/500
f 696/91 692/94 697/93
f 696/91 695/92 692/94
f 694/89 695/92 696/91
f 694/89 192/90 695/92
f 714/95 697/93 692/94
f 691/96 714/95 692/94
f 600/251 714/95 691/96
f 578/264 688/84 865/451
f 602/262 578/264 865/451
f 713/480 696/511 711/478
f 713/480 694/510 696/511
f 709/482 694/510 713/480
f 709/482 705/512 694/510
f 708/115 705/514 709/117
f 708/115 699/513 705/514
f 702/113 699/513 708/115
f 702/113 700/515 699/513
f 701/111 700/515 702/113
f 701/111 706/516 700/515
f 704/290 706/516 701/111
f 704/290 707/517 706/516
f 703/288 707/517 704/290
f 703/288 613/518 707/517
f 712/493 613/518 703/288
f 712/493 714/519 613/518
f 710/344 711/478 696/511
f 697/346 710/344 696/511
f 663/218 62/220 64/506
f 129/70 149/524 146/527
f 123/66 129/70 146/527
f 125/239 159/240 84/244
f 129/70 128/237 149/524
f 822/412 799/533 770/498
f 825/410 799/533 822/412
f 825/410 801/534 799/533
f 806/536 801/534 825/410
f 806/536 802/535 801/534
f 806/306 809/307 804/537
f 802/538 806/306 804/537
f 821/488 804/541 809/540
f 821/488 795/539 804/541
f 829/486 795/539 821/488
f 829/486 797/499 795/539
f 770/498 226/363 822/412
f 770/498 222/359 226/363
f 829/486 222/359 770/498
f 829/486 221/361 222/359
f 811/312 820/310 817/395
f 812/396 811/312 817/395
f 843/122 851/124 850/390
f 847/315 843/122 850/390
f 862/377 741/542 720/323
f 741/542 862/377 858/417
f 719/421 741/542 858/417
f 607/206 282/138 608/208
f 607/206 863/140 282/138
f 292/204 863/140 607/206
f 292/204 760/439 863/140
f 280/101 608/208 282/138
f 280/101 606/210 608/208
f 281/102 606/210 280/101
f 281/102 267/212 606/210
f 286/544 289/545 749/303
f 763/475 286/544 749/303
f 746/547 759/372 762/370
f 758/459 746/547 762/370
f 288/202 590/196 257/183
f 746/139 863/140 760/439
f 759/438 746/139 760/439
f 764/476 750/474 235/548
f 744/549 764/476 235/548
f 720/323 209/373 862/377
f 720/323 217/465 209/373
f 848/321 217/465 720/323
f 848/321 216/462 217/465
f 287/437 260/191 753/193
f 747/81 755/546 765/82
f 3/550 1/551 2/552
f 2/550 4/553 3/551
f 5/554 3/551 4/553
f 5/554 36/555 3/551
f 6/556 3/551 36/555
f 6/556 1/557 3/551
f 237/454 170/304 236/456
f 237/454 354/79 170/304
f 276/77 354/79 237/454
f 80/528 81/521 79/522
f 80/528 133/522 81/521
f 87/261 651/226 83/241
f 87/261 73/228 651/226
f 85/298 73/228 87/261
f 298/97 567/246 469/99
f 298/97 569/266 567/246
f 297/96 569/266 298/97
f 297/96 684/252 569/266
f 89/260 90/258 88/260
f 89/260 137/260 90/258
f 66/68 103/527 67/66
f 66/68 114/558 103/527
f 146/527 114/558 66/68
f 66/68 123/66 146/527
f 459/393 450/316 452/318
f 459/393 454/391 450/316
f 165/383 450/316 454/391
f 165/383 164/381 450/316
f 436/317 450/316 164/381
f 164/381 160/379 436/317
f 435/389 436/317 160/379
f 435/389 455/390 436/317
f 451/315 436/317 455/390
f 424/326 379/313 416/311
f 424/326 431/489 379/313
f 181/353 379/313 431/489
f 181/353 175/351 379/313
f 378/314 379/313 175/351
f 175/351 176/347 378/314
f 418/394 378/314 176/347
f 418/394 417/396 378/314
f 415/312 378/314 417/396
f 90/559 94/253 93/255
f 90/559 138/255 94/253
f 413/560 426/488 420/487
f 413/560 412/540 426/488
f 564/201 567/246 565/199
f 564/201 568/245 567/246
f 596/246 568/245 564/201
f 564/201 595/199 596/246
f 107/561 18/337 661/338
f 107/561 98/562 18/337
f 19/335 18/337 98/562
f 98/562 7/333 19/335
f 8/331 7/333 98/562
f 98/562 42/333 8/331
f 53/335 42/333 98/562
f 98/562 52/337 53/335
f 150/561 52/337 98/562
f 150/561 55/338 52/337
f 191/509 578/264 293/84
f 191/509 688/84 578/264
f 428/410 414/563 429/411
f 428/410 411/536 414/563
f 462/416 444/564 461/414
f 462/416 445/464 444/564
f 465/378 464/417 463/419
f 465/378 467/377 464/417
f 369/476 270/544 349/549
f 369/476 368/475 270/544
f 267/212 277/543 265/102
f 267/212 281/102 277/543
f 38/551 662/550 37/552
f 38/551 39/553 662/550
f 40/554 39/553 38/551
f 38/551 65/555 40/554
f 41/556 65/555 38/551
f 38/551 37/557 41/556
f 171/304 242/454 243/456
f 171/304 748/79 242/454
f 291/77 242/454 748/79
f 657/226 136/261 134/241
f 657/226 125/228 136/261
f 135/298 136/261 125/228
f 596/246 690/97 478/99
f 596/246 597/266 690/97
f 691/96 690/97 597/266
f 597/266 685/252 691/96
f 845/316 854/393 846/318
f 845/316 849/391 854/393
f 213/383 849/391 845/316
f 845/316 212/381 213/383
f 831/317 212/381 845/316
f 831/317 208/379 212/381
f 830/389 208/379 831/317
f 831/317 850/390 830/389
f 847/315 850/390 831/317
f 774/313 819/326 810/311
f 774/313 827/489 819/326
f 224/353 827/489 774/313
f 774/313 219/351 224/353
f 773/314 219/351 774/313
f 773/314 218/347 219/351
f 813/394 218/347 773/314
f 773/314 812/396 813/394
f 811/312 812/396 773/314
f 821/488 808/560 816/487
f 821/488 809/540 808/560
f 807/563 825/410 824/411
f 807/563 806/536 825/410
f 839/564 857/416 855/414
f 839/564 838/464 857/416
f 858/417 860/378 859/419
f 858/417 862/377 860/378
f 286/544 764/476 744/549
f 286/544 763/475 764/476
f 238/565 239/457 355/474
f 238/565 750/474 239/457
f 235/548 750/474 238/565
f 238/565 355/474 235/548
