xof 0303txt 0032

template AnimTicksPerSecond {
  <9E415A43-7BA6-4a73-8743-B73D47E88476>
  DWORD AnimTicksPerSecond;
}

template XSkinMeshHeader {
  <3cf169ce-ff7c-44ab-93c0-f78f62d172e2>
  WORD nMaxSkinWeightsPerVertex;
  WORD nMaxSkinWeightsPerFace;
  WORD nBones;
}

template SkinWeights {
  <6f0d123b-bad2-4167-a0d0-80224f25fabb>
  STRING transformNodeName;
  DWORD nWeights;
  array DWORD vertexIndices[nWeights];
  array float weights[nWeights];
  Matrix4x4 matrixOffset;
}

Frame Root {
  FrameTransformMatrix {
     1.000000, 0.000000, 0.000000, 0.000000,
     0.000000, 0.000000, 1.000000, 0.000000,
     0.000000, 1.000000,-0.000000, 0.000000,
     0.000000, 0.000000, 0.000000, 1.000000;;
  }
  Frame starmie_mat_0 {
    FrameTransformMatrix {
       1.000000, 0.000000, 0.000000, 0.000000,
       0.000000, 1.000000, 0.000000, 0.000000,
       0.000000, 0.000000, 1.000000, 0.000000,
       0.000000, 0.000000, 0.000000, 1.000000;;
    }
    Mesh { //Mesh Mesh
      570;
       1.349600; 3.115200; 1.041970;,
       1.202050; 3.399280; 1.116380;,
       2.662870; 3.865640; 0.000000;,
       1.202050; 3.399280; 1.116380;,
       2.620330; 4.140470; 0.000000;,
       2.662870; 3.865640; 0.000000;,
       2.620330; 4.140470; 0.000000;,
       1.202050; 3.399280; 1.116380;,
       0.000000; 5.743000; 1.662380;,
       1.349600; 3.115200;-0.581105;,
       2.662870; 3.865640; 0.000000;,
       1.202050; 3.399280;-0.620097;,
       2.662870; 3.865640; 0.000000;,
       2.620330; 4.140470; 0.000000;,
       1.202050; 3.399280;-0.620097;,
       1.202050; 3.399280;-0.620097;,
       2.620330; 4.140470; 0.000000;,
       0.000000; 5.743000;-0.947696;,
       2.462590; 6.133030;-0.585310;,
       2.143390; 7.293750; 0.000000;,
       2.173760; 6.087290;-0.623356;,
       2.143390; 7.293750; 0.000000;,
       1.883540; 7.325390; 0.000000;,
       2.173760; 6.087290;-0.623356;,
       2.173760; 6.087290;-0.623356;,
       1.883540; 7.325390; 0.000000;,
       0.000000; 5.743000;-0.947696;,
       1.883540; 7.325390; 0.000000;,
       0.000000; 7.309560;-0.663034;,
       0.000000; 5.743000;-0.947696;,
       0.000000; 7.309560;-0.663034;,
       1.883540; 7.325390; 0.000000;,
       1.758420; 7.597000; 0.000000;,
       1.758420; 7.597000; 0.000000;,
       0.000000; 7.597000;-0.621246;,
       0.000000; 7.309560;-0.663034;,
       2.462590; 6.133030; 1.049280;,
       2.177670; 6.087910; 1.120850;,
       2.143390; 7.293750; 0.000000;,
       2.177670; 6.087910; 1.120850;,
       1.883540; 7.325390; 0.000000;,
       2.143390; 7.293750; 0.000000;,
       1.883540; 7.325390; 0.000000;,
       2.177670; 6.087910; 1.120850;,
       0.000000; 5.743000; 1.662380;,
       2.462590; 6.133030;-0.585310;,
       2.173760; 6.087290;-0.623356;,
       2.949600; 4.362110; 0.000000;,
       2.173760; 6.087290;-0.623356;,
       2.620330; 4.140470; 0.000000;,
       2.949600; 4.362110; 0.000000;,
       2.620330; 4.140470; 0.000000;,
       2.173760; 6.087290;-0.623356;,
       0.000000; 5.743000;-0.947696;,
       2.462590; 6.133030; 1.049280;,
       2.949600; 4.362110; 0.000000;,
       2.177670; 6.087910; 1.120850;,
       2.949600; 4.362110; 0.000000;,
       2.620330; 4.140470; 0.000000;,
       2.177670; 6.087910; 1.120850;,
       2.177670; 6.087910; 1.120850;,
       2.620330; 4.140470; 0.000000;,
       0.000000; 5.743000; 1.662380;,
      -1.349600; 3.115200; 1.041970;,
      -2.662870; 3.865640; 0.000000;,
      -1.202050; 3.399280; 1.116380;,
      -2.662870; 3.865640; 0.000000;,
      -2.620880; 4.140160; 0.000000;,
      -1.202050; 3.399280; 1.116380;,
      -1.202050; 3.399280; 1.116380;,
      -2.620880; 4.140160; 0.000000;,
       0.000000; 5.743000; 1.662380;,
      -1.349600; 3.115200;-0.581105;,
      -1.202050; 3.399280;-0.620097;,
      -2.662870; 3.865640; 0.000000;,
      -1.202050; 3.399280;-0.620097;,
      -2.620880; 4.140160; 0.000000;,
      -2.662870; 3.865640; 0.000000;,
      -2.620880; 4.140160; 0.000000;,
      -1.202050; 3.399280;-0.620097;,
       0.000000; 5.743000;-0.947696;,
       0.000000; 7.597000;-0.621246;,
      -1.758420; 7.597000; 0.000000;,
       0.000000; 7.309560;-0.663034;,
      -1.758420; 7.597000; 0.000000;,
      -1.883340; 7.325810; 0.000000;,
       0.000000; 7.309560;-0.663034;,
       0.000000; 7.309560;-0.663034;,
      -1.883340; 7.325810; 0.000000;,
       0.000000; 5.743000;-0.947696;,
       0.000000; 7.597000; 1.108490;,
       0.000000; 7.309560; 1.187940;,
      -1.758420; 7.597000; 0.000000;,
       0.000000; 7.309560; 1.187940;,
      -1.883340; 7.325810; 0.000000;,
      -1.758420; 7.597000; 0.000000;,
      -1.883340; 7.325810; 0.000000;,
       0.000000; 7.309560; 1.187940;,
       0.000000; 5.743000; 1.662380;,
       0.000000; 7.597000; 1.108490;,
       1.758420; 7.597000; 0.000000;,
       0.000000; 7.309560; 1.187940;,
       1.758420; 7.597000; 0.000000;,
       1.883540; 7.325390; 0.000000;,
       0.000000; 7.309560; 1.187940;,
       0.000000; 7.309560; 1.187940;,
       1.883540; 7.325390; 0.000000;,
       0.000000; 5.743000; 1.662380;,
       0.000000; 5.743000;-0.947696;,
      -1.202050; 3.399280;-0.620097;,
       0.000000; 2.727340; 0.000000;,
      -1.202050; 3.399280;-0.620097;,
      -0.240595; 2.481480; 0.000000;,
       0.000000; 2.727340; 0.000000;,
      -0.240595; 2.481480; 0.000000;,
      -1.202050; 3.399280;-0.620097;,
      -1.349600; 3.115200;-0.581105;,
      -1.349600; 3.115200;-0.581105;,
      -0.958379; 1.858540; 0.008522;,
      -0.240595; 2.481480; 0.000000;,
      -0.958379; 1.858540; 0.008522;,
      -1.349600; 3.115200;-0.581105;,
      -1.866320; 2.340410;-0.395101;,
      -1.866320; 2.340410;-0.395101;,
      -1.550580; 1.344610; 0.300204;,
      -0.958379; 1.858540; 0.008522;,
      -1.550580; 1.344610; 0.300204;,
      -1.866320; 2.340410;-0.395101;,
      -2.114460; 1.758540;-0.214217;,
      -2.114460; 1.758540;-0.214217;,
      -2.479410; 0.173737;-0.355247;,
      -1.550580; 1.344610; 0.300204;,
      -2.479410; 0.173737;-0.355247;,
      -2.114460; 1.758540;-0.214217;,
      -2.690240; 0.228744;-0.524087;,
      -2.690240; 0.228744;-0.524087;,
      -2.945970; 0.146268;-0.462628;,
      -2.479410; 0.173737;-0.355247;,
      -2.479410; 0.173737;-0.355247;,
      -2.945970; 0.146268;-0.462628;,
      -2.744480; 0.062692;-0.245932;,
       0.000000; 5.743000; 1.662380;,
       0.000000; 2.727340; 0.000000;,
      -1.202050; 3.399280; 1.116380;,
       0.000000; 2.727340; 0.000000;,
      -0.240595; 2.481480; 0.000000;,
      -1.202050; 3.399280; 1.116380;,
      -1.202050; 3.399280; 1.116380;,
      -0.240595; 2.481480; 0.000000;,
      -1.349600; 3.115200; 1.041970;,
      -0.240595; 2.481480; 0.000000;,
      -0.958379; 1.858540; 0.008522;,
      -1.349600; 3.115200; 1.041970;,
      -1.349600; 3.115200; 1.041970;,
      -0.958379; 1.858540; 0.008522;,
      -1.754530; 2.385070; 0.882260;,
      -0.958379; 1.858540; 0.008522;,
      -1.550580; 1.344610; 0.300204;,
      -1.754530; 2.385070; 0.882260;,
      -1.754530; 2.385070; 0.882260;,
      -1.550580; 1.344610; 0.300204;,
      -2.164900; 1.514180; 0.807490;,
      -1.550580; 1.344610; 0.300204;,
      -2.479410; 0.173737;-0.355247;,
      -2.164900; 1.514180; 0.807490;,
      -2.164900; 1.514180; 0.807490;,
      -2.479410; 0.173737;-0.355247;,
      -2.744480; 0.062692;-0.245932;,
       0.000000; 5.743000;-0.947696;,
      -2.173760; 6.087290;-0.623356;,
      -2.620880; 4.140160; 0.000000;,
      -2.173760; 6.087290;-0.623356;,
      -2.949600; 4.362110; 0.000000;,
      -2.620880; 4.140160; 0.000000;,
      -2.949600; 4.362110; 0.000000;,
      -2.173760; 6.087290;-0.623356;,
      -2.462590; 6.133030;-0.585310;,
      -2.462590; 6.133030;-0.585310;,
      -3.456200; 4.671610;-0.013426;,
      -2.949600; 4.362110; 0.000000;,
      -3.456200; 4.671610;-0.013426;,
      -2.462590; 6.133030;-0.585310;,
      -3.380540; 6.126440;-0.458526;,
      -3.380540; 6.126440;-0.458526;,
      -4.341210; 5.012920; 0.143107;,
      -3.456200; 4.671610;-0.013426;,
      -4.341210; 5.012920; 0.143107;,
      -3.380540; 6.126440;-0.458526;,
      -4.436050; 5.992140;-0.185667;,
       0.000000; 5.743000; 1.662380;,
      -2.177670; 6.087910; 1.120850;,
      -1.883340; 7.325810; 0.000000;,
      -2.177670; 6.087910; 1.120850;,
      -2.143390; 7.293750; 0.000000;,
      -1.883340; 7.325810; 0.000000;,
      -2.143390; 7.293750; 0.000000;,
      -2.177670; 6.087910; 1.120850;,
      -2.462590; 6.133030; 1.049280;,
      -2.462590; 6.133030; 1.049280;,
      -3.326000; 7.035510; 0.021226;,
      -2.143390; 7.293750; 0.000000;,
      -3.326000; 7.035510; 0.021226;,
      -2.462590; 6.133030; 1.049280;,
      -3.369260; 6.106930; 0.830205;,
      -3.369260; 6.106930; 0.830205;,
      -4.424390; 6.609390; 0.143744;,
      -3.326000; 7.035510; 0.021226;,
      -4.424390; 6.609390; 0.143744;,
      -3.369260; 6.106930; 0.830205;,
      -4.317800; 5.997940; 0.704946;,
       0.000000; 5.743000;-0.947696;,
      -1.883340; 7.325810; 0.000000;,
      -2.173760; 6.087290;-0.623356;,
      -1.883340; 7.325810; 0.000000;,
      -2.143390; 7.293750; 0.000000;,
      -2.173760; 6.087290;-0.623356;,
      -2.173760; 6.087290;-0.623356;,
      -2.143390; 7.293750; 0.000000;,
      -2.462590; 6.133030;-0.585310;,
      -2.143390; 7.293750; 0.000000;,
      -3.326000; 7.035510; 0.021226;,
      -2.462590; 6.133030;-0.585310;,
      -2.462590; 6.133030;-0.585310;,
      -3.326000; 7.035510; 0.021226;,
      -3.380540; 6.126440;-0.458526;,
      -3.326000; 7.035510; 0.021226;,
      -4.424390; 6.609390; 0.143744;,
      -3.380540; 6.126440;-0.458526;,
      -3.380540; 6.126440;-0.458526;,
      -4.424390; 6.609390; 0.143744;,
      -4.436050; 5.992140;-0.185667;,
       0.000000; 5.743000; 1.662380;,
      -2.620880; 4.140160; 0.000000;,
      -2.177670; 6.087910; 1.120850;,
      -2.620880; 4.140160; 0.000000;,
      -2.949600; 4.362110; 0.000000;,
      -2.177670; 6.087910; 1.120850;,
      -2.177670; 6.087910; 1.120850;,
      -2.949600; 4.362110; 0.000000;,
      -2.462590; 6.133030; 1.049280;,
      -2.949600; 4.362110; 0.000000;,
      -3.456200; 4.671610;-0.013426;,
      -2.462590; 6.133030; 1.049280;,
      -2.462590; 6.133030; 1.049280;,
      -3.456200; 4.671610;-0.013426;,
      -3.369260; 6.106930; 0.830205;,
      -3.456200; 4.671610;-0.013426;,
      -4.341210; 5.012920; 0.143107;,
      -3.369260; 6.106930; 0.830205;,
      -3.369260; 6.106930; 0.830205;,
      -4.341210; 5.012920; 0.143107;,
      -4.317800; 5.997940; 0.704946;,
       0.000000; 5.743000;-0.947696;,
       0.000000; 2.727340; 0.000000;,
       1.202050; 3.399280;-0.620097;,
       0.000000; 2.727340; 0.000000;,
       0.240595; 2.481480; 0.000000;,
       1.202050; 3.399280;-0.620097;,
       1.202050; 3.399280;-0.620097;,
       0.240595; 2.481480; 0.000000;,
       1.349600; 3.115200;-0.581105;,
       1.349600; 3.115200;-0.581105;,
       0.240595; 2.481480; 0.000000;,
       1.001370; 1.851010; 0.094949;,
       1.349600; 3.115200;-0.581105;,
       1.001370; 1.851010; 0.094949;,
       1.869060; 2.337770;-0.384243;,
       1.001370; 1.851010; 0.094949;,
       1.580720; 1.315200; 0.312474;,
       1.869060; 2.337770;-0.384243;,
       1.869060; 2.337770;-0.384243;,
       1.580720; 1.315200; 0.312474;,
       2.131490; 1.798100;-0.239971;,
       1.580720; 1.315200; 0.312474;,
       2.608450; 0.086331;-0.243878;,
       2.131490; 1.798100;-0.239971;,
       2.131490; 1.798100;-0.239971;,
       2.608450; 0.086331;-0.243878;,
       2.815190; 0.124188;-0.422221;,
       2.608450; 0.086331;-0.243878;,
       3.074020; 0.057249;-0.355085;,
       2.815190; 0.124188;-0.422221;,
       3.074020; 0.057249;-0.355085;,
       2.608450; 0.086331;-0.243878;,
       2.878100;-0.002386;-0.125730;,
       0.000000; 5.743000; 1.662380;,
       1.202050; 3.399280; 1.116380;,
       0.000000; 2.727340; 0.000000;,
       1.202050; 3.399280; 1.116380;,
       0.240595; 2.481480; 0.000000;,
       0.000000; 2.727340; 0.000000;,
       0.240595; 2.481480; 0.000000;,
       1.202050; 3.399280; 1.116380;,
       1.349600; 3.115200; 1.041970;,
       1.349600; 3.115200; 1.041970;,
       1.001370; 1.851010; 0.094949;,
       0.240595; 2.481480; 0.000000;,
       1.001370; 1.851010; 0.094949;,
       1.349600; 3.115200; 1.041970;,
       1.829470; 2.443050; 0.893837;,
       1.829470; 2.443050; 0.893837;,
       1.580720; 1.315200; 0.312474;,
       1.001370; 1.851010; 0.094949;,
       1.580720; 1.315200; 0.312474;,
       1.829470; 2.443050; 0.893837;,
       2.295770; 1.516060; 0.759831;,
       2.295770; 1.516060; 0.759831;,
       2.608450; 0.086331;-0.243878;,
       1.580720; 1.315200; 0.312474;,
       2.608450; 0.086331;-0.243878;,
       2.295770; 1.516060; 0.759831;,
       2.878100;-0.002386;-0.125730;,
      -1.758420; 7.597000; 0.000000;,
       0.000000; 7.597000;-0.621246;,
      -1.077240; 8.927070; 0.109640;,
       0.000000; 7.597000;-0.621246;,
       0.108069; 8.832190;-0.337391;,
      -1.077240; 8.927070; 0.109640;,
      -1.077240; 8.927070; 0.109640;,
       0.108069; 8.832190;-0.337391;,
      -0.394815; 9.966100; 0.207114;,
       0.108069; 8.832190;-0.337391;,
       0.309019; 9.856710;-0.100155;,
      -0.394815; 9.966100; 0.207114;,
      -0.394815; 9.966100; 0.207114;,
       0.309019; 9.856710;-0.100155;,
       0.390187;10.880200; 0.294299;,
       0.309019; 9.856710;-0.100155;,
       0.620030;10.819500; 0.154190;,
       0.390187;10.880200; 0.294299;,
      -1.758420; 7.597000; 0.000000;,
      -1.077240; 8.927070; 0.109640;,
       0.000000; 7.597000; 1.108490;,
      -1.077240; 8.927070; 0.109640;,
       0.098626; 8.724260; 0.879255;,
       0.000000; 7.597000; 1.108490;,
       0.098626; 8.724260; 0.879255;,
      -1.077240; 8.927070; 0.109640;,
      -0.394815; 9.966100; 0.207114;,
      -0.394815; 9.966100; 0.207114;,
       0.302870; 9.786430; 0.692116;,
       0.098626; 8.724260; 0.879255;,
       0.302870; 9.786430; 0.692116;,
      -0.394815; 9.966100; 0.207114;,
       0.390187;10.880200; 0.294299;,
       0.390187;10.880200; 0.294299;,
       0.617491;10.790500; 0.481355;,
       0.302870; 9.786430; 0.692116;,
       1.758420; 7.597000; 0.000000;,
       1.291850; 8.719810; 0.109640;,
       0.000000; 7.597000;-0.621246;,
       1.291850; 8.719810; 0.109640;,
       0.108069; 8.832190;-0.337391;,
       0.000000; 7.597000;-0.621246;,
       0.108069; 8.832190;-0.337391;,
       1.291850; 8.719810; 0.109640;,
       1.008190; 9.693980; 0.193863;,
       1.008190; 9.693980; 0.193863;,
       0.309019; 9.856710;-0.100155;,
       0.108069; 8.832190;-0.337391;,
       0.309019; 9.856710;-0.100155;,
       1.008190; 9.693980; 0.193863;,
       0.847770;10.734800; 0.284957;,
       0.847770;10.734800; 0.284957;,
       0.620030;10.819500; 0.154190;,
       0.309019; 9.856710;-0.100155;,
       1.758420; 7.597000; 0.000000;,
       0.000000; 7.597000; 1.108490;,
       1.291850; 8.719810; 0.109640;,
       0.000000; 7.597000; 1.108490;,
       0.098626; 8.724260; 0.879255;,
       1.291850; 8.719810; 0.109640;,
       1.291850; 8.719810; 0.109640;,
       0.098626; 8.724260; 0.879255;,
       1.008190; 9.693980; 0.193863;,
       0.098626; 8.724260; 0.879255;,
       0.302870; 9.786430; 0.692116;,
       1.008190; 9.693980; 0.193863;,
       1.008190; 9.693980; 0.193863;,
       0.302870; 9.786430; 0.692116;,
       0.847770;10.734800; 0.284957;,
       0.302870; 9.786430; 0.692116;,
       0.617491;10.790500; 0.481355;,
       0.847770;10.734800; 0.284957;,
       0.620030;10.819500; 0.154190;,
       0.847770;10.734800; 0.284957;,
       0.390187;10.880200; 0.294299;,
       0.847770;10.734800; 0.284957;,
       0.617491;10.790500; 0.481355;,
       0.390187;10.880200; 0.294299;,
       2.143390; 7.293750; 0.000000;,
       2.462590; 6.133030;-0.585310;,
       3.307260; 7.053330; 0.000000;,
       2.462590; 6.133030;-0.585310;,
       3.376600; 6.138340;-0.466394;,
       3.307260; 7.053330; 0.000000;,
       3.307260; 7.053330; 0.000000;,
       3.376600; 6.138340;-0.466394;,
       4.274820; 6.870720;-0.117248;,
       3.376600; 6.138340;-0.466394;,
       4.354570; 6.261530;-0.452489;,
       4.274820; 6.870720;-0.117248;,
       4.274820; 6.870720;-0.117248;,
       4.354570; 6.261530;-0.452489;,
       5.724530; 6.807650;-0.481778;,
       4.354570; 6.261530;-0.452489;,
       5.772700; 6.634220;-0.625888;,
       5.724530; 6.807650;-0.481778;,
       2.143390; 7.293750; 0.000000;,
       3.307260; 7.053330; 0.000000;,
       2.462590; 6.133030; 1.049280;,
       3.307260; 7.053330; 0.000000;,
       3.376600; 6.138340; 0.822534;,
       2.462590; 6.133030; 1.049280;,
       3.376600; 6.138340; 0.822534;,
       3.307260; 7.053330; 0.000000;,
       4.274820; 6.870720;-0.117248;,
       4.274820; 6.870720;-0.117248;,
       4.460650; 6.274230; 0.439584;,
       3.376600; 6.138340; 0.822534;,
       4.460650; 6.274230; 0.439584;,
       4.274820; 6.870720;-0.117248;,
       5.724530; 6.807650;-0.481778;,
       5.724530; 6.807650;-0.481778;,
       5.852390; 6.649400;-0.307603;,
       4.460650; 6.274230; 0.439584;,
       2.949600; 4.362110; 0.000000;,
       3.486180; 4.692360; 0.000000;,
       2.462590; 6.133030;-0.585310;,
       3.486180; 4.692360; 0.000000;,
       3.376600; 6.138340;-0.466394;,
       2.462590; 6.133030;-0.585310;,
       3.376600; 6.138340;-0.466394;,
       3.486180; 4.692360; 0.000000;,
       4.583550; 5.301820;-0.131617;,
       4.583550; 5.301820;-0.131617;,
       4.354570; 6.261530;-0.452489;,
       3.376600; 6.138340;-0.466394;,
       4.354570; 6.261530;-0.452489;,
       4.583550; 5.301820;-0.131617;,
       5.914450; 6.367400;-0.508330;,
       5.914450; 6.367400;-0.508330;,
       5.772700; 6.634220;-0.625888;,
       4.354570; 6.261530;-0.452489;,
       2.949600; 4.362110; 0.000000;,
       2.462590; 6.133030; 1.049280;,
       3.486180; 4.692360; 0.000000;,
       2.462590; 6.133030; 1.049280;,
       3.376600; 6.138340; 0.822534;,
       3.486180; 4.692360; 0.000000;,
       3.486180; 4.692360; 0.000000;,
       3.376600; 6.138340; 0.822534;,
       4.583550; 5.301820;-0.131617;,
       3.376600; 6.138340; 0.822534;,
       4.460650; 6.274230; 0.439584;,
       4.583550; 5.301820;-0.131617;,
       4.583550; 5.301820;-0.131617;,
       4.460650; 6.274230; 0.439584;,
       5.914450; 6.367400;-0.508330;,
       4.460650; 6.274230; 0.439584;,
       5.852390; 6.649400;-0.307603;,
       5.914450; 6.367400;-0.508330;,
       5.772700; 6.634220;-0.625888;,
       5.914450; 6.367400;-0.508330;,
       5.724530; 6.807650;-0.481778;,
       5.914450; 6.367400;-0.508330;,
       5.852390; 6.649400;-0.307603;,
       5.724530; 6.807650;-0.481778;,
      -4.424390; 6.609390; 0.143744;,
      -5.821110; 5.815320; 0.493845;,
      -4.436050; 5.992140;-0.185667;,
      -5.821110; 5.815320; 0.493845;,
      -5.844180; 5.625260; 0.365355;,
      -4.436050; 5.992140;-0.185667;,
      -5.767040; 5.635140; 0.684474;,
      -5.821110; 5.815320; 0.493845;,
      -4.317800; 5.997940; 0.704946;,
      -5.821110; 5.815320; 0.493845;,
      -4.424390; 6.609390; 0.143744;,
      -4.317800; 5.997940; 0.704946;,
      -4.341210; 5.012920; 0.143107;,
      -4.436050; 5.992140;-0.185667;,
      -5.776820; 5.337180; 0.497950;,
      -4.436050; 5.992140;-0.185667;,
      -5.844180; 5.625260; 0.365355;,
      -5.776820; 5.337180; 0.497950;,
      -4.341210; 5.012920; 0.143107;,
      -5.776820; 5.337180; 0.497950;,
      -4.317800; 5.997940; 0.704946;,
      -5.776820; 5.337180; 0.497950;,
      -5.767040; 5.635140; 0.684474;,
      -4.317800; 5.997940; 0.704946;,
      -5.844180; 5.625260; 0.365355;,
      -5.821110; 5.815320; 0.493845;,
      -5.776820; 5.337180; 0.497950;,
      -5.821110; 5.815320; 0.493845;,
      -5.767040; 5.635140; 0.684474;,
      -5.776820; 5.337180; 0.497950;,
       1.349600; 3.115200; 1.041970;,
       2.662870; 3.865640; 0.000000;,
       2.844280; 2.984460; 0.058666;,
       2.844280; 2.984460; 0.058666;,
       1.829470; 2.443050; 0.893837;,
       1.349600; 3.115200; 1.041970;,
       1.829470; 2.443050; 0.893837;,
       2.844280; 2.984460; 0.058666;,
       2.894250; 2.037330; 0.188732;,
       2.894250; 2.037330; 0.188732;,
       2.295770; 1.516060; 0.759831;,
       1.829470; 2.443050; 0.893837;,
       2.295770; 1.516060; 0.759831;,
       2.894250; 2.037330; 0.188732;,
       2.878100;-0.002386;-0.125730;,
       2.894250; 2.037330; 0.188732;,
       3.074020; 0.057249;-0.355085;,
       2.878100;-0.002386;-0.125730;,
       2.662870; 3.865640; 0.000000;,
       1.349600; 3.115200;-0.581105;,
       2.844280; 2.984460; 0.058666;,
       1.349600; 3.115200;-0.581105;,
       1.869060; 2.337770;-0.384243;,
       2.844280; 2.984460; 0.058666;,
       2.844280; 2.984460; 0.058666;,
       1.869060; 2.337770;-0.384243;,
       2.894250; 2.037330; 0.188732;,
       1.869060; 2.337770;-0.384243;,
       2.131490; 1.798100;-0.239971;,
       2.894250; 2.037330; 0.188732;,
       2.894250; 2.037330; 0.188732;,
       2.131490; 1.798100;-0.239971;,
       2.815190; 0.124188;-0.422221;,
       2.815190; 0.124188;-0.422221;,
       3.074020; 0.057249;-0.355085;,
       2.894250; 2.037330; 0.188732;,
      -2.662870; 3.865640; 0.000000;,
      -1.349600; 3.115200; 1.041970;,
      -2.831790; 2.934060; 0.134874;,
      -1.349600; 3.115200; 1.041970;,
      -1.754530; 2.385070; 0.882260;,
      -2.831790; 2.934060; 0.134874;,
      -2.831790; 2.934060; 0.134874;,
      -1.754530; 2.385070; 0.882260;,
      -2.922450; 1.976580; 0.191704;,
      -1.754530; 2.385070; 0.882260;,
      -2.164900; 1.514180; 0.807490;,
      -2.922450; 1.976580; 0.191704;,
      -2.922450; 1.976580; 0.191704;,
      -2.164900; 1.514180; 0.807490;,
      -2.744480; 0.062692;-0.245932;,
      -2.744480; 0.062692;-0.245932;,
      -2.945970; 0.146268;-0.462628;,
      -2.922450; 1.976580; 0.191704;,
      -2.662870; 3.865640; 0.000000;,
      -2.831790; 2.934060; 0.134874;,
      -1.349600; 3.115200;-0.581105;,
      -2.831790; 2.934060; 0.134874;,
      -1.866320; 2.340410;-0.395101;,
      -1.349600; 3.115200;-0.581105;,
      -1.866320; 2.340410;-0.395101;,
      -2.831790; 2.934060; 0.134874;,
      -2.922450; 1.976580; 0.191704;,
      -2.922450; 1.976580; 0.191704;,
      -2.114460; 1.758540;-0.214217;,
      -1.866320; 2.340410;-0.395101;,
      -2.114460; 1.758540;-0.214217;,
      -2.922450; 1.976580; 0.191704;,
      -2.690240; 0.228744;-0.524087;,
      -2.922450; 1.976580; 0.191704;,
      -2.945970; 0.146268;-0.462628;,
      -2.690240; 0.228744;-0.524087;;
      190;
      3;0;1;2;,
      3;3;4;5;,
      3;6;7;8;,
      3;9;10;11;,
      3;12;13;14;,
      3;15;16;17;,
      3;18;19;20;,
      3;21;22;23;,
      3;24;25;26;,
      3;27;28;29;,
      3;30;31;32;,
      3;33;34;35;,
      3;36;37;38;,
      3;39;40;41;,
      3;42;43;44;,
      3;45;46;47;,
      3;48;49;50;,
      3;51;52;53;,
      3;54;55;56;,
      3;57;58;59;,
      3;60;61;62;,
      3;63;64;65;,
      3;66;67;68;,
      3;69;70;71;,
      3;72;73;74;,
      3;75;76;77;,
      3;78;79;80;,
      3;81;82;83;,
      3;84;85;86;,
      3;87;88;89;,
      3;90;91;92;,
      3;93;94;95;,
      3;96;97;98;,
      3;99;100;101;,
      3;102;103;104;,
      3;105;106;107;,
      3;108;109;110;,
      3;111;112;113;,
      3;114;115;116;,
      3;117;118;119;,
      3;120;121;122;,
      3;123;124;125;,
      3;126;127;128;,
      3;129;130;131;,
      3;132;133;134;,
      3;135;136;137;,
      3;138;139;140;,
      3;141;142;143;,
      3;144;145;146;,
      3;147;148;149;,
      3;150;151;152;,
      3;153;154;155;,
      3;156;157;158;,
      3;159;160;161;,
      3;162;163;164;,
      3;165;166;167;,
      3;168;169;170;,
      3;171;172;173;,
      3;174;175;176;,
      3;177;178;179;,
      3;180;181;182;,
      3;183;184;185;,
      3;186;187;188;,
      3;189;190;191;,
      3;192;193;194;,
      3;195;196;197;,
      3;198;199;200;,
      3;201;202;203;,
      3;204;205;206;,
      3;207;208;209;,
      3;210;211;212;,
      3;213;214;215;,
      3;216;217;218;,
      3;219;220;221;,
      3;222;223;224;,
      3;225;226;227;,
      3;228;229;230;,
      3;231;232;233;,
      3;234;235;236;,
      3;237;238;239;,
      3;240;241;242;,
      3;243;244;245;,
      3;246;247;248;,
      3;249;250;251;,
      3;252;253;254;,
      3;255;256;257;,
      3;258;259;260;,
      3;261;262;263;,
      3;264;265;266;,
      3;267;268;269;,
      3;270;271;272;,
      3;273;274;275;,
      3;276;277;278;,
      3;279;280;281;,
      3;282;283;284;,
      3;285;286;287;,
      3;288;289;290;,
      3;291;292;293;,
      3;294;295;296;,
      3;297;298;299;,
      3;300;301;302;,
      3;303;304;305;,
      3;306;307;308;,
      3;309;310;311;,
      3;312;313;314;,
      3;315;316;317;,
      3;318;319;320;,
      3;321;322;323;,
      3;324;325;326;,
      3;327;328;329;,
      3;330;331;332;,
      3;333;334;335;,
      3;336;337;338;,
      3;339;340;341;,
      3;342;343;344;,
      3;345;346;347;,
      3;348;349;350;,
      3;351;352;353;,
      3;354;355;356;,
      3;357;358;359;,
      3;360;361;362;,
      3;363;364;365;,
      3;366;367;368;,
      3;369;370;371;,
      3;372;373;374;,
      3;375;376;377;,
      3;378;379;380;,
      3;381;382;383;,
      3;384;385;386;,
      3;387;388;389;,
      3;390;391;392;,
      3;393;394;395;,
      3;396;397;398;,
      3;399;400;401;,
      3;402;403;404;,
      3;405;406;407;,
      3;408;409;410;,
      3;411;412;413;,
      3;414;415;416;,
      3;417;418;419;,
      3;420;421;422;,
      3;423;424;425;,
      3;426;427;428;,
      3;429;430;431;,
      3;432;433;434;,
      3;435;436;437;,
      3;438;439;440;,
      3;441;442;443;,
      3;444;445;446;,
      3;447;448;449;,
      3;450;451;452;,
      3;453;454;455;,
      3;456;457;458;,
      3;459;460;461;,
      3;462;463;464;,
      3;465;466;467;,
      3;468;469;470;,
      3;471;472;473;,
      3;474;475;476;,
      3;477;478;479;,
      3;480;481;482;,
      3;483;484;485;,
      3;486;487;488;,
      3;489;490;491;,
      3;492;493;494;,
      3;495;496;497;,
      3;498;499;500;,
      3;501;502;503;,
      3;504;505;506;,
      3;507;508;509;,
      3;510;511;512;,
      3;513;514;515;,
      3;516;517;518;,
      3;519;520;521;,
      3;522;523;524;,
      3;525;526;527;,
      3;528;529;530;,
      3;531;532;533;,
      3;534;535;536;,
      3;537;538;539;,
      3;540;541;542;,
      3;543;544;545;,
      3;546;547;548;,
      3;549;550;551;,
      3;552;553;554;,
      3;555;556;557;,
      3;558;559;560;,
      3;561;562;563;,
      3;564;565;566;,
      3;567;568;569;;
      MeshNormals { //Mesh Normals
        570;
        -0.570605;-0.140965;-0.808985;,
        -0.582141;-0.101474;-0.806696;,
        -0.572832;-0.122288;-0.810480;,
        -0.582141;-0.101474;-0.806696;,
        -0.583392;-0.097964;-0.806238;,
        -0.572832;-0.122288;-0.810480;,
        -0.583392;-0.097964;-0.806238;,
        -0.582141;-0.101474;-0.806696;,
        -0.579089;-0.108768;-0.807947;,
        -0.383190;-0.047639; 0.922422;,
        -0.382611;-0.043123; 0.922880;,
        -0.372387;-0.063387; 0.925901;,
        -0.382611;-0.043123; 0.922880;,
        -0.373577;-0.059542; 0.925657;,
        -0.372387;-0.063387; 0.925901;,
        -0.372387;-0.063387; 0.925901;,
        -0.373577;-0.059542; 0.925657;,
        -0.372600;-0.061647; 0.925932;,
        -0.076205;-0.461989; 0.883572;,
        -0.070467;-0.463210; 0.883419;,
        -0.052370;-0.459700; 0.886502;,
        -0.070467;-0.463210; 0.883419;,
        -0.181280;-0.331645; 0.925810;,
        -0.052370;-0.459700; 0.886502;,
        -0.052370;-0.459700; 0.886502;,
        -0.181280;-0.331645; 0.925810;,
        -0.224067;-0.290414; 0.930265;,
        -0.181280;-0.331645; 0.925810;,
        -0.327830;-0.153752; 0.932127;,
        -0.224067;-0.290414; 0.930265;,
        -0.327830;-0.153752; 0.932127;,
        -0.181280;-0.331645; 0.925810;,
        -0.326518;-0.178503; 0.928159;,
        -0.326518;-0.178503; 0.928159;,
        -0.337077;-0.165990; 0.926695;,
        -0.327830;-0.153752; 0.932127;,
        -0.117191;-0.678030;-0.725608;,
        -0.075076;-0.679495;-0.729789;,
        -0.105625;-0.682119;-0.723533;,
        -0.075076;-0.679495;-0.729789;,
        -0.079287;-0.679464;-0.729362;,
        -0.105625;-0.682119;-0.723533;,
        -0.079287;-0.679464;-0.729362;,
        -0.075076;-0.679495;-0.729789;,
        -0.074038;-0.679067;-0.730308;,
        -0.153691; 0.276742; 0.948546;,
        -0.176183; 0.264077; 0.948241;,
        -0.171728; 0.265389; 0.948698;,
        -0.176183; 0.264077; 0.948241;,
        -0.179266; 0.262459; 0.948119;,
        -0.171728; 0.265389; 0.948698;,
        -0.179266; 0.262459; 0.948119;,
        -0.176183; 0.264077; 0.948241;,
        -0.182806; 0.261513; 0.947722;,
        -0.261025; 0.443220;-0.857540;,
        -0.279427; 0.431043;-0.857936;,
        -0.282540; 0.429731;-0.857570;,
        -0.279427; 0.431043;-0.857936;,
        -0.285562; 0.428449;-0.857234;,
        -0.282540; 0.429731;-0.857570;,
        -0.282540; 0.429731;-0.857570;,
        -0.285562; 0.428449;-0.857234;,
        -0.281411; 0.429792;-0.857936;,
         0.559679;-0.118900;-0.820124;,
         0.565050;-0.139348;-0.813166;,
         0.582110;-0.101413;-0.806726;,
         0.565050;-0.139348;-0.813166;,
         0.583514;-0.097324;-0.806207;,
         0.582110;-0.101413;-0.806726;,
         0.582110;-0.101413;-0.806726;,
         0.583514;-0.097324;-0.806207;,
         0.578997;-0.108707;-0.808008;,
         0.403455;-0.046724; 0.913785;,
         0.372356;-0.063326; 0.925901;,
         0.397320;-0.013092; 0.917570;,
         0.372356;-0.063326; 0.925901;,
         0.373638;-0.059145; 0.925657;,
         0.397320;-0.013092; 0.917570;,
         0.373638;-0.059145; 0.925657;,
         0.372356;-0.063326; 0.925901;,
         0.372509;-0.061617; 0.925962;,
         0.327769;-0.187414; 0.925962;,
         0.326182;-0.183447; 0.927305;,
         0.327830;-0.153752; 0.932127;,
         0.326182;-0.183447; 0.927305;,
         0.326731;-0.157201; 0.931944;,
         0.327830;-0.153752; 0.932127;,
         0.327830;-0.153752; 0.932127;,
         0.326731;-0.157201; 0.931944;,
         0.325999;-0.169012; 0.930113;,
         0.517563;-0.217811;-0.827448;,
         0.516953;-0.239509;-0.821802;,
         0.519059;-0.223243;-0.825037;,
         0.516953;-0.239509;-0.821802;,
         0.516221;-0.241340;-0.821711;,
         0.519059;-0.223243;-0.825037;,
         0.516221;-0.241340;-0.821711;,
         0.516953;-0.239509;-0.821802;,
         0.515213;-0.248390;-0.820246;,
        -0.526444;-0.183721;-0.830073;,
        -0.521805;-0.199530;-0.829371;,
        -0.516953;-0.239509;-0.821802;,
        -0.521805;-0.199530;-0.829371;,
        -0.516221;-0.241340;-0.821711;,
        -0.516953;-0.239509;-0.821802;,
        -0.516953;-0.239509;-0.821802;,
        -0.516221;-0.241340;-0.821711;,
        -0.515213;-0.248390;-0.820246;,
        -0.308695; 0.285134; 0.907407;,
        -0.309275; 0.286294; 0.906827;,
        -0.304971; 0.291208; 0.906735;,
        -0.309275; 0.286294; 0.906827;,
        -0.293741; 0.311289; 0.903745;,
        -0.304971; 0.291208; 0.906735;,
        -0.293741; 0.311289; 0.903745;,
        -0.309275; 0.286294; 0.906827;,
        -0.278298; 0.316965; 0.906674;,
        -0.278298; 0.316965; 0.906674;,
        -0.180578; 0.437452; 0.880917;,
        -0.293741; 0.311289; 0.903745;,
        -0.180578; 0.437452; 0.880917;,
        -0.278298; 0.316965; 0.906674;,
        -0.230842; 0.427808; 0.873867;,
        -0.230842; 0.427808; 0.873867;,
        -0.417676; 0.335337; 0.844417;,
        -0.180578; 0.437452; 0.880917;,
        -0.417676; 0.335337; 0.844417;,
        -0.230842; 0.427808; 0.873867;,
        -0.523637; 0.281991; 0.803888;,
        -0.523637; 0.281991; 0.803888;,
        -0.512833; 0.399701; 0.759728;,
        -0.417676; 0.335337; 0.844417;,
        -0.512833; 0.399701; 0.759728;,
        -0.523637; 0.281991; 0.803888;,
        -0.384228; 0.621845; 0.682363;,
        -0.384228; 0.621845; 0.682363;,
        -0.161687; 0.860866; 0.482376;,
        -0.512833; 0.399701; 0.759728;,
        -0.512833; 0.399701; 0.759728;,
        -0.161687; 0.860866; 0.482376;,
        -0.161687; 0.860866; 0.482376;,
        -0.477493; 0.424146;-0.769433;,
        -0.466720; 0.439802;-0.767266;,
        -0.472121; 0.432997;-0.767815;,
        -0.466720; 0.439802;-0.767266;,
        -0.448805; 0.465896;-0.762535;,
        -0.472121; 0.432997;-0.767815;,
        -0.472121; 0.432997;-0.767815;,
        -0.448805; 0.465896;-0.762535;,
        -0.472976; 0.451888;-0.756340;,
        -0.448805; 0.465896;-0.762535;,
        -0.521531; 0.406476;-0.750145;,
        -0.472976; 0.451888;-0.756340;,
        -0.472976; 0.451888;-0.756340;,
        -0.521531; 0.406476;-0.750145;,
        -0.543901; 0.385022;-0.745598;,
        -0.521531; 0.406476;-0.750145;,
        -0.507340; 0.458480;-0.729637;,
        -0.543901; 0.385022;-0.745598;,
        -0.543901; 0.385022;-0.745598;,
        -0.507340; 0.458480;-0.729637;,
        -0.479568; 0.487259;-0.729759;,
        -0.507340; 0.458480;-0.729637;,
        -0.477584; 0.636952;-0.605121;,
        -0.479568; 0.487259;-0.729759;,
        -0.479568; 0.487259;-0.729759;,
        -0.477584; 0.636952;-0.605121;,
        -0.506638; 0.629688;-0.588885;,
         0.182806; 0.261422; 0.947722;,
         0.176214; 0.264016; 0.948271;,
         0.179510; 0.262307; 0.948119;,
         0.176214; 0.264016; 0.948271;,
         0.162877; 0.268044; 0.949522;,
         0.179510; 0.262307; 0.948119;,
         0.162877; 0.268044; 0.949522;,
         0.176214; 0.264016; 0.948271;,
         0.152593; 0.273629; 0.949644;,
         0.152593; 0.273629; 0.949644;,
         0.189947; 0.274636; 0.942595;,
         0.162877; 0.268044; 0.949522;,
         0.189947; 0.274636; 0.942595;,
         0.152593; 0.273629; 0.949644;,
         0.174322; 0.292032; 0.940367;,
         0.174322; 0.292032; 0.940367;,
         0.263283; 0.308084; 0.914182;,
         0.189947; 0.274636; 0.942595;,
         0.263283; 0.308084; 0.914182;,
         0.174322; 0.292032; 0.940367;,
         0.236000; 0.337809; 0.911130;,
         0.074068;-0.678945;-0.730399;,
         0.075137;-0.679434;-0.729850;,
         0.079928;-0.679403;-0.729362;,
         0.075137;-0.679434;-0.729850;,
         0.104068;-0.681936;-0.723960;,
         0.079928;-0.679403;-0.729362;,
         0.104068;-0.681936;-0.723960;,
         0.075137;-0.679434;-0.729850;,
         0.121708;-0.674001;-0.728599;,
         0.121708;-0.674001;-0.728599;,
         0.162511;-0.664510;-0.729362;,
         0.104068;-0.681936;-0.723960;,
         0.162511;-0.664510;-0.729362;,
         0.121708;-0.674001;-0.728599;,
         0.183996;-0.650105;-0.737205;,
         0.183996;-0.650105;-0.737205;,
         0.175756;-0.649434;-0.739799;,
         0.162511;-0.664510;-0.729362;,
         0.175756;-0.649434;-0.739799;,
         0.183996;-0.650105;-0.737205;,
         0.177343;-0.650716;-0.738304;,
         0.059358;-0.459853; 0.885983;,
         0.057833;-0.459609; 0.886227;,
         0.052431;-0.459639; 0.886532;,
         0.057833;-0.459609; 0.886227;,
         0.079073;-0.464705; 0.881893;,
         0.052431;-0.459639; 0.886532;,
         0.052431;-0.459639; 0.886532;,
         0.079073;-0.464705; 0.881893;,
         0.085482;-0.465987; 0.880612;,
         0.079073;-0.464705; 0.881893;,
         0.183752;-0.468764; 0.863979;,
         0.085482;-0.465987; 0.880612;,
         0.085482;-0.465987; 0.880612;,
         0.183752;-0.468764; 0.863979;,
         0.200781;-0.465712; 0.861812;,
         0.183752;-0.468764; 0.863979;,
         0.342448;-0.448714; 0.825434;,
         0.200781;-0.465712; 0.861812;,
         0.200781;-0.465712; 0.861812;,
         0.342448;-0.448714; 0.825434;,
         0.361461;-0.449599; 0.816797;,
         0.281411; 0.429701;-0.857967;,
         0.285989; 0.428205;-0.857204;,
         0.282571; 0.429670;-0.857601;,
         0.285989; 0.428205;-0.857204;,
         0.286843; 0.428297;-0.856868;,
         0.282571; 0.429670;-0.857601;,
         0.282571; 0.429670;-0.857601;,
         0.286843; 0.428297;-0.856868;,
         0.255715; 0.448469;-0.856410;,
         0.286843; 0.428297;-0.856868;,
         0.179907; 0.469802;-0.864223;,
         0.255715; 0.448469;-0.856410;,
         0.255715; 0.448469;-0.856410;,
         0.179907; 0.469802;-0.864223;,
         0.130833; 0.494064;-0.859493;,
         0.179907; 0.469802;-0.864223;,
        -0.011994; 0.499771;-0.866054;,
         0.130833; 0.494064;-0.859493;,
         0.130833; 0.494064;-0.859493;,
        -0.011994; 0.499771;-0.866054;,
        -0.012238; 0.498123;-0.867000;,
         0.308695; 0.285134; 0.907407;,
         0.304971; 0.291208; 0.906735;,
         0.309275; 0.286294; 0.906827;,
         0.304971; 0.291208; 0.906735;,
         0.272958; 0.343120; 0.898740;,
         0.309275; 0.286294; 0.906827;,
         0.309275; 0.286294; 0.906827;,
         0.272958; 0.343120; 0.898740;,
         0.281014; 0.343394; 0.896146;,
         0.281014; 0.343394; 0.896146;,
         0.272958; 0.343120; 0.898740;,
         0.210639; 0.456862; 0.864223;,
         0.281014; 0.343394; 0.896146;,
         0.210639; 0.456862; 0.864223;,
         0.283975; 0.434858; 0.854518;,
         0.210639; 0.456862; 0.864223;,
         0.443159; 0.349467; 0.825495;,
         0.283975; 0.434858; 0.854518;,
         0.283975; 0.434858; 0.854518;,
         0.443159; 0.349467; 0.825495;,
         0.515275; 0.321696; 0.794336;,
         0.443159; 0.349467; 0.825495;,
         0.512955; 0.494247; 0.701804;,
         0.515275; 0.321696; 0.794336;,
         0.515275; 0.321696; 0.794336;,
         0.512955; 0.494247; 0.701804;,
         0.376965; 0.714957; 0.588763;,
         0.512955; 0.494247; 0.701804;,
         0.144078; 0.920743; 0.362499;,
         0.376965; 0.714957; 0.588763;,
         0.144078; 0.920743; 0.362499;,
         0.512955; 0.494247; 0.701804;,
         0.144078; 0.920743; 0.362499;,
         0.477493; 0.424146;-0.769433;,
         0.472121; 0.432997;-0.767815;,
         0.466720; 0.439802;-0.767266;,
         0.472121; 0.432997;-0.767815;,
         0.462111; 0.447554;-0.765557;,
         0.466720; 0.439802;-0.767266;,
         0.462111; 0.447554;-0.765557;,
         0.472121; 0.432997;-0.767815;,
         0.452162; 0.450728;-0.769616;,
         0.452162; 0.450728;-0.769616;,
         0.494949; 0.385052;-0.778924;,
         0.462111; 0.447554;-0.765557;,
         0.494949; 0.385052;-0.778924;,
         0.452162; 0.450728;-0.769616;,
         0.450819; 0.399884;-0.797998;,
         0.450819; 0.399884;-0.797998;,
         0.430067; 0.424268;-0.796869;,
         0.494949; 0.385052;-0.778924;,
         0.430067; 0.424268;-0.796869;,
         0.450819; 0.399884;-0.797998;,
         0.382031; 0.464919;-0.798639;,
         0.382031; 0.464919;-0.798639;,
         0.441328; 0.578234;-0.686178;,
         0.430067; 0.424268;-0.796869;,
         0.441328; 0.578234;-0.686178;,
         0.382031; 0.464919;-0.798639;,
         0.479690; 0.571978;-0.665334;,
         0.326182;-0.183447; 0.927305;,
         0.327769;-0.187414; 0.925962;,
         0.321604;-0.259804; 0.910489;,
         0.327769;-0.187414; 0.925962;,
         0.327433;-0.262246; 0.907712;,
         0.321604;-0.259804; 0.910489;,
         0.321604;-0.259804; 0.910489;,
         0.327433;-0.262246; 0.907712;,
         0.329539;-0.313211; 0.890652;,
         0.327433;-0.262246; 0.907712;,
         0.344249;-0.318857; 0.883053;,
         0.329539;-0.313211; 0.890652;,
         0.329539;-0.313211; 0.890652;,
         0.344249;-0.318857; 0.883053;,
         0.384350;-0.358348; 0.850765;,
         0.344249;-0.318857; 0.883053;,
         0.416242;-0.355510; 0.836848;,
         0.384350;-0.358348; 0.850765;,
         0.519059;-0.223243;-0.825037;,
         0.511032;-0.222144;-0.830317;,
         0.517563;-0.217811;-0.827448;,
         0.511032;-0.222144;-0.830317;,
         0.506699;-0.229530;-0.830988;,
         0.517563;-0.217811;-0.827448;,
         0.506699;-0.229530;-0.830988;,
         0.511032;-0.222144;-0.830317;,
         0.495071;-0.280343;-0.822352;,
         0.495071;-0.280343;-0.822352;,
         0.499588;-0.285440;-0.817866;,
         0.506699;-0.229530;-0.830988;,
         0.499588;-0.285440;-0.817866;,
         0.495071;-0.280343;-0.822352;,
         0.503403;-0.330515;-0.798303;,
         0.503403;-0.330515;-0.798303;,
         0.519547;-0.328349;-0.788812;,
         0.499588;-0.285440;-0.817866;,
        -0.326518;-0.178503; 0.928159;,
        -0.348094;-0.198523; 0.916166;,
        -0.337077;-0.165990; 0.926695;,
        -0.348094;-0.198523; 0.916166;,
        -0.372021;-0.170202; 0.912473;,
        -0.337077;-0.165990; 0.926695;,
        -0.372021;-0.170202; 0.912473;,
        -0.348094;-0.198523; 0.916166;,
        -0.394787;-0.152776; 0.905972;,
        -0.394787;-0.152776; 0.905972;,
        -0.419446;-0.128239; 0.898648;,
        -0.372021;-0.170202; 0.912473;,
        -0.419446;-0.128239; 0.898648;,
        -0.394787;-0.152776; 0.905972;,
        -0.476821;-0.090854; 0.874264;,
        -0.476821;-0.090854; 0.874264;,
        -0.513749;-0.060121; 0.855800;,
        -0.419446;-0.128239; 0.898648;,
        -0.521805;-0.199530;-0.829371;,
        -0.526444;-0.183721;-0.830073;,
        -0.535051;-0.113895;-0.837092;,
        -0.526444;-0.183721;-0.830073;,
        -0.547349;-0.095828;-0.831355;,
        -0.535051;-0.113895;-0.837092;,
        -0.535051;-0.113895;-0.837092;,
        -0.547349;-0.095828;-0.831355;,
        -0.565600;-0.045045;-0.823420;,
        -0.547349;-0.095828;-0.831355;,
        -0.584826;-0.020783;-0.810846;,
        -0.565600;-0.045045;-0.823420;,
        -0.565600;-0.045045;-0.823420;,
        -0.584826;-0.020783;-0.810846;,
        -0.616871; 0.016602;-0.786859;,
        -0.584826;-0.020783;-0.810846;,
        -0.642628; 0.040773;-0.765069;,
        -0.616871; 0.016602;-0.786859;,
        -0.303293;-0.948943;-0.086428;,
        -0.303293;-0.948943;-0.086459;,
        -0.303293;-0.948943;-0.086459;,
        -0.303293;-0.948943;-0.086459;,
        -0.303293;-0.948943;-0.086489;,
        -0.303293;-0.948943;-0.086459;,
        -0.070467;-0.463210; 0.883419;,
        -0.076205;-0.461989; 0.883572;,
        -0.051149;-0.460646; 0.886105;,
        -0.076205;-0.461989; 0.883572;,
        -0.040864;-0.461409; 0.886227;,
        -0.051149;-0.460646; 0.886105;,
        -0.051149;-0.460646; 0.886105;,
        -0.040864;-0.461409; 0.886227;,
         0.101962;-0.461257; 0.881375;,
        -0.040864;-0.461409; 0.886227;,
         0.124790;-0.472884; 0.872219;,
         0.101962;-0.461257; 0.881375;,
         0.101962;-0.461257; 0.881375;,
         0.124790;-0.472884; 0.872219;,
         0.235939;-0.548906; 0.801843;,
         0.124790;-0.472884; 0.872219;,
         0.246956;-0.577776; 0.777886;,
         0.235939;-0.548906; 0.801843;,
        -0.105625;-0.682119;-0.723533;,
        -0.179907;-0.671377;-0.718925;,
        -0.117191;-0.678030;-0.725608;,
        -0.179907;-0.671377;-0.718925;,
        -0.181310;-0.671621;-0.718314;,
        -0.117191;-0.678030;-0.725608;,
        -0.181310;-0.671621;-0.718314;,
        -0.179907;-0.671377;-0.718925;,
        -0.193609;-0.689871;-0.697531;,
        -0.193609;-0.689871;-0.697531;,
        -0.173223;-0.704978;-0.687704;,
        -0.181310;-0.671621;-0.718314;,
        -0.173223;-0.704978;-0.687704;,
        -0.193609;-0.689871;-0.697531;,
        -0.144261;-0.757622;-0.636525;,
        -0.144261;-0.757622;-0.636525;,
        -0.121677;-0.777459;-0.617023;,
        -0.173223;-0.704978;-0.687704;,
        -0.171728; 0.265389; 0.948698;,
        -0.118931; 0.285562; 0.950926;,
        -0.153691; 0.276742; 0.948546;,
        -0.118931; 0.285562; 0.950926;,
        -0.089724; 0.300119; 0.949644;,
        -0.153691; 0.276742; 0.948546;,
        -0.089724; 0.300119; 0.949644;,
        -0.118931; 0.285562; 0.950926;,
        -0.029084; 0.309824; 0.950316;,
        -0.029084; 0.309824; 0.950316;,
        -0.020814; 0.318064; 0.947813;,
        -0.089724; 0.300119; 0.949644;,
        -0.020814; 0.318064; 0.947813;,
        -0.029084; 0.309824; 0.950316;,
         0.007599; 0.376263; 0.926450;,
         0.007599; 0.376263; 0.926450;,
         0.005188; 0.405469; 0.914060;,
        -0.020814; 0.318064; 0.947813;,
        -0.279427; 0.431043;-0.857936;,
        -0.261025; 0.443220;-0.857540;,
        -0.290872; 0.444411;-0.847255;,
        -0.261025; 0.443220;-0.857540;,
        -0.275246; 0.459120;-0.844630;,
        -0.290872; 0.444411;-0.847255;,
        -0.290872; 0.444411;-0.847255;,
        -0.275246; 0.459120;-0.844630;,
        -0.418683; 0.420637;-0.804804;,
        -0.275246; 0.459120;-0.844630;,
        -0.428144; 0.419019;-0.800684;,
        -0.418683; 0.420637;-0.804804;,
        -0.418683; 0.420637;-0.804804;,
        -0.428144; 0.419019;-0.800684;,
        -0.517319; 0.405621;-0.753533;,
        -0.428144; 0.419019;-0.800684;,
        -0.514573; 0.419172;-0.747978;,
        -0.517319; 0.405621;-0.753533;,
        -0.899319;-0.398755; 0.179296;,
        -0.886196;-0.396710; 0.239265;,
        -0.886502;-0.396771; 0.237953;,
        -0.886196;-0.396710; 0.239265;,
        -0.874172;-0.394208; 0.283547;,
        -0.886502;-0.396771; 0.237953;,
         0.342448;-0.448714; 0.825434;,
         0.429273;-0.517197; 0.740379;,
         0.361461;-0.449599; 0.816797;,
         0.429273;-0.517197; 0.740379;,
         0.424909;-0.541795; 0.725150;,
         0.361461;-0.449599; 0.816797;,
         0.182195;-0.688253;-0.702200;,
         0.182348;-0.676962;-0.713034;,
         0.177343;-0.650716;-0.738304;,
         0.182348;-0.676962;-0.713034;,
         0.175756;-0.649434;-0.739799;,
         0.177343;-0.650716;-0.738304;,
         0.263283; 0.308084; 0.914182;,
         0.236000; 0.337809; 0.911130;,
         0.248451; 0.408216; 0.878414;,
         0.236000; 0.337809; 0.911130;,
         0.221320; 0.449965; 0.865169;,
         0.248451; 0.408216; 0.878414;,
        -0.011994; 0.499771;-0.866054;,
        -0.113102; 0.515793;-0.849178;,
        -0.012238; 0.498123;-0.867000;,
        -0.113102; 0.515793;-0.849178;,
        -0.120701; 0.529557;-0.839625;,
        -0.012238; 0.498123;-0.867000;,
         0.950926; 0.085513;-0.297250;,
         0.966948; 0.087497;-0.239357;,
         0.967284; 0.087527;-0.238044;,
         0.966948; 0.087497;-0.239357;,
         0.977111; 0.088839;-0.193152;,
         0.967284; 0.087527;-0.238044;,
        -0.570605;-0.140965;-0.808985;,
        -0.572832;-0.122288;-0.810480;,
        -0.563860;-0.165044;-0.809168;,
        -0.563860;-0.165044;-0.809168;,
        -0.567309;-0.191198;-0.800958;,
        -0.570605;-0.140965;-0.808985;,
        -0.567309;-0.191198;-0.800958;,
        -0.563860;-0.165044;-0.809168;,
        -0.650472;-0.061220;-0.757012;,
        -0.650472;-0.061220;-0.757012;,
        -0.674673;-0.033174;-0.737327;,
        -0.567309;-0.191198;-0.800958;,
        -0.674673;-0.033174;-0.737327;,
        -0.650472;-0.061220;-0.757012;,
        -0.760857; 0.104740;-0.640400;,
        -0.650472;-0.061220;-0.757012;,
        -0.769372; 0.103275;-0.630360;,
        -0.760857; 0.104740;-0.640400;,
        -0.382611;-0.043123; 0.922880;,
        -0.383190;-0.047639; 0.922422;,
        -0.421857; 0.021027; 0.906400;,
        -0.383190;-0.047639; 0.922422;,
        -0.436689; 0.006317; 0.899564;,
        -0.421857; 0.021027; 0.906400;,
        -0.421857; 0.021027; 0.906400;,
        -0.436689; 0.006317; 0.899564;,
        -0.447218;-0.074252; 0.891324;,
        -0.436689; 0.006317; 0.899564;,
        -0.456221;-0.124271; 0.881100;,
        -0.447218;-0.074252; 0.891324;,
        -0.447218;-0.074252; 0.891324;,
        -0.456221;-0.124271; 0.881100;,
        -0.330119;-0.274728; 0.903043;,
        -0.330119;-0.274728; 0.903043;,
        -0.307871;-0.277840; 0.909940;,
        -0.447218;-0.074252; 0.891324;,
         0.565050;-0.139348;-0.813166;,
         0.559679;-0.118900;-0.820124;,
         0.530900;-0.153081;-0.833461;,
         0.559679;-0.118900;-0.820124;,
         0.534806;-0.128239;-0.835139;,
         0.530900;-0.153081;-0.833461;,
         0.530900;-0.153081;-0.833461;,
         0.534806;-0.128239;-0.835139;,
         0.617939; 0.011322;-0.786126;,
         0.534806;-0.128239;-0.835139;,
         0.632679; 0.005249;-0.774377;,
         0.617939; 0.011322;-0.786126;,
         0.617939; 0.011322;-0.786126;,
         0.632679; 0.005249;-0.774377;,
         0.737846; 0.214911;-0.639790;,
         0.737846; 0.214911;-0.639790;,
         0.755089; 0.212043;-0.620319;,
         0.617939; 0.011322;-0.786126;,
         0.397320;-0.013092; 0.917570;,
         0.453810; 0.007965; 0.891049;,
         0.403455;-0.046724; 0.913785;,
         0.453810; 0.007965; 0.891049;,
         0.458266;-0.021119; 0.888546;,
         0.403455;-0.046724; 0.913785;,
         0.458266;-0.021119; 0.888546;,
         0.453810; 0.007965; 0.891049;,
         0.433149;-0.115879; 0.893826;,
         0.433149;-0.115879; 0.893826;,
         0.423353;-0.106143; 0.899716;,
         0.458266;-0.021119; 0.888546;,
         0.423353;-0.106143; 0.899716;,
         0.433149;-0.115879; 0.893826;,
         0.327647;-0.320444; 0.888760;,
         0.433149;-0.115879; 0.893826;,
         0.318278;-0.322733; 0.891354;,
         0.327647;-0.320444; 0.888760;;
        190;
        3;0;1;2;,
        3;3;4;5;,
        3;6;7;8;,
        3;9;10;11;,
        3;12;13;14;,
        3;15;16;17;,
        3;18;19;20;,
        3;21;22;23;,
        3;24;25;26;,
        3;27;28;29;,
        3;30;31;32;,
        3;33;34;35;,
        3;36;37;38;,
        3;39;40;41;,
        3;42;43;44;,
        3;45;46;47;,
        3;48;49;50;,
        3;51;52;53;,
        3;54;55;56;,
        3;57;58;59;,
        3;60;61;62;,
        3;63;64;65;,
        3;66;67;68;,
        3;69;70;71;,
        3;72;73;74;,
        3;75;76;77;,
        3;78;79;80;,
        3;81;82;83;,
        3;84;85;86;,
        3;87;88;89;,
        3;90;91;92;,
        3;93;94;95;,
        3;96;97;98;,
        3;99;100;101;,
        3;102;103;104;,
        3;105;106;107;,
        3;108;109;110;,
        3;111;112;113;,
        3;114;115;116;,
        3;117;118;119;,
        3;120;121;122;,
        3;123;124;125;,
        3;126;127;128;,
        3;129;130;131;,
        3;132;133;134;,
        3;135;136;137;,
        3;138;139;140;,
        3;141;142;143;,
        3;144;145;146;,
        3;147;148;149;,
        3;150;151;152;,
        3;153;154;155;,
        3;156;157;158;,
        3;159;160;161;,
        3;162;163;164;,
        3;165;166;167;,
        3;168;169;170;,
        3;171;172;173;,
        3;174;175;176;,
        3;177;178;179;,
        3;180;181;182;,
        3;183;184;185;,
        3;186;187;188;,
        3;189;190;191;,
        3;192;193;194;,
        3;195;196;197;,
        3;198;199;200;,
        3;201;202;203;,
        3;204;205;206;,
        3;207;208;209;,
        3;210;211;212;,
        3;213;214;215;,
        3;216;217;218;,
        3;219;220;221;,
        3;222;223;224;,
        3;225;226;227;,
        3;228;229;230;,
        3;231;232;233;,
        3;234;235;236;,
        3;237;238;239;,
        3;240;241;242;,
        3;243;244;245;,
        3;246;247;248;,
        3;249;250;251;,
        3;252;253;254;,
        3;255;256;257;,
        3;258;259;260;,
        3;261;262;263;,
        3;264;265;266;,
        3;267;268;269;,
        3;270;271;272;,
        3;273;274;275;,
        3;276;277;278;,
        3;279;280;281;,
        3;282;283;284;,
        3;285;286;287;,
        3;288;289;290;,
        3;291;292;293;,
        3;294;295;296;,
        3;297;298;299;,
        3;300;301;302;,
        3;303;304;305;,
        3;306;307;308;,
        3;309;310;311;,
        3;312;313;314;,
        3;315;316;317;,
        3;318;319;320;,
        3;321;322;323;,
        3;324;325;326;,
        3;327;328;329;,
        3;330;331;332;,
        3;333;334;335;,
        3;336;337;338;,
        3;339;340;341;,
        3;342;343;344;,
        3;345;346;347;,
        3;348;349;350;,
        3;351;352;353;,
        3;354;355;356;,
        3;357;358;359;,
        3;360;361;362;,
        3;363;364;365;,
        3;366;367;368;,
        3;369;370;371;,
        3;372;373;374;,
        3;375;376;377;,
        3;378;379;380;,
        3;381;382;383;,
        3;384;385;386;,
        3;387;388;389;,
        3;390;391;392;,
        3;393;394;395;,
        3;396;397;398;,
        3;399;400;401;,
        3;402;403;404;,
        3;405;406;407;,
        3;408;409;410;,
        3;411;412;413;,
        3;414;415;416;,
        3;417;418;419;,
        3;420;421;422;,
        3;423;424;425;,
        3;426;427;428;,
        3;429;430;431;,
        3;432;433;434;,
        3;435;436;437;,
        3;438;439;440;,
        3;441;442;443;,
        3;444;445;446;,
        3;447;448;449;,
        3;450;451;452;,
        3;453;454;455;,
        3;456;457;458;,
        3;459;460;461;,
        3;462;463;464;,
        3;465;466;467;,
        3;468;469;470;,
        3;471;472;473;,
        3;474;475;476;,
        3;477;478;479;,
        3;480;481;482;,
        3;483;484;485;,
        3;486;487;488;,
        3;489;490;491;,
        3;492;493;494;,
        3;495;496;497;,
        3;498;499;500;,
        3;501;502;503;,
        3;504;505;506;,
        3;507;508;509;,
        3;510;511;512;,
        3;513;514;515;,
        3;516;517;518;,
        3;519;520;521;,
        3;522;523;524;,
        3;525;526;527;,
        3;528;529;530;,
        3;531;532;533;,
        3;534;535;536;,
        3;537;538;539;,
        3;540;541;542;,
        3;543;544;545;,
        3;546;547;548;,
        3;549;550;551;,
        3;552;553;554;,
        3;555;556;557;,
        3;558;559;560;,
        3;561;562;563;,
        3;564;565;566;,
        3;567;568;569;;
      } //End of Mesh Normals
      MeshMaterialList { //Mesh Material List
        1;
        190;
        0,
        0,
        0,
        0,
        0,
        0,
        0,
        0,
        0,
        0,
        0,
        0,
        0,
        0,
        0,
        0,
        0,
        0,
        0,
        0,
        0,
        0,
        0,
        0,
        0,
        0,
        0,
        0,
        0,
        0,
        0,
        0,
        0,
        0,
        0,
        0,
        0,
        0,
        0,
        0,
        0,
        0,
        0,
        0,
        0,
        0,
        0,
        0,
        0,
        0,
        0,
        0,
        0,
        0,
        0,
        0,
        0,
        0,
        0,
        0,
        0,
        0,
        0,
        0,
        0,
        0,
        0,
        0,
        0,
        0,
        0,
        0,
        0,
        0,
        0,
        0,
        0,
        0,
        0,
        0,
        0,
        0,
        0,
        0,
        0,
        0,
        0,
        0,
        0,
        0,
        0,
        0,
        0,
        0,
        0,
        0,
        0,
        0,
        0,
        0,
        0,
        0,
        0,
        0,
        0,
        0,
        0,
        0,
        0,
        0,
        0,
        0,
        0,
        0,
        0,
        0,
        0,
        0,
        0,
        0,
        0,
        0,
        0,
        0,
        0,
        0,
        0,
        0,
        0,
        0,
        0,
        0,
        0,
        0,
        0,
        0,
        0,
        0,
        0,
        0,
        0,
        0,
        0,
        0,
        0,
        0,
        0,
        0,
        0,
        0,
        0,
        0,
        0,
        0,
        0,
        0,
        0,
        0,
        0,
        0,
        0,
        0,
        0,
        0,
        0,
        0,
        0,
        0,
        0,
        0,
        0,
        0,
        0,
        0,
        0,
        0,
        0,
        0,
        0,
        0,
        0,
        0,
        0,
        0,
        0,
        0,
        0,
        0,
        0,
        0;;
        Material mat_0 {
           0.640000; 0.640000; 0.640000; 1.000000;;
           92.156863;
           0.250000; 0.250000; 0.250000;;
           0.000000; 0.000000; 0.000000;;
          TextureFilename {"Textures/starmie_0_0.tga";}
        }
      } //End of Mesh Material List
      MeshTextureCoords { //Mesh UV Coordinates
        570;
         0.438658; 0.516648;,
         0.438781; 0.516593;,
         0.437571; 0.516504;,
         0.438781; 0.516593;,
         0.437607; 0.516452;,
         0.437571; 0.516504;,
         0.437607; 0.516452;,
         0.438781; 0.516593;,
         0.439775; 0.516146;,
         0.438658; 0.516648;,
         0.437571; 0.516504;,
         0.438781; 0.516593;,
         0.437571; 0.516504;,
         0.437607; 0.516452;,
         0.438781; 0.516593;,
         0.438781; 0.516593;,
         0.437607; 0.516452;,
         0.439775; 0.516146;,
         0.437737; 0.516071;,
         0.438001; 0.515850;,
         0.437976; 0.516080;,
         0.438001; 0.515850;,
         0.438216; 0.515844;,
         0.437976; 0.516080;,
         0.437976; 0.516080;,
         0.438216; 0.515844;,
         0.439775; 0.516146;,
         0.438216; 0.515844;,
         0.439775; 0.515847;,
         0.439775; 0.516146;,
         0.439775; 0.515847;,
         0.438216; 0.515844;,
         0.438320; 0.515792;,
         0.438320; 0.515792;,
         0.439775; 0.515792;,
         0.439775; 0.515847;,
         0.437737; 0.516071;,
         0.437973; 0.516080;,
         0.438001; 0.515850;,
         0.437973; 0.516080;,
         0.438216; 0.515844;,
         0.438001; 0.515850;,
         0.438216; 0.515844;,
         0.437973; 0.516080;,
         0.439775; 0.516146;,
         0.437737; 0.516071;,
         0.437976; 0.516080;,
         0.437334; 0.516410;,
         0.437976; 0.516080;,
         0.437607; 0.516452;,
         0.437334; 0.516410;,
         0.437607; 0.516452;,
         0.437976; 0.516080;,
         0.439775; 0.516146;,
         0.437737; 0.516071;,
         0.437334; 0.516410;,
         0.437973; 0.516080;,
         0.437334; 0.516410;,
         0.437607; 0.516452;,
         0.437973; 0.516080;,
         0.437973; 0.516080;,
         0.437607; 0.516452;,
         0.439775; 0.516146;,
         0.440893; 0.516648;,
         0.441980; 0.516504;,
         0.440770; 0.516593;,
         0.441980; 0.516504;,
         0.441945; 0.516452;,
         0.440770; 0.516593;,
         0.440770; 0.516593;,
         0.441945; 0.516452;,
         0.439775; 0.516146;,
         0.440893; 0.516648;,
         0.440770; 0.516593;,
         0.441980; 0.516504;,
         0.440770; 0.516593;,
         0.441945; 0.516452;,
         0.441980; 0.516504;,
         0.441945; 0.516452;,
         0.440770; 0.516593;,
         0.439775; 0.516146;,
         0.439775; 0.515792;,
         0.441231; 0.515792;,
         0.439775; 0.515847;,
         0.441231; 0.515792;,
         0.441334; 0.515844;,
         0.439775; 0.515847;,
         0.439775; 0.515847;,
         0.441334; 0.515844;,
         0.439775; 0.516146;,
         0.439775; 0.515792;,
         0.439775; 0.515847;,
         0.441231; 0.515792;,
         0.439775; 0.515847;,
         0.441334; 0.515844;,
         0.441231; 0.515792;,
         0.441334; 0.515844;,
         0.439775; 0.515847;,
         0.439775; 0.516146;,
         0.439775; 0.515792;,
         0.438320; 0.515792;,
         0.439775; 0.515847;,
         0.438320; 0.515792;,
         0.438216; 0.515844;,
         0.439775; 0.515847;,
         0.439775; 0.515847;,
         0.438216; 0.515844;,
         0.439775; 0.516146;,
         0.439775; 0.516146;,
         0.440770; 0.516593;,
         0.439775; 0.516722;,
         0.440770; 0.516593;,
         0.439975; 0.516769;,
         0.439775; 0.516722;,
         0.439975; 0.516769;,
         0.440770; 0.516593;,
         0.440893; 0.516648;,
         0.440893; 0.516648;,
         0.440188; 0.516602;,
         0.439975; 0.516769;,
         0.440188; 0.516602;,
         0.440893; 0.516648;,
         0.440565; 0.516558;,
         0.440565; 0.516558;,
         0.440434; 0.516648;,
         0.440188; 0.516602;,
         0.440434; 0.516648;,
         0.440565; 0.516558;,
         0.440668; 0.516611;,
         0.440668; 0.516611;,
         0.440820; 0.516753;,
         0.440434; 0.516648;,
         0.440820; 0.516753;,
         0.440668; 0.516611;,
         0.440907; 0.516748;,
         0.440907; 0.516748;,
         0.441013; 0.516755;,
         0.440820; 0.516753;,
         0.440820; 0.516753;,
         0.441013; 0.516755;,
         0.440930; 0.516763;,
         0.439775; 0.516146;,
         0.439775; 0.516722;,
         0.440770; 0.516593;,
         0.439775; 0.516722;,
         0.439975; 0.516769;,
         0.440770; 0.516593;,
         0.440770; 0.516593;,
         0.439975; 0.516769;,
         0.440893; 0.516648;,
         0.439975; 0.516769;,
         0.440188; 0.516602;,
         0.440893; 0.516648;,
         0.440893; 0.516648;,
         0.440188; 0.516602;,
         0.440519; 0.516554;,
         0.440188; 0.516602;,
         0.440434; 0.516648;,
         0.440519; 0.516554;,
         0.440519; 0.516554;,
         0.440434; 0.516648;,
         0.440689; 0.516632;,
         0.440434; 0.516648;,
         0.440820; 0.516753;,
         0.440689; 0.516632;,
         0.440689; 0.516632;,
         0.440820; 0.516753;,
         0.440930; 0.516763;,
         0.439775; 0.516146;,
         0.441575; 0.516080;,
         0.441945; 0.516452;,
         0.441575; 0.516080;,
         0.442217; 0.516410;,
         0.441945; 0.516452;,
         0.442217; 0.516410;,
         0.441575; 0.516080;,
         0.441814; 0.516071;,
         0.441814; 0.516071;,
         0.442217; 0.516769;,
         0.442217; 0.516410;,
         0.442217; 0.516769;,
         0.441814; 0.516071;,
         0.442217; 0.516769;,
         0.442217; 0.516769;,
         0.437334; 0.515983;,
         0.442217; 0.516769;,
         0.437334; 0.515983;,
         0.442217; 0.516769;,
         0.437586; 0.516389;,
         0.439775; 0.516146;,
         0.441578; 0.516080;,
         0.441334; 0.515844;,
         0.441578; 0.516080;,
         0.441550; 0.515850;,
         0.441334; 0.515844;,
         0.441550; 0.515850;,
         0.441578; 0.516080;,
         0.441814; 0.516071;,
         0.441814; 0.516071;,
         0.442217; 0.516769;,
         0.441550; 0.515850;,
         0.442217; 0.516769;,
         0.441814; 0.516071;,
         0.442217; 0.516769;,
         0.442217; 0.516769;,
         0.437772; 0.516642;,
         0.442217; 0.516769;,
         0.437772; 0.516642;,
         0.442217; 0.516769;,
         0.437634; 0.516386;,
         0.439775; 0.516146;,
         0.441334; 0.515844;,
         0.441575; 0.516080;,
         0.441334; 0.515844;,
         0.441550; 0.515850;,
         0.441575; 0.516080;,
         0.441575; 0.516080;,
         0.441550; 0.515850;,
         0.441814; 0.516071;,
         0.441550; 0.515850;,
         0.442217; 0.516769;,
         0.441814; 0.516071;,
         0.441814; 0.516071;,
         0.442217; 0.516769;,
         0.442217; 0.516769;,
         0.442217; 0.516769;,
         0.437772; 0.516642;,
         0.442217; 0.516769;,
         0.442217; 0.516769;,
         0.437772; 0.516642;,
         0.437586; 0.516389;,
         0.439775; 0.516146;,
         0.441945; 0.516452;,
         0.441578; 0.516080;,
         0.441945; 0.516452;,
         0.442217; 0.516410;,
         0.441578; 0.516080;,
         0.441578; 0.516080;,
         0.442217; 0.516410;,
         0.441814; 0.516071;,
         0.442217; 0.516410;,
         0.442217; 0.516769;,
         0.441814; 0.516071;,
         0.441814; 0.516071;,
         0.442217; 0.516769;,
         0.442217; 0.516769;,
         0.442217; 0.516769;,
         0.437334; 0.515983;,
         0.442217; 0.516769;,
         0.442217; 0.516769;,
         0.437334; 0.515983;,
         0.437634; 0.516386;,
         0.439775; 0.516146;,
         0.439775; 0.516722;,
         0.438781; 0.516593;,
         0.439775; 0.516722;,
         0.439576; 0.516769;,
         0.438781; 0.516593;,
         0.438781; 0.516593;,
         0.439576; 0.516769;,
         0.438658; 0.516648;,
         0.439576; 0.516769;,
         0.439374; 0.516602;,
         0.438658; 0.516648;,
         0.438658; 0.516648;,
         0.439374; 0.516602;,
         0.439014; 0.516559;,
         0.439374; 0.516602;,
         0.439134; 0.516650;,
         0.439014; 0.516559;,
         0.439014; 0.516559;,
         0.439134; 0.516650;,
         0.438905; 0.516607;,
         0.439134; 0.516650;,
         0.438707; 0.516761;,
         0.438905; 0.516607;,
         0.438905; 0.516607;,
         0.438707; 0.516761;,
         0.438621; 0.516757;,
         0.438707; 0.516761;,
         0.438514; 0.516763;,
         0.438621; 0.516757;,
         0.438514; 0.516763;,
         0.438707; 0.516761;,
         0.438595; 0.516769;,
         0.439775; 0.516146;,
         0.438781; 0.516593;,
         0.439775; 0.516722;,
         0.438781; 0.516593;,
         0.439576; 0.516769;,
         0.439775; 0.516722;,
         0.439576; 0.516769;,
         0.438781; 0.516593;,
         0.438658; 0.516648;,
         0.438658; 0.516648;,
         0.439374; 0.516602;,
         0.439576; 0.516769;,
         0.439374; 0.516602;,
         0.438658; 0.516648;,
         0.439030; 0.516549;,
         0.439030; 0.516549;,
         0.439134; 0.516650;,
         0.439374; 0.516602;,
         0.439134; 0.516650;,
         0.439030; 0.516549;,
         0.438837; 0.516632;,
         0.438837; 0.516632;,
         0.438707; 0.516761;,
         0.439134; 0.516650;,
         0.438707; 0.516761;,
         0.438837; 0.516632;,
         0.438595; 0.516769;,
         0.441231; 0.515792;,
         0.442217; 0.516769;,
         0.442217; 0.516769;,
         0.442217; 0.516769;,
         0.442217; 0.516769;,
         0.442217; 0.516769;,
         0.442217; 0.516769;,
         0.442217; 0.516769;,
         0.442217; 0.516769;,
         0.442217; 0.516769;,
         0.442217; 0.516769;,
         0.442217; 0.516769;,
         0.442217; 0.516769;,
         0.442217; 0.516769;,
         0.442217; 0.516769;,
         0.442217; 0.516769;,
         0.442217; 0.516769;,
         0.442217; 0.516769;,
         0.441231; 0.515792;,
         0.442217; 0.516769;,
         0.442217; 0.516769;,
         0.442217; 0.516769;,
         0.442217; 0.516769;,
         0.442217; 0.516769;,
         0.442217; 0.516769;,
         0.442217; 0.516769;,
         0.442217; 0.516769;,
         0.442217; 0.516769;,
         0.442217; 0.516769;,
         0.442217; 0.516769;,
         0.442217; 0.516769;,
         0.442217; 0.516769;,
         0.442217; 0.516769;,
         0.442217; 0.516769;,
         0.442217; 0.516769;,
         0.442217; 0.516769;,
         0.442217; 0.516769;,
         0.442217; 0.516769;,
         0.442217; 0.516769;,
         0.442217; 0.516769;,
         0.442217; 0.516769;,
         0.442217; 0.516769;,
         0.442217; 0.516769;,
         0.442217; 0.516769;,
         0.442217; 0.516769;,
         0.442217; 0.516769;,
         0.442217; 0.516769;,
         0.442217; 0.516769;,
         0.442217; 0.516769;,
         0.442217; 0.516769;,
         0.442217; 0.516769;,
         0.442217; 0.516769;,
         0.442217; 0.516769;,
         0.442217; 0.516769;,
         0.442217; 0.516769;,
         0.442217; 0.516769;,
         0.442217; 0.516769;,
         0.442217; 0.516769;,
         0.442217; 0.516769;,
         0.442217; 0.516769;,
         0.442217; 0.516769;,
         0.442217; 0.516769;,
         0.442217; 0.516769;,
         0.442217; 0.516769;,
         0.442217; 0.516769;,
         0.442217; 0.516769;,
         0.442217; 0.516769;,
         0.442217; 0.516769;,
         0.442217; 0.516769;,
         0.442217; 0.516769;,
         0.442217; 0.516769;,
         0.442217; 0.516769;,
         0.442217; 0.516769;,
         0.442217; 0.516769;,
         0.442217; 0.516769;,
         0.442217; 0.516769;,
         0.442217; 0.516769;,
         0.442217; 0.516769;,
         0.442217; 0.516769;,
         0.442217; 0.516769;,
         0.442217; 0.516769;,
         0.442217; 0.516769;,
         0.442217; 0.516769;,
         0.442217; 0.516769;,
         0.442217; 0.516769;,
         0.442217; 0.516769;,
         0.442217; 0.516769;,
         0.442217; 0.516769;,
         0.442217; 0.516769;,
         0.442217; 0.516769;,
         0.442217; 0.516769;,
         0.442217; 0.516769;,
         0.442217; 0.516769;,
         0.442217; 0.516769;,
         0.442217; 0.516769;,
         0.442217; 0.516769;,
         0.442217; 0.516769;,
         0.442217; 0.516769;,
         0.442217; 0.516769;,
         0.442217; 0.516769;,
         0.442217; 0.516769;,
         0.442217; 0.516769;,
         0.442217; 0.516769;,
         0.442217; 0.516769;,
         0.442217; 0.516769;,
         0.442217; 0.516769;,
         0.442217; 0.516769;,
         0.442217; 0.516769;,
         0.442217; 0.516769;,
         0.442217; 0.516769;,
         0.442217; 0.516769;,
         0.442217; 0.516769;,
         0.442217; 0.516769;,
         0.442217; 0.516769;,
         0.442217; 0.516769;,
         0.442217; 0.516769;,
         0.442217; 0.516769;,
         0.442217; 0.516769;,
         0.442217; 0.516769;,
         0.442217; 0.516769;,
         0.442217; 0.516769;,
         0.442217; 0.516769;,
         0.442217; 0.516769;,
         0.442217; 0.516769;,
         0.442217; 0.516769;,
         0.442217; 0.516769;,
         0.442217; 0.516769;,
         0.442217; 0.516769;,
         0.442217; 0.516769;,
         0.442217; 0.516769;,
         0.442217; 0.516769;,
         0.442217; 0.516769;,
         0.442217; 0.516769;,
         0.442217; 0.516769;,
         0.442217; 0.516769;,
         0.442217; 0.516769;,
         0.442217; 0.516769;,
         0.442217; 0.516769;,
         0.442217; 0.516769;,
         0.442217; 0.516769;,
         0.442217; 0.516769;,
         0.442217; 0.516769;,
         0.442217; 0.516769;,
         0.442217; 0.516769;,
         0.442217; 0.516769;,
         0.442217; 0.516769;,
         0.442217; 0.516769;,
         0.442217; 0.516769;,
         0.442217; 0.516769;,
         0.442217; 0.516769;,
         0.442217; 0.516769;,
         0.442217; 0.516769;,
         0.442217; 0.516769;,
         0.442217; 0.516769;,
         0.442217; 0.516769;,
         0.442217; 0.516769;,
         0.442217; 0.516769;,
         0.442217; 0.516769;,
         0.442217; 0.516769;,
         0.442217; 0.516769;,
         0.442217; 0.516769;,
         0.442217; 0.516769;,
         0.442217; 0.516769;,
         0.442217; 0.516769;,
         0.442217; 0.516769;,
         0.442217; 0.516769;,
         0.442217; 0.516769;,
         0.442217; 0.516769;,
         0.442217; 0.516769;,
         0.442217; 0.516769;,
         0.442217; 0.516769;,
         0.442217; 0.516769;,
         0.442217; 0.516769;,
         0.442217; 0.516769;,
         0.442217; 0.516769;,
         0.442217; 0.516769;,
         0.442217; 0.516769;,
         0.442217; 0.516769;,
         0.442217; 0.516769;,
         0.442217; 0.516769;,
         0.442217; 0.516769;,
         0.442217; 0.516769;,
         0.442217; 0.516769;,
         0.442217; 0.516769;,
         0.442217; 0.516769;,
         0.442217; 0.516769;,
         0.438658; 0.516648;,
         0.438684; 0.516421;,
         0.438609; 0.516500;,
         0.438609; 0.516500;,
         0.439030; 0.516549;,
         0.438658; 0.516648;,
         0.439030; 0.516549;,
         0.438609; 0.516500;,
         0.438588; 0.516585;,
         0.438588; 0.516585;,
         0.438837; 0.516632;,
         0.439030; 0.516549;,
         0.438837; 0.516632;,
         0.438588; 0.516585;,
         0.438595; 0.516769;,
         0.438588; 0.516585;,
         0.438514; 0.516763;,
         0.438595; 0.516769;,
         0.438684; 0.516421;,
         0.438658; 0.516648;,
         0.438609; 0.516500;,
         0.438658; 0.516648;,
         0.439014; 0.516559;,
         0.438609; 0.516500;,
         0.438609; 0.516500;,
         0.439014; 0.516559;,
         0.438588; 0.516585;,
         0.439014; 0.516559;,
         0.438905; 0.516607;,
         0.438588; 0.516585;,
         0.438588; 0.516585;,
         0.438905; 0.516607;,
         0.438621; 0.516757;,
         0.438621; 0.516757;,
         0.438514; 0.516763;,
         0.438588; 0.516585;,
         0.440896; 0.516421;,
         0.440893; 0.516648;,
         0.440966; 0.516505;,
         0.440893; 0.516648;,
         0.440519; 0.516554;,
         0.440966; 0.516505;,
         0.440966; 0.516505;,
         0.440519; 0.516554;,
         0.441004; 0.516591;,
         0.440519; 0.516554;,
         0.440689; 0.516632;,
         0.441004; 0.516591;,
         0.441004; 0.516591;,
         0.440689; 0.516632;,
         0.440930; 0.516763;,
         0.440930; 0.516763;,
         0.441013; 0.516755;,
         0.441004; 0.516591;,
         0.440896; 0.516421;,
         0.440966; 0.516505;,
         0.440893; 0.516648;,
         0.440966; 0.516505;,
         0.440565; 0.516558;,
         0.440893; 0.516648;,
         0.440565; 0.516558;,
         0.440966; 0.516505;,
         0.441004; 0.516591;,
         0.441004; 0.516591;,
         0.440668; 0.516611;,
         0.440565; 0.516558;,
         0.440668; 0.516611;,
         0.441004; 0.516591;,
         0.440907; 0.516748;,
         0.441004; 0.516591;,
         0.441013; 0.516755;,
         0.440907; 0.516748;;
      } //End of Mesh UV Coordinates
    } //End of Mesh Mesh
  } //End of starmie_mat_0
} //End of Root Frame
