# Blender v2.66 (sub 1) OBJ File: 'BR_Machoke-Shiny01.blend'
# www.blender.org
mtllib BR_Machoke-Shiny01.mtl
o goriky
v 0.000000 1.383403 -5.411769
v 1.019788 1.398840 -5.498353
v 1.990836 0.920898 -5.680733
v 2.491963 -0.014396 -5.864608
v 2.310170 -1.379280 -5.714839
v 1.267437 -2.135099 -5.497497
v 1.026489 -2.085498 -5.900873
v 1.497652 -2.112194 -5.049058
v 2.149499 -1.337133 -5.963661
v 0.000000 -0.550964 -3.879561
v 0.000000 0.384705 -3.911968
v 0.000000 -1.201000 -4.151718
v 0.000000 -1.737472 -4.464524
v 0.000000 -2.379441 -5.867846
v 0.227360 -2.393741 -5.449149
v 0.000000 -2.334665 -5.456285
v 0.807618 1.191685 -4.963421
v 0.000000 1.289020 -4.941942
v 0.000000 0.991306 -4.374413
v 0.394750 -2.280623 -4.869041
v 0.000000 -2.187486 -4.888212
v 0.878485 1.462676 -6.468859
v 0.672363 1.495999 -6.775537
v 0.672363 1.754820 -6.747413
v 0.878485 1.721496 -6.440735
v 0.363881 1.518265 -6.980452
v 0.363881 1.777086 -6.952329
v 0.000000 1.526084 -7.052409
v 0.000000 1.784905 -7.024286
v 0.000000 1.320652 -5.161808
v 0.363880 1.328471 -5.233764
v 0.363880 1.587292 -5.205641
v 0.000000 1.579473 -5.133684
v 0.672363 1.350737 -5.438680
v 0.672363 1.609558 -5.410556
v 0.878485 1.384061 -5.745358
v 0.878485 1.642881 -5.717234
v 0.950865 1.423368 -6.107108
v 0.950866 1.682192 -6.078995
v -1.019788 1.398840 -5.498353
v -0.768780 -1.627302 -3.976243
v -1.636692 -1.897277 -4.542216
v -0.412394 -1.916105 -4.333713
v -1.990836 0.920898 -5.680733
v -2.310170 -1.379280 -5.714839
v -1.026489 -2.085498 -5.900873
v -1.267437 -2.135099 -5.497497
v -1.497652 -2.112194 -5.049058
v -0.420486 0.384705 -3.958930
v -0.227360 -2.393741 -5.449149
v -0.372541 -0.490365 -3.859817
v -2.051103 1.004664 -4.989306
v -0.807618 1.191685 -4.963421
v -2.009770 0.995622 -5.248446
v -0.592457 0.965285 -4.421503
v -2.512367 -1.333653 -5.251354
v -0.394750 -2.280623 -4.869041
v -0.878485 1.462676 -6.468859
v -0.878485 1.721496 -6.440735
v -0.672363 1.754820 -6.747413
v -0.672363 1.495999 -6.775537
v -0.363881 1.777086 -6.952329
v -0.363881 1.518265 -6.980452
v -0.363880 1.587292 -5.205641
v -0.363880 1.328471 -5.233764
v -0.672363 1.609558 -5.410556
v -0.672363 1.350737 -5.438680
v -0.878485 1.642881 -5.717234
v -0.878485 1.384061 -5.745358
v -0.950865 1.682189 -6.078987
v -0.950865 1.423368 -6.107108
v 1.166862 -0.634890 -2.059608
v 2.142076 -1.227656 -2.674993
v 2.319958 1.194539 -3.980523
v 2.978316 0.445607 -3.855549
v 1.395846 1.541770 -3.126204
v 2.984814 0.580466 -3.095159
v 2.369728 1.331022 -3.244983
v 0.626272 -0.182408 -2.504454
v 0.978310 -1.010666 -2.401085
v 2.859179 -0.819835 -3.649188
v 2.639897 0.463576 -0.736443
v 0.544036 -0.220835 -1.228487
v 3.280780 1.196400 1.260112
v 3.216853 1.216879 1.410150
v 3.077593 0.985070 1.401433
v 2.424930 2.332037 1.210432
v 2.435055 2.253538 1.344203
v 2.703228 2.110965 1.357859
v 2.724846 2.154146 1.221501
v 1.921689 2.647534 1.215351
v 1.469213 2.078126 1.355402
v 1.924314 2.596968 1.319881
v 1.200833 1.247225 1.127138
v 1.328883 1.236070 1.348728
v 1.396106 2.045516 1.171834
v 1.994635 1.858420 0.813390
v 2.332068 2.256826 0.931140
v 2.624057 2.081167 0.932702
v 2.216017 1.708541 0.802717
v 0.992333 -0.751360 0.852401
v 1.733161 -0.799083 0.864645
v 1.291914 -0.917043 1.213350
v 1.645117 -0.828816 1.232672
v 1.072221 0.725709 0.444341
v 0.735447 -0.560410 1.214441
v 1.161408 0.262002 1.341107
v 0.825225 -0.407014 1.392487
v 1.420557 -0.798068 1.412503
v 2.088919 1.871884 1.371158
v 0.656034 -0.222599 1.214542
v 1.001414 0.352687 1.155423
v 0.569688 -0.241841 0.832024
v 1.970574 -0.170634 1.243006
v 1.913014 -0.127945 1.372015
v 1.395826 1.552430 0.678626
v 1.520772 2.012902 0.797131
v 1.714533 1.435592 0.587799
v 1.928711 2.547215 0.979628
v 2.187724 2.352025 0.930917
v 2.259789 2.337680 1.342416
v 2.311559 2.357440 1.236738
v 2.602139 0.530289 1.388480
v 2.706723 0.516910 1.292220
v 2.457978 1.054164 0.586779
v 0.937629 0.387001 0.817176
v 1.138463 0.999826 0.713876
v 2.151479 -0.253546 0.851791
v 2.833988 0.672736 0.825482
v 3.135827 0.945610 1.308947
v 3.287415 1.508126 1.253253
v 3.241368 1.505496 1.401715
v 3.126731 1.451563 1.081096
v 3.194577 1.199839 1.126346
v 3.056893 0.969393 0.945797
v 1.065918 4.341980 -10.992329
v 1.017772 4.693022 -10.969899
v 0.000000 3.725004 -10.391613
v 0.000000 4.319887 -11.355384
v 0.528964 4.346851 -11.252058
v 0.451738 4.183459 -11.634317
v 0.443484 4.742795 -11.187694
v 0.000000 4.755289 -11.280956
v 0.473851 5.072003 -10.427583
v 0.000000 5.226236 -10.451516
v 0.261167 5.341283 -10.785256
v 0.481971 5.266988 -10.773597
v 0.473701 5.188480 -11.034538
v 0.256296 5.279057 -11.064019
v 0.892790 4.897034 -10.421938
v 0.704946 5.150654 -10.744083
v 0.454251 3.958536 -11.953821
v 0.000000 3.996908 -12.034135
v 0.000000 4.181696 -11.684302
v 0.000000 1.335961 -12.557987
v 0.000000 1.921177 -12.687909
v 0.000000 3.197411 -12.526777
v 0.000000 3.676745 -12.270331
v 0.000000 2.545199 -12.649093
v 0.831331 2.573107 -12.540973
v 0.910928 0.887243 -11.761913
v 0.000000 0.996246 -12.302341
v 0.911542 1.071092 -12.265732
v 0.466193 5.027662 -11.173398
v 0.242214 5.073758 -11.236027
v 0.667855 5.100929 -10.968926
v 0.884199 4.914584 -10.947470
v 0.576312 4.992776 -11.081014
v 0.964450 4.959840 -10.704085
v 1.199075 1.146580 -12.205414
v 0.798496 4.781350 -10.638316
v 0.536661 4.489504 -10.594743
v 0.767570 4.619551 -10.077188
v 0.000000 5.067302 -11.263925
v 0.000000 5.294497 -11.079023
v 0.000000 5.353760 -10.798662
v -1.065918 4.341980 -10.992329
v -1.017772 4.693022 -10.969899
v -0.451738 4.183459 -11.634317
v -0.528964 4.346851 -11.252058
v -0.443484 4.742795 -11.187694
v -0.473851 5.072003 -10.427583
v -0.261167 5.341283 -10.785256
v -0.256296 5.279057 -11.064019
v -0.473701 5.188480 -11.034538
v -0.481971 5.266988 -10.773597
v -0.892790 4.897034 -10.421938
v -0.704946 5.150654 -10.744083
v -0.454251 3.958536 -11.953821
v -1.633199 1.310093 -11.808149
v -0.831331 2.573107 -12.540973
v -0.910928 0.887243 -11.761913
v -0.911542 1.071092 -12.265732
v -0.242214 5.073758 -11.236027
v -0.466193 5.027662 -11.173398
v -0.667865 5.101007 -10.969092
v -0.576312 4.992776 -11.081014
v -0.884199 4.914584 -10.947470
v -0.964450 4.959840 -10.704085
v -1.199095 1.146599 -12.205615
v -0.798496 4.781350 -10.638316
v -0.767570 4.619551 -10.077188
v -0.536661 4.489504 -10.594743
v -0.143011 4.292704 -11.113707
v -0.143011 4.292704 -11.113707
v -0.439048 4.045811 -12.411240
v -0.439048 4.045811 -12.411240
v -0.565100 4.065422 -12.386211
v -0.565100 4.065422 -12.386211
v -0.269062 4.312314 -11.088678
v -0.269062 4.312314 -11.088678
v -0.500273 3.937350 -12.634611
v -0.500273 3.937350 -12.634611
v -0.626325 3.956961 -12.609583
v -0.626325 3.956961 -12.609583
v -0.665068 3.253495 -12.928760
v -0.665068 3.253495 -12.928760
v -0.791120 3.273105 -12.903731
v -0.791120 3.273105 -12.903731
v -0.945951 1.932931 -13.308688
v -0.945951 1.932931 -13.308688
v -1.072003 1.952541 -13.283661
v -1.072003 1.952541 -13.283661
v -0.991889 1.641316 -13.311559
v -0.991889 1.641316 -13.311559
v -1.117941 1.660927 -13.286530
v -1.117941 1.660927 -13.286530
v -0.998799 1.447500 -13.194496
v -0.998799 1.447500 -13.194496
v -1.124851 1.467111 -13.169468
v -1.124851 1.467111 -13.169468
v -0.767250 1.331713 -11.937580
v -0.767250 1.331713 -11.937580
v -0.893302 1.351324 -11.912552
v -0.893302 1.351324 -11.912552
v -0.851284 1.564949 -11.868318
v -0.807881 1.787042 -11.823739
v -0.561650 3.074493 -11.592389
v -0.415568 3.694754 -11.342659
v -0.374866 3.864038 -11.270308
v -0.725232 1.545339 -11.893346
v -0.681829 1.767431 -11.848766
v -0.435598 3.054883 -11.617416
v -0.289516 3.675143 -11.367686
v -0.248815 3.844427 -11.295337
v 0.143011 4.292704 -11.113707
v 0.143011 4.292704 -11.113707
v 0.269062 4.312314 -11.088678
v 0.269062 4.312314 -11.088678
v 0.565100 4.065422 -12.386211
v 0.565100 4.065422 -12.386211
v 0.439048 4.045811 -12.411240
v 0.439048 4.045811 -12.411240
v 0.626325 3.956961 -12.609583
v 0.626325 3.956961 -12.609583
v 0.500273 3.937350 -12.634611
v 0.500273 3.937350 -12.634611
v 0.791120 3.273105 -12.903731
v 0.791120 3.273105 -12.903731
v 0.665068 3.253495 -12.928760
v 0.665068 3.253495 -12.928760
v 1.072003 1.952541 -13.283661
v 1.072003 1.952541 -13.283661
v 0.945951 1.932931 -13.308688
v 0.945951 1.932931 -13.308688
v 1.117941 1.660927 -13.286530
v 1.117941 1.660927 -13.286530
v 0.991889 1.641316 -13.311559
v 0.991889 1.641316 -13.311559
v 1.124851 1.467111 -13.169468
v 1.124851 1.467111 -13.169468
v 0.998799 1.447500 -13.194496
v 0.998799 1.447500 -13.194496
v 0.893302 1.351324 -11.912552
v 0.893302 1.351324 -11.912552
v 0.767250 1.331713 -11.937580
v 0.767250 1.331713 -11.937580
v 0.851284 1.564949 -11.868318
v 0.807881 1.787042 -11.823739
v 0.561650 3.074493 -11.592389
v 0.415568 3.694754 -11.342659
v 0.374866 3.864038 -11.270308
v 0.725232 1.545339 -11.893346
v 0.681829 1.767431 -11.848766
v 0.435598 3.054883 -11.617416
v 0.289516 3.675143 -11.367686
v 0.248815 3.844427 -11.295337
v -0.065000 4.358875 -11.086581
v -0.065000 4.358875 -11.086581
v 0.065000 4.358875 -11.086581
v 0.065000 4.358875 -11.086581
v 0.065000 4.056321 -12.405916
v 0.065000 4.056321 -12.405916
v -0.065000 4.056321 -12.405916
v -0.065000 4.056321 -12.405916
v 0.065000 3.937488 -12.632381
v 0.065000 3.937488 -12.632381
v -0.065000 3.937488 -12.632381
v -0.065000 3.937488 -12.632381
v 0.065000 3.233492 -12.925176
v 0.065000 3.233492 -12.925176
v -0.065000 3.233492 -12.925176
v -0.065000 3.233492 -12.925176
v 0.065000 1.881676 -13.298971
v 0.065000 1.881676 -13.298971
v -0.065000 1.881676 -13.298971
v -0.065000 1.881676 -13.298971
v 0.065000 1.586452 -13.298971
v 0.065000 1.586452 -13.298971
v -0.065000 1.586452 -13.298971
v -0.065000 1.586452 -13.298971
v 0.065000 1.395068 -13.177774
v 0.065000 1.395068 -13.177774
v -0.065000 1.395068 -13.177774
v -0.065000 1.395068 -13.177774
v 0.065000 1.328948 -11.896179
v 0.065000 1.328948 -11.896179
v -0.065000 1.328948 -11.896179
v -0.065000 1.328948 -11.896179
v 0.065000 1.546930 -11.853259
v 0.065000 1.773494 -11.810073
v 0.065000 3.085766 -11.587304
v 0.065000 3.723601 -11.339121
v 0.065000 3.897851 -11.267115
v -0.065000 1.546930 -11.853259
v -0.065000 1.773494 -11.810073
v -0.065000 3.085766 -11.587304
v -0.065000 3.723601 -11.339121
v -0.065000 3.897851 -11.267115
v 0.859852 4.365771 -9.426686
v 1.132249 3.837117 -9.519970
v 0.882114 4.483620 -9.543147
v 1.136562 3.831993 -9.771996
v 1.051294 3.829569 -9.892152
v 0.896702 4.472775 -9.690050
v 0.777121 4.628838 -9.543142
v 0.762387 4.504195 -9.404205
v 0.000000 2.619786 -9.298605
v 1.277132 3.365873 -9.610889
v 0.997086 3.833746 -9.385176
v 0.494470 4.774219 -9.672423
v 0.000000 3.814522 -9.909862
v 0.000000 4.870924 -9.681477
v 0.483841 4.647716 -9.388092
v 0.489895 4.779153 -9.543137
v 0.000000 4.859091 -9.543130
v 0.000000 4.746089 -9.385560
v 0.583363 3.829120 -9.266266
v 0.000000 3.822890 -9.224346
v 0.573130 3.295204 -9.295983
v 0.000000 3.292344 -9.234179
v 0.000000 3.376001 -10.026782
v 0.787079 4.620948 -9.681236
v 0.514340 4.269354 -9.992494
v 0.315661 4.136817 -9.555001
v 0.507654 4.542276 -9.543140
v 0.691596 4.048034 -9.567439
v -0.859852 4.365771 -9.426686
v -0.882114 4.483620 -9.543147
v -1.132249 3.837117 -9.519970
v -1.136562 3.831993 -9.771996
v -0.896702 4.472775 -9.690050
v -1.051294 3.829569 -9.892152
v -0.762387 4.504195 -9.404205
v -0.777121 4.628838 -9.543142
v -1.277132 3.365873 -9.610889
v -0.997086 3.833746 -9.385176
v -0.494470 4.774219 -9.672423
v -0.483841 4.647716 -9.388092
v -0.489895 4.779153 -9.543137
v -0.583363 3.829120 -9.271889
v -0.573130 3.295204 -9.295983
v -1.110920 3.320682 -9.398172
v -0.787079 4.620948 -9.681236
v -0.514340 4.269354 -9.992494
v -0.507654 4.542276 -9.543140
v -0.315661 4.136817 -9.555001
v -0.691596 4.048034 -9.567439
v -1.166862 -0.634890 -2.059608
v -2.142076 -1.227656 -2.674993
v -2.978316 0.445607 -3.855549
v -2.319958 1.194539 -3.980523
v -1.395846 1.541770 -3.126204
v -2.369728 1.331022 -3.244983
v -2.984814 0.580466 -3.095159
v -0.626272 -0.182408 -2.504454
v -0.978310 -1.010666 -2.401085
v -2.859179 -0.819835 -3.649188
v -2.639897 0.463576 -0.736443
v -0.544036 -0.220835 -1.228487
v -3.280780 1.196400 1.260112
v -3.077593 0.985070 1.401433
v -3.216853 1.216879 1.410150
v -2.424930 2.332037 1.210432
v -2.724846 2.154146 1.221501
v -2.703228 2.110965 1.357859
v -2.435055 2.253538 1.344203
v -1.921689 2.647534 1.215351
v -1.924314 2.596968 1.319881
v -1.469213 2.078126 1.355402
v -1.200833 1.247225 1.127138
v -1.396106 2.045515 1.171833
v -1.328883 1.236070 1.348728
v -1.994635 1.858420 0.813390
v -2.216017 1.708541 0.802717
v -2.624057 2.081167 0.932702
v -2.332068 2.256826 0.931140
v -0.992333 -0.751360 0.852401
v -1.291914 -0.917043 1.213350
v -1.733161 -0.799083 0.864645
v -1.645117 -0.828816 1.232672
v -1.072221 0.725709 0.444341
v -0.735447 -0.560410 1.214441
v -1.161408 0.262002 1.341107
v -1.420557 -0.798068 1.412503
v -0.825225 -0.407014 1.392487
v -2.088919 1.871884 1.371158
v -0.656034 -0.222599 1.214542
v -1.001414 0.352687 1.155423
v -0.569688 -0.241841 0.832024
v -1.970574 -0.170634 1.243006
v -1.913014 -0.127945 1.372015
v -1.395826 1.552430 0.678626
v -1.714533 1.435592 0.587799
v -1.520772 2.012902 0.797131
v -2.187724 2.352025 0.930917
v -1.928711 2.547215 0.979628
v -2.311559 2.357440 1.236738
v -2.259789 2.337680 1.342416
v -2.602139 0.530289 1.388480
v -2.706723 0.516910 1.292220
v -2.457978 1.054164 0.586779
v -2.833988 0.672736 0.825482
v -0.937629 0.387001 0.817176
v -1.138463 0.999826 0.713876
v -2.151479 -0.253546 0.851791
v -3.135827 0.945610 1.308947
v -3.287415 1.508126 1.253253
v -3.241368 1.505496 1.401715
v -3.126731 1.451563 1.081096
v -3.194577 1.199839 1.126346
v -3.056893 0.969393 0.945797
v -2.407896 1.501096 -6.941888
v -5.174850 0.013577 -9.948819
v -3.347009 -0.003603 -8.153581
v -5.258511 -0.771092 -8.755328
v -4.545807 1.745088 -8.785135
v -4.244844 1.721519 -9.212480
v 0.984176 1.526675 -6.735615
v 0.000000 1.560062 -6.730264
v 2.076180 1.075062 -6.816081
v 2.429497 0.056089 -7.008934
v 2.165510 -1.355293 -7.101735
v 0.997471 -1.986783 -7.093403
v 2.255550 -1.358559 -7.795692
v 1.200258 -1.907833 -7.876277
v 2.778128 0.252541 -7.692753
v 0.000000 1.810365 -6.984408
v 0.737906 1.790339 -6.840955
v 2.415829 1.127613 -6.918489
v 2.898716 0.196487 -8.526612
v 1.537445 -1.929021 -8.925065
v 1.726401 -1.773829 -9.596332
v 1.721637 2.073069 -7.086637
v 1.676974 1.741446 -6.762918
v 2.755602 1.405055 -7.200183
v 2.982502 1.309014 -7.566328
v 2.702306 1.910182 -7.484198
v 0.147285 2.110338 -7.395698
v 0.761987 2.149729 -7.215943
v 0.000000 2.044784 -7.456634
v 0.000000 -2.217559 -7.080876
v 0.000000 -2.018344 -7.944031
v -0.984176 1.526675 -6.735615
v -2.076180 1.075062 -6.816081
v -2.429497 0.056089 -7.008934
v -2.491963 -0.014396 -5.864608
v -2.149499 -1.337133 -5.963661
v -2.165510 -1.355293 -7.101735
v -0.997471 -1.986783 -7.093403
v -2.255550 -1.358559 -7.795692
v -1.200258 -1.907833 -7.876277
v -2.778128 0.252541 -7.692753
v -0.737906 1.790339 -6.840955
v -2.415829 1.127613 -6.918489
v -2.898716 0.196487 -8.526612
v -1.537445 -1.929021 -8.925065
v -1.726401 -1.773829 -9.596332
v -1.721637 2.073069 -7.086637
v -1.676974 1.741446 -6.762918
v -2.755602 1.405055 -7.200183
v -2.702306 1.910182 -7.484198
v -2.982502 1.309014 -7.566328
v -0.147285 2.110338 -7.395698
v -3.075907 0.154054 -8.627582
v -3.014189 1.032743 -8.724509
v -0.761987 2.149729 -7.215943
v 0.768780 -1.627302 -3.976243
v 0.412394 -1.916105 -4.333713
v 1.636692 -1.897277 -4.542216
v 1.738634 -1.696055 -4.369638
v 0.420486 0.384705 -3.958930
v 0.372541 -0.490365 -3.859817
v 2.205863 0.987723 -4.570610
v 2.878551 0.310748 -4.612566
v 0.464132 0.558690 -3.473333
v 1.251110 1.285055 -3.872027
v 1.128771 1.151769 -4.332263
v 0.417602 0.491793 -3.716666
v 0.406685 -0.427793 -3.575119
v 0.440828 -0.365220 -3.290421
v 2.710272 0.041031 -5.319601
v 2.051103 1.004664 -4.989306
v 2.609712 -1.232237 -4.863942
v 2.779131 -1.068280 -4.304174
v 0.797187 -1.557400 -3.614975
v 2.016599 -1.528511 -3.474916
v 0.825594 -1.487498 -3.253707
v 2.009770 0.995622 -5.248446
v 0.592457 0.965285 -4.421503
v 2.512367 -1.333653 -5.251354
v 2.400766 -0.403588 -2.025439
v 0.590598 0.697302 -2.758893
v 0.785028 0.513566 -2.093777
v 1.711894 1.672704 -2.331028
v 2.848775 -0.452746 -2.857800
v 2.919669 0.857447 -2.291939
v 2.404600 1.460048 -2.311482
v 1.830684 -0.764095 -1.622927
v 2.401369 -0.529103 -1.521516
v 0.853680 1.115931 -1.531952
v 0.904488 1.056955 -1.875603
v 0.605165 0.556222 -1.571410
v 2.618813 0.917234 -1.576989
v 2.769822 1.194808 -1.644067
v 2.581100 1.059378 -1.121228
v 1.921613 1.497093 -1.097234
v 1.924990 1.685893 -1.681050
v 1.740879 1.402875 -1.631322
v 2.451791 1.583439 -1.675862
v 1.459548 1.244958 -1.112142
v 2.721800 0.111500 -1.665348
v 1.152869 -0.539835 -1.680175
v 0.623550 -0.088468 -1.657753
v 0.565411 0.510711 -1.165289
v 1.035044 -0.709139 -1.282066
v 2.365331 -0.417761 -1.134851
v 1.664134 -0.917091 -1.213657
v 2.723009 0.256059 -1.220205
v 1.359782 1.349568 -1.586217
v 0.857499 1.116820 -1.110830
v 2.140758 -0.218026 0.379005
v 2.131065 -0.244527 0.157129
v 2.268704 0.343217 0.011206
v 2.342437 0.463049 0.277568
v 1.245910 0.831827 -0.039132
v 1.412699 1.015481 0.220505
v 0.759311 -0.176755 0.398697
v 1.027983 -0.673735 0.452609
v 0.596805 -0.245217 -0.793050
v 0.593579 0.416282 -0.862100
v 0.980457 -0.785204 -0.809070
v 2.323839 -0.289568 -0.689668
v 1.570038 -0.900920 -0.777316
v 1.058346 -0.629255 0.247814
v 0.781706 -0.170107 0.193387
v 1.584178 -0.642081 0.303052
v 1.592381 -0.622820 0.497951
v 0.776862 0.365656 0.094359
v 0.846917 0.389687 0.418137
v 2.759308 1.987687 -9.767845
v 3.363686 1.710175 -9.804402
v 3.270512 1.670793 -10.340064
v 3.251582 1.158182 -8.894346
v 3.408203 1.668311 -9.278375
v 3.198085 1.674888 -8.976064
v 0.000000 -0.026867 -11.359457
v 0.000000 -0.784043 -11.019466
v 2.643553 -1.360296 -9.110955
v 0.000000 -1.608376 -9.712454
v 1.951815 -1.373194 -10.375225
v 2.919479 2.054691 -8.900262
v 2.852674 2.062947 -9.301199
v 2.400698 2.295251 -9.275323
v 3.127500 1.476252 -8.238856
v 3.210208 1.424953 -10.792016
v 2.591660 1.381277 -10.813392
v 2.678345 1.754642 -10.350149
v 2.355049 -0.857497 -11.150277
v 3.130782 -0.805668 -11.230693
v 3.287274 -1.435068 -10.388635
v 3.163859 0.834829 -11.232217
v 3.129701 0.028049 -11.497190
v 2.408056 0.056658 -11.532979
v 4.410647 0.071587 -10.734693
v 4.301684 0.809759 -10.624908
v 4.450501 0.814861 -10.184266
v 2.524563 -1.455482 -10.289170
v 1.806868 -0.752544 -10.898096
v 1.661919 0.036134 -11.295877
v 3.433405 -1.247271 -9.207111
v 3.457370 -1.357521 -9.529768
v 4.898772 1.061636 -9.877030
v 3.240225 -0.638304 -8.868163
v 4.257660 -0.887225 -8.654050
v 3.347009 -0.003603 -8.153581
v 5.011931 -0.941292 -9.199007
v 4.244844 1.721519 -9.212480
v 4.043396 -0.947410 -9.392782
v 4.508603 -0.745336 -9.887690
v 3.168367 0.217962 -8.525547
v 3.431229 1.294507 -8.504286
v 3.675701 1.331929 -10.731983
v 3.892217 1.474648 -10.241940
v 3.956867 1.268151 -10.690823
v 4.015557 1.301696 -9.614122
v 3.014189 1.032743 -8.724509
v 3.075907 0.154054 -8.627582
v 3.872439 1.448834 -9.900385
v 0.000000 -1.328046 -10.485146
v 4.470060 -0.704890 -10.460068
v 3.921760 -1.146441 -9.710935
v 3.609243 0.819239 -11.153479
v 3.603383 0.035337 -11.383528
v 3.595991 -0.789059 -11.169848
v 2.356756 1.819026 -10.363634
v 3.989022 -0.772450 -10.999529
v 4.004888 0.042624 -11.152552
v 3.982450 0.803650 -10.984649
v -1.661919 0.036134 -11.295877
v 0.830960 0.004634 -11.415041
v 2.497451 0.850540 -11.214871
v 1.421597 0.571749 -11.308828
v 2.013306 1.215079 -11.061098
v 0.909719 0.447801 -11.505954
v 0.000000 0.391705 -11.576627
v 1.663657 2.156821 -11.988308
v 1.673111 1.578763 -11.894117
v 1.521819 1.509595 -12.171865
v 1.270174 1.993892 -12.462844
v 1.503824 2.063130 -12.267429
v 1.464353 2.776473 -10.377872
v 1.648931 2.759413 -10.610161
v 1.487875 1.231039 -12.032278
v 1.633199 1.310093 -11.808149
v 1.433248 0.971395 -11.587358
v 0.879951 1.948159 -12.603937
v 0.912339 1.374354 -12.503158
v 0.000000 0.794245 -11.804015
v 1.564240 2.512790 -10.093723
v 1.722482 2.358994 -10.507853
v 1.888517 2.202503 -11.199384
v 1.438758 2.586436 -10.296412
v 1.277372 3.369662 -9.901216
v 1.903571 1.570303 -11.113576
v 1.263734 2.618003 -10.503468
v 1.568455 2.521521 -10.545325
v 1.568455 2.521521 -10.545325
v 1.755150 2.742685 -10.865234
v 1.906040 2.306940 -10.772229
v 1.314449 1.428938 -12.373831
v 1.828001 2.530038 -10.816375
v -0.830960 0.004634 -11.415041
v -2.497451 0.850540 -11.214871
v -1.421597 0.571749 -11.308828
v -0.909719 0.447801 -11.505954
v -1.663657 2.156821 -11.988308
v -1.521819 1.509595 -12.171865
v -1.673111 1.578763 -11.894117
v -1.503824 2.063130 -12.267429
v -1.270174 1.993892 -12.462844
v -1.464353 2.776473 -10.377872
v -1.648931 2.759413 -10.610161
v -1.487875 1.231039 -12.032278
v -1.433248 0.971395 -11.587358
v -0.912339 1.374354 -12.503158
v -0.879951 1.948159 -12.603937
v -1.564240 2.512790 -10.093723
v -1.722482 2.358994 -10.507853
v -1.888517 2.202503 -11.199384
v -1.277372 3.369662 -9.901216
v -1.438758 2.586436 -10.296412
v -1.903571 1.570303 -11.113576
v -1.568455 2.521521 -10.545325
v -1.568455 2.521521 -10.545325
v -1.263734 2.618003 -10.503468
v -1.755150 2.742685 -10.865234
v -1.906040 2.306940 -10.772229
v -1.314450 1.428939 -12.373837
v -1.828001 2.530038 -10.816375
v 1.753005 2.416669 -8.032784
v 2.410198 1.942990 -7.318232
v 2.456698 2.273981 -8.085045
v 2.407897 1.501096 -6.941890
v 2.890682 1.877374 -7.720405
v 2.431845 2.320925 -8.808310
v 2.990906 1.980710 -8.177691
v 0.794280 2.462614 -8.012843
v 1.689777 2.323650 -9.226815
v 1.733178 2.396577 -8.772456
v 0.770570 2.433046 -8.757984
v -1.753005 2.416669 -8.032784
v -2.456698 2.273981 -8.085045
v -2.410198 1.942990 -7.318232
v -2.890682 1.877374 -7.720405
v -2.431845 2.320925 -8.808310
v -2.852674 2.062947 -9.301199
v -2.990906 1.980710 -8.177691
v -0.794280 2.462614 -8.012843
v -1.689777 2.323650 -9.226815
v -1.733178 2.396577 -8.772456
v -0.770570 2.433046 -8.757984
v 1.864230 2.000075 -9.933222
v 1.668704 2.162627 -9.695568
v 2.262005 2.133915 -9.669935
v 0.116217 2.264163 -8.142527
v 1.498028 2.304523 -9.488115
v 0.723287 2.329727 -9.145855
v 0.000000 2.220992 -8.192463
v 0.634106 2.283972 -9.315491
v 0.000000 2.405494 -9.263756
v 0.000000 2.215266 -9.149235
v 2.035166 1.883410 -10.377119
v 0.177931 2.288780 -8.842237
v 0.000000 2.189100 -8.803822
v 1.539602 2.529051 -9.756340
v 1.314044 2.528376 -9.490735
v 0.576537 2.503994 -9.366690
v 1.110920 3.299570 -9.398172
v -1.864230 2.000075 -9.933222
v -2.262005 2.133915 -9.669935
v -1.668704 2.162627 -9.695568
v -0.116217 2.264163 -8.142527
v -2.013306 1.215079 -11.061098
v -1.498028 2.304523 -9.488115
v -0.723287 2.329727 -9.145855
v -0.634106 2.283972 -9.315491
v -2.035166 1.883410 -10.377119
v -0.177931 2.288780 -8.842237
v -1.539602 2.529051 -9.756340
v -1.314044 2.528376 -9.490735
v -0.576537 2.503994 -9.366690
v 4.606751 0.093508 -10.307211
v 5.174850 0.013577 -9.948819
v 5.228300 1.103338 -9.379264
v 3.634441 0.134699 -7.804434
v 5.258511 -0.771092 -8.755328
v 3.649228 1.407732 -8.022048
v 4.545807 1.745088 -8.785135
v 5.495381 0.108054 -9.435966
v 4.469431 -0.648813 -8.184539
v 4.674130 -0.459320 -7.880940
v 3.921674 0.252700 -7.679315
v 4.043196 1.357244 -7.559751
v 4.745945 1.664870 -8.507871
v 6.129203 1.465568 -8.400596
v 5.070471 2.155630 -8.045944
v 6.244316 1.620492 -8.050032
v 4.281346 0.299856 -7.311346
v 6.230223 0.489202 -7.730294
v 6.142657 0.314906 -8.056364
v 5.511629 1.142103 -9.002719
v 4.850507 1.958832 -8.359749
v 5.851959 1.257900 -8.702932
v 5.055552 1.639784 -6.335711
v 4.527440 0.570580 -6.874907
v 5.756321 0.713188 -6.385546
v 5.061757 -0.134264 -6.997935
v 5.904791 -0.121859 -7.258511
v 5.275372 2.108396 -6.711493
v 4.198000 1.492360 -7.143842
v 5.732010 -0.390594 -7.551793
v 6.352699 0.849225 -6.680995
v 6.521990 1.272558 -6.937369
v 5.932233 0.231849 -8.502316
v 5.676958 0.225052 -8.800615
v 4.761931 -0.338465 -7.395934
v 6.272934 1.846694 -7.139755
v 5.800269 2.197080 -7.068287
v 5.026516 2.672763 -5.716650
v 5.355890 2.776059 -6.037885
v 4.755326 2.239247 -5.821361
v 5.316917 2.266976 -6.538548
v 6.585917 2.332462 -5.950678
v 6.404697 2.021493 -6.874957
v 5.840686 2.306510 -6.837894
v 5.859346 2.924185 -5.931212
v 5.265223 1.683730 -5.784802
v 6.538303 1.259840 -5.593744
v 6.406758 0.968821 -6.364322
v 6.921780 1.585844 -5.808031
v 5.520801 2.266929 -5.681812
v 4.585589 2.486854 -4.734118
v 4.729245 2.513393 -4.570452
v 4.650039 1.933836 -4.792664
v 5.046526 2.045182 -4.496819
v 4.817726 1.972227 -4.562190
v 4.740528 2.243075 -4.463156
v 4.560570 2.210345 -4.669001
v 6.017336 2.615880 -3.921742
v 5.339182 2.459825 -4.170341
v 5.431202 2.634329 -5.611939
v 6.709746 1.400062 -4.910522
v 5.600488 2.755183 -4.991233
v 5.427225 2.630842 -4.417500
v 7.006940 1.746332 -4.833903
v 5.772319 2.269505 -4.301517
v 6.688100 1.497180 -6.648504
v 5.939162 3.270893 -5.117586
v 5.669647 3.194088 -5.072611
v 6.270260 3.126501 -5.061379
v 6.636126 2.610903 -4.975744
v 6.219544 3.098250 -4.754014
v 6.575813 1.286370 -4.371788
v 6.561251 1.382573 -3.889022
v 5.650763 3.183312 -4.830088
v 5.911231 3.230007 -4.775496
v 6.783633 1.630829 -3.951635
v 4.991462 2.275771 -4.435065
v 4.964578 2.506360 -4.562091
v 5.480946 2.576875 -3.842993
v 5.743600 2.222826 -3.807609
v 5.602029 2.859906 -3.986063
v 5.613497 2.041014 -4.133559
v 6.354127 1.193617 -4.145452
v 5.480764 -0.484813 -7.912696
v 5.364471 -0.571188 -8.305674
v 1.117875 4.727861 -10.683716
v 1.209657 4.375265 -10.666779
v 1.416398 3.548969 -10.649158
v 1.521442 3.231687 -10.642590
v 1.587463 3.139623 -10.922061
v 1.107271 4.321113 -10.404387
v 1.305298 3.590879 -10.427167
v 1.380476 3.271353 -10.414260
v 0.969827 3.959612 -11.115318
v 1.376049 3.421901 -10.939135
v 1.129421 3.217654 -12.284518
v 1.001398 3.701879 -11.993683
v 1.341360 3.173691 -11.988851
v 0.756524 3.634240 -12.183503
v 0.790516 3.227311 -12.404658
v 1.230436 2.633344 -12.384271
v 1.439145 2.701982 -12.225029
v 1.405158 3.282843 -11.430256
v 1.572303 3.021693 -11.334064
v 0.777753 4.102541 -11.624887
v 1.034666 3.818096 -11.533209
v 1.533086 2.745723 -12.012488
v 1.773779 2.637090 -11.247731
v 1.129499 3.376164 -10.026466
v 0.000000 2.767382 -10.438725
v 0.000000 2.617960 -10.440509
v 1.034758 4.652886 -10.411840
v 0.913047 4.401150 -10.597130
v -1.209657 4.375265 -10.666779
v -1.117875 4.727861 -10.683716
v -1.416398 3.548969 -10.649158
v -1.587463 3.139623 -10.922061
v -1.521442 3.231687 -10.642590
v -1.107271 4.321113 -10.404387
v -1.305298 3.590879 -10.427167
v -1.380476 3.271353 -10.414260
v -0.969827 3.959612 -11.115318
v -1.376049 3.421901 -10.939135
v -1.129421 3.217654 -12.284518
v -1.341360 3.173691 -11.988851
v -1.001398 3.701879 -11.993683
v -0.790516 3.227311 -12.404658
v -0.756524 3.634240 -12.183503
v -1.230436 2.633344 -12.384271
v -1.439145 2.701982 -12.225029
v -1.405158 3.282843 -11.430256
v -1.572303 3.021693 -11.334064
v -0.777753 4.102541 -11.624887
v -1.034666 3.818096 -11.533209
v -1.533086 2.745723 -12.012488
v -1.773779 2.637090 -11.247731
v -1.129499 3.376164 -10.026466
v -1.034758 4.652886 -10.411840
v -0.913047 4.401150 -10.597130
v -1.738634 -1.696055 -4.369638
v -2.205863 0.987723 -4.570610
v -2.878551 0.310748 -4.612566
v -0.464132 0.558690 -3.473333
v -0.417602 0.491793 -3.716666
v -1.128771 1.151769 -4.332263
v -1.251110 1.285055 -3.872027
v -0.440828 -0.365220 -3.290421
v -0.406685 -0.427793 -3.575119
v -2.710272 0.041031 -5.319601
v -2.609712 -1.232237 -4.863942
v -2.779131 -1.068280 -4.304174
v -0.797187 -1.557400 -3.614975
v -0.825594 -1.487498 -3.253707
v -2.016599 -1.528511 -3.474916
v -2.400766 -0.403588 -2.025439
v -0.590598 0.697302 -2.758893
v -1.711894 1.672704 -2.331028
v -0.785028 0.513566 -2.093777
v -2.848775 -0.452746 -2.857800
v -2.919669 0.857447 -2.291939
v -2.404600 1.460048 -2.311482
v -1.830684 -0.764095 -1.622927
v -2.401369 -0.529103 -1.521516
v -0.853680 1.115931 -1.531952
v -0.605165 0.556222 -1.571410
v -0.904488 1.056955 -1.875603
v -2.618813 0.917234 -1.576989
v -2.581100 1.059378 -1.121228
v -2.769822 1.194808 -1.644067
v -1.921613 1.497093 -1.097234
v -1.740879 1.402875 -1.631322
v -1.924990 1.685893 -1.681050
v -2.451791 1.583439 -1.675862
v -1.459548 1.244958 -1.112142
v -2.721800 0.111500 -1.665348
v -1.152869 -0.539835 -1.680175
v -0.623550 -0.088468 -1.657753
v -0.565411 0.510711 -1.165289
v -1.035044 -0.709139 -1.282066
v -2.365331 -0.417761 -1.134851
v -1.664134 -0.917091 -1.213657
v -2.723009 0.256059 -1.220205
v -1.359782 1.349568 -1.586217
v -0.857499 1.116820 -1.110830
v -2.140758 -0.218026 0.379005
v -2.342437 0.463049 0.277568
v -2.268704 0.343217 0.011206
v -2.131065 -0.244527 0.157129
v -1.245910 0.831827 -0.039132
v -1.412699 1.015481 0.220505
v -0.759311 -0.176755 0.398697
v -1.027983 -0.673735 0.452609
v -0.596805 -0.245217 -0.793050
v -0.593579 0.416282 -0.862100
v -0.980457 -0.785204 -0.809070
v -1.570038 -0.900920 -0.777316
v -2.323839 -0.289568 -0.689668
v -1.058346 -0.629255 0.247814
v -0.781706 -0.170107 0.193387
v -1.584178 -0.642081 0.303052
v -1.592381 -0.622820 0.497951
v -0.776862 0.365656 0.094359
v -0.846917 0.389687 0.418137
v -2.759308 1.987687 -9.767845
v -3.270512 1.670793 -10.340064
v -3.363686 1.710175 -9.804402
v -3.251582 1.158182 -8.894346
v -3.198085 1.674888 -8.976064
v -3.408203 1.668311 -9.278375
v -2.643553 -1.360296 -9.110955
v -1.951815 -1.373194 -10.375225
v -2.919479 2.054691 -8.900262
v -2.400698 2.295251 -9.275323
v -3.127500 1.476252 -8.238856
v -2.678345 1.754642 -10.350149
v -2.591660 1.381277 -10.813392
v -3.210208 1.424953 -10.792016
v -2.355049 -0.857497 -11.150277
v -3.287274 -1.435068 -10.388635
v -3.130782 -0.805668 -11.230693
v -2.408056 0.056658 -11.532979
v -3.129701 0.028049 -11.497190
v -3.163859 0.834829 -11.232217
v -4.410647 0.071587 -10.734693
v -4.606751 0.093508 -10.307211
v -4.450501 0.814861 -10.184266
v -4.301684 0.809759 -10.624908
v -2.524563 -1.455482 -10.289170
v -1.806868 -0.752544 -10.898096
v -3.433405 -1.247271 -9.207111
v -3.457370 -1.357521 -9.529768
v -4.898772 1.061636 -9.877030
v -3.240225 -0.638304 -8.868163
v -4.257660 -0.887225 -8.654050
v -5.011931 -0.941292 -9.199007
v -4.043396 -0.947410 -9.392782
v -4.508603 -0.745336 -9.887690
v -3.431229 1.294507 -8.504286
v -3.168367 0.217962 -8.525547
v -3.675701 1.331929 -10.731983
v -3.956867 1.268151 -10.690823
v -3.892217 1.474648 -10.241940
v -4.015557 1.301696 -9.614122
v -3.872439 1.448834 -9.900385
v -4.470060 -0.704890 -10.460068
v -3.921760 -1.146441 -9.710935
v -3.603383 0.035337 -11.383528
v -3.609243 0.819239 -11.153479
v -3.595991 -0.789059 -11.169848
v -2.356756 1.819026 -10.363634
v -3.989022 -0.772450 -10.999529
v -4.004888 0.042624 -11.152552
v -3.982450 0.803650 -10.984649
v -5.495381 0.108054 -9.435966
v -5.228300 1.103338 -9.379264
v -3.634441 0.134699 -7.804434
v -3.921674 0.252700 -7.679315
v -4.674130 -0.459320 -7.880940
v -4.469431 -0.648813 -8.184539
v -3.649228 1.407732 -8.022048
v -4.043196 1.357244 -7.559751
v -4.745945 1.664870 -8.507871
v -6.129203 1.465568 -8.400596
v -6.244316 1.620492 -8.050032
v -5.070471 2.155630 -8.045944
v -4.281346 0.299856 -7.311346
v -6.142657 0.314906 -8.056364
v -6.230223 0.489202 -7.730294
v -5.511629 1.142103 -9.002719
v -5.851959 1.257900 -8.702932
v -4.850507 1.958832 -8.359749
v -5.055552 1.639784 -6.335711
v -5.756321 0.713188 -6.385546
v -4.527440 0.570580 -6.874907
v -5.061757 -0.134264 -6.997935
v -5.904791 -0.121859 -7.258511
v -5.275372 2.108396 -6.711493
v -4.198000 1.492360 -7.143842
v -5.732010 -0.390594 -7.551793
v -6.352699 0.849225 -6.680995
v -6.521990 1.272558 -6.937369
v -5.932233 0.231849 -8.502316
v -5.676958 0.225052 -8.800615
v -5.364471 -0.571188 -8.305674
v -5.480764 -0.484813 -7.912696
v -4.761931 -0.338465 -7.395934
v -5.800269 2.197080 -7.068287
v -6.272934 1.846694 -7.139755
v -5.026516 2.672763 -5.716650
v -4.755326 2.239247 -5.821361
v -5.355890 2.776059 -6.037885
v -5.316917 2.266976 -6.538548
v -6.585917 2.332462 -5.950678
v -5.859346 2.924185 -5.931212
v -5.840686 2.306510 -6.837894
v -6.404697 2.021493 -6.874957
v -5.265223 1.683730 -5.784802
v -6.538303 1.259840 -5.593744
v -6.406758 0.968821 -6.364322
v -6.921780 1.585844 -5.808031
v -5.520801 2.266929 -5.681812
v -4.585589 2.486854 -4.734118
v -4.729245 2.513393 -4.570452
v -4.650039 1.933836 -4.792664
v -5.046526 2.045182 -4.496819
v -4.817726 1.972227 -4.562190
v -4.560570 2.210345 -4.669001
v -4.740528 2.243075 -4.463156
v -6.017336 2.615880 -3.921742
v -5.339182 2.459825 -4.170341
v -5.431202 2.634329 -5.611939
v -5.600461 2.755170 -4.991209
v -6.709746 1.400062 -4.910522
v -5.427225 2.630842 -4.417500
v -7.006940 1.746332 -4.833903
v -5.772319 2.269505 -4.301517
v -6.688100 1.497180 -6.648504
v -5.939162 3.270893 -5.117586
v -5.669647 3.194088 -5.072611
v -6.270260 3.126501 -5.061379
v -6.636126 2.610903 -4.975744
v -6.219544 3.098250 -4.754014
v -6.575813 1.286370 -4.371788
v -6.561251 1.382573 -3.889022
v -5.911231 3.230007 -4.775496
v -5.650763 3.183312 -4.830088
v -6.783633 1.630829 -3.951635
v -4.991462 2.275771 -4.435065
v -4.964578 2.506360 -4.562091
v -5.480946 2.576875 -3.842993
v -5.602029 2.859906 -3.986063
v -5.743600 2.222826 -3.807609
v -5.613497 2.041014 -4.133559
v -6.354127 1.193617 -4.145452
vt 0.001457 0.998853
vt 0.055159 0.930260
vt 0.055159 0.998853
vt 0.001457 0.930260
vt 0.250965 0.842774
vt 0.280635 0.795068
vt 0.305123 0.821980
vt 0.244224 0.831376
vt 0.206980 0.887686
vt 0.201187 0.862745
vt 0.274592 0.930260
vt 0.218451 0.998853
vt 0.218451 0.930260
vt 0.274592 0.998853
vt 0.326164 0.930260
vt 0.326165 0.998853
vt 0.216205 0.669101
vt 0.166073 0.707067
vt 0.166073 0.669101
vt 0.216205 0.707067
vt 0.268512 0.669101
vt 0.268512 0.707067
vt 0.054665 0.669101
vt 0.111346 0.695010
vt 0.054665 0.695010
vt 0.111346 0.669101
vt 0.054665 0.630205
vt 0.111346 0.630205
vt 0.442104 0.668623
vt 0.487565 0.686910
vt 0.442104 0.691358
vt 0.487565 0.666480
vt 0.442104 0.619995
vt 0.487565 0.619995
vt 0.388854 0.573776
vt 0.464077 0.569764
vt 0.216205 0.630205
vt 0.166073 0.588055
vt 0.207358 0.588055
vt 0.166073 0.630205
vt 0.216205 0.740721
vt 0.268512 0.731136
vt 0.328765 0.669862
vt 0.388854 0.691248
vt 0.328765 0.719592
vt 0.388854 0.668594
vt 0.328765 0.630205
vt 0.388854 0.619995
vt 0.278437 0.388162
vt 0.201028 0.415908
vt 0.201028 0.388162
vt 0.278437 0.415908
vt 0.339241 0.388162
vt 0.339241 0.415908
vt 0.388854 0.388162
vt 0.388854 0.415908
vt 0.436139 0.388162
vt 0.436797 0.415908
vt 0.163821 0.244731
vt 0.142505 0.230878
vt 0.163821 0.230878
vt 0.142505 0.244731
vt 0.162182 0.269709
vt 0.142505 0.269709
vt 0.152617 0.303167
vt 0.136383 0.300419
vt 0.103590 0.132474
vt 0.103208 0.188358
vt 0.092180 0.182963
vt 0.120740 0.136423
vt 0.124915 0.075182
vt 0.140758 0.076150
vt 0.379522 0.152164
vt 0.434455 0.093148
vt 0.440306 0.151689
vt 0.379891 0.083832
vt 0.310470 0.151843
vt 0.310470 0.092745
vt 0.454877 0.102002
vt 0.504293 0.085620
vt 0.475302 0.110855
vt 0.471247 0.075202
vt 0.438202 0.064784
vt 0.434415 0.235784
vt 0.478637 0.211582
vt 0.477553 0.238775
vt 0.436821 0.208759
vt 0.379522 0.236852
vt 0.379522 0.204875
vt 0.310470 0.231898
vt 0.310470 0.204881
vt 0.700886 0.901920
vt 0.733142 0.942291
vt 0.700886 0.942291
vt 0.733142 0.901920
vt 0.700886 0.854165
vt 0.733142 0.878472
vt 0.763019 0.942291
vt 0.808517 0.901920
vt 0.807658 0.942291
vt 0.763209 0.901920
vt 0.796548 0.790656
vt 0.751355 0.821693
vt 0.734639 0.790655
vt 0.799830 0.821693
vt 0.840463 0.790655
vt 0.840463 0.821693
vt 0.890982 0.790655
vt 0.911515 0.821693
vt 0.901525 0.668594
vt 0.980353 0.703607
vt 0.901525 0.703607
vt 0.975343 0.668594
vt 0.890982 0.650060
vt 0.942248 0.650060
vt 0.734639 0.650060
vt 0.650210 0.668594
vt 0.650210 0.650060
vt 0.734639 0.668594
vt 0.796548 0.650060
vt 0.796548 0.668594
vt 0.840463 0.650060
vt 0.840463 0.668594
vt 0.734639 0.503634
vt 0.650814 0.430175
vt 0.734639 0.430175
vt 0.684834 0.503634
vt 0.734639 0.534800
vt 0.684834 0.534800
vt 0.507502 0.436542
vt 0.507521 0.436300
vt 0.507344 0.436452
vt 0.507694 0.436406
vt 0.507587 0.436505
vt 0.507740 0.436397
vt 0.652965 0.225295
vt 0.693672 0.257521
vt 0.652965 0.257521
vt 0.693672 0.225295
vt 0.652965 0.195897
vt 0.693672 0.195897
vt 0.652965 0.173993
vt 0.693672 0.173993
vt 0.774220 0.017952
vt 0.774220 0.109769
vt 0.663520 0.109769
vt 0.663520 0.015690
vt 0.326157 0.927143
vt 0.281638 0.927143
vt 0.271326 0.904141
vt 0.317915 0.900743
vt 0.136383 0.341339
vt 0.177149 0.341339
vt 0.136383 0.388162
vt 0.143227 0.026467
vt 0.143147 0.009946
vt 0.181984 0.009946
vt 0.185057 0.027096
vt 0.082077 0.527423
vt 0.050363 0.525485
vt 0.050363 0.500504
vt 0.087751 0.500504
vt 0.942248 0.600784
vt 0.986735 0.600784
vt 0.986735 0.650060
vt 0.505084 0.436222
vt 0.504845 0.436317
vt 0.505063 0.436845
vt 0.505203 0.436540
vt 0.485238 0.875457
vt 0.479484 0.861474
vt 0.503003 0.864377
vt 0.507530 0.875457
vt 0.511801 0.433125
vt 0.512035 0.433256
vt 0.511914 0.433334
vt 0.511634 0.433205
vt 0.700886 0.957306
vt 0.648524 0.964682
vt 0.654659 0.919663
vt 0.018145 0.779264
vt 0.027501 0.775120
vt 0.032071 0.802547
vt 0.024354 0.823370
vt 0.266929 0.764317
vt 0.300045 0.731790
vt 0.307924 0.750124
vt 0.511167 0.439712
vt 0.511247 0.439505
vt 0.511490 0.439433
vt 0.511399 0.439675
vt 0.508946 0.439931
vt 0.509310 0.439861
vt 0.509210 0.439592
vt 0.509040 0.439706
vt 0.309712 0.063450
vt 0.377029 0.056927
vt 0.265361 0.160269
vt 0.254486 0.109820
vt 0.266853 0.109200
vt 0.254486 0.163620
vt 0.268920 0.212503
vt 0.254486 0.207066
vt 0.371323 0.255538
vt 0.310470 0.243766
vt 0.363124 0.271144
vt 0.310470 0.271772
vt 0.363124 0.300253
vt 0.310470 0.302196
vt 0.003760 0.927143
vt 0.042312 0.895300
vt 0.050946 0.927143
vt 0.003760 0.895991
vt 0.103025 0.927143
vt 0.104084 0.905215
vt 0.155952 0.927143
vt 0.155952 0.892259
vt 0.214757 0.913984
vt 0.003760 0.858531
vt 0.033473 0.858531
vt 0.003760 0.823370
vt 0.105605 0.888569
vt 0.063389 0.854603
vt 0.268512 0.630205
vt 0.326157 0.864198
vt 0.310020 0.863497
vt 0.326157 0.900885
vt 0.124273 0.588055
vt 0.326157 0.822232
vt 0.443977 0.507296
vt 0.388854 0.482005
vt 0.439887 0.482005
vt 0.388854 0.510786
vt 0.443599 0.534155
vt 0.388854 0.534155
vt 0.106429 0.308480
vt 0.113017 0.341339
vt 0.110919 0.269709
vt 0.132531 0.269709
vt 0.110919 0.244731
vt 0.132531 0.244731
vt 0.110919 0.230878
vt 0.132531 0.230878
vt 0.339241 0.482005
vt 0.339047 0.510786
vt 0.334427 0.538625
vt 0.187672 0.077717
vt 0.206372 0.145008
vt 0.191859 0.077507
vt 0.214252 0.146917
vt 0.840463 0.942291
vt 0.840463 0.901920
vt 0.807698 0.878472
vt 0.840463 0.878472
vt 0.806880 0.854165
vt 0.840463 0.854165
vt 0.763702 0.878472
vt 0.764195 0.854165
vt 0.242446 0.511423
vt 0.295698 0.539223
vt 0.258264 0.548588
vt 0.288641 0.504188
vt 0.219887 0.474902
vt 0.278437 0.467515
vt 0.136383 0.200150
vt 0.211450 0.191042
vt 0.225051 0.190171
vt 0.622087 0.534800
vt 0.622087 0.503634
vt 0.650210 0.620182
vt 0.578242 0.664024
vt 0.578242 0.620182
vt 0.734639 0.620182
vt 0.796548 0.620182
vt 0.840463 0.620182
vt 0.726135 0.357873
vt 0.783617 0.430175
vt 0.774220 0.357873
vt 0.774220 0.257521
vt 0.785836 0.503397
vt 0.785836 0.534800
vt 0.774220 0.195897
vt 0.774220 0.225295
vt 0.639528 0.338203
vt 0.619284 0.357873
vt 0.619284 0.338203
vt 0.639528 0.357873
vt 0.678147 0.338203
vt 0.678147 0.357873
vt 0.654659 0.867979
vt 0.679456 0.821693
vt 0.480132 0.150801
vt 0.410526 0.875457
vt 0.389079 0.906117
vt 0.385827 0.875457
vt 0.410526 0.906117
vt 0.490299 0.906117
vt 0.410526 0.985526
vt 0.372109 0.961234
vt 0.410526 0.961234
vt 0.372109 0.985526
vt 0.442398 0.805572
vt 0.416076 0.842227
vt 0.416646 0.807044
vt 0.441435 0.838505
vt 0.468405 0.801849
vt 0.459099 0.830226
vt 0.512003 0.432841
vt 0.511688 0.432904
vt 0.511553 0.432765
vt 0.512103 0.432995
vt 0.512199 0.432868
vt 0.512272 0.433026
vt 0.512432 0.432877
vt 0.512495 0.433043
vt 0.513251 0.431919
vt 0.512797 0.432200
vt 0.512734 0.431977
vt 0.513300 0.432157
vt 0.512544 0.431296
vt 0.511726 0.431360
vt 0.511538 0.431359
vt 0.512700 0.431281
vt 0.511104 0.431456
vt 0.511303 0.431463
vt 0.513166 0.431737
vt 0.512165 0.431624
vt 0.513038 0.431524
vt 0.512311 0.431806
vt 0.511946 0.431468
vt 0.512865 0.431375
vt 0.511410 0.431764
vt 0.512454 0.431416
vt 0.511458 0.431472
vt 0.512400 0.431703
vt 0.511295 0.431873
vt 0.512294 0.431798
vt 0.512360 0.433548
vt 0.512572 0.433644
vt 0.512355 0.433635
vt 0.512589 0.433554
vt 0.512340 0.433457
vt 0.512576 0.433468
vt 0.513039 0.432685
vt 0.513267 0.432541
vt 0.513305 0.432671
vt 0.513005 0.432581
vt 0.512800 0.432721
vt 0.512873 0.432637
vt 0.001788 0.255623
vt 0.086318 0.240514
vt 0.101416 0.255579
vt 0.001580 0.240514
vt 0.511133 0.431623
vt 0.511210 0.431833
vt 0.510908 0.431786
vt 0.511352 0.431753
vt 0.511517 0.431582
vt 0.513452 0.433548
vt 0.512789 0.433654
vt 0.512817 0.433559
vt 0.513422 0.433630
vt 0.513204 0.433636
vt 0.512450 0.433551
vt 0.512535 0.433621
vt 0.513064 0.433547
vt 0.512039 0.433611
vt 0.511726 0.433553
vt 0.511158 0.431525
vt 0.080003 0.207080
vt 0.001580 0.207089
vt 0.073106 0.182681
vt 0.001580 0.183491
vt 0.052910 0.139803
vt 0.065740 0.145185
vt 0.510850 0.431895
vt 0.510757 0.432023
vt 0.510913 0.431675
vt 0.510949 0.431629
vt 0.510717 0.431802
vt 0.510786 0.431778
vt 0.254486 0.304297
vt 0.254486 0.272601
vt 0.513535 0.432517
vt 0.513595 0.432657
vt 0.386186 0.844120
vt 0.386186 0.808738
vt 0.208690 0.244731
vt 0.213566 0.220159
vt 0.219931 0.225713
vt 0.207012 0.234422
vt 0.994312 0.270153
vt 0.858808 0.347429
vt 0.846451 0.280998
vt 0.994312 0.345775
vt 0.511029 0.439690
vt 0.510751 0.440031
vt 0.510716 0.439874
vt 0.511177 0.439923
vt 0.511046 0.439562
vt 0.511182 0.439800
vt 0.060566 0.415908
vt 0.076653 0.388162
vt 0.136383 0.415908
vt 0.040284 0.388162
vt 0.013304 0.415908
vt 0.013304 0.388162
vt 0.278437 0.341339
vt 0.339241 0.318416
vt 0.339241 0.341339
vt 0.278437 0.318416
vt 0.217914 0.341339
vt 0.211857 0.315713
vt 0.202678 0.269709
vt 0.733142 0.854165
vt 0.507231 0.436569
vt 0.507109 0.436507
vt 0.507323 0.436516
vt 0.513455 0.433464
vt 0.512811 0.433479
vt 0.367633 0.906117
vt 0.356119 0.875457
vt 0.578242 0.737790
vt 0.650210 0.703607
vt 0.650210 0.737790
vt 0.578242 0.703607
vt 0.507431 0.737790
vt 0.507431 0.703607
vt 0.896271 0.737790
vt 0.980353 0.737790
vt 0.007014 0.679314
vt 0.025191 0.700108
vt 0.007014 0.700108
vt 0.025191 0.679314
vt 0.007014 0.659320
vt 0.025191 0.659320
vt 0.007014 0.639325
vt 0.025191 0.639325
vt 0.007014 0.618531
vt 0.025191 0.618531
vt 0.007014 0.599754
vt 0.025191 0.599754
vt 0.007014 0.581700
vt 0.025191 0.581700
vt 0.007014 0.718885
vt 0.025191 0.718885
vt 0.007014 0.736939
vt 0.025191 0.736939
vt 0.192200 0.756552
vt 0.208109 0.835361
vt 0.208109 0.780013
vt 0.192200 0.858822
vt 0.168390 0.740876
vt 0.168390 0.874498
vt 0.140304 0.735371
vt 0.140304 0.880002
vt 0.112187 0.740876
vt 0.112187 0.874498
vt 0.088377 0.756552
vt 0.088377 0.858822
vt 0.072468 0.780013
vt 0.072468 0.835361
vt 0.140304 0.880174
vt 0.168390 0.741048
vt 0.168390 0.874670
vt 0.140304 0.735543
vt 0.112187 0.874670
vt 0.112187 0.741048
vt 0.088377 0.858994
vt 0.088377 0.756724
vt 0.072468 0.835533
vt 0.072468 0.780185
vt 0.192200 0.756724
vt 0.192200 0.858994
vt 0.208109 0.780185
vt 0.208109 0.835533
vt 0.213695 0.807859
vt 0.213695 0.807687
vt 0.157489 0.998853
vt 0.213630 0.930260
vt 0.213630 0.998853
vt 0.157489 0.930260
vt 0.105282 0.998853
vt 0.105282 0.930260
vt 0.066882 0.807859
vt 0.066882 0.807687
vt 0.033080 0.029529
vt 0.026451 0.010135
vt 0.035684 0.032858
vt 0.051108 0.037163
vt 0.080726 0.042657
vt 0.087195 0.042657
vt 0.091388 0.040876
vt 0.092836 0.022036
vt 0.088061 0.021405
vt 0.083097 0.020770
vt 0.054345 0.017496
vt 0.040370 0.013847
vt 0.036552 0.012789
vt 0.159432 0.998853
vt 0.159432 0.930260
vt 0.105345 0.930260
vt 0.105345 0.998853
vt 0.215636 0.927143
vt 0.261308 0.875571
vt 0.003760 0.779264
vt 0.054665 0.588055
vt 0.080330 0.553323
vt 0.107286 0.531828
vt 0.124273 0.500504
vt 0.124273 0.539325
vt 0.140209 0.501980
vt 0.136728 0.545280
vt 0.166073 0.545280
vt 0.196375 0.545280
vt 0.207842 0.539325
vt 0.191757 0.501980
vt 0.051035 0.479168
vt 0.013304 0.473523
vt 0.013304 0.506597
vt 0.022337 0.540168
vt 0.296224 0.582939
vt 0.367706 0.318416
vt 0.388854 0.341339
vt 0.407943 0.318416
vt 0.435569 0.341339
vt 0.432066 0.318416
vt 0.216358 0.277522
vt 0.222370 0.257818
vt 0.124167 0.030350
vt 0.197412 0.033808
vt 0.465154 0.036533
vt 0.577015 0.072513
vt 0.554236 0.025030
vt 0.606245 0.025461
vt 0.630413 0.061634
vt 0.640749 0.138569
vt 0.592098 0.171834
vt 0.545988 0.187497
vt 0.593619 0.195649
vt 0.548888 0.218585
vt 0.515058 0.214312
vt 0.513026 0.141171
vt 0.525392 0.238989
vt 0.525938 0.263406
vt 0.478415 0.265807
vt 0.431844 0.261568
vt 0.437060 0.008904
vt 0.327228 0.038256
vt 0.254486 0.050658
vt 0.254486 0.070573
vt 0.795843 0.193642
vt 0.787735 0.277716
vt 0.862103 0.217467
vt 0.875225 0.164212
vt 0.994312 0.226138
vt 0.899970 0.086370
vt 0.994312 0.086027
vt 0.994312 0.012940
vt 0.914595 0.020739
vt 0.830856 0.029592
vt 0.824051 0.084546
vt 0.958650 0.790655
vt 0.953565 0.821693
vt 0.937328 0.837402
vt 0.908574 0.881478
vt 0.988717 0.865229
vt 0.917085 0.942291
vt 0.915141 0.975485
vt 0.840463 0.977862
vt 0.809539 0.983845
vt 0.779717 0.997300
vt 0.743035 0.967453
vt 0.507431 0.677988
vt 0.507431 0.650060
vt 0.734639 0.703607
vt 0.734639 0.737790
vt 0.667836 0.790655
vt 0.578242 0.790655
vt 0.615137 0.821693
vt 0.507431 0.790655
vt 0.578242 0.534800
vt 0.734639 0.588480
vt 0.796548 0.588480
vt 0.840463 0.588480
vt 0.890982 0.600784
vt 0.890982 0.534800
vt 0.973199 0.534800
vt 0.974047 0.503634
vt 0.840463 0.470524
vt 0.840463 0.503634
vt 0.840463 0.534800
vt 0.974047 0.470524
vt 0.504897 0.435693
vt 0.505238 0.435779
vt 0.505307 0.435265
vt 0.506893 0.436763
vt 0.506706 0.436930
vt 0.506840 0.436632
vt 0.506766 0.436983
vt 0.871638 0.412486
vt 0.927867 0.451137
vt 0.890739 0.451137
vt 0.932386 0.412486
vt 0.994312 0.412486
vt 0.994312 0.451137
vt 0.326157 0.751707
vt 0.326157 0.796427
vt 0.166073 0.732035
vt 0.511296 0.439177
vt 0.511349 0.439255
vt 0.511187 0.439315
vt 0.511186 0.439515
vt 0.510885 0.439218
vt 0.508882 0.433201
vt 0.508803 0.433682
vt 0.509011 0.433744
vt 0.508120 0.433594
vt 0.508548 0.433759
vt 0.508700 0.433638
vt 0.508267 0.434000
vt 0.506991 0.435322
vt 0.506866 0.435273
vt 0.506871 0.435147
vt 0.507485 0.435700
vt 0.506769 0.435674
vt 0.506639 0.435810
vt 0.506837 0.435892
vt 0.507298 0.435821
vt 0.506958 0.435642
vt 0.601217 0.451162
vt 0.579390 0.428693
vt 0.579390 0.347889
vt 0.579390 0.257521
vt 0.774220 0.173993
vt 0.254486 0.231923
vt 0.254486 0.243056
vt 0.512771 0.432867
vt 0.513008 0.433048
vt 0.512509 0.432719
vt 0.511876 0.433510
vt 0.511527 0.433404
vt 0.511053 0.433236
vt 0.511356 0.433407
vt 0.511132 0.433347
vt 0.510904 0.433207
vt 0.510643 0.433047
vt 0.510235 0.433236
vt 0.510046 0.432773
vt 0.510422 0.432763
vt 0.510269 0.432264
vt 0.510485 0.432268
vt 0.559859 0.874261
vt 0.544495 0.866157
vt 0.537880 0.854624
vt 0.542174 0.875457
vt 0.571199 0.882653
vt 0.560641 0.898072
vt 0.584802 0.921770
vt 0.552664 0.925124
vt 0.585284 0.968967
vt 0.542041 0.970666
vt 0.523001 0.929104
vt 0.514498 0.906117
vt 0.544790 0.899404
vt 0.502490 0.931548
vt 0.509429 0.969366
vt 0.625822 0.962942
vt 0.629697 0.909721
vt 0.609159 0.859670
vt 0.573226 0.870960
vt 0.560208 0.841218
vt 0.545885 0.850327
vt 0.495079 0.828807
vt 0.492808 0.837606
vt 0.496510 0.807195
vt 0.558456 0.815763
vt 0.598822 0.830153
vt 0.511537 0.431891
vt 0.511785 0.431707
vt 0.512056 0.431938
vt 0.512412 0.432206
vt 0.512754 0.432457
vt 0.513336 0.432376
vt 0.095917 0.278946
vt 0.090802 0.295444
vt 0.001995 0.302369
vt 0.075074 0.333148
vt 0.069834 0.345776
vt 0.062736 0.362884
vt 0.034233 0.371918
vt 0.001995 0.378429
vt 0.445683 0.920392
vt 0.348184 0.942710
vt 0.343403 0.958277
vt 0.339795 0.971117
vt 0.334587 0.985526
vt 0.441452 0.761903
vt 0.386186 0.764923
vt 0.508948 0.439848
vt 0.508851 0.439933
vt 0.505245 0.436850
vt 0.505426 0.436664
vt 0.040080 0.134422
vt 0.001580 0.131680
vt 0.272650 0.998853
vt 0.326737 0.930260
vt 0.326737 0.998853
vt 0.272650 0.930260
vt 0.840463 0.737790
vt 0.796548 0.737790
vt 0.796548 0.703607
vt 0.840463 0.703607
vt 0.457048 0.977042
vt 0.463450 0.970579
vt 0.463447 0.963811
vt 0.469972 0.977042
vt 0.463450 0.963811
vt 0.896276 0.833797
vt 0.390408 0.778052
vt 0.816182 0.745734
vt 0.483649 0.848303
vt 0.924165 0.936533
vt 0.527336 0.933094
vt 0.240139 0.865077
vt 0.019632 0.803348
usemtl mat_0
s 1
f 450/1 2/2 449/3
f 450/1 1/4 2/2
f 474/3 1/4 450/1
f 40/3 1/2 474/4
f 500/5 498/6 499/7
f 500/5 501/8 498/6
f 521/9 501/8 500/5
f 521/9 514/10 501/8
f 7/11 453/12 9/13
f 7/11 454/14 453/12
f 14/15 454/14 7/11
f 14/15 472/16 454/14
f 75/17 504/18 74/19
f 75/17 505/20 504/18
f 81/21 505/20 75/17
f 81/21 515/22 505/20
f 506/23 508/24 509/25
f 506/23 507/26 508/24
f 523/27 507/26 506/23
f 523/27 76/28 507/26
f 511/29 509/30 510/31
f 511/29 506/32 509/30
f 79/33 506/32 511/29
f 79/33 523/34 506/32
f 72/35 523/34 79/33
f 72/35 524/36 523/34
f 77/37 528/38 527/39
f 77/37 78/40 528/38
f 75/17 78/40 77/37
f 75/17 74/19 78/40
f 512/41 505/20 515/22
f 514/42 512/41 515/22
f 517/43 516/44 501/45
f 517/43 518/46 516/44
f 73/47 518/46 517/43
f 73/47 80/48 518/46
f 552/49 554/50 555/51
f 552/49 553/52 554/50
f 568/53 553/52 552/49
f 568/53 567/54 553/52
f 559/55 567/54 568/53
f 559/55 565/56 567/54
f 558/57 565/56 559/55
f 558/57 566/58 565/56
f 90/59 88/60 89/61
f 90/59 87/62 88/60
f 99/63 87/62 90/59
f 99/63 98/64 87/62
f 100/65 98/64 99/63
f 100/65 97/66 98/64
f 94/67 92/68 96/69
f 94/67 95/70 92/68
f 112/71 95/70 94/67
f 112/71 107/72 95/70
f 691/73 692/74 693/75
f 691/73 464/76 692/74
f 698/77 464/76 691/73
f 698/77 470/78 464/76
f 468/79 467/80 695/81
f 468/79 466/82 467/80
f 692/74 466/82 468/79
f 692/74 694/83 466/82
f 584/84 582/85 583/86
f 584/84 696/87 582/85
f 699/88 696/87 584/84
f 699/88 700/89 696/87
f 718/90 700/89 699/88
f 718/90 701/91 700/89
f 573/92 587/93 588/94
f 573/92 586/95 587/93
f 614/96 586/95 573/92
f 614/96 613/97 586/95
f 632/98 593/99 594/100
f 632/98 592/101 593/99
f 587/93 592/101 632/98
f 587/93 586/95 592/101
f 743/102 596/103 597/104
f 743/102 595/105 596/103
f 610/106 595/105 743/102
f 610/106 621/107 595/105
f 609/108 621/107 610/106
f 609/108 622/109 621/107
f 752/110 746/111 751/112
f 752/110 753/113 746/111
f 777/114 753/113 752/110
f 777/114 759/115 753/113
f 764/116 755/117 763/118
f 764/116 762/119 755/117
f 775/120 762/119 764/116
f 775/120 776/121 762/119
f 826/122 776/121 775/120
f 826/122 827/123 776/121
f 777/114 827/123 826/122
f 777/114 752/110 827/123
f 785/124 787/125 784/126
f 785/124 786/127 787/125
f 778/128 786/127 785/124
f 778/128 779/129 786/127
f 798/130 795/131 797/132
f 798/130 799/133 795/131
f 794/134 799/133 798/130
f 794/134 793/135 799/133
f 821/136 800/137 823/138
f 821/136 822/139 800/137
f 801/140 822/139 821/136
f 801/140 824/141 822/139
f 805/142 824/141 801/140
f 805/142 807/143 824/141
f 789/144 803/145 804/146
f 802/147 789/144 804/146
f 14/148 7/149 6/150
f 15/151 14/148 6/150
f 118/152 125/153 555/51
f 557/154 118/152 555/51
f 108/155 106/156 103/157
f 109/158 108/155 103/157
f 531/159 533/160 545/161
f 551/162 531/159 545/161
f 759/115 766/163 771/164
f 754/165 759/115 771/164
f 803/166 806/167 818/168
f 814/169 803/166 818/168
f 830/170 834/171 835/172
f 831/173 830/170 835/172
f 851/174 334/175 333/176
f 654/177 851/174 333/176
f 588/94 626/178 715/179
f 571/180 588/94 715/179
f 503/181 510/182 509/183
f 502/184 503/181 509/183
f 498/6 516/185 510/186
f 503/187 498/6 510/186
f 112/188 126/189 113/190
f 111/191 112/188 113/190
f 130/192 124/193 129/194
f 135/195 130/192 129/194
f 1054/146 1055/145 1040/144
f 1053/147 1054/146 1040/144
f 47/150 46/149 14/148
f 50/151 47/150 14/148
f 409/157 413/156 416/155
f 415/158 409/157 416/155
f 920/161 907/160 906/159
f 926/162 920/161 906/159
f 1020/164 1016/163 1008/115
f 1003/165 1020/164 1008/115
f 1069/168 1057/167 1055/166
f 1065/169 1069/168 1055/166
f 863/172 862/171 858/170
f 860/173 863/172 858/170
f 361/176 363/175 879/174
f 681/177 361/176 879/174
f 731/179 992/178 957/94
f 946/180 731/179 957/94
f 886/183 890/182 51/181
f 49/184 886/183 51/181
f 890/186 894/185 41/6
f 51/187 890/186 41/6
f 420/190 434/189 419/188
f 418/191 420/190 419/188
f 433/194 431/193 437/192
f 442/195 433/194 437/192
f 928/51 432/153 424/152
f 932/154 928/51 424/152
f 459/196 465/197 464/76
f 470/78 459/196 464/76
f 716/198 471/199 469/200
f 716/198 719/201 471/199
f 724/202 719/201 716/198
f 724/202 725/203 719/201
f 717/204 718/90 699/88
f 717/204 720/205 718/90
f 727/206 720/205 717/204
f 727/206 728/207 720/205
f 729/208 728/207 727/206
f 729/208 350/209 728/207
f 1/210 17/211 2/212
f 1/210 18/213 17/211
f 18/212 1/213 40/210
f 40/212 53/211 18/213
f 44/214 53/211 40/212
f 44/214 54/215 53/211
f 477/216 54/215 44/214
f 477/216 891/217 54/215
f 45/218 891/217 477/216
f 45/218 56/9 891/217
f 3/214 512/217 4/216
f 3/214 519/215 512/217
f 2/212 519/215 3/214
f 2/212 17/211 519/215
f 19/219 502/184 520/220
f 19/219 11/221 502/184
f 55/220 11/221 19/219
f 55/220 49/184 11/221
f 512/217 519/215 513/222
f 516/44 518/46 511/29
f 510/31 516/44 511/29
f 4/216 512/217 521/9
f 5/218 4/216 521/9
f 514/10 521/9 512/217
f 519/215 17/211 508/223
f 513/222 519/215 508/223
f 526/224 75/17 77/37
f 526/224 81/21 75/17
f 73/47 81/21 526/224
f 73/47 517/43 81/21
f 21/225 15/151 20/226
f 21/225 16/227 15/151
f 57/226 16/227 21/225
f 57/226 50/151 16/227
f 76/28 74/19 507/26
f 76/28 78/40 74/19
f 525/228 78/40 76/28
f 525/228 528/38 78/40
f 13/229 20/226 499/7
f 13/229 21/225 20/226
f 43/7 21/225 13/229
f 43/7 57/226 21/225
f 83/230 562/231 560/232
f 83/230 546/233 562/231
f 544/234 546/233 83/230
f 544/234 543/235 546/233
f 117/236 118/152 116/237
f 117/236 97/66 118/152
f 119/238 97/66 117/236
f 119/238 120/239 97/66
f 91/240 120/239 119/238
f 91/240 122/241 120/239
f 93/242 122/241 91/240
f 93/242 121/243 122/241
f 546/233 564/244 562/231
f 546/233 548/245 564/244
f 543/235 548/245 546/233
f 543/235 529/246 548/245
f 115/247 95/70 107/72
f 115/247 123/248 95/70
f 114/249 123/248 115/247
f 114/249 124/250 123/248
f 557/154 116/237 118/152
f 18/213 520/220 17/211
f 18/213 19/219 520/220
f 53/211 19/219 18/213
f 53/211 55/220 19/219
f 593/99 589/251 594/100
f 593/99 590/252 589/251
f 624/253 590/252 593/99
f 624/253 625/254 590/252
f 628/255 625/254 624/253
f 628/255 627/256 625/254
f 595/105 627/256 628/255
f 595/105 621/107 627/256
f 623/257 593/99 592/101
f 623/257 624/253 593/99
f 629/258 624/253 623/257
f 629/258 628/255 624/253
f 596/103 628/255 629/258
f 596/103 595/105 628/255
f 549/259 530/260 542/261
f 549/259 547/262 530/260
f 82/263 547/262 549/259
f 82/263 563/264 547/262
f 123/248 110/265 95/70
f 123/248 86/266 110/265
f 124/250 86/266 123/248
f 124/250 130/267 86/266
f 770/268 783/269 786/127
f 779/129 770/268 786/127
f 757/270 754/271 771/272
f 757/270 763/118 754/271
f 756/273 763/118 757/270
f 756/273 764/116 763/118
f 761/274 764/116 756/273
f 761/274 775/120 764/116
f 772/275 775/120 761/274
f 772/275 826/122 775/120
f 812/276 791/277 784/126
f 812/276 806/278 791/277
f 800/137 806/278 812/276
f 800/137 818/279 806/278
f 785/124 808/280 774/281
f 778/128 785/124 774/281
f 824/141 825/282 815/283
f 822/139 824/141 815/283
f 817/284 810/285 816/286
f 817/284 809/287 810/285
f 813/288 809/287 817/284
f 813/288 811/289 809/287
f 614/96 573/92 572/290
f 619/291 614/96 572/290
f 698/77 724/202 716/198
f 698/77 701/91 724/202
f 691/73 701/91 698/77
f 691/73 700/89 701/91
f 693/75 700/89 691/73
f 693/75 696/87 700/89
f 697/292 696/87 693/75
f 697/292 582/85 696/87
f 829/293 137/294 828/295
f 829/293 136/296 137/294
f 830/170 136/296 829/293
f 830/170 837/297 136/296
f 139/298 142/299 140/300
f 139/298 143/301 142/299
f 180/300 143/301 139/298
f 180/300 181/299 143/301
f 147/302 149/303 146/304
f 147/302 148/305 149/303
f 151/306 148/305 147/302
f 151/306 166/307 148/305
f 829/308 834/309 830/310
f 829/308 833/311 834/309
f 828/312 833/311 829/308
f 828/312 854/313 833/311
f 169/314 854/313 828/312
f 169/314 150/315 854/313
f 153/316 141/317 152/318
f 153/316 154/319 141/317
f 189/318 154/319 153/316
f 189/318 179/317 154/319
f 155/320 647/321 648/322
f 155/320 156/323 647/321
f 676/322 156/323 155/320
f 676/322 677/321 156/323
f 689/324 677/321 676/322
f 689/324 671/325 677/321
f 158/326 842/327 157/328
f 158/326 841/329 842/327
f 153/316 841/329 158/326
f 153/316 152/318 841/329
f 160/330 157/328 842/327
f 160/330 159/331 157/328
f 647/321 159/331 160/330
f 647/321 156/323 159/331
f 161/332 162/333 163/334
f 161/332 649/335 162/333
f 635/336 649/335 161/332
f 635/336 636/337 649/335
f 332/338 337/339 330/340
f 332/338 336/341 337/339
f 335/342 336/341 332/338
f 335/342 353/343 336/341
f 148/344 165/345 149/346
f 148/344 164/347 165/345
f 166/348 164/347 148/344
f 166/348 168/349 164/347
f 852/350 656/351 642/352
f 852/350 853/353 656/351
f 672/352 853/353 852/350
f 672/352 686/351 853/353
f 641/354 849/355 637/356
f 641/354 844/357 849/355
f 640/325 844/357 641/354
f 640/325 843/358 844/357
f 346/359 344/360 345/361
f 346/359 347/362 344/360
f 370/361 347/362 346/359
f 370/361 369/360 347/362
f 365/341 369/360 370/361
f 365/341 364/339 369/360
f 359/338 364/339 365/341
f 359/338 358/340 364/339
f 349/363 350/364 348/365
f 349/363 351/366 350/364
f 371/365 351/366 349/363
f 371/365 372/364 351/366
f 367/367 372/364 371/365
f 367/367 373/368 372/364
f 661/324 647/321 640/325
f 661/324 648/322 647/321
f 170/369 648/322 661/324
f 170/369 163/334 648/322
f 853/353 851/370 656/351
f 853/353 352/371 851/370
f 686/351 352/371 853/353
f 686/351 879/370 352/371
f 352/371 334/372 851/370
f 352/371 342/373 334/372
f 879/370 342/373 352/371
f 879/370 363/372 342/373
f 334/372 342/373 353/374
f 335/375 334/372 353/374
f 646/376 633/377 635/336
f 161/332 646/376 635/336
f 162/333 648/322 163/334
f 162/333 155/320 648/322
f 193/334 155/320 162/333
f 193/334 676/322 155/320
f 200/369 676/322 193/334
f 200/369 689/324 676/322
f 674/378 689/324 200/369
f 674/378 668/379 689/324
f 190/380 668/379 674/378
f 190/380 669/381 668/379
f 639/379 170/369 661/324
f 639/379 644/378 170/369
f 638/381 644/378 639/379
f 638/381 645/380 644/378
f 351/382 728/207 350/209
f 351/382 338/383 728/207
f 372/209 338/383 351/382
f 372/209 742/207 338/383
f 373/208 742/207 372/209
f 373/208 741/206 742/207
f 174/384 149/346 165/345
f 174/384 175/385 149/346
f 194/345 175/385 174/384
f 194/345 184/346 175/385
f 195/347 184/346 194/345
f 195/347 185/344 184/346
f 197/349 185/344 195/347
f 197/349 196/348 185/344
f 175/386 146/304 149/303
f 175/386 176/387 146/304
f 184/303 176/387 175/386
f 184/303 183/304 176/387
f 185/305 183/304 184/303
f 185/305 186/302 183/304
f 196/307 186/302 185/305
f 196/307 188/306 186/302
f 340/367 348/365 350/364
f 729/368 340/367 350/364
f 131/388 85/389 84/390
f 131/388 132/391 85/389
f 90/59 132/391 131/388
f 90/59 89/61 132/391
f 620/392 599/393 581/394
f 620/392 578/395 599/393
f 953/394 578/395 620/392
f 953/394 971/393 578/395
f 498/6 501/8 516/185
f 117/396 91/397 119/398
f 117/396 96/399 91/397
f 116/400 96/399 117/396
f 116/400 94/401 96/399
f 569/402 105/403 556/404
f 569/402 570/405 105/403
f 566/406 570/405 569/402
f 566/406 558/407 570/405
f 128/408 104/409 102/410
f 128/408 114/411 104/409
f 129/412 114/411 128/408
f 129/412 124/413 114/411
f 90/59 131/388 133/414
f 99/63 90/59 133/414
f 623/257 613/97 615/415
f 629/258 623/257 615/415
f 819/416 797/132 796/417
f 819/416 798/130 797/132
f 820/418 798/130 819/416
f 820/418 794/134 798/130
f 345/361 343/419 346/359
f 345/361 341/420 343/419
f 336/341 341/420 345/361
f 336/341 353/343 341/420
f 137/294 167/421 169/422
f 828/295 137/294 169/422
f 612/423 749/424 608/425
f 612/423 748/426 749/424
f 606/427 748/426 612/423
f 606/427 746/428 748/426
f 605/429 751/112 746/111
f 606/430 605/429 746/111
f 25/431 23/432 24/433
f 25/431 22/434 23/432
f 39/435 22/434 25/431
f 39/435 38/436 22/434
f 37/437 38/436 39/435
f 37/437 36/438 38/436
f 35/439 36/438 37/437
f 35/439 34/440 36/438
f 32/441 34/440 35/439
f 32/441 31/442 34/440
f 33/443 31/442 32/441
f 33/443 30/444 31/442
f 64/441 30/444 33/443
f 64/441 65/442 30/444
f 66/439 65/442 64/441
f 66/439 67/440 65/442
f 68/437 67/440 66/439
f 68/437 69/438 67/440
f 70/435 69/438 68/437
f 70/435 71/436 69/438
f 59/431 71/436 70/435
f 59/431 58/434 71/436
f 60/433 58/434 59/431
f 60/433 61/432 58/434
f 62/445 61/432 60/433
f 62/445 63/446 61/432
f 29/447 63/446 62/445
f 29/447 28/448 63/446
f 27/445 28/448 29/447
f 27/445 26/446 28/448
f 24/433 26/446 27/445
f 24/433 23/432 26/446
f 34/449 22/450 36/451
f 34/449 23/452 22/450
f 31/453 23/452 34/449
f 31/453 26/454 23/452
f 30/455 26/454 31/453
f 30/455 28/456 26/454
f 65/457 28/456 30/455
f 65/457 63/458 28/456
f 67/459 63/458 65/457
f 67/459 61/460 63/458
f 69/461 61/460 67/459
f 69/461 58/462 61/460
f 29/463 32/464 27/465
f 29/463 33/466 32/464
f 62/467 33/466 29/463
f 62/467 64/468 33/466
f 60/469 64/468 62/467
f 60/469 66/470 64/468
f 59/471 66/470 60/469
f 59/471 68/472 66/470
f 35/473 27/465 32/464
f 35/473 24/474 27/465
f 37/475 24/474 35/473
f 37/475 25/476 24/474
f 39/477 25/476 37/475
f 36/451 22/450 38/478
f 336/341 345/361 344/360
f 337/339 336/341 344/360
f 882/8 43/7 41/6
f 882/8 42/5 43/7
f 892/10 42/5 882/8
f 892/10 56/9 42/5
f 480/479 478/480 479/481
f 480/479 46/482 478/480
f 472/483 46/482 480/479
f 472/483 14/484 46/482
f 884/20 382/19 883/18
f 884/20 381/17 382/19
f 893/22 381/17 884/20
f 893/22 388/21 381/17
f 888/26 886/25 887/24
f 888/26 885/23 886/25
f 383/28 885/23 888/26
f 383/28 898/27 885/23
f 885/32 890/31 886/30
f 885/32 889/29 890/31
f 898/34 889/29 885/32
f 898/34 386/33 889/29
f 900/36 386/33 898/34
f 900/36 379/35 386/33
f 384/40 902/39 903/38
f 384/40 385/37 902/39
f 382/19 385/37 384/40
f 382/19 381/17 385/37
f 893/22 884/20 891/41
f 892/42 893/22 891/41
f 895/46 882/45 894/44
f 895/46 896/43 882/45
f 387/48 896/43 895/46
f 387/48 380/47 896/43
f 930/52 928/51 929/50
f 930/52 927/49 928/51
f 942/54 927/49 930/52
f 942/54 943/53 927/49
f 940/56 943/53 942/54
f 940/56 934/55 943/53
f 941/58 934/55 940/56
f 941/58 933/57 934/55
f 394/62 396/61 397/60
f 394/62 395/59 396/61
f 407/64 395/59 394/62
f 407/64 406/63 395/59
f 404/66 406/63 407/64
f 404/66 405/65 406/63
f 403/70 402/69 400/68
f 403/70 401/67 402/69
f 414/72 401/67 403/70
f 414/72 419/71 401/67
f 489/76 703/75 704/74
f 489/76 702/73 703/75
f 497/78 702/73 489/76
f 497/78 709/77 702/73
f 491/82 705/81 493/80
f 491/82 492/79 705/81
f 443/83 492/79 491/82
f 443/83 704/74 492/79
f 706/87 707/86 954/85
f 706/87 955/84 707/86
f 711/89 955/84 706/87
f 711/89 710/88 955/84
f 712/91 710/88 711/89
f 712/91 736/90 710/88
f 959/95 957/94 958/93
f 959/95 947/92 957/94
f 982/97 947/92 959/95
f 982/97 984/96 947/92
f 965/101 963/100 964/99
f 965/101 664/98 963/100
f 959/95 664/98 965/101
f 959/95 958/93 664/98
f 966/105 968/104 969/103
f 966/105 967/102 968/104
f 987/107 967/102 966/105
f 987/107 979/106 967/102
f 988/109 979/106 987/107
f 988/109 978/108 979/106
f 999/113 1001/112 998/111
f 999/113 1000/110 1001/112
f 1008/115 1000/110 999/113
f 1008/115 1028/114 1000/110
f 1011/119 1013/118 1004/117
f 1011/119 1012/116 1013/118
f 1025/121 1012/116 1011/119
f 1025/121 1024/120 1012/116
f 1026/123 1024/120 1025/121
f 1026/123 1027/122 1024/120
f 1000/110 1027/122 1026/123
f 1000/110 1028/114 1027/122
f 1037/127 1035/126 1036/125
f 1037/127 1038/124 1035/126
f 1029/129 1038/124 1037/127
f 1029/129 1030/128 1038/124
f 1049/133 1048/132 1046/131
f 1049/133 1050/130 1048/132
f 1044/135 1050/130 1049/133
f 1044/135 1045/134 1050/130
f 1074/139 1073/138 1051/137
f 1074/139 1072/136 1073/138
f 1075/141 1072/136 1074/139
f 1075/141 1052/140 1072/136
f 1058/143 1052/140 1075/141
f 1058/143 1056/142 1052/140
f 489/76 490/197 484/196
f 497/78 489/76 484/196
f 719/201 494/200 471/199
f 719/201 733/198 494/200
f 725/203 733/198 719/201
f 725/203 739/202 733/198
f 737/205 710/88 736/90
f 737/205 735/204 710/88
f 742/207 735/204 737/205
f 742/207 741/206 735/204
f 891/217 52/222 54/215
f 889/29 895/46 894/44
f 890/31 889/29 894/44
f 892/10 891/217 56/9
f 887/223 53/211 54/215
f 52/222 887/223 54/215
f 388/21 385/37 381/17
f 388/21 901/224 385/37
f 896/43 901/224 388/21
f 896/43 380/47 901/224
f 384/40 888/26 382/19
f 384/40 383/28 888/26
f 903/38 383/28 384/40
f 903/38 899/228 383/28
f 921/233 935/232 937/231
f 921/233 390/230 935/232
f 918/235 390/230 921/233
f 918/235 919/234 390/230
f 404/66 423/237 424/152
f 404/66 425/236 423/237
f 426/239 425/236 404/66
f 426/239 427/238 425/236
f 428/241 427/238 426/239
f 428/241 398/240 427/238
f 429/243 398/240 428/241
f 429/243 399/242 398/240
f 923/245 937/231 938/244
f 923/245 921/233 937/231
f 904/246 921/233 923/245
f 904/246 918/235 921/233
f 430/248 414/72 403/70
f 430/248 422/247 414/72
f 431/250 422/247 430/248
f 431/250 421/249 422/247
f 932/154 424/152 423/237
f 962/252 963/100 960/251
f 962/252 964/99 963/100
f 991/254 964/99 962/252
f 991/254 989/253 964/99
f 993/256 989/253 991/254
f 993/256 994/255 989/253
f 987/107 994/255 993/256
f 987/107 966/105 994/255
f 989/253 965/101 964/99
f 989/253 990/257 965/101
f 994/255 990/257 989/253
f 994/255 995/258 990/257
f 966/105 995/258 994/255
f 966/105 969/103 995/258
f 922/262 917/261 905/260
f 922/262 924/259 917/261
f 939/264 924/259 922/262
f 939/264 389/263 924/259
f 392/266 403/70 417/265
f 392/266 430/248 403/70
f 437/267 430/248 392/266
f 437/267 431/250 430/248
f 1037/127 1034/269 1019/268
f 1029/129 1037/127 1019/268
f 1013/118 1020/272 1003/271
f 1013/118 1007/270 1020/272
f 1012/116 1007/270 1013/118
f 1012/116 1005/273 1007/270
f 1024/120 1005/273 1012/116
f 1024/120 1009/274 1005/273
f 1027/122 1009/274 1024/120
f 1027/122 1021/275 1009/274
f 1057/278 1035/126 1042/277
f 1057/278 1063/276 1035/126
f 1069/279 1063/276 1057/278
f 1069/279 1051/137 1063/276
f 1038/124 1042/277 1035/126
f 1038/124 1059/280 1042/277
f 1030/128 1059/280 1038/124
f 1030/128 1023/281 1059/280
f 1066/283 1076/282 1075/141
f 1074/139 1066/283 1075/141
f 1060/287 1068/286 1061/285
f 1060/287 1067/284 1068/286
f 1062/289 1067/284 1060/287
f 1062/289 1064/288 1067/284
f 948/290 947/92 984/96
f 986/291 948/290 984/96
f 712/91 733/198 739/202
f 712/91 709/77 733/198
f 711/89 709/77 712/91
f 711/89 702/73 709/77
f 706/87 702/73 711/89
f 706/87 703/75 702/73
f 954/85 703/75 706/87
f 954/85 708/292 703/75
f 177/296 857/295 178/294
f 177/296 856/293 857/295
f 865/297 856/293 177/296
f 865/297 858/170 856/293
f 861/311 858/310 862/309
f 861/311 856/308 858/310
f 880/313 856/308 861/311
f 880/313 857/312 856/308
f 187/315 857/312 880/313
f 187/315 199/314 857/312
f 870/329 157/328 869/327
f 870/329 158/326 157/328
f 189/318 158/326 870/329
f 189/318 153/316 158/326
f 159/331 869/327 157/328
f 159/331 191/330 869/327
f 156/323 191/330 159/331
f 156/323 677/321 191/330
f 649/335 193/334 162/333
f 649/335 192/332 193/334
f 636/337 192/332 649/335
f 636/337 666/336 192/332
f 872/357 667/356 877/355
f 872/357 670/354 667/356
f 871/358 670/354 872/357
f 871/358 671/325 670/354
f 374/374 342/373 363/372
f 362/375 374/374 363/372
f 666/336 665/377 675/376
f 192/332 666/336 675/376
f 439/391 391/390 393/389
f 439/391 438/388 391/390
f 396/61 438/388 439/391
f 396/61 395/59 438/388
f 41/6 894/185 882/8
f 402/399 427/398 398/397
f 402/399 425/396 427/398
f 401/401 425/396 402/399
f 401/401 423/400 425/396
f 945/405 931/404 412/403
f 945/405 944/402 931/404
f 933/407 944/402 945/405
f 933/407 941/406 944/402
f 421/411 410/410 411/409
f 421/411 436/408 410/410
f 431/413 436/408 421/411
f 431/413 433/412 436/408
f 440/414 438/388 395/59
f 406/63 440/414 395/59
f 983/415 982/97 990/257
f 995/258 983/415 990/257
f 1050/130 1047/417 1048/132
f 1050/130 1070/416 1047/417
f 1045/134 1070/416 1050/130
f 1045/134 1071/418 1070/416
f 365/341 362/342 359/338
f 365/341 374/343 362/342
f 370/361 374/343 365/341
f 370/361 368/420 374/343
f 346/359 368/420 370/361
f 346/359 343/419 368/420
f 199/422 198/421 178/294
f 857/295 199/422 178/294
f 1002/426 448/425 447/424
f 1002/426 980/423 448/425
f 998/428 980/423 1002/426
f 998/428 445/427 980/423
f 998/111 1001/112 976/429
f 445/430 998/111 976/429
f 70/485 68/472 59/471
f 69/461 71/486 58/462
f 206/487 210/488 204/488
f 206/487 208/487 210/488
f 212/489 208/487 206/487
f 212/489 214/489 208/487
f 216/490 214/489 212/489
f 216/490 218/490 214/489
f 220/491 218/490 216/490
f 220/491 222/491 218/490
f 224/492 222/491 220/491
f 224/492 226/492 222/491
f 228/493 226/492 224/492
f 228/493 230/493 226/492
f 232/494 230/493 228/493
f 232/494 234/494 230/493
f 236/495 231/493 235/494
f 236/495 227/492 231/493
f 237/496 227/492 236/495
f 237/496 223/491 227/492
f 238/497 223/491 237/496
f 238/497 219/490 223/491
f 239/498 219/490 238/497
f 239/498 215/489 219/490
f 240/499 215/489 239/498
f 240/499 209/487 215/489
f 240/499 211/488 209/487
f 225/492 233/494 229/493
f 225/492 241/495 233/494
f 221/491 241/495 225/492
f 221/491 242/496 241/495
f 217/490 242/496 221/491
f 217/490 243/497 242/496
f 213/489 243/497 217/490
f 213/489 244/498 243/497
f 207/487 244/498 213/489
f 207/487 245/499 244/498
f 245/499 207/487 205/488
f 250/487 246/488 248/488
f 250/487 252/487 246/488
f 254/489 252/487 250/487
f 254/489 256/489 252/487
f 258/490 256/489 254/489
f 258/490 260/490 256/489
f 262/491 260/490 258/490
f 262/491 264/491 260/490
f 266/492 264/491 262/491
f 266/492 268/492 264/491
f 270/493 268/492 266/492
f 270/493 272/493 268/492
f 274/494 272/493 270/493
f 274/494 276/494 272/493
f 267/492 275/494 271/493
f 267/492 278/495 275/494
f 263/491 278/495 267/492
f 263/491 279/496 278/495
f 259/490 279/496 263/491
f 259/490 280/497 279/496
f 255/489 280/497 259/490
f 255/489 281/498 280/497
f 251/487 281/498 255/489
f 251/487 282/499 281/498
f 282/499 251/487 249/488
f 283/495 273/493 277/494
f 283/495 269/492 273/493
f 284/496 269/492 283/495
f 284/496 265/491 269/492
f 285/497 265/491 284/496
f 285/497 261/490 265/491
f 286/498 261/490 285/497
f 286/498 257/489 261/490
f 287/499 257/489 286/498
f 287/499 253/487 257/489
f 287/499 247/488 253/487
f 292/487 288/488 290/488
f 292/487 294/487 288/488
f 296/489 294/487 292/487
f 296/489 298/489 294/487
f 300/490 298/489 296/489
f 300/490 302/490 298/489
f 304/491 302/490 300/490
f 304/491 306/491 302/490
f 308/492 306/491 304/491
f 308/492 310/492 306/491
f 312/493 310/492 308/492
f 312/493 314/493 310/492
f 316/494 314/493 312/493
f 316/494 318/494 314/493
f 309/492 317/494 313/493
f 309/492 320/495 317/494
f 305/491 320/495 309/492
f 305/491 321/496 320/495
f 301/490 321/496 305/491
f 301/490 322/497 321/496
f 297/489 322/497 301/490
f 297/489 323/498 322/497
f 293/487 323/498 297/489
f 293/487 324/499 323/498
f 324/499 293/487 291/488
f 325/495 315/493 319/494
f 325/495 311/492 315/493
f 326/496 311/492 325/495
f 326/496 307/491 311/492
f 327/497 307/491 326/496
f 327/497 303/490 307/491
f 328/498 303/490 327/497
f 328/498 299/489 303/490
f 329/499 299/489 328/498
f 329/499 295/487 299/489
f 329/499 289/488 295/487
f 452/500 9/13 453/12
f 452/500 4/501 9/13
f 3/502 4/501 452/500
f 452/500 451/503 3/502
f 449/3 3/502 451/503
f 449/3 2/2 3/502
f 5/218 9/504 4/216
f 5/218 7/149 9/504
f 6/150 7/149 5/218
f 5/218 8/505 6/150
f 521/9 8/505 5/218
f 521/9 500/5 8/505
f 20/226 8/505 500/5
f 20/226 15/151 8/505
f 6/150 8/505 15/151
f 499/7 20/226 500/5
f 16/227 14/148 15/151
f 16/227 50/151 14/148
f 502/184 10/506 503/181
f 502/184 11/221 10/506
f 49/184 10/506 11/221
f 49/184 51/181 10/506
f 523/27 525/228 76/28
f 523/27 524/507 525/228
f 532/508 525/228 524/507
f 532/508 550/509 525/228
f 531/159 550/509 532/508
f 531/159 551/162 550/509
f 541/510 550/509 551/162
f 541/510 539/511 550/509
f 537/512 539/511 541/510
f 537/512 538/513 539/511
f 540/514 538/513 537/512
f 540/514 525/228 538/513
f 528/38 525/228 540/514
f 540/514 527/39 528/38
f 535/515 527/39 540/514
f 535/515 534/516 527/39
f 536/517 534/516 535/515
f 536/517 549/259 534/516
f 82/263 549/259 536/517
f 536/517 554/50 82/263
f 556/404 554/50 536/517
f 556/404 555/51 554/50
f 557/154 555/51 556/404
f 556/404 105/403 557/154
f 540/514 536/517 535/515
f 540/514 537/512 536/517
f 556/404 536/517 537/512
f 537/512 541/510 556/404
f 551/162 556/404 541/510
f 551/162 561/518 556/404
f 545/161 561/518 551/162
f 545/161 560/519 561/518
f 83/520 560/519 545/161
f 545/161 533/160 83/520
f 544/521 83/520 533/160
f 533/160 524/507 544/521
f 532/508 524/507 533/160
f 533/160 531/159 532/508
f 525/228 539/511 538/513
f 525/228 550/509 539/511
f 561/518 569/402 556/404
f 561/518 566/406 569/402
f 560/519 566/406 561/518
f 554/50 563/264 82/263
f 554/50 553/52 563/264
f 567/54 563/264 553/52
f 567/54 564/244 563/264
f 565/56 564/244 567/54
f 565/56 562/231 564/244
f 560/232 562/231 565/56
f 565/56 566/58 560/232
f 564/244 547/262 563/264
f 564/244 548/245 547/262
f 530/260 547/262 548/245
f 548/245 529/246 530/260
f 522/522 530/260 529/246
f 522/522 542/261 530/260
f 527/39 542/261 522/522
f 527/39 534/516 542/261
f 549/259 542/261 534/516
f 543/235 522/522 529/246
f 543/235 72/35 522/522
f 524/36 72/35 543/235
f 543/235 544/234 524/36
f 527/39 526/224 77/37
f 527/39 522/522 526/224
f 73/47 526/224 522/522
f 522/522 72/35 73/47
f 80/48 73/47 72/35
f 72/35 79/33 80/48
f 511/29 80/48 79/33
f 511/29 518/46 80/48
f 103/523 102/410 104/409
f 103/523 101/524 102/410
f 106/525 101/524 103/523
f 106/525 113/526 101/524
f 111/527 113/526 106/525
f 558/57 101/524 113/526
f 558/57 559/55 101/524
f 568/53 101/524 559/55
f 568/53 102/410 101/524
f 128/408 102/410 568/53
f 568/53 552/49 128/408
f 129/412 128/408 552/49
f 552/49 555/51 129/412
f 125/153 129/412 555/51
f 125/153 135/413 129/412
f 100/65 135/413 125/153
f 100/65 133/414 135/413
f 99/63 133/414 100/65
f 133/414 134/528 135/413
f 133/414 131/388 134/528
f 84/529 134/528 131/388
f 118/152 100/65 125/153
f 118/152 97/66 100/65
f 111/530 107/72 112/71
f 111/530 108/155 107/72
f 106/156 108/155 111/530
f 109/158 107/72 108/155
f 109/158 115/247 107/72
f 104/531 115/247 109/158
f 104/531 114/249 115/247
f 109/158 103/157 104/531
f 573/92 571/180 572/290
f 573/92 588/94 571/180
f 464/76 694/83 692/74
f 464/76 465/197 694/83
f 460/532 694/83 465/197
f 460/532 466/82 694/83
f 467/80 466/82 460/532
f 460/532 457/533 467/80
f 452/534 457/533 460/532
f 452/534 453/535 457/533
f 455/536 457/533 453/535
f 455/536 579/537 457/533
f 461/538 457/533 579/537
f 461/538 617/539 457/533
f 618/540 617/539 461/538
f 618/540 574/541 617/539
f 576/542 617/539 574/541
f 576/542 585/543 617/539
f 697/292 585/543 576/542
f 697/292 467/80 585/543
f 695/81 467/80 697/292
f 697/292 693/75 695/81
f 468/79 695/81 693/75
f 693/75 692/74 468/79
f 457/533 585/543 467/80
f 457/533 617/539 585/543
f 575/544 576/542 574/541
f 575/544 583/86 576/542
f 572/545 583/86 575/544
f 572/545 571/546 583/86
f 584/84 583/86 571/546
f 571/546 715/547 584/84
f 699/88 584/84 715/547
f 715/547 717/204 699/88
f 460/532 451/548 452/534
f 460/532 449/549 451/548
f 465/197 449/549 460/532
f 465/197 459/196 449/549
f 450/550 449/549 459/196
f 459/196 458/551 450/550
f 469/200 458/551 459/196
f 469/200 471/199 458/551
f 494/200 458/551 471/199
f 494/200 484/196 458/551
f 497/78 484/196 494/200
f 494/200 709/77 497/78
f 733/198 709/77 494/200
f 484/196 450/550 458/551
f 484/196 474/549 450/550
f 490/197 474/549 484/196
f 490/197 485/532 474/549
f 443/83 485/532 490/197
f 443/83 491/82 485/532
f 493/80 485/532 491/82
f 493/80 483/533 485/532
f 956/543 483/533 493/80
f 956/543 496/539 483/533
f 950/542 496/539 956/543
f 950/542 949/541 496/539
f 951/544 949/541 950/542
f 950/542 707/86 951/544
f 954/85 707/86 950/542
f 950/542 708/292 954/85
f 956/543 708/292 950/542
f 956/543 493/80 708/292
f 705/81 708/292 493/80
f 705/81 703/75 708/292
f 492/79 703/75 705/81
f 492/79 704/74 703/75
f 582/85 576/542 583/86
f 582/85 697/292 576/542
f 470/78 469/200 459/196
f 470/78 698/77 469/200
f 716/198 469/200 698/77
f 489/76 443/83 490/197
f 489/76 704/74 443/83
f 495/540 496/539 949/541
f 495/540 486/538 496/539
f 483/533 496/539 486/538
f 486/538 952/537 483/533
f 481/536 483/533 952/537
f 481/536 479/535 483/533
f 476/534 483/533 479/535
f 476/534 485/532 483/533
f 475/548 485/532 476/534
f 475/548 474/549 485/532
f 707/86 948/545 951/544
f 707/86 946/546 948/545
f 955/84 946/546 707/86
f 955/84 731/547 946/546
f 710/88 731/547 955/84
f 710/88 735/204 731/547
f 579/552 581/394 598/553
f 579/552 463/554 581/394
f 462/555 463/554 579/552
f 462/555 580/556 463/554
f 456/557 580/556 462/555
f 456/557 473/558 580/556
f 472/559 473/558 456/557
f 472/559 482/557 473/558
f 480/560 482/557 472/559
f 480/560 479/561 482/557
f 481/562 482/557 479/561
f 481/562 487/555 482/557
f 952/552 487/555 481/562
f 952/552 488/554 487/555
f 953/394 488/554 952/552
f 953/394 620/392 488/554
f 580/556 488/554 620/392
f 580/556 487/555 488/554
f 482/557 487/555 580/556
f 580/556 473/558 482/557
f 970/553 953/394 952/552
f 620/392 463/554 580/556
f 620/392 581/394 463/554
f 455/562 462/555 579/552
f 455/562 456/557 462/555
f 453/561 456/557 455/562
f 453/561 454/560 456/557
f 472/559 456/557 454/560
f 604/563 605/429 606/430
f 604/563 609/108 605/429
f 601/564 609/108 604/563
f 601/564 622/109 609/108
f 602/565 622/109 601/564
f 602/565 591/566 622/109
f 579/567 591/566 602/565
f 579/567 598/568 591/566
f 589/251 591/566 598/568
f 589/251 590/252 591/566
f 625/254 591/566 590/252
f 625/254 627/256 591/566
f 621/107 591/566 627/256
f 621/107 622/109 591/566
f 601/564 579/567 602/565
f 601/564 604/563 579/567
f 581/569 589/251 598/568
f 581/569 599/570 589/251
f 600/571 589/251 599/570
f 600/571 594/100 589/251
f 633/572 594/100 600/571
f 633/572 632/98 594/100
f 634/573 632/98 633/572
f 634/573 587/93 632/98
f 626/178 587/93 634/573
f 626/178 588/94 587/93
f 754/271 753/574 759/575
f 754/271 746/428 753/574
f 748/426 746/428 754/271
f 754/271 749/424 748/426
f 755/117 749/424 754/271
f 755/117 762/119 749/424
f 745/576 749/424 762/119
f 745/576 608/425 749/424
f 603/577 608/425 745/576
f 603/577 616/578 608/425
f 597/104 616/578 603/577
f 597/104 619/291 616/578
f 614/96 619/291 597/104
f 597/104 615/415 614/96
f 596/103 615/415 597/104
f 596/103 629/258 615/415
f 755/117 754/271 763/118
f 613/97 614/96 615/415
f 616/578 612/423 608/425
f 616/578 574/579 612/423
f 575/580 574/579 616/578
f 616/578 619/291 575/580
f 572/290 575/580 619/291
f 611/581 612/423 574/579
f 611/581 606/427 612/423
f 770/268 771/272 765/582
f 770/268 757/270 771/272
f 779/129 757/270 770/268
f 779/129 758/583 757/270
f 778/128 758/583 779/129
f 778/128 774/281 758/583
f 760/584 758/583 774/281
f 760/584 756/273 758/583
f 761/274 756/273 760/584
f 760/584 772/275 761/274
f 769/585 772/275 760/584
f 769/585 768/586 772/275
f 767/587 768/586 769/585
f 767/587 766/163 768/586
f 765/588 766/163 767/587
f 765/588 771/164 766/163
f 756/273 757/270 758/583
f 767/587 788/589 765/588
f 767/587 789/590 788/589
f 790/591 789/590 767/587
f 767/587 773/592 790/591
f 769/585 773/592 767/587
f 769/585 760/584 773/592
f 774/281 773/592 760/584
f 774/281 808/280 773/592
f 790/591 773/592 808/280
f 808/280 791/277 790/591
f 784/126 791/277 808/280
f 808/280 785/124 784/126
f 788/589 789/590 792/593
f 791/594 789/595 790/596
f 791/594 806/167 789/595
f 803/166 789/595 806/167
f 801/597 823/598 805/599
f 801/597 821/600 823/598
f 600/601 635/602 633/603
f 600/601 631/604 635/602
f 599/393 631/604 600/601
f 599/393 578/395 631/604
f 577/605 631/604 578/395
f 577/605 635/602 631/604
f 636/606 635/602 577/605
f 577/605 666/602 636/606
f 663/604 666/602 577/605
f 663/604 630/601 666/602
f 971/393 630/601 663/604
f 663/604 578/395 971/393
f 577/605 578/395 663/604
f 630/601 665/603 666/602
f 10/607 498/6 503/187
f 10/607 12/608 498/6
f 41/6 12/608 10/607
f 41/6 43/7 12/608
f 13/229 12/608 43/7
f 13/229 499/7 12/608
f 498/6 12/608 499/7
f 51/187 41/6 10/607
f 515/22 501/45 514/42
f 515/22 517/43 501/45
f 81/21 517/43 515/22
f 512/41 504/18 505/20
f 512/41 513/609 504/18
f 508/24 504/18 513/609
f 508/24 507/26 504/18
f 74/19 504/18 507/26
f 126/189 558/610 113/190
f 126/189 570/611 558/610
f 105/612 570/611 126/189
f 126/189 127/613 105/612
f 94/401 127/613 126/189
f 94/401 116/400 127/613
f 105/612 127/613 116/400
f 116/400 557/614 105/612
f 112/188 94/401 126/189
f 520/220 508/223 17/211
f 520/220 502/184 508/223
f 509/183 508/223 502/184
f 110/265 92/68 95/70
f 110/265 121/243 92/68
f 122/241 121/243 110/265
f 110/265 97/66 122/241
f 87/62 97/66 110/265
f 87/62 98/64 97/66
f 120/239 122/241 97/66
f 93/242 92/68 121/243
f 93/242 91/240 92/68
f 96/69 92/68 91/240
f 110/265 88/60 87/62
f 110/265 89/61 88/60
f 132/391 89/61 110/265
f 110/265 85/389 132/391
f 86/266 85/389 110/265
f 86/266 84/390 85/389
f 130/267 84/390 86/266
f 579/615 618/616 461/617
f 579/615 604/618 618/616
f 611/619 618/616 604/618
f 611/619 574/620 618/616
f 604/618 606/621 611/619
f 586/95 623/257 592/101
f 586/95 613/97 623/257
f 765/622 783/623 770/624
f 765/622 782/625 783/623
f 788/626 782/625 765/622
f 788/626 795/131 782/625
f 797/132 795/131 788/626
f 788/626 796/417 797/132
f 792/627 796/417 788/626
f 792/627 819/416 796/417
f 802/628 819/416 792/627
f 802/628 820/418 819/416
f 794/134 820/418 802/628
f 802/628 780/629 794/134
f 781/630 780/629 802/628
f 781/630 782/625 780/629
f 783/623 782/625 781/630
f 792/627 789/595 802/628
f 780/629 793/135 794/134
f 780/629 782/625 793/135
f 799/133 793/135 782/625
f 782/625 795/131 799/133
f 781/631 786/127 783/269
f 781/631 787/125 786/127
f 802/632 787/125 781/631
f 802/632 810/285 787/125
f 804/633 810/285 802/632
f 804/633 816/286 810/285
f 805/634 816/286 804/633
f 805/634 823/138 816/286
f 817/284 816/286 823/138
f 823/138 813/288 817/284
f 800/137 813/288 823/138
f 800/137 812/276 813/288
f 811/289 813/288 812/276
f 812/276 784/126 811/289
f 787/125 811/289 784/126
f 787/125 809/287 811/289
f 810/285 809/287 787/125
f 772/275 777/114 826/122
f 772/275 768/586 777/114
f 766/163 777/114 768/586
f 766/163 759/115 777/114
f 815/283 800/137 822/139
f 815/283 818/279 800/137
f 804/146 807/143 805/142
f 804/146 803/145 807/143
f 814/635 807/143 803/145
f 814/635 824/141 807/143
f 825/282 824/141 814/635
f 718/90 724/202 701/91
f 718/90 722/636 724/202
f 721/637 722/636 718/90
f 721/637 736/90 722/636
f 737/205 736/90 721/637
f 721/637 338/383 737/205
f 720/205 338/383 721/637
f 720/205 728/207 338/383
f 720/205 721/637 718/90
f 742/207 737/205 338/383
f 722/636 725/203 724/202
f 722/636 739/202 725/203
f 736/90 739/202 722/636
f 736/90 712/91 739/202
f 639/379 637/356 638/381
f 639/379 641/354 637/356
f 640/325 641/354 639/379
f 639/379 661/324 640/325
f 150/315 151/638 144/639
f 150/315 169/314 151/638
f 167/640 151/638 169/314
f 167/640 166/348 151/638
f 168/349 166/348 167/640
f 335/342 333/176 334/175
f 335/342 332/338 333/176
f 331/641 333/176 332/338
f 331/641 654/177 333/176
f 339/642 654/177 331/641
f 331/641 340/367 339/642
f 330/340 340/367 331/641
f 330/340 348/365 340/367
f 337/339 348/365 330/340
f 337/339 344/360 348/365
f 349/363 348/365 344/360
f 344/360 347/362 349/363
f 369/360 349/363 347/362
f 369/360 371/365 349/363
f 364/339 371/365 369/360
f 364/339 358/340 371/365
f 367/367 371/365 358/340
f 358/340 360/641 367/367
f 359/338 360/641 358/340
f 359/338 361/176 360/641
f 362/342 361/176 359/338
f 362/342 363/175 361/176
f 330/340 331/641 332/338
f 729/368 339/642 340/367
f 729/368 726/643 339/642
f 727/644 726/643 729/368
f 727/644 717/645 726/643
f 714/646 726/643 717/645
f 714/646 713/647 726/643
f 715/648 713/647 714/646
f 715/648 626/649 713/647
f 723/650 713/647 626/649
f 626/649 634/651 723/650
f 655/652 723/650 634/651
f 634/651 646/376 655/652
f 633/377 646/376 634/651
f 714/646 717/645 715/648
f 681/177 360/641 361/176
f 681/177 366/642 360/641
f 367/367 360/641 366/642
f 366/642 373/368 367/367
f 740/643 373/368 366/642
f 740/643 741/644 373/368
f 735/645 741/644 740/643
f 740/643 732/646 735/645
f 730/647 732/646 740/643
f 730/647 731/648 732/646
f 992/649 731/648 730/647
f 730/647 738/650 992/649
f 734/651 992/649 738/650
f 738/650 683/652 734/651
f 675/376 734/651 683/652
f 675/376 665/377 734/651
f 732/646 731/648 735/645
f 657/653 642/654 656/655
f 657/653 643/656 642/654
f 660/657 643/656 657/653
f 660/657 662/658 643/656
f 652/659 662/658 660/657
f 652/659 850/660 662/658
f 637/661 850/660 652/659
f 637/661 849/662 850/660
f 846/663 850/660 849/662
f 846/663 832/664 850/660
f 837/297 832/664 846/663
f 837/297 830/170 832/664
f 831/173 832/664 830/170
f 831/173 659/665 832/664
f 643/656 659/665 831/173
f 643/656 662/658 659/665
f 850/660 659/665 662/658
f 850/660 832/664 659/665
f 643/656 835/172 642/654
f 643/656 831/173 835/172
f 846/663 845/666 837/297
f 846/663 840/667 845/666
f 849/662 840/667 846/663
f 652/659 638/668 637/661
f 652/659 655/669 638/668
f 723/670 655/669 652/659
f 652/659 660/657 723/670
f 651/671 723/670 660/657
f 651/671 650/672 723/670
f 653/673 650/672 651/671
f 653/673 654/674 650/672
f 656/655 654/674 653/673
f 656/655 851/675 654/674
f 653/673 658/653 656/655
f 653/673 651/671 658/653
f 660/657 658/653 651/671
f 339/676 650/672 654/674
f 339/676 726/677 650/672
f 713/678 650/672 726/677
f 713/678 723/670 650/672
f 844/357 840/679 849/355
f 844/357 838/680 840/679
f 843/358 838/680 844/357
f 843/358 842/327 838/680
f 160/330 842/327 843/358
f 843/358 640/325 160/330
f 647/321 160/330 640/325
f 838/680 839/681 840/679
f 838/680 841/329 839/681
f 842/327 841/329 838/680
f 841/329 847/682 839/681
f 841/329 152/318 847/682
f 141/317 847/682 152/318
f 141/317 140/683 847/682
f 139/684 140/683 141/317
f 141/317 154/319 139/684
f 179/317 139/684 154/319
f 179/317 180/683 139/684
f 875/682 180/683 179/317
f 179/317 189/318 875/682
f 870/329 875/682 189/318
f 870/329 868/681 875/682
f 866/680 868/681 870/329
f 866/680 867/679 868/681
f 872/357 867/679 866/680
f 872/357 877/355 867/679
f 866/680 871/358 872/357
f 866/680 869/327 871/358
f 870/329 869/327 866/680
f 191/330 871/358 869/327
f 191/330 671/325 871/358
f 677/321 671/325 191/330
f 835/685 852/350 642/352
f 835/685 834/686 852/350
f 138/687 852/350 834/686
f 138/687 862/686 852/350
f 861/688 862/686 138/687
f 138/687 880/689 861/688
f 187/690 880/689 138/687
f 138/687 182/691 187/690
f 145/692 182/691 138/687
f 138/687 144/691 145/692
f 150/690 144/691 138/687
f 138/687 854/689 150/690
f 833/688 854/689 138/687
f 138/687 834/686 833/688
f 863/685 852/350 862/686
f 863/685 672/352 852/350
f 836/693 136/296 837/297
f 836/693 140/300 136/296
f 142/299 136/296 140/300
f 142/299 137/294 136/296
f 167/421 137/294 142/299
f 142/299 168/694 167/421
f 164/695 168/694 142/299
f 142/299 165/696 164/695
f 143/301 165/696 142/299
f 143/301 174/697 165/696
f 194/696 174/697 143/301
f 143/301 181/299 194/696
f 195/695 194/696 181/299
f 181/299 197/694 195/695
f 198/421 197/694 181/299
f 181/299 178/294 198/421
f 177/296 178/294 181/299
f 181/299 180/300 177/296
f 864/693 177/296 180/300
f 864/693 865/297 177/296
f 170/369 161/332 163/334
f 170/369 646/376 161/332
f 644/378 646/376 170/369
f 644/378 645/380 646/376
f 655/652 646/376 645/380
f 645/380 638/381 655/652
f 147/302 144/698 151/306
f 147/302 146/304 144/698
f 145/699 144/698 146/304
f 146/304 176/387 145/699
f 183/304 145/699 176/387
f 183/304 182/698 145/699
f 186/302 182/698 183/304
f 186/302 188/306 182/698
f 134/700 130/192 135/195
f 134/700 84/701 130/192
f 814/169 815/702 825/703
f 814/169 818/168 815/702
f 342/373 341/704 353/374
f 342/373 343/705 341/704
f 368/704 343/705 342/373
f 342/373 374/374 368/704
f 476/706 44/707 475/708
f 476/706 477/709 44/707
f 478/480 477/709 476/706
f 476/706 479/481 478/480
f 474/706 44/480 40/709
f 474/706 475/481 44/480
f 478/504 45/218 477/216
f 478/504 46/149 45/218
f 47/150 45/218 46/149
f 47/150 48/505 45/218
f 50/151 48/505 47/150
f 50/151 57/226 48/505
f 42/5 48/505 57/226
f 42/5 56/9 48/505
f 45/218 48/505 56/9
f 43/7 42/5 57/226
f 899/228 898/27 383/28
f 899/228 900/507 898/27
f 908/508 900/507 899/228
f 908/508 907/160 900/507
f 906/159 907/160 908/508
f 908/508 925/509 906/159
f 899/228 925/509 908/508
f 899/228 913/511 925/509
f 914/513 913/511 899/228
f 914/513 912/512 913/511
f 915/514 912/512 914/513
f 915/514 910/517 912/512
f 911/515 910/517 915/514
f 911/515 909/516 910/517
f 902/39 909/516 911/515
f 902/39 917/261 909/516
f 897/522 917/261 902/39
f 897/522 905/260 917/261
f 904/246 905/260 897/522
f 904/246 923/245 905/260
f 922/262 905/260 923/245
f 923/245 938/244 922/262
f 939/264 922/262 938/244
f 938/244 942/54 939/264
f 940/56 942/54 938/244
f 938/244 937/231 940/56
f 935/232 940/56 937/231
f 935/232 941/58 940/56
f 899/228 915/514 914/513
f 899/228 903/38 915/514
f 902/39 915/514 903/38
f 902/39 911/515 915/514
f 897/522 918/235 904/246
f 897/522 379/35 918/235
f 380/47 379/35 897/522
f 380/47 387/48 379/35
f 386/33 379/35 387/48
f 387/48 889/29 386/33
f 895/46 889/29 387/48
f 897/522 901/224 380/47
f 897/522 902/39 901/224
f 385/37 901/224 902/39
f 900/36 918/235 379/35
f 900/36 919/234 918/235
f 924/259 909/516 917/261
f 924/259 910/517 909/516
f 389/263 910/517 924/259
f 389/263 929/50 910/517
f 939/264 929/50 389/263
f 939/264 930/52 929/50
f 942/54 930/52 939/264
f 925/509 926/162 906/159
f 925/509 916/510 926/162
f 913/511 916/510 925/509
f 913/511 912/512 916/510
f 931/404 916/510 912/512
f 931/404 926/162 916/510
f 936/518 926/162 931/404
f 936/518 920/161 926/162
f 935/519 920/161 936/518
f 935/519 390/520 920/161
f 907/160 920/161 390/520
f 390/520 919/521 907/160
f 900/507 907/160 919/521
f 910/517 931/404 912/512
f 910/517 929/50 931/404
f 928/51 931/404 929/50
f 928/51 932/154 931/404
f 412/403 931/404 932/154
f 944/402 936/518 931/404
f 944/402 941/406 936/518
f 935/519 936/518 941/406
f 410/410 409/523 411/409
f 410/410 408/524 409/523
f 943/53 408/524 410/410
f 943/53 934/55 408/524
f 933/57 408/524 934/55
f 933/57 420/526 408/524
f 413/525 408/524 420/526
f 413/525 409/523 408/524
f 420/526 418/527 413/525
f 436/408 943/53 410/410
f 436/408 927/49 943/53
f 433/412 927/49 436/408
f 433/412 928/51 927/49
f 432/153 928/51 433/412
f 433/412 442/413 432/153
f 405/65 432/153 442/413
f 405/65 424/152 432/153
f 404/66 424/152 405/65
f 414/72 418/530 419/71
f 414/72 416/155 418/530
f 415/158 416/155 414/72
f 414/72 422/247 415/158
f 411/531 415/158 422/247
f 411/531 409/157 415/158
f 421/249 411/531 422/247
f 418/530 416/155 413/156
f 946/180 947/92 948/290
f 946/180 957/94 947/92
f 976/429 975/563 445/430
f 976/429 978/108 975/563
f 977/710 978/108 976/429
f 977/710 979/106 978/108
f 444/711 979/106 977/710
f 444/711 967/102 979/106
f 968/104 967/102 444/711
f 444/711 974/577 968/104
f 997/576 974/577 444/711
f 997/576 448/425 974/577
f 447/424 448/425 997/576
f 997/576 1011/119 447/424
f 996/712 1011/119 997/576
f 996/712 1025/121 1011/119
f 446/713 1025/121 996/712
f 446/713 1026/123 1025/121
f 1000/110 1026/123 446/713
f 446/713 1001/112 1000/110
f 976/429 1001/112 446/713
f 446/713 977/710 976/429
f 996/712 977/710 446/713
f 996/712 444/711 977/710
f 997/576 444/711 996/712
f 1004/117 447/424 1011/119
f 1004/117 1003/271 447/424
f 1013/118 1003/271 1004/117
f 1003/271 1002/426 447/424
f 1003/271 998/428 1002/426
f 999/574 998/428 1003/271
f 1003/271 1008/575 999/574
f 1020/272 1019/268 1014/582
f 1020/272 1007/270 1019/268
f 1029/129 1019/268 1007/270
f 1007/270 1006/583 1029/129
f 1005/273 1006/583 1007/270
f 1005/273 1010/584 1006/583
f 1009/274 1010/584 1005/273
f 1009/274 1021/275 1010/584
f 1018/585 1010/584 1021/275
f 1018/585 1022/592 1010/584
f 1015/587 1022/592 1018/585
f 1015/587 1041/591 1022/592
f 1040/590 1041/591 1015/587
f 1015/587 1039/589 1040/590
f 1014/588 1039/589 1015/587
f 1015/587 1016/163 1014/588
f 1017/586 1016/163 1015/587
f 1017/586 1028/114 1016/163
f 1021/275 1028/114 1017/586
f 1021/275 1027/122 1028/114
f 1014/588 1016/163 1020/164
f 1039/589 1043/593 1040/590
f 1008/115 1016/163 1028/114
f 1018/585 1017/586 1015/587
f 1018/585 1021/275 1017/586
f 1006/583 1030/128 1029/129
f 1006/583 1023/281 1030/128
f 1010/584 1023/281 1006/583
f 1010/584 1022/592 1023/281
f 1059/280 1023/281 1022/592
f 1022/592 1041/591 1059/280
f 1042/277 1059/280 1041/591
f 1040/595 1042/594 1041/596
f 1040/595 1057/167 1042/594
f 1055/166 1057/167 1040/595
f 1073/598 1052/597 1056/599
f 1073/598 1072/600 1052/597
f 983/415 984/96 982/97
f 983/415 968/104 984/96
f 969/103 968/104 983/415
f 983/415 995/258 969/103
f 968/104 986/291 984/96
f 968/104 985/578 986/291
f 974/577 985/578 968/104
f 974/577 448/425 985/578
f 980/423 985/578 448/425
f 980/423 949/579 985/578
f 981/581 949/579 980/423
f 980/423 445/427 981/581
f 951/580 985/578 949/579
f 951/580 986/291 985/578
f 948/290 986/291 951/580
f 882/45 893/22 892/42
f 882/45 896/43 893/22
f 388/21 893/22 896/43
f 883/18 891/41 884/20
f 883/18 52/609 891/41
f 887/24 52/609 883/18
f 883/18 888/26 887/24
f 382/19 888/26 883/18
f 933/610 434/189 420/190
f 933/610 945/611 434/189
f 412/612 434/189 945/611
f 412/612 435/613 434/189
f 423/400 435/613 412/612
f 423/400 401/401 435/613
f 434/189 435/613 401/401
f 401/401 419/188 434/189
f 932/614 423/400 412/612
f 887/223 55/220 53/211
f 887/223 49/184 55/220
f 886/183 49/184 887/223
f 400/68 417/265 403/70
f 400/68 429/243 417/265
f 399/242 429/243 400/68
f 400/68 398/240 399/242
f 402/69 398/240 400/68
f 428/241 417/265 429/243
f 428/241 404/66 417/265
f 426/239 404/66 428/241
f 495/616 952/615 486/617
f 495/616 975/618 952/615
f 981/619 975/618 495/616
f 981/619 445/621 975/618
f 495/616 949/620 981/619
f 990/257 959/95 965/101
f 990/257 982/97 959/95
f 1034/623 1014/622 1019/624
f 1034/623 1032/625 1014/622
f 1033/630 1032/625 1034/623
f 1033/630 1031/629 1032/625
f 1053/628 1031/629 1033/630
f 1053/628 1045/134 1031/629
f 1071/418 1045/134 1053/628
f 1053/628 1070/416 1071/418
f 1043/627 1070/416 1053/628
f 1043/627 1047/417 1070/416
f 1039/626 1047/417 1043/627
f 1039/626 1048/132 1047/417
f 1046/131 1048/132 1039/626
f 1039/626 1032/625 1046/131
f 1014/622 1032/625 1039/626
f 1043/627 1053/628 1040/595
f 1044/135 1031/629 1045/134
f 1044/135 1032/625 1031/629
f 1049/133 1032/625 1044/135
f 1049/133 1046/131 1032/625
f 1037/127 1033/631 1034/269
f 1037/127 1036/125 1033/631
f 1053/632 1033/631 1036/125
f 1036/125 1061/285 1053/632
f 1060/287 1061/285 1036/125
f 1036/125 1062/289 1060/287
f 1035/126 1062/289 1036/125
f 1035/126 1063/276 1062/289
f 1064/288 1062/289 1063/276
f 1063/276 1051/137 1064/288
f 1073/138 1064/288 1051/137
f 1073/138 1067/284 1064/288
f 1068/286 1067/284 1073/138
f 1073/138 1056/634 1068/286
f 1054/633 1068/286 1056/634
f 1054/633 1061/285 1068/286
f 1053/632 1061/285 1054/633
f 1051/137 1066/283 1074/139
f 1051/137 1069/279 1066/283
f 1058/143 1054/146 1056/142
f 1058/143 1055/145 1054/146
f 1065/635 1055/145 1058/143
f 1058/143 1075/141 1065/635
f 1076/282 1065/635 1075/141
f 667/356 668/379 669/381
f 667/356 670/354 668/379
f 671/325 668/379 670/354
f 671/325 689/324 668/379
f 188/638 187/315 182/639
f 188/638 199/314 187/315
f 198/640 199/314 188/638
f 188/638 196/348 198/640
f 197/349 198/640 196/348
f 672/654 684/653 686/655
f 672/654 673/656 684/653
f 863/172 673/656 672/654
f 863/172 860/173 673/656
f 687/665 673/656 860/173
f 687/665 690/658 673/656
f 878/660 690/658 687/665
f 878/660 680/659 690/658
f 667/661 680/659 878/660
f 667/661 669/668 680/659
f 683/669 680/659 669/668
f 683/669 738/670 680/659
f 688/657 680/659 738/670
f 688/657 690/658 680/659
f 673/656 690/658 688/657
f 688/657 684/653 673/656
f 878/660 877/662 667/661
f 878/660 874/663 877/662
f 859/664 874/663 878/660
f 859/664 865/297 874/663
f 858/170 865/297 859/664
f 859/664 860/173 858/170
f 687/665 860/173 859/664
f 859/664 878/660 687/665
f 873/666 874/663 865/297
f 873/666 867/667 874/663
f 877/662 874/663 867/667
f 686/655 681/674 879/675
f 686/655 682/673 681/674
f 685/653 682/673 686/655
f 685/653 679/671 682/673
f 688/657 679/671 685/653
f 688/657 738/670 679/671
f 678/672 679/671 738/670
f 678/672 682/673 679/671
f 681/674 682/673 678/672
f 678/672 366/676 681/674
f 740/677 366/676 678/672
f 678/672 730/678 740/677
f 738/670 730/678 678/672
f 192/332 200/369 193/334
f 192/332 675/376 200/369
f 674/378 200/369 675/376
f 675/376 190/380 674/378
f 683/652 190/380 675/376
f 683/652 669/381 190/380
f 394/62 404/66 407/64
f 394/62 417/265 404/66
f 397/60 417/265 394/62
f 397/60 396/61 417/265
f 439/391 417/265 396/61
f 439/391 393/389 417/265
f 392/266 417/265 393/389
f 393/389 391/390 392/266
f 437/267 392/266 391/390
f 438/388 441/528 391/529
f 438/388 440/414 441/528
f 442/413 441/528 440/414
f 440/414 405/65 442/413
f 406/63 405/65 440/414
f 992/178 958/93 957/94
f 992/178 734/573 958/93
f 664/98 958/93 734/573
f 734/573 665/572 664/98
f 963/100 664/98 665/572
f 665/572 630/571 963/100
f 960/251 963/100 630/571
f 630/571 971/570 960/251
f 953/569 960/251 971/570
f 953/569 970/568 960/251
f 961/566 960/251 970/568
f 961/566 962/252 960/251
f 991/254 962/252 961/566
f 961/566 993/256 991/254
f 987/107 993/256 961/566
f 961/566 988/109 987/107
f 973/565 988/109 961/566
f 973/565 972/564 988/109
f 952/567 972/564 973/565
f 952/567 975/563 972/564
f 978/108 972/564 975/563
f 978/108 988/109 972/564
f 961/566 952/567 973/565
f 961/566 970/568 952/567
f 437/192 441/700 442/195
f 437/192 391/701 441/700
f 1066/702 1065/169 1076/703
f 1066/702 1069/168 1065/169
f 744/711 603/577 745/576
f 744/711 597/104 603/577
f 743/102 597/104 744/711
f 744/711 610/106 743/102
f 607/710 610/106 744/711
f 607/710 609/108 610/106
f 605/429 609/108 607/710
f 607/710 747/713 605/429
f 750/712 747/713 607/710
f 750/712 776/121 747/713
f 762/119 776/121 750/712
f 750/712 745/576 762/119
f 744/711 745/576 750/712
f 750/712 607/710 744/711
f 827/123 747/713 776/121
f 827/123 752/110 747/713
f 751/112 747/713 752/110
f 751/112 605/429 747/713
f 172/714 173/715 171/716
f 172/714 855/717 173/715
f 171/716 173/715 855/717
f 356/718 354/715 355/714
f 356/718 357/717 354/715
f 355/714 354/715 357/717
f 202/715 203/714 201/716
f 202/715 881/717 203/714
f 201/716 881/717 202/715
f 375/715 376/718 377/714
f 375/715 378/717 376/718
f 377/714 378/717 375/715
usemtl mat_1
f 845/719 836/720 837/721
f 845/719 848/722 836/720
f 840/723 848/722 845/719
f 840/723 839/724 848/722
f 847/725 848/722 839/724
f 847/725 140/726 848/722
f 836/720 848/722 140/726
f 864/720 873/719 865/721
f 864/720 876/722 873/719
f 180/726 876/722 864/720
f 180/726 875/725 876/722
f 868/724 876/722 875/725
f 868/724 867/723 876/722
f 873/719 876/722 867/723
