newmtl mat1
	Ns 10
	Ni 1.0
	d 1.0
	Tf 1 1 1
	illum 2
	Ka 0.5 0.5 0.5
	Kd 0.9 0.9 0.9
	Ks 0.0 0.0 0.0
	map_Kd Textures\LatiosDh.tga

newmtl mat2
	Ns 10
	Ni 1.0
	d 1.0
	Tf 1 1 1
	illum 2
	Ka 0.5 0.5 0.5
	Kd 0.9 0.9 0.9
	Ks 0.0 0.0 0.0
	map_Kd Textures\LatiosEyeDh.tga

newmtl mat3
	Ns 10
	Ni 1.0
	d 1.0
	Tf 1 1 1
	illum 2
	Ka 0.5 0.5 0.5
	Kd 0.9 0.9 0.9
	Ks 0.0 0.0 0.0
	map_Kd Textures\LatiosMouthDh.tga

