xof 0303txt 0032

template AnimTicksPerSecond {
  <9E415A43-7BA6-4a73-8743-B73D47E88476>
  DWORD AnimTicksPerSecond;
}

template XSkinMeshHeader {
  <3cf169ce-ff7c-44ab-93c0-f78f62d172e2>
  WORD nMaxSkinWeightsPerVertex;
  WORD nMaxSkinWeightsPerFace;
  WORD nBones;
}

template SkinWeights {
  <6f0d123b-bad2-4167-a0d0-80224f25fabb>
  STRING transformNodeName;
  DWORD nWeights;
  array DWORD vertexIndices[nWeights];
  array float weights[nWeights];
  Matrix4x4 matrixOffset;
}

Frame Root {
  FrameTransformMatrix {
     1.000000, 0.000000, 0.000000, 0.000000,
     0.000000, 0.000000, 1.000000, 0.000000,
     0.000000, 1.000000,-0.000000, 0.000000,
     0.000000, 0.000000, 0.000000, 1.000000;;
  }
  Frame muma_mat_0 {
    FrameTransformMatrix {
       1.000000, 0.000000, 0.000000, 0.000000,
       0.000000, 1.000000, 0.000000, 0.000000,
       0.000000, 0.000000, 1.000000, 0.000000,
       0.000000, 0.000000, 0.000000, 1.000000;;
    }
    Mesh { //Mesh Mesh
      42;
      -2.238420; 6.163170; 0.355076;,
      -1.338280; 5.902851; 0.995650;,
      -1.312150; 5.433720; 0.695741;,
      -0.450010; 5.325260; 0.962610;,
      -1.312150; 5.433720; 0.695741;,
      -0.420420; 5.788817; 1.276250;,
      -0.420420; 5.788817; 1.276250;,
      -1.312150; 5.433720; 0.695741;,
      -1.338280; 5.902851; 0.995650;,
      -0.420420; 5.788817; 1.276250;,
      -1.338280; 5.902851; 0.995650;,
      -0.371456; 6.323935; 1.493720;,
      -1.338280; 5.902851; 0.995650;,
      -1.268690; 6.437969; 1.213110;,
      -0.371456; 6.323935; 1.493720;,
       1.312150; 5.433720; 0.695741;,
       1.338280; 5.902851; 0.995650;,
       2.238420; 6.163170; 0.355077;,
      -2.238420; 6.163170; 0.355076;,
      -2.238420; 6.698288; 0.572541;,
      -1.268690; 6.437969; 1.213110;,
      -2.238420; 6.163170; 0.355076;,
      -1.268690; 6.437969; 1.213110;,
      -1.338280; 5.902851; 0.995650;,
       1.312150; 5.433720; 0.695741;,
       0.450010; 5.325260; 0.962610;,
       1.338280; 5.902851; 0.995650;,
       0.450010; 5.325260; 0.962610;,
       0.420420; 5.788817; 1.276250;,
       1.338280; 5.902851; 0.995650;,
       1.338280; 5.902851; 0.995650;,
       0.420420; 5.788817; 1.276250;,
       1.268690; 6.437969; 1.213110;,
       0.420420; 5.788817; 1.276250;,
       0.371456; 6.323935; 1.493720;,
       1.268690; 6.437969; 1.213110;,
       1.338280; 5.902851; 0.995650;,
       1.268690; 6.437969; 1.213110;,
       2.238420; 6.698288; 0.572541;,
       1.338280; 5.902851; 0.995650;,
       2.238420; 6.698288; 0.572541;,
       2.238420; 6.163170; 0.355077;;
      14;
      3;0;1;2;,
      3;3;4;5;,
      3;6;7;8;,
      3;9;10;11;,
      3;12;13;14;,
      3;15;16;17;,
      3;18;19;20;,
      3;21;22;23;,
      3;24;25;26;,
      3;27;28;29;,
      3;30;31;32;,
      3;33;34;35;,
      3;36;37;38;,
      3;39;40;41;;
      MeshNormals { //Mesh Normals
        42;
         0.593341; 0.324839;-0.736473;,
         0.470870; 0.389752;-0.791406;,
         0.439985; 0.499924;-0.745964;,
         0.311655; 0.518723;-0.796075;,
         0.439985; 0.499924;-0.745964;,
         0.313608; 0.423231;-0.850002;,
         0.313608; 0.423231;-0.850002;,
         0.439985; 0.499924;-0.745964;,
         0.470870; 0.389752;-0.791406;,
         0.313608; 0.423231;-0.850002;,
         0.470870; 0.389752;-0.791406;,
         0.315470; 0.328593;-0.890194;,
         0.470870; 0.389752;-0.791406;,
         0.456038; 0.293100;-0.840297;,
         0.315470; 0.328593;-0.890194;,
        -0.441145; 0.500687;-0.744743;,
        -0.464309; 0.395428;-0.792474;,
        -0.608661; 0.335337;-0.719047;,
         0.593341; 0.324839;-0.736473;,
         0.580554; 0.306528;-0.754295;,
         0.456038; 0.293100;-0.840297;,
         0.593341; 0.324839;-0.736473;,
         0.456038; 0.293100;-0.840297;,
         0.470870; 0.389752;-0.791406;,
        -0.441145; 0.500687;-0.744743;,
        -0.309183; 0.521012;-0.795526;,
        -0.464309; 0.395428;-0.792474;,
        -0.309183; 0.521012;-0.795526;,
        -0.314890; 0.420270;-0.850978;,
        -0.464309; 0.395428;-0.792474;,
        -0.464309; 0.395428;-0.792474;,
        -0.314890; 0.420270;-0.850978;,
        -0.443403; 0.289315;-0.848323;,
        -0.314890; 0.420270;-0.850978;,
        -0.319712; 0.331462;-0.887631;,
        -0.443403; 0.289315;-0.848323;,
        -0.464309; 0.395428;-0.792474;,
        -0.443403; 0.289315;-0.848323;,
        -0.600543; 0.281503;-0.748375;,
        -0.464309; 0.395428;-0.792474;,
        -0.600543; 0.281503;-0.748375;,
        -0.608661; 0.335337;-0.719047;;
        14;
        3;0;1;2;,
        3;3;4;5;,
        3;6;7;8;,
        3;9;10;11;,
        3;12;13;14;,
        3;15;16;17;,
        3;18;19;20;,
        3;21;22;23;,
        3;24;25;26;,
        3;27;28;29;,
        3;30;31;32;,
        3;33;34;35;,
        3;36;37;38;,
        3;39;40;41;;
      } //End of Mesh Normals
      MeshMaterialList { //Mesh Material List
        1;
        14;
        0,
        0,
        0,
        0,
        0,
        0,
        0,
        0,
        0,
        0,
        0,
        0,
        0,
        0;;
        Material mat_0 {
           0.640000; 0.640000; 0.640000; 1.000000;;
           92.156863;
           0.250000; 0.250000; 0.250000;;
           0.000000; 0.000000; 0.000000;;
          TextureFilename {"Textures/muma_0_0.tga";}
        }
      } //End of Mesh Material List
      MeshTextureCoords { //Mesh UV Coordinates
        42;
         1.079650; 0.057626;,
         0.514716; 0.066594;,
         0.579647; 0.120890;,
         0.148321; 0.127931;,
         0.579647; 0.120890;,
         0.056623; 0.074074;,
         0.579647; 0.120890;,
         0.514716; 0.066594;,
         0.056623; 0.074074;,
         0.056623; 0.074074;,
         0.514716; 0.066594;,
        -0.011344; 0.016872;,
         0.514716; 0.066594;,
         0.438450; 0.009532;,
        -0.011344; 0.016872;,
         0.579647; 0.120890;,
         0.514716; 0.066594;,
         1.079650; 0.057626;,
         1.079650; 0.057626;,
         1.031380; 0.000092;,
         0.438450; 0.009532;,
         1.079650; 0.057626;,
         0.438450; 0.009532;,
         0.514716; 0.066594;,
         0.579647; 0.120890;,
         0.148321; 0.127931;,
         0.514716; 0.066594;,
         0.148321; 0.127931;,
         0.056623; 0.074074;,
         0.514716; 0.066594;,
         0.514716; 0.066594;,
         0.056623; 0.074074;,
         0.438450; 0.009532;,
         0.056623; 0.074074;,
        -0.011344; 0.016872;,
         0.438450; 0.009532;,
         0.514716; 0.066594;,
         0.438450; 0.009532;,
         1.031380; 0.000092;,
         0.514716; 0.066594;,
         1.031380; 0.000092;,
         1.079650; 0.057626;;
      } //End of Mesh UV Coordinates
    } //End of Mesh Mesh
  } //End of muma_mat_0
} //End of Root Frame
