# Blender v2.66 (sub 1) OBJ File: 'BR_Swellow-Shiny01.blend'
# www.blender.org
mtllib BR_Swellow-Shiny01.mtl
o ohsubame
v 0.000000 2.024810 -5.985970
v 0.000000 2.280160 -5.820310
v 0.000000 2.280160 -5.820310
v 0.000000 2.280160 -5.820310
v 0.319775 1.843290 -5.880290
v 0.319775 1.843290 -5.880290
v 0.000000 2.229280 -5.814590
v 0.315368 1.785840 -5.878550
v -0.319775 1.843290 -5.880290
v -0.319775 1.843290 -5.880290
v -0.315368 1.785840 -5.878550
v 0.411001 -0.262415 -6.532710
v 0.411001 -0.262415 -6.532710
v 0.411001 -0.262415 -6.532710
v 0.411001 -0.262415 -6.532710
v 0.704257 0.067191 -6.535670
v 0.718500 0.106291 -6.159180
v 0.718500 0.106291 -6.159180
v 0.000000 1.238270 -6.005140
v 0.000000 1.238270 -6.005140
v 0.313867 -0.223254 -6.730620
v 0.754952 1.183620 -6.396000
v 0.414461 1.586770 -6.295840
v 0.000000 1.754830 -6.168180
v 0.000000 1.754830 -6.168180
v 0.203800 1.648140 -6.114310
v 0.203800 1.648140 -6.114310
v 0.416187 0.194348 -6.886260
v 0.533976 0.630715 -6.845820
v 0.746249 0.596799 -6.715340
v 0.314103 0.663003 -6.905660
v -0.313867 -0.223254 -6.730620
v 0.000000 -0.239812 -6.824140
v 0.000000 -0.532684 -6.534020
v -0.411001 -0.262415 -6.532710
v -0.411001 -0.262415 -6.532710
v -0.411001 -0.262415 -6.532710
v -0.411001 -0.262415 -6.532710
v 0.409536 1.492090 -6.617150
v 0.000000 1.630130 -6.556450
v 0.778183 1.048020 -5.782690
v 0.659458 1.142120 -6.691060
v 0.392629 1.124680 -6.793500
v 0.000000 0.282200 -6.951040
v 0.000000 1.109640 -6.847900
v 0.000000 1.437890 -6.730290
v 0.000000 -0.005966 -6.934430
v 0.511099 -0.191688 -5.726150
v 0.511099 -0.191688 -5.726150
v 0.000000 -0.395888 -5.628570
v 0.000000 -0.395888 -5.628570
v 0.874297 0.601670 -5.782690
v 0.874290 0.599777 -6.442870
v 0.000000 0.689908 -6.932870
v 0.732743 0.145391 -5.782690
v -0.511099 -0.191688 -5.726150
v -0.511099 -0.191688 -5.726150
v -0.511099 -0.191688 -5.726150
v -0.732743 0.145391 -5.782690
v -0.718500 0.106291 -6.159180
v -0.718500 0.106291 -6.159180
v -0.704257 0.067191 -6.535670
v -0.414462 1.586770 -6.295840
v -0.754953 1.183620 -6.396000
v -0.203800 1.648140 -6.114310
v -0.203800 1.648140 -6.114310
v -0.746249 0.596799 -6.715340
v -0.533976 0.630715 -6.845820
v -0.416187 0.194348 -6.886260
v -0.314103 0.663003 -6.905660
v -0.778184 1.048020 -5.782690
v -0.874297 0.601670 -5.782690
v -0.409536 1.492090 -6.617150
v -0.659458 1.142120 -6.691060
v -0.392629 1.124680 -6.793500
v -0.874290 0.599776 -6.442870
v -0.356328 -0.378982 -5.728340
v -0.356328 -0.378982 -5.728340
v -0.356328 -0.378982 -5.728340
v 0.346704 -0.387048 -5.716840
v 0.346704 -0.387048 -5.716840
v 0.346704 -0.387048 -5.716840
v 0.433033 1.644210 -5.890570
v 0.433033 1.644210 -5.890570
v 0.000000 2.152120 -5.790140
v 0.000000 2.152120 -5.790140
v 0.000000 1.835060 -5.711280
v 0.000000 2.108460 -5.801290
v 0.384893 1.654650 -5.876610
v 0.000000 1.253210 -5.803790
v 0.000000 1.253210 -5.803790
v -0.433033 1.644210 -5.890570
v -0.433033 1.644210 -5.890570
v -0.384893 1.654650 -5.876610
v 0.535550 1.461150 -5.964480
v 0.535550 1.461150 -5.964480
v 0.535550 1.461150 -5.964480
v 0.535550 1.461150 -5.964480
v 0.535550 1.461150 -5.964480
v 0.300381 1.509340 -5.791470
v 0.559963 1.409640 -5.985770
v 0.517486 1.372770 -5.463340
v 0.000000 1.596850 -5.408500
v 0.838368 0.644679 -5.476060
v -0.559963 1.409640 -5.985770
v -0.300382 1.509340 -5.791470
v -0.535550 1.461150 -5.964480
v -0.535550 1.461150 -5.964480
v -0.535550 1.461150 -5.964480
v -0.535550 1.461150 -5.964480
v -0.535550 1.461150 -5.964480
v -0.517486 1.372770 -5.463340
v -0.838368 0.644679 -5.476060
v 0.657485 1.312120 -5.193290
v 0.909126 0.687689 -5.196650
v 1.167480 0.429161 -4.868960
v 1.167480 0.429161 -4.868960
v 0.657485 -0.278136 -5.193290
v 0.000000 -0.508679 -5.211380
v 0.000000 1.587670 -5.179960
v -0.909126 0.687689 -5.196650
v -0.657485 1.312120 -5.193290
v -1.167480 0.429161 -4.868960
v -1.167480 0.429161 -4.868960
v -0.657485 -0.278136 -5.193290
v 1.590850 -0.205595 -3.643760
v -1.607560 -0.205595 -3.643760
v 0.772761 -2.354220 -1.529610
v 1.053790 -1.367140 -1.553790
v 0.489064 -1.320280 -1.290660
v 0.000000 -0.074735 -1.452450
v 0.000000 -1.310630 -1.174610
v 1.374490 -0.577441 -2.124110
v 1.282390 -1.821400 -2.118470
v 0.000000 -2.253420 -1.151450
v 0.910043 -2.552340 -2.070940
v 0.494688 -2.848510 -2.346820
v 0.000001 -2.906030 -2.395100
v 0.674915 -0.432979 -1.515670
v -0.489064 -1.320280 -1.290660
v -1.053790 -1.367140 -1.553790
v -0.772760 -2.354220 -1.529610
v -1.231090 -1.821400 -2.118470
v -1.374490 -0.577441 -2.124110
v -0.910042 -2.552340 -2.070940
v -0.494688 -2.848510 -2.346820
v -0.674915 -0.432979 -1.515670
v 0.188560 -0.796167 -6.007090
v 0.188560 -0.796167 -6.007090
v 0.000000 -1.727650 -5.461700
v 0.000000 -1.727650 -5.461700
v 0.000000 -1.727650 -5.461700
v 0.000000 -0.798048 -6.128680
v 0.000000 -0.557837 -5.706780
v 0.000000 -0.557837 -5.706780
v 0.000000 -0.557837 -5.706780
v 0.000000 -0.557837 -5.706780
v 0.000000 -0.557837 -5.706780
v -0.188560 -0.796167 -6.007090
v -0.188560 -0.796167 -6.007090
v 0.000001 -3.056650 -1.169060
v 0.000001 -3.056650 -1.169060
v 0.000001 -3.056650 -1.169060
v 0.000001 -3.417650 -2.037020
v 0.000001 -3.417650 -2.037020
v 0.000001 -3.417650 -2.037020
v -0.718581 -3.124300 -1.458770
v -0.530798 -3.370110 -2.124250
v -0.965676 -3.251140 -1.874190
v -0.965676 -3.251140 -1.874190
v 0.718582 -3.124300 -1.458770
v 0.530798 -3.370110 -2.124250
v 0.965676 -3.251140 -1.874190
v 0.965676 -3.251140 -1.874190
v -0.438346 -4.811410 -1.669590
v -0.438346 -4.811410 -1.669590
v -0.444880 -4.727140 -1.269530
v -0.444880 -4.727140 -1.269530
v -1.013260 -4.646940 -1.346770
v -1.082360 -4.738080 -1.685710
v -1.082360 -4.738080 -1.685710
v -5.559260 -0.163266 -5.169040
v -7.207520 -0.652433 -5.167230
v -7.207520 -0.652433 -5.167230
v -5.878810 -1.017850 -4.316550
v -5.878810 -1.017850 -4.316550
v -5.548390 -0.879084 -5.137590
v -5.035880 -0.012020 -6.106130
v -5.035880 -0.012020 -6.106130
v -6.085960 -0.269297 -5.748750
v -6.085960 -0.269297 -5.748750
v -5.358660 -0.728598 -4.772090
v -4.679160 -0.765269 -4.386730
v -5.886310 -0.691272 -5.049240
v -5.373170 -0.756161 -4.718360
v -6.287300 -0.446541 -5.384260
v -5.913070 -0.725390 -5.015510
v -6.965680 -0.595516 -5.295260
v -6.395620 -0.514497 -5.208950
v -4.464440 0.015620 -5.057490
v -4.076840 0.214720 -6.317410
v -4.076840 0.214720 -6.317410
v -4.845290 -0.955729 -3.855800
v -4.845290 -0.955729 -3.855800
v -4.438520 -0.829527 -5.050760
v -3.224620 -0.507912 -4.096900
v -3.762660 -0.558278 -4.238110
v -3.259400 -0.512698 -4.115000
v -4.247290 -0.583838 -4.392340
v -3.759260 -0.553195 -4.215170
v -4.642180 -0.702509 -4.521910
v -4.208100 -0.596753 -4.319590
v 0.438347 -4.811410 -1.669590
v 0.438347 -4.811410 -1.669590
v 1.013260 -4.646940 -1.346770
v 0.444880 -4.727140 -1.269530
v 0.444880 -4.727140 -1.269530
v 1.082360 -4.738080 -1.685710
v 1.082360 -4.738080 -1.685710
v 1.223240 -8.572750 -1.269520
v 1.223240 -8.572750 -1.269520
v 1.223240 -8.572750 -1.269520
v 1.223240 -8.572750 -1.269520
v 1.310980 -8.400970 -1.354750
v 1.310980 -8.400970 -1.354750
v 1.129110 -8.409570 -1.354730
v 1.129110 -8.409570 -1.354730
v 5.559260 -0.163265 -5.169040
v 5.035880 -0.012019 -6.106130
v 5.035880 -0.012019 -6.106130
v 5.878810 -1.017850 -4.316550
v 5.878810 -1.017850 -4.316550
v 7.207520 -0.652432 -5.167230
v 7.207520 -0.652432 -5.167230
v 5.548390 -0.879083 -5.137590
v 6.085960 -0.269296 -5.748750
v 6.085960 -0.269296 -5.748750
v 4.679160 -0.765269 -4.386730
v 5.358660 -0.728598 -4.772090
v 5.373170 -0.756162 -4.681700
v 5.886310 -0.691272 -5.049240
v 5.913070 -0.725390 -5.015500
v 6.287300 -0.446541 -5.384260
v 6.395620 -0.514497 -5.208950
v 6.965680 -0.595516 -5.295260
v 4.076840 0.214721 -6.317410
v 4.076840 0.214721 -6.317410
v 4.438520 -0.829526 -5.050760
v 4.845290 -0.955729 -3.855800
v 4.845290 -0.955729 -3.855800
v 4.464440 0.015621 -5.057490
v 3.224620 -0.507912 -4.096900
v 3.259400 -0.512698 -4.115000
v 3.762660 -0.558279 -4.238110
v 3.759260 -0.553195 -4.215170
v 4.247290 -0.583838 -4.392340
v 4.208100 -0.596753 -4.319590
v 4.642180 -0.702509 -4.521910
v 2.695170 0.228218 -5.507770
v 2.695170 0.228218 -5.507770
v 2.808630 0.231629 -4.572840
v 2.731590 -0.682637 -4.443230
v 2.787370 -0.726109 -3.432300
v 2.787370 -0.726109 -3.432300
v 2.213430 -0.355862 -3.837410
v 2.184480 -0.337450 -3.803790
v 2.744740 -0.438382 -3.959880
v 2.782890 -0.436776 -3.965590
v -1.188490 -8.572750 -1.269520
v -1.188490 -8.572750 -1.269520
v -1.188490 -8.572750 -1.269520
v -1.188490 -8.572750 -1.269520
v -1.276230 -8.400970 -1.354750
v -1.276230 -8.400970 -1.354750
v -1.094360 -8.409570 -1.354730
v -1.094360 -8.409570 -1.354730
v -2.808630 0.231629 -4.572840
v -2.695170 0.228217 -5.507770
v -2.695170 0.228217 -5.507770
v -2.731590 -0.682637 -4.443230
v -2.787370 -0.726110 -3.432300
v -2.787370 -0.726110 -3.432300
v -2.213430 -0.355862 -3.837410
v -2.744740 -0.438382 -3.959880
v -2.184480 -0.337450 -3.803790
v -2.782890 -0.436776 -3.965590
v -0.984987 -1.242140 -5.502950
v -0.984987 -1.242140 -5.502950
v -0.984987 -1.242140 -5.502950
v -0.984987 -1.242140 -5.502950
v -0.592754 -0.648413 -5.946610
v -0.592754 -0.648413 -5.946610
v -0.766265 -0.431998 -5.869610
v -0.766265 -0.431998 -5.869610
v 0.976292 -1.234670 -5.505360
v 0.976292 -1.234670 -5.505360
v 0.976292 -1.234670 -5.505360
v 0.799560 -0.434354 -5.867270
v 0.799560 -0.434354 -5.867270
v 0.633572 -0.575368 -5.939920
v 0.633572 -0.575368 -5.939920
v 1.874330 -1.078250 -2.181760
v 2.205810 -1.150340 -2.259020
v 2.467800 -1.227220 -2.249780
v 2.770400 -1.282620 -2.320280
v 3.021480 -1.344020 -2.309900
v 3.394040 -1.398380 -2.402700
v 3.544290 -1.436820 -2.382660
v 3.968750 -1.475270 -2.486490
v 4.220840 -1.530170 -2.445830
v 4.677610 -1.632470 -2.457640
v 4.991630 -1.660800 -2.439100
v 5.384950 -1.764420 -2.399530
v 5.777290 -1.727740 -2.590120
v 6.289180 -1.883390 -2.530160
v 6.705550 -1.760700 -2.642180
v 7.271110 -1.854910 -2.622650
v 8.022850 -1.853510 -2.601440
v 8.285700 -1.620460 -2.971880
v 8.660820 -1.366680 -3.569150
v 8.916870 -1.234350 -3.896860
v -2.205810 -1.150340 -2.259020
v -1.874330 -1.078250 -2.181760
v -2.770400 -1.282620 -2.320280
v -2.467800 -1.227220 -2.249780
v -3.394040 -1.398380 -2.402700
v -3.021480 -1.344020 -2.309900
v -3.968750 -1.475270 -2.486490
v -3.544290 -1.436820 -2.382660
v -4.677610 -1.632470 -2.457640
v -4.220840 -1.530170 -2.445830
v -5.384950 -1.764420 -2.399530
v -4.991630 -1.660800 -2.439100
v -6.289180 -1.883390 -2.530160
v -5.777290 -1.727740 -2.590120
v -7.271110 -1.854910 -2.622650
v -6.705550 -1.760700 -2.642180
v -8.285700 -1.620460 -2.971880
v -8.022850 -1.853510 -2.601440
v -8.916870 -1.234350 -3.896860
v -8.660820 -1.366680 -3.569150
v 0.375700 1.529600 -6.054210
v -0.375701 1.529600 -6.054210
v 0.000000 1.719180 -5.664260
v 1.453690 -0.544991 -3.959970
v 1.453690 -0.544991 -3.959970
v 1.616660 -0.550752 -3.069720
v 1.616660 -0.550752 -3.069720
v 1.616660 -0.550752 -3.069720
v 1.095130 -1.932680 -3.216920
v 1.478800 0.424369 -4.121100
v 1.609890 -0.052329 -3.065590
v 0.929649 -1.271470 -4.283360
v 1.267790 1.201120 -4.179410
v 0.000000 -2.370730 -3.318840
v -0.000405 -1.553790 -4.381540
v 1.103300 1.160240 -3.012280
v 0.885563 0.491120 -2.142750
v 0.758088 1.784120 -4.179410
v 0.000000 0.974888 -2.095330
v -0.000006 1.734240 -2.999640
v 0.000000 1.960340 -4.205900
v -1.095130 -1.932680 -3.216920
v -1.616660 -0.550752 -3.069720
v -1.616660 -0.550752 -3.069720
v -1.616660 -0.550752 -3.069720
v -1.453690 -0.544991 -3.959970
v -1.453690 -0.544991 -3.959970
v -1.478800 0.424368 -4.121100
v -1.609890 -0.052329 -3.065590
v -0.929649 -1.271470 -4.283360
v -1.267790 1.201120 -4.179410
v -1.103300 1.160240 -3.012280
v -0.885563 0.491120 -2.142750
v -0.758088 1.784120 -4.179410
vt 0.503041 0.836540
vt 0.865917 0.112523
vt 0.825576 0.128828
vt 0.503041 0.768334
vt 0.972282 -0.211198
vt 0.817873 -0.023779
vt 0.771007 0.411964
vt 0.951824 -0.130723
vt 0.503041 1.013410
vt 0.503041 0.933917
vt 0.767315 0.322211
vt 0.766801 0.362383
vt 0.500000 0.568182
vt 0.500000 0.434637
vt 0.733451 0.289719
vt 0.188209 -0.023779
vt 0.033800 -0.211198
vt 0.054257 -0.130723
vt 0.235074 0.411964
vt 0.500000 0.718750
vt 0.734266 0.586782
vt 0.704983 0.483648
vt 0.500000 0.618499
vt 0.503041 0.410692
vt 0.754756 -0.055429
vt 0.503041 0.272408
vt 0.140165 0.112523
vt 0.251325 -0.055429
vt 1.000000 -0.000000
vt 0.503041 0.660806
vt 0.673822 0.161423
vt 0.503041 0.328112
vt 0.332259 0.161423
vt 0.540289 0.863462
vt 0.539490 0.928378
vt 0.549025 0.912378
vt 0.541087 0.798546
vt 0.543331 0.065206
vt 0.540293 0.052990
vt 0.554149 0.124620
vt 0.551029 0.158544
vt 0.811118 0.687313
vt 0.782379 0.854316
vt 0.841261 0.792694
vt 0.904151 0.692425
vt 0.460510 0.928378
vt 0.459711 0.863462
vt 0.458913 0.798546
vt 0.450975 0.912378
vt 0.459707 0.052990
vt 0.456669 0.065206
vt 0.448971 0.158544
vt 0.445851 0.124620
vt 0.523046 0.927868
vt 0.544834 0.813129
vt 0.535527 0.825655
vt 0.476954 0.927868
vt 0.466762 0.826809
vt 0.457033 0.813533
vt 0.500000 0.373714
vt 0.552129 0.540022
vt 0.561408 0.356142
vt 0.499977 0.556951
vt 0.438592 0.356142
vt 0.447871 0.540022
vt 0.536867 0.696919
vt 0.500000 0.700037
vt 0.463133 0.696919
vt 0.500000 0.152696
vt 0.527739 0.206112
vt 0.529764 0.167736
vt 0.500000 0.214438
vt 0.470236 0.167736
vt 0.472261 0.206112
vt 0.500000 0.978119
vt 0.523337 0.988829
vt 0.517600 0.961993
vt 0.500000 0.997134
vt 0.482400 0.961993
vt 0.476663 0.988829
vt 0.829646 0.545746
vt 0.771692 0.466301
vt 0.748883 0.672343
vt 0.656298 0.393277
vt 0.653170 0.567588
vt 0.651128 0.751143
vt 0.581514 0.484261
vt 0.565465 0.640996
vt 0.728603 0.890745
vt 0.549025 0.798546
vt 0.500000 0.858203
vt 0.510573 0.837238
vt 0.500000 0.928093
vt 0.489427 0.837238
vt 0.188882 0.687313
vt 0.170354 0.545746
vt 0.095849 0.692425
vt 0.228308 0.466301
vt 0.251117 0.672343
vt 0.217621 0.854316
vt 0.271397 0.890745
vt 0.346830 0.567588
vt 0.434535 0.640996
vt 0.418486 0.484261
vt 0.348872 0.751143
vt 0.158739 0.792694
vt 0.343702 0.393277
vt 0.450975 0.798546
vt 0.519441 0.787191
vt 0.500000 0.785456
vt 0.480019 0.789174
vt 0.444768 0.750311
vt 0.554744 0.750726
vt 0.458155 0.959358
vt 0.470058 0.981857
vt 0.541845 0.959358
vt 0.529942 0.981857
vt 0.500000 0.743198
vt 0.571908 0.166739
vt 0.590652 0.330759
vt 0.471341 0.788797
vt 0.500000 0.771971
vt 0.528659 0.788797
vt 0.430968 0.166739
vt 0.409348 0.330759
vt 0.489583 0.726563
vt 0.500000 0.562500
vt -0.023438 0.546875
vt 0.041667 0.247396
vt 0.484375 0.044271
vt 0.054362 0.965820
vt -0.041667 0.549479
vt 0.500000 1.187500
vt 0.041667 0.883854
vt 0.109375 0.826042
vt 0.401042 0.809375
vt 0.609375 0.904688
vt -0.205729 0.986979
vt 0.205729 0.990625
vt -0.351563 0.877344
vt 0.835938 0.786458
vt 1.203130 0.905729
vt 1.135420 0.818229
vt 1.200520 0.963542
vt 0.692708 0.978125
vt -0.289063 0.821354
vt -0.006250 0.056250
vt 0.565547 -0.225664
vt 0.618750 0.068750
vt 0.002206 -0.241235
vt 0.189732 0.879464
vt 0.453125 1.000000
vt 0.368304 0.975446
vt 0.250000 0.825893
vt -0.007813 0.722098
vt 0.321429 0.752232
vt -0.006696 0.651786
vt 0.287946 0.354911
vt -0.008929 0.325893
vt 0.631696 0.419643
vt 0.928125 0.078125
vt 1.098210 0.332589
vt 0.656250 0.868304
vt -0.008929 0.792411
vt 0.633929 0.941964
vt 0.832589 0.953125
vt 0.787946 1.031250
vt 0.642857 1.020090
vt 0.993304 0.796875
vt 1.043460 0.665634
vt 0.755938 0.643838
vt 0.619792 0.317708
vt 0.923462 0.306255
vt 0.753842 0.645717
vt 1.056440 0.668501
vt 0.935288 0.311036
vt 0.635417 0.023438
vt -0.003868 0.115525
vt -0.005454 0.330558
vt 0.515625 0.630208
vt 0.583731 0.931260
vt -0.009453 0.872599
vt -0.007483 0.605517
vt 0.598486 0.931914
vt -0.010845 1.061370
vt -0.002939 -0.010409
vt 0.000243 0.122648
vt 0.537946 -0.060268
vt 0.573661 0.140625
vt -0.002232 -0.075893
vt 0.000243 0.739437
vt 0.359375 0.580357
vt 0.488839 0.767857
vt 0.000243 0.525428
vt 0.734375 0.646875
vt 0.593750 0.433036
vt 0.859375 0.879464
vt 0.971875 0.590625
vt 0.926339 1.002230
vt 0.676339 0.937500
vt 0.895089 0.274554
vt 0.207589 0.321429
vt 0.000243 0.328722
vt 0.335938 0.664063
vt 0.146484 1.050780
vt 0.027344 0.695313
vt 0.384766 1.031250
vt 0.718750 0.605469
vt 0.820313 1.058590
vt 0.934896 -0.109375
vt 0.962891 0.585938
vt 0.630859 -0.156250
vt 0.234375 -0.140625
vt 1.005860 0.921875
vt 1.195310 0.867188
vt 1.359380 0.664063
vt -0.036458 0.229167
vt 0.587509 -0.156250
vt 0.706473 0.803123
vt 0.352526 0.788466
vt 0.754650 0.786465
vt 0.656254 -0.124858
vt 0.894877 1.106250
vt 0.730233 1.089460
vt 0.513750 -0.126429
vt 0.347348 0.773064
vt 0.280425 1.093750
vt 0.252494 1.100000
vt 0.591202 1.098960
vt 0.605100 0.177653
vt 0.623687 0.190974
vt 0.624115 0.463128
vt 0.589205 0.429739
vt 0.638378 0.189380
vt 0.655346 0.201537
vt 0.653907 0.484247
vt 0.622491 0.457332
vt 0.669425 0.199747
vt 0.690316 0.215748
vt 0.680816 0.507871
vt 0.656046 0.485231
vt 0.698741 0.212292
vt 0.722542 0.230196
vt 0.710986 0.532219
vt 0.682766 0.510992
vt 0.736677 0.223185
vt 0.762290 0.225221
vt 0.738161 0.558814
vt 0.710795 0.528265
vt 0.779898 0.222024
vt 0.801953 0.215202
vt 0.760303 0.581154
vt 0.735963 0.546270
vt 0.823953 0.248064
vt 0.852656 0.237726
vt 0.800479 0.624292
vt 0.762377 0.557847
vt 0.876004 0.257042
vt 0.907717 0.253673
vt 0.830066 0.672080
vt 0.801292 0.608706
vt 0.949869 0.250017
vt 0.964609 0.313889
vt 0.852551 0.729846
vt 0.831567 0.666263
vt 0.985643 0.416874
vt 1.000000 0.473380
vt 0.890590 0.714500
vt 0.858625 0.699618
vt 0.376313 0.190974
vt 0.394900 0.177653
vt 0.409858 0.429739
vt 0.375885 0.463129
vt 0.344654 0.201537
vt 0.361622 0.189380
vt 0.377509 0.457332
vt 0.346093 0.484247
vt 0.309684 0.215748
vt 0.330575 0.199747
vt 0.343953 0.485231
vt 0.319184 0.507871
vt 0.277458 0.230196
vt 0.301259 0.212292
vt 0.317234 0.510992
vt 0.289014 0.532219
vt 0.237710 0.225221
vt 0.263323 0.223185
vt 0.289205 0.528265
vt 0.261839 0.558814
vt 0.198047 0.215202
vt 0.220102 0.222024
vt 0.264037 0.546270
vt 0.239697 0.581154
vt 0.147344 0.237726
vt 0.176047 0.248064
vt 0.237623 0.557847
vt 0.199521 0.624292
vt 0.092283 0.253673
vt 0.123996 0.257042
vt 0.198708 0.615028
vt 0.169934 0.672080
vt 0.035391 0.313889
vt 0.050131 0.250017
vt 0.168433 0.666263
vt 0.147449 0.729846
vt 0.000000 0.473380
vt 0.014357 0.416874
vt 0.141375 0.699618
vt 0.109410 0.714501
usemtl mat_0
s 1
f 86/1 84/2 89/3
f 88/4 86/1 89/3
f 101/5 342/6 5/7
f 99/8 101/5 5/7
f 6/7 3/9 7/10
f 8/11 6/7 7/10
f 93/12 86/13 88/14
f 94/15 93/12 88/14
f 343/16 105/17 111/18
f 9/19 343/16 111/18
f 3/20 10/21 11/22
f 7/23 3/20 11/22
f 87/24 100/25 83/2
f 87/24 344/26 100/25
f 92/27 344/26 87/24
f 92/27 106/28 344/26
f 89/3 84/2 97/8
f 98/8 6/7 8/11
f 109/29 93/12 94/15
f 11/22 10/21 110/29
f 5/7 1/30 2/9
f 26/7 1/31 5/30
f 342/6 26/31 5/7
f 24/32 1/30 26/31
f 65/32 1/33 24/30
f 9/19 1/30 65/33
f 4/19 1/9 9/30
f 65/33 343/16 9/19
f 85/1 87/24 83/2
f 85/1 92/27 87/24
f 95/8 100/25 101/5
f 95/8 83/2 100/25
f 106/28 107/18 105/17
f 106/28 92/27 107/18
usemtl mat_1
f 17/34 16/35 53/36
f 55/37 17/34 53/36
f 128/38 171/39 174/40
f 136/41 128/38 174/40
f 235/42 230/43 237/44
f 234/45 235/42 237/44
f 62/46 60/47 59/48
f 76/49 62/46 59/48
f 167/50 142/51 145/52
f 170/53 167/50 145/52
f 12/54 17/34 299/55
f 301/56 12/54 299/55
f 60/47 35/57 292/58
f 293/59 60/47 292/58
f 355/60 353/61 350/62
f 355/60 356/63 353/61
f 363/64 356/63 355/60
f 363/64 371/65 356/63
f 356/63 118/66 353/61
f 356/63 119/67 118/66
f 371/65 119/67 356/63
f 371/65 125/68 119/67
f 164/69 137/70 172/71
f 164/69 138/72 137/70
f 168/73 138/72 164/69
f 168/73 146/74 138/72
f 33/75 28/76 21/77
f 33/75 47/78 28/76
f 32/79 47/78 33/75
f 32/79 69/80 47/78
f 234/45 232/81 235/42
f 249/82 235/42 232/81
f 249/82 248/83 235/42
f 263/84 248/83 249/82
f 263/84 262/85 248/83
f 260/86 346/87 117/88
f 260/86 262/85 346/87
f 247/89 262/85 260/86
f 247/89 248/83 262/85
f 53/36 52/90 55/37
f 153/91 12/54 148/92
f 153/91 34/93 12/54
f 159/94 34/93 153/91
f 159/94 35/57 34/93
f 187/95 186/96 184/97
f 187/95 203/98 186/96
f 187/95 205/99 203/98
f 189/100 205/99 187/95
f 189/100 202/101 205/99
f 280/102 124/103 368/104
f 280/102 279/105 124/103
f 205/99 279/105 280/102
f 205/99 202/101 279/105
f 189/100 187/95 184/97
f 191/106 189/100 184/97
f 203/98 205/99 280/102
f 281/107 203/98 280/102
f 59/48 72/108 76/49
f 82/109 157/110 14/54
f 37/57 158/110 79/111
f 292/58 289/112 293/59
f 299/55 297/113 301/56
f 12/54 16/35 17/34
f 12/54 21/77 16/35
f 34/93 21/77 12/54
f 34/93 33/75 21/77
f 32/79 33/75 34/93
f 34/93 35/57 32/79
f 62/46 32/79 35/57
f 62/46 69/80 32/79
f 67/114 69/80 62/46
f 67/114 68/115 69/80
f 62/46 76/49 67/114
f 60/47 62/46 35/57
f 28/76 16/35 21/77
f 28/76 30/116 16/35
f 29/117 30/116 28/76
f 30/116 53/36 16/35
f 150/118 153/91 148/92
f 150/118 159/94 153/91
f 149/92 154/110 151/118
f 149/92 13/54 154/110
f 136/41 134/119 128/38
f 136/41 350/62 134/119
f 137/70 350/62 136/41
f 137/70 355/60 350/62
f 138/72 355/60 137/70
f 138/72 146/74 355/60
f 363/64 355/60 146/74
f 146/74 145/52 363/64
f 168/73 145/52 146/74
f 168/73 169/53 145/52
f 350/62 347/120 134/119
f 350/62 345/87 347/120
f 353/61 345/87 350/62
f 353/61 118/66 345/87
f 116/88 345/87 118/66
f 136/41 172/71 137/70
f 136/41 173/40 172/71
f 230/43 248/83 247/89
f 230/43 235/42 248/83
f 346/87 263/84 349/120
f 346/87 262/85 263/84
f 56/121 59/48 60/47
f 56/121 125/68 59/48
f 119/67 125/68 56/121
f 56/121 50/122 119/67
f 48/123 119/67 50/122
f 48/123 118/66 119/67
f 55/37 118/66 48/123
f 48/123 17/34 55/37
f 155/110 160/94 152/118
f 155/110 36/57 160/94
f 143/124 145/52 142/51
f 143/124 363/64 145/52
f 364/125 363/64 143/124
f 364/125 367/104 363/64
f 371/65 363/64 367/104
f 367/104 125/68 371/65
f 123/103 125/68 367/104
f 281/107 368/104 366/125
f 281/107 280/102 368/104
f 291/58 77/111 287/112
f 291/58 38/57 77/111
f 78/111 57/121 288/112
f 78/111 51/122 57/121
f 156/110 51/122 78/111
f 156/110 80/109 51/122
f 49/123 51/122 80/109
f 80/109 295/113 49/123
f 298/55 49/123 295/113
f 298/55 18/34 49/123
f 81/109 300/56 296/113
f 81/109 15/54 300/56
f 294/59 58/121 61/47
f 294/59 290/112 58/121
usemtl mat_2
f 20/126 90/127 96/128
f 20/126 108/128 90/127
f 91/127 89/129 97/128
f 91/127 88/130 89/129
f 94/129 88/130 91/127
f 91/127 109/128 94/129
f 8/131 19/126 98/132
f 8/131 7/133 19/126
f 11/131 19/126 7/133
f 11/131 110/132 19/126
usemtl mat_3
f 23/134 342/135 101/136
f 22/137 23/134 101/136
f 343/135 63/134 64/137
f 105/136 343/135 64/137
f 40/138 23/134 39/139
f 40/138 25/140 23/134
f 73/139 25/140 40/138
f 73/139 63/134 25/140
f 101/136 41/141 22/137
f 53/142 41/141 52/143
f 53/142 22/137 41/141
f 30/144 22/137 53/142
f 30/144 42/145 22/137
f 64/137 71/141 105/136
f 64/137 72/143 71/141
f 64/137 76/142 72/143
f 74/145 76/142 64/137
f 74/145 67/144 76/142
f 27/146 23/134 25/140
f 27/146 342/135 23/134
f 39/139 22/137 42/145
f 39/139 23/134 22/137
f 63/134 66/146 25/140
f 63/134 343/135 66/146
f 64/137 73/139 74/145
f 64/137 63/134 73/139
usemtl mat_4
f 361/147 358/148 357/149
f 361/147 360/150 358/148
f 373/149 360/150 361/147
f 373/149 374/148 360/150
f 100/151 41/152 101/153
f 100/151 102/154 41/152
f 103/155 102/154 100/151
f 103/155 114/156 102/154
f 120/157 114/156 103/155
f 120/157 359/158 114/156
f 362/159 359/158 120/157
f 362/159 361/147 359/158
f 375/158 361/147 362/159
f 375/158 373/149 361/147
f 372/160 373/149 375/158
f 372/160 370/161 373/149
f 369/162 370/161 372/160
f 372/160 121/163 369/162
f 122/156 121/163 372/160
f 122/156 112/154 121/163
f 103/155 112/154 122/156
f 103/155 106/151 112/154
f 344/164 106/151 103/155
f 103/155 100/151 344/164
f 375/158 122/156 372/160
f 375/158 120/157 122/156
f 362/159 120/157 375/158
f 122/156 120/157 103/155
f 357/149 359/158 361/147
f 357/149 354/160 359/158
f 352/161 354/160 357/149
f 352/161 351/162 354/160
f 115/163 354/160 351/162
f 115/163 114/156 354/160
f 102/154 114/156 115/163
f 115/163 104/165 102/154
f 118/166 104/165 115/163
f 118/166 55/167 104/165
f 52/168 104/165 55/167
f 52/168 41/152 104/165
f 102/154 104/165 41/152
f 359/158 354/160 114/156
f 116/169 115/163 351/162
f 116/169 118/166 115/163
f 121/163 123/169 369/162
f 121/163 125/166 123/169
f 113/165 125/166 121/163
f 113/165 59/167 125/166
f 72/168 59/167 113/165
f 113/165 71/152 72/168
f 112/154 71/152 113/165
f 112/154 106/151 71/152
f 105/153 71/152 106/151
f 113/165 121/163 112/154
usemtl mat_5
f 30/170 29/171 43/172
f 42/173 30/170 43/172
f 68/174 67/175 74/176
f 75/172 68/174 74/176
f 43/172 39/177 42/173
f 43/172 46/178 39/177
f 45/179 46/178 43/172
f 45/179 75/172 46/178
f 70/180 75/172 45/179
f 70/180 68/174 75/172
f 69/181 68/174 70/180
f 70/180 44/182 69/181
f 54/183 44/182 70/180
f 54/183 31/180 44/182
f 45/179 31/180 54/183
f 45/179 43/172 31/180
f 29/171 31/180 43/172
f 29/171 28/184 31/180
f 44/182 31/180 28/184
f 28/184 47/185 44/182
f 69/181 44/182 47/185
f 70/180 45/179 54/183
f 46/178 40/186 39/177
f 46/178 73/177 40/186
f 75/172 73/177 46/178
f 75/172 74/176 73/177
usemtl mat_6
f 135/187 171/188 128/189
f 135/187 161/190 171/188
f 142/189 161/190 135/187
f 142/189 167/188 161/190
f 360/191 139/192 358/193
f 360/191 131/194 139/192
f 374/193 131/194 360/191
f 374/193 147/192 131/194
f 144/195 147/192 374/193
f 144/195 141/196 147/192
f 129/196 133/195 358/193
f 139/192 129/196 358/193
f 352/197 347/198 351/199
f 352/197 133/195 347/198
f 357/200 133/195 352/197
f 357/200 358/193 133/195
f 133/195 134/201 347/198
f 133/195 129/196 134/201
f 128/189 134/201 129/196
f 129/196 130/202 128/189
f 139/192 130/202 129/196
f 139/192 131/194 130/202
f 132/203 130/202 131/194
f 132/203 135/187 130/202
f 140/202 135/187 132/203
f 140/202 142/189 135/187
f 141/196 142/189 140/202
f 141/196 143/201 142/189
f 144/195 143/201 141/196
f 144/195 364/198 143/201
f 370/197 364/198 144/195
f 370/197 369/199 364/198
f 130/202 135/187 128/189
f 131/194 140/202 132/203
f 131/194 147/192 140/202
f 141/196 140/202 147/192
f 144/195 373/200 370/197
f 144/195 374/193 373/200
usemtl mat_7
f 261/204 116/205 351/206
f 261/204 259/207 116/205
f 251/208 259/207 261/204
f 251/208 246/209 259/207
f 251/208 231/210 228/211
f 251/208 250/212 231/210
f 261/204 250/212 251/208
f 261/204 264/213 250/212
f 278/207 369/206 123/205
f 278/207 277/204 369/206
f 201/209 277/204 278/207
f 201/209 200/208 277/204
f 204/212 182/211 185/210
f 204/212 200/208 182/211
f 282/213 200/208 204/212
f 282/213 277/204 200/208
f 201/209 182/211 200/208
f 201/209 188/214 182/211
f 190/215 182/211 188/214
f 190/215 183/216 182/211
f 185/210 182/211 183/216
f 233/216 228/211 231/210
f 233/216 236/215 228/211
f 229/214 228/211 236/215
f 229/214 246/209 228/211
f 251/208 228/211 246/209
f 348/217 261/204 351/206
f 348/217 264/213 261/204
f 277/204 365/217 369/206
f 277/204 282/213 365/217
usemtl mat_8
f 220/218 215/219 216/220
f 218/221 221/218 224/222
f 218/221 215/219 221/218
f 174/223 215/219 218/221
f 174/223 171/224 215/219
f 217/220 226/225 222/218
f 217/220 214/226 226/225
f 162/227 214/226 217/220
f 162/227 165/228 214/226
f 225/222 223/218 227/225
f 161/227 216/220 215/219
f 171/224 161/227 215/219
f 225/222 227/225 213/226
f 219/221 225/222 213/226
f 276/225 274/222 181/221
f 175/226 276/225 181/221
f 177/220 179/219 269/218
f 179/219 273/222 270/218
f 179/219 180/221 273/222
f 167/224 180/221 179/219
f 167/224 170/223 180/221
f 176/226 271/218 275/225
f 176/226 178/220 271/218
f 166/228 178/220 176/226
f 166/228 163/227 178/220
f 276/225 272/218 274/222
f 177/220 161/227 167/224
f 179/219 177/220 167/224
f 172/229 213/226 164/228
f 172/229 219/221 213/226
f 173/223 219/221 172/229
f 175/226 168/229 164/228
f 175/226 181/221 168/229
f 169/223 168/229 181/221
usemtl mat_9
f 302/230 303/231 265/232
f 126/233 302/230 265/232
f 304/234 305/235 267/236
f 266/237 304/234 267/236
f 306/238 307/239 252/240
f 268/241 306/238 252/240
f 308/242 309/243 254/244
f 253/245 308/242 254/244
f 310/246 311/247 256/248
f 255/249 310/246 256/248
f 312/250 313/251 258/252
f 257/253 312/250 258/252
f 314/254 315/255 239/256
f 238/257 314/254 239/256
f 316/258 317/259 241/260
f 240/261 316/258 241/260
f 318/262 319/263 243/264
f 242/265 318/262 243/264
f 320/266 321/267 245/268
f 244/269 320/266 245/268
f 322/270 323/271 127/272
f 283/273 322/270 127/272
f 324/274 325/275 285/276
f 284/277 324/274 285/276
f 326/278 327/279 286/280
f 206/281 326/278 286/280
f 328/282 329/283 208/284
f 207/285 328/282 208/284
f 330/286 331/287 210/288
f 209/289 330/286 210/288
f 332/290 333/291 212/292
f 211/293 332/290 212/292
f 334/294 335/295 193/296
f 192/297 334/294 193/296
f 336/298 337/299 195/300
f 194/301 336/298 195/300
f 338/302 339/303 197/304
f 196/305 338/302 197/304
f 340/306 341/307 199/308
f 198/309 340/306 199/308
