# Blender v2.66 (sub 1) OBJ File: 'BR_Pupitar.blend'
# www.blender.org
mtllib BR_Pupitar.mtl
o sanagiras
v 0.664694 -0.863344 -0.741663
v 0.000000 -1.680780 -0.000393
v 0.987021 -1.355260 -0.901886
v 0.664694 -1.932810 -1.172360
v 0.000000 -2.269610 -1.271560
v 0.000000 -0.567296 -0.653839
v -0.664695 -1.932810 -1.172360
v -0.987022 -1.355260 -0.901886
v -0.664695 -0.863344 -0.741663
v 0.000000 -2.553560 -2.298310
v 1.017330 -2.042290 -2.143280
v 1.017330 -0.166598 -1.543140
v 0.000000 0.199171 -1.433410
v 1.510660 -1.044450 -1.843940
v -1.510660 -1.044450 -1.843940
v -1.017330 -2.042290 -2.143280
v -1.017330 -0.166598 -1.543140
v -2.290550 -0.670089 -3.298740
v -1.587910 -2.293230 -3.766040
v -1.902640 -1.160190 -2.523580
v 1.902640 -1.160190 -2.523580
v 1.587910 -2.293230 -3.766040
v 2.290550 -0.670089 -3.298740
v 2.099630 -0.761179 -2.810820
v 2.099630 -0.761179 -2.810820
v 2.099630 -0.761179 -2.810820
v 1.796970 -0.593508 -2.252710
v 1.796970 -0.593508 -2.252710
v -1.796970 -0.593508 -2.252710
v -1.796970 -0.593508 -2.252710
v -1.587910 0.795864 -2.863100
v -1.336520 0.388286 -2.055510
v 1.587910 0.795864 -2.863100
v 1.336520 0.388286 -2.055510
v -1.608940 -1.034980 -1.890610
v -1.608940 -1.034980 -1.890610
v 1.608940 -1.034980 -1.890610
v 1.608940 -1.034980 -1.890610
v -2.390520 -1.136480 -2.193010
v -2.537150 -0.826428 -2.452950
v -2.537150 -0.826428 -2.452950
v -2.099630 -0.761179 -2.810820
v -2.099630 -0.761179 -2.810820
v -2.099630 -0.761179 -2.810820
v 2.537150 -0.826428 -2.452950
v 2.537150 -0.826428 -2.452950
v 2.390520 -1.136480 -2.193010
v 2.376340 -0.716380 -2.064480
v 1.083510 -0.099684 -1.572580
v 0.000000 0.289880 -1.455710
v 0.000000 0.774482 -1.911450
v -1.083510 -0.099684 -1.572580
v 0.000000 -2.635900 -2.372530
v -1.083510 -2.097740 -2.209430
v -1.336520 -2.201300 -2.835910
v 0.000000 -2.831960 -2.998890
v 1.083510 -2.097740 -2.209430
v 1.336520 -2.201300 -2.835910
v 0.000000 -2.957720 -3.959590
v 0.000000 1.356680 -2.693550
v 2.879560 -0.957062 -1.996540
v 2.879560 -0.957062 -1.996540
v 2.865170 -1.017590 -1.749330
v 2.865170 -1.017590 -1.749330
v 2.161780 -1.052340 -1.696690
v 2.161780 -1.052340 -1.696690
v -2.161780 -1.052340 -1.696690
v -2.161780 -1.052340 -1.696690
v -2.376340 -0.716380 -2.064480
v -2.865170 -1.017590 -1.749330
v -2.865170 -1.017590 -1.749330
v -2.879560 -0.957062 -1.996540
v -2.879560 -0.957062 -1.996540
v 2.495090 -0.428797 -4.246190
v 1.764290 1.175230 -3.755320
v 1.764300 -2.226730 -4.889600
v 0.000000 -2.963380 -5.155540
v 0.000000 1.949610 -3.547590
v -1.764290 1.175230 -3.755320
v -2.495090 -0.428797 -4.246190
v -1.764300 -2.226730 -4.889600
v -1.009480 1.587490 -9.066540
v -1.009480 1.587490 -9.066540
v -1.009480 1.587490 -9.066540
v -1.009480 1.587490 -9.066540
v -0.423881 1.045510 -9.771870
v -1.784550 0.286560 -8.971700
v -1.784550 0.286560 -8.971700
v 0.000000 -0.373934 -11.578000
v 0.000000 -0.373934 -11.578000
v 0.000000 -0.373934 -11.578000
v 0.000000 -0.320130 -10.087500
v 0.000000 -0.320130 -10.087500
v 0.000000 -0.320130 -10.087500
v -0.298967 -0.045736 -10.069300
v -0.049221 -0.282963 -11.571700
v -0.338752 0.316163 -10.127600
v -0.135722 0.607527 -10.283000
v -0.450356 1.239300 -10.020800
v -0.450356 1.239300 -10.020800
v -0.450356 1.239300 -10.020800
v -0.450356 1.239300 -10.020800
v -0.713327 0.346234 -9.831650
v -0.225178 0.852085 -9.982240
v -0.593324 -0.343506 -9.834020
v 0.000000 -0.873319 -9.835380
v -2.211960 0.954029 -4.687590
v -2.211960 0.954029 -4.687590
v -2.211960 0.954029 -4.687590
v -2.211960 0.954029 -4.687590
v -2.211960 0.954029 -4.687590
v -1.823450 1.245770 -3.762590
v -0.936819 2.174740 -4.354190
v -0.936819 2.174740 -4.354190
v 2.211960 0.954029 -4.687590
v 2.211960 0.954029 -4.687590
v 2.211960 0.954029 -4.687590
v 2.211960 0.954029 -4.687590
v 2.211960 0.954029 -4.687590
v 1.823450 1.245770 -3.762590
v 2.578750 -0.409978 -4.269550
v -0.644014 3.020690 -6.115070
v -0.644014 3.020690 -6.115070
v -0.912890 2.764500 -5.644470
v -0.912890 2.764500 -5.644470
v -0.186254 3.023280 -5.452290
v -0.186254 3.023280 -5.452290
v 0.186254 3.023280 -5.452290
v 0.186254 3.023280 -5.452290
v 0.912890 2.764500 -5.644470
v 0.912890 2.764500 -5.644470
v 0.644014 3.020690 -6.115070
v 0.644014 3.020690 -6.115070
v 0.000000 2.874250 -5.438070
v 0.936819 2.174740 -4.354190
v 0.936819 2.174740 -4.354190
v 1.134900 2.348150 -4.249640
v 1.134900 2.348150 -4.249640
v -1.134900 2.348150 -4.249640
v -1.134900 2.348150 -4.249640
v -2.723460 -0.121709 -8.642780
v -2.723460 -0.121709 -8.642780
v -2.973410 0.550589 -8.330510
v -2.620200 0.684024 -8.734090
v -2.611370 -1.381680 -11.034700
v -2.578750 -0.409978 -4.269550
v 0.000000 2.041280 -3.548230
v -1.823450 -2.267740 -4.934500
v 0.000000 -3.029080 -5.209360
v -2.862200 -0.123304 -5.713490
v -2.862200 -0.123304 -5.713490
v -2.023880 -2.062810 -6.163080
v 0.000000 -2.882740 -6.526530
v -1.823450 -1.761360 -7.631620
v 0.000000 -2.567240 -7.687540
v -2.578760 0.184197 -7.496610
v -2.578760 0.184197 -7.496610
v 0.052086 1.293220 -12.113400
v -0.052086 1.293220 -12.113400
v 0.000000 2.419830 -9.182340
v -1.261870 -1.118450 -8.999930
v 0.000000 -1.822450 -8.981960
v -0.535757 2.454340 -8.791340
v 0.000000 2.719980 -7.640900
v 0.000000 2.719980 -7.640900
v 0.000000 2.719980 -7.640900
v 0.000000 2.719980 -7.640900
v 0.000000 2.719980 -7.640900
v -1.476780 1.344920 -10.599300
v -1.573720 1.112750 -10.787200
v -1.573720 1.112750 -10.787200
v -1.573720 1.112750 -10.787200
v -1.787440 1.140950 -10.528500
v -1.787440 1.140950 -10.528500
v -1.584040 1.354590 -10.472700
v -0.135510 2.399250 -9.183770
v -0.156259 1.043710 -12.315400
v -0.156259 1.043710 -12.315400
v -0.156259 1.043710 -12.315400
v -2.261990 -1.221430 -11.138700
v -2.261990 -1.221430 -11.138700
v -2.261990 -1.221430 -11.138700
v -1.601690 0.911321 -10.031200
v -1.601690 0.911321 -10.031200
v 1.601690 0.911321 -10.031200
v 1.601690 0.911321 -10.031200
v 2.611370 -1.381680 -11.034700
v 2.261990 -1.221430 -11.138700
v 2.261990 -1.221430 -11.138700
v 2.261990 -1.221430 -11.138700
v 2.620200 0.684024 -8.734090
v 2.723460 -0.121709 -8.642780
v 2.723460 -0.121709 -8.642780
v -3.363420 0.072769 -6.626170
v -4.801190 -2.333870 -8.652700
v -4.841320 -2.896760 -8.507340
v -4.841320 -2.896760 -8.507340
v 4.841320 -2.896760 -8.507340
v 4.841320 -2.896760 -8.507340
v 4.801190 -2.333870 -8.652700
v 3.363420 0.072769 -6.626170
v 3.334200 0.391260 -7.861650
v 2.197030 1.967220 -7.384830
v 2.197030 1.967220 -7.384830
v 2.973410 0.550589 -8.330510
v -3.334200 0.391260 -7.861650
v -2.197030 1.967220 -7.384830
v -2.197030 1.967220 -7.384830
v -2.095610 2.103170 -7.519530
v -2.095610 2.103170 -7.519530
v -2.095610 2.103170 -7.519530
v -2.327180 1.140730 -8.828780
v 2.327180 1.140730 -8.828780
v 2.095610 2.103170 -7.519530
v 2.095610 2.103170 -7.519530
v 2.095610 2.103170 -7.519530
v 0.693811 2.899230 -7.698060
v 0.693811 2.899230 -7.698060
v 1.256830 2.325990 -8.432940
v 1.256830 2.325990 -8.432940
v 1.056060 1.923820 -9.112460
v 1.056060 1.923820 -9.112460
v -0.693811 2.899230 -7.698060
v -0.693811 2.899230 -7.698060
v 0.000000 3.153100 -7.536970
v 0.000000 3.153100 -7.536970
v 0.000000 3.153100 -7.536970
v -1.056060 1.923820 -9.112460
v -1.056060 1.923820 -9.112460
v -0.611855 3.113610 -6.545780
v -0.611855 3.113610 -6.545780
v -0.611855 3.113610 -6.545780
v 0.000000 3.129160 -5.545690
v 0.000000 3.129160 -5.545690
v 0.611855 3.113610 -6.545780
v 0.611855 3.113610 -6.545780
v 0.611855 3.113610 -6.545780
v 0.000000 3.282800 -6.774140
v 2.452670 -1.619080 -10.996400
v 2.452670 -1.619080 -10.996400
v 2.452670 -1.619080 -10.996400
v 1.408690 0.749388 -9.872970
v -2.452670 -1.619080 -10.996400
v -2.452670 -1.619080 -10.996400
v -2.452670 -1.619080 -10.996400
v 0.135510 2.399250 -9.183770
v -2.787180 -0.118587 -4.328370
v -2.787180 -0.118587 -4.328370
v -3.321220 -0.676875 -5.775560
v -3.321220 -0.676875 -5.775560
v -3.135460 -0.485154 -6.430930
v -3.135460 -0.485154 -6.430930
v -3.051900 0.577742 -5.655170
v -2.304520 1.907350 -6.543310
v -2.304520 1.907350 -6.543310
v 2.304520 1.907350 -6.543310
v 2.304520 1.907350 -6.543310
v -3.451620 -0.006982 -5.983410
v 3.451620 -0.006982 -5.983410
v 3.321220 -0.676875 -5.775560
v 3.321220 -0.676875 -5.775560
v 3.135460 -0.485154 -6.430930
v 3.135460 -0.485154 -6.430930
v -3.739410 -1.618810 -3.984070
v -3.739410 -1.618810 -3.984070
v -3.594010 -1.488870 -3.633660
v -3.594010 -1.488870 -3.633660
v -3.800400 -1.229250 -4.003090
v 3.739410 -1.618810 -3.984070
v 3.739410 -1.618810 -3.984070
v 3.800400 -1.229250 -4.003090
v -4.654530 -2.848960 -8.872560
v -4.654530 -2.848960 -8.872560
v 0.049220 -0.282963 -11.571700
v 0.000000 2.540100 -8.785390
v 0.000000 0.669118 -10.351100
v 0.000000 1.151840 -10.026900
v 0.000000 1.052650 -9.874760
v 0.000000 1.052650 -9.874760
v 0.000000 0.859225 -10.085100
v 0.156259 1.043710 -12.315400
v 0.156259 1.043710 -12.315400
v 0.156259 1.043710 -12.315400
v 0.000000 0.964255 -12.362200
v 0.000000 0.964255 -12.362200
v 0.450356 1.239300 -10.020800
v 0.450356 1.239300 -10.020800
v 0.450356 1.239300 -10.020800
v 0.450356 1.239300 -10.020800
v 0.225178 0.852085 -9.982240
v 0.135722 0.607527 -10.283000
v 0.423881 1.045510 -9.771870
v 0.535757 2.454340 -8.791340
v -2.234980 2.008720 -6.090030
v -2.234980 2.008720 -6.090030
v 2.234980 2.008720 -6.090030
v 2.234980 2.008720 -6.090030
v 2.451360 1.149350 -4.867790
v 2.451360 1.149350 -4.867790
v 3.051900 0.577742 -5.655170
v -3.014630 0.277307 -4.639050
v 3.014630 0.277307 -4.639050
v 1.435780 2.600650 -6.608940
v 2.087630 1.825570 -7.390590
v 2.087630 1.825570 -7.390590
v 2.030890 1.930250 -7.507730
v 2.030890 1.930250 -7.507730
v 2.030890 1.930250 -7.507730
v -1.479960 2.528770 -5.468820
v -1.479960 2.528770 -5.468820
v 1.861560 1.031240 -3.110400
v 1.861560 1.031240 -3.110400
v 1.861560 1.031240 -3.110400
v 1.479960 2.528770 -5.468820
v 1.479960 2.528770 -5.468820
v -2.030890 1.930250 -7.507730
v -2.030890 1.930250 -7.507730
v -2.030890 1.930250 -7.507730
v -2.087630 1.825570 -7.390590
v -2.087630 1.825570 -7.390590
v -1.435780 2.600650 -6.608940
v 2.123700 1.846020 -6.101320
v 2.123700 1.846020 -6.101320
v 2.189770 1.752290 -6.554070
v 2.189770 1.752290 -6.554070
v 1.787630 2.041330 -5.761990
v 1.787630 2.041330 -5.761990
v 0.636330 2.812210 -6.630250
v 0.636330 2.812210 -6.630250
v 0.636330 2.812210 -6.630250
v 0.728015 2.720890 -6.135880
v 0.728015 2.720890 -6.135880
v 1.019460 2.371830 -5.685220
v 1.019460 2.371830 -5.685220
v 1.247850 2.563330 -7.037410
v 1.247850 2.563330 -7.037410
v -0.728015 2.720890 -6.135880
v -0.728015 2.720890 -6.135880
v -0.636330 2.812210 -6.630250
v -0.636330 2.812210 -6.630250
v -0.636330 2.812210 -6.630250
v -2.189770 1.752290 -6.554070
v -2.189770 1.752290 -6.554070
v -2.123700 1.846020 -6.101320
v -2.123700 1.846020 -6.101320
v -1.787630 2.041330 -5.761990
v -1.787630 2.041330 -5.761990
v 1.584040 1.354590 -10.472700
v 1.476780 1.344920 -10.599300
v 0.713327 0.346234 -9.831650
v 1.784550 0.286560 -8.971700
v 1.784550 0.286560 -8.971700
v 1.573720 1.112750 -10.787200
v 1.573720 1.112750 -10.787200
v 1.573720 1.112750 -10.787200
v 1.787440 1.140950 -10.528500
v 1.787440 1.140950 -10.528500
v 1.009480 1.587490 -9.066540
v 1.009480 1.587490 -9.066540
v 1.009480 1.587490 -9.066540
v 1.009480 1.587490 -9.066540
v 1.261870 -1.118450 -8.999930
v 0.593324 -0.343506 -9.834020
v 2.578760 0.184197 -7.496610
v 2.578760 0.184197 -7.496610
v 1.823450 -1.761360 -7.631620
v 2.862200 -0.123304 -5.713490
v 2.862200 -0.123304 -5.713490
v 2.023880 -2.062810 -6.163080
v 1.823450 -2.267740 -4.934500
v -1.477570 2.188150 -5.615970
v -1.477570 2.188150 -5.615970
v -1.019460 2.371830 -5.685220
v -1.019460 2.371830 -5.685220
v -1.428940 2.264260 -8.401700
v -1.428940 2.264260 -8.401700
v -1.874800 2.175720 -7.920930
v -1.874800 2.175720 -7.920930
v -1.874800 2.175720 -7.920930
v 1.428940 2.264260 -8.401700
v 1.428940 2.264260 -8.401700
v 1.428940 2.264260 -8.401700
v 0.298966 -0.045736 -10.069300
v 0.338752 0.316163 -10.127600
v 1.874800 2.175720 -7.920930
v 1.874800 2.175720 -7.920930
v 1.874800 2.175720 -7.920930
v 2.787180 -0.118587 -4.328370
v 2.787180 -0.118587 -4.328370
v 1.252700 2.761560 -7.016270
v 1.252700 2.761560 -7.016270
v 1.199030 2.783970 -7.406830
v 1.199030 2.783970 -7.406830
v 0.673679 3.091480 -7.006540
v 0.673679 3.091480 -7.006540
v 0.673679 3.091480 -7.006540
v 1.199030 2.493040 -7.427020
v 1.199030 2.493040 -7.427020
v 0.673679 2.791680 -7.027350
v 0.673679 2.791680 -7.027350
v 0.673679 2.791680 -7.027350
v 1.277370 2.238260 -8.319170
v 0.707687 2.687230 -7.645620
v 0.628973 2.714540 -7.396930
v 0.628973 2.714540 -7.396930
v -0.707687 2.687230 -7.645620
v -1.277370 2.238260 -8.319170
v -1.199030 2.493040 -7.427020
v -1.199030 2.493040 -7.427020
v -0.673679 2.791680 -7.027350
v -0.673679 2.791680 -7.027350
v -0.673679 2.791680 -7.027350
v -0.628973 2.714540 -7.396930
v -0.628973 2.714540 -7.396930
v -1.199030 2.783970 -7.406830
v -1.199030 2.783970 -7.406830
v -0.673679 3.091480 -7.006540
v -0.673679 3.091480 -7.006540
v -0.673679 3.091480 -7.006540
v -1.252700 2.761560 -7.016270
v -1.252700 2.761560 -7.016270
v -1.247850 2.563330 -7.037410
v -1.247850 2.563330 -7.037410
v 3.594010 -1.488870 -3.633660
v 3.594010 -1.488870 -3.633660
v 4.654530 -2.848960 -8.872560
v 4.654530 -2.848960 -8.872560
v 1.778830 0.832881 -3.086950
v 1.778830 0.832881 -3.086950
v 1.778830 0.832881 -3.086950
v 0.616640 3.012450 -7.435770
v 0.616640 3.012450 -7.435770
v 1.798880 2.055520 -7.929280
v 1.798880 2.055520 -7.929280
v 1.798880 2.055520 -7.929280
v 1.477570 2.188150 -5.615970
v 1.477570 2.188150 -5.615970
v 1.843680 2.220390 -5.644040
v 1.843680 2.220390 -5.644040
v 1.466960 2.093100 -8.351040
v 1.466960 2.093100 -8.351040
v 1.466960 2.093100 -8.351040
v -2.451360 1.149350 -4.867790
v -2.451360 1.149350 -4.867790
v -1.861560 1.031240 -3.110400
v -1.861560 1.031240 -3.110400
v -1.861560 1.031240 -3.110400
v -1.843680 2.220390 -5.644040
v -1.843680 2.220390 -5.644040
v -0.616640 3.012450 -7.435770
v -0.616640 3.012450 -7.435770
v -1.256830 2.325990 -8.432940
v -1.256830 2.325990 -8.432940
v -1.408690 0.749388 -9.872970
v -1.452290 2.169880 -8.289850
v -1.798880 2.055520 -7.929280
v -1.798880 2.055520 -7.929280
v -1.798880 2.055520 -7.929280
v -1.778830 0.832881 -3.086950
v -1.778830 0.832881 -3.086950
v -1.778830 0.832881 -3.086950
vt 0.222656 0.078125
vt 0.503906 0.472656
vt 0.503906 0.078125
vt 0.347656 0.472656
vt 0.000000 0.078125
vt 0.230469 0.472656
vt 0.753906 0.078125
vt 0.660156 0.472656
vt 1.000000 0.078125
vt 0.777344 0.472656
vt 0.503906 0.394531
vt 0.253906 0.550781
vt 0.503906 0.550781
vt 0.191406 0.394531
vt 0.503906 0.113281
vt 0.191406 0.113281
vt 0.503906 0.582031
vt 0.285156 0.582031
vt -0.683594 -0.089844
vt -0.777344 -0.027344
vt -0.777344 -0.089844
vt -0.683594 -0.027344
vt -0.496094 -0.089844
vt -0.496094 -0.027344
vt -0.308594 -0.089844
vt -0.308594 -0.027344
vt -0.214844 -0.089844
vt -0.214844 -0.027344
vt 0.035156 0.394531
vt 0.035156 0.113281
vt 0.816406 0.394531
vt 0.753906 0.550781
vt 0.816406 0.113281
vt 0.722656 0.582031
vt 0.972656 0.113281
vt 0.972656 0.394531
vt 0.712731 0.198537
vt 0.738480 0.503431
vt 0.645783 0.224973
vt 0.809548 0.503431
vt 0.766289 0.142141
vt 0.874436 0.503431
vt 0.646813 0.501668
vt 0.693161 0.503431
vt 0.590479 0.094462
vt 0.738642 0.015028
vt 0.719547 0.006207
vt 0.608004 0.120162
vt 0.364419 0.154549
vt 0.390011 0.165714
vt -1.031250 -0.183594
vt -0.808594 -0.031250
vt -0.808594 -0.183594
vt -1.031250 -0.031250
vt -0.527344 -0.183594
vt -0.527344 -0.031250
vt -0.246094 -0.183594
vt -0.246094 -0.031250
vt -0.031250 -0.183594
vt -0.031250 -0.031250
vt 0.441395 0.030909
vt 0.288420 0.757201
vt 0.285581 0.418754
vt 0.418404 0.737775
vt 0.565062 0.053525
vt 0.551973 0.618113
vt 0.798188 0.101748
vt 0.716255 0.030177
vt 0.650510 0.031161
vt 0.778082 0.096458
vt 0.524223 0.097070
vt 0.464718 0.231958
vt 0.433327 0.229167
vt 0.331564 0.439294
vt 0.770972 0.256100
vt 0.800097 0.256100
vt 0.813403 0.348950
vt 0.772975 0.337026
vt 0.172927 0.074009
vt 0.221296 0.331195
vt 0.084818 0.294786
vt 0.108887 0.346781
vt 0.713740 0.054982
vt 0.688012 0.119230
vt 0.704491 0.105131
vt 0.913121 0.044079
vt 0.912037 0.019710
vt 0.432764 0.090839
vt 0.264726 0.063174
vt 0.331930 0.114933
vt 0.393187 0.049980
vt 0.613279 0.141539
vt 0.582821 0.099909
vt 0.955374 0.166112
vt 0.963585 0.093848
vt 1.036230 0.093848
vt 0.884882 0.166112
vt 0.731780 0.102818
vt 0.630581 0.059637
vt 0.687353 0.189251
vt 0.506052 0.225249
vt 0.211886 0.363078
vt 0.227946 0.492263
vt 0.505365 0.134527
vt 0.627136 0.152441
vt 0.658777 0.091762
vt 0.272052 -0.098165
vt 0.928050 0.210368
vt 1.009990 0.174653
vt 0.938797 0.163305
vt 0.978297 0.223172
vt 0.808514 0.332869
vt 0.827766 0.355725
vt 0.228387 0.409384
vt 0.286549 0.402181
vt 0.208307 0.321027
vt 0.311281 0.457635
vt 0.309077 0.444750
vt 0.358110 0.462078
vt 0.408234 0.404513
vt 0.439901 0.439247
vt 0.487928 0.337764
vt 0.518110 0.370868
vt 0.589915 0.157480
vt 0.616938 0.188527
vt 0.224070 0.169600
vt 0.282421 0.233602
vt 0.792514 0.326372
vt 0.815204 0.583267
vt 0.872091 0.481285
vt 0.827066 0.570824
vt 0.184795 0.583267
vt 0.127909 0.481285
vt 0.172934 0.570824
vt 0.691406 0.441406
vt 0.503906 0.128906
vt 0.910156 0.128906
vt 0.503906 0.441406
vt 0.378906 0.441406
vt 0.160156 0.128906
vt 0.755439 0.010677
vt 0.615326 0.525050
vt 0.660242 0.507964
vt 0.500000 1.152630
vt 0.500000 0.079627
vt 0.316406 0.628906
vt 0.270252 0.052793
vt 0.503906 0.628906
vt 0.729748 0.052793
vt 0.691406 0.628906
vt 0.500000 0.072745
vt 0.729748 0.048261
vt 0.270251 0.048261
vt 0.172934 0.048741
vt 0.222656 0.628906
vt 0.785156 0.628906
vt 0.827066 0.048740
vt 0.503906 -0.121094
vt 0.222656 0.566406
vt 0.191406 -0.121094
vt 0.503906 0.566406
vt 0.816406 -0.121094
vt 0.785156 0.566406
vt 1.000000 -0.121094
vt 1.000000 0.566406
vt 0.000000 0.566406
vt 0.000000 -0.121094
vt 0.436794 0.438321
vt 0.460352 0.566776
vt 0.295665 0.411300
vt 0.367198 0.453711
vt 0.348606 0.143342
vt 0.280348 0.178470
vt 0.815204 0.080568
vt 0.184795 0.080569
vt 0.007475 0.546973
vt 0.091504 0.290095
vt 0.128387 0.606811
vt 0.000000 0.454766
vt 0.063861 -0.038746
vt 0.089067 0.289900
vt 0.908495 0.290095
vt 0.992525 0.546972
vt 0.871613 0.606811
vt 1.000000 0.454765
vt 0.936139 -0.038746
vt 0.910933 0.289900
vt 0.436634 0.072336
vt 0.449634 0.435571
vt 0.694226 0.323748
vt 0.367910 0.328671
vt 0.392755 0.455006
vt 0.295665 0.372238
vt 0.265280 0.442089
vt 0.128906 -0.089844
vt 0.285156 -0.089844
vt 0.503906 -0.652344
vt 0.691406 -0.089844
vt 0.878906 -0.089844
vt 0.298375 0.331737
vt 0.375705 0.662338
vt 0.000000 0.241197
vt 0.361396 0.480779
vt 0.265280 0.481151
vt 0.265689 0.214004
vt 0.266330 0.279525
vt -0.006041 0.171792
vt 0.890625 0.846850
vt 0.890625 0.130555
vt 0.812024 0.130683
vt 0.801564 0.143559
vt 0.877684 0.846850
vt 0.237505 0.387130
vt 0.184579 0.313661
vt 0.241239 0.576186
vt 0.256252 0.812806
vt 0.469821 0.406599
vt 0.435554 0.536928
vt 0.308806 0.701318
vt 0.398858 0.403570
vt 0.274998 0.812806
vt 0.290011 0.576186
vt 0.346671 0.313661
vt 0.293745 0.387130
vt 0.903565 0.846850
vt 0.979686 0.143559
vt 0.969226 0.130683
vt 0.697423 0.552401
vt 0.605658 0.795063
vt 0.651691 0.472998
vt 0.742187 0.451620
vt 0.908313 0.295648
vt 0.910734 0.239667
vt 1.002230 0.491473
vt 0.953169 0.607624
vt 0.783851 0.097685
vt 0.890625 0.085676
vt 0.997399 0.097685
vt 0.808694 0.520041
vt 0.888150 0.842031
vt 0.562478 -0.025608
vt 0.890625 -0.084274
vt 0.526409 -0.129848
vt 0.890625 -0.025608
vt 0.663540 0.043817
vt 0.890625 0.033882
vt 0.169211 0.018414
vt 0.083960 0.050384
vt 0.265625 -0.056122
vt -0.032604 0.333425
vt 0.023302 0.767936
vt 0.005858 0.371603
vt 0.004001 0.749211
vt 0.897392 0.364614
vt 0.371448 0.379085
vt 0.265625 0.393279
vt 0.554823 0.767936
vt 0.362039 0.018414
vt 0.574124 0.749211
vt 0.572267 0.371603
vt 0.610729 0.333425
vt 0.447290 0.050384
vt 1.218770 -0.025608
vt 1.117710 0.043817
vt 1.254840 -0.129847
vt -0.022509 0.120109
vt -0.152145 0.134407
vt -0.042476 -0.077331
vt 0.836877 0.387105
vt 0.854943 0.170691
vt 0.890625 0.219530
vt 0.926307 0.170691
vt 0.895226 0.107650
vt 0.995666 0.016374
vt 0.829874 0.140542
vt 0.881342 0.526714
vt 0.751717 0.149300
vt 0.680022 0.148584
vt 0.598137 0.153055
vt 0.596390 0.580340
vt 0.534480 0.484474
vt 0.622100 0.476563
vt 0.459925 0.223600
vt 0.349957 0.557685
vt 0.424095 0.202517
vt 0.289923 0.434840
vt 0.030530 0.767241
vt 0.389466 0.164004
vt 0.377115 0.113124
vt 0.278221 0.128366
vt 0.392532 0.077641
vt 0.523509 0.414635
vt 0.290136 0.531681
vt 0.265625 0.576186
vt 0.265625 0.018414
vt -0.111111 1.002310
vt -0.083333 0.952932
vt 0.312500 1.003860
vt -0.052083 1.033950
vt 0.385417 1.119600
vt 0.756944 1.067130
vt 0.555556 1.121910
vt 0.915625 1.015280
vt 0.517361 0.894290
vt 1.043750 0.977778
vt 0.371528 0.952160
vt -0.118056 0.899691
vt -0.027778 0.835648
vt 0.250000 0.770833
vt 0.569444 0.761574
vt 0.829861 0.791667
vt 1.018750 0.822917
vt 1.078130 0.875000
usemtl mat_0
s 1
f 11/1 5/2 10/3
f 11/1 4/4 5/2
f 14/5 4/4 11/1
f 14/5 3/6 4/4
f 12/1 3/6 14/5
f 12/1 1/4 3/6
f 13/3 1/4 12/1
f 6/3 1/2 13/4
f 17/7 6/2 13/3
f 17/7 9/8 6/2
f 15/9 9/8 17/7
f 15/9 8/10 9/8
f 16/7 8/10 15/9
f 16/7 7/8 8/10
f 10/3 7/8 16/7
f 10/3 5/2 7/8
f 59/11 58/12 56/13
f 59/11 22/14 58/12
f 77/15 22/14 59/11
f 77/15 76/16 22/14
f 33/14 51/17 34/18
f 33/14 60/11 51/17
f 75/16 60/11 33/14
f 75/16 78/15 60/11
f 49/19 14/20 37/21
f 49/19 12/22 14/20
f 50/23 12/22 49/19
f 50/23 13/24 12/22
f 52/25 13/24 50/23
f 52/25 17/26 13/24
f 35/27 17/26 52/25
f 35/27 15/28 17/26
f 54/25 15/28 35/27
f 54/25 16/26 15/28
f 53/23 16/26 54/25
f 53/23 10/24 16/26
f 57/19 10/24 53/23
f 57/19 11/22 10/24
f 37/21 11/22 57/19
f 37/21 14/20 11/22
f 23/29 75/16 33/14
f 23/29 74/30 75/16
f 22/14 74/30 23/29
f 22/14 76/16 74/30
f 19/31 56/13 55/32
f 19/31 59/11 56/13
f 81/33 59/11 19/31
f 81/33 77/15 59/11
f 60/11 32/34 51/17
f 60/11 31/31 32/34
f 78/15 31/31 60/11
f 78/15 79/33 31/31
f 80/35 31/31 79/33
f 80/35 18/36 31/31
f 81/33 18/36 80/35
f 81/33 19/31 18/36
f 104/37 97/38 103/39
f 104/37 98/40 97/38
f 280/41 98/40 104/37
f 280/41 276/42 98/40
f 290/37 276/42 280/41
f 290/37 291/40 276/42
f 350/39 291/40 290/37
f 350/39 384/38 291/40
f 363/43 384/38 350/39
f 363/43 383/44 384/38
f 95/44 105/43 103/39
f 97/38 95/44 103/39
f 135/45 129/46 134/47
f 135/45 137/48 129/46
f 429/49 137/48 135/45
f 429/49 312/50 137/48
f 139/48 134/47 127/46
f 139/48 113/45 134/47
f 447/50 113/45 139/48
f 447/50 461/49 113/45
f 146/51 79/52 112/53
f 146/51 80/54 79/52
f 148/53 80/54 146/51
f 148/53 81/52 80/54
f 149/55 81/52 148/53
f 149/55 77/56 81/52
f 370/57 77/56 149/55
f 370/57 76/58 77/56
f 121/59 76/58 370/57
f 121/59 74/60 76/58
f 120/57 74/60 121/59
f 120/57 75/58 74/60
f 147/55 75/58 120/57
f 147/55 78/56 75/58
f 112/53 78/56 147/55
f 112/53 79/52 78/56
f 156/61 152/62 150/63
f 156/61 154/64 152/62
f 87/65 154/64 156/61
f 87/65 161/66 154/64
f 172/67 101/68 84/69
f 174/70 172/67 84/69
f 356/70 358/69 288/68
f 353/67 356/70 288/68
f 193/71 427/72 199/73
f 263/74 193/71 199/73
f 435/75 387/76 382/77
f 441/78 435/75 382/77
f 197/73 273/72 142/71
f 251/74 197/73 142/71
f 247/79 251/74 151/63
f 247/79 249/80 251/74
f 267/81 249/80 247/79
f 267/81 265/82 249/80
f 277/83 86/84 99/68
f 277/83 278/85 86/84
f 286/68 278/85 277/83
f 286/68 292/84 278/85
f 279/85 104/37 86/84
f 279/85 280/41 104/37
f 292/84 280/41 279/85
f 292/84 290/37 280/41
f 285/86 99/68 179/87
f 285/86 277/83 99/68
f 282/87 277/83 285/86
f 282/87 286/68 277/83
f 364/61 362/66 351/65
f 364/61 366/64 362/66
f 367/63 366/64 364/61
f 367/63 369/62 366/64
f 261/80 368/63 263/74
f 261/80 388/79 368/63
f 270/82 388/79 261/80
f 270/82 425/81 388/79
f 336/88 236/89 329/90
f 336/88 390/91 236/89
f 307/92 390/91 336/88
f 307/92 215/93 390/91
f 393/94 399/95 395/96
f 393/94 397/97 399/95
f 386/76 397/97 393/94
f 386/76 434/75 397/97
f 409/97 417/96 411/95
f 409/97 415/94 417/96
f 458/75 415/94 409/97
f 458/75 379/76 415/94
f 422/88 210/93 317/92
f 422/88 421/91 210/93
f 341/90 421/91 422/88
f 341/90 232/89 421/91
f 193/71 190/98 241/99
f 193/71 242/100 190/98
f 365/61 242/100 193/71
f 365/61 352/65 242/100
f 302/101 424/102 271/103
f 302/101 389/104 424/102
f 298/105 389/104 302/101
f 298/105 119/106 389/104
f 368/63 388/79 117/107
f 403/108 431/109 405/110
f 403/108 218/111 431/109
f 402/112 218/111 403/108
f 402/112 220/113 218/111
f 440/78 220/113 402/112
f 440/78 381/77 220/113
f 405/110 431/109 396/96
f 401/95 405/110 396/96
f 315/114 334/115 131/116
f 315/114 437/117 334/115
f 438/118 437/117 315/114
f 438/118 327/119 437/117
f 297/120 327/119 438/118
f 297/120 323/121 327/119
f 257/122 323/121 297/120
f 257/122 325/123 323/121
f 204/124 325/123 257/122
f 204/124 305/125 325/123
f 216/93 305/125 204/124
f 216/93 308/92 305/125
f 133/126 330/90 237/89
f 133/126 332/127 330/90
f 131/116 332/127 133/126
f 131/116 334/115 332/127
f 361/69 242/100 352/65
f 108/107 247/79 151/63
f 301/101 109/106 443/105
f 301/101 248/104 109/106
f 268/103 248/104 301/101
f 268/103 266/102 248/104
f 255/122 320/125 208/124
f 255/122 343/123 320/125
f 295/120 343/123 255/122
f 295/120 345/121 343/123
f 449/118 345/121 295/120
f 449/118 347/119 345/121
f 310/114 347/119 449/118
f 310/114 372/117 347/119
f 125/116 372/117 310/114
f 125/116 374/115 372/117
f 123/126 374/115 125/116
f 123/126 338/127 374/115
f 231/89 338/127 123/126
f 231/89 340/90 338/127
f 455/128 378/76 457/75
f 455/128 376/77 378/76
f 407/112 376/77 455/128
f 407/112 453/113 376/77
f 406/108 453/113 407/112
f 406/108 224/111 453/113
f 414/110 224/111 406/108
f 414/110 451/109 224/111
f 412/95 451/109 414/110
f 412/95 419/96 451/109
f 318/92 211/93 208/124
f 320/125 318/92 208/124
f 88/65 454/100 85/69
f 142/71 88/65 157/61
f 142/71 454/100 88/65
f 244/99 454/100 142/71
f 244/99 181/98 454/100
f 31/31 29/129 32/34
f 31/31 18/36 29/129
f 44/130 29/129 18/36
f 18/36 20/131 44/130
f 19/31 20/131 18/36
f 19/31 55/32 20/131
f 27/132 33/14 34/18
f 27/132 23/29 33/14
f 24/133 23/29 27/132
f 24/133 21/134 23/29
f 22/14 23/29 21/134
f 21/134 58/12 22/14
f 41/135 30/136 42/137
f 41/135 69/138 30/136
f 68/139 30/136 69/138
f 68/139 36/140 30/136
f 65/139 28/136 38/140
f 65/139 48/138 28/136
f 46/135 28/136 48/138
f 46/135 26/137 28/136
f 21/136 66/139 37/140
f 21/136 47/138 66/139
f 45/135 47/138 21/136
f 21/136 25/137 45/135
f 67/139 20/136 35/140
f 67/139 39/138 20/136
f 40/135 20/136 39/138
f 40/135 43/137 20/136
f 86/84 82/69 99/68
f 86/84 87/65 82/69
f 103/39 87/65 86/84
f 103/39 105/43 87/65
f 161/66 87/65 105/43
f 103/39 86/84 104/37
f 234/141 134/47 129/46
f 234/141 127/46 134/47
f 363/43 351/65 362/66
f 363/43 350/39 351/65
f 292/84 351/65 350/39
f 292/84 360/69 351/65
f 286/68 360/69 292/84
f 350/39 290/37 292/84
f 263/74 365/61 193/71
f 263/74 368/63 365/61
f 118/106 313/142 430/143
f 118/106 299/105 313/142
f 110/106 445/142 444/105
f 110/106 460/143 445/142
f 157/61 251/74 142/71
f 157/61 151/63 251/74
f 3/144 1/6 2/4
f 2/144 4/4 3/6
f 5/2 4/4 2/144
f 2/144 7/8 5/2
f 8/10 7/8 2/144
f 2/144 9/8 8/10
f 6/2 9/8 2/144
f 2/144 1/4 6/2
usemtl mat_1
f 51/145 49/146 34/147
f 51/145 50/148 49/146
f 32/149 50/148 51/145
f 32/149 52/150 50/148
f 56/151 54/150 55/152
f 56/151 53/148 54/150
f 58/153 53/148 56/151
f 58/153 57/146 53/148
f 21/154 57/146 58/153
f 21/154 37/155 57/146
f 54/150 35/156 20/157
f 55/152 54/150 20/157
f 153/158 148/159 152/160
f 153/158 149/161 148/159
f 369/162 149/161 153/158
f 369/162 370/163 149/161
f 367/164 370/163 369/162
f 367/164 121/165 370/163
f 146/166 150/167 152/160
f 148/159 146/166 152/160
f 391/168 394/169 235/170
f 391/168 392/171 394/169
f 214/172 392/171 391/168
f 214/172 385/173 392/171
f 416/171 230/170 418/169
f 416/171 420/168 230/170
f 377/173 420/168 416/171
f 377/173 209/172 420/168
f 35/156 32/149 29/174
f 35/156 52/150 32/149
f 34/147 37/155 27/175
f 34/147 49/146 37/155
f 64/176 48/177 65/178
f 64/176 62/179 48/177
f 46/180 48/177 62/179
f 47/181 63/176 66/178
f 47/181 61/179 63/176
f 45/180 61/179 47/181
f 69/182 71/183 68/184
f 69/182 73/185 71/183
f 41/186 73/185 69/182
f 70/183 39/187 67/184
f 70/183 72/185 39/187
f 40/186 39/187 72/185
f 130/188 128/189 138/190
f 130/188 132/191 128/189
f 233/192 128/189 132/191
f 132/191 235/193 233/192
f 238/194 233/192 235/193
f 238/194 230/193 233/192
f 122/191 233/192 230/193
f 122/191 126/189 233/192
f 124/188 126/189 122/191
f 124/188 140/190 126/189
f 146/166 107/195 150/167
f 146/166 112/159 107/195
f 113/196 107/195 112/159
f 112/159 147/161 113/196
f 134/197 113/196 147/161
f 147/161 135/198 134/197
f 120/163 135/198 147/161
f 120/163 115/199 135/198
f 121/165 115/199 120/163
f 121/165 367/164 115/199
f 223/200 225/201 228/202
f 223/200 450/203 225/201
f 238/204 225/201 450/203
f 238/204 432/203 225/201
f 394/169 432/203 238/204
f 238/204 235/170 394/169
f 217/200 225/201 432/203
f 217/200 221/202 225/201
f 418/169 238/204 450/203
f 418/169 230/170 238/204
f 222/202 167/205 226/206
f 222/202 361/207 167/205
f 229/202 168/205 85/207
f 229/202 227/206 168/205
usemtl mat_2
f 89/208 92/209 95/210
f 89/208 95/210 97/211
f 96/212 89/208 97/211
f 177/213 102/214 176/215
f 159/216 177/213 176/215
f 260/217 259/218 271/219
f 269/220 260/217 271/219
f 158/221 246/222 287/223
f 283/224 158/221 287/223
f 274/225 384/226 383/227
f 91/208 274/225 383/227
f 205/228 200/229 426/230
f 192/231 205/228 426/230
f 242/232 361/233 222/234
f 186/235 242/232 222/234
f 184/235 229/234 85/233
f 454/232 184/235 85/233
f 258/218 250/217 264/220
f 268/219 258/218 264/220
f 93/209 105/236 95/210
f 93/209 106/237 105/236
f 383/227 106/237 93/209
f 383/227 363/238 106/237
f 141/231 144/239 145/240
f 141/231 143/228 144/239
f 272/230 143/228 141/231
f 272/230 195/229 143/228
f 154/241 153/242 152/243
f 154/241 155/244 153/242
f 161/245 155/244 154/241
f 161/245 162/246 155/244
f 163/247 83/248 164/249
f 173/250 169/251 170/252
f 173/250 175/253 169/251
f 83/248 175/253 173/250
f 83/248 163/247 175/253
f 169/251 100/214 171/252
f 169/251 176/215 100/214
f 175/253 176/215 169/251
f 175/253 163/247 176/215
f 189/254 242/232 186/235
f 264/220 266/255 268/219
f 281/224 159/216 158/221
f 281/224 178/213 159/216
f 284/256 178/213 281/224
f 349/257 293/258 348/259
f 349/257 246/222 293/258
f 354/260 246/222 349/257
f 354/260 289/223 246/222
f 357/261 293/258 359/262
f 357/261 348/259 293/258
f 355/260 348/259 357/261
f 355/260 349/257 348/259
f 293/258 166/249 359/262
f 366/263 162/246 362/264
f 366/263 155/244 162/246
f 369/265 155/244 366/263
f 369/265 153/242 155/244
f 91/208 383/227 94/209
f 271/219 424/255 269/220
f 116/266 428/267 136/268
f 114/268 459/267 111/266
f 145/240 245/269 141/231
f 184/235 454/232 182/254
f 98/270 96/212 97/211
f 98/270 276/271 96/212
f 274/225 96/212 276/271
f 274/225 90/208 96/212
f 291/272 274/225 276/271
f 291/272 384/226 274/225
f 106/237 161/245 105/236
f 106/237 162/246 161/245
f 362/264 162/246 106/237
f 106/237 363/238 362/264
f 219/273 221/234 217/274
f 219/273 380/275 221/234
f 185/235 221/234 380/275
f 380/275 213/276 185/235
f 385/277 213/276 380/275
f 385/277 214/278 213/276
f 191/239 213/276 214/278
f 191/239 187/240 213/276
f 192/231 187/240 191/239
f 192/231 239/269 187/240
f 187/240 185/235 213/276
f 187/240 188/254 185/235
f 240/269 188/254 187/240
f 191/239 205/228 192/231
f 191/239 214/278 205/228
f 203/279 205/228 214/278
f 203/279 202/280 205/228
f 201/281 202/280 203/279
f 201/281 200/229 202/280
f 198/282 200/229 201/281
f 198/282 426/230 200/229
f 202/280 200/229 205/228
f 256/283 201/281 203/279
f 256/283 300/284 201/281
f 296/285 300/284 256/283
f 296/285 298/286 300/284
f 311/287 298/286 296/285
f 296/285 439/288 311/287
f 314/289 311/287 439/288
f 314/289 138/290 311/287
f 130/291 138/290 314/289
f 201/281 262/292 198/282
f 201/281 259/218 262/292
f 300/284 259/218 201/281
f 300/284 271/219 259/218
f 302/293 271/219 300/284
f 300/284 298/286 302/293
f 259/218 260/217 262/292
f 145/240 180/254 243/269
f 145/240 183/235 180/254
f 212/276 183/235 145/240
f 212/276 375/275 183/235
f 377/277 375/275 212/276
f 212/276 209/278 377/277
f 144/239 209/278 212/276
f 144/239 143/228 209/278
f 207/279 209/278 143/228
f 143/228 206/280 207/279
f 195/229 206/280 143/228
f 195/229 194/281 206/280
f 196/282 194/281 195/229
f 196/282 252/292 194/281
f 258/218 194/281 252/292
f 258/218 253/284 194/281
f 268/219 253/284 258/218
f 268/219 301/293 253/284
f 443/286 253/284 301/293
f 443/286 294/285 253/284
f 446/287 294/285 443/286
f 446/287 448/288 294/285
f 309/289 448/288 446/287
f 446/287 140/290 309/289
f 124/291 309/289 140/290
f 212/276 145/240 144/239
f 195/229 272/230 196/282
f 252/292 250/217 258/218
f 194/281 207/279 206/280
f 194/281 254/283 207/279
f 253/284 254/283 194/281
f 253/284 294/285 254/283
f 375/275 228/234 183/235
f 375/275 452/273 228/234
f 223/274 228/234 452/273
f 159/216 160/294 158/221
f 159/216 176/215 160/294
f 275/295 160/294 176/215
f 275/295 246/222 160/294
f 293/258 246/222 275/295
f 275/295 165/249 293/258
f 163/247 165/249 275/295
f 275/295 176/215 163/247
f 160/294 246/222 158/221
usemtl mat_3
f 404/296 400/297 398/298
f 403/299 404/296 398/298
f 410/297 413/296 406/299
f 408/298 410/297 406/299
f 398/298 402/300 403/299
f 398/298 433/301 402/300
f 442/302 402/300 433/301
f 407/300 408/298 406/299
f 407/300 456/301 408/298
f 455/302 456/301 407/300
f 306/303 303/304 304/305
f 306/303 335/306 303/304
f 328/307 303/304 335/306
f 328/307 331/308 303/304
f 333/309 303/304 331/308
f 333/309 436/310 303/304
f 326/311 303/304 436/310
f 326/311 322/312 303/304
f 324/313 303/304 322/312
f 324/313 304/305 303/304
f 319/305 321/304 316/303
f 319/305 342/313 321/304
f 344/312 321/304 342/313
f 344/312 346/311 321/304
f 371/310 321/304 346/311
f 371/310 373/309 321/304
f 337/308 321/304 373/309
f 337/308 339/307 321/304
f 423/306 321/304 339/307
f 423/306 316/303 321/304
