xof 0303txt 0032

template AnimTicksPerSecond {
  <9E415A43-7BA6-4a73-8743-B73D47E88476>
  DWORD AnimTicksPerSecond;
}

template XSkinMeshHeader {
  <3cf169ce-ff7c-44ab-93c0-f78f62d172e2>
  WORD nMaxSkinWeightsPerVertex;
  WORD nMaxSkinWeightsPerFace;
  WORD nBones;
}

template SkinWeights {
  <6f0d123b-bad2-4167-a0d0-80224f25fabb>
  STRING transformNodeName;
  DWORD nWeights;
  array DWORD vertexIndices[nWeights];
  array float weights[nWeights];
  Matrix4x4 matrixOffset;
}

Frame Root {
  FrameTransformMatrix {
     1.000000, 0.000000, 0.000000, 0.000000,
     0.000000, 0.000000, 1.000000, 0.000000,
     0.000000, 1.000000,-0.000000, 0.000000,
     0.000000, 0.000000, 0.000000, 1.000000;;
  }
  Frame digda_mat_0 {
    FrameTransformMatrix {
       1.000000, 0.000000, 0.000000, 0.000000,
       0.000000, 1.000000, 0.000000, 0.000000,
       0.000000, 0.000000, 1.000000, 0.000000,
       0.000000, 0.000000, 0.000000, 1.000000;;
    }
    Mesh { //Mesh Mesh
      129;
       0.132553;-0.000000; 0.908093;,
       0.067249; 0.235648; 0.738916;,
       0.405384;-0.000000; 0.691452;,
       0.067249; 0.235648; 0.738916;,
       0.281337; 0.162492; 0.492420;,
       0.405384;-0.000000; 0.691452;,
       0.526839;-0.000000; 0.329289;,
       0.405384;-0.000000; 0.691452;,
       0.281337; 0.162492; 0.492420;,
       0.067249; 0.235648; 0.738916;,
       0.000000; 0.332202; 0.488374;,
       0.281337; 0.162492; 0.492420;,
       0.000000; 0.332202; 0.488374;,
       0.508854; 0.235648; 0.259825;,
       0.281337; 0.162492; 0.492420;,
       0.281337; 0.162492; 0.492420;,
       0.508854; 0.235648; 0.259825;,
       0.526839;-0.000000; 0.329289;,
       0.508854; 0.235648; 0.259825;,
       0.615291; 0.173465; 0.000000;,
       0.526839;-0.000000; 0.329289;,
       0.526839;-0.000000; 0.329289;,
       0.615291; 0.173465; 0.000000;,
       0.767287;-0.000000; 0.000000;,
       0.767287;-0.000000; 0.000000;,
       0.615291; 0.173465; 0.000000;,
       0.672478;-0.000000;-0.372861;,
       0.615291; 0.173465; 0.000000;,
       0.303397; 0.275077;-0.463105;,
       0.672478;-0.000000;-0.372861;,
       0.303397; 0.275077;-0.463105;,
       0.615291; 0.173465; 0.000000;,
       0.296267; 0.470860; 0.000000;,
       0.615291; 0.173465; 0.000000;,
       0.508854; 0.235648; 0.259825;,
       0.296267; 0.470860; 0.000000;,
       0.296267; 0.470860; 0.000000;,
       0.508854; 0.235648; 0.259825;,
       0.000000; 0.332202; 0.488374;,
       0.000000; 0.332202; 0.488374;,
       0.080150; 0.519791; 0.000000;,
       0.296267; 0.470860; 0.000000;,
       0.080150; 0.519791; 0.000000;,
       0.000000; 0.332202; 0.488374;,
      -0.296267; 0.409223; 0.368359;,
       0.000000; 0.332202; 0.488374;,
      -0.303397; 0.126663; 0.709123;,
      -0.296267; 0.409223; 0.368359;,
      -0.296267; 0.409223; 0.368359;,
      -0.303397; 0.126663; 0.709123;,
      -0.636887; 0.185588; 0.303397;,
      -0.303397; 0.126663; 0.709123;,
      -0.745722;-0.000000; 0.372861;,
      -0.636887; 0.185588; 0.303397;,
      -0.745722;-0.000000; 0.372861;,
      -0.303397; 0.126663; 0.709123;,
      -0.372861;-0.000000; 0.871479;,
      -0.303397; 0.126663; 0.709123;,
       0.132553;-0.000000; 0.908093;,
      -0.372861;-0.000000; 0.871479;,
       0.132553;-0.000000; 0.908093;,
      -0.303397; 0.126663; 0.709123;,
       0.067249; 0.235648; 0.738916;,
       0.000000; 0.332202; 0.488374;,
       0.067249; 0.235648; 0.738916;,
      -0.303397; 0.126663; 0.709123;,
       0.672478;-0.000000;-0.372861;,
       0.303397; 0.275077;-0.463105;,
       0.340915;-0.000000;-0.521862;,
       0.303397; 0.275077;-0.463105;,
       0.087461; 0.181433;-0.701334;,
       0.340915;-0.000000;-0.521862;,
       0.340915;-0.000000;-0.521862;,
       0.087461; 0.181433;-0.701334;,
       0.107485;-0.000000;-0.890859;,
      -0.296267; 0.496458;-0.296267;,
       0.080150; 0.519791; 0.000000;,
      -0.393319; 0.442130; 0.000000;,
       0.080150; 0.519791; 0.000000;,
      -0.296267; 0.409223; 0.368359;,
      -0.393319; 0.442130; 0.000000;,
      -0.393319; 0.442130; 0.000000;,
      -0.296267; 0.409223; 0.368359;,
      -0.636887; 0.185588; 0.303397;,
      -0.636887; 0.185588; 0.303397;,
      -0.540049; 0.235648;-0.255786;,
      -0.393319; 0.442130; 0.000000;,
      -0.393319; 0.442130; 0.000000;,
      -0.540049; 0.235648;-0.255786;,
      -0.296267; 0.496458;-0.296267;,
      -0.540049; 0.235648;-0.255786;,
      -0.303397; 0.285025;-0.606794;,
      -0.296267; 0.496458;-0.296267;,
      -0.303397; 0.285025;-0.606794;,
      -0.540049; 0.235648;-0.255786;,
      -0.814557;-0.000000;-0.255786;,
      -0.540049; 0.235648;-0.255786;,
      -0.745722;-0.000000; 0.372861;,
      -0.814557;-0.000000;-0.255786;,
      -0.636887; 0.185588; 0.303397;,
      -0.745722;-0.000000; 0.372861;,
      -0.540049; 0.235648;-0.255786;,
      -0.814557;-0.000000;-0.255786;,
      -0.372861;-0.000000;-0.745722;,
      -0.303397; 0.285025;-0.606794;,
       0.107485;-0.000000;-0.890859;,
       0.087461; 0.181433;-0.701334;,
      -0.372861;-0.000000;-0.745722;,
       0.087461; 0.181433;-0.701334;,
      -0.303397; 0.285025;-0.606794;,
      -0.372861;-0.000000;-0.745722;,
      -0.303397; 0.285025;-0.606794;,
       0.087461; 0.181433;-0.701334;,
       0.000000; 0.416640;-0.386774;,
       0.087461; 0.181433;-0.701334;,
       0.303397; 0.275077;-0.463105;,
       0.000000; 0.416640;-0.386774;,
       0.000000; 0.416640;-0.386774;,
       0.303397; 0.275077;-0.463105;,
       0.296267; 0.470860; 0.000000;,
       0.296267; 0.470860; 0.000000;,
       0.080150; 0.519791; 0.000000;,
       0.000000; 0.416640;-0.386774;,
       0.000000; 0.416640;-0.386774;,
       0.080150; 0.519791; 0.000000;,
      -0.296267; 0.496458;-0.296267;,
      -0.296267; 0.496458;-0.296267;,
      -0.303397; 0.285025;-0.606794;,
       0.000000; 0.416640;-0.386774;;
      43;
      3;0;1;2;,
      3;3;4;5;,
      3;6;7;8;,
      3;9;10;11;,
      3;12;13;14;,
      3;15;16;17;,
      3;18;19;20;,
      3;21;22;23;,
      3;24;25;26;,
      3;27;28;29;,
      3;30;31;32;,
      3;33;34;35;,
      3;36;37;38;,
      3;39;40;41;,
      3;42;43;44;,
      3;45;46;47;,
      3;48;49;50;,
      3;51;52;53;,
      3;54;55;56;,
      3;57;58;59;,
      3;60;61;62;,
      3;63;64;65;,
      3;66;67;68;,
      3;69;70;71;,
      3;72;73;74;,
      3;75;76;77;,
      3;78;79;80;,
      3;81;82;83;,
      3;84;85;86;,
      3;87;88;89;,
      3;90;91;92;,
      3;93;94;95;,
      3;96;97;98;,
      3;99;100;101;,
      3;102;103;104;,
      3;105;106;107;,
      3;108;109;110;,
      3;111;112;113;,
      3;114;115;116;,
      3;117;118;119;,
      3;120;121;122;,
      3;123;124;125;,
      3;126;127;128;;
      MeshNormals { //Mesh Normals
        129;
        -0.501144;-0.591998;-0.631153;,
        -0.536485;-0.757775;-0.371349;,
        -0.587939;-0.724570;-0.359569;,
        -0.536485;-0.757775;-0.371349;,
        -0.553789;-0.716056;-0.424879;,
        -0.587939;-0.724570;-0.359569;,
        -0.633564;-0.743919;-0.212470;,
        -0.587939;-0.724570;-0.359569;,
        -0.553789;-0.716056;-0.424879;,
        -0.536485;-0.757775;-0.371349;,
        -0.144169;-0.882046;-0.448531;,
        -0.553789;-0.716056;-0.424879;,
        -0.144169;-0.882046;-0.448531;,
        -0.706778;-0.544939;-0.451033;,
        -0.553789;-0.716056;-0.424879;,
        -0.553789;-0.716056;-0.424879;,
        -0.706778;-0.544939;-0.451033;,
        -0.766961;-0.313273;-0.560015;,
        -0.706778;-0.544939;-0.451033;,
        -0.771203;-0.453932;-0.446272;,
        -0.766961;-0.313273;-0.560015;,
        -0.766961;-0.313273;-0.560015;,
        -0.771203;-0.453932;-0.446272;,
        -0.659230;-0.577624;-0.481368;,
        -0.738701;-0.647298; 0.187811;,
        -0.684591;-0.713340; 0.149815;,
        -0.654897;-0.718589; 0.233863;,
        -0.684591;-0.713340; 0.149815;,
        -0.431532;-0.813471; 0.389874;,
        -0.654897;-0.718589; 0.233863;,
        -0.431532;-0.813471; 0.389874;,
        -0.684591;-0.713340; 0.149815;,
        -0.438154;-0.898679;-0.019288;,
        -0.684591;-0.713340; 0.149815;,
        -0.706778;-0.544939;-0.451033;,
        -0.438154;-0.898679;-0.019288;,
        -0.438154;-0.898679;-0.019288;,
        -0.706778;-0.544939;-0.451033;,
        -0.144169;-0.882046;-0.448531;,
        -0.144169;-0.882046;-0.448531;,
        -0.044618;-0.956816;-0.287179;,
        -0.438154;-0.898679;-0.019288;,
        -0.044618;-0.956816;-0.287179;,
        -0.144169;-0.882046;-0.448531;,
         0.272713;-0.871059;-0.408460;,
        -0.144169;-0.882046;-0.448531;,
         0.321512;-0.762169;-0.561846;,
         0.272713;-0.871059;-0.408460;,
         0.272713;-0.871059;-0.408460;,
         0.321512;-0.762169;-0.561846;,
         0.741569;-0.630360;-0.229499;,
         0.321512;-0.762169;-0.561846;,
         0.580889;-0.615925;-0.532121;,
         0.741569;-0.630360;-0.229499;,
         0.580889;-0.615925;-0.532121;,
         0.321512;-0.762169;-0.561846;,
         0.272164;-0.811670;-0.516770;,
         0.321512;-0.762169;-0.561846;,
         0.165746;-0.626179;-0.761834;,
         0.272164;-0.811670;-0.516770;,
         0.165746;-0.626179;-0.761834;,
         0.321512;-0.762169;-0.561846;,
         0.221046;-0.527573;-0.820215;,
        -0.144169;-0.882046;-0.448531;,
         0.287423;-0.865291;-0.410627;,
         0.321512;-0.762169;-0.561846;,
        -0.397565;-0.243202; 0.884732;,
        -0.563372;-0.245338; 0.788903;,
        -0.563524;-0.311289; 0.765160;,
        -0.563372;-0.245338; 0.788903;,
        -0.707480;-0.446242; 0.547990;,
        -0.563524;-0.311289; 0.765160;,
        -0.563524;-0.311289; 0.765160;,
        -0.707480;-0.446242; 0.547990;,
        -0.707999;-0.545976; 0.447859;,
         0.160527;-0.978820;-0.126896;,
        -0.044618;-0.956816;-0.287179;,
         0.506180;-0.860836;-0.052156;,
        -0.044618;-0.956816;-0.287179;,
         0.272713;-0.871059;-0.408460;,
         0.506180;-0.860836;-0.052156;,
         0.506180;-0.860836;-0.052156;,
         0.272713;-0.871059;-0.408460;,
         0.741569;-0.630360;-0.229499;,
         0.741569;-0.630360;-0.229499;,
         0.700156;-0.688620; 0.188604;,
         0.506180;-0.860836;-0.052156;,
         0.506180;-0.860836;-0.052156;,
         0.700156;-0.688620; 0.188604;,
         0.724815;-0.636616; 0.263344;,
         0.700156;-0.688620; 0.188604;,
         0.676870;-0.557421; 0.480697;,
         0.724815;-0.636616; 0.263344;,
         0.676870;-0.557421; 0.480697;,
         0.700156;-0.688620; 0.188604;,
         0.674947;-0.722373; 0.150212;,
         0.700156;-0.688620; 0.188604;,
         0.800562;-0.598041; 0.037721;,
         0.674947;-0.722373; 0.150212;,
         0.741569;-0.630360;-0.229499;,
         0.800562;-0.598041; 0.037721;,
         0.700156;-0.688620; 0.188604;,
         0.674947;-0.722373; 0.150212;,
         0.662343;-0.452467; 0.597125;,
         0.676870;-0.557421; 0.480697;,
         0.207801;-0.695517; 0.687765;,
         0.009430;-0.731346; 0.681906;,
         0.135655;-0.546403; 0.826441;,
         0.009430;-0.731346; 0.681906;,
         0.005585;-0.679983; 0.733177;,
         0.135655;-0.546403; 0.826441;,
         0.005585;-0.679983; 0.733177;,
         0.009430;-0.731346; 0.681906;,
        -0.177068;-0.877224; 0.446181;,
         0.009430;-0.731346; 0.681906;,
        -0.431532;-0.813471; 0.389874;,
        -0.177068;-0.877224; 0.446181;,
        -0.177068;-0.877224; 0.446181;,
        -0.431532;-0.813471; 0.389874;,
        -0.438154;-0.898679;-0.019288;,
        -0.438154;-0.898679;-0.019288;,
        -0.198035;-0.936094; 0.290689;,
        -0.177068;-0.877224; 0.446181;,
        -0.177068;-0.877224; 0.446181;,
        -0.198035;-0.936094; 0.290689;,
        -0.104465;-0.890286; 0.443190;,
        -0.104465;-0.890286; 0.443190;,
         0.005585;-0.679983; 0.733177;,
        -0.177068;-0.877224; 0.446181;;
        43;
        3;0;1;2;,
        3;3;4;5;,
        3;6;7;8;,
        3;9;10;11;,
        3;12;13;14;,
        3;15;16;17;,
        3;18;19;20;,
        3;21;22;23;,
        3;24;25;26;,
        3;27;28;29;,
        3;30;31;32;,
        3;33;34;35;,
        3;36;37;38;,
        3;39;40;41;,
        3;42;43;44;,
        3;45;46;47;,
        3;48;49;50;,
        3;51;52;53;,
        3;54;55;56;,
        3;57;58;59;,
        3;60;61;62;,
        3;63;64;65;,
        3;66;67;68;,
        3;69;70;71;,
        3;72;73;74;,
        3;75;76;77;,
        3;78;79;80;,
        3;81;82;83;,
        3;84;85;86;,
        3;87;88;89;,
        3;90;91;92;,
        3;93;94;95;,
        3;96;97;98;,
        3;99;100;101;,
        3;102;103;104;,
        3;105;106;107;,
        3;108;109;110;,
        3;111;112;113;,
        3;114;115;116;,
        3;117;118;119;,
        3;120;121;122;,
        3;123;124;125;,
        3;126;127;128;;
      } //End of Mesh Normals
      MeshMaterialList { //Mesh Material List
        1;
        43;
        0,
        0,
        0,
        0,
        0,
        0,
        0,
        0,
        0,
        0,
        0,
        0,
        0,
        0,
        0,
        0,
        0,
        0,
        0,
        0,
        0,
        0,
        0,
        0,
        0,
        0,
        0,
        0,
        0,
        0,
        0,
        0,
        0,
        0,
        0,
        0,
        0,
        0,
        0,
        0,
        0,
        0,
        0;;
        Material mat_0 {
           0.640000; 0.640000; 0.640000; 1.000000;;
           92.156863;
           0.250000; 0.250000; 0.250000;;
           0.000000; 0.000000; 0.000000;;
          TextureFilename {"Textures/digda_1_0.tga";}
        }
      } //End of Mesh Material List
      MeshTextureCoords { //Mesh UV Coordinates
        129;
         0.598738; 0.000000;,
         0.557455; 0.094042;,
         0.771215; 0.120426;,
         0.557455; 0.094042;,
         0.692795; 0.231064;,
         0.771215; 0.120426;,
         0.847996; 0.321745;,
         0.771215; 0.120426;,
         0.692795; 0.231064;,
         0.557455; 0.094042;,
         0.514942; 0.233313;,
         0.692795; 0.231064;,
         0.514942; 0.233313;,
         0.836625; 0.360359;,
         0.692795; 0.231064;,
         0.692795; 0.231064;,
         0.836625; 0.360359;,
         0.847996; 0.321745;,
         0.836625; 0.360359;,
         0.903912; 0.504790;,
         0.847996; 0.321745;,
         0.847996; 0.321745;,
         0.903912; 0.504790;,
         1.000000; 0.504790;,
         1.000000; 0.504790;,
         0.903912; 0.504790;,
         0.940064; 0.712056;,
         0.903912; 0.504790;,
         0.706741; 0.762220;,
         0.940064; 0.712056;,
         0.706741; 0.762220;,
         0.903912; 0.504790;,
         0.702234; 0.504790;,
         0.903912; 0.504790;,
         0.836625; 0.360359;,
         0.702234; 0.504790;,
         0.702234; 0.504790;,
         0.836625; 0.360359;,
         0.514942; 0.233313;,
         0.514942; 0.233313;,
         0.565611; 0.504790;,
         0.702234; 0.504790;,
         0.565611; 0.504790;,
         0.514942; 0.233313;,
         0.327649; 0.300027;,
         0.514942; 0.233313;,
         0.323142; 0.110604;,
         0.327649; 0.300027;,
         0.327649; 0.300027;,
         0.323142; 0.110604;,
         0.112319; 0.336138;,
         0.323142; 0.110604;,
         0.043516; 0.297524;,
         0.112319; 0.336138;,
         0.043516; 0.297524;,
         0.323142; 0.110604;,
         0.279229; 0.020353;,
         0.323142; 0.110604;,
         0.598738; 0.000000;,
         0.279229; 0.020353;,
         0.598738; 0.000000;,
         0.323142; 0.110604;,
         0.557455; 0.094042;,
         0.514942; 0.233313;,
         0.557455; 0.094042;,
         0.323142; 0.110604;,
         0.940064; 0.712056;,
         0.706741; 0.762220;,
         0.730459; 0.794882;,
         0.706741; 0.762220;,
         0.570232; 0.894647;,
         0.730459; 0.794882;,
         0.730459; 0.794882;,
         0.570232; 0.894647;,
         0.582891; 1.000000;,
         0.327649; 0.669479;,
         0.565611; 0.504790;,
         0.266296; 0.504790;,
         0.565611; 0.504790;,
         0.327649; 0.300027;,
         0.266296; 0.504790;,
         0.266296; 0.504790;,
         0.327649; 0.300027;,
         0.112319; 0.336138;,
         0.112319; 0.336138;,
         0.173537; 0.646976;,
         0.266296; 0.504790;,
         0.266296; 0.504790;,
         0.173537; 0.646976;,
         0.327649; 0.669479;,
         0.173537; 0.646976;,
         0.323142; 0.842094;,
         0.327649; 0.669479;,
         0.323142; 0.842094;,
         0.173537; 0.646976;,
        -0.000000; 0.646976;,
         0.173537; 0.646976;,
         0.043516; 0.297524;,
        -0.000000; 0.646976;,
         0.043516; 0.297524;,
         0.173537; 0.646976;,
         0.112319; 0.336138;,
        -0.000000; 0.646976;,
         0.279229; 0.919321;,
         0.323142; 0.842094;,
         0.582891; 1.000000;,
         0.570232; 0.894647;,
         0.279229; 0.919321;,
         0.570232; 0.894647;,
         0.323142; 0.842094;,
         0.279229; 0.919321;,
         0.323142; 0.842094;,
         0.570232; 0.894647;,
         0.514942; 0.719790;,
         0.570232; 0.894647;,
         0.706741; 0.762220;,
         0.514942; 0.719790;,
         0.514942; 0.719790;,
         0.706741; 0.762220;,
         0.702234; 0.504790;,
         0.702234; 0.504790;,
         0.565611; 0.504790;,
         0.514942; 0.719790;,
         0.514942; 0.719790;,
         0.565611; 0.504790;,
         0.327649; 0.669479;,
         0.327649; 0.669479;,
         0.323142; 0.842094;,
         0.514942; 0.719790;;
      } //End of Mesh UV Coordinates
    } //End of Mesh Mesh
  } //End of digda_mat_0
} //End of Root Frame
