xof 0303txt 0032

template AnimTicksPerSecond {
  <9E415A43-7BA6-4a73-8743-B73D47E88476>
  DWORD AnimTicksPerSecond;
}

template XSkinMeshHeader {
  <3cf169ce-ff7c-44ab-93c0-f78f62d172e2>
  WORD nMaxSkinWeightsPerVertex;
  WORD nMaxSkinWeightsPerFace;
  WORD nBones;
}

template SkinWeights {
  <6f0d123b-bad2-4167-a0d0-80224f25fabb>
  STRING transformNodeName;
  DWORD nWeights;
  array DWORD vertexIndices[nWeights];
  array float weights[nWeights];
  Matrix4x4 matrixOffset;
}

Frame Root {
  FrameTransformMatrix {
     1.000000, 0.000000, 0.000000, 0.000000,
     0.000000, 0.000000, 1.000000, 0.000000,
     0.000000, 1.000000,-0.000000, 0.000000,
     0.000000, 0.000000, 0.000000, 1.000000;;
  }
  Frame boopig_mat_0 {
    FrameTransformMatrix {
       1.000000, 0.000000, 0.000000, 0.000000,
       0.000000, 1.000000, 0.000000, 0.000000,
       0.000000, 0.000000, 1.000000, 0.000000,
       0.000000, 0.000000, 0.000000, 1.000000;;
    }
    Mesh { //Mesh Mesh
      120;
      -1.533410; 1.533409; 4.573198;,
      -4.618929;-0.000014; 1.530728;,
       0.000001;-3.535545; 3.535527;,
      -4.618929;-0.000014; 1.530728;,
       3.535529;-3.535537;-0.000002;,
       0.000001;-3.535545; 3.535527;,
       3.535530; 3.535531;-0.000003;,
       0.000001;-3.535545; 3.535527;,
       3.535529;-3.535537;-0.000002;,
       3.535529;-3.535537;-0.000002;,
       3.535529;-0.000002; 3.535526;,
       3.535530; 3.535531;-0.000003;,
       3.535530; 3.535531;-0.000003;,
       3.535529;-0.000002; 3.535526;,
       1.533411; 1.533404; 4.573198;,
       1.533411; 1.533404; 4.573198;,
       3.535529;-0.000002; 3.535526;,
      -0.400386;-0.334817;-0.411703;,
       1.533411; 1.533404; 4.573198;,
      -0.400386;-0.334817;-0.411703;,
      -0.429142;-0.379030;-0.315656;,
      -0.429142;-0.379030;-0.315656;,
       1.470460;-0.348252; 1.405908;,
       1.533411; 1.533404; 4.573198;,
       1.533411; 1.533404; 4.573198;,
       1.470460;-0.348252; 1.405908;,
       0.000000;-5.000012;-0.000001;,
       1.470460;-0.348252; 1.405908;,
       1.570858;-0.379030; 0.000000;,
       0.000000;-5.000012;-0.000001;,
       1.533411; 1.533404; 4.573198;,
       0.000000;-5.000012;-0.000001;,
       3.535530; 3.535531;-0.000003;,
       0.000000;-5.000012;-0.000001;,
      -3.165149;-3.165158; 2.503287;,
       3.535530; 3.535531;-0.000003;,
       3.535530; 3.535531;-0.000003;,
      -3.165149;-3.165158; 2.503287;,
       0.000001;-3.535545; 3.535527;,
      -4.618929;-0.000014; 1.530728;,
      -0.000001;-0.000004; 4.855346;,
       3.535529;-3.535537;-0.000002;,
      -0.000001;-0.000004; 4.855346;,
       3.165149;-3.165149; 2.503286;,
       3.535529;-3.535537;-0.000002;,
       3.535529;-3.535537;-0.000002;,
       3.165149;-3.165149; 2.503286;,
       3.535529;-0.000002; 3.535526;,
       3.165149;-3.165149; 2.503286;,
      -0.400386;-0.334817;-0.411703;,
       3.535529;-0.000002; 3.535526;,
       1.570858;-0.379030; 0.000000;,
       1.470460;-0.348252; 1.405908;,
       0.000000;-0.000000; 0.000000;,
       1.470460;-0.348252; 1.405908;,
       0.000000;-0.000000; 0.000000;,
       0.000000;-0.000000; 0.000000;,
       0.000000;-0.000000; 0.000000;,
       0.000000;-0.000000; 0.000000;,
       0.000000;-0.000000; 0.000000;,
       0.000000;-0.000000; 0.000000;,
       0.000000;-0.000000; 0.000000;,
       0.000000;-0.000000; 0.000000;,
       0.000000;-0.000000; 0.000000;,
       0.000000;-0.000000; 0.000000;,
      -3.165150; 3.165137; 2.503287;,
       0.000000;-0.000000; 0.000000;,
       0.000000; 4.999990;-0.000003;,
      -3.165150; 3.165137; 2.503287;,
      -3.165150; 3.165137; 2.503287;,
       0.000000; 4.999990;-0.000003;,
      -0.000001;-0.000004; 4.855346;,
       0.000000; 4.999990;-0.000003;,
       3.165149;-3.165149; 2.503286;,
      -0.000001;-0.000004; 4.855346;,
       3.165149;-3.165149; 2.503286;,
       0.000000; 4.999990;-0.000003;,
      -0.256658;-0.415329; 1.477512;,
       0.000000; 4.999990;-0.000003;,
       0.000000;-0.000000; 0.000000;,
      -0.256658;-0.415329; 1.477512;,
      -0.256658;-0.415329; 1.477512;,
       0.000000;-0.000000; 0.000000;,
      -0.400386;-0.334817;-0.411703;,
       0.000000;-0.000000; 0.000000;,
      -0.429142;-0.379030;-0.315656;,
      -0.400386;-0.334817;-0.411703;,
      -0.429142;-0.379030;-0.315656;,
       0.000000;-0.000000; 0.000000;,
       0.000000;-0.000000; 0.000000;,
       0.000000;-0.000000; 0.000000;,
       0.000000;-0.000000; 0.000000;,
       0.000000;-0.000000; 0.000000;,
       0.000000;-0.000000; 0.000000;,
       0.000000;-0.000000; 0.000000;,
       0.000000; 4.999990;-0.000003;,
       0.000000;-0.000000; 0.000000;,
       1.470460;-0.348252; 1.405908;,
      -0.429142;-0.379030;-0.315656;,
      -0.400386;-0.334817;-0.411703;,
       3.165149;-3.165149; 2.503286;,
      -0.256658;-0.415329; 1.477512;,
      -0.000001;-0.000004; 4.855346;,
      -4.618929;-0.000014; 1.530728;,
      -3.165150; 3.165137; 2.503287;,
      -4.618929;-0.000014; 1.530728;,
       1.581230;-0.429664; 1.432038;,
      -3.165150; 3.165137; 2.503287;,
      -3.165150; 3.165137; 2.503287;,
       1.581230;-0.429664; 1.432038;,
       0.000000;-0.000000; 0.000000;,
       1.581230;-0.429664; 1.432038;,
       0.000000;-0.000000; 0.000000;,
       0.000000;-0.000000; 0.000000;,
       0.000000;-0.000000; 0.000000;,
       0.000000;-0.000000; 0.000000;,
       0.000000;-0.000000; 0.000000;,
      -4.618929;-0.000014; 1.530728;,
      -1.533410; 1.533409; 4.573198;,
       1.581230;-0.429664; 1.432038;;
      40;
      3;0;1;2;,
      3;3;4;5;,
      3;6;7;8;,
      3;9;10;11;,
      3;12;13;14;,
      3;15;16;17;,
      3;18;19;20;,
      3;21;22;23;,
      3;24;25;26;,
      3;27;28;29;,
      3;30;31;32;,
      3;33;34;35;,
      3;36;37;38;,
      3;39;40;41;,
      3;42;43;44;,
      3;45;46;47;,
      3;48;49;50;,
      3;51;52;53;,
      3;54;55;56;,
      3;57;58;59;,
      3;60;61;62;,
      3;63;64;65;,
      3;66;67;68;,
      3;69;70;71;,
      3;72;73;74;,
      3;75;76;77;,
      3;78;79;80;,
      3;81;82;83;,
      3;84;85;86;,
      3;87;88;89;,
      3;90;91;92;,
      3;93;94;95;,
      3;96;97;98;,
      3;99;100;101;,
      3;102;103;104;,
      3;105;106;107;,
      3;108;109;110;,
      3;111;112;113;,
      3;114;115;116;,
      3;117;118;119;;
      MeshNormals { //Mesh Normals
        120;
        -0.620136; 0.741874; 0.254982;,
         0.265572; 0.959807; 0.090732;,
        -0.412397;-0.370952; 0.832026;,
         0.265572; 0.959807; 0.090732;,
         0.017304; 0.797784; 0.602649;,
        -0.412397;-0.370952; 0.832026;,
        -0.130711;-0.781976; 0.609394;,
        -0.412397;-0.370952; 0.832026;,
         0.017304; 0.797784; 0.602649;,
         0.017304; 0.797784; 0.602649;,
        -0.570055; 0.206702;-0.795160;,
        -0.130711;-0.781976; 0.609394;,
        -0.130711;-0.781976; 0.609394;,
        -0.570055; 0.206702;-0.795160;,
         0.476608;-0.258553;-0.840205;,
         0.476608;-0.258553;-0.840205;,
        -0.570055; 0.206702;-0.795160;,
        -0.461074; 0.077670;-0.883938;,
         0.476608;-0.258553;-0.840205;,
        -0.461074; 0.077670;-0.883938;,
        -0.690634;-0.555040;-0.463607;,
        -0.690634;-0.555040;-0.463607;,
        -0.950713;-0.299448; 0.080081;,
         0.476608;-0.258553;-0.840205;,
         0.476608;-0.258553;-0.840205;,
        -0.950713;-0.299448; 0.080081;,
        -0.549913; 0.206122;-0.809351;,
        -0.950713;-0.299448; 0.080081;,
        -0.886227;-0.460128;-0.053194;,
        -0.549913; 0.206122;-0.809351;,
         0.476608;-0.258553;-0.840205;,
        -0.549913; 0.206122;-0.809351;,
        -0.130711;-0.781976; 0.609394;,
        -0.549913; 0.206122;-0.809351;,
        -0.722373; 0.683645;-0.103732;,
        -0.130711;-0.781976; 0.609394;,
        -0.130711;-0.781976; 0.609394;,
        -0.722373; 0.683645;-0.103732;,
        -0.412397;-0.370952; 0.832026;,
         0.265572; 0.959807; 0.090732;,
        -0.144749; 0.131962;-0.980621;,
         0.017304; 0.797784; 0.602649;,
        -0.144749; 0.131962;-0.980621;,
        -0.177740; 0.801050;-0.571551;,
         0.017304; 0.797784; 0.602649;,
         0.017304; 0.797784; 0.602649;,
        -0.177740; 0.801050;-0.571551;,
        -0.570055; 0.206702;-0.795160;,
        -0.177740; 0.801050;-0.571551;,
        -0.461074; 0.077670;-0.883938;,
        -0.570055; 0.206702;-0.795160;,
        -0.886227;-0.460128;-0.053194;,
        -0.950713;-0.299448; 0.080081;,
        -0.234535;-0.972076; 0.004517;,
        -0.950713;-0.299448; 0.080081;,
         0.665792;-0.144139;-0.732047;,
        -0.234535;-0.972076; 0.004517;,
        -0.234535;-0.972076; 0.004517;,
         0.665792;-0.144139;-0.732047;,
         0.518845; 0.785546;-0.337199;,
         0.665792;-0.144139;-0.732047;,
         0.620319;-0.000000; 0.784326;,
         0.518845; 0.785546;-0.337199;,
         0.518845; 0.785546;-0.337199;,
         0.620319;-0.000000; 0.784326;,
         0.734825;-0.659230;-0.159459;,
         0.620319;-0.000000; 0.784326;,
        -0.204535;-0.851253; 0.483169;,
         0.734825;-0.659230;-0.159459;,
         0.734825;-0.659230;-0.159459;,
        -0.204535;-0.851253; 0.483169;,
        -0.144749; 0.131962;-0.980621;,
        -0.204535;-0.851253; 0.483169;,
        -0.177740; 0.801050;-0.571551;,
        -0.144749; 0.131962;-0.980621;,
        -0.177740; 0.801050;-0.571551;,
        -0.204535;-0.851253; 0.483169;,
        -0.774773;-0.188604; 0.603412;,
        -0.204535;-0.851253; 0.483169;,
        -0.920103; 0.388073;-0.052614;,
        -0.774773;-0.188604; 0.603412;,
        -0.774773;-0.188604; 0.603412;,
        -0.920103; 0.388073;-0.052614;,
        -0.461074; 0.077670;-0.883938;,
        -0.920103; 0.388073;-0.052614;,
        -0.690634;-0.555040;-0.463607;,
        -0.461074; 0.077670;-0.883938;,
        -0.690634;-0.555040;-0.463607;,
        -0.920103; 0.388073;-0.052614;,
         0.665792;-0.144139;-0.732047;,
        -0.920103; 0.388073;-0.052614;,
         0.620319;-0.000000; 0.784326;,
         0.665792;-0.144139;-0.732047;,
         0.620319;-0.000000; 0.784326;,
        -0.920103; 0.388073;-0.052614;,
        -0.204535;-0.851253; 0.483169;,
         0.665792;-0.144139;-0.732047;,
        -0.950713;-0.299448; 0.080081;,
        -0.690634;-0.555040;-0.463607;,
        -0.461074; 0.077670;-0.883938;,
        -0.177740; 0.801050;-0.571551;,
        -0.774773;-0.188604; 0.603412;,
        -0.144749; 0.131962;-0.980621;,
         0.265572; 0.959807; 0.090732;,
         0.734825;-0.659230;-0.159459;,
         0.265572; 0.959807; 0.090732;,
         0.381817; 0.917539;-0.111026;,
         0.734825;-0.659230;-0.159459;,
         0.734825;-0.659230;-0.159459;,
         0.381817; 0.917539;-0.111026;,
         0.518845; 0.785546;-0.337199;,
         0.381817; 0.917539;-0.111026;,
        -0.000000;-0.000000;-0.000000;,
         0.518845; 0.785546;-0.337199;,
         0.518845; 0.785546;-0.337199;,
        -0.000000;-0.000000;-0.000000;,
        -0.234535;-0.972076; 0.004517;,
         0.265572; 0.959807; 0.090732;,
        -0.620136; 0.741874; 0.254982;,
         0.381817; 0.917539;-0.111026;;
        40;
        3;0;1;2;,
        3;3;4;5;,
        3;6;7;8;,
        3;9;10;11;,
        3;12;13;14;,
        3;15;16;17;,
        3;18;19;20;,
        3;21;22;23;,
        3;24;25;26;,
        3;27;28;29;,
        3;30;31;32;,
        3;33;34;35;,
        3;36;37;38;,
        3;39;40;41;,
        3;42;43;44;,
        3;45;46;47;,
        3;48;49;50;,
        3;51;52;53;,
        3;54;55;56;,
        3;57;58;59;,
        3;60;61;62;,
        3;63;64;65;,
        3;66;67;68;,
        3;69;70;71;,
        3;72;73;74;,
        3;75;76;77;,
        3;78;79;80;,
        3;81;82;83;,
        3;84;85;86;,
        3;87;88;89;,
        3;90;91;92;,
        3;93;94;95;,
        3;96;97;98;,
        3;99;100;101;,
        3;102;103;104;,
        3;105;106;107;,
        3;108;109;110;,
        3;111;112;113;,
        3;114;115;116;,
        3;117;118;119;;
      } //End of Mesh Normals
      MeshMaterialList { //Mesh Material List
        1;
        40;
        0,
        0,
        0,
        0,
        0,
        0,
        0,
        0,
        0,
        0,
        0,
        0,
        0,
        0,
        0,
        0,
        0,
        0,
        0,
        0,
        0,
        0,
        0,
        0,
        0,
        0,
        0,
        0,
        0,
        0,
        0,
        0,
        0,
        0,
        0,
        0,
        0,
        0,
        0,
        0;;
        Material mat_0 {
           0.640000; 0.640000; 0.640000; 1.000000;;
           92.156863;
           0.250000; 0.250000; 0.250000;;
           0.000000; 0.000000; 0.000000;;
          TextureFilename {"Textures/boopig_1_0.tga";}
        }
      } //End of Mesh Material List
      MeshTextureCoords { //Mesh UV Coordinates
        120;
         1.599614;-0.334817;,
         1.618560;-0.361211;,
         1.470460;-0.348252;,
         1.618560;-0.361211;,
         1.477512;-0.392132;,
         1.470460;-0.348252;,
         1.403351;-0.382271;,
         1.470460;-0.348252;,
         1.477512;-0.392132;,
         1.477512;-0.392132;,
         1.432038;-0.417217;,
         1.403351;-0.382271;,
         1.403351;-0.382271;,
         1.432038;-0.417217;,
         1.444985;-0.410447;,
         1.432038;-0.417217;,
         1.561479;-0.437676;,
         1.444985;-0.410447;,
         1.444985;-0.410447;,
         1.561479;-0.437676;,
         1.627904;-0.421481;,
         1.627904;-0.421481;,
         1.588297;-0.398078;,
         1.444985;-0.410447;,
         1.444985;-0.410447;,
         1.588297;-0.398078;,
         1.444671;-0.375057;,
         1.588297;-0.398078;,
         1.570858;-0.379030;,
         1.444671;-0.375057;,
         1.444985;-0.410447;,
         1.444671;-0.375057;,
         1.403351;-0.382271;,
         1.444671;-0.375057;,
         1.405908;-0.357889;,
         1.403351;-0.382271;,
         1.403351;-0.382271;,
         1.405908;-0.357889;,
         1.470460;-0.348252;,
         1.618560;-0.361211;,
         1.655216;-0.397095;,
         1.477512;-0.392132;,
         1.655216;-0.397095;,
         1.581230;-0.429664;,
         1.477512;-0.392132;,
         1.477512;-0.392132;,
         1.581230;-0.429664;,
         1.432038;-0.417217;,
         1.581230;-0.429664;,
         1.561479;-0.437676;,
         1.432038;-0.417217;,
        -0.429142;-0.379030;,
        -0.411703;-0.398078;,
        -0.315656;-0.354507;,
        -0.411703;-0.398078;,
        -0.271061;-0.383491;,
        -0.315656;-0.354507;,
        -0.315656;-0.354507;,
        -0.271061;-0.383491;,
        -0.252930;-0.344999;,
        -0.271061;-0.383491;,
        -0.225933;-0.376817;,
        -0.252930;-0.344999;,
        -0.252930;-0.344999;,
        -0.225933;-0.376817;,
        -0.260506;-0.354481;,
        -0.225933;-0.376817;,
        -0.249826;-0.403944;,
        -0.260506;-0.354481;,
        -0.260506;-0.354481;,
        -0.249826;-0.403944;,
        -0.344784;-0.397095;,
        -0.249826;-0.403944;,
        -0.418770;-0.429664;,
        -0.344784;-0.397095;,
        -0.418770;-0.429664;,
        -0.249826;-0.403944;,
        -0.315885;-0.428349;,
        -0.249826;-0.403944;,
        -0.256658;-0.415329;,
        -0.315885;-0.428349;,
        -0.315885;-0.428349;,
        -0.256658;-0.415329;,
        -0.438521;-0.437676;,
        -0.256658;-0.415329;,
        -0.372096;-0.421481;,
        -0.438521;-0.437676;,
        -0.372096;-0.421481;,
        -0.256658;-0.415329;,
        -0.271061;-0.383491;,
        -0.256658;-0.415329;,
        -0.225933;-0.376817;,
        -0.271061;-0.383491;,
        -0.225933;-0.376817;,
        -0.256658;-0.415329;,
        -0.249826;-0.403944;,
        -0.271061;-0.383491;,
        -0.411703;-0.398078;,
        -0.372096;-0.421481;,
        -0.438521;-0.437676;,
        -0.418770;-0.429664;,
        -0.315885;-0.428349;,
        -0.344784;-0.397095;,
        -0.381440;-0.361211;,
        -0.260506;-0.354481;,
        -0.381440;-0.361211;,
        -0.303660;-0.318034;,
        -0.260506;-0.354481;,
        -0.260506;-0.354481;,
        -0.303660;-0.318034;,
        -0.252930;-0.344999;,
        -0.303660;-0.318034;,
        -0.275942;-0.325075;,
        -0.252930;-0.344999;,
        -0.252930;-0.344999;,
        -0.275942;-0.325075;,
        -0.315656;-0.354507;,
        -0.381440;-0.361211;,
        -0.400386;-0.334817;,
        -0.303660;-0.318034;;
      } //End of Mesh UV Coordinates
    } //End of Mesh Mesh
  } //End of boopig_mat_0
} //End of Root Frame
