# 
# Wavefront material file
# Created with Kaydara FBX
# 

newmtl Material__149
map_Kd pm0766_00_BodyEnv.png
Ka 0.588000 0.588000 0.588000
Kd 0.588000 0.588000 0.588000
Ks 0.000000 0.000000 0.000000
illum 2
Ns 2.000000
Tr 1.000000

newmtl Material__150
map_Kd pm0766_00_Body1.png
Ka 0.588000 0.588000 0.588000
Kd 0.588000 0.588000 0.588000
Ks 0.000000 0.000000 0.000000
illum 2
Ns 2.000000
Tr 1.000000

newmtl Material__151
map_Kd pm0766_00_Eye1.png
Ka 0.588000 0.588000 0.588000
Kd 0.588000 0.588000 0.588000
Ks 0.000000 0.000000 0.000000
illum 2
Ns 2.000000
Tr 1.000000

newmtl Material__152
map_Kd pm0766_00_DesukarnEnv.png
Ka 0.588000 0.588000 0.588000
Kd 0.588000 0.588000 0.588000
Ks 0.000000 0.000000 0.000000
illum 2
Ns 2.000000
Tr 1.000000
