# Blender v2.66 (sub 1) OBJ File: 'BR_Staryu.blend'
# www.blender.org
mtllib BR_Staryu.mtl
o hitodeman
v 0.150717 0.008517 -1.693180
v 0.150717 0.008517 -1.693180
v -0.018182 0.008725 -1.862540
v -0.018182 0.008725 -1.862540
v -0.018182 0.008725 -1.862540
v -0.018182 0.008725 -1.862540
v 0.847298 -0.437744 -2.346340
v 0.847298 -0.437744 -2.346340
v 0.952522 -0.409692 -2.143770
v 0.952522 -0.409692 -2.143770
v 0.847298 0.812518 -2.346340
v 0.847298 0.812518 -2.346340
v 0.954146 0.758917 -2.140390
v 0.954146 0.758917 -2.140390
v 1.903280 0.008920 -2.674700
v 1.903280 0.008920 -2.674700
v 1.868450 0.008725 -2.880000
v 1.868450 0.008725 -2.880000
v 1.868450 0.008725 -2.880000
v 1.868450 0.008725 -2.880000
v 1.525690 0.008725 -5.150530
v 1.525690 0.008725 -5.150530
v 1.754890 -0.412698 -4.314640
v 1.754890 -0.412698 -4.314640
v 1.546920 -0.440091 -4.281700
v 1.546920 -0.440091 -4.281700
v 1.337970 0.008725 -5.173130
v 1.337970 0.008725 -5.173130
v 1.337970 0.008725 -5.173130
v 1.337970 0.008725 -5.173130
v 1.549740 0.815736 -4.282150
v 1.549740 0.815736 -4.282150
v 1.754890 0.764210 -4.314640
v 1.754890 0.764210 -4.314640
v 2.104580 0.008725 -3.039310
v 2.104580 0.008725 -3.039310
v -0.883660 -0.437744 -2.346340
v -0.883660 -0.437744 -2.346340
v -0.186643 0.008725 -1.693970
v -0.186643 0.008725 -1.693970
v -0.989890 -0.409671 -2.141800
v -0.989890 -0.409671 -2.141800
v -0.883660 0.812518 -2.346340
v -0.883660 0.812518 -2.346340
v -0.989890 0.758945 -2.141800
v -0.989890 0.758945 -2.141800
v -1.941090 0.008725 -2.672120
v -1.941090 0.008725 -2.672120
v -1.905210 0.008725 -2.879780
v -1.905210 0.008725 -2.879780
v -1.905210 0.008725 -2.879780
v -1.905210 0.008725 -2.879780
v -1.564580 0.008725 -5.151220
v -1.564580 0.008725 -5.151220
v -1.374190 0.008725 -5.173440
v -1.374190 0.008725 -5.173440
v -1.374190 0.008725 -5.173440
v -1.374190 0.008725 -5.173440
v -1.583290 -0.440091 -4.281700
v -1.583290 -0.440091 -4.281700
v -1.791250 -0.412698 -4.314650
v -1.791250 -0.412698 -4.314650
v -1.791250 0.764210 -4.314650
v -1.791250 0.764210 -4.314650
v -1.586100 0.815736 -4.282150
v -1.586100 0.815736 -4.282150
v -2.137080 0.008725 -3.038270
v -2.137080 0.008725 -3.038270
v -1.284230 0.008725 -5.375280
v -1.284230 0.008725 -5.375280
v -0.018183 -0.438572 -5.368700
v -0.018181 -0.468659 -5.161740
v -0.018181 0.864042 -5.161740
v -0.018183 0.806841 -5.368700
v 1.247860 0.008725 -5.362110
v 1.247860 0.008725 -5.362110
v -0.018181 -0.673616 -4.033820
v -0.018181 -0.673616 -4.033820
v -0.018181 -0.673616 -4.033820
v -0.018181 -0.673616 -4.033820
v -0.018181 -0.673616 -4.033820
v -0.018181 -0.673616 -4.033820
v -0.018181 -0.673616 -4.033820
v -0.018181 -0.673616 -4.033820
v -0.018181 -0.673616 -4.033820
v -0.018181 -0.673616 -4.033820
v -0.018181 1.205640 -4.033820
v -0.018181 1.205640 -4.033820
v -0.018181 1.205640 -4.033820
v -0.018181 1.205640 -4.033820
v -0.018181 1.205640 -4.033820
v -0.018181 1.205640 -4.033820
v -0.018181 1.205640 -4.033820
v -0.018181 1.205640 -4.033820
v -0.018181 1.205640 -4.033820
v -0.018181 1.205640 -4.033820
v 0.614501 0.000000 -7.646980
v 0.614501 0.000000 -7.646980
v 0.284192 0.000000 -7.749140
v 0.284192 0.000000 -7.749140
v 0.449347 0.138590 -7.698060
v 0.449347 -0.097902 -7.698060
v 0.449347 -0.097902 -7.698060
v 0.449347 -0.097902 -7.698060
v 0.230227 0.355373 -6.990540
v 0.230227 0.355373 -6.990540
v 0.736104 0.000000 -6.896650
v 0.736104 0.000000 -6.896650
v 0.230227 -0.217321 -6.990540
v 0.230227 -0.217321 -6.990540
v -0.275649 0.000000 -7.084430
v -0.275649 0.000000 -7.084430
v 0.081463 0.558297 -6.241800
v 0.081463 0.558297 -6.241800
v 0.935932 0.000000 -6.184050
v 0.935932 0.000000 -6.184050
v 0.081463 -0.321155 -6.241800
v 0.081463 -0.321155 -6.241800
v -0.768854 0.000000 -6.343850
v -0.768854 0.000000 -6.343850
v 2.173910 0.111646 0.019325
v 2.173910 0.111646 0.019325
v 2.173910 0.111646 0.019325
v 1.978860 0.013228 -0.016455
v 1.978860 0.013228 -0.016455
v 1.978860 0.013228 -0.016455
v 2.318310 -0.046960 -0.035460
v 2.318310 -0.046960 -0.035460
v 2.318310 -0.046960 -0.035460
v 2.130700 -0.107648 -0.057946
v 2.130700 -0.107648 -0.057946
v 2.130700 -0.107648 -0.057946
v 1.418100 0.118536 -1.374940
v 1.418100 0.118536 -1.374940
v 2.145820 0.452989 -1.243580
v 2.145820 0.452989 -1.243580
v 1.594930 0.862083 -1.029150
v 1.594930 0.862083 -1.029150
v 1.195980 0.450339 -0.728400
v 1.195980 0.450339 -0.728400
v 2.018580 0.341538 -1.991570
v 2.018580 0.341538 -1.991570
v 1.255390 -0.071537 -1.653280
v 1.255390 -0.071537 -1.653280
v 1.155660 0.864556 -1.820620
v 1.155660 0.864556 -1.820620
v 0.650911 0.333106 -1.245430
v 0.650911 0.333106 -1.245430
v -4.042790 0.339224 -5.154550
v -4.042790 0.339224 -5.154550
v -4.042790 0.339224 -5.154550
v -4.225960 0.365228 -4.862460
v -4.225960 0.365228 -4.862460
v -4.225960 0.365228 -4.862460
v -4.084700 0.484811 -5.035250
v -4.084700 0.484811 -5.035250
v -4.084700 0.484811 -5.035250
v -4.142810 0.256133 -5.051330
v -4.142810 0.256133 -5.051330
v -4.142810 0.256133 -5.051330
v -3.099090 0.488434 -4.614060
v -3.099090 0.488434 -4.614060
v -3.391220 0.096399 -3.959930
v -3.391220 0.096399 -3.959930
v -3.177670 -0.153447 -4.630560
v -3.177670 -0.153447 -4.630560
v -2.996570 0.075884 -5.040980
v -2.996570 0.075884 -5.040980
v -2.423440 0.592225 -4.424400
v -2.423440 0.592225 -4.424400
v -2.663300 0.000000 -3.407940
v -2.663300 0.000000 -3.407940
v -2.423440 -0.335804 -4.424400
v -2.423440 -0.335804 -4.424400
v -2.271700 0.000000 -5.067420
v -2.271700 0.000000 -5.067420
v -1.976470 0.020640 -0.010994
v -1.976470 0.020640 -0.010994
v -1.976470 0.020640 -0.010994
v -2.171370 0.119356 0.024774
v -2.171370 0.119356 0.024774
v -2.171370 0.119356 0.024774
v -2.316010 -0.039283 -0.029293
v -2.316010 -0.039283 -0.029293
v -2.316010 -0.039283 -0.029293
v -2.128490 -0.100221 -0.051874
v -2.128490 -0.100221 -0.051874
v -2.128490 -0.100221 -0.051874
v -2.143780 0.457841 -1.241310
v -2.143780 0.457841 -1.241310
v -1.591810 0.866541 -1.028900
v -1.591810 0.866541 -1.028900
v -1.193090 0.454906 -0.727711
v -1.193090 0.454906 -0.727711
v -1.418420 0.123374 -1.374230
v -1.418420 0.123374 -1.374230
v -1.255920 -0.068668 -1.652750
v -1.255920 -0.068668 -1.652750
v -2.018110 0.344698 -1.989720
v -2.018110 0.344698 -1.989720
v -1.153640 0.866098 -1.821690
v -1.153640 0.866098 -1.821690
v -0.649006 0.334830 -1.246230
v -0.649006 0.334830 -1.246230
v 4.198480 -0.323097 -4.146540
v 4.198480 -0.323097 -4.146540
v 4.198480 -0.323097 -4.146540
v 4.176040 -0.330336 -4.491480
v 4.176040 -0.330336 -4.491480
v 4.176040 -0.330336 -4.491480
v 4.224450 -0.194719 -4.363230
v 4.224450 -0.194719 -4.363230
v 4.224450 -0.194719 -4.363230
v 4.166870 -0.423933 -4.354670
v 4.166870 -0.423933 -4.354670
v 4.166870 -0.423933 -4.354670
v 3.194740 0.326849 -4.468530
v 3.194740 0.326849 -4.468530
v 3.221710 -0.069194 -3.754860
v 3.221710 -0.069194 -3.754860
v 3.119290 -0.315418 -4.452470
v 3.119290 -0.315418 -4.452470
v 3.100470 -0.083585 -4.899380
v 3.100470 -0.083585 -4.899380
v 2.656620 0.000000 -3.408420
v 2.656620 0.000000 -3.408420
v 2.423130 0.592225 -4.426370
v 2.423130 0.592225 -4.426370
v 2.423130 -0.335804 -4.426370
v 2.423130 -0.335804 -4.426370
v 2.275380 0.000000 -5.070530
v 2.275380 0.000000 -5.070530
vt 0.540784 0.000000
vt 0.703766 0.179414
vt 0.728777 0.123881
vt 0.500000 0.048061
vt 0.500000 0.637574
vt 0.951396 0.270580
vt 0.944184 0.324305
vt 0.868484 0.704876
vt 0.863337 0.940720
vt 0.917445 0.713819
vt 0.819288 0.946904
vt 0.869147 0.704997
vt 1.000000 0.367632
vt 0.296234 0.179414
vt 0.459216 0.000000
vt 0.271223 0.123881
vt 0.048604 0.270580
vt 0.055723 0.324246
vt 0.136663 0.940720
vt 0.131516 0.704876
vt 0.082555 0.713819
vt 0.180745 0.946987
vt 0.130853 0.704997
vt 0.000000 0.367632
vt 0.500000 0.943811
vt 0.201921 1.000000
vt 0.500000 1.000000
vt 0.798079 1.000000
vt 0.000000 0.000000
usemtl mat_0
s 1
f 1/1 7/2 9/3
f 1/1 3/4 7/2
f 83/5 7/2 3/4
f 11/2 2/1 13/3
f 11/2 4/4 2/1
f 94/5 4/4 11/2
f 15/6 12/2 14/3
f 15/6 17/7 12/2
f 93/5 12/2 17/7
f 8/2 16/6 10/3
f 8/2 18/7 16/6
f 84/5 18/7 8/2
f 25/8 21/9 23/10
f 25/8 27/11 21/9
f 86/5 27/11 25/8
f 22/9 31/12 33/10
f 22/9 28/11 31/12
f 95/5 31/12 28/11
f 35/13 26/8 24/10
f 35/13 19/7 26/8
f 85/5 26/8 19/7
f 32/12 36/13 34/10
f 32/12 20/7 36/13
f 96/5 20/7 32/12
f 37/14 39/15 41/16
f 37/14 5/4 39/15
f 78/5 5/4 37/14
f 40/15 43/14 45/16
f 40/15 6/4 43/14
f 89/5 43/14 6/4
f 44/14 47/17 46/16
f 44/14 49/18 47/17
f 88/5 49/18 44/14
f 48/17 38/14 42/16
f 48/17 50/18 38/14
f 79/5 38/14 50/18
f 53/19 59/20 61/21
f 53/19 55/22 59/20
f 81/5 59/20 55/22
f 65/23 54/19 63/21
f 65/23 56/22 54/19
f 90/5 56/22 65/23
f 60/20 67/24 62/21
f 60/20 51/18 67/24
f 80/5 51/18 60/20
f 68/24 66/23 64/21
f 68/24 52/18 66/23
f 91/5 66/23 52/18
f 57/22 72/25 77/5
f 57/22 69/26 72/25
f 71/27 72/25 69/26
f 71/27 75/28 72/25
f 29/11 72/25 75/28
f 29/11 82/5 72/25
f 73/25 58/22 87/5
f 73/25 70/26 58/22
f 74/27 70/26 73/25
f 73/25 76/28 74/27
f 30/11 76/28 73/25
f 73/25 92/5 30/11
f 99/29 97/29 102/29
f 99/29 101/29 97/29
f 106/29 101/29 99/29
f 99/29 111/29 106/29
f 114/29 106/29 111/29
f 111/29 119/29 114/29
f 74/29 114/29 119/29
f 119/29 70/29 74/29
f 105/29 97/29 101/29
f 105/29 107/29 97/29
f 113/29 107/29 105/29
f 113/29 115/29 107/29
f 74/29 115/29 113/29
f 74/29 76/29 115/29
f 98/29 109/29 103/29
f 98/29 108/29 109/29
f 117/29 109/29 108/29
f 108/29 116/29 117/29
f 71/29 117/29 116/29
f 116/29 75/29 71/29
f 110/29 100/29 104/29
f 110/29 112/29 100/29
f 118/29 112/29 110/29
f 118/29 120/29 112/29
f 71/29 120/29 118/29
f 71/29 69/29 120/29
f 124/29 127/29 121/29
f 124/29 130/29 127/29
f 131/29 135/29 128/29
f 131/29 133/29 135/29
f 143/29 135/29 133/29
f 143/29 141/29 135/29
f 10/29 141/29 143/29
f 10/29 16/29 141/29
f 136/29 122/29 129/29
f 136/29 137/29 122/29
f 145/29 137/29 136/29
f 136/29 142/29 145/29
f 14/29 145/29 142/29
f 142/29 15/29 14/29
f 138/29 125/29 123/29
f 138/29 139/29 125/29
f 146/29 139/29 138/29
f 146/29 147/29 139/29
f 13/29 147/29 146/29
f 13/29 2/29 147/29
f 126/29 134/29 132/29
f 126/29 140/29 134/29
f 144/29 134/29 140/29
f 140/29 148/29 144/29
f 9/29 144/29 148/29
f 148/29 1/29 9/29
f 149/29 152/29 155/29
f 149/29 158/29 152/29
f 153/29 161/29 156/29
f 153/29 163/29 161/29
f 169/29 161/29 163/29
f 163/29 171/29 169/29
f 64/29 169/29 171/29
f 171/29 68/29 64/29
f 165/29 154/29 159/29
f 165/29 164/29 154/29
f 173/29 164/29 165/29
f 173/29 172/29 164/29
f 62/29 172/29 173/29
f 62/29 67/29 172/29
f 162/29 150/29 157/29
f 162/29 167/29 150/29
f 170/29 167/29 162/29
f 170/29 175/29 167/29
f 63/29 175/29 170/29
f 63/29 54/29 175/29
f 151/29 166/29 160/29
f 151/29 168/29 166/29
f 174/29 166/29 168/29
f 168/29 176/29 174/29
f 61/29 174/29 176/29
f 176/29 53/29 61/29
f 183/29 177/29 180/29
f 183/29 186/29 177/29
f 189/29 187/29 184/29
f 189/29 195/29 187/29
f 197/29 195/29 189/29
f 189/29 199/29 197/29
f 42/29 197/29 199/29
f 199/29 48/29 42/29
f 181/29 190/29 185/29
f 181/29 191/29 190/29
f 201/29 190/29 191/29
f 201/29 200/29 190/29
f 46/29 200/29 201/29
f 46/29 47/29 200/29
f 178/29 192/29 182/29
f 178/29 193/29 192/29
f 202/29 192/29 193/29
f 193/29 203/29 202/29
f 45/29 202/29 203/29
f 203/29 40/29 45/29
f 196/29 179/29 188/29
f 196/29 194/29 179/29
f 198/29 194/29 196/29
f 198/29 204/29 194/29
f 41/29 204/29 198/29
f 41/29 39/29 204/29
f 205/29 208/29 211/29
f 205/29 214/29 208/29
f 217/29 206/29 212/29
f 217/29 219/29 206/29
f 227/29 219/29 217/29
f 227/29 225/29 219/29
f 34/29 225/29 227/29
f 34/29 36/29 225/29
f 207/29 221/29 215/29
f 207/29 220/29 221/29
f 229/29 221/29 220/29
f 220/29 226/29 229/29
f 24/29 229/29 226/29
f 226/29 35/29 24/29
f 209/29 218/29 213/29
f 209/29 223/29 218/29
f 228/29 218/29 223/29
f 223/29 231/29 228/29
f 33/29 228/29 231/29
f 231/29 22/29 33/29
f 222/29 210/29 216/29
f 222/29 224/29 210/29
f 230/29 224/29 222/29
f 230/29 232/29 224/29
f 23/29 232/29 230/29
f 23/29 21/29 232/29
