xof 0303txt 0032

template AnimTicksPerSecond {
  <9E415A43-7BA6-4a73-8743-B73D47E88476>
  DWORD AnimTicksPerSecond;
}

template XSkinMeshHeader {
  <3cf169ce-ff7c-44ab-93c0-f78f62d172e2>
  WORD nMaxSkinWeightsPerVertex;
  WORD nMaxSkinWeightsPerFace;
  WORD nBones;
}

template SkinWeights {
  <6f0d123b-bad2-4167-a0d0-80224f25fabb>
  STRING transformNodeName;
  DWORD nWeights;
  array DWORD vertexIndices[nWeights];
  array float weights[nWeights];
  Matrix4x4 matrixOffset;
}

Frame Root {
  FrameTransformMatrix {
     1.000000, 0.000000, 0.000000, 0.000000,
     0.000000, 0.000000, 1.000000, 0.000000,
     0.000000, 1.000000,-0.000000, 0.000000,
     0.000000, 0.000000, 0.000000, 1.000000;;
  }
  Frame hitodeman_mat_0 {
    FrameTransformMatrix {
       1.000000, 0.000000, 0.000000, 0.000000,
       0.000000, 1.000000, 0.000000, 0.000000,
       0.000000, 0.000000, 1.000000, 0.000000,
       0.000000, 0.000000, 0.000000, 1.000000;;
    }
    Mesh { //Mesh Mesh
      570;
       0.952522; 2.143770;-0.409692;,
       0.847298; 2.346340;-0.437744;,
       0.150717; 1.693180; 0.008517;,
       0.847298; 2.346340;-0.437744;,
      -0.018182; 1.862540; 0.008725;,
       0.150717; 1.693180; 0.008517;,
      -0.018182; 1.862540; 0.008725;,
       0.847298; 2.346340;-0.437744;,
      -0.018181; 4.033820;-0.673616;,
       0.954146; 2.140390; 0.758917;,
       0.150717; 1.693180; 0.008517;,
       0.847298; 2.346340; 0.812518;,
       0.150717; 1.693180; 0.008517;,
      -0.018182; 1.862540; 0.008725;,
       0.847298; 2.346340; 0.812518;,
       0.847298; 2.346340; 0.812518;,
      -0.018182; 1.862540; 0.008725;,
      -0.018181; 4.033820; 1.205640;,
       0.954146; 2.140390; 0.758917;,
       0.847298; 2.346340; 0.812518;,
       1.903280; 2.674700; 0.008920;,
       0.847298; 2.346340; 0.812518;,
       1.868450; 2.880000; 0.008725;,
       1.903280; 2.674700; 0.008920;,
       1.868450; 2.880000; 0.008725;,
       0.847298; 2.346340; 0.812518;,
      -0.018181; 4.033820; 1.205640;,
       0.952522; 2.143770;-0.409692;,
       1.903280; 2.674700; 0.008920;,
       0.847298; 2.346340;-0.437744;,
       1.903280; 2.674700; 0.008920;,
       1.868450; 2.880000; 0.008725;,
       0.847298; 2.346340;-0.437744;,
       0.847298; 2.346340;-0.437744;,
       1.868450; 2.880000; 0.008725;,
      -0.018181; 4.033820;-0.673616;,
       1.754890; 4.314640;-0.412698;,
       1.525690; 5.150530; 0.008725;,
       1.546920; 4.281700;-0.440091;,
       1.525690; 5.150530; 0.008725;,
       1.337970; 5.173130; 0.008725;,
       1.546920; 4.281700;-0.440091;,
       1.546920; 4.281700;-0.440091;,
       1.337970; 5.173130; 0.008725;,
      -0.018181; 4.033820;-0.673616;,
       1.754890; 4.314640; 0.764210;,
       1.549740; 4.282150; 0.815736;,
       1.525690; 5.150530; 0.008725;,
       1.549740; 4.282150; 0.815736;,
       1.337970; 5.173130; 0.008725;,
       1.525690; 5.150530; 0.008725;,
       1.337970; 5.173130; 0.008725;,
       1.549740; 4.282150; 0.815736;,
      -0.018181; 4.033820; 1.205640;,
       1.754890; 4.314640;-0.412698;,
       1.546920; 4.281700;-0.440091;,
       2.104580; 3.039310; 0.008725;,
       1.546920; 4.281700;-0.440091;,
       1.868450; 2.880000; 0.008725;,
       2.104580; 3.039310; 0.008725;,
       1.868450; 2.880000; 0.008725;,
       1.546920; 4.281700;-0.440091;,
      -0.018181; 4.033820;-0.673616;,
       1.754890; 4.314640; 0.764210;,
       2.104580; 3.039310; 0.008725;,
       1.549740; 4.282150; 0.815736;,
       2.104580; 3.039310; 0.008725;,
       1.868450; 2.880000; 0.008725;,
       1.549740; 4.282150; 0.815736;,
       1.549740; 4.282150; 0.815736;,
       1.868450; 2.880000; 0.008725;,
      -0.018181; 4.033820; 1.205640;,
      -0.989890; 2.141800;-0.409671;,
      -0.186643; 1.693970; 0.008725;,
      -0.883660; 2.346340;-0.437744;,
      -0.186643; 1.693970; 0.008725;,
      -0.018182; 1.862540; 0.008725;,
      -0.883660; 2.346340;-0.437744;,
      -0.883660; 2.346340;-0.437744;,
      -0.018182; 1.862540; 0.008725;,
      -0.018181; 4.033820;-0.673616;,
      -0.989890; 2.141800; 0.758945;,
      -0.883660; 2.346340; 0.812518;,
      -0.186643; 1.693970; 0.008725;,
      -0.883660; 2.346340; 0.812518;,
      -0.018182; 1.862540; 0.008725;,
      -0.186643; 1.693970; 0.008725;,
      -0.018182; 1.862540; 0.008725;,
      -0.883660; 2.346340; 0.812518;,
      -0.018181; 4.033820; 1.205640;,
      -0.989890; 2.141800; 0.758945;,
      -1.941090; 2.672120; 0.008725;,
      -0.883660; 2.346340; 0.812518;,
      -1.941090; 2.672120; 0.008725;,
      -1.905210; 2.879780; 0.008725;,
      -0.883660; 2.346340; 0.812518;,
      -0.883660; 2.346340; 0.812518;,
      -1.905210; 2.879780; 0.008725;,
      -0.018181; 4.033820; 1.205640;,
      -0.989890; 2.141800;-0.409671;,
      -0.883660; 2.346340;-0.437744;,
      -1.941090; 2.672120; 0.008725;,
      -0.883660; 2.346340;-0.437744;,
      -1.905210; 2.879780; 0.008725;,
      -1.941090; 2.672120; 0.008725;,
      -1.905210; 2.879780; 0.008725;,
      -0.883660; 2.346340;-0.437744;,
      -0.018181; 4.033820;-0.673616;,
      -1.791250; 4.314650;-0.412698;,
      -1.583290; 4.281700;-0.440091;,
      -1.564580; 5.151220; 0.008725;,
      -1.583290; 4.281700;-0.440091;,
      -1.374190; 5.173440; 0.008725;,
      -1.564580; 5.151220; 0.008725;,
      -1.374190; 5.173440; 0.008725;,
      -1.583290; 4.281700;-0.440091;,
      -0.018181; 4.033820;-0.673616;,
      -1.791250; 4.314650; 0.764210;,
      -1.564580; 5.151220; 0.008725;,
      -1.586100; 4.282150; 0.815736;,
      -1.564580; 5.151220; 0.008725;,
      -1.374190; 5.173440; 0.008725;,
      -1.586100; 4.282150; 0.815736;,
      -1.586100; 4.282150; 0.815736;,
      -1.374190; 5.173440; 0.008725;,
      -0.018181; 4.033820; 1.205640;,
      -1.791250; 4.314650;-0.412698;,
      -2.137080; 3.038270; 0.008725;,
      -1.583290; 4.281700;-0.440091;,
      -2.137080; 3.038270; 0.008725;,
      -1.905210; 2.879780; 0.008725;,
      -1.583290; 4.281700;-0.440091;,
      -1.583290; 4.281700;-0.440091;,
      -1.905210; 2.879780; 0.008725;,
      -0.018181; 4.033820;-0.673616;,
      -1.791250; 4.314650; 0.764210;,
      -1.586100; 4.282150; 0.815736;,
      -2.137080; 3.038270; 0.008725;,
      -1.586100; 4.282150; 0.815736;,
      -1.905210; 2.879780; 0.008725;,
      -2.137080; 3.038270; 0.008725;,
      -1.905210; 2.879780; 0.008725;,
      -1.586100; 4.282150; 0.815736;,
      -0.018181; 4.033820; 1.205640;,
      -0.018181; 4.033820;-0.673616;,
      -0.018181; 5.161740;-0.468659;,
      -1.374190; 5.173440; 0.008725;,
      -0.018181; 5.161740;-0.468659;,
      -1.284230; 5.375280; 0.008725;,
      -1.374190; 5.173440; 0.008725;,
      -1.284230; 5.375280; 0.008725;,
      -0.018181; 5.161740;-0.468659;,
      -0.018183; 5.368700;-0.438572;,
      -0.018181; 5.161740;-0.468659;,
       1.247860; 5.362110; 0.008725;,
      -0.018183; 5.368700;-0.438572;,
       1.247860; 5.362110; 0.008725;,
      -0.018181; 5.161740;-0.468659;,
       1.337970; 5.173130; 0.008725;,
      -0.018181; 5.161740;-0.468659;,
      -0.018181; 4.033820;-0.673616;,
       1.337970; 5.173130; 0.008725;,
      -0.018181; 4.033820; 1.205640;,
      -1.374190; 5.173440; 0.008725;,
      -0.018181; 5.161740; 0.864042;,
      -1.374190; 5.173440; 0.008725;,
      -1.284230; 5.375280; 0.008725;,
      -0.018181; 5.161740; 0.864042;,
      -0.018181; 5.161740; 0.864042;,
      -1.284230; 5.375280; 0.008725;,
      -0.018183; 5.368700; 0.806841;,
      -0.018183; 5.368700; 0.806841;,
       1.247860; 5.362110; 0.008725;,
      -0.018181; 5.161740; 0.864042;,
      -0.018181; 5.161740; 0.864042;,
       1.247860; 5.362110; 0.008725;,
       1.337970; 5.173130; 0.008725;,
       1.337970; 5.173130; 0.008725;,
      -0.018181; 4.033820; 1.205640;,
      -0.018181; 5.161740; 0.864042;,
       0.449347; 7.698060;-0.097902;,
       0.614501; 7.646980; 0.000000;,
       0.284192; 7.749140; 0.000000;,
       0.614501; 7.646980; 0.000000;,
       0.449347; 7.698060; 0.138590;,
       0.284192; 7.749140; 0.000000;,
       0.284192; 7.749140; 0.000000;,
       0.449347; 7.698060; 0.138590;,
       0.230227; 6.990540; 0.355373;,
       0.230227; 6.990540; 0.355373;,
      -0.275649; 7.084430; 0.000000;,
       0.284192; 7.749140; 0.000000;,
      -0.275649; 7.084430; 0.000000;,
       0.230227; 6.990540; 0.355373;,
       0.081463; 6.241800; 0.558297;,
       0.081463; 6.241800; 0.558297;,
      -0.768854; 6.343850; 0.000000;,
      -0.275649; 7.084430; 0.000000;,
      -0.768854; 6.343850; 0.000000;,
       0.081463; 6.241800; 0.558297;,
      -0.018183; 5.368700; 0.806841;,
      -0.018183; 5.368700; 0.806841;,
      -1.284230; 5.375280; 0.008725;,
      -0.768854; 6.343850; 0.000000;,
       0.449347; 7.698060; 0.138590;,
       0.614501; 7.646980; 0.000000;,
       0.230227; 6.990540; 0.355373;,
       0.614501; 7.646980; 0.000000;,
       0.736104; 6.896650; 0.000000;,
       0.230227; 6.990540; 0.355373;,
       0.230227; 6.990540; 0.355373;,
       0.736104; 6.896650; 0.000000;,
       0.081463; 6.241800; 0.558297;,
       0.736104; 6.896650; 0.000000;,
       0.935932; 6.184050; 0.000000;,
       0.081463; 6.241800; 0.558297;,
       0.081463; 6.241800; 0.558297;,
       0.935932; 6.184050; 0.000000;,
      -0.018183; 5.368700; 0.806841;,
       0.935932; 6.184050; 0.000000;,
       1.247860; 5.362110; 0.008725;,
      -0.018183; 5.368700; 0.806841;,
       0.449347; 7.698060;-0.097902;,
       0.230227; 6.990540;-0.217321;,
       0.614501; 7.646980; 0.000000;,
       0.230227; 6.990540;-0.217321;,
       0.736104; 6.896650; 0.000000;,
       0.614501; 7.646980; 0.000000;,
       0.736104; 6.896650; 0.000000;,
       0.230227; 6.990540;-0.217321;,
       0.081463; 6.241800;-0.321155;,
       0.081463; 6.241800;-0.321155;,
       0.935932; 6.184050; 0.000000;,
       0.736104; 6.896650; 0.000000;,
       0.935932; 6.184050; 0.000000;,
       0.081463; 6.241800;-0.321155;,
      -0.018183; 5.368700;-0.438572;,
      -0.018183; 5.368700;-0.438572;,
       1.247860; 5.362110; 0.008725;,
       0.935932; 6.184050; 0.000000;,
       0.449347; 7.698060;-0.097902;,
       0.284192; 7.749140; 0.000000;,
       0.230227; 6.990540;-0.217321;,
       0.284192; 7.749140; 0.000000;,
      -0.275649; 7.084430; 0.000000;,
       0.230227; 6.990540;-0.217321;,
       0.230227; 6.990540;-0.217321;,
      -0.275649; 7.084430; 0.000000;,
       0.081463; 6.241800;-0.321155;,
      -0.275649; 7.084430; 0.000000;,
      -0.768854; 6.343850; 0.000000;,
       0.081463; 6.241800;-0.321155;,
       0.081463; 6.241800;-0.321155;,
      -0.768854; 6.343850; 0.000000;,
      -0.018183; 5.368700;-0.438572;,
      -0.768854; 6.343850; 0.000000;,
      -1.284230; 5.375280; 0.008725;,
      -0.018183; 5.368700;-0.438572;,
       2.173910;-0.019325; 0.111646;,
       2.318310; 0.035460;-0.046960;,
       1.978860; 0.016455; 0.013228;,
       2.318310; 0.035460;-0.046960;,
       2.130700; 0.057946;-0.107648;,
       1.978860; 0.016455; 0.013228;,
       2.318310; 0.035460;-0.046960;,
       2.145820; 1.243580; 0.452989;,
       2.130700; 0.057946;-0.107648;,
       2.145820; 1.243580; 0.452989;,
       1.418100; 1.374940; 0.118536;,
       2.130700; 0.057946;-0.107648;,
       1.418100; 1.374940; 0.118536;,
       2.145820; 1.243580; 0.452989;,
       1.255390; 1.653280;-0.071537;,
       2.145820; 1.243580; 0.452989;,
       2.018580; 1.991570; 0.341538;,
       1.255390; 1.653280;-0.071537;,
       1.255390; 1.653280;-0.071537;,
       2.018580; 1.991570; 0.341538;,
       0.952522; 2.143770;-0.409692;,
       2.018580; 1.991570; 0.341538;,
       1.903280; 2.674700; 0.008920;,
       0.952522; 2.143770;-0.409692;,
       2.318310; 0.035460;-0.046960;,
       2.173910;-0.019325; 0.111646;,
       2.145820; 1.243580; 0.452989;,
       2.173910;-0.019325; 0.111646;,
       1.594930; 1.029150; 0.862083;,
       2.145820; 1.243580; 0.452989;,
       2.145820; 1.243580; 0.452989;,
       1.594930; 1.029150; 0.862083;,
       1.155660; 1.820620; 0.864556;,
       1.155660; 1.820620; 0.864556;,
       2.018580; 1.991570; 0.341538;,
       2.145820; 1.243580; 0.452989;,
       2.018580; 1.991570; 0.341538;,
       1.155660; 1.820620; 0.864556;,
       0.954146; 2.140390; 0.758917;,
       0.954146; 2.140390; 0.758917;,
       1.903280; 2.674700; 0.008920;,
       2.018580; 1.991570; 0.341538;,
       2.173910;-0.019325; 0.111646;,
       1.978860; 0.016455; 0.013228;,
       1.594930; 1.029150; 0.862083;,
       1.978860; 0.016455; 0.013228;,
       1.195980; 0.728400; 0.450339;,
       1.594930; 1.029150; 0.862083;,
       1.594930; 1.029150; 0.862083;,
       1.195980; 0.728400; 0.450339;,
       1.155660; 1.820620; 0.864556;,
       1.195980; 0.728400; 0.450339;,
       0.650911; 1.245430; 0.333106;,
       1.155660; 1.820620; 0.864556;,
       1.155660; 1.820620; 0.864556;,
       0.650911; 1.245430; 0.333106;,
       0.954146; 2.140390; 0.758917;,
       0.650911; 1.245430; 0.333106;,
       0.150717; 1.693180; 0.008517;,
       0.954146; 2.140390; 0.758917;,
       2.130700; 0.057946;-0.107648;,
       1.418100; 1.374940; 0.118536;,
       1.978860; 0.016455; 0.013228;,
       1.418100; 1.374940; 0.118536;,
       1.195980; 0.728400; 0.450339;,
       1.978860; 0.016455; 0.013228;,
       1.195980; 0.728400; 0.450339;,
       1.418100; 1.374940; 0.118536;,
       1.255390; 1.653280;-0.071537;,
       1.255390; 1.653280;-0.071537;,
       0.650911; 1.245430; 0.333106;,
       1.195980; 0.728400; 0.450339;,
       0.650911; 1.245430; 0.333106;,
       1.255390; 1.653280;-0.071537;,
       0.952522; 2.143770;-0.409692;,
       0.952522; 2.143770;-0.409692;,
       0.150717; 1.693180; 0.008517;,
       0.650911; 1.245430; 0.333106;,
      -4.084700; 5.035250; 0.484811;,
      -4.225960; 4.862460; 0.365228;,
      -4.042790; 5.154550; 0.339224;,
      -4.225960; 4.862460; 0.365228;,
      -4.142810; 5.051330; 0.256133;,
      -4.042790; 5.154550; 0.339224;,
      -4.084700; 5.035250; 0.484811;,
      -3.099090; 4.614060; 0.488434;,
      -4.225960; 4.862460; 0.365228;,
      -3.099090; 4.614060; 0.488434;,
      -3.391220; 3.959930; 0.096399;,
      -4.225960; 4.862460; 0.365228;,
      -3.391220; 3.959930; 0.096399;,
      -3.099090; 4.614060; 0.488434;,
      -2.423440; 4.424400; 0.592225;,
      -2.423440; 4.424400; 0.592225;,
      -2.663300; 3.407940; 0.000000;,
      -3.391220; 3.959930; 0.096399;,
      -2.663300; 3.407940; 0.000000;,
      -2.423440; 4.424400; 0.592225;,
      -1.791250; 4.314650; 0.764210;,
      -1.791250; 4.314650; 0.764210;,
      -2.137080; 3.038270; 0.008725;,
      -2.663300; 3.407940; 0.000000;,
      -4.142810; 5.051330; 0.256133;,
      -4.225960; 4.862460; 0.365228;,
      -3.177670; 4.630560;-0.153447;,
      -4.225960; 4.862460; 0.365228;,
      -3.391220; 3.959930; 0.096399;,
      -3.177670; 4.630560;-0.153447;,
      -3.177670; 4.630560;-0.153447;,
      -3.391220; 3.959930; 0.096399;,
      -2.423440; 4.424400;-0.335804;,
      -3.391220; 3.959930; 0.096399;,
      -2.663300; 3.407940; 0.000000;,
      -2.423440; 4.424400;-0.335804;,
      -2.423440; 4.424400;-0.335804;,
      -2.663300; 3.407940; 0.000000;,
      -1.791250; 4.314650;-0.412698;,
      -2.663300; 3.407940; 0.000000;,
      -2.137080; 3.038270; 0.008725;,
      -1.791250; 4.314650;-0.412698;,
      -4.084700; 5.035250; 0.484811;,
      -4.042790; 5.154550; 0.339224;,
      -3.099090; 4.614060; 0.488434;,
      -4.042790; 5.154550; 0.339224;,
      -2.996570; 5.040980; 0.075884;,
      -3.099090; 4.614060; 0.488434;,
      -3.099090; 4.614060; 0.488434;,
      -2.996570; 5.040980; 0.075884;,
      -2.423440; 4.424400; 0.592225;,
      -2.996570; 5.040980; 0.075884;,
      -2.271700; 5.067420; 0.000000;,
      -2.423440; 4.424400; 0.592225;,
      -2.423440; 4.424400; 0.592225;,
      -2.271700; 5.067420; 0.000000;,
      -1.791250; 4.314650; 0.764210;,
      -2.271700; 5.067420; 0.000000;,
      -1.564580; 5.151220; 0.008725;,
      -1.791250; 4.314650; 0.764210;,
      -4.142810; 5.051330; 0.256133;,
      -3.177670; 4.630560;-0.153447;,
      -4.042790; 5.154550; 0.339224;,
      -3.177670; 4.630560;-0.153447;,
      -2.996570; 5.040980; 0.075884;,
      -4.042790; 5.154550; 0.339224;,
      -2.996570; 5.040980; 0.075884;,
      -3.177670; 4.630560;-0.153447;,
      -2.423440; 4.424400;-0.335804;,
      -2.423440; 4.424400;-0.335804;,
      -2.271700; 5.067420; 0.000000;,
      -2.996570; 5.040980; 0.075884;,
      -2.271700; 5.067420; 0.000000;,
      -2.423440; 4.424400;-0.335804;,
      -1.791250; 4.314650;-0.412698;,
      -1.791250; 4.314650;-0.412698;,
      -1.564580; 5.151220; 0.008725;,
      -2.271700; 5.067420; 0.000000;,
      -2.171370;-0.024774; 0.119356;,
      -1.976470; 0.010994; 0.020640;,
      -2.316010; 0.029293;-0.039283;,
      -1.976470; 0.010994; 0.020640;,
      -2.128490; 0.051874;-0.100221;,
      -2.316010; 0.029293;-0.039283;,
      -2.316010; 0.029293;-0.039283;,
      -2.128490; 0.051874;-0.100221;,
      -2.143780; 1.241310; 0.457841;,
      -2.128490; 0.051874;-0.100221;,
      -1.418420; 1.374230; 0.123374;,
      -2.143780; 1.241310; 0.457841;,
      -2.143780; 1.241310; 0.457841;,
      -1.418420; 1.374230; 0.123374;,
      -1.255920; 1.652750;-0.068668;,
      -1.255920; 1.652750;-0.068668;,
      -2.018110; 1.989720; 0.344698;,
      -2.143780; 1.241310; 0.457841;,
      -2.018110; 1.989720; 0.344698;,
      -1.255920; 1.652750;-0.068668;,
      -0.989890; 2.141800;-0.409671;,
      -0.989890; 2.141800;-0.409671;,
      -1.941090; 2.672120; 0.008725;,
      -2.018110; 1.989720; 0.344698;,
      -2.316010; 0.029293;-0.039283;,
      -2.143780; 1.241310; 0.457841;,
      -2.171370;-0.024774; 0.119356;,
      -2.143780; 1.241310; 0.457841;,
      -1.591810; 1.028900; 0.866541;,
      -2.171370;-0.024774; 0.119356;,
      -1.591810; 1.028900; 0.866541;,
      -2.143780; 1.241310; 0.457841;,
      -1.153640; 1.821690; 0.866098;,
      -2.143780; 1.241310; 0.457841;,
      -2.018110; 1.989720; 0.344698;,
      -1.153640; 1.821690; 0.866098;,
      -1.153640; 1.821690; 0.866098;,
      -2.018110; 1.989720; 0.344698;,
      -0.989890; 2.141800; 0.758945;,
      -2.018110; 1.989720; 0.344698;,
      -1.941090; 2.672120; 0.008725;,
      -0.989890; 2.141800; 0.758945;,
      -2.171370;-0.024774; 0.119356;,
      -1.591810; 1.028900; 0.866541;,
      -1.976470; 0.010994; 0.020640;,
      -1.591810; 1.028900; 0.866541;,
      -1.193090; 0.727711; 0.454906;,
      -1.976470; 0.010994; 0.020640;,
      -1.193090; 0.727711; 0.454906;,
      -1.591810; 1.028900; 0.866541;,
      -1.153640; 1.821690; 0.866098;,
      -1.153640; 1.821690; 0.866098;,
      -0.649006; 1.246230; 0.334830;,
      -1.193090; 0.727711; 0.454906;,
      -0.649006; 1.246230; 0.334830;,
      -1.153640; 1.821690; 0.866098;,
      -0.989890; 2.141800; 0.758945;,
      -0.989890; 2.141800; 0.758945;,
      -0.186643; 1.693970; 0.008725;,
      -0.649006; 1.246230; 0.334830;,
      -2.128490; 0.051874;-0.100221;,
      -1.976470; 0.010994; 0.020640;,
      -1.418420; 1.374230; 0.123374;,
      -1.976470; 0.010994; 0.020640;,
      -1.193090; 0.727711; 0.454906;,
      -1.418420; 1.374230; 0.123374;,
      -1.418420; 1.374230; 0.123374;,
      -1.193090; 0.727711; 0.454906;,
      -1.255920; 1.652750;-0.068668;,
      -1.193090; 0.727711; 0.454906;,
      -0.649006; 1.246230; 0.334830;,
      -1.255920; 1.652750;-0.068668;,
      -1.255920; 1.652750;-0.068668;,
      -0.649006; 1.246230; 0.334830;,
      -0.989890; 2.141800;-0.409671;,
      -0.649006; 1.246230; 0.334830;,
      -0.186643; 1.693970; 0.008725;,
      -0.989890; 2.141800;-0.409671;,
       4.224450; 4.363230;-0.194719;,
       4.176040; 4.491480;-0.330336;,
       4.198480; 4.146540;-0.323097;,
       4.176040; 4.491480;-0.330336;,
       4.166870; 4.354670;-0.423933;,
       4.198480; 4.146540;-0.323097;,
       4.224450; 4.363230;-0.194719;,
       4.198480; 4.146540;-0.323097;,
       3.194740; 4.468530; 0.326849;,
       4.198480; 4.146540;-0.323097;,
       3.221710; 3.754860;-0.069194;,
       3.194740; 4.468530; 0.326849;,
       3.194740; 4.468530; 0.326849;,
       3.221710; 3.754860;-0.069194;,
       2.423130; 4.426370; 0.592225;,
       3.221710; 3.754860;-0.069194;,
       2.656620; 3.408420; 0.000000;,
       2.423130; 4.426370; 0.592225;,
       2.423130; 4.426370; 0.592225;,
       2.656620; 3.408420; 0.000000;,
       1.754890; 4.314640; 0.764210;,
       2.656620; 3.408420; 0.000000;,
       2.104580; 3.039310; 0.008725;,
       1.754890; 4.314640; 0.764210;,
       4.166870; 4.354670;-0.423933;,
       3.119290; 4.452470;-0.315418;,
       4.198480; 4.146540;-0.323097;,
       3.119290; 4.452470;-0.315418;,
       3.221710; 3.754860;-0.069194;,
       4.198480; 4.146540;-0.323097;,
       3.221710; 3.754860;-0.069194;,
       3.119290; 4.452470;-0.315418;,
       2.423130; 4.426370;-0.335804;,
       2.423130; 4.426370;-0.335804;,
       2.656620; 3.408420; 0.000000;,
       3.221710; 3.754860;-0.069194;,
       2.656620; 3.408420; 0.000000;,
       2.423130; 4.426370;-0.335804;,
       1.754890; 4.314640;-0.412698;,
       1.754890; 4.314640;-0.412698;,
       2.104580; 3.039310; 0.008725;,
       2.656620; 3.408420; 0.000000;,
       4.224450; 4.363230;-0.194719;,
       3.194740; 4.468530; 0.326849;,
       4.176040; 4.491480;-0.330336;,
       3.194740; 4.468530; 0.326849;,
       3.100470; 4.899380;-0.083585;,
       4.176040; 4.491480;-0.330336;,
       3.100470; 4.899380;-0.083585;,
       3.194740; 4.468530; 0.326849;,
       2.423130; 4.426370; 0.592225;,
       2.423130; 4.426370; 0.592225;,
       2.275380; 5.070530; 0.000000;,
       3.100470; 4.899380;-0.083585;,
       2.275380; 5.070530; 0.000000;,
       2.423130; 4.426370; 0.592225;,
       1.754890; 4.314640; 0.764210;,
       1.754890; 4.314640; 0.764210;,
       1.525690; 5.150530; 0.008725;,
       2.275380; 5.070530; 0.000000;,
       4.166870; 4.354670;-0.423933;,
       4.176040; 4.491480;-0.330336;,
       3.119290; 4.452470;-0.315418;,
       4.176040; 4.491480;-0.330336;,
       3.100470; 4.899380;-0.083585;,
       3.119290; 4.452470;-0.315418;,
       3.119290; 4.452470;-0.315418;,
       3.100470; 4.899380;-0.083585;,
       2.423130; 4.426370;-0.335804;,
       3.100470; 4.899380;-0.083585;,
       2.275380; 5.070530; 0.000000;,
       2.423130; 4.426370;-0.335804;,
       2.423130; 4.426370;-0.335804;,
       2.275380; 5.070530; 0.000000;,
       1.754890; 4.314640;-0.412698;,
       2.275380; 5.070530; 0.000000;,
       1.525690; 5.150530; 0.008725;,
       1.754890; 4.314640;-0.412698;;
      190;
      3;0;1;2;,
      3;3;4;5;,
      3;6;7;8;,
      3;9;10;11;,
      3;12;13;14;,
      3;15;16;17;,
      3;18;19;20;,
      3;21;22;23;,
      3;24;25;26;,
      3;27;28;29;,
      3;30;31;32;,
      3;33;34;35;,
      3;36;37;38;,
      3;39;40;41;,
      3;42;43;44;,
      3;45;46;47;,
      3;48;49;50;,
      3;51;52;53;,
      3;54;55;56;,
      3;57;58;59;,
      3;60;61;62;,
      3;63;64;65;,
      3;66;67;68;,
      3;69;70;71;,
      3;72;73;74;,
      3;75;76;77;,
      3;78;79;80;,
      3;81;82;83;,
      3;84;85;86;,
      3;87;88;89;,
      3;90;91;92;,
      3;93;94;95;,
      3;96;97;98;,
      3;99;100;101;,
      3;102;103;104;,
      3;105;106;107;,
      3;108;109;110;,
      3;111;112;113;,
      3;114;115;116;,
      3;117;118;119;,
      3;120;121;122;,
      3;123;124;125;,
      3;126;127;128;,
      3;129;130;131;,
      3;132;133;134;,
      3;135;136;137;,
      3;138;139;140;,
      3;141;142;143;,
      3;144;145;146;,
      3;147;148;149;,
      3;150;151;152;,
      3;153;154;155;,
      3;156;157;158;,
      3;159;160;161;,
      3;162;163;164;,
      3;165;166;167;,
      3;168;169;170;,
      3;171;172;173;,
      3;174;175;176;,
      3;177;178;179;,
      3;180;181;182;,
      3;183;184;185;,
      3;186;187;188;,
      3;189;190;191;,
      3;192;193;194;,
      3;195;196;197;,
      3;198;199;200;,
      3;201;202;203;,
      3;204;205;206;,
      3;207;208;209;,
      3;210;211;212;,
      3;213;214;215;,
      3;216;217;218;,
      3;219;220;221;,
      3;222;223;224;,
      3;225;226;227;,
      3;228;229;230;,
      3;231;232;233;,
      3;234;235;236;,
      3;237;238;239;,
      3;240;241;242;,
      3;243;244;245;,
      3;246;247;248;,
      3;249;250;251;,
      3;252;253;254;,
      3;255;256;257;,
      3;258;259;260;,
      3;261;262;263;,
      3;264;265;266;,
      3;267;268;269;,
      3;270;271;272;,
      3;273;274;275;,
      3;276;277;278;,
      3;279;280;281;,
      3;282;283;284;,
      3;285;286;287;,
      3;288;289;290;,
      3;291;292;293;,
      3;294;295;296;,
      3;297;298;299;,
      3;300;301;302;,
      3;303;304;305;,
      3;306;307;308;,
      3;309;310;311;,
      3;312;313;314;,
      3;315;316;317;,
      3;318;319;320;,
      3;321;322;323;,
      3;324;325;326;,
      3;327;328;329;,
      3;330;331;332;,
      3;333;334;335;,
      3;336;337;338;,
      3;339;340;341;,
      3;342;343;344;,
      3;345;346;347;,
      3;348;349;350;,
      3;351;352;353;,
      3;354;355;356;,
      3;357;358;359;,
      3;360;361;362;,
      3;363;364;365;,
      3;366;367;368;,
      3;369;370;371;,
      3;372;373;374;,
      3;375;376;377;,
      3;378;379;380;,
      3;381;382;383;,
      3;384;385;386;,
      3;387;388;389;,
      3;390;391;392;,
      3;393;394;395;,
      3;396;397;398;,
      3;399;400;401;,
      3;402;403;404;,
      3;405;406;407;,
      3;408;409;410;,
      3;411;412;413;,
      3;414;415;416;,
      3;417;418;419;,
      3;420;421;422;,
      3;423;424;425;,
      3;426;427;428;,
      3;429;430;431;,
      3;432;433;434;,
      3;435;436;437;,
      3;438;439;440;,
      3;441;442;443;,
      3;444;445;446;,
      3;447;448;449;,
      3;450;451;452;,
      3;453;454;455;,
      3;456;457;458;,
      3;459;460;461;,
      3;462;463;464;,
      3;465;466;467;,
      3;468;469;470;,
      3;471;472;473;,
      3;474;475;476;,
      3;477;478;479;,
      3;480;481;482;,
      3;483;484;485;,
      3;486;487;488;,
      3;489;490;491;,
      3;492;493;494;,
      3;495;496;497;,
      3;498;499;500;,
      3;501;502;503;,
      3;504;505;506;,
      3;507;508;509;,
      3;510;511;512;,
      3;513;514;515;,
      3;516;517;518;,
      3;519;520;521;,
      3;522;523;524;,
      3;525;526;527;,
      3;528;529;530;,
      3;531;532;533;,
      3;534;535;536;,
      3;537;538;539;,
      3;540;541;542;,
      3;543;544;545;,
      3;546;547;548;,
      3;549;550;551;,
      3;552;553;554;,
      3;555;556;557;,
      3;558;559;560;,
      3;561;562;563;,
      3;564;565;566;,
      3;567;568;569;;
      MeshNormals { //Mesh Normals
        570;
         0.212439; 0.448286; 0.868252;,
         0.309122; 0.286874; 0.906705;,
         0.195105; 0.455275; 0.868679;,
         0.309122; 0.286874; 0.906705;,
         0.303964; 0.292795; 0.906552;,
         0.195105; 0.455275; 0.868679;,
         0.303964; 0.292795; 0.906552;,
         0.309122; 0.286874; 0.906705;,
         0.308695; 0.285134; 0.907407;,
         0.558824; 0.297464;-0.774071;,
         0.528123; 0.346629;-0.775170;,
         0.472671; 0.433027;-0.767479;,
         0.528123; 0.346629;-0.775170;,
         0.464370; 0.443190;-0.766747;,
         0.472671; 0.433027;-0.767479;,
         0.472671; 0.433027;-0.767479;,
         0.464370; 0.443190;-0.766747;,
         0.477493; 0.424146;-0.769433;,
        -0.492569;-0.295328;-0.818598;,
        -0.581469;-0.101962;-0.807123;,
        -0.519517;-0.232765;-0.822108;,
        -0.581469;-0.101962;-0.807123;,
        -0.581317;-0.103275;-0.807092;,
        -0.519517;-0.232765;-0.822108;,
        -0.581317;-0.103275;-0.807092;,
        -0.581469;-0.101962;-0.807123;,
        -0.579089;-0.108768;-0.807947;,
        -0.453169; 0.086612; 0.887173;,
        -0.445723; 0.097140; 0.889859;,
        -0.372143;-0.063051; 0.926023;,
        -0.445723; 0.097140; 0.889859;,
        -0.372417;-0.062014; 0.925962;,
        -0.372143;-0.063051; 0.926023;,
        -0.372143;-0.063051; 0.926023;,
        -0.372417;-0.062014; 0.925962;,
        -0.372600;-0.061647; 0.925932;,
        -0.037355;-0.460952; 0.886624;,
        -0.047975;-0.458907; 0.887173;,
        -0.052339;-0.459670; 0.886532;,
        -0.047975;-0.458907; 0.887173;,
        -0.057070;-0.459578; 0.886258;,
        -0.052339;-0.459670; 0.886532;,
        -0.052339;-0.459670; 0.886532;,
        -0.057070;-0.459578; 0.886258;,
        -0.059328;-0.459944; 0.885922;,
        -0.075838;-0.681112;-0.728202;,
        -0.075045;-0.679464;-0.729850;,
        -0.081149;-0.680013;-0.728660;,
        -0.075045;-0.679464;-0.729850;,
        -0.078707;-0.679434;-0.729484;,
        -0.081149;-0.680013;-0.728660;,
        -0.078707;-0.679434;-0.729484;,
        -0.075045;-0.679464;-0.729850;,
        -0.074038;-0.679067;-0.730308;,
        -0.163335; 0.270638; 0.948698;,
        -0.176214; 0.264107; 0.948241;,
        -0.171758; 0.265389; 0.948698;,
        -0.176214; 0.264107; 0.948241;,
        -0.179479; 0.262398; 0.948088;,
        -0.171758; 0.265389; 0.948698;,
        -0.179479; 0.262398; 0.948088;,
        -0.176214; 0.264107; 0.948241;,
        -0.182806; 0.261513; 0.947722;,
        -0.287851; 0.429334;-0.856014;,
        -0.292001; 0.426527;-0.856014;,
        -0.282571; 0.429762;-0.857570;,
        -0.292001; 0.426527;-0.856014;,
        -0.285928; 0.428327;-0.857173;,
        -0.282571; 0.429762;-0.857570;,
        -0.282571; 0.429762;-0.857570;,
        -0.285928; 0.428327;-0.857173;,
        -0.281411; 0.429792;-0.857936;,
        -0.215613; 0.444777; 0.869289;,
        -0.194342; 0.457595; 0.867641;,
        -0.309458; 0.286691; 0.906644;,
        -0.194342; 0.457595; 0.867641;,
        -0.303598; 0.293405; 0.906491;,
        -0.309458; 0.286691; 0.906644;,
        -0.309458; 0.286691; 0.906644;,
        -0.303598; 0.293405; 0.906491;,
        -0.308695; 0.285134; 0.907407;,
        -0.574114; 0.278451;-0.769921;,
        -0.472304; 0.433424;-0.767479;,
        -0.536271; 0.332743;-0.775658;,
        -0.472304; 0.433424;-0.767479;,
        -0.464370; 0.443190;-0.766747;,
        -0.536271; 0.332743;-0.775658;,
        -0.464370; 0.443190;-0.766747;,
        -0.472304; 0.433424;-0.767479;,
        -0.477493; 0.424146;-0.769433;,
         0.495285;-0.285440;-0.820490;,
         0.524064;-0.224372;-0.821558;,
         0.581408;-0.101535;-0.807245;,
         0.524064;-0.224372;-0.821558;,
         0.580950;-0.103824;-0.807245;,
         0.581408;-0.101535;-0.807245;,
         0.581408;-0.101535;-0.807245;,
         0.580950;-0.103824;-0.807245;,
         0.578997;-0.108707;-0.808008;,
         0.458907; 0.102451; 0.882534;,
         0.371746;-0.063417; 0.926145;,
         0.448775; 0.105167; 0.887417;,
         0.371746;-0.063417; 0.926145;,
         0.371838;-0.063051; 0.926145;,
         0.448775; 0.105167; 0.887417;,
         0.371838;-0.063051; 0.926145;,
         0.371746;-0.063417; 0.926145;,
         0.372509;-0.061617; 0.925962;,
         0.039094;-0.461287; 0.886349;,
         0.052278;-0.459395; 0.886654;,
         0.048921;-0.458876; 0.887112;,
         0.052278;-0.459395; 0.886654;,
         0.056124;-0.459334; 0.886471;,
         0.048921;-0.458876; 0.887112;,
         0.056124;-0.459334; 0.886471;,
         0.052278;-0.459395; 0.886654;,
         0.059358;-0.459822; 0.885983;,
         0.079073;-0.681326;-0.727653;,
         0.083316;-0.679952;-0.728477;,
         0.074984;-0.679189;-0.730094;,
         0.083316;-0.679952;-0.728477;,
         0.077212;-0.679189;-0.729850;,
         0.074984;-0.679189;-0.730094;,
         0.074984;-0.679189;-0.730094;,
         0.077212;-0.679189;-0.729850;,
         0.074099;-0.678945;-0.730399;,
         0.166662; 0.269753; 0.948363;,
         0.175695; 0.264290; 0.948271;,
         0.176336; 0.264107; 0.948210;,
         0.175695; 0.264290; 0.948271;,
         0.180670; 0.262001; 0.947996;,
         0.176336; 0.264107; 0.948210;,
         0.176336; 0.264107; 0.948210;,
         0.180670; 0.262001; 0.947996;,
         0.182806; 0.261422; 0.947722;,
         0.293588; 0.427381;-0.855037;,
         0.282723; 0.429792;-0.857479;,
         0.298563; 0.424299;-0.854854;,
         0.282723; 0.429792;-0.857479;,
         0.287851; 0.427595;-0.856899;,
         0.298563; 0.424299;-0.854854;,
         0.287851; 0.427595;-0.856899;,
         0.282723; 0.429792;-0.857479;,
         0.281411; 0.429701;-0.857967;,
         0.325968;-0.169012; 0.930113;,
        -0.000275;-0.162755; 0.986663;,
         0.326914;-0.154057; 0.932401;,
        -0.000275;-0.162755; 0.986663;,
         0.327616;-0.152684; 0.932371;,
         0.326914;-0.154057; 0.932401;,
         0.327616;-0.152684; 0.932371;,
        -0.000275;-0.162755; 0.986663;,
         0.007904;-0.143162; 0.989654;,
        -0.000275;-0.162755; 0.986663;,
        -0.328806;-0.139683; 0.933988;,
         0.007904;-0.143162; 0.989654;,
        -0.328806;-0.139683; 0.933988;,
        -0.000275;-0.162755; 0.986663;,
        -0.326518;-0.160527; 0.931425;,
        -0.000275;-0.162755; 0.986663;,
        -0.325999;-0.169012; 0.930113;,
        -0.326518;-0.160527; 0.931425;,
         0.515213;-0.248390;-0.820246;,
         0.516892;-0.236366;-0.822748;,
        -0.000366;-0.279794;-0.960051;,
         0.516892;-0.236366;-0.822748;,
         0.515336;-0.249062;-0.819971;,
        -0.000366;-0.279794;-0.960051;,
        -0.000366;-0.279794;-0.960051;,
         0.515336;-0.249062;-0.819971;,
         0.009552;-0.272561;-0.962066;,
         0.009552;-0.272561;-0.962066;,
        -0.518601;-0.229804;-0.823542;,
        -0.000366;-0.279794;-0.960051;,
        -0.000366;-0.279794;-0.960051;,
        -0.518601;-0.229804;-0.823542;,
        -0.515488;-0.246681;-0.820612;,
        -0.515488;-0.246681;-0.820612;,
        -0.515213;-0.248390;-0.820246;,
        -0.000366;-0.279794;-0.960051;,
        -0.295450;-0.955321;-0.000000;,
        -0.621479;-0.500839;-0.602405;,
         0.240699;-0.769555;-0.591449;,
        -0.621479;-0.500839;-0.602405;,
        -0.205390;-0.663717;-0.719199;,
         0.240699;-0.769555;-0.591449;,
         0.240699;-0.769555;-0.591449;,
        -0.205390;-0.663717;-0.719199;,
         0.495041;-0.356334;-0.792413;,
         0.495041;-0.356334;-0.792413;,
         0.489303;-0.352611;-0.797601;,
         0.240699;-0.769555;-0.591449;,
         0.489303;-0.352611;-0.797601;,
         0.495041;-0.356334;-0.792413;,
         0.498978;-0.305094;-0.811090;,
         0.498978;-0.305094;-0.811090;,
         0.501175;-0.299966;-0.811640;,
         0.489303;-0.352611;-0.797601;,
         0.501175;-0.299966;-0.811640;,
         0.498978;-0.305094;-0.811090;,
         0.009552;-0.272561;-0.962066;,
         0.009552;-0.272561;-0.962066;,
         0.515336;-0.249062;-0.819971;,
         0.501175;-0.299966;-0.811640;,
        -0.205390;-0.663717;-0.719199;,
        -0.621479;-0.500839;-0.602405;,
        -0.590014;-0.093478;-0.801935;,
        -0.621479;-0.500839;-0.602405;,
        -0.571642;-0.117283;-0.812067;,
        -0.590014;-0.093478;-0.801935;,
        -0.590014;-0.093478;-0.801935;,
        -0.571642;-0.117283;-0.812067;,
        -0.554796;-0.153325;-0.817713;,
        -0.571642;-0.117283;-0.812067;,
        -0.537736;-0.178411;-0.824000;,
        -0.554796;-0.153325;-0.817713;,
        -0.554796;-0.153325;-0.817713;,
        -0.537736;-0.178411;-0.824000;,
         0.009552;-0.272561;-0.962066;,
        -0.537736;-0.178411;-0.824000;,
        -0.518601;-0.229804;-0.823542;,
         0.009552;-0.272561;-0.962066;,
        -0.507218; 0.011628; 0.861721;,
        -0.411634;-0.049165; 0.910001;,
        -0.469832;-0.017121; 0.882565;,
        -0.411634;-0.049165; 0.910001;,
        -0.387432;-0.071902; 0.919065;,
        -0.469832;-0.017121; 0.882565;,
        -0.387432;-0.071902; 0.919065;,
        -0.411634;-0.049165; 0.910001;,
        -0.364879;-0.081179; 0.927488;,
        -0.364879;-0.081179; 0.927488;,
        -0.346416;-0.102603; 0.932432;,
        -0.387432;-0.071902; 0.919065;,
        -0.346416;-0.102603; 0.932432;,
        -0.364879;-0.081179; 0.927488;,
         0.007904;-0.143162; 0.989654;,
         0.007904;-0.143162; 0.989654;,
        -0.328806;-0.139683; 0.933988;,
        -0.346416;-0.102603; 0.932432;,
         0.425092;-0.277078; 0.861660;,
         0.393323;-0.278939; 0.876034;,
         0.352519;-0.239418; 0.904630;,
         0.393323;-0.278939; 0.876034;,
         0.336985;-0.233772; 0.911985;,
         0.352519;-0.239418; 0.904630;,
         0.352519;-0.239418; 0.904630;,
         0.336985;-0.233772; 0.911985;,
         0.333445;-0.185278; 0.924375;,
         0.336985;-0.233772; 0.911985;,
         0.326762;-0.183386; 0.927122;,
         0.333445;-0.185278; 0.924375;,
         0.333445;-0.185278; 0.924375;,
         0.326762;-0.183386; 0.927122;,
         0.007904;-0.143162; 0.989654;,
         0.326762;-0.183386; 0.927122;,
         0.327616;-0.152684; 0.932371;,
         0.007904;-0.143162; 0.989654;,
         0.005890; 0.943510; 0.331278;,
         0.005890; 0.943480; 0.331278;,
         0.005890; 0.943480; 0.331278;,
         0.005890; 0.943480; 0.331278;,
         0.005890; 0.943480; 0.331278;,
         0.005890; 0.943480; 0.331278;,
        -0.325083;-0.400861; 0.856502;,
        -0.459456;-0.179907; 0.869747;,
        -0.357189;-0.395520; 0.846126;,
        -0.459456;-0.179907; 0.869747;,
        -0.385571; 0.171880; 0.906491;,
        -0.357189;-0.395520; 0.846126;,
        -0.385571; 0.171880; 0.906491;,
        -0.459456;-0.179907; 0.869747;,
        -0.496658; 0.214484; 0.840999;,
        -0.459456;-0.179907; 0.869747;,
        -0.513657; 0.169408; 0.841090;,
        -0.496658; 0.214484; 0.840999;,
        -0.496658; 0.214484; 0.840999;,
        -0.513657; 0.169408; 0.841090;,
        -0.453169; 0.086612; 0.887173;,
        -0.513657; 0.169408; 0.841090;,
        -0.445723; 0.097140; 0.889859;,
        -0.453169; 0.086612; 0.887173;,
        -0.756554; 0.154881;-0.635304;,
        -0.726646; 0.164129;-0.667074;,
        -0.577960;-0.040620;-0.815027;,
        -0.726646; 0.164129;-0.667074;,
        -0.571490;-0.088229;-0.815821;,
        -0.577960;-0.040620;-0.815027;,
        -0.577960;-0.040620;-0.815027;,
        -0.571490;-0.088229;-0.815821;,
        -0.428877;-0.390118;-0.814753;,
        -0.428877;-0.390118;-0.814753;,
        -0.426679;-0.352641;-0.832789;,
        -0.577960;-0.040620;-0.815027;,
        -0.426679;-0.352641;-0.832789;,
        -0.428877;-0.390118;-0.814753;,
        -0.492569;-0.295328;-0.818598;,
        -0.492569;-0.295328;-0.818598;,
        -0.519517;-0.232765;-0.822108;,
        -0.426679;-0.352641;-0.832789;,
         0.428602; 0.670278;-0.605792;,
         0.383038; 0.674337;-0.631245;,
         0.446822; 0.471572;-0.760216;,
         0.383038; 0.674337;-0.631245;,
         0.385998; 0.505295;-0.771783;,
         0.446822; 0.471572;-0.760216;,
         0.446822; 0.471572;-0.760216;,
         0.385998; 0.505295;-0.771783;,
         0.585315; 0.224525;-0.779077;,
         0.385998; 0.505295;-0.771783;,
         0.567248; 0.231208;-0.790399;,
         0.585315; 0.224525;-0.779077;,
         0.585315; 0.224525;-0.779077;,
         0.567248; 0.231208;-0.790399;,
         0.558824; 0.297464;-0.774071;,
         0.567248; 0.231208;-0.790399;,
         0.528123; 0.346629;-0.775170;,
         0.558824; 0.297464;-0.774071;,
         0.582354; 0.178899; 0.792962;,
         0.073366; 0.434339; 0.897732;,
         0.587634; 0.181433; 0.788476;,
         0.073366; 0.434339; 0.897732;,
         0.449080; 0.312479; 0.837031;,
         0.587634; 0.181433; 0.788476;,
         0.449080; 0.312479; 0.837031;,
         0.073366; 0.434339; 0.897732;,
         0.106296; 0.560564; 0.821223;,
         0.106296; 0.560564; 0.821223;,
         0.164434; 0.548021; 0.820093;,
         0.449080; 0.312479; 0.837031;,
         0.164434; 0.548021; 0.820093;,
         0.106296; 0.560564; 0.821223;,
         0.212439; 0.448286; 0.868252;,
         0.212439; 0.448286; 0.868252;,
         0.195105; 0.455275; 0.868679;,
         0.164434; 0.548021; 0.820093;,
         0.821863;-0.533219;-0.200354;,
         0.811396;-0.530625;-0.245003;,
         0.811060;-0.530534;-0.246315;,
         0.811396;-0.530625;-0.245003;,
         0.794702;-0.525407;-0.303903;,
         0.811060;-0.530534;-0.246315;,
         0.193854; 0.446150;-0.873684;,
         0.223640; 0.426069;-0.876583;,
         0.193457; 0.443648;-0.875027;,
         0.223640; 0.426069;-0.876583;,
         0.218970; 0.438215;-0.871761;,
         0.193457; 0.443648;-0.875027;,
         0.218970; 0.438215;-0.871761;,
         0.223640; 0.426069;-0.876583;,
         0.274270; 0.428266;-0.860988;,
         0.274270; 0.428266;-0.860988;,
         0.277840; 0.432722;-0.857631;,
         0.218970; 0.438215;-0.871761;,
         0.277840; 0.432722;-0.857631;,
         0.274270; 0.428266;-0.860988;,
         0.293588; 0.427381;-0.855037;,
         0.293588; 0.427381;-0.855037;,
         0.298563; 0.424299;-0.854854;,
         0.277840; 0.432722;-0.857631;,
         0.474502; 0.274209; 0.836421;,
         0.472671; 0.240577; 0.847743;,
         0.378002; 0.221381; 0.898923;,
         0.472671; 0.240577; 0.847743;,
         0.364696; 0.216102; 0.905667;,
         0.378002; 0.221381; 0.898923;,
         0.378002; 0.221381; 0.898923;,
         0.364696; 0.216102; 0.905667;,
         0.227515; 0.259590; 0.938505;,
         0.364696; 0.216102; 0.905667;,
         0.220222; 0.256142; 0.941191;,
         0.227515; 0.259590; 0.938505;,
         0.227515; 0.259590; 0.938505;,
         0.220222; 0.256142; 0.941191;,
         0.166662; 0.269753; 0.948363;,
         0.220222; 0.256142; 0.941191;,
         0.175695; 0.264290; 0.948271;,
         0.166662; 0.269753; 0.948363;,
        -0.294870;-0.695700;-0.654988;,
        -0.282632;-0.680197;-0.676321;,
        -0.162297;-0.669240;-0.725089;,
        -0.282632;-0.680197;-0.676321;,
        -0.143345;-0.663778;-0.734031;,
        -0.162297;-0.669240;-0.725089;,
        -0.162297;-0.669240;-0.725089;,
        -0.143345;-0.663778;-0.734031;,
         0.012299;-0.682607;-0.730644;,
        -0.143345;-0.663778;-0.734031;,
         0.027955;-0.678640;-0.733909;,
         0.012299;-0.682607;-0.730644;,
         0.012299;-0.682607;-0.730644;,
         0.027955;-0.678640;-0.733909;,
         0.079073;-0.681326;-0.727653;,
         0.027955;-0.678640;-0.733909;,
         0.083316;-0.679952;-0.728477;,
         0.079073;-0.681326;-0.727653;,
         0.039186;-0.649342; 0.759453;,
         0.102634;-0.527024; 0.843593;,
         0.065401;-0.624043; 0.778619;,
         0.102634;-0.527024; 0.843593;,
         0.114628;-0.511856; 0.851344;,
         0.065401;-0.624043; 0.778619;,
         0.114628;-0.511856; 0.851344;,
         0.102634;-0.527024; 0.843593;,
         0.058016;-0.479507; 0.875607;,
         0.058016;-0.479507; 0.875607;,
         0.067263;-0.470107; 0.880032;,
         0.114628;-0.511856; 0.851344;,
         0.067263;-0.470107; 0.880032;,
         0.058016;-0.479507; 0.875607;,
         0.039094;-0.461287; 0.886349;,
         0.039094;-0.461287; 0.886349;,
         0.048921;-0.458876; 0.887112;,
         0.067263;-0.470107; 0.880032;,
        -0.007019; 0.944517; 0.328318;,
        -0.007019; 0.944517; 0.328318;,
        -0.007019; 0.944517; 0.328318;,
        -0.007019; 0.944517; 0.328318;,
        -0.007019; 0.944517; 0.328318;,
        -0.007019; 0.944517; 0.328318;,
         0.326518;-0.398022; 0.857265;,
         0.358592;-0.392712; 0.846828;,
         0.460982;-0.177038; 0.869533;,
         0.358592;-0.392712; 0.846828;,
         0.385083; 0.177404; 0.905637;,
         0.460982;-0.177038; 0.869533;,
         0.460982;-0.177038; 0.869533;,
         0.385083; 0.177404; 0.905637;,
         0.500992; 0.235206; 0.832850;,
         0.500992; 0.235206; 0.832850;,
         0.519242; 0.187201; 0.833857;,
         0.460982;-0.177038; 0.869533;,
         0.519242; 0.187201; 0.833857;,
         0.500992; 0.235206; 0.832850;,
         0.458907; 0.102451; 0.882534;,
         0.458907; 0.102451; 0.882534;,
         0.448775; 0.105167; 0.887417;,
         0.519242; 0.187201; 0.833857;,
         0.755699; 0.153722;-0.636616;,
         0.576464;-0.041810;-0.816034;,
         0.725639; 0.162908;-0.668477;,
         0.576464;-0.041810;-0.816034;,
         0.570147;-0.089572;-0.816614;,
         0.725639; 0.162908;-0.668477;,
         0.570147;-0.089572;-0.816614;,
         0.576464;-0.041810;-0.816034;,
         0.435865;-0.369610;-0.820582;,
         0.576464;-0.041810;-0.816034;,
         0.431288;-0.344035;-0.834010;,
         0.435865;-0.369610;-0.820582;,
         0.435865;-0.369610;-0.820582;,
         0.431288;-0.344035;-0.834010;,
         0.495285;-0.285440;-0.820490;,
         0.431288;-0.344035;-0.834010;,
         0.524064;-0.224372;-0.821558;,
         0.495285;-0.285440;-0.820490;,
        -0.430250; 0.667531;-0.607624;,
        -0.449110; 0.468490;-0.760765;,
        -0.385083; 0.671560;-0.632984;,
        -0.449110; 0.468490;-0.760765;,
        -0.388714; 0.502243;-0.772393;,
        -0.385083; 0.671560;-0.632984;,
        -0.388714; 0.502243;-0.772393;,
        -0.449110; 0.468490;-0.760765;,
        -0.610065; 0.192419;-0.768609;,
        -0.610065; 0.192419;-0.768609;,
        -0.579974; 0.209143;-0.787317;,
        -0.388714; 0.502243;-0.772393;,
        -0.579974; 0.209143;-0.787317;,
        -0.610065; 0.192419;-0.768609;,
        -0.574114; 0.278451;-0.769921;,
        -0.574114; 0.278451;-0.769921;,
        -0.536271; 0.332743;-0.775658;,
        -0.579974; 0.209143;-0.787317;,
        -0.582415; 0.178655; 0.792993;,
        -0.587146; 0.180883; 0.788995;,
        -0.068728; 0.435286; 0.897641;,
        -0.587146; 0.180883; 0.788995;,
        -0.446547; 0.312052; 0.838557;,
        -0.068728; 0.435286; 0.897641;,
        -0.068728; 0.435286; 0.897641;,
        -0.446547; 0.312052; 0.838557;,
        -0.105319; 0.561052; 0.821039;,
        -0.446547; 0.312052; 0.838557;,
        -0.165014; 0.547258; 0.820521;,
        -0.105319; 0.561052; 0.821039;,
        -0.105319; 0.561052; 0.821039;,
        -0.165014; 0.547258; 0.820521;,
        -0.215613; 0.444777; 0.869289;,
        -0.165014; 0.547258; 0.820521;,
        -0.194342; 0.457595; 0.867641;,
        -0.215613; 0.444777; 0.869289;,
        -0.955931;-0.056124; 0.288125;,
        -0.968413;-0.057894; 0.242500;,
        -0.968078;-0.057833; 0.243812;,
        -0.968413;-0.057894; 0.242500;,
        -0.981109;-0.059969; 0.183782;,
        -0.968078;-0.057833; 0.243812;,
        -0.347118; 0.508438;-0.787988;,
        -0.362285; 0.481460;-0.798059;,
        -0.340800; 0.450697;-0.825037;,
        -0.362285; 0.481460;-0.798059;,
        -0.358531; 0.429609;-0.828761;,
        -0.340800; 0.450697;-0.825037;,
        -0.340800; 0.450697;-0.825037;,
        -0.358531; 0.429609;-0.828761;,
        -0.308054; 0.431471;-0.847865;,
        -0.358531; 0.429609;-0.828761;,
        -0.320170; 0.418989;-0.849635;,
        -0.308054; 0.431471;-0.847865;,
        -0.308054; 0.431471;-0.847865;,
        -0.320170; 0.418989;-0.849635;,
        -0.287851; 0.429334;-0.856014;,
        -0.320170; 0.418989;-0.849635;,
        -0.292001; 0.426527;-0.856014;,
        -0.287851; 0.429334;-0.856014;,
         0.133396; 0.448439; 0.883785;,
         0.027192; 0.343242; 0.938841;,
         0.122929; 0.410993; 0.903287;,
         0.027192; 0.343242; 0.938841;,
         0.005921; 0.323893; 0.946043;,
         0.122929; 0.410993; 0.903287;,
         0.005921; 0.323893; 0.946043;,
         0.027192; 0.343242; 0.938841;,
        -0.108585; 0.294565; 0.949431;,
        -0.108585; 0.294565; 0.949431;,
        -0.124882; 0.282113; 0.951201;,
         0.005921; 0.323893; 0.946043;,
        -0.124882; 0.282113; 0.951201;,
        -0.108585; 0.294565; 0.949431;,
        -0.163335; 0.270638; 0.948698;,
        -0.163335; 0.270638; 0.948698;,
        -0.171758; 0.265389; 0.948698;,
        -0.124882; 0.282113; 0.951201;,
        -0.363353;-0.738182;-0.568346;,
        -0.291543;-0.695486;-0.656697;,
        -0.373272;-0.721915;-0.582598;,
        -0.291543;-0.695486;-0.656697;,
        -0.288888;-0.689535;-0.664083;,
        -0.373272;-0.721915;-0.582598;,
        -0.288888;-0.689535;-0.664083;,
        -0.291543;-0.695486;-0.656697;,
        -0.135411;-0.689291;-0.711692;,
        -0.135411;-0.689291;-0.711692;,
        -0.135441;-0.685659;-0.715171;,
        -0.288888;-0.689535;-0.664083;,
        -0.135441;-0.685659;-0.715171;,
        -0.135411;-0.689291;-0.711692;,
        -0.075838;-0.681112;-0.728202;,
        -0.075838;-0.681112;-0.728202;,
        -0.081149;-0.680013;-0.728660;,
        -0.135441;-0.685659;-0.715171;,
         0.032502;-0.565813; 0.823878;,
         0.031861;-0.542192; 0.839625;,
         0.011444;-0.465255; 0.885067;,
         0.031861;-0.542192; 0.839625;,
         0.006439;-0.461074; 0.887326;,
         0.011444;-0.465255; 0.885067;,
         0.011444;-0.465255; 0.885067;,
         0.006439;-0.461074; 0.887326;,
        -0.015076;-0.464339; 0.885495;,
         0.006439;-0.461074; 0.887326;,
        -0.022675;-0.462264; 0.886441;,
        -0.015076;-0.464339; 0.885495;,
        -0.015076;-0.464339; 0.885495;,
        -0.022675;-0.462264; 0.886441;,
        -0.037355;-0.460952; 0.886624;,
        -0.022675;-0.462264; 0.886441;,
        -0.047975;-0.458907; 0.887173;,
        -0.037355;-0.460952; 0.886624;;
        190;
        3;0;1;2;,
        3;3;4;5;,
        3;6;7;8;,
        3;9;10;11;,
        3;12;13;14;,
        3;15;16;17;,
        3;18;19;20;,
        3;21;22;23;,
        3;24;25;26;,
        3;27;28;29;,
        3;30;31;32;,
        3;33;34;35;,
        3;36;37;38;,
        3;39;40;41;,
        3;42;43;44;,
        3;45;46;47;,
        3;48;49;50;,
        3;51;52;53;,
        3;54;55;56;,
        3;57;58;59;,
        3;60;61;62;,
        3;63;64;65;,
        3;66;67;68;,
        3;69;70;71;,
        3;72;73;74;,
        3;75;76;77;,
        3;78;79;80;,
        3;81;82;83;,
        3;84;85;86;,
        3;87;88;89;,
        3;90;91;92;,
        3;93;94;95;,
        3;96;97;98;,
        3;99;100;101;,
        3;102;103;104;,
        3;105;106;107;,
        3;108;109;110;,
        3;111;112;113;,
        3;114;115;116;,
        3;117;118;119;,
        3;120;121;122;,
        3;123;124;125;,
        3;126;127;128;,
        3;129;130;131;,
        3;132;133;134;,
        3;135;136;137;,
        3;138;139;140;,
        3;141;142;143;,
        3;144;145;146;,
        3;147;148;149;,
        3;150;151;152;,
        3;153;154;155;,
        3;156;157;158;,
        3;159;160;161;,
        3;162;163;164;,
        3;165;166;167;,
        3;168;169;170;,
        3;171;172;173;,
        3;174;175;176;,
        3;177;178;179;,
        3;180;181;182;,
        3;183;184;185;,
        3;186;187;188;,
        3;189;190;191;,
        3;192;193;194;,
        3;195;196;197;,
        3;198;199;200;,
        3;201;202;203;,
        3;204;205;206;,
        3;207;208;209;,
        3;210;211;212;,
        3;213;214;215;,
        3;216;217;218;,
        3;219;220;221;,
        3;222;223;224;,
        3;225;226;227;,
        3;228;229;230;,
        3;231;232;233;,
        3;234;235;236;,
        3;237;238;239;,
        3;240;241;242;,
        3;243;244;245;,
        3;246;247;248;,
        3;249;250;251;,
        3;252;253;254;,
        3;255;256;257;,
        3;258;259;260;,
        3;261;262;263;,
        3;264;265;266;,
        3;267;268;269;,
        3;270;271;272;,
        3;273;274;275;,
        3;276;277;278;,
        3;279;280;281;,
        3;282;283;284;,
        3;285;286;287;,
        3;288;289;290;,
        3;291;292;293;,
        3;294;295;296;,
        3;297;298;299;,
        3;300;301;302;,
        3;303;304;305;,
        3;306;307;308;,
        3;309;310;311;,
        3;312;313;314;,
        3;315;316;317;,
        3;318;319;320;,
        3;321;322;323;,
        3;324;325;326;,
        3;327;328;329;,
        3;330;331;332;,
        3;333;334;335;,
        3;336;337;338;,
        3;339;340;341;,
        3;342;343;344;,
        3;345;346;347;,
        3;348;349;350;,
        3;351;352;353;,
        3;354;355;356;,
        3;357;358;359;,
        3;360;361;362;,
        3;363;364;365;,
        3;366;367;368;,
        3;369;370;371;,
        3;372;373;374;,
        3;375;376;377;,
        3;378;379;380;,
        3;381;382;383;,
        3;384;385;386;,
        3;387;388;389;,
        3;390;391;392;,
        3;393;394;395;,
        3;396;397;398;,
        3;399;400;401;,
        3;402;403;404;,
        3;405;406;407;,
        3;408;409;410;,
        3;411;412;413;,
        3;414;415;416;,
        3;417;418;419;,
        3;420;421;422;,
        3;423;424;425;,
        3;426;427;428;,
        3;429;430;431;,
        3;432;433;434;,
        3;435;436;437;,
        3;438;439;440;,
        3;441;442;443;,
        3;444;445;446;,
        3;447;448;449;,
        3;450;451;452;,
        3;453;454;455;,
        3;456;457;458;,
        3;459;460;461;,
        3;462;463;464;,
        3;465;466;467;,
        3;468;469;470;,
        3;471;472;473;,
        3;474;475;476;,
        3;477;478;479;,
        3;480;481;482;,
        3;483;484;485;,
        3;486;487;488;,
        3;489;490;491;,
        3;492;493;494;,
        3;495;496;497;,
        3;498;499;500;,
        3;501;502;503;,
        3;504;505;506;,
        3;507;508;509;,
        3;510;511;512;,
        3;513;514;515;,
        3;516;517;518;,
        3;519;520;521;,
        3;522;523;524;,
        3;525;526;527;,
        3;528;529;530;,
        3;531;532;533;,
        3;534;535;536;,
        3;537;538;539;,
        3;540;541;542;,
        3;543;544;545;,
        3;546;547;548;,
        3;549;550;551;,
        3;552;553;554;,
        3;555;556;557;,
        3;558;559;560;,
        3;561;562;563;,
        3;564;565;566;,
        3;567;568;569;;
      } //End of Mesh Normals
      MeshMaterialList { //Mesh Material List
        1;
        190;
        0,
        0,
        0,
        0,
        0,
        0,
        0,
        0,
        0,
        0,
        0,
        0,
        0,
        0,
        0,
        0,
        0,
        0,
        0,
        0,
        0,
        0,
        0,
        0,
        0,
        0,
        0,
        0,
        0,
        0,
        0,
        0,
        0,
        0,
        0,
        0,
        0,
        0,
        0,
        0,
        0,
        0,
        0,
        0,
        0,
        0,
        0,
        0,
        0,
        0,
        0,
        0,
        0,
        0,
        0,
        0,
        0,
        0,
        0,
        0,
        0,
        0,
        0,
        0,
        0,
        0,
        0,
        0,
        0,
        0,
        0,
        0,
        0,
        0,
        0,
        0,
        0,
        0,
        0,
        0,
        0,
        0,
        0,
        0,
        0,
        0,
        0,
        0,
        0,
        0,
        0,
        0,
        0,
        0,
        0,
        0,
        0,
        0,
        0,
        0,
        0,
        0,
        0,
        0,
        0,
        0,
        0,
        0,
        0,
        0,
        0,
        0,
        0,
        0,
        0,
        0,
        0,
        0,
        0,
        0,
        0,
        0,
        0,
        0,
        0,
        0,
        0,
        0,
        0,
        0,
        0,
        0,
        0,
        0,
        0,
        0,
        0,
        0,
        0,
        0,
        0,
        0,
        0,
        0,
        0,
        0,
        0,
        0,
        0,
        0,
        0,
        0,
        0,
        0,
        0,
        0,
        0,
        0,
        0,
        0,
        0,
        0,
        0,
        0,
        0,
        0,
        0,
        0,
        0,
        0,
        0,
        0,
        0,
        0,
        0,
        0,
        0,
        0,
        0,
        0,
        0,
        0,
        0,
        0,
        0,
        0,
        0,
        0,
        0,
        0;;
        Material mat_0 {
           0.640000; 0.640000; 0.640000; 1.000000;;
           92.156863;
           0.250000; 0.250000; 0.250000;;
           0.000000; 0.000000; 0.000000;;
          TextureFilename {"Textures/hitodeman_0_0.tga";}
        }
      } //End of Mesh Material List
      MeshTextureCoords { //Mesh UV Coordinates
        570;
         0.728777; 0.876119;,
         0.703766; 0.820586;,
         0.540784; 1.000000;,
         0.703766; 0.820586;,
         0.500000; 0.951939;,
         0.540784; 1.000000;,
         0.500000; 0.951939;,
         0.703766; 0.820586;,
         0.500000; 0.362426;,
         0.728777; 0.876119;,
         0.540784; 1.000000;,
         0.703766; 0.820586;,
         0.540784; 1.000000;,
         0.500000; 0.951939;,
         0.703766; 0.820586;,
         0.703766; 0.820586;,
         0.500000; 0.951939;,
         0.500000; 0.362426;,
         0.728777; 0.876119;,
         0.703766; 0.820586;,
         0.951396; 0.729420;,
         0.703766; 0.820586;,
         0.944184; 0.675695;,
         0.951396; 0.729420;,
         0.944184; 0.675695;,
         0.703766; 0.820586;,
         0.500000; 0.362426;,
         0.728777; 0.876119;,
         0.951396; 0.729420;,
         0.703766; 0.820586;,
         0.951396; 0.729420;,
         0.944184; 0.675695;,
         0.703766; 0.820586;,
         0.703766; 0.820586;,
         0.944184; 0.675695;,
         0.500000; 0.362426;,
         0.917445; 0.286181;,
         0.863337; 0.059280;,
         0.868484; 0.295124;,
         0.863337; 0.059280;,
         0.819288; 0.053096;,
         0.868484; 0.295124;,
         0.868484; 0.295124;,
         0.819288; 0.053096;,
         0.500000; 0.362426;,
         0.917445; 0.286181;,
         0.869147; 0.295003;,
         0.863337; 0.059280;,
         0.869147; 0.295003;,
         0.819288; 0.053096;,
         0.863337; 0.059280;,
         0.819288; 0.053096;,
         0.869147; 0.295003;,
         0.500000; 0.362426;,
         0.917445; 0.286181;,
         0.868484; 0.295124;,
         1.000000; 0.632368;,
         0.868484; 0.295124;,
         0.944184; 0.675695;,
         1.000000; 0.632368;,
         0.944184; 0.675695;,
         0.868484; 0.295124;,
         0.500000; 0.362426;,
         0.917445; 0.286181;,
         1.000000; 0.632368;,
         0.869147; 0.295003;,
         1.000000; 0.632368;,
         0.944184; 0.675695;,
         0.869147; 0.295003;,
         0.869147; 0.295003;,
         0.944184; 0.675695;,
         0.500000; 0.362426;,
         0.271223; 0.876119;,
         0.459216; 1.000000;,
         0.296234; 0.820586;,
         0.459216; 1.000000;,
         0.500000; 0.951939;,
         0.296234; 0.820586;,
         0.296234; 0.820586;,
         0.500000; 0.951939;,
         0.500000; 0.362426;,
         0.271223; 0.876119;,
         0.296234; 0.820586;,
         0.459216; 1.000000;,
         0.296234; 0.820586;,
         0.500000; 0.951939;,
         0.459216; 1.000000;,
         0.500000; 0.951939;,
         0.296234; 0.820586;,
         0.500000; 0.362426;,
         0.271223; 0.876119;,
         0.048604; 0.729420;,
         0.296234; 0.820586;,
         0.048604; 0.729420;,
         0.055723; 0.675754;,
         0.296234; 0.820586;,
         0.296234; 0.820586;,
         0.055723; 0.675754;,
         0.500000; 0.362426;,
         0.271223; 0.876119;,
         0.296234; 0.820586;,
         0.048604; 0.729420;,
         0.296234; 0.820586;,
         0.055723; 0.675754;,
         0.048604; 0.729420;,
         0.055723; 0.675754;,
         0.296234; 0.820586;,
         0.500000; 0.362426;,
         0.082555; 0.286181;,
         0.131516; 0.295124;,
         0.136663; 0.059280;,
         0.131516; 0.295124;,
         0.180745; 0.053013;,
         0.136663; 0.059280;,
         0.180745; 0.053013;,
         0.131516; 0.295124;,
         0.500000; 0.362426;,
         0.082555; 0.286181;,
         0.136663; 0.059280;,
         0.130853; 0.295003;,
         0.136663; 0.059280;,
         0.180745; 0.053013;,
         0.130853; 0.295003;,
         0.130853; 0.295003;,
         0.180745; 0.053013;,
         0.500000; 0.362426;,
         0.082555; 0.286181;,
         0.000000; 0.632368;,
         0.131516; 0.295124;,
         0.000000; 0.632368;,
         0.055723; 0.675754;,
         0.131516; 0.295124;,
         0.131516; 0.295124;,
         0.055723; 0.675754;,
         0.500000; 0.362426;,
         0.082555; 0.286181;,
         0.130853; 0.295003;,
         0.000000; 0.632368;,
         0.130853; 0.295003;,
         0.055723; 0.675754;,
         0.000000; 0.632368;,
         0.055723; 0.675754;,
         0.130853; 0.295003;,
         0.500000; 0.362426;,
         0.500000; 0.362426;,
         0.500000; 0.056189;,
         0.180745; 0.053013;,
         0.500000; 0.056189;,
         0.201921; 0.000000;,
         0.180745; 0.053013;,
         0.201921; 0.000000;,
         0.500000; 0.056189;,
         0.500000; 0.000000;,
         0.500000; 0.056189;,
         0.798079; 0.000000;,
         0.500000; 0.000000;,
         0.798079; 0.000000;,
         0.500000; 0.056189;,
         0.819288; 0.053096;,
         0.500000; 0.056189;,
         0.500000; 0.362426;,
         0.819288; 0.053096;,
         0.500000; 0.362426;,
         0.180745; 0.053013;,
         0.500000; 0.056189;,
         0.180745; 0.053013;,
         0.201921; 0.000000;,
         0.500000; 0.056189;,
         0.500000; 0.056189;,
         0.201921; 0.000000;,
         0.500000; 0.000000;,
         0.500000; 0.000000;,
         0.798079; 0.000000;,
         0.500000; 0.056189;,
         0.500000; 0.056189;,
         0.798079; 0.000000;,
         0.819288; 0.053096;,
         0.819288; 0.053096;,
         0.500000; 0.362426;,
         0.500000; 0.056189;,
         0.000000; 1.000000;,
         0.000000; 1.000000;,
         0.000000; 1.000000;,
         0.000000; 1.000000;,
         0.000000; 1.000000;,
         0.000000; 1.000000;,
         0.000000; 1.000000;,
         0.000000; 1.000000;,
         0.000000; 1.000000;,
         0.000000; 1.000000;,
         0.000000; 1.000000;,
         0.000000; 1.000000;,
         0.000000; 1.000000;,
         0.000000; 1.000000;,
         0.000000; 1.000000;,
         0.000000; 1.000000;,
         0.000000; 1.000000;,
         0.000000; 1.000000;,
         0.000000; 1.000000;,
         0.000000; 1.000000;,
         0.000000; 1.000000;,
         0.000000; 1.000000;,
         0.000000; 1.000000;,
         0.000000; 1.000000;,
         0.000000; 1.000000;,
         0.000000; 1.000000;,
         0.000000; 1.000000;,
         0.000000; 1.000000;,
         0.000000; 1.000000;,
         0.000000; 1.000000;,
         0.000000; 1.000000;,
         0.000000; 1.000000;,
         0.000000; 1.000000;,
         0.000000; 1.000000;,
         0.000000; 1.000000;,
         0.000000; 1.000000;,
         0.000000; 1.000000;,
         0.000000; 1.000000;,
         0.000000; 1.000000;,
         0.000000; 1.000000;,
         0.000000; 1.000000;,
         0.000000; 1.000000;,
         0.000000; 1.000000;,
         0.000000; 1.000000;,
         0.000000; 1.000000;,
         0.000000; 1.000000;,
         0.000000; 1.000000;,
         0.000000; 1.000000;,
         0.000000; 1.000000;,
         0.000000; 1.000000;,
         0.000000; 1.000000;,
         0.000000; 1.000000;,
         0.000000; 1.000000;,
         0.000000; 1.000000;,
         0.000000; 1.000000;,
         0.000000; 1.000000;,
         0.000000; 1.000000;,
         0.000000; 1.000000;,
         0.000000; 1.000000;,
         0.000000; 1.000000;,
         0.000000; 1.000000;,
         0.000000; 1.000000;,
         0.000000; 1.000000;,
         0.000000; 1.000000;,
         0.000000; 1.000000;,
         0.000000; 1.000000;,
         0.000000; 1.000000;,
         0.000000; 1.000000;,
         0.000000; 1.000000;,
         0.000000; 1.000000;,
         0.000000; 1.000000;,
         0.000000; 1.000000;,
         0.000000; 1.000000;,
         0.000000; 1.000000;,
         0.000000; 1.000000;,
         0.000000; 1.000000;,
         0.000000; 1.000000;,
         0.000000; 1.000000;,
         0.000000; 1.000000;,
         0.000000; 1.000000;,
         0.000000; 1.000000;,
         0.000000; 1.000000;,
         0.000000; 1.000000;,
         0.000000; 1.000000;,
         0.000000; 1.000000;,
         0.000000; 1.000000;,
         0.000000; 1.000000;,
         0.000000; 1.000000;,
         0.000000; 1.000000;,
         0.000000; 1.000000;,
         0.000000; 1.000000;,
         0.000000; 1.000000;,
         0.000000; 1.000000;,
         0.000000; 1.000000;,
         0.000000; 1.000000;,
         0.000000; 1.000000;,
         0.000000; 1.000000;,
         0.000000; 1.000000;,
         0.000000; 1.000000;,
         0.000000; 1.000000;,
         0.000000; 1.000000;,
         0.000000; 1.000000;,
         0.000000; 1.000000;,
         0.000000; 1.000000;,
         0.000000; 1.000000;,
         0.000000; 1.000000;,
         0.000000; 1.000000;,
         0.000000; 1.000000;,
         0.000000; 1.000000;,
         0.000000; 1.000000;,
         0.000000; 1.000000;,
         0.000000; 1.000000;,
         0.000000; 1.000000;,
         0.000000; 1.000000;,
         0.000000; 1.000000;,
         0.000000; 1.000000;,
         0.000000; 1.000000;,
         0.000000; 1.000000;,
         0.000000; 1.000000;,
         0.000000; 1.000000;,
         0.000000; 1.000000;,
         0.000000; 1.000000;,
         0.000000; 1.000000;,
         0.000000; 1.000000;,
         0.000000; 1.000000;,
         0.000000; 1.000000;,
         0.000000; 1.000000;,
         0.000000; 1.000000;,
         0.000000; 1.000000;,
         0.000000; 1.000000;,
         0.000000; 1.000000;,
         0.000000; 1.000000;,
         0.000000; 1.000000;,
         0.000000; 1.000000;,
         0.000000; 1.000000;,
         0.000000; 1.000000;,
         0.000000; 1.000000;,
         0.000000; 1.000000;,
         0.000000; 1.000000;,
         0.000000; 1.000000;,
         0.000000; 1.000000;,
         0.000000; 1.000000;,
         0.000000; 1.000000;,
         0.000000; 1.000000;,
         0.000000; 1.000000;,
         0.000000; 1.000000;,
         0.000000; 1.000000;,
         0.000000; 1.000000;,
         0.000000; 1.000000;,
         0.000000; 1.000000;,
         0.000000; 1.000000;,
         0.000000; 1.000000;,
         0.000000; 1.000000;,
         0.000000; 1.000000;,
         0.000000; 1.000000;,
         0.000000; 1.000000;,
         0.000000; 1.000000;,
         0.000000; 1.000000;,
         0.000000; 1.000000;,
         0.000000; 1.000000;,
         0.000000; 1.000000;,
         0.000000; 1.000000;,
         0.000000; 1.000000;,
         0.000000; 1.000000;,
         0.000000; 1.000000;,
         0.000000; 1.000000;,
         0.000000; 1.000000;,
         0.000000; 1.000000;,
         0.000000; 1.000000;,
         0.000000; 1.000000;,
         0.000000; 1.000000;,
         0.000000; 1.000000;,
         0.000000; 1.000000;,
         0.000000; 1.000000;,
         0.000000; 1.000000;,
         0.000000; 1.000000;,
         0.000000; 1.000000;,
         0.000000; 1.000000;,
         0.000000; 1.000000;,
         0.000000; 1.000000;,
         0.000000; 1.000000;,
         0.000000; 1.000000;,
         0.000000; 1.000000;,
         0.000000; 1.000000;,
         0.000000; 1.000000;,
         0.000000; 1.000000;,
         0.000000; 1.000000;,
         0.000000; 1.000000;,
         0.000000; 1.000000;,
         0.000000; 1.000000;,
         0.000000; 1.000000;,
         0.000000; 1.000000;,
         0.000000; 1.000000;,
         0.000000; 1.000000;,
         0.000000; 1.000000;,
         0.000000; 1.000000;,
         0.000000; 1.000000;,
         0.000000; 1.000000;,
         0.000000; 1.000000;,
         0.000000; 1.000000;,
         0.000000; 1.000000;,
         0.000000; 1.000000;,
         0.000000; 1.000000;,
         0.000000; 1.000000;,
         0.000000; 1.000000;,
         0.000000; 1.000000;,
         0.000000; 1.000000;,
         0.000000; 1.000000;,
         0.000000; 1.000000;,
         0.000000; 1.000000;,
         0.000000; 1.000000;,
         0.000000; 1.000000;,
         0.000000; 1.000000;,
         0.000000; 1.000000;,
         0.000000; 1.000000;,
         0.000000; 1.000000;,
         0.000000; 1.000000;,
         0.000000; 1.000000;,
         0.000000; 1.000000;,
         0.000000; 1.000000;,
         0.000000; 1.000000;,
         0.000000; 1.000000;,
         0.000000; 1.000000;,
         0.000000; 1.000000;,
         0.000000; 1.000000;,
         0.000000; 1.000000;,
         0.000000; 1.000000;,
         0.000000; 1.000000;,
         0.000000; 1.000000;,
         0.000000; 1.000000;,
         0.000000; 1.000000;,
         0.000000; 1.000000;,
         0.000000; 1.000000;,
         0.000000; 1.000000;,
         0.000000; 1.000000;,
         0.000000; 1.000000;,
         0.000000; 1.000000;,
         0.000000; 1.000000;,
         0.000000; 1.000000;,
         0.000000; 1.000000;,
         0.000000; 1.000000;,
         0.000000; 1.000000;,
         0.000000; 1.000000;,
         0.000000; 1.000000;,
         0.000000; 1.000000;,
         0.000000; 1.000000;,
         0.000000; 1.000000;,
         0.000000; 1.000000;,
         0.000000; 1.000000;,
         0.000000; 1.000000;,
         0.000000; 1.000000;,
         0.000000; 1.000000;,
         0.000000; 1.000000;,
         0.000000; 1.000000;,
         0.000000; 1.000000;,
         0.000000; 1.000000;,
         0.000000; 1.000000;,
         0.000000; 1.000000;,
         0.000000; 1.000000;,
         0.000000; 1.000000;,
         0.000000; 1.000000;,
         0.000000; 1.000000;,
         0.000000; 1.000000;,
         0.000000; 1.000000;,
         0.000000; 1.000000;,
         0.000000; 1.000000;,
         0.000000; 1.000000;,
         0.000000; 1.000000;,
         0.000000; 1.000000;,
         0.000000; 1.000000;,
         0.000000; 1.000000;,
         0.000000; 1.000000;,
         0.000000; 1.000000;,
         0.000000; 1.000000;,
         0.000000; 1.000000;,
         0.000000; 1.000000;,
         0.000000; 1.000000;,
         0.000000; 1.000000;,
         0.000000; 1.000000;,
         0.000000; 1.000000;,
         0.000000; 1.000000;,
         0.000000; 1.000000;,
         0.000000; 1.000000;,
         0.000000; 1.000000;,
         0.000000; 1.000000;,
         0.000000; 1.000000;,
         0.000000; 1.000000;,
         0.000000; 1.000000;,
         0.000000; 1.000000;,
         0.000000; 1.000000;,
         0.000000; 1.000000;,
         0.000000; 1.000000;,
         0.000000; 1.000000;,
         0.000000; 1.000000;,
         0.000000; 1.000000;,
         0.000000; 1.000000;,
         0.000000; 1.000000;,
         0.000000; 1.000000;,
         0.000000; 1.000000;,
         0.000000; 1.000000;,
         0.000000; 1.000000;,
         0.000000; 1.000000;,
         0.000000; 1.000000;,
         0.000000; 1.000000;,
         0.000000; 1.000000;,
         0.000000; 1.000000;,
         0.000000; 1.000000;,
         0.000000; 1.000000;,
         0.000000; 1.000000;,
         0.000000; 1.000000;,
         0.000000; 1.000000;,
         0.000000; 1.000000;,
         0.000000; 1.000000;,
         0.000000; 1.000000;,
         0.000000; 1.000000;,
         0.000000; 1.000000;,
         0.000000; 1.000000;,
         0.000000; 1.000000;,
         0.000000; 1.000000;,
         0.000000; 1.000000;,
         0.000000; 1.000000;,
         0.000000; 1.000000;,
         0.000000; 1.000000;,
         0.000000; 1.000000;,
         0.000000; 1.000000;,
         0.000000; 1.000000;,
         0.000000; 1.000000;,
         0.000000; 1.000000;,
         0.000000; 1.000000;,
         0.000000; 1.000000;,
         0.000000; 1.000000;,
         0.000000; 1.000000;,
         0.000000; 1.000000;,
         0.000000; 1.000000;,
         0.000000; 1.000000;,
         0.000000; 1.000000;,
         0.000000; 1.000000;,
         0.000000; 1.000000;,
         0.000000; 1.000000;,
         0.000000; 1.000000;,
         0.000000; 1.000000;,
         0.000000; 1.000000;,
         0.000000; 1.000000;,
         0.000000; 1.000000;,
         0.000000; 1.000000;,
         0.000000; 1.000000;,
         0.000000; 1.000000;,
         0.000000; 1.000000;,
         0.000000; 1.000000;,
         0.000000; 1.000000;,
         0.000000; 1.000000;,
         0.000000; 1.000000;,
         0.000000; 1.000000;,
         0.000000; 1.000000;,
         0.000000; 1.000000;,
         0.000000; 1.000000;,
         0.000000; 1.000000;,
         0.000000; 1.000000;,
         0.000000; 1.000000;,
         0.000000; 1.000000;,
         0.000000; 1.000000;,
         0.000000; 1.000000;,
         0.000000; 1.000000;,
         0.000000; 1.000000;,
         0.000000; 1.000000;,
         0.000000; 1.000000;,
         0.000000; 1.000000;,
         0.000000; 1.000000;,
         0.000000; 1.000000;,
         0.000000; 1.000000;,
         0.000000; 1.000000;,
         0.000000; 1.000000;,
         0.000000; 1.000000;,
         0.000000; 1.000000;,
         0.000000; 1.000000;,
         0.000000; 1.000000;,
         0.000000; 1.000000;,
         0.000000; 1.000000;,
         0.000000; 1.000000;,
         0.000000; 1.000000;,
         0.000000; 1.000000;,
         0.000000; 1.000000;,
         0.000000; 1.000000;,
         0.000000; 1.000000;,
         0.000000; 1.000000;,
         0.000000; 1.000000;,
         0.000000; 1.000000;,
         0.000000; 1.000000;,
         0.000000; 1.000000;,
         0.000000; 1.000000;;
      } //End of Mesh UV Coordinates
    } //End of Mesh Mesh
  } //End of hitodeman_mat_0
} //End of Root Frame
