# Blender v2.66 (sub 1) OBJ File: 'BR_Marshtomp-Shiny01.blend'
# www.blender.org
mtllib BR_Marshtomp-Shiny01.mtl
o numacraw
v 0.114556 0.000000 -0.557486
v 0.114556 0.000000 -0.557486
v 0.000000 0.000000 -0.537424
v 0.000000 -0.411774 -0.611299
v 0.135569 -0.419944 -0.604840
v 0.000000 -0.760860 -0.843853
v 0.346585 -0.692133 -0.843853
v 0.000000 -0.940666 -1.136790
v 0.388527 -0.873437 -1.128630
v 0.679530 0.690785 -1.123730
v 0.508939 0.942145 -1.137720
v 0.474945 0.732834 -0.910984
v 0.342765 0.478142 -0.669073
v 0.342765 0.478142 -0.669073
v 0.000000 0.411774 -0.594626
v -0.135569 -0.419944 -0.604840
v -0.114556 0.000000 -0.557486
v -0.114556 0.000000 -0.557486
v -0.346585 -0.692133 -0.843853
v -0.413848 -0.893864 -1.128630
v -0.342765 0.478142 -0.669073
v -0.342765 0.478142 -0.669073
v -0.679530 0.690785 -1.123730
v 0.000000 1.073640 -1.139190
v -0.508939 0.942145 -1.137720
v -0.474945 0.732834 -0.910984
v -0.237469 0.760673 -0.781464
v 0.237476 0.760673 -0.781464
v 0.000000 0.778689 -0.743969
v -0.507963 0.617305 -0.804697
v -0.507963 0.617305 -0.804697
v 0.507963 0.617305 -0.804697
v 0.507963 0.617305 -0.804697
v 0.388527 -0.873437 -1.128630
v 0.388527 -0.873437 -1.128630
v -0.413848 -0.893864 -1.128630
v -0.413848 -0.893864 -1.128630
v 1.088430 -0.363802 -1.777210
v 1.134790 0.000000 -1.777210
v 0.827232 -0.673708 -1.777210
v 0.000000 -0.958906 -1.777210
v 0.389158 -0.873893 -1.774220
v 1.088430 0.381844 -1.777210
v -1.134790 0.000000 -1.777210
v -1.088430 -0.363802 -1.777210
v -0.827232 -0.673708 -1.777210
v -0.413616 -0.893678 -1.777210
v -1.088430 0.381844 -1.777210
v 0.872431 0.635318 -1.705880
v 0.000000 1.127240 -1.705880
v -0.626133 0.922691 -1.705880
v 0.626133 0.922691 -1.705880
v -0.872431 0.635318 -1.705880
v 0.389158 -0.873893 -1.774220
v 0.389158 -0.873893 -1.774220
v -0.413616 -0.893678 -1.777210
v -0.413616 -0.893678 -1.777210
v 1.214300 0.000000 -1.168490
v 1.152560 0.351997 -1.131190
v 0.897996 0.515695 -0.857977
v 0.641038 0.605701 -0.875391
v 0.388701 0.466599 -0.714630
v 1.144230 -0.224210 -0.790444
v 1.144200 0.191259 -0.827259
v 0.679603 -0.542350 -2.522750
v 0.867089 -0.292869 -2.522750
v 0.767218 -0.256538 -2.815410
v 0.447711 -0.326841 -3.241510
v 0.600627 -0.163439 -3.267690
v 0.000000 -0.733171 -2.522750
v 0.339801 -0.671299 -2.522750
v 0.000000 -0.459706 -3.212480
v 0.223856 -0.411027 -3.224930
v 0.941688 0.000000 -2.522750
v 0.891994 0.319658 -2.522750
v 0.501469 0.354319 -3.182360
v 0.666789 0.646899 -2.479030
v 0.808476 0.255210 -2.800290
v 0.657136 0.186457 -3.149460
v 0.473269 0.801685 -2.479030
v 0.305896 0.460337 -3.182360
v 0.359172 0.704219 -2.743880
v -0.867089 -0.292869 -2.522750
v -0.679603 -0.542350 -2.522750
v -0.447711 -0.326841 -3.241510
v -0.767218 -0.256538 -2.815410
v -0.600627 -0.163439 -3.267690
v -0.339802 -0.671299 -2.522750
v -0.223856 -0.411027 -3.224930
v -0.891994 0.319658 -2.522750
v -0.941688 0.000000 -2.522750
v -0.501469 0.354319 -3.182360
v -0.657136 0.186457 -3.149460
v -0.815091 0.255210 -2.800290
v -0.666789 0.646899 -2.479030
v -0.473269 0.801685 -2.479030
v -0.359172 0.704219 -2.743880
v -0.305896 0.460337 -3.182360
v 0.000000 0.511417 -3.182360
v 0.000000 0.742348 -2.836460
v 0.000000 0.925320 -2.479030
v 0.260537 -0.235999 -3.438620
v 0.000000 -0.308831 -3.438620
v 0.271393 0.218376 -3.438620
v 0.383808 0.000000 -3.438620
v -0.260537 -0.235999 -3.438620
v -0.271393 0.218376 -3.438620
v -0.383808 0.000000 -3.438620
v 0.000000 0.308831 -3.438620
v -1.453500 0.093316 -4.191690
v -1.349110 0.101402 -4.445750
v -1.348460 -0.176636 -4.375420
v -1.123170 0.114676 -4.700580
v -1.123170 0.114676 -4.700580
v -1.105230 -0.304210 -4.578080
v -1.105230 -0.304210 -4.578080
v -0.692927 0.182063 -4.991600
v -0.692927 -0.402542 -4.874720
v -0.163910 -0.431914 -5.024780
v -0.163910 -0.431914 -5.024780
v -0.138413 0.055804 -5.166850
v -0.138413 0.055804 -5.166850
v 0.109820 -0.925426 -4.602650
v 0.109820 -0.925426 -4.602650
v 0.692927 -0.820688 -4.527550
v 0.692927 -0.965607 -3.929820
v 0.000000 -1.093400 -3.972870
v 0.000000 -1.093400 -3.972870
v 0.000000 -1.093400 -3.972870
v -0.733129 0.685277 -4.841620
v -1.074440 0.502790 -4.578080
v -1.074440 0.502790 -4.578080
v -1.300680 0.346175 -4.375420
v -1.270110 0.543382 -3.747600
v -1.258910 0.598377 -3.976370
v -1.453500 0.313255 -3.982740
v -1.085620 -0.588124 -4.324750
v -1.085620 -0.588124 -4.324750
v -1.347980 -0.371249 -4.183280
v -0.692927 -0.820688 -4.527550
v -0.109820 -0.925426 -4.602650
v -0.109820 -0.925426 -4.602650
v -0.395489 1.180630 -4.766010
v 0.000000 1.295080 -4.784110
v 0.000000 0.918084 -5.005180
v -0.385614 0.825191 -4.964720
v -0.759134 0.933569 -4.687940
v -1.012560 0.776642 -4.330930
v -1.012560 0.776642 -4.330930
v -1.270110 0.536159 -4.183280
v -1.058140 -0.688467 -3.873730
v -1.058140 -0.688467 -3.873730
v -1.347810 -0.442483 -3.937680
v -0.692927 -0.965607 -3.929820
v -0.395489 1.477780 -4.123050
v -0.395489 1.495600 -3.877070
v -0.395489 1.495600 -3.877070
v 0.000000 1.592280 -3.865400
v 0.000000 1.592280 -3.865400
v -0.798584 1.113890 -4.386020
v -0.991900 0.896106 -3.947480
v -0.991900 0.896106 -3.947480
v -0.991900 0.896106 -3.947480
v -0.991900 0.896106 -3.947480
v -1.453490 -0.126623 -3.982740
v -1.347980 -0.371249 -3.713040
v -1.064130 -0.561302 -3.557680
v -1.064130 -0.561302 -3.557680
v -0.692927 -0.794390 -3.452910
v 0.000000 -0.908339 -3.426400
v -1.334970 -0.146471 -3.578600
v -1.308900 0.119229 -3.534430
v -1.453500 0.093316 -3.770490
v -1.012560 0.822180 -3.585550
v -1.012560 0.822180 -3.585550
v -1.287670 0.375887 -3.599390
v -1.093950 -0.268556 -3.426290
v -1.093950 -0.268556 -3.426290
v -0.692927 -0.371266 -3.257020
v 0.000000 -0.432051 -3.186520
v 0.000000 1.534500 -4.411810
v -0.395489 1.403570 -4.415050
v -1.063480 0.571639 -3.438880
v -1.123170 0.150791 -3.358020
v -1.123170 0.150791 -3.358020
v -1.123170 0.150791 -3.358020
v -0.814556 1.171870 -4.142390
v -0.798584 1.185870 -3.910510
v -0.798584 1.185870 -3.910510
v 0.000000 0.896106 -3.947480
v -0.092557 0.532315 -5.161260
v -0.092557 0.532315 -5.161260
v 1.348460 -0.176636 -4.375420
v 1.349110 0.101402 -4.445750
v 1.453500 0.093316 -4.191690
v 1.105230 -0.304210 -4.578080
v 1.105230 -0.304210 -4.578080
v 1.123170 0.114676 -4.700580
v 1.123170 0.114676 -4.700580
v 0.692927 -0.402542 -4.874720
v 0.692927 0.182063 -4.991600
v 0.163910 -0.431914 -5.024780
v 0.163910 -0.431914 -5.024780
v 0.138413 0.055804 -5.166850
v 0.138413 0.055804 -5.166850
v 0.733129 0.685276 -4.841620
v 1.300680 0.346175 -4.375420
v 1.074440 0.502790 -4.578080
v 1.074440 0.502790 -4.578080
v 1.453490 0.313255 -3.982740
v 1.258910 0.598378 -3.976370
v 1.270110 0.543382 -3.747600
v 1.347980 -0.371249 -4.183280
v 1.085620 -0.588124 -4.324750
v 1.085620 -0.588124 -4.324750
v 0.385614 0.825191 -4.964720
v 0.395489 1.180630 -4.766010
v 0.759134 0.933569 -4.687940
v 1.270110 0.536159 -4.183280
v 1.012560 0.776643 -4.330930
v 1.012560 0.776643 -4.330930
v 1.347810 -0.442483 -3.937680
v 1.058140 -0.688467 -3.873730
v 1.058140 -0.688467 -3.873730
v 0.395489 1.495600 -3.877070
v 0.395489 1.495600 -3.877070
v 0.395489 1.477780 -4.123050
v 0.798584 1.113890 -4.386020
v 0.991899 0.896106 -3.947480
v 0.991899 0.896106 -3.947480
v 0.991899 0.896106 -3.947480
v 0.991899 0.896106 -3.947480
v 1.347980 -0.371249 -3.713040
v 1.453500 -0.126623 -3.982740
v 1.064130 -0.561302 -3.557680
v 1.064130 -0.561302 -3.557680
v 0.692927 -0.794389 -3.452910
v 1.453500 0.093316 -3.770490
v 1.308900 0.119229 -3.534430
v 1.334970 -0.146470 -3.578600
v 1.012560 0.822180 -3.585550
v 1.012560 0.822180 -3.585550
v 1.287670 0.375887 -3.599390
v 1.093950 -0.268556 -3.426290
v 1.093950 -0.268556 -3.426290
v 0.692927 -0.371266 -3.257020
v 0.395489 1.403570 -4.415050
v 1.063480 0.571639 -3.438880
v 1.063480 0.571639 -3.438880
v 1.123170 0.150792 -3.358020
v 1.123170 0.150792 -3.358020
v 1.123170 0.150792 -3.358020
v 0.798584 1.185870 -3.910510
v 0.798584 1.185870 -3.910510
v 0.814556 1.171870 -4.142390
v 0.092557 0.532315 -5.161260
v 0.092557 0.532315 -5.161260
v 0.991899 0.480121 -3.976170
v 0.991899 0.480121 -3.976170
v 0.991899 0.480121 -3.976170
v 0.991899 0.480121 -3.976170
v 0.000000 0.480121 -3.976170
v 0.000000 0.480121 -3.976170
v -0.991899 0.480121 -3.976170
v -0.991899 0.480121 -3.976170
v -0.991899 0.480121 -3.976170
v -0.991899 0.480121 -3.976170
v 2.346440 0.093316 -3.982740
v -2.346440 0.093316 -3.982740
v 0.476828 0.422950 -0.015950
v 0.773576 0.422950 -0.015951
v 0.921950 -0.003359 -0.015951
v 0.328454 -0.003359 -0.015950
v 0.773576 -0.293307 -0.015950
v 0.476828 -0.293307 -0.015950
v 1.064140 0.000000 -0.424590
v 0.170559 0.012799 -0.396421
v -1.214300 0.000000 -1.168490
v -1.152560 0.351997 -1.131190
v -1.144200 0.191259 -0.827259
v -1.144230 -0.224210 -0.790444
v -0.897996 0.515695 -0.857977
v -0.584786 0.589677 -0.682931
v -0.346012 0.462482 -0.583705
v -0.773576 0.422949 -0.015950
v -0.476828 0.422950 -0.015949
v -0.921950 -0.003359 -0.015950
v -0.328454 -0.003360 -0.015949
v -0.773576 -0.293307 -0.015949
v -0.476828 -0.293309 -0.015949
v -1.064140 0.000000 -0.424590
v -0.170559 0.012799 -0.396421
v -1.752660 -0.088408 -1.242690
v -1.857600 -0.403001 -1.485340
v -1.303510 0.539331 -1.310600
v -1.105520 0.445422 -1.331830
v -1.642810 -0.459592 -1.514920
v -1.319220 0.170624 -1.205470
v -1.551620 0.241537 -1.174840
v -1.537890 -0.146851 -1.272620
v -2.046320 -0.447226 -0.775322
v -1.875440 -0.122594 -0.647511
v -1.850390 -0.514281 -0.647131
v -1.680540 -0.193117 -0.519320
v -1.247610 -0.262215 -2.630900
v -0.949480 0.328415 -2.592490
v -0.858893 0.276813 -2.533220
v -1.111820 -0.323235 -2.502700
v -1.729180 -0.379577 -1.810470
v -1.239860 0.476776 -1.677060
v -1.056980 0.424671 -1.551660
v -1.554330 -0.444620 -1.682280
v -1.380240 0.628235 -0.564743
v -1.192450 0.533433 -0.436551
v -1.438720 0.219510 -0.407707
v -1.624050 0.309137 -0.535898
v -1.673440 -0.173502 -0.501081
v -1.456670 0.199815 -0.419424
v -1.639550 0.284267 -0.547615
v -1.867330 -0.099511 -0.629272
v 1.875440 -0.122594 -0.647511
v 2.046320 -0.447226 -0.775322
v 1.680540 -0.193117 -0.519320
v 1.850390 -0.514281 -0.647131
v 1.857600 -0.403001 -1.485340
v 1.752660 -0.088408 -1.242690
v 1.105520 0.445422 -1.331830
v 1.303510 0.539331 -1.310590
v 1.642810 -0.459592 -1.514920
v 1.319220 0.170624 -1.205470
v 1.551620 0.241537 -1.174840
v 1.537890 -0.146851 -1.272620
v 0.949480 0.328415 -2.592490
v 1.247610 -0.262215 -2.630900
v 0.858893 0.276813 -2.533220
v 1.111820 -0.323235 -2.502700
v 1.239860 0.476776 -1.677060
v 1.729180 -0.379577 -1.810470
v 1.056980 0.424671 -1.551660
v 1.554330 -0.444620 -1.682280
v 1.192450 0.533433 -0.436551
v 1.380240 0.628235 -0.564743
v 1.438720 0.219510 -0.407707
v 1.624050 0.309137 -0.535898
v 1.867330 -0.099511 -0.629272
v 1.639550 0.284267 -0.547615
v 1.456670 0.199815 -0.419424
v 1.673440 -0.173502 -0.501081
v 1.192970 -2.021860 -3.128730
v 1.192970 -2.021860 -3.128730
v 1.384500 -2.295390 -1.880940
v 1.384500 -2.295390 -1.880940
v 1.418320 -2.343680 -2.814330
v 1.418320 -2.343680 -2.814330
v 1.313610 -2.194140 -3.034450
v 1.313610 -2.194140 -3.034450
v 1.443610 -2.379800 -2.486510
v 1.443610 -2.379800 -2.486510
v 1.010250 -1.760900 -3.091140
v 1.010250 -1.760900 -3.091140
v 1.214130 -1.871760 -2.165310
v 1.075250 -1.853730 -0.823794
v 1.075250 -1.853730 -0.823794
v 1.248580 -2.101270 -1.239470
v 1.248580 -2.101270 -1.239470
v 0.924219 -1.638360 -0.739915
v 0.924219 -1.638360 -0.739915
v 1.044690 -1.990410 -2.165310
v 0.782747 -1.436000 -0.748216
v 0.782747 -1.436000 -0.748216
v 0.785839 -1.306980 -1.636260
v 0.663543 -1.265760 -2.524300
v 0.663543 -1.265760 -2.524300
v 0.660451 -1.394780 -1.636260
v -0.692927 0.151179 -3.182090
v 0.000000 0.152386 -3.072860
v 0.692927 0.151180 -3.182090
v 0.000000 -1.268080 -4.962770
v 0.000000 -1.268080 -4.962770
v 0.000000 -0.146346 -6.839880
v 0.000000 -0.146346 -6.839880
v 0.000000 0.738072 -7.126410
v 0.000000 -0.886789 -6.178660
v 0.000000 -0.886789 -6.178660
v 0.798584 1.178770 -3.877570
v 0.798584 1.178770 -3.877570
v 0.395489 1.487420 -3.834280
v 0.395489 1.487420 -3.834280
v 0.000000 1.583730 -3.819530
v 0.000000 1.583730 -3.819530
v -0.798584 1.178770 -3.877570
v -0.798584 1.178770 -3.877570
v -0.991899 0.890048 -3.923610
v -0.991899 0.890048 -3.923610
v -0.395489 1.487420 -3.834280
v -0.395489 1.487420 -3.834280
v 0.991899 0.890048 -3.923610
v 0.991899 0.890048 -3.923610
v 0.000000 0.890048 -3.923610
v -1.192970 -2.021860 -3.128730
v -1.192970 -2.021860 -3.128730
v -1.248580 -2.101270 -1.239470
v -1.248580 -2.101270 -1.239470
v -1.384500 -2.295390 -1.880940
v -1.384500 -2.295390 -1.880940
v -1.418320 -2.343680 -2.814330
v -1.418320 -2.343680 -2.814330
v -1.313610 -2.194140 -3.034450
v -1.313610 -2.194140 -3.034450
v -1.443600 -2.379800 -2.486510
v -1.443600 -2.379800 -2.486510
v -1.010240 -1.760900 -3.091140
v -1.010240 -1.760900 -3.091140
v -1.044690 -1.990410 -2.165310
v -1.075240 -1.853730 -0.823794
v -1.075240 -1.853730 -0.823794
v -0.924517 -1.638150 -0.739915
v -0.924517 -1.638150 -0.739915
v -1.214130 -1.871760 -2.165310
v -0.782746 -1.436000 -0.748216
v -0.782746 -1.436000 -0.748216
v -0.660450 -1.394780 -1.636260
v -0.663542 -1.265760 -2.524300
v -0.663542 -1.265760 -2.524300
v -0.785838 -1.306980 -1.636260
v 0.467102 0.363898 -0.178631
v 0.783302 0.363901 -0.178631
v 0.993044 -0.001679 -0.181141
v 0.816353 -0.402933 -0.182996
v 0.427507 -0.402933 -0.182995
v 0.249507 0.004720 -0.183418
v 0.860533 0.448351 -0.539043
v 0.619877 0.549142 -0.576904
v 0.375874 0.448108 -0.528986
v 0.936953 -0.738455 -1.132950
v 0.908845 0.598359 -1.176910
v 0.859131 -0.535482 -0.435743
v 0.378186 -0.535482 -0.435743
v 0.247158 -0.393812 -0.429026
v 0.825248 0.611527 -2.061270
v -0.825248 0.611527 -2.061270
v -0.619877 0.549142 -0.576904
v -0.860533 0.448351 -0.539043
v -0.375874 0.448108 -0.528986
v -0.783302 0.363901 -0.178630
v -0.467102 0.363896 -0.178630
v -0.993044 -0.001680 -0.181141
v -0.816353 -0.402933 -0.182995
v -0.427507 -0.402934 -0.182995
v -0.249507 0.004720 -0.183417
v -0.936953 -0.738455 -1.132950
v -0.908845 0.598359 -1.176910
v -0.378186 -0.535482 -0.435743
v -0.859131 -0.535482 -0.435743
v -0.247158 -0.393813 -0.429026
v 0.890638 0.616839 -1.441400
v 0.806632 0.663294 -1.361900
v -0.806632 0.663294 -1.361900
v -0.890638 0.616839 -1.441400
v -0.821069 -0.200480 -3.116220
v -0.725452 0.209179 -3.099560
v 0.821069 -0.200480 -3.116220
v 0.725452 0.209179 -3.099560
v 0.387579 1.284480 -3.426940
v 0.782612 1.020730 -3.495750
v 0.755803 0.680529 -3.272440
v -0.381365 0.790292 -3.188510
v 0.000000 0.844266 -3.148940
v 0.000000 1.365640 -3.412690
v -0.387579 1.284480 -3.426940
v -0.755803 0.680529 -3.272440
v -1.063480 0.548769 -3.426360
v -0.782612 1.020730 -3.495750
v -1.012560 0.806020 -3.564220
v 1.063480 0.548769 -3.426360
v 0.381365 0.790292 -3.188510
v 1.012560 0.806020 -3.564220
vt 0.179481 0.014510
vt 0.079007 0.014510
vt 0.072405 0.023091
vt 0.195739 0.028984
vt 0.000000 0.023091
vt 0.000000 0.029062
vt 0.081167 0.028896
vt 0.721218 0.240686
vt 0.726782 0.323843
vt 0.641298 0.251596
vt 0.475895 0.190258
vt 0.131658 0.020274
vt 0.721217 0.240686
vt 0.914981 0.157529
vt 0.852026 0.078765
vt 0.653990 0.060013
vt 0.345928 0.060013
vt 0.181038 0.038926
vt 0.151228 0.077851
vt 0.313287 0.144937
vt 0.172817 0.042116
vt 0.181144 0.057313
vt 0.227383 0.042116
vt 0.141976 0.057313
vt 0.081299 0.042055
vt 0.070988 0.057313
vt 0.000000 0.042116
vt 0.000000 0.057313
vt 0.086408 0.042116
vt 0.000000 0.071289
vt 0.046766 0.071626
vt 0.000000 0.078095
vt 0.054429 0.078095
vt 0.870389 0.500718
vt 0.776336 0.711605
vt 0.713307 0.711605
vt 0.935527 0.500718
vt 0.930987 0.314073
vt 0.981452 0.304303
vt 0.244618 0.880542
vt 0.528564 0.711605
vt 0.401013 0.880542
vt 0.284716 0.790187
vt 0.000000 0.880542
vt 0.000000 0.817656
vt -0.000000 0.018350
vt 0.086457 0.028896
vt 0.093531 0.071964
vt 0.789070 0.000000
vt 0.210849 0.000000
vt 0.000000 0.162224
vt 0.121418 0.116777
vt 0.000000 0.141533
vt 0.307847 0.159091
vt 0.000000 0.211335
vt 0.188242 0.226443
vt 0.217026 1.000000
vt 0.000000 1.000000
vt 0.217027 1.000000
vt 0.188247 0.226443
vt 0.324814 0.711605
vt 0.000000 0.711605
vt 0.324815 0.711605
vt 0.093532 0.071964
vt 0.693390 0.711605
vt 0.726086 0.313449
vt 0.461398 0.201139
vt 0.442760 0.215129
vt 0.459327 0.202694
vt 0.308527 0.157321
vt 0.567913 0.126331
vt 0.836108 0.256590
vt 0.724000 0.282265
vt 0.709179 0.412281
vt 0.639418 0.398660
vt 0.691577 0.500718
vt 0.403525 0.500718
vt 0.654174 0.606161
vt 0.861318 0.813538
vt 0.680320 0.878965
vt 0.523886 1.000000
vt 0.552727 0.817813
vt 0.160280 0.063279
vt 0.125477 0.072498
vt 0.726781 0.323843
vt 0.403436 0.332144
vt 0.538664 0.327994
vt 0.376490 0.264872
vt 0.000000 0.340444
vt 0.000000 0.500718
vt 0.715653 0.157529
vt 0.555136 1.000000
vt 0.270976 0.008426
vt 0.712299 0.516253
vt 0.256970 0.516253
vt 0.698294 0.008426
vt 0.000000 0.892857
vt 0.997768 0.892857
vt 0.911953 0.008426
vt 0.426259 0.754299
vt 0.551985 0.754299
vt 0.564568 0.821153
vt 0.440218 0.766265
vt 0.495741 0.687500
vt 0.422098 0.687500
vt 0.527814 0.766265
vt 0.458339 0.845029
vt 0.559887 0.845029
vt 0.057316 0.008426
vt 0.505641 0.726882
vt 0.458919 0.687500
vt 0.515540 0.766265
vt 0.490992 0.766265
vt 0.928571 0.772321
vt 0.042411 0.756696
vt 0.055804 0.879464
vt 0.886161 0.924107
vt 0.912667 0.829241
vt 0.421679 0.787891
vt 0.570860 0.854580
vt 0.417099 0.821484
vt 0.676567 0.777837
vt 0.676567 0.667865
vt 0.527984 0.701772
vt 0.541767 0.825368
vt 0.485491 0.764509
vt 0.902065 0.867188
vt 0.049107 0.818080
vt 0.525439 0.805647
vt 0.574006 0.871293
vt 0.412519 0.855077
vt 0.573613 0.869204
vt 0.979911 0.060268
vt 0.674107 0.419643
vt 0.950893 0.455357
vt 0.683036 0.037946
vt 0.977679 0.049107
vt 0.678571 0.033482
vt 0.674107 0.417411
vt 0.040179 0.747768
vt 0.053571 0.895089
vt 0.919643 0.763393
vt 0.877232 0.921875
vt 0.015625 0.046875
vt 0.026786 0.395089
vt 0.015625 0.044643
vt 0.029018 0.399554
vt 0.305804 0.020089
vt 0.308036 0.408482
vt 0.301339 0.017857
vt 0.966518 0.462054
vt 0.678571 0.026786
vt 0.680804 0.029018
vt 0.966518 0.457589
vt 0.323433 0.814860
vt 0.218373 0.669830
vt 0.213801 0.708249
vt 0.323433 0.777837
vt 0.464730 0.870370
vt 0.458233 0.825368
vt 0.223368 0.595695
vt 0.323433 0.667865
vt 0.472016 0.701772
vt 0.401740 0.824236
vt 0.500000 0.766451
vt 0.500000 0.837183
vt 0.399224 0.760657
vt 0.303481 0.784851
vt 0.296510 0.735680
vt 0.500000 0.631204
vt 0.399224 0.632232
vt 0.600776 0.632232
vt 0.600776 0.760657
vt 0.786199 0.708249
vt 0.781627 0.669830
vt 0.676567 0.814860
vt 0.535270 0.870370
vt 0.776632 0.595695
vt 0.598260 0.824236
vt 0.703490 0.735680
vt 0.696519 0.784851
vt 0.761943 1.000000
vt 0.740154 0.922324
vt 0.604173 1.000000
vt 0.840160 0.878965
vt 0.259846 0.922324
vt 0.222432 1.000000
vt 0.395827 1.000000
vt 0.159840 0.878965
vt 0.241987 0.592316
vt 0.296510 0.623035
vt 0.226219 0.669830
vt 0.476415 0.868600
vt 0.523585 0.868600
vt 0.773781 0.669830
vt 0.758013 0.592316
vt 0.703490 0.623035
vt 0.595958 0.984207
vt 0.272710 0.746092
vt 0.328280 0.373046
vt 0.707062 0.595286
vt 0.766320 1.000000
vt 0.878796 0.960395
vt 0.976422 0.867926
vt 1.000000 0.730218
vt 0.944895 0.475830
vt 0.818166 0.206366
vt 0.656560 0.031749
vt 0.519128 0.018107
vt 0.381696 0.004464
vt 0.000000 0.158743
vt 0.016888 0.430999
vt 0.312500 0.749299
vt 0.334517 0.743820
vt 0.334455 0.642126
vt 0.020089 0.991071
vt 0.020089 0.015625
vt 0.968750 0.013393
vt 0.968750 0.991071
vt 0.327158 0.711748
vt 0.915948 0.971983
vt 0.913793 0.969828
vt 0.911638 0.971983
vt 0.698540 0.394799
vt 0.820513 0.402414
vt 0.698540 0.402414
vt 0.698540 0.409911
vt 0.301460 0.402414
vt 0.179487 0.402414
vt 0.301460 0.394799
vt 0.301460 0.409911
vt 0.919643 0.049107
vt 0.937500 0.049107
vt 0.937798 0.439812
vt 0.919643 0.439732
vt 0.025001 0.042247
vt 0.025001 0.985387
vt 0.937798 0.974168
vt 0.899554 0.046875
vt 0.904018 0.984375
vt 0.415179 0.966518
vt 0.016795 0.719777
vt 0.016795 0.988437
vt 0.924107 0.720982
vt 0.736607 0.883929
vt 0.973214 0.482143
vt 0.016795 0.478992
vt 0.366071 0.087054
vt 0.010937 0.304592
vt 0.008929 0.055804
vt 0.906250 0.305804
vt 0.732143 0.205357
vt 0.010937 0.501147
vt 0.986607 0.500000
vt 0.821630 0.860712
vt 0.276379 0.979934
vt 0.776042 0.976563
vt 0.186590 0.837644
vt 0.857089 0.778759
vt 0.223900 0.739138
vt 0.823986 0.216072
vt 0.933881 0.000000
vt 1.000000 0.329309
vt 0.299631 0.427269
vt 0.047545 0.425300
vt 0.447172 0.933306
vt 0.557647 0.377248
vt 0.830244 0.698567
vt 0.667411 0.133929
vt 0.667411 0.977679
vt 0.493304 0.977679
vt 0.495536 0.133929
vt 0.500000 0.526838
vt 0.500000 0.132319
vt 0.673236 0.152022
vt 0.676059 0.537907
vt 0.649554 0.133929
vt 0.513393 0.136161
usemtl mat_0
s 1
f 3/1 4/2 5/3
f 1/4 3/1 5/3
f 4/5 6/6 7/7
f 5/3 4/5 7/7
f 276/8 432/9 427/10
f 428/11 276/8 427/10
f 435/4 437/1 438/2
f 7/3 435/4 438/2
f 3/2 1/3 15/12
f 15/4 1/2 13/12
f 4/5 3/6 17/7
f 16/3 4/5 17/7
f 443/13 291/14 447/15
f 445/16 443/13 447/15
f 19/3 453/2 454/1
f 451/4 19/3 454/1
f 446/17 450/18 292/19
f 444/20 446/17 292/19
f 439/2 5/3 7/4
f 438/1 439/2 7/4
f 40/21 66/22 38/23
f 40/21 65/24 66/22
f 42/25 65/24 40/21
f 42/25 71/26 65/24
f 41/27 71/26 42/25
f 41/27 70/28 71/26
f 47/29 70/28 41/27
f 47/29 88/26 70/28
f 46/21 88/26 47/29
f 46/21 84/24 88/26
f 45/23 84/24 46/21
f 45/23 83/22 84/24
f 8/6 7/3 6/5
f 8/6 9/7 7/3
f 41/27 9/7 8/6
f 41/27 42/25 9/7
f 72/30 71/26 70/28
f 72/30 73/31 71/26
f 103/32 73/31 72/30
f 103/32 102/33 73/31
f 43/34 74/35 75/36
f 43/34 39/37 74/35
f 59/38 39/37 43/34
f 59/38 58/39 39/37
f 427/11 432/8 433/9
f 81/40 77/41 76/42
f 81/40 82/43 77/41
f 99/44 82/43 81/40
f 99/44 100/45 82/43
f 98/40 100/45 99/44
f 98/40 97/43 100/45
f 92/42 97/43 98/40
f 92/42 95/41 97/43
f 16/5 6/5 4/46
f 16/5 19/3 6/5
f 455/6 19/3 16/5
f 455/6 453/7 19/3
f 20/47 6/5 19/3
f 20/47 8/6 6/5
f 47/29 8/6 20/47
f 47/29 41/27 8/6
f 88/26 72/30 70/28
f 88/26 89/31 72/30
f 84/24 89/31 88/26
f 84/24 85/48 89/31
f 103/32 72/30 89/31
f 106/33 103/32 89/31
f 447/15 287/49 445/16
f 44/37 90/36 91/35
f 44/37 48/34 90/36
f 278/39 48/34 44/37
f 278/39 279/38 48/34
f 446/17 288/50 450/18
f 15/51 17/52 3/53
f 15/51 21/54 17/52
f 29/55 21/54 15/51
f 29/55 27/56 21/54
f 9/7 435/4 7/3
f 19/3 451/4 20/47
f 99/44 107/57 98/40
f 99/44 109/58 107/57
f 81/40 109/58 99/44
f 81/40 104/59 109/58
f 29/55 15/51 13/9
f 28/60 29/55 13/9
f 100/45 80/61 82/43
f 100/45 101/62 80/61
f 97/43 101/62 100/45
f 97/43 96/63 101/62
f 40/21 435/4 9/7
f 42/25 40/21 9/7
f 68/64 65/24 71/26
f 73/31 68/64 71/26
f 451/4 46/21 47/29
f 20/47 451/4 47/29
f 74/35 39/37 38/34
f 66/65 74/35 38/34
f 44/37 91/35 83/65
f 45/34 44/37 83/65
f 434/11 426/8 433/9
f 61/66 434/11 433/8
f 61/66 62/67 434/11
f 33/68 62/67 61/66
f 33/68 14/69 62/67
f 284/70 442/11 444/20
f 284/70 283/67 442/11
f 22/54 283/67 284/70
f 22/54 31/69 283/67
f 284/70 444/20 292/19
f 433/11 426/8 427/9
f 18/52 22/54 284/70
f 292/19 18/52 284/70
f 58/39 38/34 39/37
f 58/39 435/4 38/34
f 63/71 435/4 58/39
f 63/71 437/1 435/4
f 276/14 437/1 63/71
f 63/71 64/72 276/14
f 58/39 64/72 63/71
f 58/39 59/38 64/72
f 60/73 64/72 59/38
f 60/73 432/8 64/72
f 433/11 432/8 60/73
f 60/73 61/67 433/11
f 436/9 61/67 60/73
f 436/9 33/68 61/67
f 64/72 432/8 276/14
f 435/4 40/21 38/34
f 59/38 436/9 60/73
f 59/38 43/34 436/9
f 456/74 436/9 43/34
f 456/74 457/75 436/9
f 49/76 457/75 456/74
f 49/76 52/77 457/75
f 440/78 52/77 49/76
f 440/78 80/61 52/77
f 77/41 80/61 440/78
f 77/41 82/43 80/61
f 43/34 49/76 456/74
f 43/34 440/78 49/76
f 75/36 440/78 43/34
f 75/36 77/41 440/78
f 78/79 77/41 75/36
f 78/79 76/42 77/41
f 79/80 76/42 78/79
f 79/80 104/59 76/42
f 105/81 104/59 79/80
f 81/40 76/42 104/59
f 74/35 78/79 75/36
f 74/35 67/82 78/79
f 66/65 67/82 74/35
f 65/24 67/83 66/22
f 65/24 68/64 67/83
f 69/84 67/83 68/64
f 68/64 102/33 69/84
f 73/31 102/33 68/64
f 45/23 278/39 44/37
f 45/23 451/4 278/39
f 46/21 451/4 45/23
f 442/11 446/17 444/20
f 442/11 445/16 446/17
f 443/13 445/16 442/11
f 442/11 282/73 443/13
f 283/67 282/73 442/11
f 283/67 452/85 282/73
f 31/69 452/85 283/67
f 86/83 84/24 83/22
f 86/83 85/48 84/24
f 87/84 85/48 86/83
f 87/84 106/33 85/48
f 89/31 85/48 106/33
f 95/41 96/63 97/43
f 95/41 441/78 96/63
f 90/36 441/78 95/41
f 90/36 48/34 441/78
f 53/76 441/78 48/34
f 53/76 51/77 441/78
f 458/75 51/77 53/76
f 458/75 25/86 51/77
f 23/87 25/86 458/75
f 23/87 26/88 25/86
f 30/69 26/88 23/87
f 30/69 27/56 26/88
f 21/54 27/56 30/69
f 27/56 25/86 26/88
f 27/56 24/89 25/86
f 29/55 24/89 27/56
f 29/55 28/60 24/89
f 11/86 24/89 28/60
f 11/86 52/77 24/89
f 457/75 52/77 11/86
f 11/86 10/87 457/75
f 12/88 10/87 11/86
f 12/88 32/68 10/87
f 28/60 32/68 12/88
f 28/60 13/9 32/68
f 28/60 12/88 11/86
f 51/77 96/63 441/78
f 51/77 50/90 96/63
f 24/89 50/90 51/77
f 24/89 52/77 50/90
f 80/61 50/90 52/77
f 80/61 101/62 50/90
f 96/63 50/90 101/62
f 51/77 25/86 24/89
f 10/87 436/9 457/75
f 10/87 32/68 436/9
f 23/87 452/85 30/69
f 23/87 458/75 452/85
f 459/74 452/85 458/75
f 459/74 48/34 452/85
f 53/76 48/34 459/74
f 459/74 458/75 53/76
f 279/38 452/85 48/34
f 279/38 282/73 452/85
f 280/72 282/73 279/38
f 280/72 443/13 282/73
f 291/14 443/13 280/72
f 280/72 281/71 291/14
f 278/39 281/71 280/72
f 278/39 451/4 281/71
f 454/91 281/71 451/4
f 454/91 291/14 281/71
f 280/72 279/38 278/39
f 107/57 92/42 98/40
f 107/57 93/80 92/42
f 108/92 93/80 107/57
f 94/79 92/42 93/80
f 94/79 95/41 92/42
f 90/36 95/41 94/79
f 94/79 91/35 90/36
f 86/82 91/35 94/79
f 86/82 83/65 91/35
usemtl mat_1
f 270/93 427/94 426/95
f 270/93 271/96 427/94
f 273/97 271/96 270/93
f 273/97 272/98 271/96
f 427/94 271/96 272/99
f 427/100 272/101 428/102
f 429/103 272/104 274/105
f 429/103 428/106 272/104
f 437/107 428/106 429/103
f 437/107 276/108 428/106
f 430/103 274/104 275/105
f 430/103 429/106 274/104
f 438/107 429/106 430/103
f 438/107 437/108 429/106
f 273/109 270/93 426/95
f 431/110 275/108 273/104
f 431/110 430/111 275/108
f 277/112 430/111 431/110
f 277/112 439/113 430/111
f 272/104 273/105 275/107
f 274/108 272/104 275/107
f 289/104 290/105 288/107
f 287/108 289/104 288/107
f 308/114 86/115 94/116
f 307/117 308/114 94/116
f 462/118 334/117 336/116
f 67/115 462/118 336/116
f 86/115 308/116 305/117
f 460/118 86/115 305/117
f 431/119 426/101 434/120
f 277/121 431/119 434/120
f 125/122 126/123 127/124
f 123/125 125/122 127/124
f 154/122 152/123 138/124
f 140/125 154/122 138/124
f 154/122 140/123 141/124
f 127/125 154/122 141/124
f 169/122 168/123 152/124
f 154/125 169/122 152/124
f 170/122 169/123 154/124
f 127/125 170/122 154/124
f 179/122 178/123 168/124
f 169/125 179/122 168/124
f 180/122 179/123 169/124
f 170/125 180/122 169/124
f 375/122 185/123 178/124
f 179/125 375/122 178/124
f 376/122 375/123 179/124
f 180/125 376/122 179/124
f 224/122 126/123 125/124
f 215/125 224/122 125/124
f 236/122 237/123 126/124
f 224/125 236/122 126/124
f 237/122 170/123 127/124
f 126/125 237/122 127/124
f 245/122 246/123 237/124
f 236/125 245/122 237/124
f 246/122 180/123 170/124
f 237/125 246/122 170/124
f 251/122 377/123 246/124
f 245/125 251/122 246/124
f 377/122 376/123 180/124
f 246/125 377/122 180/124
f 461/126 306/115 307/116
f 94/117 461/126 307/116
f 87/117 460/127 461/128
f 93/116 87/117 461/128
f 78/117 335/116 333/115
f 463/126 78/117 333/115
f 69/117 79/116 463/128
f 462/127 69/117 463/128
f 335/117 78/116 67/115
f 336/114 335/117 67/115
f 439/112 277/113 2/129
f 5/110 439/112 2/129
f 292/112 455/113 16/129
f 18/110 292/112 16/129
f 14/130 2/131 277/121
f 62/132 14/130 277/121
f 431/119 273/100 426/101
f 285/93 446/94 445/95
f 285/93 286/96 446/94
f 287/97 286/96 285/93
f 287/97 288/98 286/96
f 287/109 285/93 445/95
f 447/103 289/104 287/105
f 447/103 448/106 289/104
f 291/107 448/106 447/103
f 291/107 454/108 448/106
f 448/103 290/104 289/105
f 448/103 449/106 290/104
f 454/107 449/106 448/103
f 454/107 453/108 449/106
f 446/94 286/96 288/99
f 301/133 293/134 294/135
f 301/133 302/136 293/134
f 303/137 302/136 301/133
f 303/137 304/138 302/136
f 297/135 304/138 303/137
f 297/135 300/139 304/138
f 310/115 305/117 309/114
f 310/115 306/116 305/117
f 311/140 306/116 310/115
f 311/140 307/141 306/116
f 312/142 307/141 311/140
f 312/142 308/143 307/141
f 309/114 308/143 312/142
f 309/114 305/117 308/143
f 460/118 87/114 86/115
f 314/144 295/145 313/146
f 314/144 296/147 295/145
f 315/148 296/147 314/144
f 315/148 298/149 296/147
f 316/150 298/149 315/148
f 316/150 299/149 298/149
f 313/146 299/149 316/150
f 313/146 295/145 299/149
f 309/114 312/142 297/135
f 294/151 309/114 297/135
f 94/117 93/114 461/126
f 314/144 313/146 316/150
f 315/148 314/144 316/150
f 319/150 317/152 318/148
f 319/150 320/153 317/152
f 299/149 320/153 319/150
f 299/149 293/134 320/153
f 310/115 293/134 299/149
f 310/115 309/114 293/134
f 311/140 310/115 295/145
f 296/147 311/140 295/145
f 299/149 295/145 310/115
f 300/139 297/135 312/142
f 303/137 301/133 294/135
f 297/154 303/137 294/135
f 317/152 298/149 318/148
f 317/152 300/139 298/149
f 320/153 300/139 317/152
f 320/153 293/134 300/139
f 318/148 298/149 299/149
f 319/150 318/148 299/149
f 304/138 300/139 293/134
f 302/136 304/138 293/134
f 309/114 294/135 293/134
f 311/140 296/147 298/149
f 300/139 312/142 311/140
f 298/149 300/139 311/140
f 326/134 322/133 325/135
f 326/134 321/136 322/133
f 332/139 321/136 326/134
f 332/139 323/138 321/136
f 329/135 323/138 332/139
f 329/135 324/137 323/138
f 338/114 333/116 337/115
f 338/114 334/117 333/116
f 340/142 334/117 338/114
f 340/142 336/143 334/117
f 339/140 336/143 340/142
f 339/140 335/141 336/143
f 337/115 335/141 339/140
f 337/115 333/116 335/141
f 67/115 69/114 462/118
f 324/137 321/136 323/138
f 324/137 322/133 321/136
f 329/154 322/133 324/137
f 329/154 325/135 322/133
f 342/146 327/147 341/144
f 342/146 328/145 327/147
f 344/150 328/145 342/146
f 344/150 331/149 328/145
f 343/148 331/149 344/150
f 343/148 330/149 331/149
f 341/144 330/149 343/148
f 341/144 327/147 330/149
f 340/142 338/114 325/151
f 329/135 340/142 325/151
f 463/126 79/114 78/117
f 342/146 341/144 343/148
f 344/150 342/146 343/148
f 347/148 345/153 346/150
f 347/148 348/152 345/153
f 330/149 348/152 347/148
f 330/149 332/139 348/152
f 339/140 332/139 330/149
f 339/140 340/142 332/139
f 337/115 339/140 327/147
f 328/145 337/115 327/147
f 337/115 328/145 331/149
f 340/142 329/135 332/139
f 345/153 331/149 346/150
f 345/153 326/134 331/149
f 348/152 326/134 345/153
f 348/152 332/139 326/134
f 330/149 347/148 346/150
f 331/149 330/149 346/150
f 326/134 325/135 338/114
f 337/115 331/149 326/134
f 338/114 337/115 326/134
f 330/149 327/147 339/140
f 449/106 288/108 290/108
f 449/106 450/129 288/108
f 455/112 450/129 449/106
f 455/112 292/113 450/129
f 439/113 438/104 430/111
f 449/106 453/104 455/113
f 117/155 116/156 114/157
f 117/155 118/158 116/156
f 121/159 118/158 117/155
f 121/159 119/160 118/158
f 118/158 138/161 116/156
f 118/158 140/162 138/161
f 119/160 140/162 118/158
f 119/160 141/163 140/162
f 146/164 144/165 145/166
f 146/164 143/167 144/165
f 130/168 143/167 146/164
f 130/168 147/169 143/167
f 181/170 143/167 182/171
f 181/170 144/165 143/167
f 247/172 144/165 181/170
f 247/172 217/173 144/165
f 200/122 199/174 197/175
f 200/122 201/176 199/174
f 202/125 201/176 200/122
f 202/125 204/177 201/176
f 200/122 123/124 202/125
f 200/122 125/123 123/124
f 197/175 125/123 200/122
f 197/175 215/178 125/123
f 217/173 145/166 144/165
f 217/173 216/179 145/166
f 218/180 216/179 217/173
f 218/180 206/181 216/179
f 277/121 434/120 62/132
f 105/182 69/183 102/184
f 105/182 79/185 69/183
f 87/186 108/187 106/188
f 87/186 93/189 108/187
f 306/115 460/127 305/114
f 306/115 461/128 460/127
f 462/127 333/115 334/114
f 462/127 463/128 333/115
f 147/169 149/190 160/191
f 147/169 132/192 149/190
f 130/168 132/192 147/169
f 130/168 114/157 132/192
f 117/155 114/157 130/168
f 130/168 146/164 117/155
f 191/193 117/155 146/164
f 191/193 121/159 117/155
f 145/166 191/193 146/164
f 145/166 256/194 191/193
f 216/179 256/194 145/166
f 216/179 201/176 256/194
f 206/181 201/176 216/179
f 206/181 199/174 201/176
f 209/195 199/174 206/181
f 206/181 218/180 209/195
f 221/196 209/195 218/180
f 218/180 228/197 221/196
f 201/176 204/177 256/194
usemtl mat_2
f 359/198 372/199 371/200
f 361/201 359/198 371/200
f 373/199 360/198 368/201
f 374/200 373/199 368/201
f 412/198 423/199 422/200
f 414/201 412/198 422/200
f 424/199 413/198 419/201
f 425/200 424/199 419/201
f 361/201 349/202 359/198
f 361/201 355/203 349/202
f 353/204 355/203 361/201
f 361/201 357/205 353/204
f 351/206 357/205 361/201
f 361/201 364/207 351/206
f 362/208 364/207 361/201
f 361/201 371/200 362/208
f 366/209 362/208 371/200
f 371/200 369/210 366/209
f 34/211 369/210 371/200
f 371/200 54/212 34/211
f 372/199 54/212 371/200
f 350/202 368/201 360/198
f 350/202 356/203 368/201
f 354/204 368/201 356/203
f 354/204 358/205 368/201
f 352/206 368/201 358/205
f 352/206 365/207 368/201
f 363/208 368/201 365/207
f 363/208 374/200 368/201
f 367/209 374/200 363/208
f 367/209 370/210 374/200
f 35/211 374/200 370/210
f 35/211 55/212 374/200
f 373/199 374/200 55/212
f 414/201 400/202 412/198
f 414/201 408/203 400/202
f 406/204 408/203 414/201
f 414/201 410/205 406/204
f 404/206 410/205 414/201
f 414/201 402/207 404/206
f 415/208 402/207 414/201
f 414/201 422/200 415/208
f 417/209 415/208 422/200
f 422/200 420/210 417/209
f 36/211 420/210 422/200
f 422/200 56/212 36/211
f 423/199 56/212 422/200
f 401/202 419/201 413/198
f 401/202 409/203 419/201
f 407/204 419/201 409/203
f 407/204 411/205 419/201
f 405/206 419/201 411/205
f 405/206 403/207 419/201
f 416/208 419/201 403/207
f 416/208 425/200 419/201
f 418/209 425/200 416/208
f 418/209 421/210 425/200
f 37/211 425/200 421/210
f 37/211 57/212 425/200
f 424/199 425/200 57/212
usemtl mat_3
f 110/213 111/214 112/215
f 115/216 112/217 111/218
f 113/219 115/216 111/218
f 113/216 111/217 133/218
f 131/219 113/216 133/218
f 137/216 139/217 112/218
f 115/219 137/216 112/218
f 131/216 133/217 150/218
f 148/219 131/216 150/218
f 151/216 153/217 139/218
f 137/219 151/216 139/218
f 148/216 150/217 135/218
f 161/219 148/216 135/218
f 167/216 166/217 153/218
f 151/219 167/216 153/218
f 112/214 139/215 165/220
f 110/213 112/214 165/220
f 161/216 135/217 134/218
f 174/219 161/216 134/218
f 176/214 134/215 136/220
f 173/213 176/214 136/220
f 177/216 171/217 166/218
f 167/219 177/216 166/218
f 174/216 134/217 176/218
f 183/219 174/216 176/218
f 166/214 171/215 173/220
f 165/213 166/214 173/220
f 136/214 150/215 133/220
f 110/213 136/214 133/220
f 193/218 196/219 198/216
f 194/217 193/218 198/216
f 194/218 198/219 208/216
f 207/217 194/218 208/216
f 213/218 214/219 196/216
f 193/217 213/218 196/216
f 207/218 208/219 220/216
f 219/217 207/218 220/216
f 222/218 223/219 214/216
f 213/217 222/218 214/216
f 219/218 220/219 229/216
f 211/217 219/218 229/216
f 233/218 235/219 223/216
f 222/217 233/218 223/216
f 213/214 193/215 195/220
f 234/213 213/214 195/220
f 211/218 229/219 241/216
f 212/217 211/218 241/216
f 212/214 243/215 238/220
f 210/213 212/214 238/220
f 240/218 244/219 235/216
f 233/217 240/218 235/216
f 212/218 241/219 248/216
f 243/217 212/218 248/216
f 240/214 233/215 234/220
f 238/213 240/214 234/220
f 219/214 210/215 195/220
f 207/213 219/214 195/220
f 134/213 135/214 136/215
f 136/213 135/214 150/215
f 165/213 153/214 166/215
f 171/213 172/214 173/215
f 139/213 153/214 165/215
f 173/213 172/214 176/215
f 133/213 111/214 110/215
f 193/213 194/214 195/215
f 210/213 211/214 212/215
f 219/213 211/214 210/215
f 233/213 222/214 234/215
f 238/213 239/214 240/215
f 234/213 222/214 213/215
f 243/213 239/214 238/215
f 195/213 194/214 207/215
f 258/221 252/222 249/223
f 183/221 184/222 264/223
f 264/221 164/222 175/223
f 264/221 175/222 183/223
f 242/221 232/222 258/223
f 258/221 249/222 242/223
f 171/218 184/216 172/217
f 171/218 177/219 184/216
f 176/217 184/219 183/216
f 176/217 172/218 184/219
f 250/219 240/217 239/218
f 250/219 244/216 240/217
f 250/216 243/218 248/219
f 250/216 239/217 243/218
f 238/224 268/225 210/226
f 238/224 234/226 268/225
f 195/227 268/225 234/226
f 195/227 210/226 268/225
f 136/228 269/229 173/230
f 136/228 110/231 269/229
f 165/228 269/229 110/231
f 165/228 173/230 269/229
usemtl mat_4
f 188/232 156/233 155/234
f 187/235 188/232 155/234
f 225/232 253/233 255/234
f 227/235 225/232 255/234
f 158/236 155/234 156/233
f 158/236 181/237 155/234
f 227/234 181/237 158/236
f 227/234 247/238 181/237
f 158/236 225/233 227/234
f 181/237 182/238 155/234
f 187/234 162/239 188/233
f 187/234 149/240 162/239
f 160/238 149/240 187/234
f 230/239 255/234 253/233
f 230/239 221/240 255/234
f 228/238 255/234 221/240
usemtl mat_5
f 157/241 190/242 159/243
f 157/241 163/244 190/242
f 189/245 163/244 157/241
f 231/244 159/243 190/242
f 231/244 226/241 159/243
f 254/245 226/241 231/244
f 190/242 259/246 231/244
f 190/242 262/247 259/246
f 163/244 262/247 190/242
f 163/244 265/246 262/247
f 388/248 399/249 390/250
f 388/248 398/251 399/249
f 386/252 398/251 388/248
f 394/251 390/250 399/249
f 394/251 396/248 390/250
f 392/252 396/248 394/251
f 263/253 398/251 261/254
f 263/253 399/249 398/251
f 267/254 399/249 263/253
f 267/254 394/251 399/249
usemtl mat_6
f 160/255 143/256 147/257
f 160/255 182/258 143/256
f 187/259 182/258 160/255
f 187/259 155/260 182/258
f 247/258 218/257 217/256
f 247/258 228/255 218/257
f 227/260 228/255 247/258
f 227/260 255/259 228/255
usemtl mat_7
f 124/261 128/262 378/263
f 205/264 382/58 257/265
f 205/264 380/266 382/58
f 203/267 380/266 205/264
f 203/267 383/268 380/266
f 124/261 383/268 203/267
f 124/261 378/263 383/268
f 379/263 129/262 142/261
f 192/265 257/265 382/58
f 384/268 122/264 381/266
f 384/268 120/267 122/264
f 379/263 120/267 384/268
f 379/263 142/261 120/267
f 381/266 122/264 192/265
f 382/58 381/266 192/265
usemtl mat_8
f 465/269 385/270 387/271
f 464/272 465/269 387/271
f 468/273 469/274 470/275
f 467/276 468/273 470/275
f 472/269 185/270 375/271
f 471/272 472/269 375/271
f 473/273 474/274 472/275
f 471/276 473/273 472/275
f 391/270 393/271 474/272
f 473/269 391/270 474/272
f 391/271 473/272 470/269
f 395/270 391/271 470/269
f 377/270 251/271 475/272
f 466/269 377/270 475/272
f 477/273 465/274 466/275
f 475/276 477/273 466/275
f 469/273 468/274 476/275
f 464/276 469/273 476/275
f 397/270 385/271 465/272
f 477/269 397/270 465/272
f 467/277 471/269 375/270
f 377/270 466/277 476/269
f 376/270 468/277 467/269
f 476/277 468/269 376/270
f 376/270 377/271 476/269
f 467/269 375/270 376/271
f 475/278 251/272 260/270
f 266/270 186/272 472/278
f 260/270 397/271 477/272
f 260/270 477/278 475/272
f 474/272 393/270 266/271
f 472/272 474/278 266/270
f 464/275 466/273 465/274
f 464/275 476/276 466/273
f 389/270 470/272 469/269
f 389/270 395/271 470/272
f 471/274 470/276 473/273
f 471/274 467/275 470/276
f 464/269 389/271 469/272
f 464/269 387/270 389/271
