# Blender v2.66 (sub 1) OBJ File: 'BR_Torterra.blend'
# www.blender.org
mtllib BR_Torterra.mtl
o dodaitose
v 2.933210 6.043029 -11.866273
v 3.037572 4.287205 -12.316572
v 2.845009 4.272027 -12.626681
v 2.697968 -2.532850 -10.999984
v 4.414098 -0.937449 -11.036366
v 2.312768 2.935565 -12.446583
v 2.929134 3.128794 -12.699767
v 3.308429 2.129989 -12.324653
v 3.271981 3.114942 -12.295967
v 2.485740 4.666752 -12.333049
v 3.119708 2.130724 -11.696260
v 3.567495 0.823261 -11.079788
v 4.054725 0.318478 -10.892462
v 5.139211 -0.503042 -8.637224
v 5.514256 -0.936637 -8.796955
v 4.611931 -0.374395 -9.724511
v 5.057092 -1.045324 -8.574408
v 4.362615 -1.215615 -9.741905
v 3.564209 -2.095956 -10.547254
v 1.441552 -2.506235 -11.870825
v -0.003629 -2.190919 -11.976114
v 1.994662 -2.058273 -11.665272
v 2.926048 4.302382 -12.006464
v 3.114768 3.141142 -11.736965
v 5.666490 -0.814984 -7.549937
v 2.486290 -0.561959 -15.888469
v 7.203403 -1.978236 -14.949675
v 7.119143 -2.351017 -14.680701
v 2.344241 -0.649320 -17.390917
v 3.375237 -1.343913 -17.565014
v 2.455627 5.772898 -16.297632
v 3.132429 5.309902 -16.729198
v 2.581085 6.770534 -17.407671
v 3.476238 4.750032 -15.574552
v 3.398033 5.166050 -15.435659
v 2.298844 4.844558 -15.386259
v 2.591471 5.495367 -15.470448
v 3.092968 4.375611 -15.322210
v 1.521371 5.464728 -16.094812
v 0.339996 4.958909 -17.001102
v 1.195581 4.347568 -15.062828
v 1.666883 4.347966 -15.395647
v 6.876237 3.362875 -20.410494
v 5.100602 1.384186 -20.588243
v 5.383286 3.016709 -20.846924
v 4.342785 1.495200 -20.730160
v 4.195066 1.912390 -21.043310
v 3.848814 1.209192 -20.486864
v 3.687166 0.799605 -20.415371
v 2.332428 2.128112 -20.274998
v 1.877130 0.613819 -20.038877
v 2.706947 -5.876423 -20.422956
v 3.696889 -5.741236 -20.836571
v 2.780842 -5.911880 -19.488697
v 2.915876 -3.937469 -21.205774
v 1.663047 -5.684503 -19.918949
v 1.788069 -5.946252 -19.215784
v 1.074265 -5.361329 -19.350163
v 1.462662 -3.745925 -16.302885
v 6.529253 -3.708867 -17.282549
v 3.229267 -1.129993 -16.718683
v 2.208920 1.696730 -14.255782
v 1.918642 2.852774 -14.717150
v 1.702154 2.164020 -14.807297
v 1.334358 -0.101360 -15.360413
v 2.694808 0.609266 -15.260712
v 2.473525 2.716245 -14.973374
v 2.807333 2.004693 -15.070412
v 6.573712 3.637715 -16.837914
v 7.386621 2.354345 -17.266819
v 7.066712 3.698528 -17.678705
v 7.204589 2.272577 -18.046453
v 7.443687 0.525895 -17.274561
v 7.591095 0.864666 -19.173445
v 7.559563 2.350344 -18.878284
v -2.267342 0.008378 -17.267498
v -1.461362 -2.763752 -17.200277
v -1.713959 -1.387687 -16.625660
v -1.051425 -4.473657 -17.158813
v 0.035185 -4.772035 -16.963181
v -1.479336 -2.783751 -16.280182
v 5.771437 4.727631 -17.052744
v 6.487172 4.230478 -18.069374
v 3.934034 6.111238 -17.534069
v 4.395378 6.108581 -16.909369
v 6.817657 5.720128 -19.152348
v 6.753739 5.544523 -19.773066
v 5.032326 6.250295 -20.244188
v 6.119143 5.678380 -20.374481
v 4.784871 6.146521 -19.524704
v 2.612981 6.522271 -19.018559
v 1.257177 6.577150 -18.714865
v 1.858534 6.860204 -18.186264
v 2.994657 4.923365 -19.723894
v 0.959645 4.996118 -19.153641
v 1.097416 5.200687 -18.912621
v 0.785293 5.795169 -18.075565
v 1.113275 6.382606 -17.967377
v 0.997869 6.382149 -17.367907
v 1.297748 3.746510 -19.907570
v 0.544897 4.636503 -19.661530
v 0.172558 2.284036 -18.958086
v -0.196828 4.010589 -18.549080
v -0.484456 2.478978 -17.540707
v 5.649181 3.813031 -21.288319
v 5.047822 3.176397 -21.266687
v 4.274891 3.552809 -21.366236
v 5.937782 0.387347 -21.927219
v 6.571095 0.597695 -22.080612
v 6.707972 0.215344 -22.409788
v 5.734929 1.659595 -21.389099
v 6.548370 2.246394 -19.760675
v 4.019924 0.536257 -20.861109
v 4.657176 0.184912 -20.832619
v 3.752381 0.301230 -21.068155
v 5.013000 -2.001161 -20.785599
v 3.494530 -0.409136 -21.373533
v 4.329587 -1.520940 -21.430931
v 5.518954 -0.990956 -22.145958
v 6.423598 -1.583021 -21.815063
v 5.680566 -2.389849 -21.220358
v 6.037423 -0.335194 -22.191219
v 2.049397 -0.950660 -21.340044
v 1.654362 -1.648847 -21.782717
v 0.878652 -1.130767 -21.560678
v 3.945150 -6.124111 -19.074688
v 5.092500 -4.817368 -21.233654
v 5.634507 -5.351386 -20.724316
v 5.409120 -4.269265 -20.837624
v 5.967862 -4.219860 -20.382130
v 5.783401 -5.178759 -19.983807
v 6.144761 -4.574706 -19.643658
v 5.108145 -5.685342 -19.939432
v 5.327099 -7.591471 -16.804806
v 6.613318 -7.680766 -16.199608
v 5.755189 -7.064054 -15.948367
v 0.104668 -4.680836 -18.478960
v 0.679467 -5.707111 -18.227440
v 0.693332 -4.795859 -17.721226
v 2.772264 -5.767128 -17.302567
v 3.154584 -5.013496 -16.678965
v 1.956990 -5.497252 -17.353613
v 4.164104 -4.374132 -15.453993
v 5.401326 2.206950 -16.901567
v 6.315164 2.099672 -16.672024
v 5.349980 3.110418 -16.097326
v 5.205179 3.963746 -15.924201
v 4.416620 2.708240 -15.532467
v 3.125401 2.999106 -15.321243
v 3.183572 2.390407 -15.670502
v 7.550973 -1.199628 -18.779249
v 7.835558 -1.951572 -19.419754
v 7.864802 0.113516 -19.539600
v 7.891257 -0.404014 -17.211462
v 7.669989 -2.211728 -17.335794
v 8.257003 -0.700470 -18.620396
v 6.590352 -2.885333 -20.667276
v 7.866320 -2.216478 -20.537231
v 6.870543 -3.331070 -19.974834
v 7.398459 -3.189093 -19.937696
v 7.494916 -1.868741 -20.707195
v 7.468306 -1.500519 -21.272738
v 6.932641 -2.276494 -21.172865
v 6.762275 -0.403901 -21.949635
v 7.122752 0.216173 -21.612495
v 6.936502 0.641900 -22.033285
v 7.668944 2.009013 -20.644087
v 7.242020 3.091395 -19.373451
v -0.559630 4.600996 -15.817462
v -1.108799 3.426019 -15.801249
v 0.110480 4.390386 -15.314440
v -0.288330 1.254324 -14.880519
v 0.167389 4.092752 -14.743659
v -0.691102 1.858808 -15.373476
v -0.825462 3.008127 -15.592335
v -0.625944 1.316666 -19.077518
v 0.325740 0.143232 -19.169231
v -0.305685 -3.525598 -18.874039
v 0.406924 -4.325085 -19.163397
v 0.010714 0.264260 -19.678738
v 1.531841 -3.730031 -20.117168
v 1.342549 -4.130047 -20.937269
v 0.520576 -3.659248 -20.796991
v 0.292255 -3.632535 -20.080378
v 0.306271 -1.975844 -20.132494
v 0.478922 -1.997572 -19.380375
v 0.073196 -0.612687 -20.777391
v 1.623312 -0.246434 -21.130026
v 2.339215 0.553793 -20.877748
v 4.746683 -3.845793 -21.040180
v 4.473479 -4.414334 -21.435875
v 4.028826 -2.604009 -21.630919
v 3.682648 -1.955262 -21.531015
v 5.350817 -3.222524 -21.297621
v 3.188179 -2.528486 -21.442343
v 7.162399 4.493565 -19.044485
v 6.867670 4.796678 -19.825047
v 7.029528 4.414542 -20.399477
v 7.123583 3.737916 -19.522562
v 4.556239 5.394470 -20.837290
v 5.783839 4.927648 -20.718594
v 4.889333 6.178958 -18.628576
v 3.642860 5.729798 -19.931597
v 6.498007 4.411599 -18.630209
v 6.217215 -5.381700 -18.888811
v 7.893926 -5.785309 -17.968462
v 7.204746 -4.993926 -16.285395
v 5.777958 -5.762290 -15.954042
v 3.882398 -6.375988 -17.915623
v 4.083373 -7.112583 -17.559082
v 4.187120 -7.612134 -16.567795
v 4.067564 -7.093439 -16.315987
v 6.054356 -6.841051 -18.855230
v 6.153441 -6.020618 -19.121552
v 6.908557 -6.443088 -18.548157
v 5.445779 -7.266438 -18.511143
v -0.203510 -5.089803 -17.886421
v 0.379536 -2.102212 -15.375772
v -0.579123 -0.100139 -15.226859
v -0.890540 -1.105978 -15.816577
v 0.621784 -3.223977 -16.499165
v -0.649518 -4.229643 -18.572756
v -1.590785 -3.115803 -18.787884
v -1.591387 -2.986166 -17.936478
v -1.473240 -1.397334 -18.451031
v 1.076459 2.925270 -14.212560
v 1.625012 4.040438 -14.931089
v -0.106761 5.012310 -16.409283
v -0.771811 3.731395 -16.963198
v 7.585333 -6.827503 -17.084034
v 6.925149 -7.132778 -17.577408
v 5.536875 -8.355602 -17.623852
v 5.069744 -7.943580 -17.635551
v 5.963300 -7.235332 -17.949097
v 6.280562 -7.735245 -18.082380
v 1.261871 -3.462191 -21.477064
v 1.264567 -2.626542 -22.028276
v 1.796770 -3.109774 -22.387768
v 2.445279 -2.810882 -22.200975
v 2.693683 -2.518186 -21.494246
v 2.013294 -3.822386 -21.821583
v 0.586239 -1.988815 -21.176905
v 2.710779 -1.164215 -21.488729
v 5.546831 5.475393 -17.607954
v 7.058196 -3.589006 -18.165936
v 7.132178 -4.222091 -19.152403
v 6.463883 -3.925969 -20.490034
v 5.119945 -6.861194 -18.152725
v -2.278363 -1.122949 -18.037121
v -1.868750 -0.606560 -18.101370
v -1.820010 0.013602 -17.881592
v -0.811190 -0.517034 -16.009777
v -1.425650 0.739779 -15.740656
v 6.894721 2.920815 -19.195820
v 3.062575 2.477751 -20.949600
v 3.694324 4.328963 -20.840286
v 3.795173 3.442080 -20.913954
v 3.807655 5.404654 -20.727173
v 4.165027 5.828397 -20.565029
v 4.927713 4.806804 -16.405796
v 6.462952 4.712329 -16.581827
v 5.682377 4.828314 -16.014591
v 4.400064 0.985023 -16.955931
v 5.990299 0.167128 -16.463583
v 1.672832 3.508184 -14.623430
v -1.145730 0.518471 -18.483429
v -1.299238 0.514918 -17.921238
v -1.418515 1.217460 -16.797661
v -0.755181 2.420132 -16.661976
v -1.046955 1.374498 -15.757327
v 6.809707 2.417707 -20.697306
v 4.729492 -6.326918 -15.483177
v 3.942038 -5.670207 -15.624111
v 6.572199 -7.856638 -16.968704
v 6.498959 1.230869 -21.085232
v 6.596858 1.406121 -21.899158
v 6.703282 1.780137 -21.199303
v 7.478155 1.521125 -21.079113
v 7.236930 1.202653 -21.853151
v 7.248233 0.216851 -20.960232
v 5.156138 0.611350 -21.196039
v 5.664306 -2.805872 -20.821579
v 6.597826 -8.235159 -17.614296
v 5.039741 -7.558298 -17.941536
v 4.421036 4.336360 -21.348391
v 6.518912 5.158383 -20.149469
v 3.920017 5.195131 -16.290819
v 4.726315 4.846786 -16.029881
v 8.080069 -1.182038 -17.614744
v 7.880389 -3.430752 -19.332283
v 6.851370 -2.917781 -17.754414
v 0.581860 -3.587649 -19.369965
v -0.239029 -2.633670 -19.353354
v -0.684680 -1.676603 -18.681990
v -0.360282 -1.083677 -19.338884
v -0.267371 0.099787 -18.752796
v 4.691442 6.005633 -20.105257
v 4.623840 5.760151 -20.581739
v 4.374942 -7.865710 -17.385513
v 1.419260 -5.932633 -18.032486
v 1.931874 -6.518879 -18.850309
v -0.179585 -3.138680 -16.140625
v 0.905273 -1.643968 -15.889767
v -0.339749 -2.044048 -15.903442
v 2.883720 -0.461853 -21.233532
v 6.889008 3.595235 -18.630962
v 2.522783 -6.334278 -18.735241
v 2.297384 -6.703216 -18.077143
v 2.648398 3.742087 -14.676001
v 3.241231 3.752069 -15.382586
v 9.474707 -3.246524 -14.188401
v 9.328508 -3.629882 -13.529029
v 9.641159 -3.954847 -14.082130
v 9.645884 -4.129220 -13.639248
v 9.513019 -4.657150 -14.062993
v 9.187299 -3.053051 -13.461083
v 9.606052 -2.685424 -13.907970
v 8.901898 -2.515203 -13.841024
v 9.097212 -3.480251 -13.498123
v 9.439044 -4.092947 -16.536648
v 8.176907 -3.084900 -16.597342
v 9.543352 -2.585178 -16.170553
v 8.941010 -1.815247 -16.491335
v 7.883878 -2.314168 -16.891310
v 4.678739 -0.342850 -15.204292
v 6.246891 0.584423 -15.517270
v 5.458456 -0.914316 -16.707676
v 6.585962 -0.227128 -16.177467
v 6.444422 -0.170750 -14.252261
v 5.658731 -2.443325 -14.245586
v 7.305319 -2.446500 -14.671227
v 7.546579 -1.997357 -14.101585
v 6.910912 -0.439547 -13.892681
v 8.325217 -2.127558 -13.725008
v 8.336414 -5.124093 -14.867313
v 8.401850 -5.492600 -14.343464
v 8.321665 -5.037525 -14.064180
v 6.183351 -4.416648 -15.296513
v 8.074608 -4.685760 -13.844160
v 6.041023 -4.131823 -14.432259
v 7.215237 -4.065882 -13.699258
v 7.624086 -0.567457 -14.353973
v 7.799268 -0.641827 -13.971697
v 9.014064 -5.159885 -14.025723
v 9.016985 -5.249959 -14.497568
v 8.218959 -4.743258 -15.807606
v 9.098654 -4.658268 -15.313704
v 9.407457 -5.095936 -14.595390
v 9.761731 -4.396743 -15.946893
v 9.856479 -3.813003 -16.061869
v 9.785101 -3.316765 -15.894922
v 9.810349 -2.580680 -14.884267
v 10.387774 -3.630315 -14.850307
v 10.397722 -3.768944 -15.679184
v 9.995522 -4.256332 -15.384127
v 7.617731 -4.150850 -16.167881
v 6.474560 -4.173915 -16.899740
v 5.292722 -2.397617 -16.238258
v 7.119783 -1.073987 -16.881748
v 4.463573 -2.335447 -15.139825
v 5.255488 -0.833469 -13.946957
v 7.770372 -3.147920 -13.651565
v 6.007298 -3.162213 -14.305421
v 8.779978 -4.432222 -13.696596
v 8.861151 -1.351022 -14.473843
v 8.693080 -0.883781 -15.559000
v 8.697888 -1.154462 -14.031631
v 8.091941 -0.980502 -15.738169
v 7.287572 -0.382527 -15.444148
v 9.654072 -4.424818 -14.819800
v 8.146524 -1.290454 -16.656567
v 8.489001 -0.500934 -14.885389
v 6.355865 -3.984226 -13.851276
v 9.092798 -4.154533 -13.387153
v 8.101737 -0.950941 -13.589421
v 2.572037 -8.096791 -14.814201
v 1.176698 -7.363777 -14.117758
v 1.688665 -7.929460 -14.819141
v 1.041308 -7.824256 -14.232374
v 2.680836 -7.746194 -14.015896
v 2.581106 -7.398093 -13.964059
v 2.022488 -7.438371 -13.969676
v 2.429130 -7.266202 -15.631993
v 1.587018 -2.644127 -15.516640
v 2.373424 -4.886183 -16.241434
v 3.401331 -5.698319 -15.879663
v 3.096270 -2.462544 -14.665328
v 4.218577 -3.358508 -14.682582
v 2.163211 -2.456800 -15.098393
v 3.488661 -4.229987 -15.131647
v 3.644682 -3.787232 -13.737350
v 3.110929 -3.891049 -13.504796
v 3.198443 -4.874970 -13.854725
v 1.697002 -4.534384 -13.835733
v 2.675655 -5.776052 -13.765645
v 1.154391 -5.529123 -13.504889
v 0.810475 -4.910698 -13.761264
v 2.558887 -5.952419 -13.375444
v 0.436493 -3.987482 -14.211367
v 0.148018 -3.975880 -14.720265
v 0.527719 -4.634542 -14.021624
v 0.238974 -6.236345 -14.778388
v -0.015057 -6.169221 -14.576717
v 0.340975 -4.978905 -13.852006
v 0.190276 -5.470696 -13.620294
v 3.859205 -5.977903 -14.752409
v 3.702359 -5.775616 -14.432352
v 3.722288 -4.792117 -14.210102
v 0.344639 -7.432676 -14.803375
v 0.506231 -6.872605 -13.993956
v 1.186366 -7.316701 -15.933418
v 1.036385 -7.860002 -15.625816
v 1.097713 -5.794037 -15.600914
v 0.617940 -4.196802 -15.855555
v 1.435187 -1.856991 -14.658473
v 2.820858 -2.637080 -13.539255
v 1.578094 -2.687580 -13.840681
v 1.678990 -3.368155 -13.654964
v 1.024587 -3.509231 -13.786724
v 1.412021 -6.692476 -13.859815
v 2.940366 -6.211758 -13.973172
v 3.109479 -6.810434 -13.854860
v 0.905918 -8.134243 -14.824082
v 1.720862 -6.279365 -13.289904
v 0.130610 -6.276050 -13.926716
v 0.695397 -4.061557 -13.600238
v 3.480758 -5.489814 -13.809793
v -0.929031 2.883650 -16.233112
v 3.106922 -1.791832 -21.576836
v 6.052848 -3.550980 -20.601233
v 4.152913 2.827725 -21.018175
v 4.403394 0.873120 -20.564348
v 3.236678 -1.119503 -21.678911
v 4.237294 3.681448 -15.816087
v 4.182793 4.109672 -15.795737
v 4.717184 4.424861 -15.723089
v 4.083991 4.885976 -15.864093
v -1.372678 -0.213078 -18.697468
v -1.149395 2.121885 -15.783246
v 4.633434 -0.684201 -12.739138
v 3.187006 -0.877273 -14.823154
v 2.382067 -1.003085 -14.532522
v 3.364980 -0.722414 -14.039861
v 2.710639 -1.043782 -13.978373
v 3.301589 -0.465243 -15.870368
v 2.624856 -1.316156 -16.098862
v 3.268617 -1.293469 -16.295361
v 2.644668 -1.893751 -14.858182
v 3.271022 -1.767913 -15.149510
v 3.462937 -0.637179 -13.608737
v 2.700525 -1.563952 -14.116465
v 4.041882 -1.406629 -14.393684
v 3.900842 -0.908594 -14.248543
v 4.655614 -0.752170 -13.480814
v 4.960782 -1.858003 -13.031116
v 4.146560 -1.790330 -14.016153
v 4.651187 -1.121062 -13.796262
v 5.401832 -1.785125 -13.851135
v 5.454191 -1.257408 -13.556373
v 5.591501 -1.656148 -13.201547
v 5.612277 -2.236351 -13.307101
v 6.175998 -1.658611 -13.884187
v 6.217420 -1.238795 -13.649645
v 6.326341 -1.556013 -13.367251
v 6.342940 -2.017587 -13.451207
v 7.315055 -2.000872 -14.691566
v 3.445606 -0.584843 -17.030727
v 2.667361 -1.338297 -17.473591
v 3.442710 -1.935556 -13.884920
v 3.776724 -2.482303 -13.159788
v 2.896797 -1.890802 -12.920072
v 3.377665 -2.233677 -12.471848
v 3.884145 -1.916677 -12.023623
v 3.742120 -2.119992 -11.214205
v 4.209526 -1.210158 -11.796948
v 3.946430 -0.271152 -12.023325
v 4.547405 -1.261159 -12.475312
v 2.081571 -0.525131 -12.177607
v 3.021666 -0.026429 -12.730661
v 2.079893 0.505302 -12.073997
v 3.013259 1.985561 -12.606080
v 2.412124 1.455935 -12.219740
v 1.387279 -2.544489 -12.557567
v 1.119071 -1.956841 -12.054275
v 2.146590 -2.061612 -12.589958
v 1.512117 -1.545774 -12.191535
v 4.359774 -1.936816 -12.781219
v 2.965332 -2.818657 -13.953522
v 3.762808 -2.204435 -13.850230
v 3.067695 -2.796787 -14.227524
v 2.830337 -2.595062 -14.241735
v 5.459170 -0.980657 -9.248193
vt 0.428847 0.428513
vt 0.399120 0.409469
vt 0.420463 0.409584
vt 0.408065 0.428999
vt 0.408276 0.439378
vt 0.387283 0.429485
vt 0.389879 0.453175
vt 0.365042 0.429679
vt 0.366340 0.441524
vt 0.342801 0.429872
vt 0.346408 0.447614
vt 0.325577 0.428268
vt 0.319089 0.441462
vt 0.291370 0.428513
vt 0.290427 0.443738
vt 0.270798 0.439378
vt 0.276466 0.442173
vt 0.277094 0.445996
vt 0.274467 0.448912
vt 0.280389 0.443878
vt 0.383260 0.419456
vt 0.366458 0.421542
vt 0.379945 0.411193
vt 0.375721 0.400535
vt 0.365634 0.404544
vt 0.356652 0.401365
vt 0.365619 0.395880
vt 0.361114 0.386650
vt 0.365576 0.371935
vt 0.370317 0.385302
vt 0.352973 0.417019
vt 0.338302 0.455481
vt 0.314165 0.447025
vt 0.319860 0.459516
vt 0.305220 0.457132
vt 0.315087 0.467235
vt 0.293129 0.465975
vt 0.302624 0.455201
vt 0.300284 0.448203
vt 0.297774 0.450443
vt 0.294753 0.450817
vt 0.296529 0.452482
vt 0.294089 0.460643
vt 0.295153 0.454736
vt 0.299747 0.453062
vt 0.293150 0.449315
vt 0.302550 0.446180
vt 0.310820 0.443821
vt 0.296489 0.444959
vt 0.411945 0.448912
vt 0.409886 0.456721
vt 0.429892 0.460267
vt 0.417652 0.463966
vt 0.407977 0.466890
vt 0.348212 0.416945
vt 0.332825 0.415463
vt 0.328745 0.414308
vt 0.325727 0.401436
vt 0.316498 0.396435
vt 0.322709 0.388565
vt 0.319997 0.382920
vt 0.322107 0.365069
vt 0.326318 0.386062
vt 0.329854 0.402039
vt 0.337470 0.416777
vt 0.316360 0.406796
vt 0.316272 0.413453
vt 0.309611 0.413087
vt 0.291840 0.417770
vt 0.282985 0.409584
vt 0.282784 0.402413
vt 0.289652 0.401550
vt 0.301330 0.403770
vt 0.296636 0.397356
vt 0.290472 0.383412
vt 0.329926 0.383559
vt 0.333960 0.401322
vt 0.332444 0.468231
vt 0.023832 0.464296
vt 0.060133 0.473156
vt 0.040094 0.482792
vt 0.031519 0.455126
vt 0.013870 0.444005
vt 0.038880 0.447576
vt 0.027076 0.430435
vt 0.037861 0.436400
vt 0.040288 0.433851
vt 0.049140 0.438291
vt 0.054478 0.435422
vt 0.067991 0.437881
vt 0.040711 0.422858
vt 0.078824 0.429402
vt 0.066367 0.408253
vt 0.088093 0.416406
vt 0.061840 0.374222
vt 0.088397 0.400666
vt 0.093201 0.392265
vt 0.104269 0.405201
vt 0.107479 0.399131
vt 0.116901 0.408810
vt 0.120730 0.400411
vt 0.130559 0.421913
vt 0.128577 0.403369
vt 0.136308 0.418083
vt 0.130888 0.399514
vt 0.143492 0.418167
vt 0.136393 0.437343
vt 0.129445 0.436184
vt 0.123603 0.427981
vt 0.119841 0.429543
vt 0.120619 0.423053
vt 0.115335 0.427675
vt 0.114021 0.421301
vt 0.111126 0.430258
vt 0.108080 0.428167
vt 0.113369 0.438225
vt 0.108869 0.440206
vt 0.110033 0.447126
vt 0.100032 0.447201
vt 0.103696 0.451475
vt 0.100518 0.450907
vt 0.101127 0.455559
vt 0.090086 0.451489
vt 0.095162 0.463046
vt 0.071853 0.456102
vt 0.074779 0.465094
vt 0.071005 0.466834
vt 0.077211 0.472569
vt 0.068672 0.472863
vt 0.067013 0.463145
vt 0.056094 0.453302
vt 0.057924 0.447496
vt 0.051275 0.445678
vt 0.045903 0.440848
vt 0.049506 0.460366
vt 0.046974 0.398808
vt 0.036041 0.402663
vt 0.047563 0.383908
vt 0.047909 0.354502
vt 0.044913 0.367377
vt 0.038483 0.367102
vt 0.041916 0.380252
vt 0.037386 0.375141
vt 0.028351 0.372735
vt 0.033583 0.370850
vt 0.028360 0.366465
vt 0.023137 0.362080
vt 0.086616 0.443298
vt 0.085368 0.437786
vt 0.092745 0.444156
vt 0.092847 0.441171
vt 0.098558 0.434742
vt 0.104698 0.436582
vt 0.088111 0.437196
vt 0.094062 0.431803
vt 0.101558 0.423282
vt 0.101363 0.412907
vt 0.108197 0.417020
vt 0.021945 0.375044
vt 0.027676 0.380632
vt 0.012418 0.378477
vt 0.020779 0.382100
vt 0.015728 0.384078
vt 0.026101 0.384405
vt 0.037024 0.396113
vt 0.042054 0.387168
vt 0.038006 0.389563
vt 0.040135 0.384494
vt 0.121458 0.418954
vt 0.096746 0.448617
vt 0.024474 0.423465
vt 0.024498 0.412732
vt 0.015856 0.413919
vt 0.013334 0.405759
vt 0.025914 0.404044
vt 0.010927 0.387400
vt 0.017777 0.370278
vt 0.012440 0.418420
vt 0.012051 0.423929
vt 0.016648 0.430742
vt 0.125066 0.390897
vt 0.111334 0.391487
vt 0.116616 0.384042
vt 0.106531 0.375861
vt 0.090678 0.365428
vt 0.088894 0.385825
vt 0.076180 0.377477
vt 0.067869 0.372384
vt 0.080963 0.368391
vt 0.087326 0.373111
vt 0.084588 0.379386
vt 0.083552 0.470448
vt 0.087033 0.471494
vt 0.097066 0.464450
vt 0.106760 0.466520
vt 0.111564 0.455331
vt 0.118407 0.449994
vt 0.116542 0.445219
vt 0.121271 0.442744
vt 0.119926 0.436411
vt 0.116648 0.434049
vt 0.116599 0.439183
vt 0.127255 0.453999
vt 0.118008 0.463658
vt 0.119725 0.466754
vt 0.116231 0.469087
vt 0.121866 0.470614
vt 0.124045 0.463895
vt 0.095878 0.470526
vt 0.101319 0.468523
vt 0.012300 0.296110
vt 0.025166 0.317653
vt 0.017720 0.314608
vt 0.023751 0.306816
vt 0.019819 0.293758
vt 0.029949 0.300196
vt 0.026464 0.282773
vt 0.031852 0.289016
vt 0.029661 0.276120
vt 0.036997 0.282269
vt 0.035896 0.265987
vt 0.040648 0.269858
vt 0.034795 0.249706
vt 0.050493 0.264184
vt 0.052291 0.251525
vt 0.066915 0.262705
vt 0.067757 0.259283
vt 0.073414 0.262120
vt 0.072636 0.256692
vt 0.079340 0.258209
vt 0.078656 0.242160
vt 0.088029 0.236866
vt 0.079862 0.234776
vt 0.084328 0.230654
vt 0.077135 0.228813
vt 0.082193 0.224535
vt 0.078881 0.226627
vt 0.080626 0.224441
vt 0.075266 0.226790
vt 0.073410 0.225577
vt 0.071628 0.228384
vt 0.060366 0.227630
vt 0.070427 0.230629
vt 0.068787 0.239975
vt 0.072336 0.238408
vt 0.070199 0.246936
vt 0.075474 0.240298
vt 0.073645 0.233185
vt 0.032613 0.320698
vt 0.034930 0.303043
vt 0.037930 0.321582
vt 0.041689 0.317713
vt 0.049743 0.326058
vt 0.049205 0.321389
vt 0.057529 0.323913
vt 0.048738 0.317330
vt 0.055733 0.309071
vt 0.044193 0.299438
vt 0.036272 0.292825
vt 0.039296 0.292603
vt 0.039104 0.286366
vt 0.041096 0.292472
vt 0.041317 0.286128
vt 0.054338 0.283351
vt 0.047919 0.282127
vt 0.055419 0.278464
vt 0.055210 0.274150
vt 0.059945 0.273789
vt 0.054832 0.268593
vt 0.067644 0.267119
vt 0.070015 0.265064
vt 0.075790 0.268030
vt 0.079063 0.286460
vt 0.065207 0.273451
vt 0.070189 0.282823
vt 0.062771 0.279783
vt 0.067065 0.286615
vt 0.060178 0.287178
vt 0.070398 0.291919
vt 0.059252 0.294427
vt 0.055036 0.296211
vt 0.054394 0.296062
vt 0.052723 0.294693
vt 0.051960 0.290266
vt 0.048463 0.294351
vt 0.046119 0.298168
vt 0.085844 0.293143
vt 0.082193 0.296831
vt 0.088457 0.299440
vt 0.080621 0.302588
vt 0.082745 0.305653
vt 0.071804 0.308192
vt 0.067316 0.318107
vt 0.057752 0.320398
vt 0.067653 0.327128
vt 0.078868 0.319728
vt 0.067874 0.333063
vt 0.090420 0.321349
vt 0.087240 0.330486
vt 0.104698 0.335754
vt 0.097000 0.337668
vt 0.113139 0.341541
vt 0.111580 0.325556
vt 0.104853 0.332207
vt 0.096072 0.325601
vt 0.119339 0.317884
vt 0.113109 0.304928
vt 0.106025 0.304486
vt 0.094137 0.310979
vt 0.096674 0.303902
vt 0.095188 0.300527
vt 0.104136 0.290406
vt 0.099215 0.293805
vt 0.114360 0.271915
vt 0.100474 0.286670
vt 0.095838 0.278229
vt 0.093045 0.286256
vt 0.091976 0.281835
vt 0.088369 0.289507
vt 0.083918 0.278453
vt 0.089766 0.272951
vt 0.094297 0.272541
vt 0.099776 0.267467
vt 0.103950 0.266759
vt 0.100301 0.260147
vt 0.102866 0.256415
vt 0.096992 0.259062
vt 0.097976 0.255124
vt 0.093609 0.259233
vt 0.092542 0.250134
vt 0.087266 0.260321
vt 0.094034 0.265595
vt 0.080853 0.264647
vt 0.089115 0.266707
vt 0.094675 0.268332
vt 0.097105 0.264796
vt 0.052606 0.300099
vt 0.041500 0.280903
vt 0.102096 0.238337
vt 0.102046 0.229437
vt 0.111649 0.226540
vt 0.102048 0.225255
vt 0.103935 0.222024
vt 0.091075 0.220549
vt 0.087236 0.212246
vt 0.083747 0.218684
vt 0.090436 0.223994
vt 0.096847 0.227149
vt 0.089195 0.230651
vt 0.087178 0.226583
vt 0.089797 0.227439
vt 0.113923 0.257418
vt 0.104896 0.253463
vt 0.112686 0.240618
vt 0.108121 0.235931
vt 0.098960 0.251186
vt 0.092618 0.294384
vt 0.092547 0.300101
vt 0.090945 0.304495
vt 0.087871 0.306220
vt 0.080039 0.310519
vt 0.084768 0.314706
vt 0.087048 0.317386
vt 0.089555 0.311691
vt 0.113370 0.298026
vt 0.113938 0.283036
vt 0.070432 0.210273
vt 0.056025 0.211125
vt 0.054165 0.217967
vt 0.051336 0.219543
vt 0.044388 0.213320
vt 0.047057 0.223062
vt 0.041169 0.218175
vt 0.035757 0.226335
vt 0.059731 0.280043
vt 0.049094 0.212433
vt 0.077795 0.335154
vt 0.085081 0.336689
vt 0.043996 0.325630
vt 0.052719 0.331451
vt 0.054961 0.327936
vt 0.158419 0.273443
vt 0.125651 0.278869
vt 0.146268 0.265213
vt 0.138756 0.282581
vt 0.153942 0.289497
vt 0.137473 0.288497
vt 0.145150 0.291570
vt 0.136357 0.293643
vt 0.134970 0.302719
vt 0.130287 0.294460
vt 0.133583 0.311795
vt 0.122962 0.295445
vt 0.141134 0.309100
vt 0.147065 0.310538
vt 0.150553 0.305794
vt 0.156084 0.302585
vt 0.160216 0.295843
vt 0.150248 0.299693
vt 0.147686 0.306763
vt 0.150246 0.312110
vt 0.206975 0.259937
vt 0.213410 0.256564
vt 0.211306 0.268254
vt 0.210516 0.245901
vt 0.204784 0.246713
vt 0.202442 0.240395
vt 0.182504 0.241702
vt 0.184026 0.252684
vt 0.193851 0.266768
vt 0.173358 0.258577
vt 0.186834 0.270044
vt 0.177264 0.269166
vt 0.188854 0.290329
vt 0.166607 0.288591
vt 0.169643 0.271315
vt 0.158478 0.256043
vt 0.197522 0.284721
vt 0.204558 0.273515
vt 0.209769 0.276798
vt 0.207471 0.270603
vt 0.201957 0.265379
vt 0.210601 0.243410
vt 0.215454 0.245203
vt 0.130422 0.213221
vt 0.137865 0.211203
vt 0.130007 0.205353
vt 0.132278 0.218807
vt 0.127892 0.234085
vt 0.131296 0.228708
vt 0.142888 0.226285
vt 0.143926 0.222807
vt 0.151858 0.221619
vt 0.145949 0.217221
vt 0.141038 0.223834
vt 0.133391 0.225399
vt 0.071589 0.253503
vt 0.063156 0.248741
vt 0.047201 0.237059
vt 0.046259 0.232855
vt 0.039779 0.234060
vt 0.028523 0.247519
vt 0.027914 0.237713
vt 0.021666 0.246842
vt 0.019806 0.242943
vt 0.014810 0.246165
vt 0.018780 0.240713
vt 0.021417 0.237090
vt 0.027368 0.228917
vt 0.031563 0.227626
vt 0.028823 0.257818
vt 0.023037 0.264448
vt 0.030628 0.266935
vt 0.020811 0.268702
vt 0.018771 0.280735
vt 0.015067 0.273899
vt 0.010324 0.278191
vt 0.010205 0.265644
vt 0.015508 0.267173
vt 0.019540 0.263929
vt 0.015082 0.256380
vt 0.393187 0.466371
vt 0.384121 0.474550
vt 0.351499 0.462594
vt 0.396550 0.479643
vt 0.392777 0.486618
vt 0.386824 0.483687
vt 0.390836 0.493814
vt 0.380432 0.492379
vt 0.395312 0.512695
vt 0.384726 0.512543
vt 0.380077 0.514661
vt 0.374239 0.491475
vt 0.369409 0.493404
vt 0.376419 0.482551
vt 0.366706 0.484976
vt 0.343037 0.476526
vt 0.337179 0.479643
vt 0.352390 0.489596
vt 0.362174 0.496047
vt 0.372047 0.517348
vt 0.244195 0.379655
vt 0.228146 0.398137
vt 0.211591 0.395483
vt 0.237816 0.399531
vt 0.243649 0.400373
vt 0.230591 0.402961
vt 0.229325 0.409106
vt 0.222635 0.409478
vt 0.216456 0.416953
vt 0.208458 0.419448
vt 0.217669 0.421757
vt 0.200459 0.421943
vt 0.218197 0.423851
vt 0.212386 0.425287
vt 0.219030 0.427150
vt 0.223231 0.429127
vt 0.220837 0.422573
vt 0.222310 0.418843
vt 0.227569 0.414540
vt 0.225423 0.418348
vt 0.232218 0.416944
vt 0.225812 0.419974
vt 0.238121 0.421156
vt 0.225635 0.425549
vt 0.229859 0.437245
vt 0.224950 0.404714
vt 0.229368 0.400549
vt 0.261039 0.423356
vt 0.246948 0.414621
vt 0.245912 0.410147
vt 0.233806 0.411189
vt 0.241449 0.327205
vt 0.250037 0.337350
vt 0.230583 0.344155
vt 0.233914 0.313405
vt 0.232860 0.317061
vt 0.216196 0.311445
vt 0.228507 0.331197
vt 0.192566 0.307557
vt 0.215966 0.346214
vt 0.207149 0.353693
vt 0.229352 0.359623
vt 0.244537 0.374833
vt 0.207993 0.305945
vt 0.223401 0.307760
vt 0.237281 0.315487
vt 0.235141 0.309144
vt 0.253488 0.311725
vt 0.233682 0.301100
vt 0.245489 0.305824
vt 0.235586 0.300511
vt 0.237489 0.299923
vt 0.231248 0.292064
vt 0.252763 0.307219
vt 0.246237 0.299126
vt 0.265832 0.313462
vt 0.223848 0.282746
vt 0.181674 0.319661
vt 0.190345 0.336522
vt 0.202823 0.353528
vt 0.199015 0.353382
vt 0.200703 0.366155
vt 0.202390 0.378927
vt 0.173620 0.408558
vt 0.165848 0.388617
vt 0.158556 0.412256
vt 0.185331 0.397683
vt 0.202382 0.405617
vt 0.188210 0.414746
vt 0.185797 0.446420
vt 0.151947 0.349914
vt 0.163378 0.357310
vt 0.186612 0.348276
vt 0.159373 0.366854
vt 0.146465 0.383388
vt 0.162444 0.377900
vt 0.173700 0.384172
vt 0.173228 0.372396
vt 0.170354 0.363878
vt 0.166486 0.225732
vt 0.153720 0.242377
vt 0.156584 0.225877
vt 0.166101 0.233398
vt 0.187866 0.218028
vt 0.166756 0.237668
vt 0.177863 0.208935
vt 0.167117 0.209357
vt 0.161897 0.222179
vt 0.161262 0.215398
vt 0.157780 0.218991
vt 0.118572 0.257054
vt 0.126362 0.257310
vt 0.134209 0.243044
vt 0.133204 0.261196
vt 0.136037 0.268031
vt 0.137685 0.245171
vt 0.135201 0.247765
vt 0.133583 0.252210
vt 0.131665 0.257484
vt 0.139005 0.237309
usemtl mat_0
s 1
f 471/1 4/2 22/3
f 471/1 472/4 4/2
f 470/5 472/4 471/1
f 470/5 473/6 472/4
f 487/7 473/6 470/5
f 487/7 475/8 473/6
f 477/9 475/8 487/7
f 477/9 476/10 475/8
f 440/11 476/10 477/9
f 440/11 479/12 476/10
f 450/13 479/12 440/11
f 450/13 471/14 479/12
f 469/15 471/14 450/13
f 469/15 470/16 471/14
f 488/17 470/16 469/15
f 488/17 490/18 470/16
f 489/19 470/16 490/18
f 490/18 469/15 489/19
f 491/20 469/15 490/18
f 491/20 488/17 469/15
f 440/11 477/9 487/7
f 473/6 4/2 472/4
f 473/6 474/21 4/2
f 5/22 474/21 473/6
f 5/22 19/23 474/21
f 18/24 19/23 5/22
f 5/22 492/25 18/24
f 16/26 492/25 5/22
f 16/26 15/27 492/25
f 14/28 15/27 16/26
f 14/28 25/29 15/27
f 17/30 15/27 25/29
f 17/30 18/24 15/27
f 492/25 15/27 18/24
f 4/2 474/21 19/23
f 475/8 5/22 473/6
f 475/8 476/10 5/22
f 13/31 5/22 476/10
f 13/31 16/26 5/22
f 454/32 450/13 440/11
f 454/32 443/33 450/13
f 453/34 443/33 454/32
f 453/34 441/35 443/33
f 452/36 441/35 453/34
f 452/36 449/37 441/35
f 445/38 441/35 449/37
f 445/38 26/39 441/35
f 29/40 26/39 445/38
f 29/40 446/41 26/39
f 468/42 446/41 29/40
f 468/42 447/43 446/41
f 30/44 447/43 468/42
f 30/44 467/45 447/43
f 445/38 447/43 467/45
f 445/38 449/37 447/43
f 448/46 447/43 449/37
f 448/46 446/41 447/43
f 442/47 446/41 448/46
f 442/47 26/39 446/41
f 441/35 26/39 442/47
f 442/47 443/33 441/35
f 444/48 443/33 442/47
f 444/48 450/13 443/33
f 469/15 450/13 444/48
f 444/48 451/49 469/15
f 442/47 451/49 444/48
f 442/47 448/46 451/49
f 469/15 451/49 448/46
f 448/46 489/19 469/15
f 449/37 489/19 448/46
f 467/45 29/40 445/38
f 489/50 487/7 470/5
f 489/50 456/51 487/7
f 449/52 456/51 489/50
f 449/52 452/53 456/51
f 457/54 456/51 452/53
f 457/54 487/7 456/51
f 476/10 12/55 13/31
f 476/10 8/56 12/55
f 481/57 8/56 476/10
f 481/57 7/58 8/56
f 6/59 7/58 481/57
f 6/59 3/60 7/58
f 10/61 3/60 6/59
f 10/61 1/62 3/60
f 3/63 1/60 2/62
f 2/63 7/58 3/60
f 9/64 7/58 2/63
f 9/64 8/56 7/58
f 11/65 8/56 9/64
f 11/65 12/55 8/56
f 479/12 481/57 476/10
f 479/12 482/66 481/57
f 480/67 482/66 479/12
f 479/12 478/68 480/67
f 471/14 478/68 479/12
f 471/14 485/69 478/68
f 22/70 485/69 471/14
f 22/70 20/71 485/69
f 483/72 485/69 20/71
f 483/72 486/73 485/69
f 484/74 486/73 483/72
f 483/72 21/75 484/74
f 20/71 21/75 483/72
f 6/59 481/57 482/66
f 486/73 478/68 485/69
f 2/76 1/63 23/62
f 23/76 24/77 2/63
f 9/64 2/63 24/77
f 24/77 11/65 9/64
f 457/78 453/34 454/32
f 457/78 452/36 453/34
f 224/79 76/80 249/81
f 224/79 77/82 76/80
f 79/83 77/82 224/79
f 79/83 81/84 77/82
f 80/85 81/84 79/83
f 80/85 302/86 81/84
f 221/87 302/86 80/85
f 221/87 218/88 302/86
f 303/89 218/88 221/87
f 303/89 65/90 218/88
f 59/91 65/90 303/89
f 59/91 66/92 65/90
f 61/93 66/92 59/91
f 61/93 263/94 66/92
f 60/95 263/94 61/93
f 60/95 264/96 263/94
f 73/97 264/96 60/95
f 73/97 145/98 264/96
f 70/99 145/98 73/97
f 70/99 69/100 145/98
f 71/101 69/100 70/99
f 71/101 82/102 69/100
f 83/103 82/102 71/101
f 83/103 244/104 82/102
f 204/105 244/104 83/103
f 204/105 202/106 244/104
f 84/107 244/104 202/106
f 84/107 82/102 244/104
f 85/108 82/102 84/107
f 85/108 260/109 82/102
f 288/110 260/109 85/108
f 288/110 262/111 260/109
f 436/112 262/111 288/110
f 436/112 147/113 262/111
f 435/114 147/113 436/112
f 435/114 434/115 147/113
f 34/116 434/115 435/114
f 34/116 38/117 434/115
f 36/118 38/117 34/116
f 36/118 309/119 38/117
f 42/120 309/119 36/118
f 42/120 227/121 309/119
f 41/122 227/121 42/120
f 41/122 226/123 227/121
f 173/124 226/123 41/122
f 173/124 172/125 226/123
f 174/126 172/125 173/124
f 174/126 270/127 172/125
f 439/128 270/127 174/126
f 439/128 268/129 270/127
f 253/130 270/127 268/129
f 253/130 172/125 270/127
f 252/131 172/125 253/130
f 252/131 219/132 172/125
f 220/133 219/132 252/131
f 220/133 218/88 219/132
f 304/134 218/88 220/133
f 304/134 302/86 218/88
f 81/84 302/86 304/134
f 304/134 220/133 81/84
f 252/131 81/84 220/133
f 252/131 78/135 81/84
f 76/80 78/135 252/131
f 76/80 77/82 78/135
f 81/84 78/135 77/82
f 59/91 60/95 61/93
f 59/91 143/136 60/95
f 141/137 143/136 59/91
f 141/137 60/95 143/136
f 207/138 60/95 141/137
f 207/138 206/139 60/95
f 230/140 206/139 207/138
f 230/140 231/141 206/139
f 135/142 231/141 230/140
f 135/142 274/143 231/141
f 232/144 274/143 135/142
f 232/144 283/145 274/143
f 235/146 283/145 232/144
f 235/146 231/141 283/145
f 234/147 231/141 235/146
f 234/147 206/139 231/141
f 283/145 231/141 274/143
f 65/90 219/132 218/88
f 65/90 172/125 219/132
f 226/123 172/125 65/90
f 65/90 64/148 226/123
f 62/149 64/148 65/90
f 62/149 63/150 64/148
f 67/151 63/150 62/149
f 67/151 309/119 63/150
f 149/152 309/119 67/151
f 149/152 310/153 309/119
f 434/115 310/153 149/152
f 434/115 38/117 310/153
f 309/119 310/153 38/117
f 66/92 62/149 65/90
f 66/92 68/154 62/149
f 150/155 68/154 66/92
f 150/155 67/151 68/154
f 149/152 67/151 150/155
f 150/155 148/156 149/152
f 263/94 148/156 150/155
f 263/94 144/157 148/156
f 264/96 144/157 263/94
f 264/96 145/98 144/157
f 69/100 144/157 145/98
f 69/100 146/158 144/157
f 147/113 146/158 69/100
f 147/113 148/156 146/158
f 434/115 148/156 147/113
f 434/115 149/152 148/156
f 62/149 68/154 67/151
f 263/94 150/155 66/92
f 148/156 144/157 146/158
f 232/144 234/147 235/146
f 232/144 233/159 234/147
f 134/160 233/159 232/144
f 134/160 299/161 233/159
f 211/162 299/161 134/160
f 211/162 210/163 299/161
f 212/164 210/163 211/162
f 212/164 141/137 210/163
f 273/165 141/137 212/164
f 273/165 208/166 141/137
f 272/167 208/166 273/165
f 272/167 136/168 208/166
f 212/164 136/168 272/167
f 212/164 134/160 136/168
f 211/162 134/160 212/164
f 273/165 212/164 272/167
f 208/166 207/138 141/137
f 208/166 135/142 207/138
f 136/168 135/142 208/166
f 136/168 134/160 135/142
f 232/144 135/142 134/160
f 230/140 207/138 135/142
f 253/130 76/80 252/131
f 253/130 268/129 76/80
f 262/111 82/102 260/109
f 262/111 261/169 82/102
f 69/100 261/169 262/111
f 69/100 82/102 261/169
f 262/111 147/113 69/100
f 63/150 226/123 64/148
f 63/150 265/170 226/123
f 309/119 265/170 63/150
f 309/119 227/121 265/170
f 226/123 265/170 227/121
f 221/87 59/91 303/89
f 221/87 80/85 59/91
f 139/171 59/91 80/85
f 139/171 142/172 59/91
f 300/173 142/172 139/171
f 300/173 308/174 142/172
f 140/175 142/172 308/174
f 140/175 141/137 142/172
f 209/176 141/137 140/175
f 209/176 210/163 141/137
f 141/137 59/91 142/172
f 209/176 140/175 308/174
f 233/159 284/177 234/147
f 233/159 299/161 284/177
f 139/171 138/178 300/173
f 139/171 137/179 138/178
f 217/180 137/179 139/171
f 139/171 80/85 217/180
f 79/83 217/180 80/85
f 83/103 306/181 204/105
f 83/103 71/101 306/181
f 72/182 306/181 71/101
f 72/182 75/183 306/181
f 74/184 75/183 72/182
f 72/182 73/97 74/184
f 70/99 73/97 72/182
f 72/182 71/101 70/99
f 73/97 153/185 74/184
f 73/97 154/186 153/185
f 60/95 154/186 73/97
f 60/95 155/187 154/186
f 291/188 155/187 60/95
f 291/188 151/189 155/187
f 156/190 155/187 151/189
f 156/190 289/191 155/187
f 154/186 289/191 156/190
f 154/186 155/187 289/191
f 156/190 153/185 154/186
f 156/190 151/189 153/185
f 174/126 175/192 439/128
f 174/126 173/124 175/192
f 170/193 175/192 173/124
f 173/124 171/194 170/193
f 41/122 171/194 173/124
f 41/122 40/195 171/194
f 42/120 40/195 41/122
f 42/120 39/196 40/195
f 36/118 39/196 42/120
f 36/118 31/197 39/196
f 37/198 31/197 36/118
f 37/198 32/199 31/197
f 287/200 32/199 37/198
f 287/200 85/108 32/199
f 288/110 85/108 287/200
f 287/200 437/201 288/110
f 35/202 437/201 287/200
f 35/202 34/116 437/201
f 36/118 34/116 35/202
f 35/202 37/198 36/118
f 287/200 37/198 35/202
f 84/107 32/199 85/108
f 84/107 33/203 32/199
f 31/197 32/199 33/203
f 33/203 39/196 31/197
f 40/195 39/196 33/203
f 33/203 99/204 40/195
f 98/205 99/204 33/203
f 98/205 97/206 99/204
f 92/207 97/206 98/205
f 98/205 93/208 92/207
f 33/203 93/208 98/205
f 99/204 97/206 40/195
f 437/201 436/112 288/110
f 437/201 435/114 436/112
f 34/116 435/114 437/201
f 171/194 169/209 170/193
f 171/194 228/210 169/209
f 40/195 228/210 171/194
f 224/211 217/212 79/213
f 224/211 222/214 217/212
f 223/215 222/214 224/211
f 223/215 178/216 222/214
f 294/217 178/216 223/215
f 294/217 293/218 178/216
f 295/219 293/218 294/217
f 295/219 186/220 293/218
f 177/221 186/220 295/219
f 177/221 180/222 186/220
f 102/223 180/222 177/221
f 102/223 51/224 180/222
f 50/225 51/224 102/223
f 50/225 49/226 51/224
f 48/227 49/226 50/225
f 48/227 432/228 49/226
f 46/229 432/228 48/227
f 46/229 44/230 432/228
f 45/231 44/230 46/229
f 45/231 43/232 44/230
f 105/233 43/232 45/231
f 105/233 201/234 43/232
f 200/235 201/234 105/233
f 200/235 88/236 201/234
f 298/237 88/236 200/235
f 298/237 297/238 88/236
f 259/239 297/238 298/237
f 259/239 203/240 297/238
f 258/241 203/240 259/239
f 258/241 94/242 203/240
f 256/243 94/242 258/241
f 256/243 257/244 94/242
f 107/245 257/244 256/243
f 107/245 431/246 257/244
f 106/247 431/246 107/245
f 106/247 45/231 431/246
f 105/233 45/231 106/247
f 106/247 107/245 105/233
f 285/248 105/233 107/245
f 285/248 200/235 105/233
f 256/243 200/235 285/248
f 256/243 258/241 200/235
f 298/237 200/235 258/241
f 258/241 259/239 298/237
f 107/245 256/243 285/248
f 222/214 137/249 217/212
f 222/214 178/216 137/249
f 179/250 137/249 178/216
f 179/250 138/251 137/249
f 58/252 138/251 179/250
f 58/252 301/253 138/251
f 57/254 301/253 58/252
f 57/254 54/255 301/253
f 56/256 54/255 57/254
f 56/256 55/257 54/255
f 58/252 55/257 56/256
f 58/252 181/258 55/257
f 292/259 181/258 58/252
f 292/259 184/260 181/258
f 185/261 184/260 292/259
f 185/261 183/262 184/260
f 242/263 183/262 185/261
f 242/263 124/264 183/262
f 125/265 124/264 242/263
f 125/265 123/266 124/264
f 188/267 123/266 125/265
f 188/267 305/268 123/266
f 189/269 305/268 188/267
f 189/269 115/270 305/268
f 51/224 115/270 189/269
f 51/224 113/271 115/270
f 49/226 113/271 51/224
f 49/226 432/228 113/271
f 114/272 113/271 432/228
f 114/272 115/270 113/271
f 116/273 115/270 114/272
f 116/273 117/274 115/270
f 118/275 117/274 116/273
f 118/275 433/276 117/274
f 193/277 433/276 118/275
f 193/277 429/278 433/276
f 192/279 429/278 193/277
f 192/279 195/280 429/278
f 55/257 195/280 192/279
f 55/257 240/281 195/280
f 239/282 240/281 55/257
f 239/282 124/264 240/281
f 238/283 124/264 239/282
f 238/283 237/284 124/264
f 236/285 237/284 238/283
f 236/285 124/264 237/284
f 183/262 124/264 236/285
f 236/285 182/286 183/262
f 55/257 182/286 236/285
f 55/257 181/258 182/286
f 183/262 182/286 181/258
f 181/258 184/260 183/262
f 56/256 57/254 58/252
f 116/273 193/277 118/275
f 116/273 192/279 193/277
f 282/287 192/279 116/273
f 282/287 194/288 192/279
f 430/289 194/288 282/287
f 430/289 190/290 194/288
f 129/291 190/290 430/289
f 129/291 191/292 190/290
f 53/293 191/292 129/291
f 53/293 55/257 191/292
f 52/294 55/257 53/293
f 52/294 54/255 55/257
f 53/293 54/255 52/294
f 53/293 126/295 54/255
f 133/296 126/295 53/293
f 133/296 209/297 126/295
f 205/298 209/297 133/296
f 205/298 248/299 209/297
f 216/300 248/299 205/298
f 216/300 284/301 248/299
f 234/302 284/301 216/300
f 216/300 215/303 234/302
f 213/304 215/303 216/300
f 213/304 214/305 215/303
f 216/300 214/305 213/304
f 216/300 205/298 214/305
f 215/303 214/305 205/298
f 205/298 206/306 215/303
f 60/307 206/306 205/298
f 205/298 245/308 60/307
f 246/309 245/308 205/298
f 246/309 290/310 245/308
f 160/311 290/310 246/309
f 160/311 152/312 290/310
f 158/313 152/312 160/311
f 158/313 153/314 152/312
f 161/315 153/314 158/313
f 161/315 162/316 153/314
f 163/317 162/316 161/315
f 163/317 120/318 162/316
f 121/319 120/318 163/317
f 121/319 119/320 120/318
f 116/273 119/320 121/319
f 116/273 114/272 119/320
f 122/321 119/320 114/272
f 122/321 120/318 119/320
f 164/322 120/318 122/321
f 164/322 162/316 120/318
f 165/323 162/316 164/322
f 165/323 280/324 162/316
f 279/325 280/324 165/323
f 279/325 278/326 280/324
f 276/327 278/326 279/325
f 276/327 277/328 278/326
f 275/329 277/328 276/327
f 275/329 112/330 277/328
f 111/331 112/330 275/329
f 111/331 44/230 112/330
f 109/332 44/230 111/331
f 109/332 281/333 44/230
f 108/334 281/333 109/332
f 108/334 122/321 281/333
f 110/335 122/321 108/334
f 110/335 164/322 122/321
f 165/323 164/322 110/335
f 110/335 166/336 165/323
f 109/332 166/336 110/335
f 109/332 276/327 166/336
f 275/329 276/327 109/332
f 109/332 111/331 275/329
f 108/334 109/332 110/335
f 206/306 234/302 215/303
f 55/257 190/290 191/292
f 55/257 192/279 190/290
f 194/288 190/290 192/279
f 55/257 238/283 239/282
f 55/257 241/337 238/283
f 236/285 241/337 55/257
f 236/285 238/283 241/337
f 188/267 51/224 189/269
f 188/267 180/222 51/224
f 187/338 180/222 188/267
f 187/338 186/220 180/222
f 185/261 186/220 187/338
f 185/261 292/259 186/220
f 293/218 186/220 292/259
f 292/259 178/216 293/218
f 179/250 178/216 292/259
f 292/259 58/252 179/250
f 43/232 112/330 44/230
f 43/232 254/339 112/330
f 199/340 254/339 43/232
f 199/340 306/341 254/339
f 196/342 306/341 199/340
f 196/342 204/343 306/341
f 86/344 204/343 196/342
f 86/344 202/345 204/343
f 90/346 202/345 86/344
f 90/346 203/240 202/345
f 297/238 203/240 90/346
f 90/346 88/236 297/238
f 86/344 88/236 90/346
f 86/344 87/347 88/236
f 196/342 87/347 86/344
f 196/342 197/348 87/347
f 199/340 197/348 196/342
f 199/340 198/349 197/348
f 43/232 198/349 199/340
f 43/232 201/234 198/349
f 89/350 198/349 201/234
f 89/350 286/351 198/349
f 87/347 286/351 89/350
f 87/347 197/348 286/351
f 198/349 286/351 197/348
f 89/350 88/236 87/347
f 89/350 201/234 88/236
f 280/324 153/314 162/316
f 280/324 74/352 153/314
f 167/353 74/352 280/324
f 167/353 75/354 74/352
f 168/355 75/354 167/353
f 168/355 306/341 75/354
f 254/339 306/341 168/355
f 168/355 271/356 254/339
f 167/353 271/356 168/355
f 167/353 278/326 271/356
f 280/324 278/326 167/353
f 271/356 112/330 254/339
f 271/356 277/328 112/330
f 278/326 277/328 271/356
f 114/272 281/333 122/321
f 114/272 432/228 281/333
f 44/230 281/333 432/228
f 166/336 279/325 165/323
f 166/336 276/327 279/325
f 121/319 282/287 116/273
f 121/319 157/357 282/287
f 163/317 157/357 121/319
f 163/317 161/315 157/357
f 158/313 157/357 161/315
f 158/313 159/358 157/357
f 160/311 159/358 158/313
f 160/311 246/309 159/358
f 247/359 159/358 246/309
f 247/359 430/289 159/358
f 130/360 430/289 247/359
f 130/360 129/291 430/289
f 127/361 129/291 130/360
f 127/361 53/293 129/291
f 128/362 53/293 127/361
f 128/362 133/296 53/293
f 131/363 133/296 128/362
f 131/363 205/298 133/296
f 132/364 205/298 131/363
f 132/364 246/309 205/298
f 247/359 246/309 132/364
f 132/364 130/360 247/359
f 131/363 130/360 132/364
f 131/363 128/362 130/360
f 127/361 130/360 128/362
f 152/312 245/308 290/310
f 152/312 291/365 245/308
f 151/366 291/365 152/312
f 152/312 153/314 151/366
f 245/308 291/365 60/307
f 187/338 242/263 185/261
f 187/338 125/265 242/263
f 188/267 125/265 187/338
f 94/242 202/345 203/240
f 94/242 84/367 202/345
f 33/368 84/367 94/242
f 94/242 91/369 33/368
f 95/370 91/369 94/242
f 95/370 92/371 91/369
f 96/372 92/371 95/370
f 96/372 97/373 92/371
f 40/374 97/373 96/372
f 96/372 94/242 40/374
f 95/370 94/242 96/372
f 117/274 305/268 115/270
f 117/274 433/276 305/268
f 243/375 305/268 433/276
f 243/375 123/266 305/268
f 124/264 123/266 243/375
f 243/375 429/278 124/264
f 433/276 429/278 243/375
f 429/278 240/281 124/264
f 429/278 195/280 240/281
f 157/357 430/289 282/287
f 157/357 159/358 430/289
f 93/376 91/369 92/371
f 93/376 33/368 91/369
f 248/299 210/377 209/297
f 248/299 299/378 210/377
f 284/301 299/378 248/299
f 301/253 300/379 138/251
f 301/253 308/380 300/379
f 307/381 308/380 301/253
f 307/381 209/297 308/380
f 126/295 209/297 307/381
f 307/381 54/255 126/295
f 301/253 54/255 307/381
f 383/382 413/383 384/384
f 383/382 411/385 413/383
f 376/386 411/385 383/382
f 376/386 412/387 411/385
f 378/388 412/387 376/386
f 378/388 423/389 412/387
f 379/390 423/389 378/388
f 379/390 409/391 423/389
f 377/392 409/391 379/390
f 377/392 402/393 409/391
f 412/387 409/391 402/393
f 412/387 423/389 409/391
f 378/388 377/392 379/390
f 378/388 376/386 377/392
f 382/394 377/392 376/386
f 382/394 421/395 377/392
f 422/396 421/395 382/394
f 422/396 407/397 421/395
f 406/398 407/397 422/396
f 422/396 380/399 406/398
f 381/400 380/399 422/396
f 381/400 382/394 380/399
f 422/396 382/394 381/400
f 427/401 421/395 407/397
f 402/393 411/385 412/387
f 402/393 413/383 411/385
f 376/386 380/399 382/394
f 376/386 406/398 380/399
f 383/382 406/398 376/386
f 392/402 394/403 393/404
f 392/402 418/405 394/403
f 416/406 418/405 392/402
f 416/406 417/407 418/405
f 415/408 417/407 416/406
f 416/406 387/409 415/408
f 388/410 387/409 416/406
f 388/410 389/411 387/409
f 390/412 389/411 388/410
f 390/412 386/413 389/411
f 406/414 386/413 390/412
f 406/414 383/415 386/413
f 385/416 386/413 383/415
f 385/416 384/417 386/413
f 383/415 384/417 385/416
f 384/417 389/411 386/413
f 384/417 415/408 389/411
f 387/409 389/411 415/408
f 388/410 406/414 390/412
f 388/410 407/418 406/414
f 408/419 407/418 388/410
f 408/419 427/420 407/418
f 393/421 427/420 408/419
f 408/419 391/422 393/421
f 388/410 391/422 408/419
f 388/410 416/406 391/422
f 392/402 391/422 416/406
f 392/402 393/421 391/422
f 419/423 418/405 417/407
f 419/423 426/424 418/405
f 394/403 418/405 426/424
f 397/425 394/426 426/427
f 397/425 396/428 394/426
f 377/429 396/428 397/425
f 377/429 420/430 396/428
f 421/431 420/430 377/429
f 421/431 395/432 420/430
f 427/433 395/432 421/431
f 427/433 393/434 395/432
f 394/426 395/432 393/434
f 394/426 396/428 395/432
f 398/435 395/432 396/428
f 398/435 420/430 395/432
f 424/436 420/430 398/435
f 424/436 396/428 420/430
f 398/435 396/428 424/436
f 47/437 45/231 46/229
f 47/437 431/246 45/231
f 255/438 431/246 47/437
f 255/438 257/244 431/246
f 94/242 257/244 255/438
f 255/438 50/225 94/242
f 48/227 50/225 255/438
f 255/438 46/229 48/227
f 47/437 46/229 255/438
f 102/223 94/242 50/225
f 102/223 100/439 94/242
f 101/440 100/439 102/223
f 101/440 94/242 100/439
f 103/441 94/242 101/440
f 103/441 40/374 94/242
f 104/442 40/374 103/441
f 104/442 229/443 40/374
f 269/444 229/443 104/442
f 269/444 428/445 229/443
f 439/446 428/445 269/444
f 439/446 175/447 428/445
f 170/448 428/445 175/447
f 170/448 229/443 428/445
f 169/449 229/443 170/448
f 169/449 228/450 229/443
f 40/374 229/443 228/450
f 102/223 103/441 101/440
f 102/223 104/442 103/441
f 176/451 104/442 102/223
f 176/451 266/452 104/442
f 296/453 266/452 176/451
f 296/453 438/454 266/452
f 295/219 438/454 296/453
f 295/219 294/217 438/454
f 225/455 438/454 294/217
f 225/455 250/456 438/454
f 249/457 250/456 225/455
f 249/457 76/458 250/456
f 251/459 250/456 76/458
f 251/459 438/454 250/456
f 267/460 438/454 251/459
f 267/460 266/452 438/454
f 104/442 266/452 267/460
f 267/460 268/461 104/442
f 251/459 268/461 267/460
f 251/459 76/458 268/461
f 177/221 176/451 102/223
f 177/221 296/453 176/451
f 295/219 296/453 177/221
f 268/461 269/444 104/442
f 268/461 439/446 269/444
f 223/215 225/455 294/217
f 223/215 224/211 225/455
f 249/457 225/455 224/211
f 487/462 455/463 440/464
f 487/462 457/465 455/463
f 458/466 455/463 457/465
f 458/466 461/467 455/463
f 462/468 461/467 458/466
f 462/468 465/469 461/467
f 27/470 465/469 462/468
f 27/470 28/471 465/469
f 466/472 465/469 28/471
f 466/472 464/473 465/469
f 463/474 464/473 466/472
f 463/474 460/475 464/473
f 459/476 460/475 463/474
f 459/476 440/464 460/475
f 454/477 440/464 459/476
f 459/476 457/478 454/477
f 458/479 457/478 459/476
f 459/476 462/480 458/479
f 463/474 462/480 459/476
f 463/474 27/481 462/480
f 466/472 27/481 463/474
f 455/463 460/475 440/464
f 455/463 461/467 460/475
f 465/469 460/475 461/467
f 465/469 464/473 460/475
f 322/482 320/483 321/484
f 322/482 351/485 320/483
f 352/486 351/485 322/482
f 352/486 354/487 351/485
f 353/488 354/487 352/486
f 353/488 355/489 354/487
f 370/490 355/489 353/488
f 370/490 347/491 355/489
f 348/492 347/491 370/490
f 348/492 346/493 347/491
f 345/494 346/493 348/492
f 345/494 335/495 346/493
f 336/496 335/495 345/494
f 336/496 337/497 335/495
f 344/498 337/497 336/496
f 344/498 315/499 337/497
f 345/494 315/499 344/498
f 345/494 348/492 315/499
f 370/490 315/499 348/492
f 370/490 353/488 315/499
f 313/500 315/499 353/488
f 313/500 314/501 315/499
f 312/502 314/501 313/500
f 312/502 374/503 314/501
f 319/504 374/503 312/502
f 319/504 364/505 374/503
f 339/506 364/505 319/504
f 339/506 337/497 364/505
f 335/495 337/497 339/506
f 339/506 346/493 335/495
f 344/498 336/496 345/494
f 364/505 314/501 374/503
f 364/505 315/499 314/501
f 337/497 315/499 364/505
f 320/483 346/493 321/484
f 320/483 347/491 346/493
f 349/507 347/491 320/483
f 349/507 355/489 347/491
f 354/487 355/489 349/507
f 349/507 350/508 354/487
f 320/483 350/508 349/507
f 320/483 351/485 350/508
f 354/487 350/508 351/485
f 319/504 318/509 339/506
f 319/504 312/502 318/509
f 316/510 318/509 312/502
f 316/510 317/511 318/509
f 311/512 317/511 316/510
f 311/512 352/486 317/511
f 353/488 352/486 311/512
f 311/512 313/500 353/488
f 312/502 313/500 311/512
f 311/512 316/510 312/502
f 352/486 318/509 317/511
f 352/486 322/482 318/509
f 323/513 322/514 321/515
f 323/513 368/516 322/514
f 371/517 368/516 323/513
f 371/517 359/518 368/516
f 324/519 359/518 371/517
f 324/519 358/520 359/518
f 357/521 358/520 324/519
f 357/521 338/522 358/520
f 356/523 338/522 357/521
f 356/523 346/524 338/522
f 321/515 346/524 356/523
f 356/523 357/521 321/515
f 324/519 321/515 357/521
f 324/519 323/513 321/515
f 371/517 323/513 324/519
f 328/525 359/518 358/520
f 328/525 368/516 359/518
f 369/526 368/516 328/525
f 369/526 366/527 368/516
f 372/528 366/527 369/526
f 372/528 365/529 366/527
f 342/530 365/529 372/528
f 342/530 367/531 365/529
f 343/532 367/531 342/530
f 343/532 375/533 367/531
f 333/534 375/533 343/532
f 333/534 334/535 375/533
f 332/536 334/535 333/534
f 332/536 318/537 334/535
f 367/531 334/535 318/537
f 367/531 375/533 334/535
f 318/537 365/529 367/531
f 318/537 322/514 365/529
f 366/527 365/529 322/514
f 322/514 368/516 366/527
f 369/526 342/530 372/528
f 369/526 329/538 342/530
f 328/525 329/538 369/526
f 329/538 343/532 342/530
f 329/538 333/534 343/532
f 332/536 333/534 329/538
f 338/522 330/539 358/520
f 338/522 363/540 330/539
f 340/541 363/540 338/522
f 340/541 373/542 363/540
f 341/543 373/542 340/541
f 341/543 363/540 373/542
f 330/539 363/540 341/543
f 341/543 339/544 330/539
f 340/541 339/544 341/543
f 340/541 338/522 339/544
f 346/524 339/544 338/522
f 331/545 329/546 330/547
f 331/545 332/548 329/546
f 318/549 332/548 331/545
f 331/545 362/550 318/549
f 339/551 362/550 331/545
f 339/551 318/549 362/550
f 331/545 330/547 339/551
f 328/552 326/553 329/554
f 328/552 327/555 326/553
f 358/556 327/555 328/552
f 358/556 360/557 327/555
f 330/558 360/557 358/556
f 330/558 361/559 360/557
f 329/554 361/559 330/558
f 329/554 325/560 361/559
f 326/553 325/560 329/554
f 326/553 327/555 325/560
f 360/557 325/560 327/555
f 360/557 361/559 325/560
f 400/561 402/562 401/563
f 400/561 414/564 402/562
f 384/565 414/564 400/561
f 384/565 413/566 414/564
f 402/562 414/564 413/566
f 400/561 415/567 384/565
f 400/561 417/568 415/567
f 399/569 417/568 400/561
f 399/569 419/570 417/568
f 426/571 419/570 399/569
f 399/569 401/563 426/571
f 400/561 401/563 399/569
f 402/572 403/573 401/574
f 402/572 410/575 403/573
f 377/576 410/575 402/572
f 377/576 397/577 410/575
f 404/578 410/575 397/577
f 404/578 405/579 410/575
f 403/573 405/579 404/578
f 403/573 425/580 405/579
f 410/575 425/580 403/573
f 410/575 405/579 425/580
f 404/578 401/574 403/573
f 404/578 426/581 401/574
f 397/577 426/581 404/578
