xof 0303txt 0032

template AnimTicksPerSecond {
  <9E415A43-7BA6-4a73-8743-B73D47E88476>
  DWORD AnimTicksPerSecond;
}

template XSkinMeshHeader {
  <3cf169ce-ff7c-44ab-93c0-f78f62d172e2>
  WORD nMaxSkinWeightsPerVertex;
  WORD nMaxSkinWeightsPerFace;
  WORD nBones;
}

template SkinWeights {
  <6f0d123b-bad2-4167-a0d0-80224f25fabb>
  STRING transformNodeName;
  DWORD nWeights;
  array DWORD vertexIndices[nWeights];
  array float weights[nWeights];
  Matrix4x4 matrixOffset;
}

Frame Root {
  FrameTransformMatrix {
     1.000000, 0.000000, 0.000000, 0.000000,
     0.000000, 0.000000, 1.000000, 0.000000,
     0.000000, 1.000000,-0.000000, 0.000000,
     0.000000, 0.000000, 0.000000, 1.000000;;
  }
  Frame darkrai_mat_0 {
    FrameTransformMatrix {
       1.000000, 0.000000, 0.000000, 0.000000,
       0.000000, 1.000000, 0.000000, 0.000000,
       0.000000, 0.000000, 1.000000, 0.000000,
       0.000000, 0.000000, 0.000000, 1.000000;;
    }
    Mesh { //Mesh Mesh
      408;
      -0.851407;16.994207; 1.813283;,
      -0.464055;17.171484; 2.079144;,
      -0.721479;16.536615; 2.014416;,
      -0.464055;17.171484; 2.079144;,
      -0.428083;16.508188; 2.283539;,
      -0.721479;16.536615; 2.014416;,
      -0.851407;16.114792; 1.876955;,
      -0.721479;16.536615; 2.014416;,
      -0.428083;16.508188; 2.283539;,
      -0.428083;16.508188; 2.283539;,
      -0.464055;15.878182; 2.172783;,
      -0.851407;16.114792; 1.876955;,
      -0.851407;16.114792; 1.876955;,
      -0.464055;15.878182; 2.172783;,
      -0.916017;15.642793; 1.537574;,
      -0.464055;15.878182; 2.172783;,
      -0.499184;15.355452; 1.815595;,
      -0.916017;15.642793; 1.537574;,
      -0.851407;18.069794;-0.014641;,
      -0.464055;18.373259;-0.241371;,
      -0.721479;18.193277; 0.411485;,
      -0.464055;18.373259;-0.241371;,
      -0.428083;18.463190; 0.391942;,
      -0.721479;18.193277; 0.411485;,
      -0.721479;18.193277; 0.411485;,
      -0.428083;18.463190; 0.391942;,
      -0.851407;17.977173; 0.862198;,
      -0.428083;18.463190; 0.391942;,
      -0.464055;18.237047; 1.048140;,
      -0.851407;17.977173; 0.862198;,
      -0.851407;17.977173; 0.862198;,
      -0.464055;18.237047; 1.048140;,
      -0.916017;17.545732; 1.399795;,
      -0.464055;18.237047; 1.048140;,
      -0.499184;17.778313; 1.640173;,
      -0.916017;17.545732; 1.399795;,
      -0.916017;17.545732; 1.399795;,
      -0.499184;17.778313; 1.640173;,
      -0.851407;16.994207; 1.813283;,
      -0.499184;17.778313; 1.640173;,
      -0.464055;17.171484; 2.079144;,
      -0.851407;16.994207; 1.813283;,
      -0.851407;16.994207; 1.813283;,
      -1.086610;16.592939; 1.481208;,
      -0.916017;17.545732; 1.399795;,
      -1.086610;16.592939; 1.481208;,
      -1.166292;17.158367; 0.999447;,
      -0.916017;17.545732; 1.399795;,
      -0.916017;17.545732; 1.399795;,
      -1.166292;17.158367; 0.999447;,
      -0.851407;17.977173; 0.862198;,
      -1.166292;17.158367; 0.999447;,
      -1.086610;17.658503; 0.450204;,
      -0.851407;17.977173; 0.862198;,
      -0.851407;17.977173; 0.862198;,
      -1.086610;17.658503; 0.450204;,
      -0.721479;18.193277; 0.411485;,
      -1.086610;17.658503; 0.450204;,
      -0.851407;18.069794;-0.014641;,
      -0.721479;18.193277; 0.411485;,
      -1.086610;17.658503; 0.450204;,
      -1.166292;17.267588;-0.034523;,
      -0.851407;18.069794;-0.014641;,
      -1.166292;17.267588;-0.034523;,
      -0.916017;17.746153;-0.497568;,
      -0.851407;18.069794;-0.014641;,
      -0.851407;18.069794;-0.014641;,
      -0.916017;17.746153;-0.497568;,
      -0.464055;18.373259;-0.241371;,
      -0.916017;17.746153;-0.497568;,
      -0.499184;18.033493;-0.775590;,
      -0.464055;18.373259;-0.241371;,
      -0.464055;18.373259;-0.241371;,
      -0.499184;18.033493;-0.775590;,
      -0.125295;18.463873;-0.281357;,
      -0.499184;18.033493;-0.775590;,
      -0.134780;18.103239;-0.843073;,
      -0.125295;18.463873;-0.281357;,
       1.086610;17.658503; 0.450204;,
       1.166292;17.158367; 0.999447;,
       0.851407;17.977173; 0.862198;,
       1.166292;17.158367; 0.999447;,
       0.916017;17.545732; 1.399795;,
       0.851407;17.977173; 0.862198;,
       0.851407;17.977173; 0.862198;,
       0.916017;17.545732; 1.399795;,
       0.464055;18.237047; 1.048140;,
       0.916017;17.545732; 1.399795;,
       0.499184;17.778313; 1.640173;,
       0.464055;18.237047; 1.048140;,
       0.464055;18.237047; 1.048140;,
       0.499184;17.778313; 1.640173;,
       0.125295;18.320543; 1.075520;,
       0.499184;17.778313; 1.640173;,
       0.134780;17.834766; 1.698519;,
       0.125295;18.320543; 1.075520;,
       0.125295;18.320543; 1.075520;,
       0.134780;17.834766; 1.698519;,
      -0.125295;18.320543; 1.075520;,
       0.134780;17.834766; 1.698519;,
      -0.134780;17.834766; 1.698519;,
      -0.125295;18.320543; 1.075520;,
      -0.125295;18.320543; 1.075520;,
      -0.134780;17.834766; 1.698519;,
      -0.464055;18.237047; 1.048140;,
      -0.134780;17.834766; 1.698519;,
      -0.499184;17.778313; 1.640173;,
      -0.464055;18.237047; 1.048140;,
       0.916017;15.642793; 1.537574;,
       0.851407;16.114792; 1.876955;,
       1.166292;16.121359; 1.074529;,
       0.851407;16.114792; 1.876955;,
       1.086610;16.592939; 1.481208;,
       1.166292;16.121359; 1.074529;,
       1.166292;16.121359; 1.074529;,
       1.086610;16.592939; 1.481208;,
       1.249509;16.694473; 0.520003;,
       1.086610;16.592939; 1.481208;,
       1.166292;17.158367; 0.999447;,
       1.249509;16.694473; 0.520003;,
       1.249509;16.694473; 0.520003;,
       1.166292;17.158367; 0.999447;,
       1.166292;17.267588;-0.034523;,
       1.166292;17.158367; 0.999447;,
       1.086610;17.658503; 0.450204;,
       1.166292;17.267588;-0.034523;,
       1.166292;17.267588;-0.034523;,
       1.086610;17.658503; 0.450204;,
       0.916017;17.746153;-0.497568;,
       1.086610;17.658503; 0.450204;,
       0.851407;18.069794;-0.014641;,
       0.916017;17.746153;-0.497568;,
       0.916017;17.746153;-0.497568;,
       0.851407;18.069794;-0.014641;,
       0.499184;18.033493;-0.775590;,
       0.851407;18.069794;-0.014641;,
       0.464055;18.373259;-0.241371;,
       0.499184;18.033493;-0.775590;,
       0.499184;18.033493;-0.775590;,
       0.464055;18.373259;-0.241371;,
       0.134780;18.103239;-0.843073;,
       0.464055;18.373259;-0.241371;,
       0.125295;18.463873;-0.281357;,
       0.134780;18.103239;-0.843073;,
       0.464055;17.171484; 2.079144;,
       0.499184;17.778313; 1.640173;,
       0.851407;16.994207; 1.813283;,
       0.499184;17.778313; 1.640173;,
       0.916017;17.545732; 1.399795;,
       0.851407;16.994207; 1.813283;,
       0.851407;16.994207; 1.813283;,
       0.916017;17.545732; 1.399795;,
       1.086610;16.592939; 1.481208;,
       0.916017;17.545732; 1.399795;,
       1.166292;17.158367; 0.999447;,
       1.086610;16.592939; 1.481208;,
       0.125295;15.835232; 2.262030;,
      -0.125295;15.835232; 2.262030;,
       0.115582;16.497868; 2.381233;,
      -0.125295;15.835232; 2.262030;,
      -0.115582;16.497869; 2.381233;,
       0.115582;16.497868; 2.381233;,
       0.115582;16.497868; 2.381233;,
      -0.115582;16.497869; 2.381233;,
       0.125295;17.196096; 2.163499;,
      -0.115582;16.497869; 2.381233;,
      -0.125295;17.196096; 2.163499;,
       0.125295;17.196096; 2.163499;,
       0.125295;17.196096; 2.163499;,
      -0.125295;17.196096; 2.163499;,
       0.134780;17.834766; 1.698519;,
      -0.125295;17.196096; 2.163499;,
      -0.134780;17.834766; 1.698519;,
       0.134780;17.834766; 1.698519;,
       0.851407;16.114792; 1.876955;,
       0.464055;15.878182; 2.172783;,
       0.721479;16.536615; 2.014417;,
       0.464055;15.878182; 2.172783;,
       0.428083;16.508188; 2.283539;,
       0.721479;16.536615; 2.014417;,
       0.721479;16.536615; 2.014417;,
       0.428083;16.508188; 2.283539;,
       0.851407;16.994207; 1.813283;,
       0.428083;16.508188; 2.283539;,
       0.464055;17.171484; 2.079144;,
       0.851407;16.994207; 1.813283;,
       0.125295;18.320543; 1.075520;,
      -0.125295;18.320543; 1.075520;,
       0.115582;18.561171; 0.384848;,
      -0.125295;18.320543; 1.075520;,
      -0.115582;18.561171; 0.384848;,
       0.115582;18.561171; 0.384848;,
       0.115582;18.561171; 0.384848;,
      -0.115582;18.561171; 0.384848;,
       0.125295;18.463873;-0.281357;,
      -0.115582;18.561171; 0.384848;,
      -0.125295;18.463873;-0.281357;,
       0.125295;18.463873;-0.281357;,
       0.851407;17.977173; 0.862198;,
       0.464055;18.237047; 1.048140;,
       0.721479;18.193277; 0.411485;,
       0.464055;18.237047; 1.048140;,
       0.428083;18.463190; 0.391942;,
       0.721479;18.193277; 0.411485;,
       0.721479;18.193277; 0.411485;,
       0.428083;18.463190; 0.391942;,
       0.851407;18.069794;-0.014641;,
       0.428083;18.463190; 0.391942;,
       0.464055;18.373259;-0.241371;,
       0.851407;18.069794;-0.014641;,
       0.721479;16.536615; 2.014417;,
       0.851407;16.994207; 1.813283;,
       1.086610;16.592939; 1.481208;,
       0.721479;16.536615; 2.014417;,
       1.086610;16.592939; 1.481208;,
       0.851407;16.114792; 1.876955;,
       0.721479;18.193277; 0.411485;,
       0.851407;18.069794;-0.014641;,
       1.086610;17.658503; 0.450204;,
       0.721479;18.193277; 0.411485;,
       1.086610;17.658503; 0.450204;,
       0.851407;17.977173; 0.862198;,
      -1.166292;17.267588;-0.034523;,
      -1.086610;17.658503; 0.450204;,
      -1.249510;16.694487; 0.520003;,
      -1.086610;17.658503; 0.450204;,
      -1.166292;17.158367; 0.999447;,
      -1.249510;16.694487; 0.520003;,
      -1.249510;16.694487; 0.520003;,
      -1.166292;17.158367; 0.999447;,
      -1.166292;16.121359; 1.074529;,
      -1.166292;17.158367; 0.999447;,
      -1.086610;16.592939; 1.481208;,
      -1.166292;16.121359; 1.074529;,
      -1.166292;16.121359; 1.074529;,
      -1.086610;16.592939; 1.481208;,
      -0.916017;15.642793; 1.537574;,
      -1.086610;16.592939; 1.481208;,
      -0.851407;16.114792; 1.876955;,
      -0.916017;15.642793; 1.537574;,
      -1.086610;16.592939; 1.481208;,
      -0.721479;16.536615; 2.014416;,
      -0.851407;16.114792; 1.876955;,
      -0.851407;16.994207; 1.813283;,
      -0.721479;16.536615; 2.014416;,
      -1.086610;16.592939; 1.481208;,
      -1.166292;16.066921; 0.651166;,
      -1.249510;16.694487; 0.520003;,
      -1.166292;16.121359; 1.074529;,
      -1.186750;16.644344;-0.245407;,
      -1.166292;17.267588;-0.034523;,
      -1.249510;16.694487; 0.520003;,
       1.206443;16.672680; 0.038889;,
       1.249509;16.694473; 0.520003;,
       1.166292;17.267588;-0.034523;,
       1.193067;16.103998; 0.375514;,
       1.166292;16.121359; 1.074529;,
       1.249509;16.694473; 0.520003;,
      -0.668365;15.157749; 1.435454;,
      -0.916017;15.642793; 1.537574;,
      -0.499184;15.355452; 1.815595;,
      -0.654328;17.596449;-0.798022;,
      -0.499184;18.033493;-0.775590;,
      -0.916017;17.746153;-0.497568;,
       0.721606;17.553228;-0.696959;,
       0.916017;17.746153;-0.497568;,
       0.499184;18.033493;-0.775590;,
       0.966198;15.477880; 0.961858;,
       0.916017;15.642793; 1.537574;,
       1.166292;16.121359; 1.074529;,
       0.916017;17.091669;-0.580124;,
       1.166292;17.267588;-0.034523;,
       0.916017;17.746153;-0.497568;,
      -1.166292;17.093079;-0.433264;,
      -0.916017;17.746153;-0.497568;,
      -1.166292;17.267588;-0.034523;,
      -1.016912;15.594000; 0.868973;,
      -1.166292;16.121359; 1.074529;,
      -0.916017;15.642793; 1.537574;,
      -0.464055;18.373259;-0.241371;,
      -0.125295;18.463873;-0.281357;,
      -0.428083;18.463190; 0.391942;,
      -0.125295;18.463873;-0.281357;,
      -0.115582;18.561171; 0.384848;,
      -0.428083;18.463190; 0.391942;,
      -0.428083;18.463190; 0.391942;,
      -0.115582;18.561171; 0.384848;,
      -0.464055;18.237047; 1.048140;,
      -0.115582;18.561171; 0.384848;,
      -0.125295;18.320543; 1.075520;,
      -0.464055;18.237047; 1.048140;,
      -0.499184;17.778313; 1.640173;,
      -0.134780;17.834766; 1.698519;,
      -0.464055;17.171484; 2.079144;,
      -0.134780;17.834766; 1.698519;,
      -0.125295;17.196096; 2.163499;,
      -0.464055;17.171484; 2.079144;,
      -0.464055;17.171484; 2.079144;,
      -0.125295;17.196096; 2.163499;,
      -0.428083;16.508188; 2.283539;,
      -0.125295;17.196096; 2.163499;,
      -0.115582;16.497869; 2.381233;,
      -0.428083;16.508188; 2.283539;,
      -0.428083;16.508188; 2.283539;,
      -0.115582;16.497869; 2.381233;,
      -0.464055;15.878182; 2.172783;,
      -0.115582;16.497869; 2.381233;,
      -0.125295;15.835232; 2.262030;,
      -0.464055;15.878182; 2.172783;,
      -0.464055;15.878182; 2.172783;,
      -0.125295;15.835232; 2.262030;,
      -0.499184;15.355452; 1.815595;,
      -0.125295;15.835232; 2.262030;,
      -0.134780;15.285706; 1.883079;,
      -0.499184;15.355452; 1.815595;,
       0.499184;15.355452; 1.815595;,
       0.134780;15.285706; 1.883079;,
       0.464055;15.878182; 2.172783;,
       0.134780;15.285706; 1.883079;,
       0.125295;15.835232; 2.262030;,
       0.464055;15.878182; 2.172783;,
       0.464055;15.878182; 2.172783;,
       0.125295;15.835232; 2.262030;,
       0.428083;16.508188; 2.283539;,
       0.125295;15.835232; 2.262030;,
       0.115582;16.497868; 2.381233;,
       0.428083;16.508188; 2.283539;,
       0.428083;16.508188; 2.283539;,
       0.115582;16.497868; 2.381233;,
       0.464055;17.171484; 2.079144;,
       0.115582;16.497868; 2.381233;,
       0.125295;17.196096; 2.163499;,
       0.464055;17.171484; 2.079144;,
       0.464055;17.171484; 2.079144;,
       0.125295;17.196096; 2.163499;,
       0.499184;17.778313; 1.640173;,
       0.125295;17.196096; 2.163499;,
       0.134780;17.834766; 1.698519;,
       0.499184;17.778313; 1.640173;,
       0.464055;18.237047; 1.048140;,
       0.125295;18.320543; 1.075520;,
       0.428083;18.463190; 0.391942;,
       0.125295;18.320543; 1.075520;,
       0.115582;18.561171; 0.384848;,
       0.428083;18.463190; 0.391942;,
       0.428083;18.463190; 0.391942;,
       0.115582;18.561171; 0.384848;,
       0.464055;18.373259;-0.241371;,
       0.115582;18.561171; 0.384848;,
       0.125295;18.463873;-0.281357;,
       0.464055;18.373259;-0.241371;,
      -0.499184;18.033493;-0.775590;,
      -0.257997;17.726074;-1.093312;,
      -0.134780;18.103239;-0.843073;,
      -0.257997;17.726074;-1.093312;,
       0.000000;18.129036;-0.868033;,
      -0.134780;18.103239;-0.843073;,
      -0.134780;18.103239;-0.843073;,
       0.000000;18.129036;-0.868033;,
      -0.125295;18.463873;-0.281357;,
       0.000000;18.129036;-0.868033;,
       0.125295;18.463873;-0.281357;,
      -0.125295;18.463873;-0.281357;,
       0.125295;18.463873;-0.281357;,
       0.000000;18.129036;-0.868033;,
       0.134780;18.103239;-0.843073;,
       0.000000;18.129036;-0.868033;,
       0.302430;17.935324;-1.068237;,
       0.134780;18.103239;-0.843073;,
       0.134780;18.103239;-0.843073;,
       0.302430;17.935324;-1.068237;,
       0.499184;18.033493;-0.775590;,
       0.529321;15.125139; 1.322627;,
       0.499184;15.355452; 1.815595;,
       0.693030;15.489079; 1.686303;,
       0.499184;15.355452; 1.815595;,
       0.464055;15.878182; 2.172783;,
       0.693030;15.489079; 1.686303;,
       0.693030;15.489079; 1.686303;,
       0.464055;15.878182; 2.172783;,
       0.851407;16.114792; 1.876955;,
       0.851407;16.114792; 1.876955;,
       0.916017;15.642793; 1.537574;,
       0.693030;15.489079; 1.686303;,
       0.693030;15.489079; 1.686303;,
       0.916017;15.642793; 1.537574;,
       0.830759;15.379609; 1.301445;,
       0.499184;15.355452; 1.815595;,
       0.201418;15.008302; 1.435675;,
       0.134780;15.285706; 1.883079;,
       0.201418;15.008302; 1.435675;,
       0.000000;15.259910; 1.908038;,
       0.134780;15.285706; 1.883079;,
       0.134780;15.285706; 1.883079;,
       0.000000;15.259910; 1.908038;,
       0.125295;15.835232; 2.262030;,
       0.000000;15.259910; 1.908038;,
      -0.125295;15.835232; 2.262030;,
       0.125295;15.835232; 2.262030;,
      -0.125295;15.835232; 2.262030;,
       0.000000;15.259910; 1.908038;,
      -0.134780;15.285706; 1.883079;,
       0.000000;15.259910; 1.908038;,
      -0.188907;15.175033; 1.747965;,
      -0.134780;15.285706; 1.883079;,
      -0.134780;15.285706; 1.883079;,
      -0.188907;15.175033; 1.747965;,
      -0.499184;15.355452; 1.815595;;
      136;
      3;0;1;2;,
      3;3;4;5;,
      3;6;7;8;,
      3;9;10;11;,
      3;12;13;14;,
      3;15;16;17;,
      3;18;19;20;,
      3;21;22;23;,
      3;24;25;26;,
      3;27;28;29;,
      3;30;31;32;,
      3;33;34;35;,
      3;36;37;38;,
      3;39;40;41;,
      3;42;43;44;,
      3;45;46;47;,
      3;48;49;50;,
      3;51;52;53;,
      3;54;55;56;,
      3;57;58;59;,
      3;60;61;62;,
      3;63;64;65;,
      3;66;67;68;,
      3;69;70;71;,
      3;72;73;74;,
      3;75;76;77;,
      3;78;79;80;,
      3;81;82;83;,
      3;84;85;86;,
      3;87;88;89;,
      3;90;91;92;,
      3;93;94;95;,
      3;96;97;98;,
      3;99;100;101;,
      3;102;103;104;,
      3;105;106;107;,
      3;108;109;110;,
      3;111;112;113;,
      3;114;115;116;,
      3;117;118;119;,
      3;120;121;122;,
      3;123;124;125;,
      3;126;127;128;,
      3;129;130;131;,
      3;132;133;134;,
      3;135;136;137;,
      3;138;139;140;,
      3;141;142;143;,
      3;144;145;146;,
      3;147;148;149;,
      3;150;151;152;,
      3;153;154;155;,
      3;156;157;158;,
      3;159;160;161;,
      3;162;163;164;,
      3;165;166;167;,
      3;168;169;170;,
      3;171;172;173;,
      3;174;175;176;,
      3;177;178;179;,
      3;180;181;182;,
      3;183;184;185;,
      3;186;187;188;,
      3;189;190;191;,
      3;192;193;194;,
      3;195;196;197;,
      3;198;199;200;,
      3;201;202;203;,
      3;204;205;206;,
      3;207;208;209;,
      3;210;211;212;,
      3;213;214;215;,
      3;216;217;218;,
      3;219;220;221;,
      3;222;223;224;,
      3;225;226;227;,
      3;228;229;230;,
      3;231;232;233;,
      3;234;235;236;,
      3;237;238;239;,
      3;240;241;242;,
      3;243;244;245;,
      3;246;247;248;,
      3;249;250;251;,
      3;252;253;254;,
      3;255;256;257;,
      3;258;259;260;,
      3;261;262;263;,
      3;264;265;266;,
      3;267;268;269;,
      3;270;271;272;,
      3;273;274;275;,
      3;276;277;278;,
      3;279;280;281;,
      3;282;283;284;,
      3;285;286;287;,
      3;288;289;290;,
      3;291;292;293;,
      3;294;295;296;,
      3;297;298;299;,
      3;300;301;302;,
      3;303;304;305;,
      3;306;307;308;,
      3;309;310;311;,
      3;312;313;314;,
      3;315;316;317;,
      3;318;319;320;,
      3;321;322;323;,
      3;324;325;326;,
      3;327;328;329;,
      3;330;331;332;,
      3;333;334;335;,
      3;336;337;338;,
      3;339;340;341;,
      3;342;343;344;,
      3;345;346;347;,
      3;348;349;350;,
      3;351;352;353;,
      3;354;355;356;,
      3;357;358;359;,
      3;360;361;362;,
      3;363;364;365;,
      3;366;367;368;,
      3;369;370;371;,
      3;372;373;374;,
      3;375;376;377;,
      3;378;379;380;,
      3;381;382;383;,
      3;384;385;386;,
      3;387;388;389;,
      3;390;391;392;,
      3;393;394;395;,
      3;396;397;398;,
      3;399;400;401;,
      3;402;403;404;,
      3;405;406;407;;
      MeshNormals { //Mesh Normals
        408;
         0.761650;-0.220252;-0.609363;,
         0.443556;-0.383984;-0.809809;,
         0.723136;-0.067995;-0.687338;,
         0.443556;-0.383984;-0.809809;,
         0.468978;-0.064760;-0.880795;,
         0.723136;-0.067995;-0.687338;,
         0.793329; 0.144047;-0.591449;,
         0.723136;-0.067995;-0.687338;,
         0.468978;-0.064760;-0.880795;,
         0.468978;-0.064760;-0.880795;,
         0.479598; 0.314737;-0.819056;,
         0.793329; 0.144047;-0.591449;,
         0.793329; 0.144047;-0.591449;,
         0.479598; 0.314737;-0.819056;,
         0.827082; 0.320292;-0.461837;,
         0.479598; 0.314737;-0.819056;,
         0.512131; 0.506027;-0.693960;,
         0.827082; 0.320292;-0.461837;,
         0.790582;-0.600269; 0.120975;,
         0.480667;-0.830805; 0.280465;,
         0.725242;-0.685751;-0.060915;,
         0.480667;-0.830805; 0.280465;,
         0.471175;-0.878597;-0.077548;,
         0.725242;-0.685751;-0.060915;,
         0.725242;-0.685751;-0.060915;,
         0.471175;-0.878597;-0.077548;,
         0.768792;-0.592761;-0.239845;,
         0.471175;-0.878597;-0.077548;,
         0.439314;-0.796167;-0.415998;,
         0.768792;-0.592761;-0.239845;,
         0.768792;-0.592761;-0.239845;,
         0.439314;-0.796167;-0.415998;,
         0.787500;-0.428022;-0.443373;,
         0.439314;-0.796167;-0.415998;,
         0.432325;-0.625385;-0.649586;,
         0.787500;-0.428022;-0.443373;,
         0.787500;-0.428022;-0.443373;,
         0.432325;-0.625385;-0.649586;,
         0.761650;-0.220252;-0.609363;,
         0.432325;-0.625385;-0.649586;,
         0.443556;-0.383984;-0.809809;,
         0.761650;-0.220252;-0.609363;,
         0.761650;-0.220252;-0.609363;,
         0.925932;-0.025605;-0.376751;,
         0.787500;-0.428022;-0.443373;,
         0.925932;-0.025605;-0.376751;,
         0.961211;-0.194250;-0.195746;,
         0.787500;-0.428022;-0.443373;,
         0.787500;-0.428022;-0.443373;,
         0.961211;-0.194250;-0.195746;,
         0.768792;-0.592761;-0.239845;,
         0.961211;-0.194250;-0.195746;,
         0.926847;-0.373424;-0.037935;,
         0.768792;-0.592761;-0.239845;,
         0.768792;-0.592761;-0.239845;,
         0.926847;-0.373424;-0.037935;,
         0.725242;-0.685751;-0.060915;,
         0.926847;-0.373424;-0.037935;,
         0.790582;-0.600269; 0.120975;,
         0.725242;-0.685751;-0.060915;,
         0.926847;-0.373424;-0.037935;,
         0.965331;-0.246986; 0.084262;,
         0.790582;-0.600269; 0.120975;,
         0.965331;-0.246986; 0.084262;,
         0.823084;-0.458022; 0.335734;,
         0.790582;-0.600269; 0.120975;,
         0.790582;-0.600269; 0.120975;,
         0.823084;-0.458022; 0.335734;,
         0.480667;-0.830805; 0.280465;,
         0.823084;-0.458022; 0.335734;,
         0.473800;-0.657582; 0.585711;,
         0.480667;-0.830805; 0.280465;,
         0.480667;-0.830805; 0.280465;,
         0.473800;-0.657582; 0.585711;,
         0.146886;-0.932524; 0.329814;,
         0.473800;-0.657582; 0.585711;,
         0.257241;-0.713553; 0.651631;,
         0.146886;-0.932524; 0.329814;,
        -0.925871;-0.375652;-0.040468;,
        -0.961211;-0.192114;-0.197790;,
        -0.764946;-0.598865;-0.236976;,
        -0.961211;-0.192114;-0.197790;,
        -0.787500;-0.428022;-0.443373;,
        -0.764946;-0.598865;-0.236976;,
        -0.764946;-0.598865;-0.236976;,
        -0.787500;-0.428022;-0.443373;,
        -0.443037;-0.799005;-0.406507;,
        -0.787500;-0.428022;-0.443373;,
        -0.435133;-0.624439;-0.648610;,
        -0.443037;-0.799005;-0.406507;,
        -0.443037;-0.799005;-0.406507;,
        -0.435133;-0.624439;-0.648610;,
        -0.123753;-0.875149;-0.467727;,
        -0.435133;-0.624439;-0.648610;,
        -0.109134;-0.691183;-0.714347;,
        -0.123753;-0.875149;-0.467727;,
        -0.123753;-0.875149;-0.467727;,
        -0.109134;-0.691183;-0.714347;,
         0.123234;-0.873226;-0.471419;,
        -0.109134;-0.691183;-0.714347;,
         0.112247;-0.690939;-0.714103;,
         0.123234;-0.873226;-0.471419;,
         0.123234;-0.873226;-0.471419;,
         0.112247;-0.690939;-0.714103;,
         0.439314;-0.796167;-0.415998;,
         0.112247;-0.690939;-0.714103;,
         0.432325;-0.625385;-0.649586;,
         0.439314;-0.796167;-0.415998;,
        -0.823664; 0.365062;-0.433912;,
        -0.789972; 0.143559;-0.596088;,
        -0.969176; 0.120762;-0.214667;,
        -0.789972; 0.143559;-0.596088;,
        -0.926939;-0.023133;-0.374462;,
        -0.969176; 0.120762;-0.214667;,
        -0.969176; 0.120762;-0.214667;,
        -0.926939;-0.023133;-0.374462;,
        -0.997772;-0.042268;-0.051210;,
        -0.926939;-0.023133;-0.374462;,
        -0.961211;-0.192114;-0.197790;,
        -0.997772;-0.042268;-0.051210;,
        -0.997772;-0.042268;-0.051210;,
        -0.961211;-0.192114;-0.197790;,
        -0.969420;-0.195929; 0.147557;,
        -0.961211;-0.192114;-0.197790;,
        -0.925871;-0.375652;-0.040468;,
        -0.969420;-0.195929; 0.147557;,
        -0.969420;-0.195929; 0.147557;,
        -0.925871;-0.375652;-0.040468;,
        -0.825861;-0.375896; 0.420209;,
        -0.925871;-0.375652;-0.040468;,
        -0.792261;-0.596454; 0.128544;,
        -0.825861;-0.375896; 0.420209;,
        -0.825861;-0.375896; 0.420209;,
        -0.792261;-0.596454; 0.128544;,
        -0.467574;-0.722648; 0.509018;,
        -0.792261;-0.596454; 0.128544;,
        -0.480514;-0.826716; 0.292611;,
        -0.467574;-0.722648; 0.509018;,
        -0.467574;-0.722648; 0.509018;,
        -0.480514;-0.826716; 0.292611;,
        -0.252205;-0.837489; 0.484756;,
        -0.480514;-0.826716; 0.292611;,
        -0.147008;-0.930876; 0.334391;,
        -0.252205;-0.837489; 0.484756;,
        -0.443098;-0.388379;-0.807947;,
        -0.435133;-0.624439;-0.648610;,
        -0.765526;-0.223334;-0.603351;,
        -0.435133;-0.624439;-0.648610;,
        -0.787500;-0.428022;-0.443373;,
        -0.765526;-0.223334;-0.603351;,
        -0.765526;-0.223334;-0.603351;,
        -0.787500;-0.428022;-0.443373;,
        -0.926939;-0.023133;-0.374462;,
        -0.787500;-0.428022;-0.443373;,
        -0.961211;-0.192114;-0.197790;,
        -0.926939;-0.023133;-0.374462;,
        -0.149113; 0.362438;-0.919980;,
         0.144780; 0.362835;-0.920530;,
        -0.143529;-0.056154;-0.988037;,
         0.144780; 0.362835;-0.920530;,
         0.142888;-0.060884;-0.987854;,
        -0.143529;-0.056154;-0.988037;,
        -0.143529;-0.056154;-0.988037;,
         0.142888;-0.060884;-0.987854;,
        -0.121708;-0.440840;-0.889279;,
         0.142888;-0.060884;-0.987854;,
         0.125248;-0.440168;-0.889126;,
        -0.121708;-0.440840;-0.889279;,
        -0.121708;-0.440840;-0.889279;,
         0.125248;-0.440168;-0.889126;,
        -0.109134;-0.691183;-0.714347;,
         0.125248;-0.440168;-0.889126;,
         0.112247;-0.690939;-0.714103;,
        -0.109134;-0.691183;-0.714347;,
        -0.789972; 0.143559;-0.596088;,
        -0.480026; 0.311533;-0.820032;,
        -0.725242;-0.038270;-0.687399;,
        -0.480026; 0.311533;-0.820032;,
        -0.471175;-0.048555;-0.880673;,
        -0.725242;-0.038270;-0.687399;,
        -0.725242;-0.038270;-0.687399;,
        -0.471175;-0.048555;-0.880673;,
        -0.765526;-0.223334;-0.603351;,
        -0.471175;-0.048555;-0.880673;,
        -0.443098;-0.388379;-0.807947;,
        -0.765526;-0.223334;-0.603351;,
        -0.123753;-0.875149;-0.467727;,
         0.123234;-0.873226;-0.471419;,
        -0.142888;-0.985290;-0.093417;,
         0.123234;-0.873226;-0.471419;,
         0.143529;-0.985656;-0.088687;,
        -0.142888;-0.985290;-0.093417;,
        -0.142888;-0.985290;-0.093417;,
         0.143529;-0.985656;-0.088687;,
        -0.147008;-0.930876; 0.334391;,
         0.143529;-0.985656;-0.088687;,
         0.146886;-0.932524; 0.329814;,
        -0.147008;-0.930876; 0.334391;,
        -0.764946;-0.598865;-0.236976;,
        -0.443037;-0.799005;-0.406507;,
        -0.723136;-0.684713;-0.090609;,
        -0.443037;-0.799005;-0.406507;,
        -0.468978;-0.878201;-0.093783;,
        -0.723136;-0.684713;-0.090609;,
        -0.723136;-0.684713;-0.090609;,
        -0.468978;-0.878201;-0.093783;,
        -0.792261;-0.596454; 0.128544;,
        -0.468978;-0.878201;-0.093783;,
        -0.480514;-0.826716; 0.292611;,
        -0.792261;-0.596454; 0.128544;,
        -0.725242;-0.038270;-0.687399;,
        -0.765526;-0.223334;-0.603351;,
        -0.926939;-0.023133;-0.374462;,
        -0.725242;-0.038270;-0.687399;,
        -0.926939;-0.023133;-0.374462;,
        -0.789972; 0.143559;-0.596088;,
        -0.723136;-0.684713;-0.090609;,
        -0.792261;-0.596454; 0.128544;,
        -0.925871;-0.375652;-0.040468;,
        -0.723136;-0.684713;-0.090609;,
        -0.925871;-0.375652;-0.040468;,
        -0.764946;-0.598865;-0.236976;,
         0.965331;-0.246986; 0.084262;,
         0.926847;-0.373424;-0.037935;,
         0.997192;-0.057985;-0.046846;,
         0.926847;-0.373424;-0.037935;,
         0.961211;-0.194250;-0.195746;,
         0.997192;-0.057985;-0.046846;,
         0.997192;-0.057985;-0.046846;,
         0.961211;-0.194250;-0.195746;,
         0.970153; 0.136784;-0.200110;,
         0.961211;-0.194250;-0.195746;,
         0.925932;-0.025605;-0.376751;,
         0.970153; 0.136784;-0.200110;,
         0.970153; 0.136784;-0.200110;,
         0.925932;-0.025605;-0.376751;,
         0.827082; 0.320292;-0.461837;,
         0.925932;-0.025605;-0.376751;,
         0.793329; 0.144047;-0.591449;,
         0.827082; 0.320292;-0.461837;,
         0.925932;-0.025605;-0.376751;,
         0.723136;-0.067995;-0.687338;,
         0.793329; 0.144047;-0.591449;,
         0.761650;-0.220252;-0.609363;,
         0.723136;-0.067995;-0.687338;,
         0.925932;-0.025605;-0.376751;,
         0.991607; 0.128025;-0.016449;,
         0.997192;-0.057985;-0.046846;,
         0.970153; 0.136784;-0.200110;,
         0.994415;-0.061586; 0.085543;,
         0.965331;-0.246986; 0.084262;,
         0.997192;-0.057985;-0.046846;,
        -0.994232;-0.055788; 0.091525;,
        -0.997772;-0.042268;-0.051210;,
        -0.969420;-0.195929; 0.147557;,
        -0.993622; 0.104923;-0.040651;,
        -0.969176; 0.120762;-0.214667;,
        -0.997772;-0.042268;-0.051210;,
         0.690512; 0.468551;-0.550981;,
         0.827082; 0.320292;-0.461837;,
         0.512131; 0.506027;-0.693960;,
         0.655873;-0.269021; 0.705283;,
         0.473800;-0.657582; 0.585711;,
         0.823084;-0.458022; 0.335734;,
        -0.622822;-0.163152; 0.765130;,
        -0.825861;-0.375896; 0.420209;,
        -0.467574;-0.722648; 0.509018;,
        -0.931516; 0.319926;-0.172826;,
        -0.823664; 0.365062;-0.433912;,
        -0.969176; 0.120762;-0.214667;,
        -0.900815;-0.054323; 0.430738;,
        -0.969420;-0.195929; 0.147557;,
        -0.825861;-0.375896; 0.420209;,
         0.928129;-0.340983; 0.149236;,
         0.823084;-0.458022; 0.335734;,
         0.965331;-0.246986; 0.084262;,
         0.930418; 0.327586;-0.164312;,
         0.970153; 0.136784;-0.200110;,
         0.827082; 0.320292;-0.461837;,
         0.480667;-0.830805; 0.280465;,
         0.146886;-0.932524; 0.329814;,
         0.471175;-0.878597;-0.077548;,
         0.146886;-0.932524; 0.329814;,
         0.143529;-0.985656;-0.088687;,
         0.471175;-0.878597;-0.077548;,
         0.471175;-0.878597;-0.077548;,
         0.143529;-0.985656;-0.088687;,
         0.439314;-0.796167;-0.415998;,
         0.143529;-0.985656;-0.088687;,
         0.123234;-0.873226;-0.471419;,
         0.439314;-0.796167;-0.415998;,
         0.432325;-0.625385;-0.649586;,
         0.112247;-0.690939;-0.714103;,
         0.443556;-0.383984;-0.809809;,
         0.112247;-0.690939;-0.714103;,
         0.125248;-0.440168;-0.889126;,
         0.443556;-0.383984;-0.809809;,
         0.443556;-0.383984;-0.809809;,
         0.125248;-0.440168;-0.889126;,
         0.468978;-0.064760;-0.880795;,
         0.125248;-0.440168;-0.889126;,
         0.142888;-0.060884;-0.987854;,
         0.468978;-0.064760;-0.880795;,
         0.468978;-0.064760;-0.880795;,
         0.142888;-0.060884;-0.987854;,
         0.479598; 0.314737;-0.819056;,
         0.142888;-0.060884;-0.987854;,
         0.144780; 0.362835;-0.920530;,
         0.479598; 0.314737;-0.819056;,
         0.479598; 0.314737;-0.819056;,
         0.144780; 0.362835;-0.920530;,
         0.512131; 0.506027;-0.693960;,
         0.144780; 0.362835;-0.920530;,
         0.256111; 0.623371;-0.738762;,
         0.512131; 0.506027;-0.693960;,
        -0.495590; 0.604144;-0.623951;,
        -0.259346; 0.685263;-0.680502;,
        -0.480026; 0.311533;-0.820032;,
        -0.259346; 0.685263;-0.680502;,
        -0.149113; 0.362438;-0.919980;,
        -0.480026; 0.311533;-0.820032;,
        -0.480026; 0.311533;-0.820032;,
        -0.149113; 0.362438;-0.919980;,
        -0.471175;-0.048555;-0.880673;,
        -0.149113; 0.362438;-0.919980;,
        -0.143529;-0.056154;-0.988037;,
        -0.471175;-0.048555;-0.880673;,
        -0.471175;-0.048555;-0.880673;,
        -0.143529;-0.056154;-0.988037;,
        -0.443098;-0.388379;-0.807947;,
        -0.143529;-0.056154;-0.988037;,
        -0.121708;-0.440840;-0.889279;,
        -0.443098;-0.388379;-0.807947;,
        -0.443098;-0.388379;-0.807947;,
        -0.121708;-0.440840;-0.889279;,
        -0.435133;-0.624439;-0.648610;,
        -0.121708;-0.440840;-0.889279;,
        -0.109134;-0.691183;-0.714347;,
        -0.435133;-0.624439;-0.648610;,
        -0.443037;-0.799005;-0.406507;,
        -0.123753;-0.875149;-0.467727;,
        -0.468978;-0.878201;-0.093783;,
        -0.123753;-0.875149;-0.467727;,
        -0.142888;-0.985290;-0.093417;,
        -0.468978;-0.878201;-0.093783;,
        -0.468978;-0.878201;-0.093783;,
        -0.142888;-0.985290;-0.093417;,
        -0.480514;-0.826716; 0.292611;,
        -0.142888;-0.985290;-0.093417;,
        -0.147008;-0.930876; 0.334391;,
        -0.480514;-0.826716; 0.292611;,
         0.473800;-0.657582; 0.585711;,
         0.254830;-0.591021; 0.765313;,
         0.257241;-0.713553; 0.651631;,
         0.254830;-0.591021; 0.765313;,
         0.013581;-0.812830; 0.582324;,
         0.257241;-0.713553; 0.651631;,
         0.257241;-0.713553; 0.651631;,
         0.013581;-0.812830; 0.582324;,
         0.146886;-0.932524; 0.329814;,
         0.013581;-0.812830; 0.582324;,
        -0.147008;-0.930876; 0.334391;,
         0.146886;-0.932524; 0.329814;,
        -0.147008;-0.930876; 0.334391;,
         0.013581;-0.812830; 0.582324;,
        -0.252205;-0.837489; 0.484756;,
         0.013581;-0.812830; 0.582324;,
        -0.247841;-0.855922; 0.453749;,
        -0.252205;-0.837489; 0.484756;,
        -0.252205;-0.837489; 0.484756;,
        -0.247841;-0.855922; 0.453749;,
        -0.467574;-0.722648; 0.509018;,
        -0.677694; 0.649434;-0.344829;,
        -0.495590; 0.604144;-0.623951;,
        -0.694174; 0.488388;-0.528733;,
        -0.495590; 0.604144;-0.623951;,
        -0.480026; 0.311533;-0.820032;,
        -0.694174; 0.488388;-0.528733;,
        -0.694174; 0.488388;-0.528733;,
        -0.480026; 0.311533;-0.820032;,
        -0.789972; 0.143559;-0.596088;,
        -0.789972; 0.143559;-0.596088;,
        -0.823664; 0.365062;-0.433912;,
        -0.694174; 0.488388;-0.528733;,
        -0.694174; 0.488388;-0.528733;,
        -0.823664; 0.365062;-0.433912;,
        -0.687582; 0.595477;-0.415448;,
        -0.495590; 0.604144;-0.623951;,
        -0.253426; 0.804773;-0.536729;,
        -0.259346; 0.685263;-0.680502;,
        -0.253426; 0.804773;-0.536729;,
        -0.022279; 0.655568;-0.754784;,
        -0.259346; 0.685263;-0.680502;,
        -0.259346; 0.685263;-0.680502;,
        -0.022279; 0.655568;-0.754784;,
        -0.149113; 0.362438;-0.919980;,
        -0.022279; 0.655568;-0.754784;,
         0.144780; 0.362835;-0.920530;,
        -0.149113; 0.362438;-0.919980;,
         0.144780; 0.362835;-0.920530;,
        -0.022279; 0.655568;-0.754784;,
         0.256111; 0.623371;-0.738762;,
        -0.022279; 0.655568;-0.754784;,
         0.257332; 0.694449;-0.671926;,
         0.256111; 0.623371;-0.738762;,
         0.256111; 0.623371;-0.738762;,
         0.257332; 0.694449;-0.671926;,
         0.512131; 0.506027;-0.693960;;
        136;
        3;0;1;2;,
        3;3;4;5;,
        3;6;7;8;,
        3;9;10;11;,
        3;12;13;14;,
        3;15;16;17;,
        3;18;19;20;,
        3;21;22;23;,
        3;24;25;26;,
        3;27;28;29;,
        3;30;31;32;,
        3;33;34;35;,
        3;36;37;38;,
        3;39;40;41;,
        3;42;43;44;,
        3;45;46;47;,
        3;48;49;50;,
        3;51;52;53;,
        3;54;55;56;,
        3;57;58;59;,
        3;60;61;62;,
        3;63;64;65;,
        3;66;67;68;,
        3;69;70;71;,
        3;72;73;74;,
        3;75;76;77;,
        3;78;79;80;,
        3;81;82;83;,
        3;84;85;86;,
        3;87;88;89;,
        3;90;91;92;,
        3;93;94;95;,
        3;96;97;98;,
        3;99;100;101;,
        3;102;103;104;,
        3;105;106;107;,
        3;108;109;110;,
        3;111;112;113;,
        3;114;115;116;,
        3;117;118;119;,
        3;120;121;122;,
        3;123;124;125;,
        3;126;127;128;,
        3;129;130;131;,
        3;132;133;134;,
        3;135;136;137;,
        3;138;139;140;,
        3;141;142;143;,
        3;144;145;146;,
        3;147;148;149;,
        3;150;151;152;,
        3;153;154;155;,
        3;156;157;158;,
        3;159;160;161;,
        3;162;163;164;,
        3;165;166;167;,
        3;168;169;170;,
        3;171;172;173;,
        3;174;175;176;,
        3;177;178;179;,
        3;180;181;182;,
        3;183;184;185;,
        3;186;187;188;,
        3;189;190;191;,
        3;192;193;194;,
        3;195;196;197;,
        3;198;199;200;,
        3;201;202;203;,
        3;204;205;206;,
        3;207;208;209;,
        3;210;211;212;,
        3;213;214;215;,
        3;216;217;218;,
        3;219;220;221;,
        3;222;223;224;,
        3;225;226;227;,
        3;228;229;230;,
        3;231;232;233;,
        3;234;235;236;,
        3;237;238;239;,
        3;240;241;242;,
        3;243;244;245;,
        3;246;247;248;,
        3;249;250;251;,
        3;252;253;254;,
        3;255;256;257;,
        3;258;259;260;,
        3;261;262;263;,
        3;264;265;266;,
        3;267;268;269;,
        3;270;271;272;,
        3;273;274;275;,
        3;276;277;278;,
        3;279;280;281;,
        3;282;283;284;,
        3;285;286;287;,
        3;288;289;290;,
        3;291;292;293;,
        3;294;295;296;,
        3;297;298;299;,
        3;300;301;302;,
        3;303;304;305;,
        3;306;307;308;,
        3;309;310;311;,
        3;312;313;314;,
        3;315;316;317;,
        3;318;319;320;,
        3;321;322;323;,
        3;324;325;326;,
        3;327;328;329;,
        3;330;331;332;,
        3;333;334;335;,
        3;336;337;338;,
        3;339;340;341;,
        3;342;343;344;,
        3;345;346;347;,
        3;348;349;350;,
        3;351;352;353;,
        3;354;355;356;,
        3;357;358;359;,
        3;360;361;362;,
        3;363;364;365;,
        3;366;367;368;,
        3;369;370;371;,
        3;372;373;374;,
        3;375;376;377;,
        3;378;379;380;,
        3;381;382;383;,
        3;384;385;386;,
        3;387;388;389;,
        3;390;391;392;,
        3;393;394;395;,
        3;396;397;398;,
        3;399;400;401;,
        3;402;403;404;,
        3;405;406;407;;
      } //End of Mesh Normals
      MeshMaterialList { //Mesh Material List
        1;
        136;
        0,
        0,
        0,
        0,
        0,
        0,
        0,
        0,
        0,
        0,
        0,
        0,
        0,
        0,
        0,
        0,
        0,
        0,
        0,
        0,
        0,
        0,
        0,
        0,
        0,
        0,
        0,
        0,
        0,
        0,
        0,
        0,
        0,
        0,
        0,
        0,
        0,
        0,
        0,
        0,
        0,
        0,
        0,
        0,
        0,
        0,
        0,
        0,
        0,
        0,
        0,
        0,
        0,
        0,
        0,
        0,
        0,
        0,
        0,
        0,
        0,
        0,
        0,
        0,
        0,
        0,
        0,
        0,
        0,
        0,
        0,
        0,
        0,
        0,
        0,
        0,
        0,
        0,
        0,
        0,
        0,
        0,
        0,
        0,
        0,
        0,
        0,
        0,
        0,
        0,
        0,
        0,
        0,
        0,
        0,
        0,
        0,
        0,
        0,
        0,
        0,
        0,
        0,
        0,
        0,
        0,
        0,
        0,
        0,
        0,
        0,
        0,
        0,
        0,
        0,
        0,
        0,
        0,
        0,
        0,
        0,
        0,
        0,
        0,
        0,
        0,
        0,
        0,
        0,
        0,
        0,
        0,
        0,
        0,
        0,
        0;;
        Material mat_0 {
           0.640000; 0.640000; 0.640000; 1.000000;;
           92.156863;
           0.250000; 0.250000; 0.250000;;
           0.000000; 0.000000; 0.000000;;
          TextureFilename {"Textures/darkrai_0_0.tga";}
        }
      } //End of Mesh Material List
      MeshTextureCoords { //Mesh UV Coordinates
        408;
         0.658093; 0.909766;,
         0.671005; 0.911240;,
         0.662424; 0.925619;,
         0.671005; 0.911240;,
         0.672204; 0.932289;,
         0.662424; 0.925619;,
         0.662424; 0.925619;,
         0.672204; 0.932289;,
         0.656712; 0.935212;,
         0.672204; 0.932289;,
         0.670252; 0.948264;,
         0.656712; 0.935212;,
         0.656712; 0.935212;,
         0.670252; 0.948264;,
         0.650865; 0.945331;,
         0.670252; 0.948264;,
         0.667069; 0.960860;,
         0.650865; 0.945331;,
         0.656712; 0.840203;,
         0.670252; 0.827010;,
         0.662424; 0.848847;,
         0.670252; 0.827010;,
         0.672204; 0.841691;,
         0.662424; 0.848847;,
         0.662424; 0.848847;,
         0.672204; 0.841691;,
         0.658093; 0.864214;,
         0.672204; 0.841691;,
         0.671005; 0.861860;,
         0.658093; 0.864214;,
         0.658093; 0.864214;,
         0.671005; 0.861860;,
         0.655940; 0.886869;,
         0.671005; 0.861860;,
         0.669834; 0.886401;,
         0.655940; 0.886869;,
         0.655940; 0.886869;,
         0.669834; 0.886401;,
         0.658093; 0.909766;,
         0.669834; 0.886401;,
         0.671005; 0.911240;,
         0.658093; 0.909766;,
         0.658093; 0.909766;,
         0.648490; 0.913529;,
         0.655940; 0.886869;,
         0.648490; 0.913529;,
         0.645705; 0.887568;,
         0.655940; 0.886869;,
         0.655940; 0.886869;,
         0.645705; 0.887568;,
         0.658093; 0.864214;,
         0.645705; 0.887568;,
         0.648490; 0.861745;,
         0.658093; 0.864214;,
         0.658093; 0.864214;,
         0.648490; 0.861745;,
         0.662424; 0.848847;,
         0.648490; 0.861745;,
         0.656712; 0.840203;,
         0.662424; 0.848847;,
         0.648490; 0.861745;,
         0.641136; 0.857522;,
         0.656712; 0.840203;,
         0.641136; 0.857522;,
         0.650865; 0.831659;,
         0.656712; 0.840203;,
         0.656712; 0.840203;,
         0.650865; 0.831659;,
         0.670252; 0.827010;,
         0.650865; 0.831659;,
         0.667069; 0.816131;,
         0.670252; 0.827010;,
         0.670252; 0.827010;,
         0.667069; 0.816131;,
         0.682094; 0.823714;,
         0.667069; 0.816131;,
         0.681234; 0.812361;,
         0.682094; 0.823714;,
         0.724457; 0.861745;,
         0.727243; 0.887568;,
         0.714854; 0.864214;,
         0.727243; 0.887568;,
         0.717008; 0.886869;,
         0.714854; 0.864214;,
         0.714854; 0.864214;,
         0.717008; 0.886869;,
         0.701942; 0.861860;,
         0.717008; 0.886869;,
         0.703113; 0.886401;,
         0.701942; 0.861860;,
         0.701942; 0.861860;,
         0.703113; 0.886401;,
         0.690650; 0.860387;,
         0.703113; 0.886401;,
         0.690966; 0.886288;,
         0.690650; 0.860387;,
         0.690650; 0.860387;,
         0.690966; 0.886288;,
         0.682297; 0.860387;,
         0.690966; 0.886288;,
         0.681981; 0.886288;,
         0.682297; 0.860387;,
         0.682297; 0.860387;,
         0.681981; 0.886288;,
         0.671005; 0.861860;,
         0.681981; 0.886288;,
         0.669834; 0.886401;,
         0.671005; 0.861860;,
         0.722082; 0.945331;,
         0.716236; 0.935212;,
         0.731811; 0.919468;,
         0.716236; 0.935212;,
         0.724457; 0.913529;,
         0.731811; 0.919468;,
         0.731811; 0.919468;,
         0.724457; 0.913529;,
         0.735046; 0.888495;,
         0.724457; 0.913529;,
         0.727243; 0.887568;,
         0.735046; 0.888495;,
         0.735046; 0.888495;,
         0.727243; 0.887568;,
         0.731811; 0.857522;,
         0.727243; 0.887568;,
         0.724457; 0.861745;,
         0.731811; 0.857522;,
         0.731811; 0.857522;,
         0.724457; 0.861745;,
         0.722082; 0.831659;,
         0.724457; 0.861745;,
         0.716236; 0.840203;,
         0.722082; 0.831659;,
         0.722082; 0.831659;,
         0.716236; 0.840203;,
         0.705878; 0.816131;,
         0.716236; 0.840203;,
         0.702695; 0.827010;,
         0.705878; 0.816131;,
         0.705878; 0.816131;,
         0.702695; 0.827010;,
         0.691713; 0.812361;,
         0.702695; 0.827010;,
         0.690853; 0.823714;,
         0.691713; 0.812361;,
         0.701942; 0.911240;,
         0.703113; 0.886401;,
         0.714854; 0.909766;,
         0.703113; 0.886401;,
         0.717008; 0.886869;,
         0.714854; 0.909766;,
         0.714854; 0.909766;,
         0.717008; 0.886869;,
         0.724457; 0.913529;,
         0.717008; 0.886869;,
         0.727243; 0.887568;,
         0.724457; 0.913529;,
         0.690853; 0.951459;,
         0.682094; 0.951459;,
         0.690326; 0.934710;,
         0.682094; 0.951459;,
         0.682621; 0.934710;,
         0.690326; 0.934710;,
         0.690326; 0.934710;,
         0.682621; 0.934710;,
         0.690650; 0.912496;,
         0.682621; 0.934710;,
         0.682297; 0.912496;,
         0.690650; 0.912496;,
         0.690650; 0.912496;,
         0.682297; 0.912496;,
         0.690966; 0.886288;,
         0.682297; 0.912496;,
         0.681981; 0.886288;,
         0.690966; 0.886288;,
         0.716236; 0.935212;,
         0.702695; 0.948264;,
         0.710523; 0.925619;,
         0.702695; 0.948264;,
         0.700743; 0.932289;,
         0.710523; 0.925619;,
         0.710523; 0.925619;,
         0.700743; 0.932289;,
         0.714854; 0.909766;,
         0.700743; 0.932289;,
         0.701942; 0.911240;,
         0.714854; 0.909766;,
         0.690650; 0.860387;,
         0.682297; 0.860387;,
         0.690326; 0.839094;,
         0.682297; 0.860387;,
         0.682621; 0.839094;,
         0.690326; 0.839094;,
         0.690326; 0.839094;,
         0.682621; 0.839094;,
         0.690853; 0.823714;,
         0.682621; 0.839094;,
         0.682094; 0.823714;,
         0.690853; 0.823714;,
         0.714854; 0.864214;,
         0.701942; 0.861860;,
         0.710523; 0.848847;,
         0.701942; 0.861860;,
         0.700743; 0.841691;,
         0.710523; 0.848847;,
         0.710523; 0.848847;,
         0.700743; 0.841691;,
         0.716236; 0.840203;,
         0.700743; 0.841691;,
         0.702695; 0.827010;,
         0.716236; 0.840203;,
         0.710523; 0.925619;,
         0.714854; 0.909766;,
         0.724457; 0.913529;,
         0.710523; 0.925619;,
         0.724457; 0.913529;,
         0.716236; 0.935212;,
         0.710523; 0.848847;,
         0.716236; 0.840203;,
         0.724457; 0.861745;,
         0.710523; 0.848847;,
         0.724457; 0.861745;,
         0.714854; 0.864214;,
         0.641136; 0.857522;,
         0.648490; 0.861745;,
         0.637901; 0.888495;,
         0.648490; 0.861745;,
         0.645705; 0.887568;,
         0.637901; 0.888495;,
         0.637901; 0.888495;,
         0.645705; 0.887568;,
         0.641136; 0.919468;,
         0.645705; 0.887568;,
         0.648490; 0.913529;,
         0.641136; 0.919468;,
         0.641136; 0.919468;,
         0.648490; 0.913529;,
         0.650865; 0.945331;,
         0.648490; 0.913529;,
         0.656712; 0.935212;,
         0.650865; 0.945331;,
         0.662424; 0.925619;,
         0.656712; 0.935212;,
         0.648490; 0.913529;,
         0.662424; 0.925619;,
         0.648490; 0.913529;,
         0.658093; 0.909766;,
         0.634649; 0.924706;,
         0.637901; 0.888495;,
         0.641136; 0.919468;,
         0.634649; 0.853897;,
         0.641136; 0.857522;,
         0.637901; 0.888495;,
         0.741996; 0.889301;,
         0.735046; 0.888495;,
         0.731811; 0.857522;,
         0.741996; 0.889301;,
         0.731811; 0.919468;,
         0.735046; 0.888495;,
         0.664292; 0.972020;,
         0.650865; 0.945331;,
         0.667069; 0.960860;,
         0.664292; 0.806583;,
         0.667069; 0.816131;,
         0.650865; 0.831659;,
         0.727177; 0.824333;,
         0.722082; 0.831659;,
         0.705878; 0.816131;,
         0.727177; 0.954269;,
         0.722082; 0.945331;,
         0.731811; 0.919468;,
         0.727177; 0.824333;,
         0.731811; 0.857522;,
         0.722082; 0.831659;,
         0.634649; 0.853897;,
         0.650865; 0.831659;,
         0.641136; 0.857522;,
         0.634649; 0.924706;,
         0.641136; 0.919468;,
         0.650865; 0.945331;,
         0.670252; 0.827010;,
         0.682094; 0.823714;,
         0.672204; 0.841691;,
         0.682094; 0.823714;,
         0.682621; 0.839094;,
         0.672204; 0.841691;,
         0.672204; 0.841691;,
         0.682621; 0.839094;,
         0.671005; 0.861860;,
         0.682621; 0.839094;,
         0.682297; 0.860387;,
         0.671005; 0.861860;,
         0.669834; 0.886401;,
         0.681981; 0.886288;,
         0.671005; 0.911240;,
         0.681981; 0.886288;,
         0.682297; 0.912496;,
         0.671005; 0.911240;,
         0.671005; 0.911240;,
         0.682297; 0.912496;,
         0.672204; 0.932289;,
         0.682297; 0.912496;,
         0.682621; 0.934710;,
         0.672204; 0.932289;,
         0.672204; 0.932289;,
         0.682621; 0.934710;,
         0.670252; 0.948264;,
         0.682621; 0.934710;,
         0.682094; 0.951459;,
         0.670252; 0.948264;,
         0.670252; 0.948264;,
         0.682094; 0.951459;,
         0.667069; 0.960860;,
         0.682094; 0.951459;,
         0.681234; 0.964629;,
         0.667069; 0.960860;,
         0.705878; 0.960860;,
         0.691713; 0.964629;,
         0.702695; 0.948264;,
         0.691713; 0.964629;,
         0.690853; 0.951459;,
         0.702695; 0.948264;,
         0.702695; 0.948264;,
         0.690853; 0.951459;,
         0.700743; 0.932289;,
         0.690853; 0.951459;,
         0.690326; 0.934710;,
         0.700743; 0.932289;,
         0.700743; 0.932289;,
         0.690326; 0.934710;,
         0.701942; 0.911240;,
         0.690326; 0.934710;,
         0.690650; 0.912496;,
         0.701942; 0.911240;,
         0.701942; 0.911240;,
         0.690650; 0.912496;,
         0.703113; 0.886401;,
         0.690650; 0.912496;,
         0.690966; 0.886288;,
         0.703113; 0.886401;,
         0.701942; 0.861860;,
         0.690650; 0.860387;,
         0.700743; 0.841691;,
         0.690650; 0.860387;,
         0.690326; 0.839094;,
         0.700743; 0.841691;,
         0.700743; 0.841691;,
         0.690326; 0.839094;,
         0.702695; 0.827010;,
         0.690326; 0.839094;,
         0.690853; 0.823714;,
         0.702695; 0.827010;,
         0.667069; 0.816131;,
         0.664292; 0.806583;,
         0.681234; 0.812361;,
         0.664292; 0.806583;,
         0.686474; 0.810967;,
         0.681234; 0.812361;,
         0.681234; 0.812361;,
         0.686474; 0.810967;,
         0.682094; 0.823714;,
         0.686474; 0.810967;,
         0.690853; 0.823714;,
         0.682094; 0.823714;,
         0.690853; 0.823714;,
         0.686474; 0.810967;,
         0.691713; 0.812361;,
         0.686474; 0.810967;,
         0.686474; 0.800681;,
         0.691713; 0.812361;,
         0.691713; 0.812361;,
         0.686474; 0.800681;,
         0.705878; 0.816131;,
         0.708655; 0.972020;,
         0.705878; 0.960860;,
         0.713414; 0.953638;,
         0.705878; 0.960860;,
         0.702695; 0.948264;,
         0.713414; 0.953638;,
         0.713414; 0.953638;,
         0.702695; 0.948264;,
         0.716236; 0.935212;,
         0.716236; 0.935212;,
         0.722082; 0.945331;,
         0.713414; 0.953638;,
         0.713414; 0.953638;,
         0.722082; 0.945331;,
         0.727177; 0.954269;,
         0.705878; 0.960860;,
         0.693876; 0.975952;,
         0.691713; 0.964629;,
         0.693876; 0.975952;,
         0.686474; 0.966023;,
         0.691713; 0.964629;,
         0.691713; 0.964629;,
         0.686474; 0.966023;,
         0.690853; 0.951459;,
         0.686474; 0.966023;,
         0.682094; 0.951459;,
         0.690853; 0.951459;,
         0.682094; 0.951459;,
         0.686474; 0.966023;,
         0.681234; 0.964629;,
         0.686474; 0.966023;,
         0.678079; 0.975689;,
         0.681234; 0.964629;,
         0.681234; 0.964629;,
         0.678079; 0.975689;,
         0.667069; 0.960860;;
      } //End of Mesh UV Coordinates
    } //End of Mesh Mesh
  } //End of darkrai_mat_0
} //End of Root Frame
