# Blender v2.66 (sub 1) OBJ File: 'BR_Wooper-Shiny03.blend'
# www.blender.org
mtllib BR_Wooper-Shiny03.mtl
o upah
v -0.611871 0.530942 -0.762854
v -0.747241 0.145421 -0.762854
v -0.582848 0.145421 -0.417941
v 0.000000 -0.077576 -0.334601
v 0.000000 0.133101 -0.282700
v -0.286808 0.147605 -0.303332
v 0.000000 0.368416 -0.334601
v -0.477259 0.464035 -0.436916
v 0.274751 -0.353646 -0.580762
v 0.564145 -0.218011 -0.762854
v 0.445760 -0.168202 -0.436916
v -0.564145 -0.218011 -0.762854
v 0.000000 -0.352749 -0.517210
v 0.000000 -0.255759 -0.452099
v 0.113835 -0.375081 -0.573946
v 0.000000 -0.428469 -0.762854
v 0.000000 -0.414461 -0.630616
v 0.286807 0.147605 -0.303332
v -0.274751 -0.353646 -0.580762
v -0.445761 -0.168202 -0.436916
v 0.582848 0.145420 -0.417941
v 0.477259 0.464035 -0.436916
v 0.000000 0.551591 -0.438818
v 0.000000 0.721318 -0.762854
v 0.747240 0.145420 -0.762854
v 0.611871 0.530942 -0.762854
v 0.145306 -0.790484 -0.538563
v 0.000000 -0.789102 -0.661387
v 0.179375 -0.775265 -0.293597
v 0.223548 -0.784929 -0.410281
v -0.179375 -0.775265 -0.293597
v 0.000000 -0.757814 -0.191108
v -0.145306 -0.790484 -0.538563
v -0.223548 -0.784929 -0.410281
v 0.000000 -1.237700 -0.820039
v -0.409361 -1.282690 -0.398233
v -0.328471 -1.290520 -0.151659
v 0.266084 -1.260150 -0.650491
v 0.409361 -1.282690 -0.398233
v -0.266084 -1.260150 -0.650491
v 0.000000 -1.281960 -0.005687
v 0.328471 -1.290520 -0.151659
v 0.334589 -1.779580 -0.748547
v 0.000000 -1.752650 -0.917973
v -0.334589 -1.779580 -0.748547
v -0.413038 -1.862210 -0.127952
v -0.514753 -1.839250 -0.418615
v 0.514753 -1.839250 -0.418615
v 0.000000 -1.872950 0.011835
v 0.413038 -1.862210 -0.127952
v -0.380128 -2.207140 -0.462555
v -0.247083 -2.175360 -0.716740
v 0.000000 -2.154640 -0.831349
v 0.000000 -2.228270 -0.106818
v 0.000000 -2.334640 -0.485908
v -0.305015 -2.223970 -0.227284
v 0.442034 0.187991 -0.378955
v 0.490894 0.091196 -0.379353
v 0.317048 0.164253 -0.373563
v 0.358770 0.004729 -0.379029
v 0.298630 -0.118321 -0.253193
v 0.155852 0.088598 -0.246163
v 0.547687 -0.137169 -0.258392
v 0.135170 0.068090 -0.128043
v 0.276938 0.424086 -0.245109
v 0.558429 -0.131142 -0.012114
v 0.190931 0.081182 -0.000783
v 0.310573 -0.124523 -0.007117
v 0.301301 -0.139740 -0.135770
v 0.577704 -0.159657 -0.141787
v 0.885812 0.470117 -0.015241
v 0.771781 0.733132 -0.008879
v 0.494906 0.702576 -0.001174
v 0.915741 0.453305 -0.145066
v 0.755235 0.738314 -0.254833
v 0.794939 0.788176 -0.137519
v 0.831653 0.482891 -0.259989
v 0.489430 0.699448 -0.247568
v 0.471859 0.751545 -0.128542
v -0.317048 0.164254 -0.373563
v -0.490894 0.091196 -0.379353
v -0.442034 0.187992 -0.378956
v -0.155853 0.088599 -0.246161
v -0.298631 -0.118319 -0.253190
v -0.358771 0.004730 -0.379028
v -0.547688 -0.137168 -0.258391
v -0.782254 0.185387 -0.262029
v -0.135171 0.068092 -0.128041
v -0.574838 0.420490 -0.341664
v -0.276939 0.424088 -0.245111
v -0.190933 0.081186 -0.000781
v -0.338137 0.443658 -0.000126
v -0.558431 -0.131138 -0.012112
v -0.819576 0.207940 -0.016303
v -0.249100 0.423694 -0.126504
v -0.310575 -0.124519 -0.007114
v -0.301303 -0.139738 -0.135767
v -0.577706 -0.159654 -0.141785
v -0.838675 0.181705 -0.145939
v -0.771781 0.733133 -0.008879
v -0.915742 0.453305 -0.145066
v -0.794939 0.788177 -0.137519
v -0.755235 0.738315 -0.254833
v -0.586509 -0.207694 -1.089160
v -0.464291 -0.141928 -1.386990
v 0.000000 -0.286724 -1.386990
v 0.000000 -0.395010 -1.089160
v 0.464292 -0.141928 -1.386990
v 0.000000 0.693216 -1.089160
v 0.586509 0.505899 -1.089160
v 0.464292 0.407179 -1.386990
v -0.464291 0.407180 -1.386990
v -0.586509 0.505899 -1.089160
v 0.567010 0.135513 -1.386990
v 0.716920 0.129256 -1.086070
v 0.587578 -0.208388 -1.082980
v -0.716267 0.129574 -1.089160
v 0.000000 0.551975 -1.386990
v -0.432086 0.341944 -1.670200
v -0.417630 0.346924 -1.840050
v -0.485066 0.145420 -1.840050
v -0.484161 0.145351 -1.670200
v 0.432086 -0.051242 -1.670200
v 0.484161 0.145351 -1.670200
v -0.432086 -0.051241 -1.670200
v 0.432086 0.341944 -1.670200
v 0.000000 0.474605 -1.840050
v -0.417630 -0.042901 -1.840050
v 0.000000 -0.183764 -1.840050
v 0.000000 -0.193703 -1.670200
v 0.000000 0.484406 -1.670200
v 0.816646 0.148801 -3.671950
v 0.380327 0.148800 -3.896240
v 0.276514 0.433338 -3.896250
v -0.276514 0.433338 -3.896250
v -0.380328 0.148800 -3.896240
v -0.816647 0.148801 -3.671950
v -0.996473 0.992529 -2.561260
v -1.215160 0.160399 -2.471640
v -0.930042 0.160401 -2.134311
v -0.707034 0.910096 -2.186730
v -0.900489 -0.615125 -2.901600
v -1.285840 0.042119 -2.907500
v -1.163970 0.149616 -3.329140
v -1.177530 0.621570 -2.960820
v 0.930042 0.160401 -2.134310
v 1.215160 0.160399 -2.471640
v 0.996473 0.992529 -2.561260
v 1.177530 0.621570 -2.960820
v 0.707034 0.910096 -2.186730
v 0.000000 -0.728117 -2.134310
v 0.000000 -0.446157 -1.939450
v 1.163970 0.149616 -3.329140
v 0.900489 -0.615125 -2.901610
v 0.818883 -0.564920 -3.273220
v 0.657639 -0.404933 -2.134310
v 0.412100 -0.238803 -1.939450
v -0.657639 -0.404933 -2.134310
v 0.582797 0.150197 -1.939460
v 0.443208 0.644573 -1.965070
v -0.826690 -0.572445 -2.444110
v 0.000000 -0.954665 -2.416240
v 0.826690 -0.572445 -2.444110
v 0.000000 -1.007200 -2.873740
v 0.000000 -0.925831 -3.245360
v 0.268932 -0.193719 -3.851020
v 0.586032 -0.453704 -3.599090
v 0.000000 -0.721037 -3.546870
v -0.268932 -0.193719 -3.851020
v 0.000000 -0.325425 -3.851020
v -0.818884 -0.564920 -3.273220
v -0.586032 -0.453704 -3.599090
v -0.720880 0.632680 -3.700190
v -0.931296 0.871583 -3.413180
v -0.560627 1.246820 -3.420920
v 0.720879 0.632680 -3.700200
v 0.000000 0.597995 -3.896250
v 0.000000 1.080060 -3.699230
v -1.285840 0.275859 -2.907500
v -1.283291 0.158990 -2.812562
v 0.560626 1.246820 -3.420920
v 0.000000 1.369620 -3.428210
v 0.000000 0.148800 -3.942300
v 0.931295 0.871583 -3.413180
v 0.633830 1.349060 -2.995510
v -0.633830 1.349060 -2.995510
v 0.000000 0.876831 -1.978360
v 1.030540 0.998107 -2.981600
v -1.030540 0.998107 -2.981600
v 0.000008 1.510940 -3.009360
v 1.283290 0.158989 -3.002440
v 1.478624 0.157183 -3.353770
v 1.516235 0.157183 -3.385557
v 1.508070 0.112518 -3.319431
v 1.505162 0.112518 -2.512939
v 1.475230 0.067854 -2.902490
v 1.505162 0.201847 -2.512939
v 1.507113 0.157183 -2.481439
v 1.532394 0.157183 -2.506689
v 1.475230 0.246512 -2.902490
v 1.410060 0.157183 -2.826410
v 1.532225 0.157183 -3.336937
v 1.478707 0.157183 -2.500530
v 1.410060 0.157183 -2.992180
v 1.508070 0.201847 -3.319431
v 1.410350 0.063014 -2.902030
v 1.410350 0.251352 -2.902030
v 1.719000 0.087438 -2.903660
v 1.715230 0.157183 -2.848460
v 1.715230 0.157183 -2.958760
v 1.814250 0.157183 -2.904255
v 1.719000 0.226927 -2.903660
v -1.475230 0.067853 -2.902490
v -1.410060 0.157182 -2.992180
v -1.475230 0.246511 -2.902490
v -1.508080 0.201846 -3.319431
v -1.516235 0.157182 -3.385557
v -1.532225 0.157182 -3.336937
v -1.478623 0.157182 -3.353769
v -1.536320 0.157182 -2.986620
v -1.538310 0.242639 -2.902860
v -1.532394 0.157183 -2.506699
v -1.507113 0.157183 -2.481449
v -1.505162 0.201847 -2.512939
v -1.536321 0.157182 -2.833441
v -1.538310 0.071725 -2.902860
v -1.505162 0.112518 -2.512939
v -1.478706 0.157183 -2.500529
v -1.508080 0.112517 -3.319431
v -1.814250 0.157182 -2.904255
v -0.464077 1.320980 -2.592520
v 0.000008 1.464240 -2.603630
v -0.113835 -0.375081 -0.573946
v 0.380128 -2.207140 -0.462555
v 0.247083 -2.175360 -0.716740
v 0.305015 -2.223970 -0.227284
v 0.782253 0.185386 -0.262027
v 0.574838 0.420489 -0.341661
v 0.338134 0.443655 -0.000124
v 0.819574 0.207936 -0.016300
v 0.249098 0.423692 -0.126502
v 0.838673 0.181702 -0.145937
v -0.494906 0.702577 -0.001174
v -0.885812 0.470118 -0.015241
v -0.831653 0.482892 -0.259989
v -0.489430 0.699448 -0.247568
v -0.471859 0.751545 -0.128542
v -0.567010 0.135514 -1.386990
v 0.417630 -0.042901 -1.840050
v 0.485066 0.145420 -1.840050
v 0.417630 0.346924 -1.840050
v -0.412099 -0.238803 -1.939450
v -0.582796 0.150197 -1.939460
v -0.443208 0.644573 -1.965070
v 1.285840 0.275860 -2.907500
v 1.285840 0.042120 -2.907500
v 1.283290 0.158990 -2.812560
v -1.283290 0.158989 -3.002440
v -1.410350 0.063013 -2.902030
v -1.410060 0.157183 -2.826410
v -1.410350 0.251351 -2.902030
v 1.536310 0.157183 -2.833440
v 1.536310 0.157183 -2.986620
v 1.538300 0.071726 -2.902860
v 1.538300 0.242640 -2.902860
v -1.719000 0.087438 -2.903660
v -1.715230 0.157182 -2.958760
v -1.719000 0.226927 -2.903660
v -1.715230 0.157183 -2.848460
v 0.000008 1.194730 -2.181330
v 0.464092 1.320980 -2.592520
vt 0.646154 0.641688
vt 0.544999 0.600189
vt 0.595941 0.601534
vt 0.644912 0.617928
vt 0.750532 0.500000
vt 0.702900 0.500000
vt 0.727764 0.383969
vt 0.727764 0.616031
vt 0.645480 0.569728
vt 0.641709 0.500000
vt 0.586925 0.500000
vt 0.645480 0.430272
vt 0.563358 0.391627
vt 0.644912 0.358299
vt 0.550406 0.362846
vt 0.644912 0.318332
vt 0.552908 0.357149
vt 0.640709 0.325703
vt 0.570190 0.387122
vt 0.642336 0.362149
vt 0.593773 0.394952
vt 0.644894 0.382291
vt 0.644912 0.382071
vt 0.696016 0.394952
vt 0.697311 0.398466
vt 0.730513 0.500000
vt 0.774711 0.392248
vt 0.835107 0.500000
vt 0.843758 0.328107
vt 0.917774 0.499998
vt 0.843758 0.671893
vt 0.774711 0.607752
vt 0.648808 0.726110
vt 0.501799 0.659884
vt 0.417759 0.500000
vt 0.491079 0.500000
vt 0.544999 0.399811
vt 0.595941 0.398466
vt 0.646154 0.358311
vt 0.648808 0.273889
vt 0.865193 0.257739
vt 0.648807 0.204572
vt 0.501799 0.340116
vt 0.458239 0.299016
vt 0.358847 0.500000
vt 0.447141 0.281074
vt 0.345186 0.500000
vt 0.366346 0.500000
vt 0.447141 0.718925
vt 0.460196 0.699086
vt 0.646003 0.782983
vt 0.489117 0.642475
vt 0.645791 0.698542
vt 0.645791 0.592465
vt 0.719782 0.567226
vt 0.645791 0.500000
vt 0.762599 0.500000
vt 0.719782 0.432774
vt 0.771619 0.324741
vt 0.645791 0.301458
vt 0.646003 0.217017
vt 0.489117 0.357525
vt 0.460196 0.300914
vt 0.419600 0.500000
vt 0.556723 0.565382
vt 0.522474 0.500000
vt 0.556723 0.434618
vt 0.645791 0.407535
vt 0.745163 0.351243
vt 0.738651 0.357409
vt 0.712980 0.387122
vt 0.559312 0.500000
vt 0.556727 0.500000
vt 0.593773 0.605048
vt 0.532538 0.500000
vt 0.570190 0.612878
vt 0.504379 0.500000
vt 0.553089 0.642591
vt 0.495679 0.500000
vt 0.550406 0.637154
vt 0.515136 0.566797
vt 0.563358 0.608373
vt 0.540590 0.500000
vt 0.515136 0.433203
vt 0.509562 0.472325
vt 0.499321 0.500000
vt 0.509562 0.527675
vt 0.401900 0.500000
vt 0.401541 0.535327
vt 0.285246 0.500000
vt 0.279409 0.564690
vt 0.151340 0.500000
vt 0.144337 0.581345
vt 0.046807 0.500000
vt 0.041420 0.560070
vt 0.000000 0.500000
vt 0.033156 0.592416
vt 0.028779 0.574155
vt 0.122850 0.600417
vt 0.027661 0.500000
vt 0.120058 0.500000
vt 0.122850 0.399583
vt 0.271513 0.420143
vt 0.273548 0.400477
vt 0.402986 0.445651
vt 0.279409 0.435310
vt 0.401541 0.464673
vt 0.405498 0.456391
vt 0.273739 0.500000
vt 0.271513 0.579857
vt 0.273547 0.599523
vt 0.128821 0.625146
vt 0.644912 0.641701
vt 0.745163 0.648757
vt 0.644912 0.681668
vt 0.640792 0.674138
vt 0.738651 0.642591
vt 0.712980 0.612878
vt 0.642336 0.637851
vt 0.644894 0.617708
vt 0.696016 0.605048
vt 0.697311 0.601534
vt 0.733062 0.500000
vt 0.515369 0.500000
vt 0.410036 0.500000
vt 0.405498 0.543609
vt 0.402985 0.554349
vt 0.144337 0.418655
vt 0.128821 0.374854
vt 0.033156 0.407584
vt 0.028779 0.425845
vt 0.041420 0.439929
vt 0.458239 0.700983
vt 0.648807 0.795427
vt 0.618050 0.812611
vt 0.648441 0.811992
vt 0.678831 0.812611
vt 0.768730 0.786280
vt 0.833743 0.726415
vt 0.866644 0.750544
vt 0.865193 0.742261
vt 0.618050 0.187389
vt 0.648441 0.188008
vt 0.678832 0.187389
vt 0.768730 0.213720
vt 0.866644 0.249456
vt 0.833743 0.273585
vt 0.931318 0.363701
vt 0.887955 0.500000
vt 0.771619 0.675259
vt 0.931318 0.636299
vt 0.963253 0.500000
vt 0.630812 0.380655
vt 0.649810 0.422920
vt 0.655982 0.392533
vt 0.608327 0.412776
vt 0.571428 0.366847
vt 0.576329 0.427397
vt 0.565580 0.359549
vt 0.570759 0.426748
vt 0.572995 0.364236
vt 0.574717 0.424494
vt 0.628208 0.453581
vt 0.624803 0.467138
vt 0.717274 0.439440
vt 0.630136 0.462110
vt 0.717376 0.432671
vt 0.716441 0.360246
vt 0.788981 0.381011
vt 0.799088 0.316388
vt 0.802528 0.385282
vt 0.812054 0.306736
vt 0.797740 0.312366
vt 0.724974 0.277366
vt 0.729346 0.284643
vt 0.661169 0.300747
vt 0.789794 0.379679
vt 0.722465 0.417793
vt 0.654347 0.296103
vt 0.655305 0.309820
vt 0.732668 0.297810
vt 0.630812 0.619345
vt 0.655982 0.607467
vt 0.649810 0.577080
vt 0.655305 0.690180
vt 0.571428 0.633153
vt 0.654347 0.703897
vt 0.565581 0.640451
vt 0.661170 0.699254
vt 0.572996 0.635765
vt 0.722466 0.582207
vt 0.628209 0.546419
vt 0.717274 0.560561
vt 0.624804 0.532863
vt 0.630137 0.537891
vt 0.576330 0.572603
vt 0.608327 0.587224
vt 0.717377 0.567329
vt 0.802528 0.614718
vt 0.789794 0.620321
vt 0.797740 0.687634
vt 0.729346 0.715357
vt 0.724974 0.722634
vt 0.732668 0.702190
vt 0.716441 0.639754
vt 0.799088 0.683612
vt 0.788981 0.618990
vt 0.570760 0.573252
vt 0.574717 0.575507
vt 0.812054 0.693264
vt 0.906250 -0.190104
vt 0.000000 0.178571
vt 1.177080 0.208333
vt 0.005208 -0.187500
vt 1.053570 0.537946
vt 0.000000 0.495536
vt 0.726563 0.847656
vt -0.000001 0.839823
vt 0.726563 1.074220
vt -0.000001 1.066310
vt -0.257813 1.035160
vt 0.789063 0.908203
vt 2.437500 1.302730
vt -1.140630 0.744141
vt -2.343750 0.892578
vt -0.040962 0.557011
vt 1.203500 0.481068
vt -0.029658 0.479857
vt 1.202090 0.547308
vt 1.522890 0.481472
vt 1.202090 0.414990
vt 1.892680 -0.070893
vt 1.758560 -0.081740
vt 1.902590 -0.100733
vt 2.030810 -0.078668
vt 1.823610 0.421132
vt 1.833400 0.481794
vt 3.003040 0.482498
vt 1.823610 0.542457
vt 2.983870 0.530643
vt 3.487440 0.526405
vt 1.907200 1.026190
vt 2.029680 1.019840
vt 1.948560 1.062320
vt 1.757850 1.034540
vt 2.983870 0.434259
vt 3.487440 0.439625
vt -0.040962 0.402704
vt -0.013658 0.490111
vt 1.219500 0.491798
vt -0.024962 0.597635
vt -0.024962 0.382587
vt 1.218090 0.399709
vt 1.538890 0.492361
vt 1.908680 -0.277434
vt 1.839610 0.408270
vt 2.046810 -0.288271
vt 1.918590 -0.319020
vt 1.774560 -0.292551
vt 1.218090 0.584113
vt 1.923200 1.251500
vt 1.839610 0.577351
vt 2.045670 1.242640
vt 1.964560 1.301850
vt 1.773850 1.263140
vt 1.849400 0.492810
vt 3.019040 0.493791
vt 2.999870 0.426563
vt 3.503440 0.434042
vt 2.999870 0.560888
vt 3.503440 0.554981
vt 1.414060 1.000870
vt 0.664063 1.000870
vt 1.218750 1.052950
vt 1.406250 0.940538
vt 0.544643 0.940476
vt 0.000000 1.001300
vt 0.004464 0.939732
vt 0.004464 0.889137
vt 0.732143 0.889137
usemtl mat_0
s 1
f 253/1 252/2 128/3
f 121/4 253/1 128/3
f 23/5 7/6 22/7
f 23/5 8/8 7/6
f 6/9 7/6 8/8
f 6/9 5/10 7/6
f 4/11 5/10 6/9
f 4/11 18/12 5/10
f 11/13 18/12 4/11
f 11/13 21/14 18/12
f 10/15 21/14 11/13
f 10/15 25/16 21/14
f 116/17 25/16 10/15
f 116/17 115/18 25/16
f 108/19 115/18 116/17
f 108/19 114/20 115/18
f 123/21 114/20 108/19
f 123/21 124/22 114/20
f 250/23 124/22 123/21
f 250/23 126/24 124/22
f 251/25 126/24 250/23
f 251/25 127/26 126/24
f 160/27 127/26 251/25
f 160/27 187/28 127/26
f 150/29 187/28 160/27
f 150/29 270/30 187/28
f 141/31 187/28 270/30
f 141/31 254/32 187/28
f 140/33 254/32 141/31
f 140/33 253/1 254/32
f 158/34 253/1 140/33
f 158/34 252/2 253/1
f 151/35 252/2 158/34
f 151/35 152/36 252/2
f 157/37 152/36 151/35
f 157/37 249/38 152/36
f 159/39 249/38 157/37
f 159/39 250/23 249/38
f 251/25 250/23 159/39
f 159/39 160/27 251/25
f 146/40 160/27 159/39
f 146/40 150/29 160/27
f 148/41 150/29 146/40
f 146/40 147/42 148/41
f 156/43 147/42 146/40
f 156/43 163/44 147/42
f 162/45 163/44 156/43
f 162/45 154/46 163/44
f 164/47 154/46 162/45
f 164/47 165/48 154/46
f 142/49 165/48 164/47
f 142/49 171/50 165/48
f 144/51 171/50 142/49
f 144/51 172/52 171/50
f 137/53 172/52 144/51
f 137/53 136/54 172/52
f 135/55 136/54 137/53
f 135/55 183/56 136/54
f 177/57 183/56 135/55
f 177/57 134/58 183/56
f 176/59 134/58 177/57
f 176/59 132/60 134/58
f 153/61 132/60 176/59
f 153/61 167/62 132/60
f 155/63 167/62 153/61
f 155/63 168/64 167/62
f 165/48 168/64 155/63
f 165/48 171/50 168/64
f 172/52 168/64 171/50
f 172/52 169/65 168/64
f 136/54 169/65 172/52
f 136/54 183/56 169/65
f 170/66 169/65 183/56
f 170/66 168/64 169/65
f 166/67 168/64 170/66
f 166/67 167/62 168/64
f 133/68 167/62 166/67
f 133/68 132/60 167/62
f 134/58 132/60 133/68
f 133/68 183/56 134/58
f 166/67 183/56 133/68
f 166/67 170/66 183/56
f 18/12 7/6 5/10
f 18/12 22/7 7/6
f 21/14 22/7 18/12
f 21/14 26/69 22/7
f 25/16 26/69 21/14
f 25/16 110/70 26/69
f 115/18 110/70 25/16
f 115/18 111/71 110/70
f 114/20 111/71 115/18
f 114/20 126/24 111/71
f 124/22 126/24 114/20
f 123/21 249/38 250/23
f 123/21 129/72 249/38
f 130/73 129/72 123/21
f 130/73 125/74 129/72
f 106/75 125/74 130/73
f 106/75 105/76 125/74
f 107/77 105/76 106/75
f 107/77 104/78 105/76
f 16/79 104/78 107/77
f 16/79 12/80 104/78
f 19/81 12/80 16/79
f 19/81 20/82 12/80
f 14/83 20/82 19/81
f 14/83 4/11 20/82
f 11/13 4/11 14/83
f 14/83 9/84 11/13
f 15/85 9/84 14/83
f 15/85 16/79 9/84
f 17/86 16/79 15/85
f 17/86 233/87 16/79
f 28/88 233/87 17/86
f 28/88 33/89 233/87
f 35/90 33/89 28/88
f 35/90 40/91 33/89
f 44/92 40/91 35/90
f 44/92 45/93 40/91
f 53/94 45/93 44/92
f 53/94 52/95 45/93
f 55/96 52/95 53/94
f 55/96 51/97 52/95
f 56/98 51/97 55/96
f 56/98 46/99 51/97
f 54/100 46/99 56/98
f 54/100 49/101 46/99
f 50/102 49/101 54/100
f 50/102 42/103 49/101
f 39/104 42/103 50/102
f 39/104 30/105 42/103
f 38/106 30/105 39/104
f 38/106 27/107 30/105
f 35/90 27/107 38/106
f 35/90 28/88 27/107
f 15/85 27/107 28/88
f 15/85 30/105 27/107
f 29/108 30/105 15/85
f 29/108 42/103 30/105
f 41/109 42/103 29/108
f 41/109 49/101 42/103
f 37/110 49/101 41/109
f 37/110 46/99 49/101
f 36/111 46/99 37/110
f 36/111 47/112 46/99
f 45/93 47/112 36/111
f 45/93 52/95 47/112
f 51/97 47/112 52/95
f 51/97 46/99 47/112
f 28/88 17/86 15/85
f 9/84 10/15 11/13
f 9/84 16/79 10/15
f 116/17 10/15 16/79
f 16/79 107/77 116/17
f 108/19 116/17 107/77
f 107/77 106/75 108/19
f 123/21 108/19 106/75
f 106/75 130/73 123/21
f 6/9 20/82 4/11
f 6/9 3/113 20/82
f 8/8 3/113 6/9
f 8/8 1/114 3/113
f 3/115 1/113 2/114
f 2/115 12/80 3/113
f 104/78 12/80 2/115
f 2/115 117/116 104/78
f 113/117 117/116 2/115
f 113/117 112/118 117/116
f 248/119 117/116 112/118
f 248/119 105/76 117/116
f 125/74 105/76 248/119
f 248/119 122/120 125/74
f 119/121 122/120 248/119
f 119/121 121/4 122/120
f 120/122 121/4 119/121
f 120/122 253/1 121/4
f 254/32 253/1 120/122
f 120/122 127/26 254/32
f 119/121 127/26 120/122
f 119/121 131/123 127/26
f 126/24 127/26 131/123
f 12/80 20/82 3/113
f 105/76 104/78 117/116
f 2/115 1/114 113/117
f 248/119 112/118 119/121
f 127/26 187/28 254/32
f 233/87 19/81 16/79
f 233/87 14/83 19/81
f 13/124 14/83 233/87
f 13/124 15/85 14/83
f 29/108 15/85 13/124
f 13/124 32/125 29/108
f 31/126 32/125 13/124
f 31/126 41/109 32/125
f 37/110 41/109 31/126
f 31/126 34/127 37/110
f 233/87 34/127 31/126
f 233/87 33/89 34/127
f 40/91 34/127 33/89
f 40/91 36/111 34/127
f 45/93 36/111 40/91
f 31/126 13/124 233/87
f 34/127 36/111 37/110
f 29/108 32/125 41/109
f 38/106 44/92 35/90
f 38/106 43/128 44/92
f 39/104 43/128 38/106
f 39/104 48/129 43/128
f 50/102 48/129 39/104
f 50/102 234/130 48/129
f 236/131 234/130 50/102
f 236/131 55/96 234/130
f 54/100 55/96 236/131
f 54/100 56/98 55/96
f 54/100 236/131 50/102
f 43/128 53/94 44/92
f 43/128 235/132 53/94
f 48/129 235/132 43/128
f 48/129 234/130 235/132
f 55/96 235/132 234/130
f 55/96 53/94 235/132
f 121/4 125/74 122/120
f 121/4 128/3 125/74
f 129/72 125/74 128/3
f 128/3 152/36 129/72
f 252/2 152/36 128/3
f 249/38 129/72 152/36
f 159/39 156/43 146/40
f 159/39 157/37 156/43
f 151/35 156/43 157/37
f 151/35 162/45 156/43
f 158/34 162/45 151/35
f 158/34 161/133 162/45
f 139/134 161/133 158/34
f 139/134 142/49 161/133
f 143/135 142/49 139/134
f 143/135 144/51 142/49
f 258/136 144/51 143/135
f 258/136 179/137 144/51
f 145/138 144/51 179/137
f 145/138 174/139 144/51
f 189/140 174/139 145/138
f 145/138 138/141 189/140
f 139/134 138/141 145/138
f 139/134 140/33 138/141
f 158/34 140/33 139/134
f 138/141 140/33 141/31
f 162/45 142/49 164/47
f 162/45 161/133 142/49
f 155/63 154/46 165/48
f 155/63 153/61 154/46
f 256/142 154/46 153/61
f 256/142 147/42 154/46
f 257/143 147/42 256/142
f 257/143 255/144 147/42
f 149/145 147/42 255/144
f 149/145 148/41 147/42
f 188/146 148/41 149/145
f 149/145 184/147 188/146
f 153/61 184/147 149/145
f 153/61 176/59 184/147
f 181/148 184/147 176/59
f 176/59 178/149 181/148
f 177/57 178/149 176/59
f 177/57 173/150 178/149
f 135/55 173/150 177/57
f 135/55 137/53 173/150
f 144/51 173/150 137/53
f 144/51 174/139 173/150
f 175/151 173/150 174/139
f 175/151 178/149 173/150
f 182/152 178/149 175/151
f 182/152 181/148 178/149
f 147/42 163/44 154/46
f 255/144 153/61 149/145
f 255/144 191/143 153/61
f 256/142 153/61 191/143
f 179/137 139/134 145/138
f 179/137 180/136 139/134
f 143/135 139/134 180/136
f 58/153 59/154 57/155
f 58/153 60/156 59/154
f 63/157 60/156 58/153
f 63/157 61/158 60/156
f 70/159 61/158 63/157
f 70/159 69/160 61/158
f 66/161 69/160 70/159
f 66/161 68/162 69/160
f 67/163 68/162 66/161
f 67/163 64/164 68/162
f 241/165 64/164 67/163
f 241/165 62/166 64/164
f 65/167 62/166 241/165
f 65/167 59/154 62/166
f 57/155 59/154 65/167
f 65/167 238/168 57/155
f 78/169 238/168 65/167
f 78/169 75/170 238/168
f 79/171 75/170 78/169
f 79/171 76/172 75/170
f 72/173 76/172 79/171
f 72/173 74/174 76/172
f 71/175 74/174 72/173
f 71/175 240/176 74/174
f 73/177 240/176 71/175
f 73/177 239/178 240/176
f 241/165 239/178 73/177
f 241/165 67/163 239/178
f 66/161 239/178 67/163
f 66/161 240/176 239/178
f 70/159 240/176 66/161
f 70/159 242/179 240/176
f 63/157 242/179 70/159
f 63/157 237/180 242/179
f 58/153 237/180 63/157
f 58/153 57/155 237/180
f 238/168 237/180 57/155
f 238/168 77/181 237/180
f 75/170 77/181 238/168
f 75/170 74/174 77/181
f 76/172 74/174 75/170
f 60/156 62/166 59/154
f 60/156 61/158 62/166
f 64/164 62/166 61/158
f 61/158 69/160 64/164
f 68/162 64/164 69/160
f 72/173 73/177 71/175
f 72/173 79/171 73/177
f 241/165 73/177 79/171
f 79/171 65/167 241/165
f 78/169 65/167 79/171
f 74/174 237/180 77/181
f 74/174 242/179 237/180
f 240/176 242/179 74/174
f 81/182 82/183 80/184
f 81/182 87/185 82/183
f 86/186 87/185 81/182
f 86/186 99/187 87/185
f 98/188 99/187 86/186
f 98/188 94/189 99/187
f 93/190 94/189 98/188
f 93/190 92/191 94/189
f 91/192 92/191 93/190
f 91/192 95/193 92/191
f 88/194 95/193 91/192
f 88/194 83/195 95/193
f 84/196 83/195 88/194
f 84/196 85/197 83/195
f 86/186 85/197 84/196
f 86/186 81/182 85/197
f 80/184 85/197 81/182
f 80/184 83/195 85/197
f 90/198 83/195 80/184
f 90/198 95/193 83/195
f 247/199 95/193 90/198
f 247/199 243/200 95/193
f 100/201 243/200 247/199
f 100/201 244/202 243/200
f 101/203 244/202 100/201
f 101/203 94/189 244/202
f 99/187 94/189 101/203
f 101/203 87/185 99/187
f 245/204 87/185 101/203
f 245/204 89/205 87/185
f 103/206 89/205 245/204
f 103/206 246/207 89/205
f 247/199 246/207 103/206
f 247/199 90/198 246/207
f 89/205 246/207 90/198
f 90/198 82/183 89/205
f 80/184 82/183 90/198
f 89/205 82/183 87/185
f 84/196 98/188 86/186
f 84/196 97/208 98/188
f 88/194 97/208 84/196
f 88/194 96/209 97/208
f 91/192 96/209 88/194
f 91/192 93/190 96/209
f 97/208 96/209 93/190
f 93/190 98/188 97/208
f 94/189 243/200 244/202
f 94/189 92/191 243/200
f 95/193 243/200 92/191
f 101/203 103/206 245/204
f 101/203 102/210 103/206
f 100/201 102/210 101/203
f 100/201 247/199 102/210
f 103/206 102/210 247/199
usemtl mat_1
f 24/211 1/212 8/213
f 8/211 23/214 24/212
f 22/211 24/212 23/214
f 22/211 26/213 24/212
f 110/215 24/212 26/213
f 110/215 109/216 24/212
f 111/217 109/216 110/215
f 111/217 118/218 109/216
f 126/219 118/218 111/217
f 126/219 131/220 118/218
f 119/219 118/218 131/220
f 119/219 112/217 118/218
f 109/216 118/218 112/217
f 112/217 113/215 109/216
f 24/212 109/216 113/215
f 113/215 1/213 24/212
usemtl mat_2
f 181/221 185/222 184/223
f 181/221 190/224 185/222
f 182/225 190/224 181/221
f 182/225 175/221 190/224
f 186/222 190/224 175/221
f 175/221 174/223 186/222
usemtl mat_3
f 191/226 206/227 256/228
f 191/226 204/229 206/227
f 207/227 204/229 191/226
f 207/227 200/230 204/229
f 201/231 200/230 207/227
f 201/231 197/232 200/230
f 203/233 197/232 201/231
f 203/233 198/234 197/232
f 195/232 198/234 203/233
f 195/232 199/235 198/234
f 262/236 199/235 195/232
f 262/236 197/232 199/235
f 200/230 197/232 262/236
f 262/236 265/237 200/230
f 212/238 265/237 262/236
f 212/238 263/239 265/237
f 210/240 263/239 212/238
f 210/240 208/238 263/239
f 211/241 208/238 210/240
f 210/240 212/238 211/241
f 197/232 198/234 199/235
f 201/231 195/232 203/233
f 201/231 196/230 195/232
f 206/227 196/230 201/231
f 206/227 204/229 196/230
f 194/242 196/230 204/229
f 194/242 263/239 196/230
f 202/243 263/239 194/242
f 202/243 205/242 263/239
f 193/244 205/242 202/243
f 193/244 192/245 205/242
f 194/242 192/245 193/244
f 194/242 204/229 192/245
f 205/242 192/245 204/229
f 204/229 200/230 205/242
f 263/239 205/242 200/230
f 200/230 265/237 263/239
f 194/242 193/244 202/243
f 196/230 262/236 195/232
f 196/230 264/237 262/236
f 263/239 264/237 196/230
f 263/239 208/238 264/237
f 262/236 264/237 208/238
f 208/238 209/246 262/236
f 211/247 209/246 208/238
f 211/247 212/238 209/246
f 262/236 209/246 212/238
f 206/227 257/248 256/228
f 206/227 201/231 257/248
f 207/227 257/248 201/231
f 207/227 255/228 257/248
f 191/226 255/228 207/227
f 143/249 259/250 258/251
f 143/249 180/252 259/250
f 260/253 259/250 180/252
f 260/253 213/254 259/250
f 227/255 213/254 260/253
f 227/255 225/256 213/254
f 222/257 225/256 227/255
f 222/257 224/255 225/256
f 223/258 224/255 222/257
f 223/258 228/259 224/255
f 227/255 228/259 223/258
f 227/255 260/253 228/259
f 224/255 228/259 260/253
f 260/253 215/254 224/255
f 261/250 215/254 260/253
f 261/250 214/260 215/254
f 258/251 214/260 261/250
f 258/251 259/250 214/260
f 213/254 214/260 259/250
f 213/254 229/261 214/260
f 220/262 229/261 213/254
f 220/262 218/263 229/261
f 216/261 218/263 220/262
f 216/261 217/264 218/263
f 219/265 217/264 216/261
f 219/265 229/261 217/264
f 214/260 229/261 219/265
f 219/265 216/261 214/260
f 215/254 214/260 216/261
f 216/261 220/262 215/254
f 221/266 215/254 220/262
f 221/266 225/256 215/254
f 268/267 225/256 221/266
f 268/267 269/268 225/256
f 230/269 269/268 268/267
f 230/269 266/267 269/268
f 225/256 269/268 266/267
f 266/267 226/266 225/256
f 220/262 226/266 266/267
f 220/262 213/254 226/266
f 225/256 226/266 213/254
f 224/255 215/254 225/256
f 218/263 217/264 229/261
f 227/255 223/258 222/257
f 180/252 261/250 260/253
f 180/252 179/249 261/250
f 258/251 261/250 179/249
f 220/262 268/267 221/266
f 220/262 267/270 268/267
f 266/267 267/270 220/262
f 266/267 230/271 267/270
f 268/267 267/270 230/271
usemtl mat_4
f 189/272 186/273 174/274
f 189/272 138/275 186/273
f 231/276 186/273 138/275
f 231/276 190/277 186/273
f 232/278 190/277 231/276
f 232/278 271/276 190/277
f 270/279 271/276 232/278
f 270/279 150/280 271/276
f 148/275 271/276 150/280
f 148/275 185/273 271/276
f 188/272 185/273 148/275
f 188/272 184/274 185/273
f 271/276 185/273 190/277
f 231/276 270/279 232/278
f 231/276 141/280 270/279
f 138/275 141/280 231/276
