# Blender v2.66 (sub 1) OBJ File: 'BR_Wooper.blend'
# www.blender.org
mtllib BR_Wooper.mtl
o upah
v -0.611871 0.530942 -0.762854
v -0.747241 0.145421 -0.762854
v -0.582848 0.145421 -0.417941
v 0.000000 -0.077576 -0.334601
v 0.000000 0.133101 -0.282700
v -0.286808 0.147605 -0.303332
v 0.000000 0.368416 -0.334601
v -0.477259 0.464035 -0.436916
v 0.274751 -0.353646 -0.580762
v 0.564145 -0.218011 -0.762854
v 0.445760 -0.168202 -0.436916
v -0.564145 -0.218011 -0.762854
v 0.000000 -0.352749 -0.517210
v 0.000000 -0.255759 -0.452099
v 0.113835 -0.375081 -0.573946
v 0.000000 -0.428469 -0.762854
v 0.000000 -0.414461 -0.630616
v 0.286807 0.147605 -0.303332
v -0.274751 -0.353646 -0.580762
v -0.445761 -0.168202 -0.436916
v 0.582848 0.145420 -0.417941
v 0.477259 0.464035 -0.436916
v 0.000000 0.551591 -0.438818
v 0.000000 0.721318 -0.762854
v 0.747240 0.145420 -0.762854
v 0.611871 0.530942 -0.762854
v 0.145306 -0.790484 -0.538563
v 0.000000 -0.789102 -0.661387
v 0.179375 -0.775265 -0.293597
v 0.223548 -0.784929 -0.410281
v -0.179375 -0.775265 -0.293597
v 0.000000 -0.757814 -0.191108
v -0.145306 -0.790484 -0.538563
v -0.223548 -0.784929 -0.410281
v 0.000000 -1.237700 -0.820039
v -0.409361 -1.282690 -0.398233
v -0.328471 -1.290520 -0.151659
v 0.266084 -1.260150 -0.650491
v 0.409361 -1.282690 -0.398233
v -0.266084 -1.260150 -0.650491
v 0.000000 -1.281960 -0.005687
v 0.328471 -1.290520 -0.151659
v 0.334589 -1.779580 -0.748547
v 0.000000 -1.752650 -0.917973
v -0.334589 -1.779580 -0.748547
v -0.413038 -1.862210 -0.127952
v -0.514753 -1.839250 -0.418615
v 0.514753 -1.839250 -0.418615
v 0.000000 -1.872950 0.011835
v 0.413038 -1.862210 -0.127952
v -0.380128 -2.207140 -0.462555
v -0.247083 -2.175360 -0.716740
v 0.000000 -2.154640 -0.831349
v 0.000000 -2.228270 -0.106818
v 0.000000 -2.334640 -0.485908
v -0.305015 -2.223970 -0.227284
v 0.442034 0.187991 -0.378955
v 0.490894 0.091196 -0.379353
v 0.317048 0.164253 -0.373563
v 0.358770 0.004729 -0.379029
v 0.298630 -0.118321 -0.253193
v 0.155852 0.088598 -0.246163
v 0.547687 -0.137169 -0.258392
v 0.135170 0.068090 -0.128043
v 0.276938 0.424086 -0.245109
v 0.558429 -0.131142 -0.012114
v 0.190931 0.081182 -0.000783
v 0.310573 -0.124523 -0.007117
v 0.301301 -0.139740 -0.135770
v 0.577704 -0.159657 -0.141787
v 0.885812 0.470117 -0.015241
v 0.771781 0.733132 -0.008879
v 0.494906 0.702576 -0.001174
v 0.915741 0.453305 -0.145066
v 0.755235 0.738314 -0.254833
v 0.794939 0.788176 -0.137519
v 0.831653 0.482891 -0.259989
v 0.489430 0.699448 -0.247568
v 0.471859 0.751545 -0.128542
v -0.317048 0.164254 -0.373563
v -0.490894 0.091196 -0.379353
v -0.442034 0.187992 -0.378956
v -0.155853 0.088599 -0.246161
v -0.298631 -0.118319 -0.253190
v -0.358771 0.004730 -0.379028
v -0.547688 -0.137168 -0.258391
v -0.782254 0.185387 -0.262029
v -0.135171 0.068092 -0.128041
v -0.574838 0.420490 -0.341664
v -0.276939 0.424088 -0.245111
v -0.190933 0.081186 -0.000781
v -0.338137 0.443658 -0.000126
v -0.558431 -0.131138 -0.012112
v -0.819576 0.207940 -0.016303
v -0.249100 0.423694 -0.126504
v -0.310575 -0.124519 -0.007114
v -0.301303 -0.139738 -0.135767
v -0.577706 -0.159654 -0.141785
v -0.838675 0.181705 -0.145939
v -0.771781 0.733133 -0.008879
v -0.915742 0.453305 -0.145066
v -0.794939 0.788177 -0.137519
v -0.755235 0.738315 -0.254833
v -0.586509 -0.207694 -1.089160
v -0.464291 -0.141928 -1.386990
v 0.000000 -0.286724 -1.386990
v 0.000000 -0.395010 -1.089160
v 0.464292 -0.141928 -1.386990
v 0.000000 0.693216 -1.089160
v 0.586509 0.505899 -1.089160
v 0.464292 0.407179 -1.386990
v -0.464291 0.407180 -1.386990
v -0.586509 0.505899 -1.089160
v 0.567010 0.135513 -1.386990
v 0.716920 0.129256 -1.086070
v 0.587578 -0.208388 -1.082980
v -0.716267 0.129574 -1.089160
v 0.000000 0.551975 -1.386990
v -0.432086 0.341944 -1.670200
v -0.417630 0.346924 -1.840050
v -0.485066 0.145420 -1.840050
v -0.484161 0.145351 -1.670200
v 0.432086 -0.051242 -1.670200
v 0.484161 0.145351 -1.670200
v -0.432086 -0.051241 -1.670200
v 0.432086 0.341944 -1.670200
v 0.000000 0.474605 -1.840050
v -0.417630 -0.042901 -1.840050
v 0.000000 -0.183764 -1.840050
v 0.000000 -0.193703 -1.670200
v 0.000000 0.484406 -1.670200
v 0.816646 0.148801 -3.671950
v 0.380327 0.148800 -3.896240
v 0.276514 0.433338 -3.896250
v -0.276514 0.433338 -3.896250
v -0.380328 0.148800 -3.896240
v -0.816647 0.148801 -3.671950
v -0.996473 0.992529 -2.561260
v -1.215160 0.160399 -2.471640
v -0.930042 0.160401 -2.134310
v -0.707034 0.910096 -2.186730
v -0.900489 -0.615125 -2.901600
v -1.285840 0.042119 -2.907500
v -1.285840 0.042119 -2.907500
v -1.285840 0.042119 -2.907500
v -1.163970 0.149616 -3.329140
v -1.177530 0.621570 -2.960820
v 0.930042 0.160401 -2.134310
v 1.215160 0.160399 -2.471640
v 0.996473 0.992529 -2.561260
v 1.177530 0.621570 -2.960820
v 0.707034 0.910096 -2.186730
v 0.000000 -0.728117 -2.134310
v 0.000000 -0.446157 -1.939450
v 1.163970 0.149616 -3.329140
v 0.900489 -0.615125 -2.901610
v 0.818883 -0.564920 -3.273220
v 0.657639 -0.404933 -2.134310
v 0.412100 -0.238803 -1.939450
v -0.657639 -0.404933 -2.134310
v 0.582797 0.150197 -1.939460
v 0.443208 0.644573 -1.965070
v -0.826690 -0.572445 -2.444110
v 0.000000 -0.954665 -2.416240
v 0.826690 -0.572445 -2.444110
v 0.000000 -1.007200 -2.873740
v 0.000000 -0.925831 -3.245360
v 0.268932 -0.193719 -3.851020
v 0.586032 -0.453704 -3.599090
v 0.000000 -0.721037 -3.546870
v -0.268932 -0.193719 -3.851020
v 0.000000 -0.325425 -3.851020
v -0.818884 -0.564920 -3.273220
v -0.586032 -0.453704 -3.599090
v -0.720880 0.632680 -3.700190
v -0.931296 0.871583 -3.413180
v -0.560627 1.246820 -3.420920
v 0.720879 0.632680 -3.700200
v 0.000000 0.597995 -3.896250
v 0.000000 1.080060 -3.699230
v -1.285840 0.275859 -2.907500
v -1.285840 0.275859 -2.907500
v -1.285840 0.275859 -2.907500
v -1.283290 0.158990 -2.812560
v -1.283290 0.158990 -2.812560
v 0.560626 1.246820 -3.420920
v 0.000000 1.369620 -3.428210
v 0.000000 0.148800 -3.942300
v 0.931295 0.871583 -3.413180
v 0.633830 1.349060 -2.995510
v -0.633830 1.349060 -2.995510
v 0.000000 0.876831 -1.978360
v 1.030540 0.998107 -2.981600
v -1.030540 0.998107 -2.981600
v 0.000008 1.510940 -3.009360
v 1.283290 0.158989 -3.002440
v 1.283290 0.158989 -3.002440
v 1.522960 0.157183 -3.535420
v 1.561700 0.157183 -3.567210
v 1.553290 0.112518 -3.525860
v 1.550350 0.112518 -2.294710
v 1.475230 0.067854 -2.902490
v 1.475230 0.067854 -2.902490
v 1.550350 0.201847 -2.294710
v 1.552360 0.157183 -2.260560
v 1.578400 0.157183 -2.285810
v 1.475230 0.246512 -2.902490
v 1.475230 0.246512 -2.902490
v 1.410060 0.157183 -2.826410
v 1.578170 0.157183 -3.518590
v 1.523100 0.157183 -2.282300
v 1.410060 0.157183 -2.992180
v 1.553290 0.201847 -3.525860
v 1.410350 0.063014 -2.902030
v 1.410350 0.251352 -2.902030
v 1.835900 0.189436 -2.472570
v 1.759570 0.221690 -2.903930
v 1.759570 0.221690 -2.903930
v 1.759570 0.221690 -2.903930
v 1.759570 0.221690 -2.903930
v 1.715230 0.157183 -2.848460
v 1.863670 0.157183 -3.412060
v 1.847190 0.157183 -3.431130
v 1.843180 0.189436 -3.408430
v 1.843180 0.124929 -3.408430
v 1.820530 0.157183 -3.414490
v 1.815840 0.096058 -2.904260
v 1.815840 0.096058 -2.904260
v 1.759570 0.092675 -2.903930
v 1.759570 0.092675 -2.903930
v 1.759570 0.092675 -2.903930
v 1.759570 0.092675 -2.903930
v 1.814250 0.157183 -2.854600
v 2.016320 0.110446 -2.892460
v 1.719000 0.087438 -2.903660
v 1.715230 0.157183 -2.958760
v 1.860010 0.157183 -2.469260
v 1.835900 0.124929 -2.472570
v 1.816950 0.157183 -2.453380
v 1.719000 0.226927 -2.903660
v 1.847180 0.157183 -2.443990
v 1.815840 0.218307 -2.904260
v 1.815840 0.218307 -2.904260
v 2.016320 0.203919 -2.892460
v 2.014820 0.157183 -2.930430
v 2.056610 0.157183 -2.889710
v 2.014820 0.157183 -2.854500
v -1.475230 0.067853 -2.902490
v -1.475230 0.067853 -2.902490
v -1.410060 0.157182 -2.992180
v -1.475230 0.246511 -2.902490
v -1.475230 0.246511 -2.902490
v -1.553300 0.201846 -3.525860
v -1.561700 0.157182 -3.567210
v -1.578170 0.157182 -3.518590
v -1.522960 0.157182 -3.535420
v -1.536320 0.157182 -2.986620
v -1.538310 0.242639 -2.902860
v -1.578400 0.157183 -2.285820
v -1.552360 0.157183 -2.260570
v -1.550350 0.201847 -2.294710
v -1.536320 0.157182 -2.833440
v -1.538310 0.071725 -2.902860
v -1.550350 0.112518 -2.294710
v -1.523100 0.157183 -2.282300
v -1.553300 0.112517 -3.525860
v -1.814250 0.157182 -2.953910
v -1.759570 0.221689 -2.903930
v -1.759570 0.221689 -2.903930
v -1.759570 0.221689 -2.903930
v -1.759570 0.221689 -2.903930
v -1.843180 0.189436 -3.408430
v -1.815840 0.218307 -2.904260
v -1.815840 0.218307 -2.904260
v -1.814250 0.157182 -2.854600
v -2.014820 0.157182 -2.854500
v -2.056610 0.157182 -2.889710
v -2.016320 0.110446 -2.892460
v -1.759570 0.092675 -2.903930
v -1.759570 0.092675 -2.903930
v -1.759570 0.092675 -2.903930
v -1.759570 0.092675 -2.903930
v -1.820530 0.157182 -3.414490
v -1.863670 0.157182 -3.412060
v -2.016320 0.203919 -2.892460
v -2.014820 0.157182 -2.930430
v -1.835900 0.124929 -2.472570
v -1.860010 0.157182 -2.469260
v -1.816950 0.157183 -2.453380
v -1.835900 0.189436 -2.472570
v -1.843180 0.124929 -3.408430
v -1.847190 0.157182 -3.431130
v -1.847190 0.157183 -2.443990
v -1.815840 0.096058 -2.904260
v -1.815840 0.096058 -2.904260
v -0.464077 1.320980 -2.592520
v 0.000008 1.464240 -2.603630
v -0.113835 -0.375081 -0.573946
v 0.380128 -2.207140 -0.462555
v 0.247083 -2.175360 -0.716740
v 0.305015 -2.223970 -0.227284
v 0.782253 0.185386 -0.262027
v 0.574838 0.420489 -0.341661
v 0.338134 0.443655 -0.000124
v 0.819574 0.207936 -0.016300
v 0.249098 0.423692 -0.126502
v 0.838673 0.181702 -0.145937
v -0.494906 0.702577 -0.001174
v -0.885812 0.470118 -0.015241
v -0.831653 0.482892 -0.259989
v -0.489430 0.699448 -0.247568
v -0.471859 0.751545 -0.128542
v -0.567010 0.135514 -1.386990
v 0.417630 -0.042901 -1.840050
v 0.485066 0.145420 -1.840050
v 0.417630 0.346924 -1.840050
v -0.412099 -0.238803 -1.939450
v -0.582796 0.150197 -1.939460
v -0.443208 0.644573 -1.965070
v 1.285840 0.275860 -2.907500
v 1.285840 0.275860 -2.907500
v 1.285840 0.275860 -2.907500
v 1.285840 0.042120 -2.907500
v 1.285840 0.042120 -2.907500
v 1.285840 0.042120 -2.907500
v 1.283290 0.158990 -2.812560
v 1.283290 0.158990 -2.812560
v -1.283290 0.158989 -3.002440
v -1.283290 0.158989 -3.002440
v -1.410350 0.063013 -2.902030
v -1.410060 0.157183 -2.826410
v -1.410350 0.251351 -2.902030
v 1.536310 0.157183 -2.833440
v 1.536310 0.157183 -2.986620
v 1.538300 0.071726 -2.902860
v 1.538300 0.242640 -2.902860
v 1.814250 0.157183 -2.953910
v -1.715230 0.157182 -2.958760
v -1.719000 0.226927 -2.903660
v -1.715230 0.157183 -2.848460
v -1.719000 0.087438 -2.903660
v 0.000008 1.194730 -2.181330
v 0.464092 1.320980 -2.592520
vt 0.646154 0.641688
vt 0.544999 0.600189
vt 0.595941 0.601534
vt 0.644912 0.617928
vt 0.750532 0.500000
vt 0.702900 0.500000
vt 0.727764 0.383969
vt 0.727764 0.616031
vt 0.645480 0.569728
vt 0.641709 0.500000
vt 0.586925 0.500000
vt 0.645480 0.430272
vt 0.563358 0.391627
vt 0.644912 0.358299
vt 0.550406 0.362846
vt 0.644912 0.318332
vt 0.552908 0.357149
vt 0.640709 0.325703
vt 0.570190 0.387122
vt 0.642336 0.362149
vt 0.593773 0.394952
vt 0.644894 0.382291
vt 0.644912 0.382071
vt 0.696016 0.394952
vt 0.697311 0.398466
vt 0.730513 0.500000
vt 0.774711 0.392248
vt 0.835107 0.500000
vt 0.843758 0.328107
vt 0.917774 0.499998
vt 0.843758 0.671893
vt 0.774711 0.607752
vt 0.648808 0.726110
vt 0.501799 0.659884
vt 0.417759 0.500000
vt 0.491079 0.500000
vt 0.544999 0.399811
vt 0.595941 0.398466
vt 0.646154 0.358311
vt 0.648808 0.273889
vt 0.865193 0.257739
vt 0.648807 0.204572
vt 0.501799 0.340116
vt 0.458239 0.299016
vt 0.358847 0.500000
vt 0.447141 0.281074
vt 0.345186 0.500000
vt 0.366346 0.500000
vt 0.447141 0.718925
vt 0.460196 0.699086
vt 0.646003 0.782983
vt 0.489117 0.642475
vt 0.645791 0.698542
vt 0.645791 0.592465
vt 0.719782 0.567226
vt 0.645791 0.500000
vt 0.762599 0.500000
vt 0.719782 0.432774
vt 0.771619 0.324741
vt 0.645791 0.301458
vt 0.646003 0.217017
vt 0.489117 0.357525
vt 0.460196 0.300914
vt 0.419600 0.500000
vt 0.556723 0.565382
vt 0.522474 0.500000
vt 0.556723 0.434618
vt 0.645791 0.407535
vt 0.745163 0.351243
vt 0.738651 0.357409
vt 0.712980 0.387122
vt 0.559312 0.500000
vt 0.556727 0.500000
vt 0.593773 0.605048
vt 0.532538 0.500000
vt 0.570190 0.612878
vt 0.504379 0.500000
vt 0.553089 0.642591
vt 0.495679 0.500000
vt 0.550406 0.637154
vt 0.515136 0.566797
vt 0.563358 0.608373
vt 0.540590 0.500000
vt 0.515136 0.433203
vt 0.509562 0.472325
vt 0.499321 0.500000
vt 0.509562 0.527675
vt 0.401900 0.500000
vt 0.401541 0.535327
vt 0.285246 0.500000
vt 0.279409 0.564690
vt 0.151340 0.500000
vt 0.144337 0.581345
vt 0.046807 0.500000
vt 0.041420 0.560070
vt 0.000000 0.500000
vt 0.033156 0.592416
vt 0.028779 0.574155
vt 0.122850 0.600417
vt 0.027661 0.500000
vt 0.120058 0.500000
vt 0.122850 0.399583
vt 0.271513 0.420143
vt 0.273548 0.400477
vt 0.402986 0.445651
vt 0.279409 0.435310
vt 0.401541 0.464673
vt 0.405498 0.456391
vt 0.273739 0.500000
vt 0.271513 0.579857
vt 0.273547 0.599523
vt 0.128821 0.625146
vt 0.644912 0.641701
vt 0.745163 0.648757
vt 0.644912 0.681668
vt 0.640792 0.674138
vt 0.738651 0.642591
vt 0.712980 0.612878
vt 0.642336 0.637851
vt 0.644894 0.617708
vt 0.696016 0.605048
vt 0.697311 0.601534
vt 0.733062 0.500000
vt 0.515369 0.500000
vt 0.410036 0.500000
vt 0.405498 0.543609
vt 0.402985 0.554349
vt 0.144337 0.418655
vt 0.128821 0.374854
vt 0.033156 0.407584
vt 0.028779 0.425845
vt 0.041420 0.439929
vt 0.458239 0.700983
vt 0.648807 0.795427
vt 0.618050 0.812611
vt 0.648441 0.811992
vt 0.678831 0.812611
vt 0.768730 0.786280
vt 0.833743 0.726415
vt 0.866644 0.750544
vt 0.865193 0.742261
vt 0.618050 0.187389
vt 0.648441 0.188008
vt 0.678832 0.187389
vt 0.768730 0.213720
vt 0.866644 0.249456
vt 0.833743 0.273585
vt 0.931318 0.363701
vt 0.887955 0.500000
vt 0.771619 0.675259
vt 0.931318 0.636299
vt 0.963253 0.500000
vt 0.630812 0.380655
vt 0.649810 0.422920
vt 0.655982 0.392533
vt 0.608327 0.412776
vt 0.571428 0.366847
vt 0.576329 0.427397
vt 0.565580 0.359549
vt 0.570759 0.426748
vt 0.572995 0.364236
vt 0.574717 0.424494
vt 0.628208 0.453581
vt 0.624803 0.467138
vt 0.717274 0.439440
vt 0.630136 0.462110
vt 0.717376 0.432671
vt 0.716441 0.360246
vt 0.788981 0.381011
vt 0.799088 0.316388
vt 0.802528 0.385282
vt 0.812054 0.306736
vt 0.797740 0.312366
vt 0.724974 0.277366
vt 0.729346 0.284643
vt 0.661169 0.300747
vt 0.789794 0.379679
vt 0.722465 0.417793
vt 0.654347 0.296103
vt 0.655305 0.309820
vt 0.732668 0.297810
vt 0.630812 0.619345
vt 0.655982 0.607467
vt 0.649810 0.577080
vt 0.655305 0.690180
vt 0.571428 0.633153
vt 0.654347 0.703897
vt 0.565581 0.640451
vt 0.661170 0.699254
vt 0.572996 0.635765
vt 0.722466 0.582207
vt 0.628209 0.546419
vt 0.717274 0.560561
vt 0.624804 0.532863
vt 0.630137 0.537891
vt 0.576330 0.572603
vt 0.608327 0.587224
vt 0.717377 0.567329
vt 0.802528 0.614718
vt 0.789794 0.620321
vt 0.797740 0.687634
vt 0.729346 0.715357
vt 0.724974 0.722634
vt 0.732668 0.702190
vt 0.716441 0.639754
vt 0.799088 0.683612
vt 0.788981 0.618990
vt 0.570760 0.573252
vt 0.574717 0.575507
vt 0.812054 0.693264
vt 0.906250 -0.190104
vt 0.000000 0.178571
vt 1.177080 0.208333
vt 0.005208 -0.187500
vt 1.053570 0.537946
vt 0.000000 0.495536
vt 0.726563 0.847656
vt -0.000001 0.839823
vt 0.726563 1.074220
vt -0.000001 1.066310
vt -0.257813 1.035160
vt 0.789063 0.908203
vt 2.437500 1.302730
vt -1.140630 0.744141
vt -2.343750 0.892578
vt -0.040962 0.557011
vt 1.203500 0.481068
vt -0.029658 0.479857
vt 1.202090 0.547308
vt 1.522890 0.481472
vt 1.202090 0.414990
vt 1.892680 -0.070893
vt 1.758560 -0.081740
vt 1.902590 -0.100733
vt 2.030810 -0.078668
vt 1.823610 0.421132
vt 1.833400 0.481794
vt 3.003040 0.482498
vt 1.823610 0.542457
vt 2.983870 0.530643
vt 3.209340 0.482733
vt 3.634590 0.923575
vt 3.519360 0.928869
vt 3.654940 0.943414
vt 3.738790 0.926750
vt 3.487440 0.526405
vt 3.495540 0.483015
vt 4.064090 0.485248
vt 4.056820 0.518424
vt 4.260000 0.482839
vt 4.056820 0.452072
vt 3.487440 0.439625
vt 3.597530 0.084526
vt 3.720170 0.081634
vt 3.654940 0.059551
vt 3.501170 0.067753
vt 2.983870 0.434259
vt 1.907200 1.026190
vt 2.029680 1.019840
vt 1.948560 1.062320
vt 1.757850 1.034540
vt -0.040962 0.402704
vt 1.219500 0.491798
vt -0.024962 0.597635
vt -0.013658 0.490111
vt 1.218090 0.584113
vt 1.538890 0.492361
vt 1.923200 1.251500
vt 1.773850 1.263140
vt 1.964560 1.301850
vt 2.045670 1.242640
vt 1.839610 0.577351
vt 1.849400 0.492810
vt 1.839610 0.408270
vt 3.019040 0.493791
vt 2.999870 0.426563
vt 3.225340 0.494118
vt 3.613530 -0.060837
vt 3.517170 -0.084212
vt 3.670940 -0.095644
vt 3.736170 -0.064868
vt 3.503440 0.434042
vt 3.511540 0.494511
vt 4.080090 0.497623
vt 4.072810 0.451388
vt 4.276000 0.494267
vt 4.072810 0.543859
vt 3.503440 0.554981
vt 3.650590 1.108490
vt 3.754790 1.112920
vt 3.670940 1.136140
vt 3.535360 1.115870
vt 2.999870 0.560888
vt 1.908680 -0.277434
vt 2.046810 -0.288271
vt 1.918590 -0.319020
vt 1.774560 -0.292551
vt 1.218090 0.399709
vt -0.024962 0.382587
vt 1.414060 1.000870
vt 0.664063 1.000870
vt 1.218750 1.052950
vt 1.406250 0.940538
vt 0.544643 0.940476
vt 0.000000 1.001300
vt 0.004464 0.939732
vt 0.004464 0.889137
vt 0.732143 0.889137
usemtl mat_0
s 1
f 318/1 317/2 128/3
f 121/4 318/1 128/3
f 23/5 7/6 22/7
f 23/5 8/8 7/6
f 6/9 7/6 8/8
f 6/9 5/10 7/6
f 4/11 5/10 6/9
f 4/11 18/12 5/10
f 11/13 18/12 4/11
f 11/13 21/14 18/12
f 10/15 21/14 11/13
f 10/15 25/16 21/14
f 116/17 25/16 10/15
f 116/17 115/18 25/16
f 108/19 115/18 116/17
f 108/19 114/20 115/18
f 123/21 114/20 108/19
f 123/21 124/22 114/20
f 315/23 124/22 123/21
f 315/23 126/24 124/22
f 316/25 126/24 315/23
f 316/25 127/26 126/24
f 162/27 127/26 316/25
f 162/27 192/28 127/26
f 152/29 192/28 162/27
f 152/29 342/30 192/28
f 141/31 192/28 342/30
f 141/31 319/32 192/28
f 140/33 319/32 141/31
f 140/33 318/1 319/32
f 160/34 318/1 140/33
f 160/34 317/2 318/1
f 153/35 317/2 160/34
f 153/35 154/36 317/2
f 159/37 154/36 153/35
f 159/37 314/38 154/36
f 161/39 314/38 159/37
f 161/39 315/23 314/38
f 316/25 315/23 161/39
f 161/39 162/27 316/25
f 148/40 162/27 161/39
f 148/40 152/29 162/27
f 150/41 152/29 148/40
f 148/40 149/42 150/41
f 158/43 149/42 148/40
f 158/43 165/44 149/42
f 164/45 165/44 158/43
f 164/45 156/46 165/44
f 166/47 156/46 164/45
f 166/47 167/48 156/46
f 142/49 167/48 166/47
f 142/49 173/50 167/48
f 146/51 173/50 142/49
f 146/51 174/52 173/50
f 137/53 174/52 146/51
f 137/53 136/54 174/52
f 135/55 136/54 137/53
f 135/55 188/56 136/54
f 179/57 188/56 135/55
f 179/57 134/58 188/56
f 178/59 134/58 179/57
f 178/59 132/60 134/58
f 155/61 132/60 178/59
f 155/61 169/62 132/60
f 157/63 169/62 155/61
f 157/63 170/64 169/62
f 167/48 170/64 157/63
f 167/48 173/50 170/64
f 174/52 170/64 173/50
f 174/52 171/65 170/64
f 136/54 171/65 174/52
f 136/54 188/56 171/65
f 172/66 171/65 188/56
f 172/66 170/64 171/65
f 168/67 170/64 172/66
f 168/67 169/62 170/64
f 133/68 169/62 168/67
f 133/68 132/60 169/62
f 134/58 132/60 133/68
f 133/68 188/56 134/58
f 168/67 188/56 133/68
f 168/67 172/66 188/56
f 18/12 7/6 5/10
f 18/12 22/7 7/6
f 21/14 22/7 18/12
f 21/14 26/69 22/7
f 25/16 26/69 21/14
f 25/16 110/70 26/69
f 115/18 110/70 25/16
f 115/18 111/71 110/70
f 114/20 111/71 115/18
f 114/20 126/24 111/71
f 124/22 126/24 114/20
f 123/21 314/38 315/23
f 123/21 129/72 314/38
f 130/73 129/72 123/21
f 130/73 125/74 129/72
f 106/75 125/74 130/73
f 106/75 105/76 125/74
f 107/77 105/76 106/75
f 107/77 104/78 105/76
f 16/79 104/78 107/77
f 16/79 12/80 104/78
f 19/81 12/80 16/79
f 19/81 20/82 12/80
f 14/83 20/82 19/81
f 14/83 4/11 20/82
f 11/13 4/11 14/83
f 14/83 9/84 11/13
f 15/85 9/84 14/83
f 15/85 16/79 9/84
f 17/86 16/79 15/85
f 17/86 298/87 16/79
f 28/88 298/87 17/86
f 28/88 33/89 298/87
f 35/90 33/89 28/88
f 35/90 40/91 33/89
f 44/92 40/91 35/90
f 44/92 45/93 40/91
f 53/94 45/93 44/92
f 53/94 52/95 45/93
f 55/96 52/95 53/94
f 55/96 51/97 52/95
f 56/98 51/97 55/96
f 56/98 46/99 51/97
f 54/100 46/99 56/98
f 54/100 49/101 46/99
f 50/102 49/101 54/100
f 50/102 42/103 49/101
f 39/104 42/103 50/102
f 39/104 30/105 42/103
f 38/106 30/105 39/104
f 38/106 27/107 30/105
f 35/90 27/107 38/106
f 35/90 28/88 27/107
f 15/85 27/107 28/88
f 15/85 30/105 27/107
f 29/108 30/105 15/85
f 29/108 42/103 30/105
f 41/109 42/103 29/108
f 41/109 49/101 42/103
f 37/110 49/101 41/109
f 37/110 46/99 49/101
f 36/111 46/99 37/110
f 36/111 47/112 46/99
f 45/93 47/112 36/111
f 45/93 52/95 47/112
f 51/97 47/112 52/95
f 51/97 46/99 47/112
f 28/88 17/86 15/85
f 9/84 10/15 11/13
f 9/84 16/79 10/15
f 116/17 10/15 16/79
f 16/79 107/77 116/17
f 108/19 116/17 107/77
f 107/77 106/75 108/19
f 123/21 108/19 106/75
f 106/75 130/73 123/21
f 6/9 20/82 4/11
f 6/9 3/113 20/82
f 8/8 3/113 6/9
f 8/8 1/114 3/113
f 3/115 1/113 2/114
f 2/115 12/80 3/113
f 104/78 12/80 2/115
f 2/115 117/116 104/78
f 113/117 117/116 2/115
f 113/117 112/118 117/116
f 313/119 117/116 112/118
f 313/119 105/76 117/116
f 125/74 105/76 313/119
f 313/119 122/120 125/74
f 119/121 122/120 313/119
f 119/121 121/4 122/120
f 120/122 121/4 119/121
f 120/122 318/1 121/4
f 319/32 318/1 120/122
f 120/122 127/26 319/32
f 119/121 127/26 120/122
f 119/121 131/123 127/26
f 126/24 127/26 131/123
f 12/80 20/82 3/113
f 105/76 104/78 117/116
f 2/115 1/114 113/117
f 313/119 112/118 119/121
f 127/26 192/28 319/32
f 298/87 19/81 16/79
f 298/87 14/83 19/81
f 13/124 14/83 298/87
f 13/124 15/85 14/83
f 29/108 15/85 13/124
f 13/124 32/125 29/108
f 31/126 32/125 13/124
f 31/126 41/109 32/125
f 37/110 41/109 31/126
f 31/126 34/127 37/110
f 298/87 34/127 31/126
f 298/87 33/89 34/127
f 40/91 34/127 33/89
f 40/91 36/111 34/127
f 45/93 36/111 40/91
f 31/126 13/124 298/87
f 34/127 36/111 37/110
f 29/108 32/125 41/109
f 38/106 44/92 35/90
f 38/106 43/128 44/92
f 39/104 43/128 38/106
f 39/104 48/129 43/128
f 50/102 48/129 39/104
f 50/102 299/130 48/129
f 301/131 299/130 50/102
f 301/131 55/96 299/130
f 54/100 55/96 301/131
f 54/100 56/98 55/96
f 54/100 301/131 50/102
f 43/128 53/94 44/92
f 43/128 300/132 53/94
f 48/129 300/132 43/128
f 48/129 299/130 300/132
f 55/96 300/132 299/130
f 55/96 53/94 300/132
f 121/4 125/74 122/120
f 121/4 128/3 125/74
f 129/72 125/74 128/3
f 128/3 154/36 129/72
f 317/2 154/36 128/3
f 314/38 129/72 154/36
f 161/39 158/43 148/40
f 161/39 159/37 158/43
f 153/35 158/43 159/37
f 153/35 164/45 158/43
f 160/34 164/45 153/35
f 160/34 163/133 164/45
f 139/134 163/133 160/34
f 139/134 142/49 163/133
f 143/135 142/49 139/134
f 143/135 146/51 142/49
f 328/136 146/51 143/135
f 328/136 181/137 146/51
f 147/138 146/51 181/137
f 147/138 176/139 146/51
f 194/140 176/139 147/138
f 147/138 138/141 194/140
f 139/134 138/141 147/138
f 139/134 140/33 138/141
f 160/34 140/33 139/134
f 138/141 140/33 141/31
f 164/45 142/49 166/47
f 164/45 163/133 142/49
f 157/63 156/46 167/48
f 157/63 155/61 156/46
f 323/142 156/46 155/61
f 323/142 149/42 156/46
f 326/143 149/42 323/142
f 326/143 320/144 149/42
f 151/145 149/42 320/144
f 151/145 150/41 149/42
f 193/146 150/41 151/145
f 151/145 189/147 193/146
f 155/61 189/147 151/145
f 155/61 178/59 189/147
f 186/148 189/147 178/59
f 178/59 180/149 186/148
f 179/57 180/149 178/59
f 179/57 175/150 180/149
f 135/55 175/150 179/57
f 135/55 137/53 175/150
f 146/51 175/150 137/53
f 146/51 176/139 175/150
f 177/151 175/150 176/139
f 177/151 180/149 175/150
f 187/152 180/149 177/151
f 187/152 186/148 180/149
f 149/42 165/44 156/46
f 320/144 155/61 151/145
f 320/144 196/143 155/61
f 323/142 155/61 196/143
f 181/137 139/134 147/138
f 181/137 184/136 139/134
f 143/135 139/134 184/136
f 58/153 59/154 57/155
f 58/153 60/156 59/154
f 63/157 60/156 58/153
f 63/157 61/158 60/156
f 70/159 61/158 63/157
f 70/159 69/160 61/158
f 66/161 69/160 70/159
f 66/161 68/162 69/160
f 67/163 68/162 66/161
f 67/163 64/164 68/162
f 306/165 64/164 67/163
f 306/165 62/166 64/164
f 65/167 62/166 306/165
f 65/167 59/154 62/166
f 57/155 59/154 65/167
f 65/167 303/168 57/155
f 78/169 303/168 65/167
f 78/169 75/170 303/168
f 79/171 75/170 78/169
f 79/171 76/172 75/170
f 72/173 76/172 79/171
f 72/173 74/174 76/172
f 71/175 74/174 72/173
f 71/175 305/176 74/174
f 73/177 305/176 71/175
f 73/177 304/178 305/176
f 306/165 304/178 73/177
f 306/165 67/163 304/178
f 66/161 304/178 67/163
f 66/161 305/176 304/178
f 70/159 305/176 66/161
f 70/159 307/179 305/176
f 63/157 307/179 70/159
f 63/157 302/180 307/179
f 58/153 302/180 63/157
f 58/153 57/155 302/180
f 303/168 302/180 57/155
f 303/168 77/181 302/180
f 75/170 77/181 303/168
f 75/170 74/174 77/181
f 76/172 74/174 75/170
f 60/156 62/166 59/154
f 60/156 61/158 62/166
f 64/164 62/166 61/158
f 61/158 69/160 64/164
f 68/162 64/164 69/160
f 72/173 73/177 71/175
f 72/173 79/171 73/177
f 306/165 73/177 79/171
f 79/171 65/167 306/165
f 78/169 65/167 79/171
f 74/174 302/180 77/181
f 74/174 307/179 302/180
f 305/176 307/179 74/174
f 81/182 82/183 80/184
f 81/182 87/185 82/183
f 86/186 87/185 81/182
f 86/186 99/187 87/185
f 98/188 99/187 86/186
f 98/188 94/189 99/187
f 93/190 94/189 98/188
f 93/190 92/191 94/189
f 91/192 92/191 93/190
f 91/192 95/193 92/191
f 88/194 95/193 91/192
f 88/194 83/195 95/193
f 84/196 83/195 88/194
f 84/196 85/197 83/195
f 86/186 85/197 84/196
f 86/186 81/182 85/197
f 80/184 85/197 81/182
f 80/184 83/195 85/197
f 90/198 83/195 80/184
f 90/198 95/193 83/195
f 312/199 95/193 90/198
f 312/199 308/200 95/193
f 100/201 308/200 312/199
f 100/201 309/202 308/200
f 101/203 309/202 100/201
f 101/203 94/189 309/202
f 99/187 94/189 101/203
f 101/203 87/185 99/187
f 310/204 87/185 101/203
f 310/204 89/205 87/185
f 103/206 89/205 310/204
f 103/206 311/207 89/205
f 312/199 311/207 103/206
f 312/199 90/198 311/207
f 89/205 311/207 90/198
f 90/198 82/183 89/205
f 80/184 82/183 90/198
f 89/205 82/183 87/185
f 84/196 98/188 86/186
f 84/196 97/208 98/188
f 88/194 97/208 84/196
f 88/194 96/209 97/208
f 91/192 96/209 88/194
f 91/192 93/190 96/209
f 97/208 96/209 93/190
f 93/190 98/188 97/208
f 94/189 308/200 309/202
f 94/189 92/191 308/200
f 95/193 308/200 92/191
f 101/203 103/206 310/204
f 101/203 102/210 103/206
f 100/201 102/210 101/203
f 100/201 312/199 102/210
f 103/206 102/210 312/199
usemtl mat_1
f 24/211 1/212 8/213
f 8/211 23/214 24/212
f 22/211 24/212 23/214
f 22/211 26/213 24/212
f 110/215 24/212 26/213
f 110/215 109/216 24/212
f 111/217 109/216 110/215
f 111/217 118/218 109/216
f 126/219 118/218 111/217
f 126/219 131/220 118/218
f 119/219 118/218 131/220
f 119/219 112/217 118/218
f 109/216 118/218 112/217
f 112/217 113/215 109/216
f 24/212 109/216 113/215
f 113/215 1/213 24/212
usemtl mat_2
f 186/221 190/222 189/223
f 186/221 195/224 190/222
f 187/225 195/224 186/221
f 187/225 177/221 195/224
f 191/222 195/224 177/221
f 177/221 176/223 191/222
usemtl mat_3
f 197/226 214/227 324/228
f 197/226 212/229 214/227
f 215/227 212/229 197/226
f 215/227 207/230 212/229
f 209/231 207/230 215/227
f 209/231 204/232 207/230
f 211/233 204/232 209/231
f 211/233 205/234 204/232
f 201/232 205/234 211/233
f 201/232 206/235 205/234
f 333/236 206/235 201/232
f 333/236 204/232 206/235
f 208/230 204/232 333/236
f 333/236 336/237 208/230
f 240/238 336/237 333/236
f 240/238 334/239 336/237
f 236/240 334/239 240/238
f 236/240 235/238 334/239
f 231/241 235/238 236/240
f 236/240 225/242 231/241
f 226/243 225/242 236/240
f 226/243 223/244 225/242
f 224/242 223/244 226/243
f 224/242 222/245 223/244
f 337/246 222/245 224/242
f 337/246 225/242 222/245
f 229/241 225/242 337/246
f 337/246 227/247 229/241
f 234/248 227/247 337/246
f 337/246 245/249 234/248
f 244/248 245/249 337/246
f 244/248 246/250 245/249
f 247/251 246/250 244/248
f 247/251 234/248 246/250
f 233/252 234/248 247/251
f 233/252 228/247 234/248
f 230/241 228/247 233/252
f 233/252 238/253 230/241
f 237/254 238/253 233/252
f 237/254 241/255 238/253
f 216/253 241/255 237/254
f 216/253 239/256 241/255
f 221/257 239/256 216/253
f 221/257 238/253 239/256
f 232/241 238/253 221/257
f 221/257 235/238 232/241
f 333/236 235/238 221/257
f 333/236 335/237 235/238
f 202/230 335/237 333/236
f 202/230 334/239 335/237
f 200/258 334/239 202/230
f 200/258 210/259 334/239
f 199/260 210/259 200/258
f 199/260 213/258 210/259
f 198/261 213/258 199/260
f 198/261 212/229 213/258
f 200/258 212/229 198/261
f 200/258 203/230 212/229
f 214/227 212/229 203/230
f 203/230 209/231 214/227
f 201/232 209/231 203/230
f 201/232 211/233 209/231
f 198/261 199/260 200/258
f 201/232 202/230 333/236
f 204/232 205/234 206/235
f 197/226 322/228 215/227
f 212/229 207/230 213/258
f 225/242 223/244 222/245
f 238/253 241/255 239/256
f 235/238 335/237 334/239
f 245/249 246/250 234/248
f 213/258 334/239 210/259
f 213/258 208/230 334/239
f 336/237 334/239 208/230
f 233/252 216/253 237/254
f 233/252 218/241 216/253
f 242/247 218/241 233/252
f 233/252 244/248 242/247
f 247/251 244/248 233/252
f 236/240 224/242 226/243
f 236/240 220/241 224/242
f 240/238 220/241 236/240
f 221/257 240/238 333/236
f 221/257 217/241 240/238
f 216/253 217/241 221/257
f 219/241 337/246 224/242
f 219/241 243/247 337/246
f 244/248 337/246 243/247
f 214/227 327/262 325/228
f 214/227 209/231 327/262
f 215/227 327/262 209/231
f 215/227 321/228 327/262
f 330/263 329/264 144/265
f 330/263 250/266 329/264
f 248/267 250/266 330/263
f 248/267 266/268 250/266
f 256/269 250/266 266/268
f 256/269 253/268 250/266
f 254/270 253/268 256/269
f 254/270 255/271 253/268
f 266/268 255/271 254/270
f 266/268 257/272 255/271
f 249/267 257/272 266/268
f 249/267 263/273 257/272
f 262/274 263/273 249/267
f 262/274 341/275 263/273
f 340/276 341/275 262/274
f 340/276 279/277 341/275
f 287/278 279/277 340/276
f 340/276 289/279 287/278
f 290/278 289/279 340/276
f 290/278 293/280 289/279
f 288/281 293/280 290/278
f 288/281 287/278 293/280
f 275/282 287/278 288/281
f 275/282 282/277 287/278
f 295/283 282/277 275/282
f 275/282 278/284 295/283
f 276/285 278/284 275/282
f 276/285 277/286 278/284
f 285/284 277/286 276/285
f 285/284 286/287 277/286
f 267/288 286/287 285/284
f 267/288 278/284 286/287
f 294/283 278/284 267/288
f 267/288 281/277 294/283
f 291/289 281/277 267/288
f 267/288 284/290 291/289
f 272/289 284/290 267/288
f 272/289 292/291 284/290
f 283/292 292/291 272/289
f 283/292 291/289 292/291
f 338/293 291/289 283/292
f 338/293 280/277 291/289
f 341/275 280/277 338/293
f 338/293 257/272 341/275
f 339/275 257/272 338/293
f 339/275 258/273 257/272
f 262/274 258/273 339/275
f 262/274 252/267 258/273
f 261/294 252/267 262/274
f 262/274 259/295 261/294
f 264/294 259/295 262/274
f 264/294 260/296 259/295
f 265/297 260/296 264/294
f 265/297 261/294 260/296
f 331/298 261/294 265/297
f 331/298 251/267 261/294
f 332/263 251/267 331/298
f 332/263 250/266 251/267
f 329/264 250/266 332/263
f 332/263 183/265 329/264
f 259/295 260/296 261/294
f 262/274 249/267 264/294
f 253/268 251/267 250/266
f 266/268 254/270 256/269
f 257/272 263/273 341/275
f 289/279 293/280 287/278
f 284/290 292/291 291/289
f 278/284 277/286 286/287
f 252/267 257/272 258/273
f 252/267 253/268 257/272
f 255/271 257/272 253/268
f 264/294 331/298 265/297
f 264/294 248/267 331/298
f 330/263 331/298 248/267
f 330/263 185/299 331/298
f 145/265 185/299 330/263
f 185/299 332/263 331/298
f 185/299 182/265 332/263
f 339/275 340/276 262/274
f 339/275 271/277 340/276
f 290/278 340/276 271/277
f 272/289 338/293 283/292
f 272/289 270/277 338/293
f 339/275 338/293 270/277
f 275/282 285/284 276/285
f 275/282 273/283 285/284
f 269/277 273/283 275/282
f 275/282 290/278 269/277
f 288/281 290/278 275/282
f 267/288 268/277 272/289
f 267/288 274/283 268/277
f 285/284 274/283 267/288
usemtl mat_4
f 194/300 191/301 176/302
f 194/300 138/303 191/301
f 296/304 191/301 138/303
f 296/304 195/305 191/301
f 297/306 195/305 296/304
f 297/306 343/304 195/305
f 342/307 343/304 297/306
f 342/307 152/308 343/304
f 150/303 343/304 152/308
f 150/303 190/301 343/304
f 193/300 190/301 150/303
f 193/300 189/302 190/301
f 343/304 190/301 195/305
f 296/304 342/307 297/306
f 296/304 141/308 342/307
f 138/303 141/308 296/304
