# Blender v2.66 (sub 1) OBJ File: 'BR_Burmy-Shiny03.blend'
# www.blender.org
mtllib BR_Burmy-Shiny03.mtl
o minomucchi
v 0.012932 -0.228470 -1.740072
v 0.012948 -0.073929 -1.800695
v 0.012999 -0.071085 -2.003838
v 0.013013 -0.225180 -2.047828
v 0.012972 -0.321138 -1.905749
v 0.000293 0.107379 -2.597838
v 0.000172 0.235535 -2.543420
v 0.000335 0.109769 -2.768539
v 0.000240 0.239402 -2.819618
v 0.000139 0.317130 -2.680487
v 0.000487 0.092819 -2.954393
v 0.000379 0.206737 -2.905989
v 0.000525 0.094944 -3.106093
v 0.000440 0.210173 -3.151498
v 0.000351 0.279265 -3.027827
v 0.189978 0.087160 -3.395701
v 0.273515 0.133650 -3.357806
v 0.190096 0.069318 -3.323542
v 0.190386 0.157076 -3.291333
v 0.190447 0.192088 -3.358138
v 0.050195 0.169836 -3.464998
v 0.050208 0.063222 -3.413955
v 0.050180 0.241342 -3.349785
v 0.050184 0.177693 -3.233432
v 0.050201 0.041345 -3.282222
v 0.190195 0.150277 -3.425754
v -0.066828 -0.014461 -2.013487
v -0.203096 -0.084200 -1.949249
v -0.070418 -0.011618 -2.216632
v -0.208931 -0.079549 -2.277941
v -0.290945 -0.124380 -2.112689
v -0.062449 0.081348 -2.084262
v -0.189600 0.165052 -2.018036
v -0.066041 0.084193 -2.287405
v -0.195409 0.169654 -2.346730
v -0.271777 0.219626 -2.180250
v 0.000082 0.124889 -2.157169
v -0.000062 0.277397 -2.092409
v 0.000133 0.127728 -2.360313
v 0.000021 0.282025 -2.421101
v -0.000101 0.374500 -2.255528
v 0.099196 0.073617 -2.231304
v 0.237709 0.141548 -2.169994
v 0.095604 0.076464 -2.434448
v 0.231900 0.146150 -2.498687
v 0.319725 0.186377 -2.335245
v 0.092272 -0.020177 -2.304533
v 0.221642 -0.105638 -2.245209
v 0.088681 -0.017327 -2.507676
v 0.215833 -0.101037 -2.573903
v 0.298201 -0.154822 -2.411681
v 0.000291 -0.055684 -2.410443
v 0.000389 -0.192489 -2.356380
v 0.000335 -0.053182 -2.590641
v 0.000464 -0.188462 -2.648081
v 0.000498 -0.274581 -2.503401
v -0.067755 -0.009712 -2.477103
v -0.182282 -0.068271 -2.423123
v -0.070773 -0.007316 -2.647810
v -0.187253 -0.064435 -2.699455
v -0.256082 -0.102074 -2.560462
v -0.064076 0.070798 -2.536575
v -0.170922 0.141134 -2.480925
v -0.067093 0.073188 -2.707276
v -0.175801 0.144999 -2.757124
v -0.239972 0.186993 -2.617233
v 0.071755 0.064306 -2.660136
v 0.188164 0.121429 -2.608622
v 0.068736 0.066690 -2.830834
v 0.183264 0.125249 -2.884813
v 0.257062 0.159051 -2.747474
v 0.065935 -0.014515 -2.721666
v 0.174646 -0.086326 -2.671818
v 0.062918 -0.012125 -2.892366
v 0.169763 -0.082460 -2.948016
v 0.238813 -0.128320 -2.811709
v 0.000475 -0.052281 -2.787101
v 0.000565 -0.174715 -2.738861
v 0.000516 -0.050024 -2.948318
v 0.000630 -0.171060 -2.999713
v 0.000661 -0.248122 -2.870259
v -0.073351 -0.011261 -2.847040
v -0.175153 -0.063314 -2.799058
v -0.076033 -0.009137 -2.998774
v -0.179492 -0.059877 -3.044568
v -0.240752 -0.093360 -2.921136
v -0.070081 0.060302 -2.899904
v -0.165053 0.122822 -2.850437
v -0.072762 0.062426 -3.051637
v -0.169392 0.126259 -3.095948
v -0.226431 0.163586 -2.971600
v 0.050656 0.054527 -3.009733
v 0.154115 0.105267 -2.963938
v 0.047974 0.056651 -3.161466
v 0.149776 0.108704 -3.209448
v 0.215375 0.138750 -3.087370
v 0.045485 -0.015530 -3.064430
v 0.142115 -0.079364 -3.020119
v 0.042803 -0.013406 -3.216163
v 0.137776 -0.075926 -3.265629
v 0.199154 -0.116690 -3.144466
v 0.000000 -0.049425 -3.122875
v 0.000729 -0.157453 -3.080308
v 0.000685 -0.047433 -3.265126
v 0.000786 -0.154230 -3.310473
v 0.000813 -0.222226 -3.196250
v -0.078222 -0.013385 -3.175939
v -0.167299 -0.058932 -3.133955
v -0.080568 -0.011527 -3.308707
v -0.171095 -0.055924 -3.348776
v -0.224698 -0.085222 -3.240774
v -0.075360 0.049232 -3.222195
v -0.158462 0.103938 -3.178913
v -0.077707 0.051091 -3.354962
v -0.162258 0.106945 -3.393734
v -0.212167 0.139606 -3.284930
v 0.000667 0.064056 -3.274529
v 0.000573 0.182492 -3.229103
v 0.000780 0.064418 -3.397124
v 0.000850 0.176708 -3.466156
v 0.000553 0.240764 -3.340290
vt 0.544961 0.365595
vt 0.515590 0.359477
vt 0.544961 0.359477
vt 0.515590 0.365595
vt 0.544961 0.371714
vt 0.515590 0.371714
vt 0.544961 0.377833
vt 0.515590 0.377833
vt 0.544961 0.383952
vt 0.515590 0.383952
vt 0.544961 0.390071
vt 0.515590 0.390071
vt 0.544961 0.396190
vt 0.515590 0.396190
vt 0.544961 0.402309
vt 0.515590 0.402309
vt 0.544961 0.408428
vt 0.515590 0.408428
vt 0.544961 0.414547
vt 0.515590 0.414547
vt 0.544961 0.420666
vt 0.515590 0.420666
vt 0.544961 0.426785
vt 0.515590 0.426785
vt 0.544961 0.432904
vt 0.515590 0.432904
vt 0.544961 0.439023
vt 0.515590 0.439023
vt 0.544961 0.445142
vt 0.515590 0.445142
vt 0.544961 0.451261
vt 0.515590 0.451261
vt 0.544961 0.457380
vt 0.515590 0.457380
vt 0.544961 0.463499
vt 0.515590 0.463499
vt 0.544961 0.469618
vt 0.515590 0.469618
vt 0.544961 0.475736
vt 0.515590 0.475736
vt 0.544961 0.481855
vt 0.515590 0.481855
vt 0.544961 0.487974
vt 0.515590 0.487974
vt 0.574332 0.365595
vt 0.574332 0.359477
vt 0.574332 0.371714
vt 0.574332 0.377833
vt 0.574332 0.383952
vt 0.574332 0.390071
vt 0.574332 0.396190
vt 0.574332 0.402309
vt 0.574332 0.408428
vt 0.574332 0.414547
vt 0.574332 0.420666
vt 0.574332 0.426785
vt 0.574332 0.432904
vt 0.574332 0.439023
vt 0.574332 0.445142
vt 0.574332 0.451261
vt 0.574332 0.457380
vt 0.574332 0.463499
vt 0.574332 0.469618
vt 0.574332 0.475736
vt 0.574332 0.481855
vt 0.574332 0.487974
vt 0.603703 0.365595
vt 0.603703 0.359477
vt 0.603703 0.371714
vt 0.603703 0.377833
vt 0.603703 0.383952
vt 0.603703 0.390071
vt 0.603703 0.396190
vt 0.603703 0.402309
vt 0.603703 0.408428
vt 0.603703 0.414547
vt 0.603703 0.420666
vt 0.603703 0.426785
vt 0.603703 0.432904
vt 0.603703 0.439023
vt 0.603703 0.445142
vt 0.603703 0.451261
vt 0.603703 0.457380
vt 0.603703 0.463499
vt 0.603703 0.469618
vt 0.603703 0.475736
vt 0.603703 0.481855
vt 0.603703 0.487974
vt 0.633074 0.365595
vt 0.633074 0.359477
vt 0.633074 0.371714
vt 0.633074 0.377833
vt 0.633074 0.383952
vt 0.633074 0.390071
vt 0.633074 0.396190
vt 0.633074 0.402309
vt 0.633074 0.408428
vt 0.633074 0.414547
vt 0.633074 0.420666
vt 0.633074 0.426785
vt 0.633074 0.432904
vt 0.633074 0.439023
vt 0.633074 0.445142
vt 0.633074 0.451261
vt 0.633074 0.457380
vt 0.633074 0.463499
vt 0.633074 0.469618
vt 0.633074 0.475736
vt 0.633074 0.481855
vt 0.633074 0.487974
vt 0.662445 0.365595
vt 0.662445 0.359477
vt 0.662445 0.371714
vt 0.662445 0.377833
vt 0.662445 0.383952
vt 0.662445 0.390071
vt 0.662445 0.396190
vt 0.662445 0.402309
vt 0.662445 0.408428
vt 0.662445 0.414547
vt 0.662445 0.420666
vt 0.662445 0.426785
vt 0.662445 0.432904
vt 0.662445 0.439023
vt 0.662445 0.445142
vt 0.662445 0.451261
vt 0.662445 0.457380
vt 0.662445 0.463499
vt 0.662445 0.469618
vt 0.662445 0.475736
vt 0.662445 0.481855
vt 0.662445 0.487974
usemtl mat_0
s 1
f 27/1 1/2 2/3
f 28/1 1/4 27/2
f 32/5 28/4 27/1
f 32/5 33/6 28/4
f 37/7 33/6 32/5
f 37/7 38/8 33/6
f 42/9 38/8 37/7
f 42/9 43/10 38/8
f 47/11 43/10 42/9
f 47/11 48/12 43/10
f 52/13 48/12 47/11
f 52/13 53/14 48/12
f 57/15 53/14 52/13
f 57/15 58/16 53/14
f 62/17 58/16 57/15
f 62/17 63/18 58/16
f 6/19 63/18 62/17
f 6/19 7/20 63/18
f 67/21 7/20 6/19
f 67/21 68/22 7/20
f 72/23 68/22 67/21
f 72/23 73/24 68/22
f 77/25 73/24 72/23
f 77/25 78/26 73/24
f 82/27 78/26 77/25
f 82/27 83/28 78/26
f 87/29 83/28 82/27
f 87/29 88/30 83/28
f 11/31 88/30 87/29
f 11/31 12/32 88/30
f 92/33 12/32 11/31
f 92/33 93/34 12/32
f 97/35 93/34 92/33
f 97/35 98/36 93/34
f 102/37 98/36 97/35
f 102/37 103/38 98/36
f 107/39 103/38 102/37
f 107/39 108/40 103/38
f 112/41 108/40 107/39
f 112/41 113/42 108/40
f 117/43 113/42 112/41
f 117/43 118/44 113/42
f 25/43 118/44 117/43
f 25/43 24/44 118/44
f 18/43 24/44 25/43
f 18/43 19/44 24/44
f 29/45 2/3 3/46
f 29/45 27/1 2/3
f 34/47 27/1 29/45
f 34/47 32/5 27/1
f 39/48 32/5 34/47
f 39/48 37/7 32/5
f 44/49 37/7 39/48
f 44/49 42/9 37/7
f 49/50 42/9 44/49
f 49/50 47/11 42/9
f 54/51 47/11 49/50
f 54/51 52/13 47/11
f 59/52 52/13 54/51
f 59/52 57/15 52/13
f 64/53 57/15 59/52
f 64/53 62/17 57/15
f 8/54 62/17 64/53
f 8/54 6/19 62/17
f 69/55 6/19 8/54
f 69/55 67/21 6/19
f 74/56 67/21 69/55
f 74/56 72/23 67/21
f 79/57 72/23 74/56
f 79/57 77/25 72/23
f 84/58 77/25 79/57
f 84/58 82/27 77/25
f 89/59 82/27 84/58
f 89/59 87/29 82/27
f 13/60 87/29 89/59
f 13/60 11/31 87/29
f 94/61 11/31 13/60
f 94/61 92/33 11/31
f 99/62 92/33 94/61
f 99/62 97/35 92/33
f 104/63 97/35 99/62
f 104/63 102/37 97/35
f 109/64 102/37 104/63
f 109/64 107/39 102/37
f 114/65 107/39 109/64
f 114/65 112/41 107/39
f 119/66 112/41 114/65
f 119/66 117/43 112/41
f 22/66 117/43 119/66
f 22/66 25/43 117/43
f 16/66 25/43 22/66
f 16/66 18/43 25/43
f 30/67 3/46 4/68
f 30/67 29/45 3/46
f 35/69 29/45 30/67
f 35/69 34/47 29/45
f 40/70 34/47 35/69
f 40/70 39/48 34/47
f 45/71 39/48 40/70
f 45/71 44/49 39/48
f 50/72 44/49 45/71
f 50/72 49/50 44/49
f 55/73 49/50 50/72
f 55/73 54/51 49/50
f 60/74 54/51 55/73
f 60/74 59/52 54/51
f 65/75 59/52 60/74
f 65/75 64/53 59/52
f 9/76 64/53 65/75
f 9/76 8/54 64/53
f 70/77 8/54 9/76
f 70/77 69/55 8/54
f 75/78 69/55 70/77
f 75/78 74/56 69/55
f 80/79 74/56 75/78
f 80/79 79/57 74/56
f 85/80 79/57 80/79
f 85/80 84/58 79/57
f 90/81 84/58 85/80
f 90/81 89/59 84/58
f 14/82 89/59 90/81
f 14/82 13/60 89/59
f 95/83 13/60 14/82
f 95/83 94/61 13/60
f 100/84 94/61 95/83
f 100/84 99/62 94/61
f 105/85 99/62 100/84
f 105/85 104/63 99/62
f 110/86 104/63 105/85
f 110/86 109/64 104/63
f 115/87 109/64 110/86
f 115/87 114/65 109/64
f 120/88 114/65 115/87
f 120/88 119/66 114/65
f 21/88 119/66 120/88
f 21/88 22/66 119/66
f 26/88 22/66 21/88
f 26/88 16/66 22/66
f 31/89 4/68 5/90
f 31/89 30/67 4/68
f 36/91 30/67 31/89
f 36/91 35/69 30/67
f 41/92 35/69 36/91
f 41/92 40/70 35/69
f 46/93 40/70 41/92
f 46/93 45/71 40/70
f 51/94 45/71 46/93
f 51/94 50/72 45/71
f 56/95 50/72 51/94
f 56/95 55/73 50/72
f 61/96 55/73 56/95
f 61/96 60/74 55/73
f 66/97 60/74 61/96
f 66/97 65/75 60/74
f 10/98 65/75 66/97
f 10/98 9/76 65/75
f 71/99 9/76 10/98
f 71/99 70/77 9/76
f 76/100 70/77 71/99
f 76/100 75/78 70/77
f 81/101 75/78 76/100
f 81/101 80/79 75/78
f 86/102 80/79 81/101
f 86/102 85/80 80/79
f 91/103 85/80 86/102
f 91/103 90/81 85/80
f 15/104 90/81 91/103
f 15/104 14/82 90/81
f 96/105 14/82 15/104
f 96/105 95/83 14/82
f 101/106 95/83 96/105
f 101/106 100/84 95/83
f 106/107 100/84 101/106
f 106/107 105/85 100/84
f 111/108 105/85 106/107
f 111/108 110/86 105/85
f 116/109 110/86 111/108
f 116/109 115/87 110/86
f 121/110 115/87 116/109
f 121/110 120/88 115/87
f 23/110 120/88 121/110
f 23/110 21/88 120/88
f 20/110 21/88 23/110
f 20/110 26/88 21/88
f 5/111 1/90 28/112
f 28/111 31/89 5/90
f 33/113 31/89 28/111
f 33/113 36/91 31/89
f 38/114 36/91 33/113
f 38/114 41/92 36/91
f 43/115 41/92 38/114
f 43/115 46/93 41/92
f 48/116 46/93 43/115
f 48/116 51/94 46/93
f 53/117 51/94 48/116
f 53/117 56/95 51/94
f 58/118 56/95 53/117
f 58/118 61/96 56/95
f 63/119 61/96 58/118
f 63/119 66/97 61/96
f 7/120 66/97 63/119
f 7/120 10/98 66/97
f 68/121 10/98 7/120
f 68/121 71/99 10/98
f 73/122 71/99 68/121
f 73/122 76/100 71/99
f 78/123 76/100 73/122
f 78/123 81/101 76/100
f 83/124 81/101 78/123
f 83/124 86/102 81/101
f 88/125 86/102 83/124
f 88/125 91/103 86/102
f 12/126 91/103 88/125
f 12/126 15/104 91/103
f 93/127 15/104 12/126
f 93/127 96/105 15/104
f 98/128 96/105 93/127
f 98/128 101/106 96/105
f 103/129 101/106 98/128
f 103/129 106/107 101/106
f 108/130 106/107 103/129
f 108/130 111/108 106/107
f 113/131 111/108 108/130
f 113/131 116/109 111/108
f 118/132 116/109 113/131
f 118/132 121/110 116/109
f 24/44 121/110 118/44
f 24/44 23/110 121/110
f 19/44 23/110 24/44
f 19/44 20/110 23/110
f 16/66 17/88 18/43
f 16/66 26/88 17/88
f 20/110 17/88 26/88
f 20/110 19/44 17/88
f 18/43 17/88 19/44
