xof 0303txt 0032

template AnimTicksPerSecond {
  <9E415A43-7BA6-4a73-8743-B73D47E88476>
  DWORD AnimTicksPerSecond;
}

template XSkinMeshHeader {
  <3cf169ce-ff7c-44ab-93c0-f78f62d172e2>
  WORD nMaxSkinWeightsPerVertex;
  WORD nMaxSkinWeightsPerFace;
  WORD nBones;
}

template SkinWeights {
  <6f0d123b-bad2-4167-a0d0-80224f25fabb>
  STRING transformNodeName;
  DWORD nWeights;
  array DWORD vertexIndices[nWeights];
  array float weights[nWeights];
  Matrix4x4 matrixOffset;
}

Frame Root {
  FrameTransformMatrix {
     1.000000, 0.000000, 0.000000, 0.000000,
     0.000000, 0.000000, 1.000000, 0.000000,
     0.000000, 1.000000,-0.000000, 0.000000,
     0.000000, 0.000000, 0.000000, 1.000000;;
  }
  Frame minomucchi_mat_0 {
    FrameTransformMatrix {
       1.000000, 0.000000, 0.000000, 0.000000,
       0.000000, 1.000000, 0.000000, 0.000000,
       0.000000, 0.000000, 1.000000, 0.000000,
       0.000000, 0.000000, 0.000000, 1.000000;;
    }
    Mesh { //Mesh Mesh
      705;
       0.012948; 1.800695;-0.073929;,
       0.012932; 1.740072;-0.228470;,
      -0.066828; 2.013487;-0.014461;,
      -0.203096; 1.949249;-0.084200;,
      -0.066828; 2.013487;-0.014461;,
       0.012932; 1.740072;-0.228470;,
      -0.062449; 2.084262; 0.081348;,
      -0.066828; 2.013487;-0.014461;,
      -0.203096; 1.949249;-0.084200;,
      -0.203096; 1.949249;-0.084200;,
      -0.189600; 2.018036; 0.165052;,
      -0.062449; 2.084262; 0.081348;,
      -0.062449; 2.084262; 0.081348;,
      -0.189600; 2.018036; 0.165052;,
       0.000082; 2.157169; 0.124889;,
      -0.189600; 2.018036; 0.165052;,
      -0.000062; 2.092409; 0.277397;,
       0.000082; 2.157169; 0.124889;,
       0.000082; 2.157169; 0.124889;,
      -0.000062; 2.092409; 0.277397;,
       0.099196; 2.231304; 0.073617;,
      -0.000062; 2.092409; 0.277397;,
       0.237709; 2.169994; 0.141548;,
       0.099196; 2.231304; 0.073617;,
       0.099196; 2.231304; 0.073617;,
       0.237709; 2.169994; 0.141548;,
       0.092272; 2.304533;-0.020177;,
       0.237709; 2.169994; 0.141548;,
       0.221642; 2.245209;-0.105638;,
       0.092272; 2.304533;-0.020177;,
       0.092272; 2.304533;-0.020177;,
       0.221642; 2.245209;-0.105638;,
       0.000291; 2.410443;-0.055684;,
       0.221642; 2.245209;-0.105638;,
       0.000389; 2.356380;-0.192489;,
       0.000291; 2.410443;-0.055684;,
       0.000291; 2.410443;-0.055684;,
       0.000389; 2.356380;-0.192489;,
      -0.067755; 2.477103;-0.009712;,
       0.000389; 2.356380;-0.192489;,
      -0.182282; 2.423123;-0.068271;,
      -0.067755; 2.477103;-0.009712;,
      -0.067755; 2.477103;-0.009712;,
      -0.182282; 2.423123;-0.068271;,
      -0.064076; 2.536575; 0.070798;,
      -0.182282; 2.423123;-0.068271;,
      -0.170922; 2.480925; 0.141134;,
      -0.064076; 2.536575; 0.070798;,
      -0.064076; 2.536575; 0.070798;,
      -0.170922; 2.480925; 0.141134;,
       0.000293; 2.597838; 0.107379;,
      -0.170922; 2.480925; 0.141134;,
       0.000172; 2.543420; 0.235535;,
       0.000293; 2.597838; 0.107379;,
       0.000293; 2.597838; 0.107379;,
       0.000172; 2.543420; 0.235535;,
       0.071755; 2.660136; 0.064306;,
       0.000172; 2.543420; 0.235535;,
       0.188164; 2.608622; 0.121429;,
       0.071755; 2.660136; 0.064306;,
       0.071755; 2.660136; 0.064306;,
       0.188164; 2.608622; 0.121429;,
       0.065935; 2.721666;-0.014515;,
       0.188164; 2.608622; 0.121429;,
       0.174646; 2.671818;-0.086326;,
       0.065935; 2.721666;-0.014515;,
       0.065935; 2.721666;-0.014515;,
       0.174646; 2.671818;-0.086326;,
       0.000475; 2.787101;-0.052281;,
       0.174646; 2.671818;-0.086326;,
       0.000565; 2.738861;-0.174715;,
       0.000475; 2.787101;-0.052281;,
       0.000475; 2.787101;-0.052281;,
       0.000565; 2.738861;-0.174715;,
      -0.073351; 2.847040;-0.011261;,
       0.000565; 2.738861;-0.174715;,
      -0.175153; 2.799058;-0.063314;,
      -0.073351; 2.847040;-0.011261;,
      -0.073351; 2.847040;-0.011261;,
      -0.175153; 2.799058;-0.063314;,
      -0.070081; 2.899904; 0.060302;,
      -0.175153; 2.799058;-0.063314;,
      -0.165053; 2.850437; 0.122822;,
      -0.070081; 2.899904; 0.060302;,
      -0.070081; 2.899904; 0.060302;,
      -0.165053; 2.850437; 0.122822;,
       0.000487; 2.954393; 0.092819;,
      -0.165053; 2.850437; 0.122822;,
       0.000379; 2.905989; 0.206737;,
       0.000487; 2.954393; 0.092819;,
       0.000487; 2.954393; 0.092819;,
       0.000379; 2.905989; 0.206737;,
       0.050656; 3.009733; 0.054527;,
       0.000379; 2.905989; 0.206737;,
       0.154115; 2.963938; 0.105267;,
       0.050656; 3.009733; 0.054527;,
       0.050656; 3.009733; 0.054527;,
       0.154115; 2.963938; 0.105267;,
       0.045485; 3.064430;-0.015530;,
       0.154115; 2.963938; 0.105267;,
       0.142115; 3.020119;-0.079364;,
       0.045485; 3.064430;-0.015530;,
       0.045485; 3.064430;-0.015530;,
       0.142115; 3.020119;-0.079364;,
       0.000000; 3.122875;-0.049425;,
       0.142115; 3.020119;-0.079364;,
       0.000729; 3.080308;-0.157453;,
       0.000000; 3.122875;-0.049425;,
       0.000000; 3.122875;-0.049425;,
       0.000729; 3.080308;-0.157453;,
      -0.078222; 3.175939;-0.013385;,
       0.000729; 3.080308;-0.157453;,
      -0.167299; 3.133955;-0.058932;,
      -0.078222; 3.175939;-0.013385;,
      -0.078222; 3.175939;-0.013385;,
      -0.167299; 3.133955;-0.058932;,
      -0.075360; 3.222195; 0.049232;,
      -0.167299; 3.133955;-0.058932;,
      -0.158462; 3.178913; 0.103938;,
      -0.075360; 3.222195; 0.049232;,
      -0.075360; 3.222195; 0.049232;,
      -0.158462; 3.178913; 0.103938;,
       0.000667; 3.274529; 0.064056;,
      -0.158462; 3.178913; 0.103938;,
       0.000573; 3.229103; 0.182492;,
       0.000667; 3.274529; 0.064056;,
       0.000667; 3.274529; 0.064056;,
       0.000573; 3.229103; 0.182492;,
       0.050201; 3.282222; 0.041345;,
       0.000573; 3.229103; 0.182492;,
       0.050184; 3.233432; 0.177693;,
       0.050201; 3.282222; 0.041345;,
       0.050201; 3.282222; 0.041345;,
       0.050184; 3.233432; 0.177693;,
       0.190096; 3.323542; 0.069318;,
       0.050184; 3.233432; 0.177693;,
       0.190386; 3.291333; 0.157076;,
       0.190096; 3.323542; 0.069318;,
       0.012999; 2.003838;-0.071085;,
       0.012948; 1.800695;-0.073929;,
      -0.070418; 2.216632;-0.011618;,
       0.012948; 1.800695;-0.073929;,
      -0.066828; 2.013487;-0.014461;,
      -0.070418; 2.216632;-0.011618;,
      -0.070418; 2.216632;-0.011618;,
      -0.066828; 2.013487;-0.014461;,
      -0.066041; 2.287405; 0.084193;,
      -0.066041; 2.287405; 0.084193;,
      -0.066828; 2.013487;-0.014461;,
      -0.062449; 2.084262; 0.081348;,
      -0.066041; 2.287405; 0.084193;,
      -0.062449; 2.084262; 0.081348;,
       0.000133; 2.360313; 0.127728;,
      -0.062449; 2.084262; 0.081348;,
       0.000082; 2.157169; 0.124889;,
       0.000133; 2.360313; 0.127728;,
       0.000133; 2.360313; 0.127728;,
       0.000082; 2.157169; 0.124889;,
       0.095604; 2.434448; 0.076464;,
       0.000082; 2.157169; 0.124889;,
       0.099196; 2.231304; 0.073617;,
       0.095604; 2.434448; 0.076464;,
       0.095604; 2.434448; 0.076464;,
       0.099196; 2.231304; 0.073617;,
       0.088681; 2.507676;-0.017327;,
       0.099196; 2.231304; 0.073617;,
       0.092272; 2.304533;-0.020177;,
       0.088681; 2.507676;-0.017327;,
       0.088681; 2.507676;-0.017327;,
       0.092272; 2.304533;-0.020177;,
       0.000335; 2.590641;-0.053182;,
       0.092272; 2.304533;-0.020177;,
       0.000291; 2.410443;-0.055684;,
       0.000335; 2.590641;-0.053182;,
       0.000335; 2.590641;-0.053182;,
       0.000291; 2.410443;-0.055684;,
      -0.070773; 2.647810;-0.007316;,
       0.000291; 2.410443;-0.055684;,
      -0.067755; 2.477103;-0.009712;,
      -0.070773; 2.647810;-0.007316;,
      -0.070773; 2.647810;-0.007316;,
      -0.067755; 2.477103;-0.009712;,
      -0.067093; 2.707276; 0.073188;,
      -0.067755; 2.477103;-0.009712;,
      -0.064076; 2.536575; 0.070798;,
      -0.067093; 2.707276; 0.073188;,
      -0.067093; 2.707276; 0.073188;,
      -0.064076; 2.536575; 0.070798;,
       0.000335; 2.768539; 0.109769;,
      -0.064076; 2.536575; 0.070798;,
       0.000293; 2.597838; 0.107379;,
       0.000335; 2.768539; 0.109769;,
       0.000335; 2.768539; 0.109769;,
       0.000293; 2.597838; 0.107379;,
       0.068736; 2.830834; 0.066690;,
       0.000293; 2.597838; 0.107379;,
       0.071755; 2.660136; 0.064306;,
       0.068736; 2.830834; 0.066690;,
       0.068736; 2.830834; 0.066690;,
       0.071755; 2.660136; 0.064306;,
       0.062918; 2.892366;-0.012125;,
       0.071755; 2.660136; 0.064306;,
       0.065935; 2.721666;-0.014515;,
       0.062918; 2.892366;-0.012125;,
       0.062918; 2.892366;-0.012125;,
       0.065935; 2.721666;-0.014515;,
       0.000516; 2.948318;-0.050024;,
       0.065935; 2.721666;-0.014515;,
       0.000475; 2.787101;-0.052281;,
       0.000516; 2.948318;-0.050024;,
       0.000516; 2.948318;-0.050024;,
       0.000475; 2.787101;-0.052281;,
      -0.076033; 2.998774;-0.009137;,
       0.000475; 2.787101;-0.052281;,
      -0.073351; 2.847040;-0.011261;,
      -0.076033; 2.998774;-0.009137;,
      -0.076033; 2.998774;-0.009137;,
      -0.073351; 2.847040;-0.011261;,
      -0.072762; 3.051637; 0.062426;,
      -0.073351; 2.847040;-0.011261;,
      -0.070081; 2.899904; 0.060302;,
      -0.072762; 3.051637; 0.062426;,
      -0.072762; 3.051637; 0.062426;,
      -0.070081; 2.899904; 0.060302;,
       0.000525; 3.106093; 0.094944;,
      -0.070081; 2.899904; 0.060302;,
       0.000487; 2.954393; 0.092819;,
       0.000525; 3.106093; 0.094944;,
       0.000525; 3.106093; 0.094944;,
       0.000487; 2.954393; 0.092819;,
       0.047974; 3.161466; 0.056651;,
       0.000487; 2.954393; 0.092819;,
       0.050656; 3.009733; 0.054527;,
       0.047974; 3.161466; 0.056651;,
       0.047974; 3.161466; 0.056651;,
       0.050656; 3.009733; 0.054527;,
       0.042803; 3.216163;-0.013406;,
       0.050656; 3.009733; 0.054527;,
       0.045485; 3.064430;-0.015530;,
       0.042803; 3.216163;-0.013406;,
       0.042803; 3.216163;-0.013406;,
       0.045485; 3.064430;-0.015530;,
       0.000685; 3.265126;-0.047433;,
       0.045485; 3.064430;-0.015530;,
       0.000000; 3.122875;-0.049425;,
       0.000685; 3.265126;-0.047433;,
       0.000685; 3.265126;-0.047433;,
       0.000000; 3.122875;-0.049425;,
      -0.080568; 3.308707;-0.011527;,
       0.000000; 3.122875;-0.049425;,
      -0.078222; 3.175939;-0.013385;,
      -0.080568; 3.308707;-0.011527;,
      -0.080568; 3.308707;-0.011527;,
      -0.078222; 3.175939;-0.013385;,
      -0.077707; 3.354962; 0.051091;,
      -0.078222; 3.175939;-0.013385;,
      -0.075360; 3.222195; 0.049232;,
      -0.077707; 3.354962; 0.051091;,
      -0.077707; 3.354962; 0.051091;,
      -0.075360; 3.222195; 0.049232;,
       0.000780; 3.397124; 0.064418;,
      -0.075360; 3.222195; 0.049232;,
       0.000667; 3.274529; 0.064056;,
       0.000780; 3.397124; 0.064418;,
       0.000780; 3.397124; 0.064418;,
       0.000667; 3.274529; 0.064056;,
       0.050208; 3.413955; 0.063222;,
       0.000667; 3.274529; 0.064056;,
       0.050201; 3.282222; 0.041345;,
       0.050208; 3.413955; 0.063222;,
       0.050208; 3.413955; 0.063222;,
       0.050201; 3.282222; 0.041345;,
       0.189978; 3.395701; 0.087160;,
       0.050201; 3.282222; 0.041345;,
       0.190096; 3.323542; 0.069318;,
       0.189978; 3.395701; 0.087160;,
       0.013013; 2.047828;-0.225180;,
       0.012999; 2.003838;-0.071085;,
      -0.208931; 2.277941;-0.079549;,
       0.012999; 2.003838;-0.071085;,
      -0.070418; 2.216632;-0.011618;,
      -0.208931; 2.277941;-0.079549;,
      -0.208931; 2.277941;-0.079549;,
      -0.070418; 2.216632;-0.011618;,
      -0.195409; 2.346730; 0.169654;,
      -0.070418; 2.216632;-0.011618;,
      -0.066041; 2.287405; 0.084193;,
      -0.195409; 2.346730; 0.169654;,
      -0.195409; 2.346730; 0.169654;,
      -0.066041; 2.287405; 0.084193;,
       0.000021; 2.421101; 0.282025;,
      -0.066041; 2.287405; 0.084193;,
       0.000133; 2.360313; 0.127728;,
       0.000021; 2.421101; 0.282025;,
       0.000021; 2.421101; 0.282025;,
       0.000133; 2.360313; 0.127728;,
       0.231900; 2.498687; 0.146150;,
       0.000133; 2.360313; 0.127728;,
       0.095604; 2.434448; 0.076464;,
       0.231900; 2.498687; 0.146150;,
       0.231900; 2.498687; 0.146150;,
       0.095604; 2.434448; 0.076464;,
       0.215833; 2.573903;-0.101037;,
       0.095604; 2.434448; 0.076464;,
       0.088681; 2.507676;-0.017327;,
       0.215833; 2.573903;-0.101037;,
       0.215833; 2.573903;-0.101037;,
       0.088681; 2.507676;-0.017327;,
       0.000464; 2.648081;-0.188462;,
       0.088681; 2.507676;-0.017327;,
       0.000335; 2.590641;-0.053182;,
       0.000464; 2.648081;-0.188462;,
       0.000464; 2.648081;-0.188462;,
       0.000335; 2.590641;-0.053182;,
      -0.187253; 2.699455;-0.064435;,
       0.000335; 2.590641;-0.053182;,
      -0.070773; 2.647810;-0.007316;,
      -0.187253; 2.699455;-0.064435;,
      -0.187253; 2.699455;-0.064435;,
      -0.070773; 2.647810;-0.007316;,
      -0.175801; 2.757124; 0.144999;,
      -0.070773; 2.647810;-0.007316;,
      -0.067093; 2.707276; 0.073188;,
      -0.175801; 2.757124; 0.144999;,
      -0.175801; 2.757124; 0.144999;,
      -0.067093; 2.707276; 0.073188;,
       0.000240; 2.819618; 0.239402;,
      -0.067093; 2.707276; 0.073188;,
       0.000335; 2.768539; 0.109769;,
       0.000240; 2.819618; 0.239402;,
       0.000240; 2.819618; 0.239402;,
       0.000335; 2.768539; 0.109769;,
       0.183264; 2.884813; 0.125249;,
       0.000335; 2.768539; 0.109769;,
       0.068736; 2.830834; 0.066690;,
       0.183264; 2.884813; 0.125249;,
       0.183264; 2.884813; 0.125249;,
       0.068736; 2.830834; 0.066690;,
       0.169763; 2.948016;-0.082460;,
       0.068736; 2.830834; 0.066690;,
       0.062918; 2.892366;-0.012125;,
       0.169763; 2.948016;-0.082460;,
       0.169763; 2.948016;-0.082460;,
       0.062918; 2.892366;-0.012125;,
       0.000630; 2.999713;-0.171060;,
       0.062918; 2.892366;-0.012125;,
       0.000516; 2.948318;-0.050024;,
       0.000630; 2.999713;-0.171060;,
       0.000630; 2.999713;-0.171060;,
       0.000516; 2.948318;-0.050024;,
      -0.179492; 3.044568;-0.059877;,
       0.000516; 2.948318;-0.050024;,
      -0.076033; 2.998774;-0.009137;,
      -0.179492; 3.044568;-0.059877;,
      -0.179492; 3.044568;-0.059877;,
      -0.076033; 2.998774;-0.009137;,
      -0.169392; 3.095948; 0.126259;,
      -0.076033; 2.998774;-0.009137;,
      -0.072762; 3.051637; 0.062426;,
      -0.169392; 3.095948; 0.126259;,
      -0.169392; 3.095948; 0.126259;,
      -0.072762; 3.051637; 0.062426;,
       0.000440; 3.151498; 0.210173;,
      -0.072762; 3.051637; 0.062426;,
       0.000525; 3.106093; 0.094944;,
       0.000440; 3.151498; 0.210173;,
       0.000440; 3.151498; 0.210173;,
       0.000525; 3.106093; 0.094944;,
       0.149776; 3.209448; 0.108704;,
       0.000525; 3.106093; 0.094944;,
       0.047974; 3.161466; 0.056651;,
       0.149776; 3.209448; 0.108704;,
       0.149776; 3.209448; 0.108704;,
       0.047974; 3.161466; 0.056651;,
       0.137776; 3.265629;-0.075926;,
       0.047974; 3.161466; 0.056651;,
       0.042803; 3.216163;-0.013406;,
       0.137776; 3.265629;-0.075926;,
       0.137776; 3.265629;-0.075926;,
       0.042803; 3.216163;-0.013406;,
       0.000786; 3.310473;-0.154230;,
       0.042803; 3.216163;-0.013406;,
       0.000685; 3.265126;-0.047433;,
       0.000786; 3.310473;-0.154230;,
       0.000786; 3.310473;-0.154230;,
       0.000685; 3.265126;-0.047433;,
      -0.171095; 3.348776;-0.055924;,
       0.000685; 3.265126;-0.047433;,
      -0.080568; 3.308707;-0.011527;,
      -0.171095; 3.348776;-0.055924;,
      -0.171095; 3.348776;-0.055924;,
      -0.080568; 3.308707;-0.011527;,
      -0.162258; 3.393734; 0.106945;,
      -0.080568; 3.308707;-0.011527;,
      -0.077707; 3.354962; 0.051091;,
      -0.162258; 3.393734; 0.106945;,
      -0.162258; 3.393734; 0.106945;,
      -0.077707; 3.354962; 0.051091;,
       0.000850; 3.466156; 0.176708;,
      -0.077707; 3.354962; 0.051091;,
       0.000780; 3.397124; 0.064418;,
       0.000850; 3.466156; 0.176708;,
       0.000850; 3.466156; 0.176708;,
       0.000780; 3.397124; 0.064418;,
       0.050195; 3.464998; 0.169836;,
       0.000780; 3.397124; 0.064418;,
       0.050208; 3.413955; 0.063222;,
       0.050195; 3.464998; 0.169836;,
       0.050195; 3.464998; 0.169836;,
       0.050208; 3.413955; 0.063222;,
       0.190195; 3.425754; 0.150277;,
       0.050208; 3.413955; 0.063222;,
       0.189978; 3.395701; 0.087160;,
       0.190195; 3.425754; 0.150277;,
       0.012972; 1.905749;-0.321138;,
       0.013013; 2.047828;-0.225180;,
      -0.290945; 2.112689;-0.124380;,
       0.013013; 2.047828;-0.225180;,
      -0.208931; 2.277941;-0.079549;,
      -0.290945; 2.112689;-0.124380;,
      -0.290945; 2.112689;-0.124380;,
      -0.208931; 2.277941;-0.079549;,
      -0.271777; 2.180250; 0.219626;,
      -0.208931; 2.277941;-0.079549;,
      -0.195409; 2.346730; 0.169654;,
      -0.271777; 2.180250; 0.219626;,
      -0.271777; 2.180250; 0.219626;,
      -0.195409; 2.346730; 0.169654;,
      -0.000101; 2.255528; 0.374500;,
      -0.195409; 2.346730; 0.169654;,
       0.000021; 2.421101; 0.282025;,
      -0.000101; 2.255528; 0.374500;,
      -0.000101; 2.255528; 0.374500;,
       0.000021; 2.421101; 0.282025;,
       0.319725; 2.335245; 0.186377;,
       0.000021; 2.421101; 0.282025;,
       0.231900; 2.498687; 0.146150;,
       0.319725; 2.335245; 0.186377;,
       0.319725; 2.335245; 0.186377;,
       0.231900; 2.498687; 0.146150;,
       0.298201; 2.411681;-0.154822;,
       0.231900; 2.498687; 0.146150;,
       0.215833; 2.573903;-0.101037;,
       0.298201; 2.411681;-0.154822;,
       0.298201; 2.411681;-0.154822;,
       0.215833; 2.573903;-0.101037;,
       0.000498; 2.503401;-0.274581;,
       0.215833; 2.573903;-0.101037;,
       0.000464; 2.648081;-0.188462;,
       0.000498; 2.503401;-0.274581;,
       0.000498; 2.503401;-0.274581;,
       0.000464; 2.648081;-0.188462;,
      -0.256082; 2.560462;-0.102074;,
       0.000464; 2.648081;-0.188462;,
      -0.187253; 2.699455;-0.064435;,
      -0.256082; 2.560462;-0.102074;,
      -0.256082; 2.560462;-0.102074;,
      -0.187253; 2.699455;-0.064435;,
      -0.239972; 2.617233; 0.186993;,
      -0.187253; 2.699455;-0.064435;,
      -0.175801; 2.757124; 0.144999;,
      -0.239972; 2.617233; 0.186993;,
      -0.239972; 2.617233; 0.186993;,
      -0.175801; 2.757124; 0.144999;,
       0.000139; 2.680487; 0.317130;,
      -0.175801; 2.757124; 0.144999;,
       0.000240; 2.819618; 0.239402;,
       0.000139; 2.680487; 0.317130;,
       0.000139; 2.680487; 0.317130;,
       0.000240; 2.819618; 0.239402;,
       0.257062; 2.747474; 0.159051;,
       0.000240; 2.819618; 0.239402;,
       0.183264; 2.884813; 0.125249;,
       0.257062; 2.747474; 0.159051;,
       0.257062; 2.747474; 0.159051;,
       0.183264; 2.884813; 0.125249;,
       0.238813; 2.811709;-0.128320;,
       0.183264; 2.884813; 0.125249;,
       0.169763; 2.948016;-0.082460;,
       0.238813; 2.811709;-0.128320;,
       0.238813; 2.811709;-0.128320;,
       0.169763; 2.948016;-0.082460;,
       0.000661; 2.870259;-0.248122;,
       0.169763; 2.948016;-0.082460;,
       0.000630; 2.999713;-0.171060;,
       0.000661; 2.870259;-0.248122;,
       0.000661; 2.870259;-0.248122;,
       0.000630; 2.999713;-0.171060;,
      -0.240752; 2.921136;-0.093360;,
       0.000630; 2.999713;-0.171060;,
      -0.179492; 3.044568;-0.059877;,
      -0.240752; 2.921136;-0.093360;,
      -0.240752; 2.921136;-0.093360;,
      -0.179492; 3.044568;-0.059877;,
      -0.226431; 2.971600; 0.163586;,
      -0.179492; 3.044568;-0.059877;,
      -0.169392; 3.095948; 0.126259;,
      -0.226431; 2.971600; 0.163586;,
      -0.226431; 2.971600; 0.163586;,
      -0.169392; 3.095948; 0.126259;,
       0.000351; 3.027827; 0.279265;,
      -0.169392; 3.095948; 0.126259;,
       0.000440; 3.151498; 0.210173;,
       0.000351; 3.027827; 0.279265;,
       0.000351; 3.027827; 0.279265;,
       0.000440; 3.151498; 0.210173;,
       0.215375; 3.087370; 0.138750;,
       0.000440; 3.151498; 0.210173;,
       0.149776; 3.209448; 0.108704;,
       0.215375; 3.087370; 0.138750;,
       0.215375; 3.087370; 0.138750;,
       0.149776; 3.209448; 0.108704;,
       0.199154; 3.144466;-0.116690;,
       0.149776; 3.209448; 0.108704;,
       0.137776; 3.265629;-0.075926;,
       0.199154; 3.144466;-0.116690;,
       0.199154; 3.144466;-0.116690;,
       0.137776; 3.265629;-0.075926;,
       0.000813; 3.196250;-0.222226;,
       0.137776; 3.265629;-0.075926;,
       0.000786; 3.310473;-0.154230;,
       0.000813; 3.196250;-0.222226;,
       0.000813; 3.196250;-0.222226;,
       0.000786; 3.310473;-0.154230;,
      -0.224698; 3.240774;-0.085222;,
       0.000786; 3.310473;-0.154230;,
      -0.171095; 3.348776;-0.055924;,
      -0.224698; 3.240774;-0.085222;,
      -0.224698; 3.240774;-0.085222;,
      -0.171095; 3.348776;-0.055924;,
      -0.212167; 3.284930; 0.139606;,
      -0.171095; 3.348776;-0.055924;,
      -0.162258; 3.393734; 0.106945;,
      -0.212167; 3.284930; 0.139606;,
      -0.212167; 3.284930; 0.139606;,
      -0.162258; 3.393734; 0.106945;,
       0.000553; 3.340290; 0.240764;,
      -0.162258; 3.393734; 0.106945;,
       0.000850; 3.466156; 0.176708;,
       0.000553; 3.340290; 0.240764;,
       0.000553; 3.340290; 0.240764;,
       0.000850; 3.466156; 0.176708;,
       0.050180; 3.349785; 0.241342;,
       0.000850; 3.466156; 0.176708;,
       0.050195; 3.464998; 0.169836;,
       0.050180; 3.349785; 0.241342;,
       0.050180; 3.349785; 0.241342;,
       0.050195; 3.464998; 0.169836;,
       0.190447; 3.358138; 0.192088;,
       0.050195; 3.464998; 0.169836;,
       0.190195; 3.425754; 0.150277;,
       0.190447; 3.358138; 0.192088;,
      -0.203096; 1.949249;-0.084200;,
       0.012932; 1.740072;-0.228470;,
       0.012972; 1.905749;-0.321138;,
       0.012972; 1.905749;-0.321138;,
      -0.290945; 2.112689;-0.124380;,
      -0.203096; 1.949249;-0.084200;,
      -0.203096; 1.949249;-0.084200;,
      -0.290945; 2.112689;-0.124380;,
      -0.189600; 2.018036; 0.165052;,
      -0.290945; 2.112689;-0.124380;,
      -0.271777; 2.180250; 0.219626;,
      -0.189600; 2.018036; 0.165052;,
      -0.189600; 2.018036; 0.165052;,
      -0.271777; 2.180250; 0.219626;,
      -0.000062; 2.092409; 0.277397;,
      -0.271777; 2.180250; 0.219626;,
      -0.000101; 2.255528; 0.374500;,
      -0.000062; 2.092409; 0.277397;,
      -0.000062; 2.092409; 0.277397;,
      -0.000101; 2.255528; 0.374500;,
       0.237709; 2.169994; 0.141548;,
      -0.000101; 2.255528; 0.374500;,
       0.319725; 2.335245; 0.186377;,
       0.237709; 2.169994; 0.141548;,
       0.237709; 2.169994; 0.141548;,
       0.319725; 2.335245; 0.186377;,
       0.221642; 2.245209;-0.105638;,
       0.319725; 2.335245; 0.186377;,
       0.298201; 2.411681;-0.154822;,
       0.221642; 2.245209;-0.105638;,
       0.221642; 2.245209;-0.105638;,
       0.298201; 2.411681;-0.154822;,
       0.000389; 2.356380;-0.192489;,
       0.298201; 2.411681;-0.154822;,
       0.000498; 2.503401;-0.274581;,
       0.000389; 2.356380;-0.192489;,
       0.000389; 2.356380;-0.192489;,
       0.000498; 2.503401;-0.274581;,
      -0.182282; 2.423123;-0.068271;,
       0.000498; 2.503401;-0.274581;,
      -0.256082; 2.560462;-0.102074;,
      -0.182282; 2.423123;-0.068271;,
      -0.182282; 2.423123;-0.068271;,
      -0.256082; 2.560462;-0.102074;,
      -0.170922; 2.480925; 0.141134;,
      -0.256082; 2.560462;-0.102074;,
      -0.239972; 2.617233; 0.186993;,
      -0.170922; 2.480925; 0.141134;,
      -0.170922; 2.480925; 0.141134;,
      -0.239972; 2.617233; 0.186993;,
       0.000172; 2.543420; 0.235535;,
      -0.239972; 2.617233; 0.186993;,
       0.000139; 2.680487; 0.317130;,
       0.000172; 2.543420; 0.235535;,
       0.000172; 2.543420; 0.235535;,
       0.000139; 2.680487; 0.317130;,
       0.188164; 2.608622; 0.121429;,
       0.000139; 2.680487; 0.317130;,
       0.257062; 2.747474; 0.159051;,
       0.188164; 2.608622; 0.121429;,
       0.188164; 2.608622; 0.121429;,
       0.257062; 2.747474; 0.159051;,
       0.174646; 2.671818;-0.086326;,
       0.257062; 2.747474; 0.159051;,
       0.238813; 2.811709;-0.128320;,
       0.174646; 2.671818;-0.086326;,
       0.174646; 2.671818;-0.086326;,
       0.238813; 2.811709;-0.128320;,
       0.000565; 2.738861;-0.174715;,
       0.238813; 2.811709;-0.128320;,
       0.000661; 2.870259;-0.248122;,
       0.000565; 2.738861;-0.174715;,
       0.000565; 2.738861;-0.174715;,
       0.000661; 2.870259;-0.248122;,
      -0.175153; 2.799058;-0.063314;,
       0.000661; 2.870259;-0.248122;,
      -0.240752; 2.921136;-0.093360;,
      -0.175153; 2.799058;-0.063314;,
      -0.175153; 2.799058;-0.063314;,
      -0.240752; 2.921136;-0.093360;,
      -0.165053; 2.850437; 0.122822;,
      -0.240752; 2.921136;-0.093360;,
      -0.226431; 2.971600; 0.163586;,
      -0.165053; 2.850437; 0.122822;,
      -0.165053; 2.850437; 0.122822;,
      -0.226431; 2.971600; 0.163586;,
       0.000379; 2.905989; 0.206737;,
      -0.226431; 2.971600; 0.163586;,
       0.000351; 3.027827; 0.279265;,
       0.000379; 2.905989; 0.206737;,
       0.000379; 2.905989; 0.206737;,
       0.000351; 3.027827; 0.279265;,
       0.154115; 2.963938; 0.105267;,
       0.000351; 3.027827; 0.279265;,
       0.215375; 3.087370; 0.138750;,
       0.154115; 2.963938; 0.105267;,
       0.154115; 2.963938; 0.105267;,
       0.215375; 3.087370; 0.138750;,
       0.142115; 3.020119;-0.079364;,
       0.215375; 3.087370; 0.138750;,
       0.199154; 3.144466;-0.116690;,
       0.142115; 3.020119;-0.079364;,
       0.142115; 3.020119;-0.079364;,
       0.199154; 3.144466;-0.116690;,
       0.000729; 3.080308;-0.157453;,
       0.199154; 3.144466;-0.116690;,
       0.000813; 3.196250;-0.222226;,
       0.000729; 3.080308;-0.157453;,
       0.000729; 3.080308;-0.157453;,
       0.000813; 3.196250;-0.222226;,
      -0.167299; 3.133955;-0.058932;,
       0.000813; 3.196250;-0.222226;,
      -0.224698; 3.240774;-0.085222;,
      -0.167299; 3.133955;-0.058932;,
      -0.167299; 3.133955;-0.058932;,
      -0.224698; 3.240774;-0.085222;,
      -0.158462; 3.178913; 0.103938;,
      -0.224698; 3.240774;-0.085222;,
      -0.212167; 3.284930; 0.139606;,
      -0.158462; 3.178913; 0.103938;,
      -0.158462; 3.178913; 0.103938;,
      -0.212167; 3.284930; 0.139606;,
       0.000573; 3.229103; 0.182492;,
      -0.212167; 3.284930; 0.139606;,
       0.000553; 3.340290; 0.240764;,
       0.000573; 3.229103; 0.182492;,
       0.000573; 3.229103; 0.182492;,
       0.000553; 3.340290; 0.240764;,
       0.050184; 3.233432; 0.177693;,
       0.000553; 3.340290; 0.240764;,
       0.050180; 3.349785; 0.241342;,
       0.050184; 3.233432; 0.177693;,
       0.050184; 3.233432; 0.177693;,
       0.050180; 3.349785; 0.241342;,
       0.190386; 3.291333; 0.157076;,
       0.050180; 3.349785; 0.241342;,
       0.190447; 3.358138; 0.192088;,
       0.190386; 3.291333; 0.157076;,
       0.190096; 3.323542; 0.069318;,
       0.273515; 3.357806; 0.133650;,
       0.189978; 3.395701; 0.087160;,
       0.273515; 3.357806; 0.133650;,
       0.190195; 3.425754; 0.150277;,
       0.189978; 3.395701; 0.087160;,
       0.190195; 3.425754; 0.150277;,
       0.273515; 3.357806; 0.133650;,
       0.190447; 3.358138; 0.192088;,
       0.273515; 3.357806; 0.133650;,
       0.190386; 3.291333; 0.157076;,
       0.190447; 3.358138; 0.192088;,
       0.190386; 3.291333; 0.157076;,
       0.273515; 3.357806; 0.133650;,
       0.190096; 3.323542; 0.069318;;
      235;
      3;0;1;2;,
      3;3;4;5;,
      3;6;7;8;,
      3;9;10;11;,
      3;12;13;14;,
      3;15;16;17;,
      3;18;19;20;,
      3;21;22;23;,
      3;24;25;26;,
      3;27;28;29;,
      3;30;31;32;,
      3;33;34;35;,
      3;36;37;38;,
      3;39;40;41;,
      3;42;43;44;,
      3;45;46;47;,
      3;48;49;50;,
      3;51;52;53;,
      3;54;55;56;,
      3;57;58;59;,
      3;60;61;62;,
      3;63;64;65;,
      3;66;67;68;,
      3;69;70;71;,
      3;72;73;74;,
      3;75;76;77;,
      3;78;79;80;,
      3;81;82;83;,
      3;84;85;86;,
      3;87;88;89;,
      3;90;91;92;,
      3;93;94;95;,
      3;96;97;98;,
      3;99;100;101;,
      3;102;103;104;,
      3;105;106;107;,
      3;108;109;110;,
      3;111;112;113;,
      3;114;115;116;,
      3;117;118;119;,
      3;120;121;122;,
      3;123;124;125;,
      3;126;127;128;,
      3;129;130;131;,
      3;132;133;134;,
      3;135;136;137;,
      3;138;139;140;,
      3;141;142;143;,
      3;144;145;146;,
      3;147;148;149;,
      3;150;151;152;,
      3;153;154;155;,
      3;156;157;158;,
      3;159;160;161;,
      3;162;163;164;,
      3;165;166;167;,
      3;168;169;170;,
      3;171;172;173;,
      3;174;175;176;,
      3;177;178;179;,
      3;180;181;182;,
      3;183;184;185;,
      3;186;187;188;,
      3;189;190;191;,
      3;192;193;194;,
      3;195;196;197;,
      3;198;199;200;,
      3;201;202;203;,
      3;204;205;206;,
      3;207;208;209;,
      3;210;211;212;,
      3;213;214;215;,
      3;216;217;218;,
      3;219;220;221;,
      3;222;223;224;,
      3;225;226;227;,
      3;228;229;230;,
      3;231;232;233;,
      3;234;235;236;,
      3;237;238;239;,
      3;240;241;242;,
      3;243;244;245;,
      3;246;247;248;,
      3;249;250;251;,
      3;252;253;254;,
      3;255;256;257;,
      3;258;259;260;,
      3;261;262;263;,
      3;264;265;266;,
      3;267;268;269;,
      3;270;271;272;,
      3;273;274;275;,
      3;276;277;278;,
      3;279;280;281;,
      3;282;283;284;,
      3;285;286;287;,
      3;288;289;290;,
      3;291;292;293;,
      3;294;295;296;,
      3;297;298;299;,
      3;300;301;302;,
      3;303;304;305;,
      3;306;307;308;,
      3;309;310;311;,
      3;312;313;314;,
      3;315;316;317;,
      3;318;319;320;,
      3;321;322;323;,
      3;324;325;326;,
      3;327;328;329;,
      3;330;331;332;,
      3;333;334;335;,
      3;336;337;338;,
      3;339;340;341;,
      3;342;343;344;,
      3;345;346;347;,
      3;348;349;350;,
      3;351;352;353;,
      3;354;355;356;,
      3;357;358;359;,
      3;360;361;362;,
      3;363;364;365;,
      3;366;367;368;,
      3;369;370;371;,
      3;372;373;374;,
      3;375;376;377;,
      3;378;379;380;,
      3;381;382;383;,
      3;384;385;386;,
      3;387;388;389;,
      3;390;391;392;,
      3;393;394;395;,
      3;396;397;398;,
      3;399;400;401;,
      3;402;403;404;,
      3;405;406;407;,
      3;408;409;410;,
      3;411;412;413;,
      3;414;415;416;,
      3;417;418;419;,
      3;420;421;422;,
      3;423;424;425;,
      3;426;427;428;,
      3;429;430;431;,
      3;432;433;434;,
      3;435;436;437;,
      3;438;439;440;,
      3;441;442;443;,
      3;444;445;446;,
      3;447;448;449;,
      3;450;451;452;,
      3;453;454;455;,
      3;456;457;458;,
      3;459;460;461;,
      3;462;463;464;,
      3;465;466;467;,
      3;468;469;470;,
      3;471;472;473;,
      3;474;475;476;,
      3;477;478;479;,
      3;480;481;482;,
      3;483;484;485;,
      3;486;487;488;,
      3;489;490;491;,
      3;492;493;494;,
      3;495;496;497;,
      3;498;499;500;,
      3;501;502;503;,
      3;504;505;506;,
      3;507;508;509;,
      3;510;511;512;,
      3;513;514;515;,
      3;516;517;518;,
      3;519;520;521;,
      3;522;523;524;,
      3;525;526;527;,
      3;528;529;530;,
      3;531;532;533;,
      3;534;535;536;,
      3;537;538;539;,
      3;540;541;542;,
      3;543;544;545;,
      3;546;547;548;,
      3;549;550;551;,
      3;552;553;554;,
      3;555;556;557;,
      3;558;559;560;,
      3;561;562;563;,
      3;564;565;566;,
      3;567;568;569;,
      3;570;571;572;,
      3;573;574;575;,
      3;576;577;578;,
      3;579;580;581;,
      3;582;583;584;,
      3;585;586;587;,
      3;588;589;590;,
      3;591;592;593;,
      3;594;595;596;,
      3;597;598;599;,
      3;600;601;602;,
      3;603;604;605;,
      3;606;607;608;,
      3;609;610;611;,
      3;612;613;614;,
      3;615;616;617;,
      3;618;619;620;,
      3;621;622;623;,
      3;624;625;626;,
      3;627;628;629;,
      3;630;631;632;,
      3;633;634;635;,
      3;636;637;638;,
      3;639;640;641;,
      3;642;643;644;,
      3;645;646;647;,
      3;648;649;650;,
      3;651;652;653;,
      3;654;655;656;,
      3;657;658;659;,
      3;660;661;662;,
      3;663;664;665;,
      3;666;667;668;,
      3;669;670;671;,
      3;672;673;674;,
      3;675;676;677;,
      3;678;679;680;,
      3;681;682;683;,
      3;684;685;686;,
      3;687;688;689;,
      3;690;691;692;,
      3;693;694;695;,
      3;696;697;698;,
      3;699;700;701;,
      3;702;703;704;;
      MeshNormals { //Mesh Normals
        705;
         0.849239; 0.410169;-0.332408;,
         0.831233; 0.532609; 0.159185;,
        -0.398297; 0.474013;-0.785241;,
         0.619037; 0.780175;-0.089938;,
        -0.398297; 0.474013;-0.785241;,
         0.831233; 0.532609; 0.159185;,
        -0.843440; 0.529984;-0.087558;,
        -0.398297; 0.474013;-0.785241;,
         0.619037; 0.780175;-0.089938;,
         0.619037; 0.780175;-0.089938;,
         0.253151; 0.868984;-0.425153;,
        -0.843440; 0.529984;-0.087558;,
        -0.843440; 0.529984;-0.087558;,
         0.253151; 0.868984;-0.425153;,
        -0.494064; 0.559801; 0.665181;,
         0.253151; 0.868984;-0.425153;,
        -0.231910; 0.850185;-0.472610;,
        -0.494064; 0.559801; 0.665181;,
        -0.494064; 0.559801; 0.665181;,
        -0.231910; 0.850185;-0.472610;,
         0.331736; 0.584918; 0.740104;,
        -0.231910; 0.850185;-0.472610;,
        -0.529710; 0.847346;-0.037111;,
         0.331736; 0.584918; 0.740104;,
         0.331736; 0.584918; 0.740104;,
        -0.529710; 0.847346;-0.037111;,
         0.822565; 0.550188; 0.143681;,
        -0.529710; 0.847346;-0.037111;,
        -0.243843; 0.823420; 0.512314;,
         0.822565; 0.550188; 0.143681;,
         0.822565; 0.550188; 0.143681;,
        -0.243843; 0.823420; 0.512314;,
         0.464736; 0.553240;-0.691305;,
        -0.243843; 0.823420; 0.512314;,
         0.336924; 0.809412; 0.480911;,
         0.464736; 0.553240;-0.691305;,
         0.464736; 0.553240;-0.691305;,
         0.336924; 0.809412; 0.480911;,
        -0.392102; 0.572771;-0.719810;,
         0.336924; 0.809412; 0.480911;,
         0.515732; 0.856349; 0.024812;,
        -0.392102; 0.572771;-0.719810;,
        -0.392102; 0.572771;-0.719810;,
         0.515732; 0.856349; 0.024812;,
        -0.831538; 0.553697;-0.044099;,
         0.515732; 0.856349; 0.024812;,
         0.259896; 0.866054;-0.427045;,
        -0.831538; 0.553697;-0.044099;,
        -0.831538; 0.553697;-0.044099;,
         0.259896; 0.866054;-0.427045;,
        -0.468825; 0.565539; 0.678457;,
         0.259896; 0.866054;-0.427045;,
        -0.245827; 0.849849;-0.466140;,
        -0.468825; 0.565539; 0.678457;,
        -0.468825; 0.565539; 0.678457;,
        -0.245827; 0.849849;-0.466140;,
         0.356059; 0.578356; 0.733940;,
        -0.245827; 0.849849;-0.466140;,
        -0.533250; 0.845546;-0.025727;,
         0.356059; 0.578356; 0.733940;,
         0.356059; 0.578356; 0.733940;,
        -0.533250; 0.845546;-0.025727;,
         0.819330; 0.567217; 0.083163;,
        -0.533250; 0.845546;-0.025727;,
        -0.277261; 0.840175; 0.466018;,
         0.819330; 0.567217; 0.083163;,
         0.819330; 0.567217; 0.083163;,
        -0.277261; 0.840175; 0.466018;,
         0.477737; 0.580462;-0.659383;,
        -0.277261; 0.840175; 0.466018;,
         0.259316; 0.834010; 0.486953;,
         0.477737; 0.580462;-0.659383;,
         0.477737; 0.580462;-0.659383;,
         0.259316; 0.834010; 0.486953;,
        -0.357097; 0.581957;-0.730583;,
         0.259316; 0.834010; 0.486953;,
         0.512619; 0.857753; 0.037751;,
        -0.357097; 0.581957;-0.730583;,
        -0.357097; 0.581957;-0.730583;,
         0.512619; 0.857753; 0.037751;,
        -0.815516; 0.578661; 0.006806;,
         0.512619; 0.857753; 0.037751;,
         0.267006; 0.862575;-0.429701;,
        -0.815516; 0.578661; 0.006806;,
        -0.815516; 0.578661; 0.006806;,
         0.267006; 0.862575;-0.429701;,
        -0.463820; 0.567583; 0.680197;,
         0.267006; 0.862575;-0.429701;,
        -0.263985; 0.848567;-0.458480;,
        -0.463820; 0.567583; 0.680197;,
        -0.463820; 0.567583; 0.680197;,
        -0.263985; 0.848567;-0.458480;,
         0.398785; 0.568896; 0.719230;,
        -0.263985; 0.848567;-0.458480;,
        -0.537522; 0.843165;-0.009613;,
         0.398785; 0.568896; 0.719230;,
         0.398785; 0.568896; 0.719230;,
        -0.537522; 0.843165;-0.009613;,
         0.833003; 0.537461; 0.131108;,
        -0.537522; 0.843165;-0.009613;,
        -0.268410; 0.843287; 0.465590;,
         0.833003; 0.537461; 0.131108;,
         0.833003; 0.537461; 0.131108;,
        -0.268410; 0.843287; 0.465590;,
         0.513871; 0.572527;-0.638844;,
        -0.268410; 0.843287; 0.465590;,
         0.244667; 0.833033; 0.496139;,
         0.513871; 0.572527;-0.638844;,
         0.513871; 0.572527;-0.638844;,
         0.244667; 0.833033; 0.496139;,
        -0.328257; 0.590716;-0.737053;,
         0.244667; 0.833033; 0.496139;,
         0.508957; 0.859188; 0.052065;,
        -0.328257; 0.590716;-0.737053;,
        -0.328257; 0.590716;-0.737053;,
         0.508957; 0.859188; 0.052065;,
        -0.790674; 0.611682; 0.025361;,
         0.508957; 0.859188; 0.052065;,
         0.274148; 0.861568;-0.427198;,
        -0.790674; 0.611682; 0.025361;,
        -0.790674; 0.611682; 0.025361;,
         0.274148; 0.861568;-0.427198;,
        -0.107517; 0.553850; 0.825617;,
         0.274148; 0.861568;-0.427198;,
        -0.043855; 0.879788;-0.473281;,
        -0.107517; 0.553850; 0.825617;,
        -0.107517; 0.553850; 0.825617;,
        -0.043855; 0.879788;-0.473281;,
         0.002655; 0.471084; 0.882046;,
        -0.043855; 0.879788;-0.473281;,
        -0.243965; 0.910764;-0.333110;,
         0.002655; 0.471084; 0.882046;,
         0.002655; 0.471084; 0.882046;,
        -0.243965; 0.910764;-0.333110;,
        -0.447798; 0.377514; 0.810511;,
        -0.243965; 0.910764;-0.333110;,
        -0.506027; 0.805506;-0.308267;,
        -0.447798; 0.377514; 0.810511;,
        -0.756554;-0.266457;-0.597156;,
         0.849239; 0.410169;-0.332408;,
        -0.804254;-0.459120; 0.377300;,
         0.849239; 0.410169;-0.332408;,
        -0.398297; 0.474013;-0.785241;,
        -0.804254;-0.459120; 0.377300;,
        -0.804254;-0.459120; 0.377300;,
        -0.398297; 0.474013;-0.785241;,
        -0.320383;-0.581317; 0.747917;,
        -0.320383;-0.581317; 0.747917;,
        -0.398297; 0.474013;-0.785241;,
        -0.843440; 0.529984;-0.087558;,
        -0.320383;-0.581317; 0.747917;,
        -0.843440; 0.529984;-0.087558;,
         0.512833;-0.572100; 0.640034;,
        -0.843440; 0.529984;-0.087558;,
        -0.494064; 0.559801; 0.665181;,
         0.512833;-0.572100; 0.640034;,
         0.512833;-0.572100; 0.640034;,
        -0.494064; 0.559801; 0.665181;,
         0.804407;-0.587481;-0.087924;,
        -0.494064; 0.559801; 0.665181;,
         0.331736; 0.584918; 0.740104;,
         0.804407;-0.587481;-0.087924;,
         0.804407;-0.587481;-0.087924;,
         0.331736; 0.584918; 0.740104;,
         0.265206;-0.543535;-0.796350;,
         0.331736; 0.584918; 0.740104;,
         0.822565; 0.550188; 0.143681;,
         0.265206;-0.543535;-0.796350;,
         0.265206;-0.543535;-0.796350;,
         0.822565; 0.550188; 0.143681;,
        -0.523026;-0.551927;-0.649434;,
         0.822565; 0.550188; 0.143681;,
         0.464736; 0.553240;-0.691305;,
        -0.523026;-0.551927;-0.649434;,
        -0.523026;-0.551927;-0.649434;,
         0.464736; 0.553240;-0.691305;,
        -0.793847;-0.599780; 0.100223;,
         0.464736; 0.553240;-0.691305;,
        -0.392102; 0.572771;-0.719810;,
        -0.793847;-0.599780; 0.100223;,
        -0.793847;-0.599780; 0.100223;,
        -0.392102; 0.572771;-0.719810;,
        -0.287454;-0.590289; 0.754234;,
        -0.392102; 0.572771;-0.719810;,
        -0.831538; 0.553697;-0.044099;,
        -0.287454;-0.590289; 0.754234;,
        -0.287454;-0.590289; 0.754234;,
        -0.831538; 0.553697;-0.044099;,
         0.513627;-0.574725; 0.637043;,
        -0.831538; 0.553697;-0.044099;,
        -0.468825; 0.565539; 0.678457;,
         0.513627;-0.574725; 0.637043;,
         0.513627;-0.574725; 0.637043;,
        -0.468825; 0.565539; 0.678457;,
         0.813562;-0.567583;-0.126164;,
        -0.468825; 0.565539; 0.678457;,
         0.356059; 0.578356; 0.733940;,
         0.813562;-0.567583;-0.126164;,
         0.813562;-0.567583;-0.126164;,
         0.356059; 0.578356; 0.733940;,
         0.345470;-0.557665;-0.754723;,
         0.356059; 0.578356; 0.733940;,
         0.819330; 0.567217; 0.083163;,
         0.345470;-0.557665;-0.754723;,
         0.345470;-0.557665;-0.754723;,
         0.819330; 0.567217; 0.083163;,
        -0.435774;-0.586566;-0.682638;,
         0.819330; 0.567217; 0.083163;,
         0.477737; 0.580462;-0.659383;,
        -0.435774;-0.586566;-0.682638;,
        -0.435774;-0.586566;-0.682638;,
         0.477737; 0.580462;-0.659383;,
        -0.781121;-0.622120; 0.052492;,
         0.477737; 0.580462;-0.659383;,
        -0.357097; 0.581957;-0.730583;,
        -0.781121;-0.622120; 0.052492;,
        -0.781121;-0.622120; 0.052492;,
        -0.357097; 0.581957;-0.730583;,
        -0.258522;-0.600238; 0.756859;,
        -0.357097; 0.581957;-0.730583;,
        -0.815516; 0.578661; 0.006806;,
        -0.258522;-0.600238; 0.756859;,
        -0.258522;-0.600238; 0.756859;,
        -0.815516; 0.578661; 0.006806;,
         0.539476;-0.572405; 0.617450;,
        -0.815516; 0.578661; 0.006806;,
        -0.463820; 0.567583; 0.680197;,
         0.539476;-0.572405; 0.617450;,
         0.539476;-0.572405; 0.617450;,
        -0.463820; 0.567583; 0.680197;,
         0.823969;-0.538102;-0.177435;,
        -0.463820; 0.567583; 0.680197;,
         0.398785; 0.568896; 0.719230;,
         0.823969;-0.538102;-0.177435;,
         0.823969;-0.538102;-0.177435;,
         0.398785; 0.568896; 0.719230;,
         0.402448;-0.547014;-0.734001;,
         0.398785; 0.568896; 0.719230;,
         0.833003; 0.537461; 0.131108;,
         0.402448;-0.547014;-0.734001;,
         0.402448;-0.547014;-0.734001;,
         0.833003; 0.537461; 0.131108;,
        -0.440016;-0.586657;-0.679830;,
         0.833003; 0.537461; 0.131108;,
         0.513871; 0.572527;-0.638844;,
        -0.440016;-0.586657;-0.679830;,
        -0.440016;-0.586657;-0.679830;,
         0.513871; 0.572527;-0.638844;,
        -0.765465;-0.643452;-0.001679;,
         0.513871; 0.572527;-0.638844;,
        -0.328257; 0.590716;-0.737053;,
        -0.765465;-0.643452;-0.001679;,
        -0.765465;-0.643452;-0.001679;,
        -0.328257; 0.590716;-0.737053;,
        -0.147130;-0.592517; 0.791986;,
        -0.328257; 0.590716;-0.737053;,
        -0.790674; 0.611682; 0.025361;,
        -0.147130;-0.592517; 0.791986;,
        -0.147130;-0.592517; 0.791986;,
        -0.790674; 0.611682; 0.025361;,
         0.161962;-0.517502; 0.840175;,
        -0.790674; 0.611682; 0.025361;,
        -0.107517; 0.553850; 0.825617;,
         0.161962;-0.517502; 0.840175;,
         0.161962;-0.517502; 0.840175;,
        -0.107517; 0.553850; 0.825617;,
         0.028687;-0.607990; 0.793390;,
        -0.107517; 0.553850; 0.825617;,
         0.002655; 0.471084; 0.882046;,
         0.028687;-0.607990; 0.793390;,
         0.028687;-0.607990; 0.793390;,
         0.002655; 0.471084; 0.882046;,
        -0.376110;-0.577654; 0.724418;,
         0.002655; 0.471084; 0.882046;,
        -0.447798; 0.377514; 0.810511;,
        -0.376110;-0.577654; 0.724418;,
        -0.213050;-0.735252; 0.643391;,
        -0.756554;-0.266457;-0.597156;,
         0.239357;-0.819910; 0.520035;,
        -0.756554;-0.266457;-0.597156;,
        -0.804254;-0.459120; 0.377300;,
         0.239357;-0.819910; 0.520035;,
         0.239357;-0.819910; 0.520035;,
        -0.804254;-0.459120; 0.377300;,
         0.542467;-0.837489;-0.065584;,
        -0.804254;-0.459120; 0.377300;,
        -0.320383;-0.581317; 0.747917;,
         0.542467;-0.837489;-0.065584;,
         0.542467;-0.837489;-0.065584;,
        -0.320383;-0.581317; 0.747917;,
         0.223365;-0.846339;-0.483505;,
        -0.320383;-0.581317; 0.747917;,
         0.512833;-0.572100; 0.640034;,
         0.223365;-0.846339;-0.483505;,
         0.223365;-0.846339;-0.483505;,
         0.512833;-0.572100; 0.640034;,
        -0.320017;-0.846644;-0.425123;,
         0.512833;-0.572100; 0.640034;,
         0.804407;-0.587481;-0.087924;,
        -0.320017;-0.846644;-0.425123;,
        -0.320017;-0.846644;-0.425123;,
         0.804407;-0.587481;-0.087924;,
        -0.510330;-0.855831; 0.083895;,
         0.804407;-0.587481;-0.087924;,
         0.265206;-0.543535;-0.796350;,
        -0.510330;-0.855831; 0.083895;,
        -0.510330;-0.855831; 0.083895;,
         0.265206;-0.543535;-0.796350;,
        -0.161473;-0.879086; 0.448439;,
         0.265206;-0.543535;-0.796350;,
        -0.523026;-0.551927;-0.649434;,
        -0.161473;-0.879086; 0.448439;,
        -0.161473;-0.879086; 0.448439;,
        -0.523026;-0.551927;-0.649434;,
         0.352062;-0.852962; 0.385327;,
        -0.523026;-0.551927;-0.649434;,
        -0.793847;-0.599780; 0.100223;,
         0.352062;-0.852962; 0.385327;,
         0.352062;-0.852962; 0.385327;,
        -0.793847;-0.599780; 0.100223;,
         0.536943;-0.839930;-0.078677;,
        -0.793847;-0.599780; 0.100223;,
        -0.287454;-0.590289; 0.754234;,
         0.536943;-0.839930;-0.078677;,
         0.536943;-0.839930;-0.078677;,
        -0.287454;-0.590289; 0.754234;,
         0.206610;-0.847560;-0.488784;,
        -0.287454;-0.590289; 0.754234;,
         0.513627;-0.574725; 0.637043;,
         0.206610;-0.847560;-0.488784;,
         0.206610;-0.847560;-0.488784;,
         0.513627;-0.574725; 0.637043;,
        -0.315561;-0.849849;-0.422071;,
         0.513627;-0.574725; 0.637043;,
         0.813562;-0.567583;-0.126164;,
        -0.315561;-0.849849;-0.422071;,
        -0.315561;-0.849849;-0.422071;,
         0.813562;-0.567583;-0.126164;,
        -0.500107;-0.863674; 0.062502;,
         0.813562;-0.567583;-0.126164;,
         0.345470;-0.557665;-0.754723;,
        -0.500107;-0.863674; 0.062502;,
        -0.500107;-0.863674; 0.062502;,
         0.345470;-0.557665;-0.754723;,
        -0.163121;-0.872768; 0.460005;,
         0.345470;-0.557665;-0.754723;,
        -0.435774;-0.586566;-0.682638;,
        -0.163121;-0.872768; 0.460005;,
        -0.163121;-0.872768; 0.460005;,
        -0.435774;-0.586566;-0.682638;,
         0.357830;-0.849269; 0.388134;,
        -0.435774;-0.586566;-0.682638;,
        -0.781121;-0.622120; 0.052492;,
         0.357830;-0.849269; 0.388134;,
         0.357830;-0.849269; 0.388134;,
        -0.781121;-0.622120; 0.052492;,
         0.530656;-0.842433;-0.093204;,
        -0.781121;-0.622120; 0.052492;,
        -0.258522;-0.600238; 0.756859;,
         0.530656;-0.842433;-0.093204;,
         0.530656;-0.842433;-0.093204;,
        -0.258522;-0.600238; 0.756859;,
         0.185858;-0.848262;-0.495834;,
        -0.258522;-0.600238; 0.756859;,
         0.539476;-0.572405; 0.617450;,
         0.185858;-0.848262;-0.495834;,
         0.185858;-0.848262;-0.495834;,
         0.539476;-0.572405; 0.617450;,
        -0.308512;-0.854122;-0.418653;,
         0.539476;-0.572405; 0.617450;,
         0.823969;-0.538102;-0.177435;,
        -0.308512;-0.854122;-0.418653;,
        -0.308512;-0.854122;-0.418653;,
         0.823969;-0.538102;-0.177435;,
        -0.504471;-0.862026; 0.048677;,
         0.823969;-0.538102;-0.177435;,
         0.402448;-0.547014;-0.734001;,
        -0.504471;-0.862026; 0.048677;,
        -0.504471;-0.862026; 0.048677;,
         0.402448;-0.547014;-0.734001;,
        -0.180273;-0.872158; 0.454726;,
         0.402448;-0.547014;-0.734001;,
        -0.440016;-0.586657;-0.679830;,
        -0.180273;-0.872158; 0.454726;,
        -0.180273;-0.872158; 0.454726;,
        -0.440016;-0.586657;-0.679830;,
         0.364055;-0.845058; 0.391552;,
        -0.440016;-0.586657;-0.679830;,
        -0.765465;-0.643452;-0.001679;,
         0.364055;-0.845058; 0.391552;,
         0.364055;-0.845058; 0.391552;,
        -0.765465;-0.643452;-0.001679;,
         0.556108;-0.825373;-0.097232;,
        -0.765465;-0.643452;-0.001679;,
        -0.147130;-0.592517; 0.791986;,
         0.556108;-0.825373;-0.097232;,
         0.556108;-0.825373;-0.097232;,
        -0.147130;-0.592517; 0.791986;,
         0.230628;-0.925993;-0.298807;,
        -0.147130;-0.592517; 0.791986;,
         0.161962;-0.517502; 0.840175;,
         0.230628;-0.925993;-0.298807;,
         0.230628;-0.925993;-0.298807;,
         0.161962;-0.517502; 0.840175;,
        -0.143986;-0.961180;-0.235328;,
         0.161962;-0.517502; 0.840175;,
         0.028687;-0.607990; 0.793390;,
        -0.143986;-0.961180;-0.235328;,
        -0.143986;-0.961180;-0.235328;,
         0.028687;-0.607990; 0.793390;,
        -0.444624;-0.864620;-0.233863;,
         0.028687;-0.607990; 0.793390;,
        -0.376110;-0.577654; 0.724418;,
        -0.444624;-0.864620;-0.233863;,
         0.629261; 0.095676; 0.771264;,
        -0.213050;-0.735252; 0.643391;,
         0.869350;-0.035890; 0.492874;,
        -0.213050;-0.735252; 0.643391;,
         0.239357;-0.819910; 0.520035;,
         0.869350;-0.035890; 0.492874;,
         0.869350;-0.035890; 0.492874;,
         0.239357;-0.819910; 0.520035;,
         0.846065; 0.026093;-0.532395;,
         0.239357;-0.819910; 0.520035;,
         0.542467;-0.837489;-0.065584;,
         0.846065; 0.026093;-0.532395;,
         0.846065; 0.026093;-0.532395;,
         0.542467;-0.837489;-0.065584;,
        -0.002686; 0.005707;-0.999969;,
         0.542467;-0.837489;-0.065584;,
         0.223365;-0.846339;-0.483505;,
        -0.002686; 0.005707;-0.999969;,
        -0.002686; 0.005707;-0.999969;,
         0.223365;-0.846339;-0.483505;,
        -0.884640;-0.004913;-0.466201;,
         0.223365;-0.846339;-0.483505;,
        -0.320017;-0.846644;-0.425123;,
        -0.884640;-0.004913;-0.466201;,
        -0.884640;-0.004913;-0.466201;,
        -0.320017;-0.846644;-0.425123;,
        -0.810022;-0.011383; 0.586261;,
        -0.320017;-0.846644;-0.425123;,
        -0.510330;-0.855831; 0.083895;,
        -0.810022;-0.011383; 0.586261;,
        -0.810022;-0.011383; 0.586261;,
        -0.510330;-0.855831; 0.083895;,
         0.089480;-0.027924; 0.995575;,
        -0.510330;-0.855831; 0.083895;,
        -0.161473;-0.879086; 0.448439;,
         0.089480;-0.027924; 0.995575;,
         0.089480;-0.027924; 0.995575;,
        -0.161473;-0.879086; 0.448439;,
         0.896329; 0.010834; 0.443190;,
        -0.161473;-0.879086; 0.448439;,
         0.352062;-0.852962; 0.385327;,
         0.896329; 0.010834; 0.443190;,
         0.896329; 0.010834; 0.443190;,
         0.352062;-0.852962; 0.385327;,
         0.840907; 0.024781;-0.540574;,
         0.352062;-0.852962; 0.385327;,
         0.536943;-0.839930;-0.078677;,
         0.840907; 0.024781;-0.540574;,
         0.840907; 0.024781;-0.540574;,
         0.536943;-0.839930;-0.078677;,
        -0.024171; 0.008271;-0.999664;,
         0.536943;-0.839930;-0.078677;,
         0.206610;-0.847560;-0.488784;,
        -0.024171; 0.008271;-0.999664;,
        -0.024171; 0.008271;-0.999664;,
         0.206610;-0.847560;-0.488784;,
        -0.888852;-0.006256;-0.458144;,
         0.206610;-0.847560;-0.488784;,
        -0.315561;-0.849849;-0.422071;,
        -0.888852;-0.006256;-0.458144;,
        -0.888852;-0.006256;-0.458144;,
        -0.315561;-0.849849;-0.422071;,
        -0.834437;-0.018342; 0.550737;,
        -0.315561;-0.849849;-0.422071;,
        -0.500107;-0.863674; 0.062502;,
        -0.834437;-0.018342; 0.550737;,
        -0.834437;-0.018342; 0.550737;,
        -0.500107;-0.863674; 0.062502;,
         0.042451;-0.019959; 0.998871;,
        -0.500107;-0.863674; 0.062502;,
        -0.163121;-0.872768; 0.460005;,
         0.042451;-0.019959; 0.998871;,
         0.042451;-0.019959; 0.998871;,
        -0.163121;-0.872768; 0.460005;,
         0.891873; 0.011322; 0.452132;,
        -0.163121;-0.872768; 0.460005;,
         0.357830;-0.849269; 0.388134;,
         0.891873; 0.011322; 0.452132;,
         0.891873; 0.011322; 0.452132;,
         0.357830;-0.849269; 0.388134;,
         0.835017; 0.023041;-0.549699;,
         0.357830;-0.849269; 0.388134;,
         0.530656;-0.842433;-0.093204;,
         0.835017; 0.023041;-0.549699;,
         0.835017; 0.023041;-0.549699;,
         0.530656;-0.842433;-0.093204;,
        -0.051332; 0.011567;-0.998596;,
         0.530656;-0.842433;-0.093204;,
         0.185858;-0.848262;-0.495834;,
        -0.051332; 0.011567;-0.998596;,
        -0.051332; 0.011567;-0.998596;,
         0.185858;-0.848262;-0.495834;,
        -0.894436;-0.007721;-0.447066;,
         0.185858;-0.848262;-0.495834;,
        -0.308512;-0.854122;-0.418653;,
        -0.894436;-0.007721;-0.447066;,
        -0.894436;-0.007721;-0.447066;,
        -0.308512;-0.854122;-0.418653;,
        -0.839991;-0.016572; 0.542283;,
        -0.308512;-0.854122;-0.418653;,
        -0.504471;-0.862026; 0.048677;,
        -0.839991;-0.016572; 0.542283;,
        -0.839991;-0.016572; 0.542283;,
        -0.504471;-0.862026; 0.048677;,
         0.017579;-0.023621; 0.999542;,
        -0.504471;-0.862026; 0.048677;,
        -0.180273;-0.872158; 0.454726;,
         0.017579;-0.023621; 0.999542;,
         0.017579;-0.023621; 0.999542;,
        -0.180273;-0.872158; 0.454726;,
         0.886868; 0.012391; 0.461837;,
        -0.180273;-0.872158; 0.454726;,
         0.364055;-0.845058; 0.391552;,
         0.886868; 0.012391; 0.461837;,
         0.886868; 0.012391; 0.461837;,
         0.364055;-0.845058; 0.391552;,
         0.830958; 0.020295;-0.555956;,
         0.364055;-0.845058; 0.391552;,
         0.556108;-0.825373;-0.097232;,
         0.830958; 0.020295;-0.555956;,
         0.830958; 0.020295;-0.555956;,
         0.556108;-0.825373;-0.097232;,
         0.215278; 0.011231;-0.976470;,
         0.556108;-0.825373;-0.097232;,
         0.230628;-0.925993;-0.298807;,
         0.215278; 0.011231;-0.976470;,
         0.215278; 0.011231;-0.976470;,
         0.230628;-0.925993;-0.298807;,
        -0.161962;-0.032380;-0.986236;,
         0.230628;-0.925993;-0.298807;,
        -0.143986;-0.961180;-0.235328;,
        -0.161962;-0.032380;-0.986236;,
        -0.161962;-0.032380;-0.986236;,
        -0.143986;-0.961180;-0.235328;,
        -0.438917;-0.044588;-0.897397;,
        -0.143986;-0.961180;-0.235328;,
        -0.444624;-0.864620;-0.233863;,
        -0.438917;-0.044588;-0.897397;,
         0.619037; 0.780175;-0.089938;,
         0.831233; 0.532609; 0.159185;,
         0.629261; 0.095676; 0.771264;,
         0.629261; 0.095676; 0.771264;,
         0.869350;-0.035890; 0.492874;,
         0.619037; 0.780175;-0.089938;,
         0.619037; 0.780175;-0.089938;,
         0.869350;-0.035890; 0.492874;,
         0.253151; 0.868984;-0.425153;,
         0.869350;-0.035890; 0.492874;,
         0.846065; 0.026093;-0.532395;,
         0.253151; 0.868984;-0.425153;,
         0.253151; 0.868984;-0.425153;,
         0.846065; 0.026093;-0.532395;,
        -0.231910; 0.850185;-0.472610;,
         0.846065; 0.026093;-0.532395;,
        -0.002686; 0.005707;-0.999969;,
        -0.231910; 0.850185;-0.472610;,
        -0.231910; 0.850185;-0.472610;,
        -0.002686; 0.005707;-0.999969;,
        -0.529710; 0.847346;-0.037111;,
        -0.002686; 0.005707;-0.999969;,
        -0.884640;-0.004913;-0.466201;,
        -0.529710; 0.847346;-0.037111;,
        -0.529710; 0.847346;-0.037111;,
        -0.884640;-0.004913;-0.466201;,
        -0.243843; 0.823420; 0.512314;,
        -0.884640;-0.004913;-0.466201;,
        -0.810022;-0.011383; 0.586261;,
        -0.243843; 0.823420; 0.512314;,
        -0.243843; 0.823420; 0.512314;,
        -0.810022;-0.011383; 0.586261;,
         0.336924; 0.809412; 0.480911;,
        -0.810022;-0.011383; 0.586261;,
         0.089480;-0.027924; 0.995575;,
         0.336924; 0.809412; 0.480911;,
         0.336924; 0.809412; 0.480911;,
         0.089480;-0.027924; 0.995575;,
         0.515732; 0.856349; 0.024812;,
         0.089480;-0.027924; 0.995575;,
         0.896329; 0.010834; 0.443190;,
         0.515732; 0.856349; 0.024812;,
         0.515732; 0.856349; 0.024812;,
         0.896329; 0.010834; 0.443190;,
         0.259896; 0.866054;-0.427045;,
         0.896329; 0.010834; 0.443190;,
         0.840907; 0.024781;-0.540574;,
         0.259896; 0.866054;-0.427045;,
         0.259896; 0.866054;-0.427045;,
         0.840907; 0.024781;-0.540574;,
        -0.245827; 0.849849;-0.466140;,
         0.840907; 0.024781;-0.540574;,
        -0.024171; 0.008271;-0.999664;,
        -0.245827; 0.849849;-0.466140;,
        -0.245827; 0.849849;-0.466140;,
        -0.024171; 0.008271;-0.999664;,
        -0.533250; 0.845546;-0.025727;,
        -0.024171; 0.008271;-0.999664;,
        -0.888852;-0.006256;-0.458144;,
        -0.533250; 0.845546;-0.025727;,
        -0.533250; 0.845546;-0.025727;,
        -0.888852;-0.006256;-0.458144;,
        -0.277261; 0.840175; 0.466018;,
        -0.888852;-0.006256;-0.458144;,
        -0.834437;-0.018342; 0.550737;,
        -0.277261; 0.840175; 0.466018;,
        -0.277261; 0.840175; 0.466018;,
        -0.834437;-0.018342; 0.550737;,
         0.259316; 0.834010; 0.486953;,
        -0.834437;-0.018342; 0.550737;,
         0.042451;-0.019959; 0.998871;,
         0.259316; 0.834010; 0.486953;,
         0.259316; 0.834010; 0.486953;,
         0.042451;-0.019959; 0.998871;,
         0.512619; 0.857753; 0.037751;,
         0.042451;-0.019959; 0.998871;,
         0.891873; 0.011322; 0.452132;,
         0.512619; 0.857753; 0.037751;,
         0.512619; 0.857753; 0.037751;,
         0.891873; 0.011322; 0.452132;,
         0.267006; 0.862575;-0.429701;,
         0.891873; 0.011322; 0.452132;,
         0.835017; 0.023041;-0.549699;,
         0.267006; 0.862575;-0.429701;,
         0.267006; 0.862575;-0.429701;,
         0.835017; 0.023041;-0.549699;,
        -0.263985; 0.848567;-0.458480;,
         0.835017; 0.023041;-0.549699;,
        -0.051332; 0.011567;-0.998596;,
        -0.263985; 0.848567;-0.458480;,
        -0.263985; 0.848567;-0.458480;,
        -0.051332; 0.011567;-0.998596;,
        -0.537522; 0.843165;-0.009613;,
        -0.051332; 0.011567;-0.998596;,
        -0.894436;-0.007721;-0.447066;,
        -0.537522; 0.843165;-0.009613;,
        -0.537522; 0.843165;-0.009613;,
        -0.894436;-0.007721;-0.447066;,
        -0.268410; 0.843287; 0.465590;,
        -0.894436;-0.007721;-0.447066;,
        -0.839991;-0.016572; 0.542283;,
        -0.268410; 0.843287; 0.465590;,
        -0.268410; 0.843287; 0.465590;,
        -0.839991;-0.016572; 0.542283;,
         0.244667; 0.833033; 0.496139;,
        -0.839991;-0.016572; 0.542283;,
         0.017579;-0.023621; 0.999542;,
         0.244667; 0.833033; 0.496139;,
         0.244667; 0.833033; 0.496139;,
         0.017579;-0.023621; 0.999542;,
         0.508957; 0.859188; 0.052065;,
         0.017579;-0.023621; 0.999542;,
         0.886868; 0.012391; 0.461837;,
         0.508957; 0.859188; 0.052065;,
         0.508957; 0.859188; 0.052065;,
         0.886868; 0.012391; 0.461837;,
         0.274148; 0.861568;-0.427198;,
         0.886868; 0.012391; 0.461837;,
         0.830958; 0.020295;-0.555956;,
         0.274148; 0.861568;-0.427198;,
         0.274148; 0.861568;-0.427198;,
         0.830958; 0.020295;-0.555956;,
        -0.043855; 0.879788;-0.473281;,
         0.830958; 0.020295;-0.555956;,
         0.215278; 0.011231;-0.976470;,
        -0.043855; 0.879788;-0.473281;,
        -0.043855; 0.879788;-0.473281;,
         0.215278; 0.011231;-0.976470;,
        -0.243965; 0.910764;-0.333110;,
         0.215278; 0.011231;-0.976470;,
        -0.161962;-0.032380;-0.986236;,
        -0.243965; 0.910764;-0.333110;,
        -0.243965; 0.910764;-0.333110;,
        -0.161962;-0.032380;-0.986236;,
        -0.506027; 0.805506;-0.308267;,
        -0.161962;-0.032380;-0.986236;,
        -0.438917;-0.044588;-0.897397;,
        -0.506027; 0.805506;-0.308267;,
        -0.447798; 0.377514; 0.810511;,
        -0.999756;-0.010773;-0.018830;,
        -0.376110;-0.577654; 0.724418;,
        -0.999756;-0.010773;-0.018830;,
        -0.444624;-0.864620;-0.233863;,
        -0.376110;-0.577654; 0.724418;,
        -0.444624;-0.864620;-0.233863;,
        -0.999756;-0.010773;-0.018830;,
        -0.438917;-0.044588;-0.897397;,
        -0.999756;-0.010773;-0.018830;,
        -0.506027; 0.805506;-0.308267;,
        -0.438917;-0.044588;-0.897397;,
        -0.506027; 0.805506;-0.308267;,
        -0.999756;-0.010773;-0.018830;,
        -0.447798; 0.377514; 0.810511;;
        235;
        3;0;1;2;,
        3;3;4;5;,
        3;6;7;8;,
        3;9;10;11;,
        3;12;13;14;,
        3;15;16;17;,
        3;18;19;20;,
        3;21;22;23;,
        3;24;25;26;,
        3;27;28;29;,
        3;30;31;32;,
        3;33;34;35;,
        3;36;37;38;,
        3;39;40;41;,
        3;42;43;44;,
        3;45;46;47;,
        3;48;49;50;,
        3;51;52;53;,
        3;54;55;56;,
        3;57;58;59;,
        3;60;61;62;,
        3;63;64;65;,
        3;66;67;68;,
        3;69;70;71;,
        3;72;73;74;,
        3;75;76;77;,
        3;78;79;80;,
        3;81;82;83;,
        3;84;85;86;,
        3;87;88;89;,
        3;90;91;92;,
        3;93;94;95;,
        3;96;97;98;,
        3;99;100;101;,
        3;102;103;104;,
        3;105;106;107;,
        3;108;109;110;,
        3;111;112;113;,
        3;114;115;116;,
        3;117;118;119;,
        3;120;121;122;,
        3;123;124;125;,
        3;126;127;128;,
        3;129;130;131;,
        3;132;133;134;,
        3;135;136;137;,
        3;138;139;140;,
        3;141;142;143;,
        3;144;145;146;,
        3;147;148;149;,
        3;150;151;152;,
        3;153;154;155;,
        3;156;157;158;,
        3;159;160;161;,
        3;162;163;164;,
        3;165;166;167;,
        3;168;169;170;,
        3;171;172;173;,
        3;174;175;176;,
        3;177;178;179;,
        3;180;181;182;,
        3;183;184;185;,
        3;186;187;188;,
        3;189;190;191;,
        3;192;193;194;,
        3;195;196;197;,
        3;198;199;200;,
        3;201;202;203;,
        3;204;205;206;,
        3;207;208;209;,
        3;210;211;212;,
        3;213;214;215;,
        3;216;217;218;,
        3;219;220;221;,
        3;222;223;224;,
        3;225;226;227;,
        3;228;229;230;,
        3;231;232;233;,
        3;234;235;236;,
        3;237;238;239;,
        3;240;241;242;,
        3;243;244;245;,
        3;246;247;248;,
        3;249;250;251;,
        3;252;253;254;,
        3;255;256;257;,
        3;258;259;260;,
        3;261;262;263;,
        3;264;265;266;,
        3;267;268;269;,
        3;270;271;272;,
        3;273;274;275;,
        3;276;277;278;,
        3;279;280;281;,
        3;282;283;284;,
        3;285;286;287;,
        3;288;289;290;,
        3;291;292;293;,
        3;294;295;296;,
        3;297;298;299;,
        3;300;301;302;,
        3;303;304;305;,
        3;306;307;308;,
        3;309;310;311;,
        3;312;313;314;,
        3;315;316;317;,
        3;318;319;320;,
        3;321;322;323;,
        3;324;325;326;,
        3;327;328;329;,
        3;330;331;332;,
        3;333;334;335;,
        3;336;337;338;,
        3;339;340;341;,
        3;342;343;344;,
        3;345;346;347;,
        3;348;349;350;,
        3;351;352;353;,
        3;354;355;356;,
        3;357;358;359;,
        3;360;361;362;,
        3;363;364;365;,
        3;366;367;368;,
        3;369;370;371;,
        3;372;373;374;,
        3;375;376;377;,
        3;378;379;380;,
        3;381;382;383;,
        3;384;385;386;,
        3;387;388;389;,
        3;390;391;392;,
        3;393;394;395;,
        3;396;397;398;,
        3;399;400;401;,
        3;402;403;404;,
        3;405;406;407;,
        3;408;409;410;,
        3;411;412;413;,
        3;414;415;416;,
        3;417;418;419;,
        3;420;421;422;,
        3;423;424;425;,
        3;426;427;428;,
        3;429;430;431;,
        3;432;433;434;,
        3;435;436;437;,
        3;438;439;440;,
        3;441;442;443;,
        3;444;445;446;,
        3;447;448;449;,
        3;450;451;452;,
        3;453;454;455;,
        3;456;457;458;,
        3;459;460;461;,
        3;462;463;464;,
        3;465;466;467;,
        3;468;469;470;,
        3;471;472;473;,
        3;474;475;476;,
        3;477;478;479;,
        3;480;481;482;,
        3;483;484;485;,
        3;486;487;488;,
        3;489;490;491;,
        3;492;493;494;,
        3;495;496;497;,
        3;498;499;500;,
        3;501;502;503;,
        3;504;505;506;,
        3;507;508;509;,
        3;510;511;512;,
        3;513;514;515;,
        3;516;517;518;,
        3;519;520;521;,
        3;522;523;524;,
        3;525;526;527;,
        3;528;529;530;,
        3;531;532;533;,
        3;534;535;536;,
        3;537;538;539;,
        3;540;541;542;,
        3;543;544;545;,
        3;546;547;548;,
        3;549;550;551;,
        3;552;553;554;,
        3;555;556;557;,
        3;558;559;560;,
        3;561;562;563;,
        3;564;565;566;,
        3;567;568;569;,
        3;570;571;572;,
        3;573;574;575;,
        3;576;577;578;,
        3;579;580;581;,
        3;582;583;584;,
        3;585;586;587;,
        3;588;589;590;,
        3;591;592;593;,
        3;594;595;596;,
        3;597;598;599;,
        3;600;601;602;,
        3;603;604;605;,
        3;606;607;608;,
        3;609;610;611;,
        3;612;613;614;,
        3;615;616;617;,
        3;618;619;620;,
        3;621;622;623;,
        3;624;625;626;,
        3;627;628;629;,
        3;630;631;632;,
        3;633;634;635;,
        3;636;637;638;,
        3;639;640;641;,
        3;642;643;644;,
        3;645;646;647;,
        3;648;649;650;,
        3;651;652;653;,
        3;654;655;656;,
        3;657;658;659;,
        3;660;661;662;,
        3;663;664;665;,
        3;666;667;668;,
        3;669;670;671;,
        3;672;673;674;,
        3;675;676;677;,
        3;678;679;680;,
        3;681;682;683;,
        3;684;685;686;,
        3;687;688;689;,
        3;690;691;692;,
        3;693;694;695;,
        3;696;697;698;,
        3;699;700;701;,
        3;702;703;704;;
      } //End of Mesh Normals
      MeshMaterialList { //Mesh Material List
        1;
        235;
        0,
        0,
        0,
        0,
        0,
        0,
        0,
        0,
        0,
        0,
        0,
        0,
        0,
        0,
        0,
        0,
        0,
        0,
        0,
        0,
        0,
        0,
        0,
        0,
        0,
        0,
        0,
        0,
        0,
        0,
        0,
        0,
        0,
        0,
        0,
        0,
        0,
        0,
        0,
        0,
        0,
        0,
        0,
        0,
        0,
        0,
        0,
        0,
        0,
        0,
        0,
        0,
        0,
        0,
        0,
        0,
        0,
        0,
        0,
        0,
        0,
        0,
        0,
        0,
        0,
        0,
        0,
        0,
        0,
        0,
        0,
        0,
        0,
        0,
        0,
        0,
        0,
        0,
        0,
        0,
        0,
        0,
        0,
        0,
        0,
        0,
        0,
        0,
        0,
        0,
        0,
        0,
        0,
        0,
        0,
        0,
        0,
        0,
        0,
        0,
        0,
        0,
        0,
        0,
        0,
        0,
        0,
        0,
        0,
        0,
        0,
        0,
        0,
        0,
        0,
        0,
        0,
        0,
        0,
        0,
        0,
        0,
        0,
        0,
        0,
        0,
        0,
        0,
        0,
        0,
        0,
        0,
        0,
        0,
        0,
        0,
        0,
        0,
        0,
        0,
        0,
        0,
        0,
        0,
        0,
        0,
        0,
        0,
        0,
        0,
        0,
        0,
        0,
        0,
        0,
        0,
        0,
        0,
        0,
        0,
        0,
        0,
        0,
        0,
        0,
        0,
        0,
        0,
        0,
        0,
        0,
        0,
        0,
        0,
        0,
        0,
        0,
        0,
        0,
        0,
        0,
        0,
        0,
        0,
        0,
        0,
        0,
        0,
        0,
        0,
        0,
        0,
        0,
        0,
        0,
        0,
        0,
        0,
        0,
        0,
        0,
        0,
        0,
        0,
        0,
        0,
        0,
        0,
        0,
        0,
        0,
        0,
        0,
        0,
        0,
        0,
        0,
        0,
        0,
        0,
        0,
        0,
        0,
        0,
        0,
        0,
        0,
        0,
        0,
        0,
        0,
        0,
        0,
        0,
        0;;
        Material mat_0 {
           0.640000; 0.640000; 0.640000; 1.000000;;
           92.156863;
           0.250000; 0.250000; 0.250000;;
           0.000000; 0.000000; 0.000000;;
          TextureFilename {"Textures/minomucchi_2_0.tga";}
        }
      } //End of Mesh Material List
      MeshTextureCoords { //Mesh UV Coordinates
        705;
         0.544961; 0.640523;,
         0.515590; 0.640523;,
         0.544961; 0.634405;,
         0.544961; 0.634405;,
         0.515590; 0.640523;,
         0.515590; 0.634405;,
         0.544961; 0.628286;,
         0.544961; 0.634405;,
         0.515590; 0.634405;,
         0.515590; 0.634405;,
         0.515590; 0.628286;,
         0.544961; 0.628286;,
         0.544961; 0.628286;,
         0.515590; 0.628286;,
         0.544961; 0.622167;,
         0.515590; 0.628286;,
         0.515590; 0.622167;,
         0.544961; 0.622167;,
         0.544961; 0.622167;,
         0.515590; 0.622167;,
         0.544961; 0.616048;,
         0.515590; 0.622167;,
         0.515590; 0.616048;,
         0.544961; 0.616048;,
         0.544961; 0.616048;,
         0.515590; 0.616048;,
         0.544961; 0.609929;,
         0.515590; 0.616048;,
         0.515590; 0.609929;,
         0.544961; 0.609929;,
         0.544961; 0.609929;,
         0.515590; 0.609929;,
         0.544961; 0.603810;,
         0.515590; 0.609929;,
         0.515590; 0.603810;,
         0.544961; 0.603810;,
         0.544961; 0.603810;,
         0.515590; 0.603810;,
         0.544961; 0.597691;,
         0.515590; 0.603810;,
         0.515590; 0.597691;,
         0.544961; 0.597691;,
         0.544961; 0.597691;,
         0.515590; 0.597691;,
         0.544961; 0.591572;,
         0.515590; 0.597691;,
         0.515590; 0.591572;,
         0.544961; 0.591572;,
         0.544961; 0.591572;,
         0.515590; 0.591572;,
         0.544961; 0.585453;,
         0.515590; 0.591572;,
         0.515590; 0.585453;,
         0.544961; 0.585453;,
         0.544961; 0.585453;,
         0.515590; 0.585453;,
         0.544961; 0.579334;,
         0.515590; 0.585453;,
         0.515590; 0.579334;,
         0.544961; 0.579334;,
         0.544961; 0.579334;,
         0.515590; 0.579334;,
         0.544961; 0.573215;,
         0.515590; 0.579334;,
         0.515590; 0.573215;,
         0.544961; 0.573215;,
         0.544961; 0.573215;,
         0.515590; 0.573215;,
         0.544961; 0.567096;,
         0.515590; 0.573215;,
         0.515590; 0.567096;,
         0.544961; 0.567096;,
         0.544961; 0.567096;,
         0.515590; 0.567096;,
         0.544961; 0.560977;,
         0.515590; 0.567096;,
         0.515590; 0.560977;,
         0.544961; 0.560977;,
         0.544961; 0.560977;,
         0.515590; 0.560977;,
         0.544961; 0.554858;,
         0.515590; 0.560977;,
         0.515590; 0.554858;,
         0.544961; 0.554858;,
         0.544961; 0.554858;,
         0.515590; 0.554858;,
         0.544961; 0.548739;,
         0.515590; 0.554858;,
         0.515590; 0.548739;,
         0.544961; 0.548739;,
         0.544961; 0.548739;,
         0.515590; 0.548739;,
         0.544961; 0.542620;,
         0.515590; 0.548739;,
         0.515590; 0.542620;,
         0.544961; 0.542620;,
         0.544961; 0.542620;,
         0.515590; 0.542620;,
         0.544961; 0.536501;,
         0.515590; 0.542620;,
         0.515590; 0.536501;,
         0.544961; 0.536501;,
         0.544961; 0.536501;,
         0.515590; 0.536501;,
         0.544961; 0.530382;,
         0.515590; 0.536501;,
         0.515590; 0.530382;,
         0.544961; 0.530382;,
         0.544961; 0.530382;,
         0.515590; 0.530382;,
         0.544961; 0.524264;,
         0.515590; 0.530382;,
         0.515590; 0.524264;,
         0.544961; 0.524264;,
         0.544961; 0.524264;,
         0.515590; 0.524264;,
         0.544961; 0.518145;,
         0.515590; 0.524264;,
         0.515590; 0.518145;,
         0.544961; 0.518145;,
         0.544961; 0.518145;,
         0.515590; 0.518145;,
         0.544961; 0.512026;,
         0.515590; 0.518145;,
         0.515590; 0.512026;,
         0.544961; 0.512026;,
         0.544961; 0.512026;,
         0.515590; 0.512026;,
         0.544961; 0.512026;,
         0.515590; 0.512026;,
         0.515590; 0.512026;,
         0.544961; 0.512026;,
         0.544961; 0.512026;,
         0.515590; 0.512026;,
         0.544961; 0.512026;,
         0.515590; 0.512026;,
         0.515590; 0.512026;,
         0.544961; 0.512026;,
         0.574332; 0.640523;,
         0.544961; 0.640523;,
         0.574332; 0.634405;,
         0.544961; 0.640523;,
         0.544961; 0.634405;,
         0.574332; 0.634405;,
         0.574332; 0.634405;,
         0.544961; 0.634405;,
         0.574332; 0.628286;,
         0.574332; 0.628286;,
         0.544961; 0.634405;,
         0.544961; 0.628286;,
         0.574332; 0.628286;,
         0.544961; 0.628286;,
         0.574332; 0.622167;,
         0.544961; 0.628286;,
         0.544961; 0.622167;,
         0.574332; 0.622167;,
         0.574332; 0.622167;,
         0.544961; 0.622167;,
         0.574332; 0.616048;,
         0.544961; 0.622167;,
         0.544961; 0.616048;,
         0.574332; 0.616048;,
         0.574332; 0.616048;,
         0.544961; 0.616048;,
         0.574332; 0.609929;,
         0.544961; 0.616048;,
         0.544961; 0.609929;,
         0.574332; 0.609929;,
         0.574332; 0.609929;,
         0.544961; 0.609929;,
         0.574332; 0.603810;,
         0.544961; 0.609929;,
         0.544961; 0.603810;,
         0.574332; 0.603810;,
         0.574332; 0.603810;,
         0.544961; 0.603810;,
         0.574332; 0.597691;,
         0.544961; 0.603810;,
         0.544961; 0.597691;,
         0.574332; 0.597691;,
         0.574332; 0.597691;,
         0.544961; 0.597691;,
         0.574332; 0.591572;,
         0.544961; 0.597691;,
         0.544961; 0.591572;,
         0.574332; 0.591572;,
         0.574332; 0.591572;,
         0.544961; 0.591572;,
         0.574332; 0.585453;,
         0.544961; 0.591572;,
         0.544961; 0.585453;,
         0.574332; 0.585453;,
         0.574332; 0.585453;,
         0.544961; 0.585453;,
         0.574332; 0.579334;,
         0.544961; 0.585453;,
         0.544961; 0.579334;,
         0.574332; 0.579334;,
         0.574332; 0.579334;,
         0.544961; 0.579334;,
         0.574332; 0.573215;,
         0.544961; 0.579334;,
         0.544961; 0.573215;,
         0.574332; 0.573215;,
         0.574332; 0.573215;,
         0.544961; 0.573215;,
         0.574332; 0.567096;,
         0.544961; 0.573215;,
         0.544961; 0.567096;,
         0.574332; 0.567096;,
         0.574332; 0.567096;,
         0.544961; 0.567096;,
         0.574332; 0.560977;,
         0.544961; 0.567096;,
         0.544961; 0.560977;,
         0.574332; 0.560977;,
         0.574332; 0.560977;,
         0.544961; 0.560977;,
         0.574332; 0.554858;,
         0.544961; 0.560977;,
         0.544961; 0.554858;,
         0.574332; 0.554858;,
         0.574332; 0.554858;,
         0.544961; 0.554858;,
         0.574332; 0.548739;,
         0.544961; 0.554858;,
         0.544961; 0.548739;,
         0.574332; 0.548739;,
         0.574332; 0.548739;,
         0.544961; 0.548739;,
         0.574332; 0.542620;,
         0.544961; 0.548739;,
         0.544961; 0.542620;,
         0.574332; 0.542620;,
         0.574332; 0.542620;,
         0.544961; 0.542620;,
         0.574332; 0.536501;,
         0.544961; 0.542620;,
         0.544961; 0.536501;,
         0.574332; 0.536501;,
         0.574332; 0.536501;,
         0.544961; 0.536501;,
         0.574332; 0.530382;,
         0.544961; 0.536501;,
         0.544961; 0.530382;,
         0.574332; 0.530382;,
         0.574332; 0.530382;,
         0.544961; 0.530382;,
         0.574332; 0.524264;,
         0.544961; 0.530382;,
         0.544961; 0.524264;,
         0.574332; 0.524264;,
         0.574332; 0.524264;,
         0.544961; 0.524264;,
         0.574332; 0.518145;,
         0.544961; 0.524264;,
         0.544961; 0.518145;,
         0.574332; 0.518145;,
         0.574332; 0.518145;,
         0.544961; 0.518145;,
         0.574332; 0.512026;,
         0.544961; 0.518145;,
         0.544961; 0.512026;,
         0.574332; 0.512026;,
         0.574332; 0.512026;,
         0.544961; 0.512026;,
         0.574332; 0.512026;,
         0.544961; 0.512026;,
         0.544961; 0.512026;,
         0.574332; 0.512026;,
         0.574332; 0.512026;,
         0.544961; 0.512026;,
         0.574332; 0.512026;,
         0.544961; 0.512026;,
         0.544961; 0.512026;,
         0.574332; 0.512026;,
         0.603703; 0.640523;,
         0.574332; 0.640523;,
         0.603703; 0.634405;,
         0.574332; 0.640523;,
         0.574332; 0.634405;,
         0.603703; 0.634405;,
         0.603703; 0.634405;,
         0.574332; 0.634405;,
         0.603703; 0.628286;,
         0.574332; 0.634405;,
         0.574332; 0.628286;,
         0.603703; 0.628286;,
         0.603703; 0.628286;,
         0.574332; 0.628286;,
         0.603703; 0.622167;,
         0.574332; 0.628286;,
         0.574332; 0.622167;,
         0.603703; 0.622167;,
         0.603703; 0.622167;,
         0.574332; 0.622167;,
         0.603703; 0.616048;,
         0.574332; 0.622167;,
         0.574332; 0.616048;,
         0.603703; 0.616048;,
         0.603703; 0.616048;,
         0.574332; 0.616048;,
         0.603703; 0.609929;,
         0.574332; 0.616048;,
         0.574332; 0.609929;,
         0.603703; 0.609929;,
         0.603703; 0.609929;,
         0.574332; 0.609929;,
         0.603703; 0.603810;,
         0.574332; 0.609929;,
         0.574332; 0.603810;,
         0.603703; 0.603810;,
         0.603703; 0.603810;,
         0.574332; 0.603810;,
         0.603703; 0.597691;,
         0.574332; 0.603810;,
         0.574332; 0.597691;,
         0.603703; 0.597691;,
         0.603703; 0.597691;,
         0.574332; 0.597691;,
         0.603703; 0.591572;,
         0.574332; 0.597691;,
         0.574332; 0.591572;,
         0.603703; 0.591572;,
         0.603703; 0.591572;,
         0.574332; 0.591572;,
         0.603703; 0.585453;,
         0.574332; 0.591572;,
         0.574332; 0.585453;,
         0.603703; 0.585453;,
         0.603703; 0.585453;,
         0.574332; 0.585453;,
         0.603703; 0.579334;,
         0.574332; 0.585453;,
         0.574332; 0.579334;,
         0.603703; 0.579334;,
         0.603703; 0.579334;,
         0.574332; 0.579334;,
         0.603703; 0.573215;,
         0.574332; 0.579334;,
         0.574332; 0.573215;,
         0.603703; 0.573215;,
         0.603703; 0.573215;,
         0.574332; 0.573215;,
         0.603703; 0.567096;,
         0.574332; 0.573215;,
         0.574332; 0.567096;,
         0.603703; 0.567096;,
         0.603703; 0.567096;,
         0.574332; 0.567096;,
         0.603703; 0.560977;,
         0.574332; 0.567096;,
         0.574332; 0.560977;,
         0.603703; 0.560977;,
         0.603703; 0.560977;,
         0.574332; 0.560977;,
         0.603703; 0.554858;,
         0.574332; 0.560977;,
         0.574332; 0.554858;,
         0.603703; 0.554858;,
         0.603703; 0.554858;,
         0.574332; 0.554858;,
         0.603703; 0.548739;,
         0.574332; 0.554858;,
         0.574332; 0.548739;,
         0.603703; 0.548739;,
         0.603703; 0.548739;,
         0.574332; 0.548739;,
         0.603703; 0.542620;,
         0.574332; 0.548739;,
         0.574332; 0.542620;,
         0.603703; 0.542620;,
         0.603703; 0.542620;,
         0.574332; 0.542620;,
         0.603703; 0.536501;,
         0.574332; 0.542620;,
         0.574332; 0.536501;,
         0.603703; 0.536501;,
         0.603703; 0.536501;,
         0.574332; 0.536501;,
         0.603703; 0.530382;,
         0.574332; 0.536501;,
         0.574332; 0.530382;,
         0.603703; 0.530382;,
         0.603703; 0.530382;,
         0.574332; 0.530382;,
         0.603703; 0.524264;,
         0.574332; 0.530382;,
         0.574332; 0.524264;,
         0.603703; 0.524264;,
         0.603703; 0.524264;,
         0.574332; 0.524264;,
         0.603703; 0.518145;,
         0.574332; 0.524264;,
         0.574332; 0.518145;,
         0.603703; 0.518145;,
         0.603703; 0.518145;,
         0.574332; 0.518145;,
         0.603703; 0.512026;,
         0.574332; 0.518145;,
         0.574332; 0.512026;,
         0.603703; 0.512026;,
         0.603703; 0.512026;,
         0.574332; 0.512026;,
         0.603703; 0.512026;,
         0.574332; 0.512026;,
         0.574332; 0.512026;,
         0.603703; 0.512026;,
         0.603703; 0.512026;,
         0.574332; 0.512026;,
         0.603703; 0.512026;,
         0.574332; 0.512026;,
         0.574332; 0.512026;,
         0.603703; 0.512026;,
         0.633074; 0.640523;,
         0.603703; 0.640523;,
         0.633074; 0.634405;,
         0.603703; 0.640523;,
         0.603703; 0.634405;,
         0.633074; 0.634405;,
         0.633074; 0.634405;,
         0.603703; 0.634405;,
         0.633074; 0.628286;,
         0.603703; 0.634405;,
         0.603703; 0.628286;,
         0.633074; 0.628286;,
         0.633074; 0.628286;,
         0.603703; 0.628286;,
         0.633074; 0.622167;,
         0.603703; 0.628286;,
         0.603703; 0.622167;,
         0.633074; 0.622167;,
         0.633074; 0.622167;,
         0.603703; 0.622167;,
         0.633074; 0.616048;,
         0.603703; 0.622167;,
         0.603703; 0.616048;,
         0.633074; 0.616048;,
         0.633074; 0.616048;,
         0.603703; 0.616048;,
         0.633074; 0.609929;,
         0.603703; 0.616048;,
         0.603703; 0.609929;,
         0.633074; 0.609929;,
         0.633074; 0.609929;,
         0.603703; 0.609929;,
         0.633074; 0.603810;,
         0.603703; 0.609929;,
         0.603703; 0.603810;,
         0.633074; 0.603810;,
         0.633074; 0.603810;,
         0.603703; 0.603810;,
         0.633074; 0.597691;,
         0.603703; 0.603810;,
         0.603703; 0.597691;,
         0.633074; 0.597691;,
         0.633074; 0.597691;,
         0.603703; 0.597691;,
         0.633074; 0.591572;,
         0.603703; 0.597691;,
         0.603703; 0.591572;,
         0.633074; 0.591572;,
         0.633074; 0.591572;,
         0.603703; 0.591572;,
         0.633074; 0.585453;,
         0.603703; 0.591572;,
         0.603703; 0.585453;,
         0.633074; 0.585453;,
         0.633074; 0.585453;,
         0.603703; 0.585453;,
         0.633074; 0.579334;,
         0.603703; 0.585453;,
         0.603703; 0.579334;,
         0.633074; 0.579334;,
         0.633074; 0.579334;,
         0.603703; 0.579334;,
         0.633074; 0.573215;,
         0.603703; 0.579334;,
         0.603703; 0.573215;,
         0.633074; 0.573215;,
         0.633074; 0.573215;,
         0.603703; 0.573215;,
         0.633074; 0.567096;,
         0.603703; 0.573215;,
         0.603703; 0.567096;,
         0.633074; 0.567096;,
         0.633074; 0.567096;,
         0.603703; 0.567096;,
         0.633074; 0.560977;,
         0.603703; 0.567096;,
         0.603703; 0.560977;,
         0.633074; 0.560977;,
         0.633074; 0.560977;,
         0.603703; 0.560977;,
         0.633074; 0.554858;,
         0.603703; 0.560977;,
         0.603703; 0.554858;,
         0.633074; 0.554858;,
         0.633074; 0.554858;,
         0.603703; 0.554858;,
         0.633074; 0.548739;,
         0.603703; 0.554858;,
         0.603703; 0.548739;,
         0.633074; 0.548739;,
         0.633074; 0.548739;,
         0.603703; 0.548739;,
         0.633074; 0.542620;,
         0.603703; 0.548739;,
         0.603703; 0.542620;,
         0.633074; 0.542620;,
         0.633074; 0.542620;,
         0.603703; 0.542620;,
         0.633074; 0.536501;,
         0.603703; 0.542620;,
         0.603703; 0.536501;,
         0.633074; 0.536501;,
         0.633074; 0.536501;,
         0.603703; 0.536501;,
         0.633074; 0.530382;,
         0.603703; 0.536501;,
         0.603703; 0.530382;,
         0.633074; 0.530382;,
         0.633074; 0.530382;,
         0.603703; 0.530382;,
         0.633074; 0.524264;,
         0.603703; 0.530382;,
         0.603703; 0.524264;,
         0.633074; 0.524264;,
         0.633074; 0.524264;,
         0.603703; 0.524264;,
         0.633074; 0.518145;,
         0.603703; 0.524264;,
         0.603703; 0.518145;,
         0.633074; 0.518145;,
         0.633074; 0.518145;,
         0.603703; 0.518145;,
         0.633074; 0.512026;,
         0.603703; 0.518145;,
         0.603703; 0.512026;,
         0.633074; 0.512026;,
         0.633074; 0.512026;,
         0.603703; 0.512026;,
         0.633074; 0.512026;,
         0.603703; 0.512026;,
         0.603703; 0.512026;,
         0.633074; 0.512026;,
         0.633074; 0.512026;,
         0.603703; 0.512026;,
         0.633074; 0.512026;,
         0.603703; 0.512026;,
         0.603703; 0.512026;,
         0.633074; 0.512026;,
         0.662445; 0.640523;,
         0.633074; 0.640523;,
         0.662445; 0.634405;,
         0.633074; 0.640523;,
         0.633074; 0.634405;,
         0.662445; 0.634405;,
         0.662445; 0.634405;,
         0.633074; 0.634405;,
         0.662445; 0.628286;,
         0.633074; 0.634405;,
         0.633074; 0.628286;,
         0.662445; 0.628286;,
         0.662445; 0.628286;,
         0.633074; 0.628286;,
         0.662445; 0.622167;,
         0.633074; 0.628286;,
         0.633074; 0.622167;,
         0.662445; 0.622167;,
         0.662445; 0.622167;,
         0.633074; 0.622167;,
         0.662445; 0.616048;,
         0.633074; 0.622167;,
         0.633074; 0.616048;,
         0.662445; 0.616048;,
         0.662445; 0.616048;,
         0.633074; 0.616048;,
         0.662445; 0.609929;,
         0.633074; 0.616048;,
         0.633074; 0.609929;,
         0.662445; 0.609929;,
         0.662445; 0.609929;,
         0.633074; 0.609929;,
         0.662445; 0.603810;,
         0.633074; 0.609929;,
         0.633074; 0.603810;,
         0.662445; 0.603810;,
         0.662445; 0.603810;,
         0.633074; 0.603810;,
         0.662445; 0.597691;,
         0.633074; 0.603810;,
         0.633074; 0.597691;,
         0.662445; 0.597691;,
         0.662445; 0.597691;,
         0.633074; 0.597691;,
         0.662445; 0.591572;,
         0.633074; 0.597691;,
         0.633074; 0.591572;,
         0.662445; 0.591572;,
         0.662445; 0.591572;,
         0.633074; 0.591572;,
         0.662445; 0.585453;,
         0.633074; 0.591572;,
         0.633074; 0.585453;,
         0.662445; 0.585453;,
         0.662445; 0.585453;,
         0.633074; 0.585453;,
         0.662445; 0.579334;,
         0.633074; 0.585453;,
         0.633074; 0.579334;,
         0.662445; 0.579334;,
         0.662445; 0.579334;,
         0.633074; 0.579334;,
         0.662445; 0.573215;,
         0.633074; 0.579334;,
         0.633074; 0.573215;,
         0.662445; 0.573215;,
         0.662445; 0.573215;,
         0.633074; 0.573215;,
         0.662445; 0.567096;,
         0.633074; 0.573215;,
         0.633074; 0.567096;,
         0.662445; 0.567096;,
         0.662445; 0.567096;,
         0.633074; 0.567096;,
         0.662445; 0.560977;,
         0.633074; 0.567096;,
         0.633074; 0.560977;,
         0.662445; 0.560977;,
         0.662445; 0.560977;,
         0.633074; 0.560977;,
         0.662445; 0.554858;,
         0.633074; 0.560977;,
         0.633074; 0.554858;,
         0.662445; 0.554858;,
         0.662445; 0.554858;,
         0.633074; 0.554858;,
         0.662445; 0.548739;,
         0.633074; 0.554858;,
         0.633074; 0.548739;,
         0.662445; 0.548739;,
         0.662445; 0.548739;,
         0.633074; 0.548739;,
         0.662445; 0.542620;,
         0.633074; 0.548739;,
         0.633074; 0.542620;,
         0.662445; 0.542620;,
         0.662445; 0.542620;,
         0.633074; 0.542620;,
         0.662445; 0.536501;,
         0.633074; 0.542620;,
         0.633074; 0.536501;,
         0.662445; 0.536501;,
         0.662445; 0.536501;,
         0.633074; 0.536501;,
         0.662445; 0.530382;,
         0.633074; 0.536501;,
         0.633074; 0.530382;,
         0.662445; 0.530382;,
         0.662445; 0.530382;,
         0.633074; 0.530382;,
         0.662445; 0.524264;,
         0.633074; 0.530382;,
         0.633074; 0.524264;,
         0.662445; 0.524264;,
         0.662445; 0.524264;,
         0.633074; 0.524264;,
         0.662445; 0.518145;,
         0.633074; 0.524264;,
         0.633074; 0.518145;,
         0.662445; 0.518145;,
         0.662445; 0.518145;,
         0.633074; 0.518145;,
         0.662445; 0.512026;,
         0.633074; 0.518145;,
         0.633074; 0.512026;,
         0.662445; 0.512026;,
         0.515590; 0.512026;,
         0.633074; 0.512026;,
         0.515590; 0.512026;,
         0.633074; 0.512026;,
         0.633074; 0.512026;,
         0.515590; 0.512026;,
         0.515590; 0.512026;,
         0.633074; 0.512026;,
         0.515590; 0.512026;,
         0.633074; 0.512026;,
         0.633074; 0.512026;,
         0.515590; 0.512026;,
         0.544961; 0.512026;,
         0.603703; 0.512026;,
         0.574332; 0.512026;,
         0.603703; 0.512026;,
         0.603703; 0.512026;,
         0.574332; 0.512026;,
         0.603703; 0.512026;,
         0.603703; 0.512026;,
         0.633074; 0.512026;,
         0.603703; 0.512026;,
         0.515590; 0.512026;,
         0.633074; 0.512026;,
         0.515590; 0.512026;,
         0.603703; 0.512026;,
         0.544961; 0.512026;;
      } //End of Mesh UV Coordinates
    } //End of Mesh Mesh
  } //End of minomucchi_mat_0
} //End of Root Frame
