# Blender v2.66 (sub 1) OBJ File: 'BR_Wurmple.blend'
# www.blender.org
mtllib BR_Wurmple.mtl
o kemusso
v 0.281915 0.303637 -0.040491
v 0.000000 0.306603 -0.018617
v -0.281915 0.303637 -0.040491
v -0.157922 0.684877 -0.101750
v -0.410501 0.583640 -0.178351
v -0.491580 0.482402 -0.317371
v -0.491580 0.482402 -0.317371
v 0.157922 0.684877 -0.101750
v 0.000000 0.717118 -0.076782
v 0.410501 0.583640 -0.180951
v 0.491582 0.482402 -0.322571
v 0.491582 0.482402 -0.322571
v 0.000000 0.247619 -1.061376
v 0.000000 0.247619 -1.061376
v 0.000000 0.247619 -1.061376
v 0.532963 0.224099 -0.240018
v 0.532963 0.224099 -0.240018
v 0.528238 0.325328 -0.343542
v 0.528238 0.325328 -0.343542
v -0.532963 0.224099 -0.234818
v -0.532963 0.224099 -0.234818
v 0.471875 0.324989 -0.121475
v -0.471875 0.324989 -0.121475
v -0.565897 0.547683 -0.450482
v 0.563348 0.325279 -0.343542
v 0.603336 0.062441 -0.348140
v 0.571738 0.062470 -0.348119
v 0.571738 0.062470 -0.348119
v 0.641374 0.150416 -0.540899
v -0.524645 0.547711 -0.450461
v -0.524645 0.547711 -0.450461
v -0.153351 0.126982 -1.097096
v 0.076477 0.038700 -0.925386
v 0.076477 0.038700 -0.925386
v 0.076477 0.038700 -0.925386
v 0.076477 0.038700 -0.925386
v 0.489453 -1.002307 -0.322721
v 0.489453 -1.002307 -0.322721
v 0.352470 -0.997046 -0.195605
v 0.352470 -0.997046 -0.195605
v 0.369147 -0.997040 -0.194681
v 0.537900 -1.002236 -0.322829
v 0.558388 -0.984691 -0.492382
v 0.558388 -0.984691 -0.492382
v 0.437103 -1.118710 -0.299988
v 0.466461 -1.218514 -0.587074
v 0.494569 -0.902291 -0.288299
v 0.494569 -0.902291 -0.288299
v 0.422455 -0.875169 -0.133894
v 0.000000 -1.263069 -0.152072
v 0.234788 -1.213649 -0.198162
v 0.211750 -1.156402 -0.062386
v 0.000000 -1.290274 -0.332326
v 0.241596 -1.237301 -0.415287
v 0.241596 -1.237301 -0.415287
v 0.290796 -1.359822 -0.251986
v 0.290796 -1.359822 -0.251986
v -0.216737 -1.017837 -0.146722
v -0.216737 -1.017837 -0.146722
v -0.352470 -0.997046 -0.195605
v -0.352470 -0.997046 -0.195605
v -0.369147 -0.997040 -0.194681
v -0.211750 -1.156402 -0.062386
v -0.437103 -1.118710 -0.299988
v -0.241596 -1.237301 -0.415287
v -0.241596 -1.237301 -0.415287
v -0.241596 -1.237301 -0.415287
v -0.290796 -1.359822 -0.251986
v -0.290796 -1.359822 -0.251986
v -0.466461 -1.218514 -0.587074
v -0.368994 -1.061517 -0.711441
v -0.216140 -1.180438 -0.849709
v -0.339735 -1.167935 -0.636344
v -0.339735 -1.167935 -0.636344
v 0.000000 -1.330371 -0.506498
v 0.000000 -1.380063 -0.427341
v 0.221770 -1.136049 -0.707294
v 0.221770 -1.136049 -0.707294
v 0.339735 -1.167935 -0.636344
v 0.339735 -1.167935 -0.636344
v -0.234788 -1.213649 -0.198162
v 0.109627 -1.294459 -0.559163
v 0.109627 -1.294459 -0.559163
v 0.103978 -1.207424 -0.639588
v 0.103978 -1.207424 -0.639588
v -0.221770 -1.136049 -0.707294
v -0.221770 -1.136049 -0.707294
v -0.103978 -1.207424 -0.639588
v -0.103978 -1.207424 -0.639588
v -0.109627 -1.294459 -0.559163
v -0.109627 -1.294459 -0.559163
v 0.344186 -1.188874 -0.491522
v 0.344186 -1.188874 -0.491522
v -0.494569 -0.902291 -0.231101
v -0.494569 -0.902291 -0.231101
v -0.489453 -1.002307 -0.322721
v -0.489453 -1.002307 -0.322721
v -0.489453 -1.002307 -0.322721
v 0.232790 -0.462151 -0.054522
v -0.232790 -0.462151 -0.054522
v -0.537900 -1.002236 -0.322829
v -0.537900 -1.002236 -0.322829
v -0.543662 -0.958101 -0.498613
v 0.499682 -0.645247 -0.366361
v 0.499682 -0.645247 -0.366361
v 0.504797 -0.468712 -0.266425
v 0.504797 -0.468712 -0.266425
v -0.504797 -0.468712 -0.261226
v -0.504797 -0.468712 -0.261226
v -0.543345 -0.645265 -0.361161
v -0.499682 -0.645247 -0.361161
v -0.499682 -0.645247 -0.361161
v 0.543345 -0.645265 -0.366361
v 0.447402 -0.477154 -0.143005
v -0.447402 -0.477154 -0.143005
v 0.000000 -1.047518 -0.085484
v 0.000000 -1.047518 -0.085484
v 0.220427 -1.017837 -0.146722
v 0.220427 -1.017837 -0.146722
v -0.130845 -0.997395 -0.793907
v -0.130845 -0.997395 -0.793907
v -0.130845 -0.997395 -0.793907
v -0.130845 -0.997395 -0.793907
v 0.353272 -0.983308 -0.701707
v 0.353272 -0.983308 -0.701707
v 0.216139 -1.170856 -0.818961
v 0.223214 -0.843879 -0.052588
v -0.223214 -0.843879 -0.052588
v 0.000000 -0.848490 -0.016124
v 0.000000 -0.466708 -0.005746
v -0.422455 -0.875169 -0.133894
v -0.344186 -1.188874 -0.491522
v -0.344186 -1.188874 -0.491522
v 0.073146 -1.367413 -0.592510
v -0.073146 -1.367413 -0.592510
v -0.000005 -1.178694 -0.668832
v -0.445717 0.654106 -1.053766
v -0.257813 0.243877 -1.188751
v -0.257813 0.243877 -1.188751
v 0.247975 0.178034 -1.239690
v 0.222661 0.336059 -1.259606
v 0.222661 0.336059 -1.259606
v 0.000000 0.207042 -1.487002
v 0.321154 0.972593 -0.965474
v 0.321154 0.972593 -0.965474
v 0.392131 0.851242 -1.093598
v 0.392131 0.851242 -1.093598
v 0.292445 0.997653 -1.212702
v 0.292445 0.997653 -1.212702
v -0.372442 0.851242 -1.093598
v -0.372442 0.851242 -1.093598
v -0.321154 0.972597 -0.965474
v -0.321154 0.972597 -0.965474
v -0.163875 1.058957 -0.879793
v 0.000000 1.097280 -0.854844
v 0.417334 0.850761 -0.839868
v 0.331354 0.934800 -0.653963
v 0.331354 0.934800 -0.653963
v -0.482863 0.817429 -0.742382
v -0.331354 0.934800 -0.653963
v -0.331354 0.934800 -0.653963
v 0.356071 0.850619 -0.839889
v 0.356071 0.850619 -0.839889
v 0.418368 0.851301 -1.093538
v -0.398679 0.851301 -1.093538
v 0.405628 0.862730 -1.329273
v 0.405628 0.862730 -1.329273
v 0.163875 1.058953 -0.879793
v -0.356071 0.850619 -0.839889
v -0.356071 0.850619 -0.839889
v -0.417334 0.850761 -0.839868
v 0.445717 0.734348 -1.053766
v 0.423466 0.602190 -1.313046
v -0.454346 0.729490 -0.770358
v -0.487878 0.567769 -1.197393
v -0.395848 0.486906 -1.392077
v -0.107496 0.323137 -1.276836
v -0.107496 0.323137 -1.276836
v -0.107496 0.323137 -1.276836
v 0.446872 0.516639 -1.183319
v 0.446872 0.516639 -1.183319
v -0.305082 0.436231 -1.259071
v 0.417453 0.455078 -1.097530
v 0.417453 0.455078 -1.097530
v 0.417453 0.455078 -1.097530
v 0.417453 0.455078 -1.097530
v 0.417453 0.455078 -1.097530
v 0.436319 0.864440 -1.325687
v -0.436256 0.864440 -1.325687
v -0.396191 0.664723 -1.938581
v -0.458531 0.781978 -1.937821
v -0.270766 0.771708 -2.127374
v -0.134523 1.417378 -1.933083
v -0.243218 1.380706 -1.886265
v -0.148244 1.433114 -1.875844
v -0.148244 1.433114 -1.875844
v -0.258401 1.270679 -2.033162
v 0.242619 0.997226 -2.155767
v 0.311928 1.153263 -2.044647
v 0.456103 0.781978 -1.937821
v 0.270766 0.771708 -2.127374
v 0.194177 0.489643 -2.081764
v 0.132721 0.686947 -2.243074
v -0.132721 0.686947 -2.243074
v -0.193907 0.489643 -2.081764
v 0.025540 0.771048 -2.984822
v 0.000000 0.716698 -2.919226
v -0.242619 0.997219 -2.155762
v -0.213363 0.410445 -1.969140
v -0.250991 0.395131 -1.600169
v 0.207593 0.410445 -1.969140
v 0.000000 0.254000 -2.163626
v 0.000802 0.579075 -2.188543
v -0.002384 0.360695 -1.815646
v 0.394798 0.664723 -1.938581
v 0.250991 0.395131 -1.600169
v 0.134523 1.417378 -1.933083
v 0.243218 1.380706 -1.886265
v 0.258401 1.270679 -2.033162
v 0.000000 1.118699 -1.183012
v 0.000000 1.118699 -1.183012
v 0.335169 1.112055 -1.292256
v -0.315026 1.112055 -1.292256
v -0.025540 0.771049 -2.984821
v -0.025845 0.729230 -2.946209
v 0.025845 0.729230 -2.946209
v 0.388609 1.337471 -1.757481
v -0.311928 1.153263 -2.044647
v -0.388609 1.337471 -1.757481
v 0.468036 0.874227 -1.405564
v 0.446701 0.667154 -1.482812
v 0.462892 1.059613 -1.436557
v 0.480299 1.048955 -1.655092
v 0.000000 0.803348 -2.985487
v 0.499408 0.793935 -1.638992
v -0.439894 1.036575 -1.893839
v -0.429296 0.669039 -1.494344
v -0.426249 0.874227 -1.405564
v -0.477096 0.793935 -1.638992
v 0.000000 1.080482 -2.270844
v 0.398484 1.169840 -1.361985
v -0.439572 1.059622 -1.436557
v -0.377053 1.169840 -1.361985
v 0.400220 1.358249 -1.523949
v -0.400220 1.358265 -1.523949
v -0.454842 1.048955 -1.655092
v 0.439129 1.036575 -1.893839
v 0.000000 1.442543 -1.940932
v -0.222849 1.609288 -1.654245
v -0.239442 1.560034 -1.322163
v -0.338152 1.460561 -1.287141
v -0.235992 1.625403 -1.477322
v -0.243583 1.369341 -1.214604
v 0.142679 1.495345 -1.248293
v 0.070253 1.641010 -1.649213
v 0.222144 1.609288 -1.654245
v 0.102806 1.556398 -1.780754
v 0.138191 1.289073 -1.166312
v 0.243583 1.369341 -1.214604
v 0.390216 1.322537 -1.321819
v 0.278763 1.243486 -1.209649
v 0.066093 1.618268 -1.350122
v 0.339195 1.460561 -1.287141
v 0.231491 1.560034 -1.322163
v 0.231690 1.625403 -1.477322
v 0.062653 1.655546 -1.488968
v 0.344036 1.564769 -1.462732
v 0.261270 -0.086168 -0.037332
v -0.261270 -0.086168 -0.037354
v 0.480048 -0.084873 -0.133443
v -0.480048 -0.084873 -0.133443
v 0.560710 -0.104399 -0.265072
v 0.560710 -0.104399 -0.265072
v -0.560710 -0.104399 -0.259872
v -0.560710 -0.104399 -0.259872
v 0.575999 -0.007669 -0.640491
v 0.575999 -0.007669 -0.640491
v 0.575999 -0.007669 -0.640491
v -0.603642 -0.016614 -0.609743
v -0.603642 -0.016614 -0.609743
v -0.603642 -0.016614 -0.609743
v -0.603642 -0.016614 -0.609743
v 0.548790 -0.303681 -0.356842
v 0.717963 -0.113213 -0.475192
v 0.673366 -0.467069 -0.484797
v -0.509910 -0.303604 -0.351664
v -0.509910 -0.303604 -0.351664
v -0.622076 -0.890964 -0.432842
v -0.548790 -0.303681 -0.351643
v -0.618672 -0.467069 -0.461763
v 0.509910 -0.303604 -0.356864
v 0.509910 -0.303604 -0.356864
v -0.613536 -0.305301 -0.656198
v -0.721675 -0.113213 -0.452652
v 0.000000 -0.082497 0.000786
v 0.641691 -0.890964 -0.455381
v -0.351109 -0.287348 -0.831810
v -0.351109 -0.287348 -0.831810
v -0.351109 -0.287348 -0.831810
v -0.567775 -0.077260 -0.987246
v -0.567775 -0.077260 -0.987246
v -0.631120 -0.457818 -0.866254
v -0.631120 -0.457818 -0.866254
v -0.336527 -0.672275 -0.747044
v -0.336527 -0.672275 -0.747044
v -0.336527 -0.672275 -0.747044
v -0.336527 -0.672275 -0.747044
v -0.336527 -0.672275 -0.747044
v -0.553821 -0.888895 -0.660001
v -0.553821 -0.888895 -0.660001
v 0.624521 -0.301559 -0.607014
v 0.624521 -0.301559 -0.607014
v 0.624521 -0.301559 -0.607014
v 0.624521 -0.301559 -0.607014
v 0.565746 -0.552254 -0.773430
v 0.565746 -0.552254 -0.773430
v 0.286010 -0.342709 -0.825171
v 0.286010 -0.342709 -0.825171
v 0.286010 -0.342709 -0.825171
v 0.138012 -0.916596 -0.909182
v 0.138012 -0.916596 -0.909182
v 0.299710 -0.715458 -0.783680
v 0.299710 -0.715458 -0.783680
v 0.299710 -0.715458 -0.783680
v 0.299710 -0.715458 -0.783680
v -0.235579 -0.901416 -0.936812
v -0.235579 -0.901416 -0.936812
v 0.035134 -0.400116 -0.894666
v 0.035134 -0.400116 -0.894666
v 0.035134 -0.400116 -0.894666
v 0.035134 -0.400116 -0.894666
v 0.035134 -0.400116 -0.894666
v -0.175496 -0.516371 -1.035366
v -0.175496 -0.516371 -1.035366
v -0.082923 -0.810332 -0.803039
v -0.082923 -0.810332 -0.803039
v -0.082923 -0.810332 -0.803039
v -0.131154 -0.262874 -1.052807
v -0.131154 -0.262874 -1.052807
v 0.194115 -0.204362 -1.078781
v 0.194115 -0.204362 -1.078781
v 0.558430 -0.259150 -0.909599
v 0.558430 -0.259150 -0.909599
v 0.512865 -0.600887 -0.611140
v 0.512865 -0.600887 -0.611140
v -0.512586 -0.728292 -0.566490
v -0.512586 -0.728292 -0.566490
v -0.512586 -0.728292 -0.566490
v 0.164179 -0.597950 -0.987835
v 0.164179 -0.597950 -0.987835
v 0.552194 -0.876824 -0.784733
v 0.552194 -0.876824 -0.784733
v -0.615630 0.465634 -0.555962
v -0.626814 0.261483 -0.378544
v -0.597054 0.520079 -0.809099
v -0.514176 0.593648 -0.759464
v 0.519057 0.556415 -0.487762
v 0.519057 0.556415 -0.487762
v 0.519057 0.556415 -0.487762
v 0.430758 0.721627 -0.419520
v 0.430758 0.721627 -0.419520
v 0.430758 0.721627 -0.419520
v 0.000000 0.900859 -0.191050
v 0.000000 1.053989 -0.482004
v -0.165677 1.034244 -0.494982
v -0.350465 0.834625 -0.340770
v -0.430758 0.721627 -0.419520
v -0.430758 0.721627 -0.419520
v -0.423769 0.368542 -1.023757
v -0.423769 0.368542 -1.023757
v -0.423769 0.368542 -1.023757
v 0.352787 0.296021 -1.044507
v 0.352787 0.296021 -1.044507
v 0.352787 0.296021 -1.044507
v 0.352787 0.296021 -1.044507
v 0.352787 0.296021 -1.044507
v -0.588966 0.261533 -0.378566
v -0.588966 0.261533 -0.378566
v -0.588966 0.261533 -0.378566
v 0.501312 0.772494 -0.740276
v 0.505974 0.765191 -0.607681
v -0.521276 0.765191 -0.607681
v 0.248516 1.010576 -0.574462
v 0.165677 1.034244 -0.494982
v 0.215379 0.881062 -0.261999
v 0.476816 0.765046 -0.607981
v 0.476816 0.765046 -0.607981
v -0.476816 0.765046 -0.607981
v -0.476816 0.765046 -0.607981
v 0.621189 0.423585 -0.594552
v -0.571738 0.062470 -0.342919
v -0.571738 0.062470 -0.342919
v -0.603336 0.062441 -0.342940
v -0.543640 0.346480 -0.647001
v -0.543640 0.346480 -0.647001
v -0.693926 0.174138 -0.509442
v 0.560306 0.556387 -0.487784
v 0.560306 0.556387 -0.487784
v 0.350465 0.834625 -0.340770
v 0.573191 0.256832 -0.727771
v 0.367899 0.000778 -0.860130
v 0.367899 0.000778 -0.860130
v 0.367899 0.000778 -0.860130
v 0.282361 0.051256 -1.106436
v 0.282361 0.051256 -1.106436
v -0.341471 0.109467 -0.928740
v -0.341471 0.109467 -0.928740
v -0.341471 0.109467 -0.928740
v -0.341471 0.109467 -0.928740
v -0.341471 0.109467 -0.928740
v 0.620398 0.131676 -0.853856
v 0.620398 0.131676 -0.853856
v 0.521880 0.480683 -0.759743
v 0.521880 0.480683 -0.759743
v 0.477674 0.637910 -0.772120
v 0.566422 0.582375 -0.717393
v 0.558048 0.357058 -1.023491
v 0.558048 0.357058 -1.023491
v 0.520094 0.577712 -0.914584
v 0.520094 0.577712 -0.914584
v -0.672965 0.202963 -0.850224
v -0.672965 0.202963 -0.850224
v -0.587364 0.681464 -0.594101
v -0.215379 0.881062 -0.261999
v -0.248516 1.010576 -0.574462
v 0.000000 1.336039 -1.156787
v 0.000000 1.521426 -1.233643
v 0.000000 1.621123 -1.643904
v 0.000000 1.621123 -1.643904
v 0.000000 1.544735 -1.749368
v 0.000000 1.544735 -1.749368
v 0.000000 1.640081 -1.493076
v 0.000000 1.640081 -1.493076
v 0.000000 1.603519 -1.353772
v 0.000000 1.603519 -1.353772
v -0.147580 1.495345 -1.248293
v -0.064520 1.655546 -1.488968
v -0.070253 1.641010 -1.649213
v -0.102806 1.556398 -1.780754
v -0.070712 1.618268 -1.350122
v -0.137447 1.289073 -1.166312
v -0.129200 1.348730 -2.029344
v -0.129200 1.348730 -2.029344
v -0.158224 1.261270 -2.109712
v -0.158224 1.261270 -2.109712
v 0.000000 1.386544 -2.023627
v 0.000000 1.386544 -2.023627
v 0.000000 1.466236 -2.332443
v 0.129200 1.348730 -2.029344
v 0.129200 1.348730 -2.029344
v 0.000000 1.189583 -2.220045
v 0.000000 1.189583 -2.220045
v -0.138860 1.208448 -2.163152
v -0.138860 1.208448 -2.163152
v 0.138860 1.208454 -2.163154
v 0.138860 1.208454 -2.163154
v 0.158224 1.261277 -2.109714
v 0.158224 1.261277 -2.109714
v 0.284936 -1.837707 -1.203362
v -0.284936 -1.837707 -1.203362
v -0.288450 0.997653 -1.212702
v -0.288450 0.997653 -1.212702
v -0.405626 0.862730 -1.329273
v -0.405626 0.862730 -1.329273
v 0.418342 0.439422 -1.406381
v -0.390817 0.606078 -1.336836
v -0.269537 1.243486 -1.209649
v -0.390216 1.322537 -1.321819
v -0.289545 1.418477 -1.822679
v -0.161045 1.472278 -1.847619
v -0.346677 1.564775 -1.462735
v -0.332876 1.547070 -1.649215
v -0.416057 1.473454 -1.439497
v -0.410907 1.456459 -1.641216
v -0.384567 1.404597 -1.748702
v 0.289543 1.418477 -1.822679
v 0.416057 1.473448 -1.439497
v 0.148244 1.433114 -1.875844
v 0.148244 1.433114 -1.875844
v 0.000000 1.460851 -1.824787
v 0.000000 1.460851 -1.824787
v 0.000000 1.460851 -1.824787
v 0.161045 1.472278 -1.847619
v 0.332559 1.547058 -1.649213
v 0.410907 1.456447 -1.641213
v 0.378172 1.404591 -1.748702
vt 0.010000 0.900000
vt 0.154312 0.921875
vt 0.076179 1.082030
vt 0.126315 1.085940
vt 0.057948 0.968750
vt 0.089853 0.832031
vt 0.028128 0.596875
vt 0.093759 0.511719
vt 0.023961 0.334375
vt 0.091806 0.222656
vt 0.071882 0.115625
vt 0.140639 0.195313
vt 0.155615 0.542969
vt 0.161474 0.425781
vt 0.162126 0.804688
vt 0.500000 0.866667
vt 0.915000 0.560000
vt 0.854167 0.820833
vt 0.339583 0.843750
vt 0.437500 0.475000
vt 0.618750 -0.375000
vt 0.287500 -0.712500
vt 0.071875 0.609375
vt 0.179167 0.820833
vt 0.000000 0.833333
vt 0.071500 0.609500
vt 0.033333 -0.808333
vt 0.931250 -0.387500
vt 0.995000 0.152500
vt 0.179500 0.821000
vt 0.339500 0.844000
vt 0.499500 0.867000
vt 0.854500 0.821000
vt 0.812500 1.304170
vt 0.925000 0.245833
vt 0.956250 0.618750
vt 0.708333 0.150000
vt 0.475000 1.062500
vt 0.466667 -0.066667
vt 0.000000 0.966667
vt 0.016667 -0.100000
vt 0.997500 0.772500
vt 0.597500 0.332500
vt 0.797500 0.245000
vt 0.655000 1.037500
vt 0.425000 0.972500
vt 0.372500 0.272500
vt 0.212500 0.820000
vt 0.017500 0.200000
vt 0.027500 0.852500
vt 0.903125 0.143750
vt 0.910000 0.867500
vt 1.005000 0.482500
vt 0.687500 0.777500
vt 0.678125 -0.093750
vt 0.353125 0.756250
vt 0.346875 -0.071875
vt 0.056250 -0.056250
vt 0.062500 0.743750
vt 0.812500 1.070830
vt 0.837500 0.266667
vt 0.970833 0.829167
vt 0.583333 1.033330
vt 0.608333 0.245833
vt 0.345833 0.220833
vt 0.350000 1.004170
vt 0.033333 1.041670
vt 0.004167 0.166667
vt 0.900000 0.212500
vt 0.734375 1.000000
vt 0.978125 0.643750
vt 0.568750 0.096875
vt 0.468750 0.943750
vt 0.281250 0.050000
vt 0.262500 0.950000
vt 0.031250 0.931250
vt 0.037500 0.021875
vt 0.960227 0.326705
vt 0.321023 0.872159
vt 0.954545 1.144890
vt 0.315341 0.406250
vt 0.500000 0.500000
vt 0.385000 0.542000
vt 1.140630 0.089844
vt 0.315000 0.461000
vt 1.179690 0.531250
vt 0.338000 0.654000
vt 0.898438 1.007810
vt 0.063789 0.760970
vt 0.062500 1.198860
vt 0.337964 0.653653
vt 0.384913 0.542239
vt 0.314543 0.460515
vt 0.812500 -0.296875
vt 0.062500 -0.281250
vt 0.083333 0.291667
vt 0.218750 0.994792
vt 0.299479 0.718750
vt 0.645833 0.994792
vt 0.005208 0.994792
vt 0.004401 0.702324
vt 0.200521 0.638021
vt 0.004401 0.551220
vt 0.138021 0.536458
vt 0.003906 0.424479
vt 0.125036 0.406640
vt 0.131659 0.267963
vt 0.003906 0.316406
vt 0.003472 0.159722
vt 0.279124 0.133736
vt 0.003472 0.081597
vt 0.270483 0.063413
vt 0.003472 0.019097
vt 0.269707 0.064010
vt 0.278023 0.134469
vt 0.131109 0.267217
vt 0.125565 0.405934
usemtl mat_0
s 1
f 39/1 42/1 37/1
f 39/1 41/1 42/1
f 118/1 41/1 39/1
f 118/1 52/1 41/1
f 60/1 63/1 58/1
f 60/1 62/1 63/1
f 97/1 62/1 60/1
f 97/1 102/1 62/1
f 224/1 204/1 192/1
f 224/1 225/1 204/1
f 206/1 225/1 224/1
f 206/1 226/1 225/1
f 201/1 226/1 206/1
f 201/1 203/1 226/1
f 362/1 358/1 398/1
f 192/1 190/1 191/1
f 192/1 205/1 190/1
f 204/1 205/1 192/1
f 204/1 213/1 205/1
f 203/1 213/1 204/1
f 203/1 202/1 213/1
f 201/1 202/1 203/1
f 201/1 215/1 202/1
f 200/1 215/1 201/1
f 206/1 198/1 201/1
f 206/1 234/1 198/1
f 224/1 234/1 206/1
f 224/1 208/1 234/1
f 192/1 208/1 224/1
f 240/1 234/1 208/1
f 240/1 198/1 234/1
f 191/2 208/3 192/4
f 191/2 228/5 208/3
f 236/6 228/5 191/2
f 236/6 229/7 228/5
f 246/8 229/7 236/6
f 246/8 245/9 229/7
f 242/10 245/9 246/8
f 242/10 243/11 245/9
f 238/12 243/11 242/10
f 242/10 246/8 238/12
f 239/13 238/12 246/8
f 239/13 237/14 238/12
f 190/15 237/14 239/13
f 239/13 191/2 190/15
f 246/8 191/2 239/13
f 246/8 236/6 191/2
f 217/1 218/1 219/1
f 217/1 479/1 218/1
f 482/1 479/1 217/1
f 217/1 248/1 482/1
f 193/1 482/1 248/1
f 193/1 195/1 482/1
f 194/1 195/1 193/1
f 193/1 197/1 194/1
f 354/1 21/1 378/1
f 354/1 396/1 21/1
f 394/1 396/1 354/1
f 394/1 279/1 396/1
f 393/1 396/1 279/1
f 393/1 21/1 396/1
f 391/1 21/1 393/1
f 393/1 274/1 391/1
f 294/1 274/1 393/1
f 294/1 289/1 274/1
f 293/1 289/1 294/1
f 293/1 290/1 289/1
f 346/1 290/1 293/1
f 346/1 110/1 290/1
f 288/1 110/1 346/1
f 288/1 95/1 110/1
f 101/1 95/1 288/1
f 101/1 98/1 95/1
f 279/1 294/1 393/1
f 279/1 293/1 294/1
f 111/1 110/1 95/1
f 111/1 109/1 110/1
f 290/1 110/1 109/1
f 109/1 289/1 290/1
f 287/1 289/1 109/1
f 287/1 274/1 289/1
f 293/1 302/1 346/1
f 293/1 297/1 302/1
f 300/1 297/1 293/1
f 293/1 281/1 300/1
f 42/1 48/1 37/1
f 42/1 296/1 48/1
f 43/1 296/1 42/1
f 42/1 45/1 43/1
f 41/1 45/1 42/1
f 41/1 51/1 45/1
f 52/1 51/1 41/1
f 52/1 50/1 51/1
f 116/1 50/1 52/1
f 116/1 63/1 50/1
f 58/1 63/1 116/1
f 52/1 118/1 116/1
f 51/1 57/1 45/1
f 51/1 50/1 57/1
f 53/1 57/1 50/1
f 50/1 69/1 53/1
f 81/1 69/1 50/1
f 50/1 63/1 81/1
f 62/1 81/1 63/1
f 62/1 64/1 81/1
f 101/1 64/1 62/1
f 101/1 103/1 64/1
f 288/1 103/1 101/1
f 288/1 346/1 103/1
f 310/1 103/1 346/1
f 310/1 71/1 103/1
f 70/1 103/1 71/1
f 70/1 64/1 103/1
f 65/1 64/1 70/1
f 65/1 68/1 64/1
f 81/1 64/1 68/1
f 66/1 53/1 69/1
f 66/1 76/1 53/1
f 75/1 76/1 66/1
f 75/1 54/1 76/1
f 134/1 54/1 75/1
f 134/1 83/1 54/1
f 85/1 83/1 134/1
f 134/1 75/1 85/1
f 89/1 85/1 75/1
f 89/1 136/1 85/1
f 72/1 136/1 89/1
f 72/1 120/1 136/1
f 71/1 120/1 72/1
f 71/1 326/1 120/1
f 304/1 326/1 71/1
f 71/1 309/1 304/1
f 348/1 304/1 309/1
f 54/1 53/1 76/1
f 54/1 56/1 53/1
f 45/1 56/1 54/1
f 54/1 46/1 45/1
f 93/1 46/1 54/1
f 93/1 80/1 46/1
f 124/1 46/1 80/1
f 124/1 43/1 46/1
f 352/1 43/1 124/1
f 352/1 345/1 43/1
f 43/1 45/1 46/1
f 87/1 72/1 89/1
f 87/1 73/1 72/1
f 71/1 72/1 73/1
f 73/1 70/1 71/1
f 133/1 70/1 73/1
f 133/1 65/1 70/1
f 320/1 125/1 122/1
f 320/1 322/1 125/1
f 351/1 125/1 322/1
f 322/1 344/1 351/1
f 316/1 344/1 322/1
f 316/1 313/1 344/1
f 285/1 344/1 313/1
f 285/1 113/1 344/1
f 107/1 113/1 285/1
f 107/1 105/1 113/1
f 48/1 113/1 105/1
f 48/1 296/1 113/1
f 344/1 113/1 296/1
f 296/1 44/1 344/1
f 321/1 335/1 323/1
f 321/1 123/1 335/1
f 327/1 335/1 123/1
f 327/1 305/1 335/1
f 340/1 317/1 329/1
f 340/1 402/1 317/1
f 342/1 317/1 402/1
f 342/1 311/1 317/1
f 315/1 317/1 311/1
f 315/1 324/1 317/1
f 339/1 34/1 330/1
f 339/1 408/1 34/1
f 15/1 405/1 35/1
f 15/1 374/1 405/1
f 142/1 14/1 178/1
f 142/1 140/1 14/1
f 183/1 140/1 142/1
f 183/1 372/1 140/1
f 14/1 140/1 372/1
f 349/1 331/1 318/1
f 349/1 337/1 331/1
f 334/1 331/1 337/1
f 337/1 306/1 334/1
f 350/1 325/1 336/1
f 350/1 319/1 325/1
f 343/1 277/1 314/1
f 343/1 403/1 277/1
f 33/1 341/1 332/1
f 33/1 401/1 341/1
f 404/1 401/1 33/1
f 404/1 373/1 401/1
f 411/1 401/1 373/1
f 411/1 278/1 401/1
f 141/1 180/1 185/1
f 141/1 173/1 180/1
f 465/1 173/1 141/1
f 465/1 231/1 173/1
f 216/1 231/1 465/1
f 216/1 215/1 231/1
f 211/1 215/1 216/1
f 211/1 202/1 215/1
f 212/1 202/1 211/1
f 212/1 213/1 202/1
f 205/1 213/1 212/1
f 212/1 209/1 205/1
f 214/1 209/1 212/1
f 214/1 210/1 209/1
f 216/1 210/1 214/1
f 216/1 143/1 210/1
f 141/1 143/1 216/1
f 141/1 177/1 143/1
f 210/1 143/1 177/1
f 177/1 176/1 210/1
f 182/1 176/1 177/1
f 182/1 466/1 176/1
f 175/1 466/1 182/1
f 175/1 137/1 466/1
f 370/1 137/1 175/1
f 370/1 355/1 137/1
f 394/1 355/1 370/1
f 394/1 356/1 355/1
f 353/1 356/1 394/1
f 353/1 24/1 356/1
f 6/1 24/1 353/1
f 6/1 31/1 24/1
f 368/1 24/1 31/1
f 368/1 423/1 24/1
f 382/1 423/1 368/1
f 382/1 174/1 423/1
f 159/1 174/1 382/1
f 159/1 171/1 174/1
f 160/1 171/1 159/1
f 160/1 170/1 171/1
f 153/1 171/1 170/1
f 153/1 165/1 171/1
f 151/1 165/1 153/1
f 151/1 462/1 165/1
f 189/1 165/1 462/1
f 189/1 137/1 165/1
f 466/1 137/1 189/1
f 189/1 238/1 466/1
f 464/1 238/1 189/1
f 189/1 462/1 464/1
f 141/1 216/1 465/1
f 175/1 182/1 370/1
f 356/1 137/1 355/1
f 356/1 174/1 137/1
f 423/1 174/1 356/1
f 356/1 24/1 423/1
f 211/1 214/1 212/1
f 211/1 216/1 214/1
f 382/1 160/1 159/1
f 382/1 388/1 160/1
f 368/1 388/1 382/1
f 137/1 171/1 165/1
f 137/1 174/1 171/1
f 354/1 353/1 394/1
f 354/1 6/1 353/1
f 379/1 6/1 354/1
f 209/1 190/1 205/1
f 209/1 210/1 190/1
f 237/1 190/1 210/1
f 210/1 466/1 237/1
f 176/1 466/1 210/1
f 237/1 466/1 238/1
f 139/1 182/1 177/1
f 139/1 371/1 182/1
f 370/1 421/1 394/1
f 370/1 409/1 421/1
f 230/1 173/1 231/1
f 230/1 188/1 173/1
f 167/1 188/1 230/1
f 167/1 149/1 188/1
f 164/1 188/1 149/1
f 164/1 172/1 188/1
f 156/1 172/1 164/1
f 156/1 415/1 172/1
f 380/1 415/1 156/1
f 380/1 381/1 415/1
f 157/1 381/1 380/1
f 157/1 386/1 381/1
f 361/1 381/1 386/1
f 361/1 416/1 381/1
f 397/1 416/1 361/1
f 397/1 413/1 416/1
f 390/1 413/1 397/1
f 390/1 400/1 413/1
f 25/1 400/1 390/1
f 25/1 29/1 400/1
f 17/1 29/1 25/1
f 17/1 26/1 29/1
f 27/1 26/1 17/1
f 27/1 272/1 26/1
f 284/1 26/1 272/1
f 284/1 276/1 26/1
f 312/1 276/1 284/1
f 284/1 283/1 312/1
f 272/1 283/1 284/1
f 272/1 291/1 283/1
f 107/1 283/1 291/1
f 107/1 285/1 283/1
f 312/1 283/1 285/1
f 156/1 157/1 380/1
f 156/1 163/1 157/1
f 145/1 163/1 156/1
f 156/1 164/1 145/1
f 147/1 145/1 164/1
f 164/1 149/1 147/1
f 276/1 29/1 26/1
f 276/1 400/1 29/1
f 412/1 400/1 276/1
f 412/1 375/1 400/1
f 417/1 400/1 375/1
f 417/1 413/1 400/1
f 416/1 415/1 381/1
f 416/1 413/1 415/1
f 420/1 415/1 413/1
f 413/1 187/1 420/1
f 172/1 173/1 188/1
f 172/1 181/1 173/1
f 184/1 181/1 172/1
f 172/1 419/1 184/1
f 415/1 419/1 172/1
f 25/1 19/1 17/1
f 25/1 12/1 19/1
f 390/1 12/1 25/1
f 390/1 397/1 12/1
f 359/1 12/1 397/1
f 418/1 186/1 414/1
f 418/1 376/1 186/1
f 298/1 333/1 307/1
f 298/1 328/1 333/1
f 338/1 328/1 298/1
f 298/1 406/1 338/1
f 301/1 406/1 298/1
f 301/1 280/1 406/1
f 303/1 308/1 347/1
f 303/1 299/1 308/1
f 422/1 282/1 395/1
f 422/1 410/1 282/1
f 13/1 138/1 179/1
f 13/1 369/1 138/1
f 32/1 369/1 13/1
f 32/1 407/1 369/1
f 36/1 407/1 32/1
f 32/1 13/1 36/1
f 198/3 200/2 201/4
f 198/3 199/5 200/2
f 247/6 200/2 199/5
f 247/6 233/8 200/2
f 227/7 233/8 247/6
f 227/7 244/9 233/8
f 232/10 233/8 244/9
f 232/10 230/12 233/8
f 241/11 230/12 232/10
f 232/10 244/9 241/11
f 199/5 227/7 247/6
f 207/1 203/1 204/1
f 207/1 226/1 203/1
f 225/1 226/1 207/1
f 207/1 204/1 225/1
f 126/1 124/1 80/1
f 126/1 121/1 124/1
f 136/1 121/1 126/1
f 126/1 85/1 136/1
f 78/1 85/1 126/1
f 126/1 80/1 78/1
f 135/1 89/1 75/1
f 135/1 91/1 89/1
f 66/1 91/1 135/1
f 135/1 75/1 66/1
f 230/12 235/13 233/8
f 230/12 231/14 235/13
f 215/15 235/13 231/14
f 215/15 200/2 235/13
f 233/8 235/13 200/2
usemtl mat_1
f 360/16 11/17 357/18
f 360/16 399/19 11/17
f 10/20 11/17 399/19
f 10/20 22/21 11/17
f 1/22 22/21 10/20
f 8/20 1/23 10/22
f 385/24 8/23 10/20
f 385/24 363/25 8/23
f 9/26 8/23 363/25
f 9/26 2/27 8/23
f 4/23 2/27 9/26
f 4/23 3/22 2/27
f 5/20 3/22 4/23
f 5/20 23/21 3/22
f 7/17 23/21 5/20
f 7/17 20/28 23/21
f 377/29 20/28 7/17
f 1/22 8/23 2/27
f 10/20 399/19 385/24
f 363/25 4/23 9/26
f 363/25 424/30 4/23
f 5/20 4/23 424/30
f 424/30 366/31 5/20
f 7/17 5/20 366/31
f 366/31 367/32 7/17
f 30/33 7/17 367/32
f 16/28 11/17 22/21
f 16/28 18/29 11/17
f 144/34 158/35 162/36
f 144/34 383/37 158/35
f 168/38 383/37 144/34
f 168/38 384/39 383/37
f 155/40 384/39 168/38
f 155/40 364/41 384/39
f 365/39 364/41 155/40
f 155/40 154/38 365/39
f 425/37 365/39 154/38
f 154/38 152/34 425/37
f 161/35 425/37 152/34
f 152/34 169/36 161/35
f 387/42 399/43 360/44
f 387/42 158/45 399/43
f 383/46 399/43 158/45
f 383/46 385/47 399/43
f 384/48 385/47 383/46
f 384/48 363/49 385/47
f 364/50 363/49 384/48
f 364/50 365/48 363/49
f 424/47 363/49 365/48
f 365/48 425/46 424/47
f 366/43 424/47 425/46
f 425/46 161/45 366/43
f 389/42 366/43 161/45
f 389/42 367/44 366/43
f 16/51 273/52 28/53
f 16/51 270/54 273/52
f 22/55 270/54 16/51
f 22/55 268/56 270/54
f 1/57 268/56 22/55
f 1/57 2/58 268/56
f 295/59 268/56 2/58
f 2/58 269/56 295/59
f 3/57 269/56 2/58
f 3/57 23/55 269/56
f 271/54 269/56 23/55
f 23/55 20/51 271/54
f 275/52 271/54 20/51
f 20/51 392/53 275/52
f 106/60 47/61 104/62
f 106/60 114/63 47/61
f 49/64 47/61 114/63
f 114/63 127/65 49/64
f 99/66 127/65 114/63
f 99/66 130/67 127/65
f 129/68 127/65 130/67
f 130/67 128/65 129/68
f 100/66 128/65 130/67
f 100/66 115/63 128/65
f 131/64 128/65 115/63
f 115/63 94/61 131/64
f 108/60 94/61 115/63
f 108/60 112/62 94/61
f 108/69 275/70 286/71
f 108/69 115/72 275/70
f 271/73 275/70 115/72
f 115/72 100/74 271/73
f 269/75 271/73 100/74
f 100/74 295/76 269/75
f 130/77 295/76 100/74
f 130/77 99/74 295/76
f 268/75 295/76 99/74
f 99/74 270/73 268/75
f 114/72 270/73 99/74
f 114/72 273/70 270/73
f 106/69 273/70 114/72
f 106/69 292/71 273/70
usemtl mat_2
f 229/78 197/79 228/80
f 229/78 194/81 197/79
f 219/79 227/78 199/80
f 219/79 218/81 227/78
usemtl mat_3
f 449/45 448/19 443/37
f 458/82 456/82 449/37
f 448/38 456/82 458/82
f 448/38 451/1 456/82
f 453/37 451/1 448/38
f 453/37 448/46 451/1
usemtl mat_4
f 444/83 197/84 442/85
f 444/83 228/86 197/84
f 454/87 228/86 444/83
f 454/87 208/88 228/86
f 452/89 208/88 454/87
f 452/89 240/90 208/88
f 198/88 240/90 452/89
f 452/89 455/91 198/88
f 199/86 198/88 455/91
f 455/91 457/92 199/86
f 219/84 199/86 457/92
f 457/92 450/93 219/84
f 217/94 219/84 450/93
f 450/93 248/95 217/94
f 447/96 248/95 450/93
f 447/96 442/85 248/95
f 193/94 248/95 442/85
f 442/85 197/84 193/94
usemtl mat_5
f 49/82 127/82 119/82
f 40/82 49/82 119/82
f 59/82 128/82 131/82
f 61/82 59/82 131/82
f 40/82 47/82 49/82
f 40/82 38/82 47/82
f 148/82 144/82 146/82
f 148/82 168/82 144/82
f 220/82 168/82 148/82
f 220/82 155/82 168/82
f 154/82 155/82 220/82
f 220/82 461/82 154/82
f 223/82 461/82 220/82
f 223/82 463/82 461/82
f 238/82 463/82 223/82
f 223/82 243/82 238/82
f 468/82 243/82 223/82
f 468/82 473/82 243/82
f 251/82 473/82 468/82
f 251/82 471/82 473/82
f 250/82 471/82 251/82
f 250/82 252/82 471/82
f 440/82 252/82 250/82
f 440/82 437/82 252/82
f 249/82 252/82 437/82
f 249/82 472/82 252/82
f 469/82 472/82 249/82
f 469/82 475/82 472/82
f 229/82 475/82 469/82
f 229/82 474/82 475/82
f 245/82 474/82 229/82
f 245/82 473/82 474/82
f 243/82 473/82 245/82
f 474/82 472/82 475/82
f 474/82 471/82 472/82
f 473/82 471/82 474/82
f 472/82 471/82 252/82
f 438/82 249/82 437/82
f 438/82 439/82 249/82
f 470/82 249/82 439/82
f 470/82 469/82 249/82
f 194/82 469/82 470/82
f 194/82 229/82 469/82
f 250/82 436/82 440/82
f 250/82 251/82 436/82
f 253/82 436/82 251/82
f 253/82 441/82 436/82
f 467/82 441/82 253/82
f 467/82 221/82 441/82
f 223/82 221/82 467/82
f 467/82 468/82 223/82
f 251/82 468/82 467/82
f 467/82 253/82 251/82
f 461/82 152/82 154/82
f 461/82 150/82 152/82
f 148/82 222/82 220/82
f 148/82 166/82 222/82
f 230/82 222/82 166/82
f 230/82 241/82 222/82
f 260/82 222/82 241/82
f 260/82 261/82 222/82
f 263/82 261/82 260/82
f 263/82 259/82 261/82
f 254/82 259/82 263/82
f 254/82 258/82 259/82
f 261/82 259/82 258/82
f 258/82 221/82 261/82
f 222/82 261/82 221/82
f 61/82 94/82 96/82
f 61/82 131/82 94/82
f 59/82 129/82 128/82
f 59/82 117/82 129/82
f 119/82 129/82 117/82
f 119/82 127/82 129/82
f 478/97 483/98 218/99
f 478/97 480/100 483/98
f 431/101 483/98 480/100
f 431/101 257/102 483/98
f 429/103 257/102 431/101
f 429/103 255/104 257/102
f 432/105 255/104 429/103
f 432/105 266/106 255/104
f 262/107 266/106 432/105
f 432/105 434/108 262/107
f 427/109 262/107 434/108
f 427/109 254/110 262/107
f 426/111 254/110 427/109
f 426/111 258/112 254/110
f 221/113 258/112 426/111
f 426/111 441/114 221/113
f 436/115 441/114 426/111
f 426/111 427/109 436/115
f 440/116 436/115 427/109
f 427/109 435/108 440/116
f 433/105 440/116 435/108
f 433/105 437/117 440/116
f 438/104 437/117 433/105
f 433/105 428/103 438/104
f 439/102 438/104 428/103
f 428/103 430/101 439/102
f 470/98 439/102 430/101
f 430/101 481/100 470/98
f 196/97 470/98 481/100
f 196/97 194/99 470/98
f 260/82 477/82 263/82
f 260/82 241/82 477/82
f 244/82 477/82 241/82
f 244/82 485/82 477/82
f 227/82 485/82 244/82
f 227/82 486/82 485/82
f 476/82 486/82 227/82
f 476/82 484/82 486/82
f 256/82 484/82 476/82
f 256/82 265/82 484/82
f 266/82 265/82 256/82
f 266/82 262/82 265/82
f 264/82 265/82 262/82
f 264/82 267/82 265/82
f 263/82 267/82 264/82
f 263/82 477/82 267/82
f 485/82 267/82 477/82
f 485/82 484/82 267/82
f 486/82 484/82 485/82
f 265/82 267/82 484/82
f 264/82 254/82 263/82
f 264/82 262/82 254/82
f 218/82 476/82 227/82
f 218/82 483/82 476/82
f 256/82 476/82 483/82
f 483/82 257/82 256/82
f 255/82 256/82 257/82
f 255/82 266/82 256/82
