# Blender v2.66 (sub 1) OBJ File: 'BR_Volbeat-Shiny01.blend'
# www.blender.org
mtllib BR_Volbeat-Shiny01.mtl
o barubeat
v -0.096967 -0.069116 -4.922648
v 5.395844 -2.838064 -3.009413
v 0.353067 -5.009566 -2.143486
vt 0.061149 1.533750
vt 1.493120 0.039856
vt -0.274288 -0.352633
usemtl mat_0
s 1
f 1/1 2/2 3/3
