xof 0303txt 0032

template AnimTicksPerSecond {
  <9E415A43-7BA6-4a73-8743-B73D47E88476>
  DWORD AnimTicksPerSecond;
}

template XSkinMeshHeader {
  <3cf169ce-ff7c-44ab-93c0-f78f62d172e2>
  WORD nMaxSkinWeightsPerVertex;
  WORD nMaxSkinWeightsPerFace;
  WORD nBones;
}

template SkinWeights {
  <6f0d123b-bad2-4167-a0d0-80224f25fabb>
  STRING transformNodeName;
  DWORD nWeights;
  array DWORD vertexIndices[nWeights];
  array float weights[nWeights];
  Matrix4x4 matrixOffset;
}

Frame Root {
  FrameTransformMatrix {
     1.000000, 0.000000, 0.000000, 0.000000,
     0.000000, 0.000000, 1.000000, 0.000000,
     0.000000, 1.000000,-0.000000, 0.000000,
     0.000000, 0.000000, 0.000000, 1.000000;;
  }
  Frame gonyonyo_mat_1 {
    FrameTransformMatrix {
       1.000000, 0.000000, 0.000000, 0.000000,
       0.000000, 1.000000, 0.000000, 0.000000,
       0.000000, 0.000000, 1.000000, 0.000000,
       0.000000, 0.000000, 0.000000, 1.000000;;
    }
    Mesh { //Mesh Mesh
      54;
       0.053825; 2.720000; 0.702603;,
       3.303360; 2.000000; 0.695934;,
      -0.000001; 2.000000; 2.960000;,
       0.053825; 2.720000; 0.702603;,
      -0.000001; 2.000000; 2.960000;,
      -3.303360; 2.000000; 0.695933;,
      -3.303360; 2.000000; 0.695933;,
      -0.000001; 2.000000; 2.960000;,
      -3.214080;-0.000000; 3.048710;,
      -3.214080;-0.000000; 3.048710;,
      -0.000001; 2.000000; 2.960000;,
      -0.000001;-0.000000; 3.810200;,
      -3.214080;-0.000000; 3.048710;,
      -0.000001;-0.000000; 3.810200;,
      -1.651680;-2.000000; 3.377390;,
      -0.000001;-0.000000; 3.810200;,
       1.651680;-2.000000; 3.377390;,
      -1.651680;-2.000000; 3.377390;,
      -1.651680;-2.000000; 3.377390;,
       1.651680;-2.000000; 3.377390;,
      -0.233244;-2.720000; 0.621340;,
       1.651680;-2.000000; 3.377390;,
       3.363660;-2.387030; 0.602113;,
      -0.233244;-2.720000; 0.621340;,
       3.363660;-2.387030; 0.602113;,
       1.651680;-2.000000; 3.377390;,
       3.214080;-0.000000; 3.048710;,
       1.651680;-2.000000; 3.377390;,
      -0.000001;-0.000000; 3.810200;,
       3.214080;-0.000000; 3.048710;,
       3.214080;-0.000000; 3.048710;,
      -0.000001;-0.000000; 3.810200;,
      -0.000001; 2.000000; 2.960000;,
       3.214080;-0.000000; 3.048710;,
      -0.000001; 2.000000; 2.960000;,
       3.303360; 2.000000; 0.695934;,
       3.214080;-0.000000; 3.048710;,
       3.303360; 2.000000; 0.695934;,
       4.380270;-0.000000; 0.676186;,
       4.380270;-0.000000; 0.676186;,
       3.363660;-2.387030; 0.602113;,
       3.214080;-0.000000; 3.048710;,
      -3.303360; 2.000000; 0.695933;,
      -3.214080;-0.000000; 3.048710;,
      -4.547730;-0.000000; 0.676186;,
      -3.214080;-0.000000; 3.048710;,
      -3.758380;-2.387030; 0.602113;,
      -4.547730;-0.000000; 0.676186;,
      -3.758380;-2.387030; 0.602113;,
      -3.214080;-0.000000; 3.048710;,
      -1.651680;-2.000000; 3.377390;,
      -1.651680;-2.000000; 3.377390;,
      -0.233244;-2.720000; 0.621340;,
      -3.758380;-2.387030; 0.602113;;
      18;
      3;0;1;2;,
      3;3;4;5;,
      3;6;7;8;,
      3;9;10;11;,
      3;12;13;14;,
      3;15;16;17;,
      3;18;19;20;,
      3;21;22;23;,
      3;24;25;26;,
      3;27;28;29;,
      3;30;31;32;,
      3;33;34;35;,
      3;36;37;38;,
      3;39;40;41;,
      3;42;43;44;,
      3;45;46;47;,
      3;48;49;50;,
      3;51;52;53;;
      MeshNormals { //Mesh Normals
        54;
        -0.005890;-0.952635;-0.303964;,
        -0.538499;-0.689627;-0.484146;,
         0.000610;-0.738212;-0.674551;,
        -0.005890;-0.952635;-0.303964;,
         0.000610;-0.738212;-0.674551;,
         0.519944;-0.698965;-0.490982;,
         0.519944;-0.698965;-0.490982;,
         0.000610;-0.738212;-0.674551;,
         0.631001;-0.144932;-0.762108;,
         0.631001;-0.144932;-0.762108;,
         0.000610;-0.738212;-0.674551;,
        -0.000000;-0.141301;-0.989959;,
         0.631001;-0.144932;-0.762108;,
        -0.000000;-0.141301;-0.989959;,
         0.265084; 0.623585;-0.735405;,
        -0.000000;-0.141301;-0.989959;,
        -0.285348; 0.627888;-0.724052;,
         0.265084; 0.623585;-0.735405;,
         0.265084; 0.623585;-0.735405;,
        -0.285348; 0.627888;-0.724052;,
         0.004151; 0.975829;-0.218421;,
        -0.285348; 0.627888;-0.724052;,
        -0.577837; 0.711936;-0.398999;,
         0.004151; 0.975829;-0.218421;,
        -0.577837; 0.711936;-0.398999;,
        -0.285348; 0.627888;-0.724052;,
        -0.657888;-0.121067;-0.743309;,
        -0.285348; 0.627888;-0.724052;,
        -0.000000;-0.141301;-0.989959;,
        -0.657888;-0.121067;-0.743309;,
        -0.657888;-0.121067;-0.743309;,
        -0.000000;-0.141301;-0.989959;,
         0.000610;-0.738212;-0.674551;,
        -0.657888;-0.121067;-0.743309;,
         0.000610;-0.738212;-0.674551;,
        -0.538499;-0.689627;-0.484146;,
        -0.657888;-0.121067;-0.743309;,
        -0.538499;-0.689627;-0.484146;,
        -0.897183;-0.023621;-0.440992;,
        -0.897183;-0.023621;-0.440992;,
        -0.577837; 0.711936;-0.398999;,
        -0.657888;-0.121067;-0.743309;,
         0.519944;-0.698965;-0.490982;,
         0.631001;-0.144932;-0.762108;,
         0.869045;-0.077853;-0.488510;,
         0.631001;-0.144932;-0.762108;,
         0.592486; 0.660360;-0.461348;,
         0.869045;-0.077853;-0.488510;,
         0.592486; 0.660360;-0.461348;,
         0.631001;-0.144932;-0.762108;,
         0.265084; 0.623585;-0.735405;,
         0.265084; 0.623585;-0.735405;,
         0.004151; 0.975829;-0.218421;,
         0.592486; 0.660360;-0.461348;;
        18;
        3;0;1;2;,
        3;3;4;5;,
        3;6;7;8;,
        3;9;10;11;,
        3;12;13;14;,
        3;15;16;17;,
        3;18;19;20;,
        3;21;22;23;,
        3;24;25;26;,
        3;27;28;29;,
        3;30;31;32;,
        3;33;34;35;,
        3;36;37;38;,
        3;39;40;41;,
        3;42;43;44;,
        3;45;46;47;,
        3;48;49;50;,
        3;51;52;53;;
      } //End of Mesh Normals
      MeshMaterialList { //Mesh Material List
        1;
        18;
        0,
        0,
        0,
        0,
        0,
        0,
        0,
        0,
        0,
        0,
        0,
        0,
        0,
        0,
        0,
        0,
        0,
        0;;
        Material mat_1 {
           0.640000; 0.640000; 0.640000; 1.000000;;
           92.156863;
           0.250000; 0.250000; 0.250000;;
           0.000000; 0.000000; 0.000000;;
          TextureFilename {"Textures/gonyonyo_0_0.tga";}
        }
      } //End of Mesh Material List
      MeshTextureCoords { //Mesh UV Coordinates
        54;
         0.811296; 0.899779;,
         0.509378; 0.800732;,
         0.512320; 0.897774;,
         0.512320; 0.897774;,
         0.509378; 0.800732;,
         0.203439; 0.899779;,
         0.203439; 0.899779;,
         0.509378; 0.800732;,
         0.149378; 0.773080;,
         0.149378; 0.773080;,
         0.509378; 0.800732;,
         0.509378; 0.535714;,
         0.149378; 0.773080;,
         0.509378; 0.535714;,
         0.324378; 0.670627;,
         0.509378; 0.535714;,
         0.694378; 0.670627;,
         0.324378; 0.670627;,
         0.324378; 0.670627;,
         0.694378; 0.670627;,
         0.485908; 0.922200;,
         0.694378; 0.670627;,
         0.816844; 0.927979;,
         0.485908; 0.922200;,
         0.816844; 0.927979;,
         0.694378; 0.670627;,
         0.869378; 0.773080;,
         0.694378; 0.670627;,
         0.509378; 0.535714;,
         0.869378; 0.773080;,
         0.869378; 0.773080;,
         0.509378; 0.535714;,
         0.509378; 0.800732;,
         0.869378; 0.773080;,
         0.509378; 0.800732;,
         0.811296; 0.899779;,
         0.869378; 0.773080;,
         0.811296; 0.899779;,
         0.910378; 0.905715;,
         0.910378; 0.905715;,
         0.816844; 0.927979;,
         0.869378; 0.773080;,
         0.203439; 0.899779;,
         0.149378; 0.773080;,
         0.088950; 0.905715;,
         0.149378; 0.773080;,
         0.161575; 0.927979;,
         0.088950; 0.905715;,
         0.161575; 0.927979;,
         0.149378; 0.773080;,
         0.324378; 0.670627;,
         0.324378; 0.670627;,
         0.485908; 0.922200;,
         0.161575; 0.927979;;
      } //End of Mesh UV Coordinates
    } //End of Mesh Mesh
  } //End of gonyonyo_mat_1
  Frame gonyonyo_mat_2 {
    FrameTransformMatrix {
       1.000000, 0.000000, 0.000000, 0.000000,
       0.000000, 1.000000, 0.000000, 0.000000,
       0.000000, 0.000000, 1.000000, 0.000000,
       0.000000, 0.000000, 0.000000, 1.000000;;
    }
    Mesh { //Mesh Mesh
      12;
       0.155495;-2.156000;-6.325950;,
      -2.804510;-2.823560;-3.842460;,
       3.115490;-2.823560;-3.842460;,
      -2.804510;-2.823560;-3.842460;,
      -0.233244;-2.720000; 0.621340;,
       3.115490;-2.823560;-3.842460;,
       3.363660;-2.387030; 0.602113;,
       3.115490;-2.823560;-3.842460;,
      -0.233244;-2.720000; 0.621340;,
      -2.804510;-2.823560;-3.842460;,
      -3.758380;-2.387030; 0.602113;,
      -0.233244;-2.720000; 0.621340;;
      4;
      3;0;1;2;,
      3;3;4;5;,
      3;6;7;8;,
      3;9;10;11;;
      MeshNormals { //Mesh Normals
        12;
        -0.000000; 0.965697; 0.259560;,
         0.028016; 0.998688; 0.042238;,
        -0.027955; 0.998688; 0.042879;,
         0.028016; 0.998688; 0.042238;,
         0.004181; 0.998077;-0.061800;,
        -0.027955; 0.998688; 0.042879;,
        -0.092257; 0.991424;-0.092196;,
        -0.027955; 0.998688; 0.042879;,
         0.004181; 0.998077;-0.061800;,
         0.028016; 0.998688; 0.042238;,
         0.094150; 0.992523;-0.077273;,
         0.004181; 0.998077;-0.061800;;
        4;
        3;0;1;2;,
        3;3;4;5;,
        3;6;7;8;,
        3;9;10;11;;
      } //End of Mesh Normals
      MeshMaterialList { //Mesh Material List
        1;
        4;
        0,
        0,
        0,
        0;;
        Material mat_2 {
           0.640000; 0.640000; 0.640000; 1.000000;;
           92.156863;
           0.250000; 0.250000; 0.250000;;
           0.000000; 0.000000; 0.000000;;
          TextureFilename {"Textures/gonyonyo_0_1.tga";}
        }
      } //End of Mesh Material List
      MeshTextureCoords { //Mesh UV Coordinates
        12;
         0.521619; 1.393781;,
        -0.014678; 0.860575;,
         1.057920; 0.860575;,
        -0.014678; 0.860575;,
         0.451187;-0.097810;,
         1.057920; 0.860575;,
         1.102880;-0.093680;,
         1.057920; 0.860575;,
         0.451187;-0.097810;,
        -0.014678; 0.860575;,
        -0.187503;-0.093680;,
         0.451187;-0.097810;;
      } //End of Mesh UV Coordinates
    } //End of Mesh Mesh
  } //End of gonyonyo_mat_2
} //End of Root Frame
