# Blender MTL File: 'BR_Porygon2-Shiny01.blend'
# Material Count: 1

newmtl mat_0
Ns 96.078431
Ka 0.000000 0.000000 0.000000
Kd 0.800000 0.800000 0.800000
Ks 0.500000 0.500000 0.500000
Ni 1.000000
d 1.000000
illum 2
map_Kd Textures\porygon2_1_0.tga
map_d Textures\porygon2_1_0.tga
