xof 0303txt 0032

template AnimTicksPerSecond {
  <9E415A43-7BA6-4a73-8743-B73D47E88476>
  DWORD AnimTicksPerSecond;
}

template XSkinMeshHeader {
  <3cf169ce-ff7c-44ab-93c0-f78f62d172e2>
  WORD nMaxSkinWeightsPerVertex;
  WORD nMaxSkinWeightsPerFace;
  WORD nBones;
}

template SkinWeights {
  <6f0d123b-bad2-4167-a0d0-80224f25fabb>
  STRING transformNodeName;
  DWORD nWeights;
  array DWORD vertexIndices[nWeights];
  array float weights[nWeights];
  Matrix4x4 matrixOffset;
}

Frame Root {
  FrameTransformMatrix {
     1.000000, 0.000000, 0.000000, 0.000000,
     0.000000, 0.000000, 1.000000, 0.000000,
     0.000000, 1.000000,-0.000000, 0.000000,
     0.000000, 0.000000, 0.000000, 1.000000;;
  }
  Frame porygon2_mat_0 {
    FrameTransformMatrix {
       1.000000, 0.000000, 0.000000, 0.000000,
       0.000000, 1.000000, 0.000000, 0.000000,
       0.000000, 0.000000, 1.000000, 0.000000,
       0.000000, 0.000000, 0.000000, 1.000000;;
    }
    Mesh { //Mesh Mesh
      66;
      -1.152570; 6.931335; 1.888254;,
      -1.359840; 6.567450; 1.317836;,
      -1.202440; 7.070296; 1.359367;,
      -1.152570; 6.931335; 1.888254;,
      -1.202440; 7.070296; 1.359367;,
      -0.949813; 7.345446; 1.743445;,
      -1.152570; 6.931335; 1.888254;,
      -0.949813; 7.345446; 1.743445;,
      -0.806877; 7.108885; 2.171328;,
      -0.806877; 7.108885; 2.171328;,
      -0.751752; 6.682725; 2.371440;,
      -1.152570; 6.931335; 1.888254;,
      -1.152570; 6.931335; 1.888254;,
      -0.751752; 6.682725; 2.371440;,
      -1.197450; 6.252504; 1.982614;,
      -0.751752; 6.682725; 2.371440;,
      -0.855636; 6.290951; 2.327840;,
      -1.197450; 6.252504; 1.982614;,
      -1.197450; 6.252504; 1.982614;,
      -0.855636; 6.290951; 2.327840;,
      -0.954730; 6.037271; 2.149274;,
      -0.954730; 6.037271; 2.149274;,
      -1.150350; 5.986775; 1.742462;,
      -1.197450; 6.252504; 1.982614;,
      -1.197450; 6.252504; 1.982614;,
      -1.150350; 5.986775; 1.742462;,
      -1.315980; 6.181805; 1.438037;,
      -1.315980; 6.181805; 1.438037;,
      -1.359840; 6.567450; 1.317836;,
      -1.197450; 6.252504; 1.982614;,
      -1.197450; 6.252504; 1.982614;,
      -1.359840; 6.567450; 1.317836;,
      -1.152570; 6.931335; 1.888254;,
       1.342200; 6.181762; 1.438007;,
       1.176570; 5.986743; 1.742442;,
       1.223670; 6.252477; 1.982597;,
       1.176570; 5.986743; 1.742442;,
       0.980950; 6.037257; 2.149261;,
       1.223670; 6.252477; 1.982597;,
       1.223670; 6.252477; 1.982597;,
       0.980950; 6.037257; 2.149261;,
       0.881854; 6.290944; 2.327830;,
       0.881854; 6.290944; 2.327830;,
       0.777970; 6.682719; 2.371420;,
       1.223670; 6.252477; 1.982597;,
       1.223670; 6.252477; 1.982597;,
       0.777970; 6.682719; 2.371420;,
       1.178780; 6.931311; 1.888235;,
       0.777970; 6.682719; 2.371420;,
       0.833097; 7.108871; 2.171315;,
       1.178780; 6.931311; 1.888235;,
       1.178780; 6.931311; 1.888235;,
       0.833097; 7.108871; 2.171315;,
       0.976030; 7.345424; 1.743428;,
       0.976030; 7.345424; 1.743428;,
       1.228650; 7.070267; 1.359345;,
       1.178780; 6.931311; 1.888235;,
       1.178780; 6.931311; 1.888235;,
       1.228650; 7.070267; 1.359345;,
       1.386060; 6.567410; 1.317807;,
       1.386060; 6.567410; 1.317807;,
       1.223670; 6.252477; 1.982597;,
       1.178780; 6.931311; 1.888235;,
       1.223670; 6.252477; 1.982597;,
       1.386060; 6.567410; 1.317807;,
       1.342200; 6.181762; 1.438007;;
      22;
      3;0;1;2;,
      3;3;4;5;,
      3;6;7;8;,
      3;9;10;11;,
      3;12;13;14;,
      3;15;16;17;,
      3;18;19;20;,
      3;21;22;23;,
      3;24;25;26;,
      3;27;28;29;,
      3;30;31;32;,
      3;33;34;35;,
      3;36;37;38;,
      3;39;40;41;,
      3;42;43;44;,
      3;45;46;47;,
      3;48;49;50;,
      3;51;52;53;,
      3;54;55;56;,
      3;57;58;59;,
      3;60;61;62;,
      3;63;64;65;;
      MeshNormals { //Mesh Normals
        66;
         0.843776;-0.308786;-0.438917;,
         0.967101;-0.117801;-0.225410;,
         0.912900;-0.365246;-0.182043;,
         0.843776;-0.308786;-0.438917;,
         0.912900;-0.365246;-0.182043;,
         0.783227;-0.508530;-0.357616;,
         0.843776;-0.308786;-0.438917;,
         0.783227;-0.508530;-0.357616;,
         0.694479;-0.349925;-0.628651;,
         0.694479;-0.349925;-0.628651;,
         0.709861;-0.163427;-0.685080;,
         0.843776;-0.308786;-0.438917;,
         0.843776;-0.308786;-0.438917;,
         0.709861;-0.163427;-0.685080;,
         0.860012; 0.155278;-0.486007;,
         0.709861;-0.163427;-0.685080;,
         0.711020;-0.008148;-0.703085;,
         0.860012; 0.155278;-0.486007;,
         0.860012; 0.155278;-0.486007;,
         0.711020;-0.008148;-0.703085;,
         0.717368; 0.336772;-0.609851;,
         0.717368; 0.336772;-0.609851;,
         0.848506; 0.429609;-0.308939;,
         0.860012; 0.155278;-0.486007;,
         0.860012; 0.155278;-0.486007;,
         0.848506; 0.429609;-0.308939;,
         0.963622; 0.139531;-0.227851;,
         0.963622; 0.139531;-0.227851;,
         0.967101;-0.117801;-0.225410;,
         0.860012; 0.155278;-0.486007;,
         0.860012; 0.155278;-0.486007;,
         0.967101;-0.117801;-0.225410;,
         0.843776;-0.308786;-0.438917;,
        -0.963622; 0.139531;-0.227851;,
        -0.848506; 0.429609;-0.308939;,
        -0.860012; 0.155278;-0.486007;,
        -0.848506; 0.429609;-0.308939;,
        -0.717368; 0.336772;-0.609851;,
        -0.860012; 0.155278;-0.486007;,
        -0.860012; 0.155278;-0.486007;,
        -0.717368; 0.336772;-0.609851;,
        -0.711020;-0.008179;-0.703085;,
        -0.711020;-0.008179;-0.703085;,
        -0.709861;-0.163457;-0.685080;,
        -0.860012; 0.155278;-0.486007;,
        -0.860012; 0.155278;-0.486007;,
        -0.709861;-0.163457;-0.685080;,
        -0.843776;-0.308786;-0.438887;,
        -0.709861;-0.163457;-0.685080;,
        -0.694510;-0.349895;-0.628620;,
        -0.843776;-0.308786;-0.438887;,
        -0.843776;-0.308786;-0.438887;,
        -0.694510;-0.349895;-0.628620;,
        -0.783258;-0.508530;-0.357616;,
        -0.783258;-0.508530;-0.357616;,
        -0.912900;-0.365246;-0.182043;,
        -0.843776;-0.308786;-0.438887;,
        -0.843776;-0.308786;-0.438887;,
        -0.912900;-0.365246;-0.182043;,
        -0.967101;-0.117801;-0.225410;,
        -0.967101;-0.117801;-0.225410;,
        -0.860012; 0.155278;-0.486007;,
        -0.843776;-0.308786;-0.438887;,
        -0.860012; 0.155278;-0.486007;,
        -0.967101;-0.117801;-0.225410;,
        -0.963622; 0.139531;-0.227851;;
        22;
        3;0;1;2;,
        3;3;4;5;,
        3;6;7;8;,
        3;9;10;11;,
        3;12;13;14;,
        3;15;16;17;,
        3;18;19;20;,
        3;21;22;23;,
        3;24;25;26;,
        3;27;28;29;,
        3;30;31;32;,
        3;33;34;35;,
        3;36;37;38;,
        3;39;40;41;,
        3;42;43;44;,
        3;45;46;47;,
        3;48;49;50;,
        3;51;52;53;,
        3;54;55;56;,
        3;57;58;59;,
        3;60;61;62;,
        3;63;64;65;;
      } //End of Mesh Normals
      MeshMaterialList { //Mesh Material List
        1;
        22;
        0,
        0,
        0,
        0,
        0,
        0,
        0,
        0,
        0,
        0,
        0,
        0,
        0,
        0,
        0,
        0,
        0,
        0,
        0,
        0,
        0,
        0;;
        Material mat_0 {
           0.640000; 0.640000; 0.640000; 1.000000;;
           92.156863;
           0.250000; 0.250000; 0.250000;;
           0.000000; 0.000000; 0.000000;;
          TextureFilename {"Textures/porygon2_1_0.tga";}
        }
      } //End of Mesh Material List
      MeshTextureCoords { //Mesh UV Coordinates
        66;
         0.008929; 0.111607;,
         0.107143; 0.032242;,
         0.559146; 0.063881;,
         0.559146; 0.063881;,
         0.107143; 0.032242;,
         0.546875;-0.012150;,
         0.559146; 0.063881;,
         0.546875;-0.012150;,
         0.915179; 0.038690;,
         0.915179; 0.038690;,
         1.031250; 0.107639;,
         0.559146; 0.063881;,
         0.559146; 0.063881;,
         1.031250; 0.107639;,
         0.520833; 0.170139;,
         1.031250; 0.107639;,
         0.933036; 0.173611;,
         0.520833; 0.170139;,
         0.520833; 0.170139;,
         0.933036; 0.173611;,
         0.703125; 0.219329;,
         0.703125; 0.219329;,
         0.364583; 0.218750;,
         0.520833; 0.170139;,
         0.520833; 0.170139;,
         0.364583; 0.218750;,
         0.093750; 0.174190;,
         0.093750; 0.174190;,
         0.008929; 0.111607;,
         0.520833; 0.170139;,
         0.520833; 0.170139;,
         0.008929; 0.111607;,
         0.559146; 0.063881;,
         0.093750; 0.174190;,
         0.364583; 0.218750;,
         0.520833; 0.170139;,
         0.364583; 0.218750;,
         0.703125; 0.219329;,
         0.520833; 0.170139;,
         0.520833; 0.170139;,
         0.703125; 0.219329;,
         0.933036; 0.173611;,
         0.933036; 0.173611;,
         1.031250; 0.107639;,
         0.520833; 0.170139;,
         0.520833; 0.170139;,
         1.031250; 0.107639;,
         0.559128; 0.063885;,
         1.031250; 0.107639;,
         0.915179; 0.038690;,
         0.559128; 0.063885;,
         0.559128; 0.063885;,
         0.915179; 0.038690;,
         0.546875;-0.012150;,
         0.546875;-0.012150;,
         0.107143; 0.032242;,
         0.559128; 0.063885;,
         0.559128; 0.063885;,
         0.107143; 0.032242;,
         0.008929; 0.111607;,
         0.008929; 0.111607;,
         0.520833; 0.170139;,
         0.559128; 0.063885;,
         0.520833; 0.170139;,
         0.008929; 0.111607;,
         0.093750; 0.174190;;
      } //End of Mesh UV Coordinates
    } //End of Mesh Mesh
  } //End of porygon2_mat_0
} //End of Root Frame
