# Blender v2.66 (sub 1) OBJ File: 'BR_Dewgong-Shiny01.blend'
# www.blender.org
mtllib BR_Dewgong-Shiny01.mtl
o jugon
v -1.023110 5.488840 -0.423786
v -1.100500 5.110610 -0.455843
v -1.100500 5.110610 0.000000
v -0.977216 5.488880 0.451957
v -1.100500 5.110610 0.455843
v -0.455843 5.110610 1.058620
v -0.423786 5.488880 0.942386
v 0.423787 5.488880 0.942386
v 0.455843 5.110610 1.058620
v 1.100500 5.110610 0.455843
v 0.977216 5.488880 0.451957
v 1.100500 5.110610 0.000000
v 1.100500 5.110610 -0.455843
v 1.023110 5.488840 -0.423786
v -0.423786 5.488840 -1.068180
v -0.455843 5.110610 -1.142390
v 0.423787 5.488840 -1.068180
v 0.455843 5.110610 -1.142390
v -1.143950 5.028160 0.173866
v -1.220790 4.699000 0.182090
v -1.323230 4.189540 -0.543454
v -1.220790 4.699000 -0.038801
v 1.143950 5.028160 -0.035204
v 1.220860 4.698890 -0.038860
v -1.323230 4.189540 0.543454
v 1.323230 4.189540 -0.543454
v 0.559711 4.189540 -1.282060
v 1.220860 4.698890 0.182042
v 1.143950 5.028160 0.173865
v 1.323230 4.189540 0.543454
v 0.559711 4.189540 1.276900
v -0.559711 4.189540 1.276900
v -0.559711 4.189540 -1.282060
v -1.143950 5.028160 -0.035097
v 1.410740 3.473180 0.591448
v 1.410740 3.473180 -0.553455
v 0.590277 3.473180 1.368110
v -0.590277 3.473180 1.368110
v -1.410740 3.473180 0.591448
v 0.590277 3.473180 -1.336370
v -1.410740 3.473180 -0.553455
v -0.590277 3.473180 -1.336370
v 1.410580 2.594900 -0.550289
v 1.410580 2.594900 0.588552
v 0.584273 2.594900 1.367720
v -0.584273 2.594900 1.367720
v 0.584273 2.594900 -1.328610
v -1.410580 2.594900 0.588552
v -1.410580 2.594900 -0.550289
v -0.584273 2.594900 -1.328610
v 1.333290 1.767840 0.540396
v 0.552763 1.767840 1.293430
v -0.552763 1.767840 1.293430
v -1.333290 1.767840 0.540396
v -1.333290 1.767840 -0.528995
v -0.552763 1.767840 -1.258150
v 0.552763 1.767840 -1.258150
v 1.333290 1.767840 -0.528995
v -0.503570 0.964577 -1.137880
v -1.215720 0.964577 -0.513120
v 0.503570 0.964577 -1.137880
v 1.215720 0.964577 -0.513120
v 1.215720 0.964577 0.484469
v 0.503570 0.964577 1.167970
v -0.503570 0.964577 1.167970
v -1.215720 0.964577 0.484469
v -0.929415 0.018942 0.366547
v -0.929415 0.018942 -0.417403
v -0.384154 0.018942 -0.921404
v 0.384154 0.018942 -0.921404
v 0.929415 0.018942 -0.417404
v 0.929415 0.018942 0.366547
v 0.384154 0.018942 0.897712
v -0.384154 0.018942 0.897712
v -0.696265 -0.736325 0.268951
v -0.288402 -0.736325 0.679097
v -0.696265 -0.736325 -0.340795
v -0.288402 -0.736324 -0.752269
v 0.288402 -0.736324 -0.752269
v 0.696265 -0.736325 -0.340795
v 0.696265 -0.736325 0.268951
v 0.288402 -0.736325 0.679097
v 0.332929 -1.787470 0.157170
v 0.332929 -1.787470 -0.250198
v 0.137904 -1.787470 0.352195
v 0.137904 -1.787470 -0.522289
v -0.137904 -1.787470 0.352195
v -0.332929 -1.787470 0.157170
v -0.332929 -1.787470 -0.250198
v -0.137904 -1.787470 -0.522289
v 0.000000 -2.561360 0.259525
v 0.259526 -2.561360 -0.223099
v 0.000000 -2.561360 -0.375125
v -0.259526 -2.561360 -0.223099
v -0.259526 -2.561360 0.107499
v 0.259526 -2.561360 0.107499
v 0.000000 -3.970860 0.317666
v 0.399504 -3.970860 0.254158
v -0.514595 -3.970860 0.050658
v -0.399504 -3.970860 0.254158
v -0.475486 -3.970860 -0.133753
v 0.475486 -3.970860 -0.133753
v 0.514595 -3.970860 0.050658
v 0.000000 -3.970860 -0.273425
v 0.464433 -5.380130 -0.193090
v 0.000000 -5.379950 -0.185284
v 0.000000 -5.379950 0.312298
v 0.464493 -5.380130 0.248790
v -0.464433 -5.380130 -0.193090
v -0.464493 -5.380130 0.248791
v 0.904763 -5.380350 0.248790
v 1.016820 -5.380350 0.057645
v -0.904763 -5.380350 0.248791
v 0.939543 -5.380350 -0.121473
v -0.939543 -5.380350 -0.121473
v -1.016820 -5.380350 0.057645
v 0.378520 -6.989560 0.088174
v 0.907877 -6.966870 0.181214
v 1.381060 -6.916690 0.093647
v -0.907877 -6.966870 0.181214
v -0.378520 -6.989560 0.088174
v 0.000000 -7.002390 0.181214
v -0.378520 -6.989560 -0.223506
v -0.907877 -6.966870 -0.130466
v -1.383580 -6.901360 -0.154374
v 0.907878 -6.966870 -0.130466
v 0.378521 -6.989560 -0.223506
v 0.000000 -7.002390 -0.130466
v -1.381060 -6.916690 0.093647
v 1.383580 -6.901360 -0.154375
v -1.497380 -6.901360 -0.017776
v 1.497380 -6.901360 -0.017776
v -0.595538 -8.721800 -0.211821
v -0.595538 -8.721800 -0.211821
v 0.000000 -8.577950 0.087847
v 0.000000 -8.577950 0.087847
v 1.239470 -8.579110 0.087847
v 1.239470 -8.579110 0.087847
v 1.834200 -8.654520 -0.211821
v -1.239460 -8.579110 0.087847
v -1.239460 -8.579110 0.087847
v -1.834200 -8.654520 -0.211821
v 0.595539 -8.721800 -0.211821
v 0.595539 -8.721800 -0.211821
v 1.301470 4.806150 0.168648
v 1.289640 4.909000 0.166619
v 1.289370 4.909760 -0.067709
v 1.302650 4.806310 -0.068080
v 1.266310 5.070390 -0.067258
v 1.266310 5.070390 0.160469
v 1.327930 4.635950 -0.068876
v 1.327930 4.635950 0.160141
v 1.919980 4.469470 0.120176
v 1.919980 4.469470 -0.035923
v 1.948280 4.591190 -0.003898
v 1.948280 4.591190 0.095040
v 1.940850 5.184600 -0.055550
v 1.959570 5.000660 -0.001436
v 1.917690 5.341470 -0.011211
v 1.917690 5.341470 0.116513
v 1.959570 5.000660 0.097501
v 1.962640 4.775490 0.134460
v 1.940850 5.184600 0.144502
v 1.962640 4.775490 -0.047880
v 2.522500 5.628080 0.018867
v 2.522500 5.628080 0.089943
v 2.573000 5.422790 -0.037265
v 2.604500 5.111100 0.010186
v 2.599470 4.811230 -0.025760
v 2.583280 4.542090 0.004881
v 2.545480 4.364460 0.009483
v 2.545480 4.364460 0.075802
v 2.583280 4.542090 0.075956
v 2.599470 4.811230 0.105598
v 2.604500 5.111100 0.081262
v 2.573000 5.422790 0.120661
v 3.193710 4.619850 0.053976
v 3.193710 4.619850 0.053976
v 3.166310 5.614420 -0.068286
v 3.166310 5.614420 -0.068286
v 3.129980 5.967070 0.057920
v 3.014490 4.337960 0.044196
v 3.303080 5.324010 0.051961
v 3.303080 5.324010 0.051961
v 3.193620 4.977050 -0.028847
v 3.193620 4.977050 -0.028847
v -1.289640 4.909000 0.166619
v -1.301470 4.806150 0.168648
v -1.302650 4.806310 -0.068080
v -1.289370 4.909760 -0.067709
v -1.266310 5.070390 -0.067258
v -1.266310 5.070390 0.160469
v -1.327930 4.635950 0.160141
v -1.327930 4.635950 -0.068876
v -1.919980 4.469470 -0.035923
v -1.919980 4.469470 0.120176
v -1.948280 4.591190 -0.003898
v -1.948280 4.591190 0.095040
v -1.959570 5.000660 -0.001436
v -1.940850 5.184600 -0.055550
v -1.917690 5.341470 -0.011211
v -1.917690 5.341470 0.116513
v -1.959570 5.000660 0.097501
v -1.962640 4.775490 0.134460
v -1.940850 5.184600 0.144502
v -1.962640 4.775490 -0.047880
v -2.522500 5.628080 0.089943
v -2.522500 5.628080 0.018867
v -2.573000 5.422790 -0.037265
v -2.604500 5.111100 0.010186
v -2.599470 4.811230 -0.025760
v -2.583280 4.542090 0.004880
v -2.545480 4.364460 0.009483
v -2.545480 4.364460 0.075802
v -2.583280 4.542090 0.075956
v -2.599470 4.811230 0.105598
v -2.604500 5.111100 0.081262
v -2.573000 5.422790 0.120661
v -3.193710 4.619850 0.053975
v -3.193710 4.619850 0.053975
v -3.129980 5.967070 0.057919
v -3.166310 5.614420 -0.068286
v -3.166310 5.614420 -0.068286
v -3.014490 4.337960 0.044196
v -3.303080 5.324010 0.051961
v -3.303080 5.324010 0.051961
v -3.193620 4.977050 -0.028847
v -3.193620 4.977050 -0.028847
v -0.864634 5.957470 0.415491
v -0.387367 5.811850 0.855448
v -0.920222 5.966130 -0.381297
v -0.387367 5.963100 -0.959171
v 0.387367 5.963100 -0.959171
v 0.920222 5.966130 -0.381297
v 0.864634 5.957470 0.415491
v 0.387367 5.811850 0.855448
v -0.199734 7.578510 -0.430794
v -0.314968 7.226940 -0.687869
v -0.760402 7.264210 -0.254676
v -0.482200 7.609560 -0.135907
v -0.629931 6.062910 0.620102
v -0.762981 6.179570 0.464042
v 0.629930 6.062910 0.620102
v 0.376134 5.984580 0.813732
v 0.760401 7.264200 0.375263
v 0.282212 7.209950 0.820694
v 0.609383 6.716060 0.689802
v 0.809274 6.573720 0.374903
v -0.609383 6.716060 0.689802
v -0.282212 7.209950 0.820694
v -0.760402 7.264200 0.375263
v 0.000000 5.984580 0.813732
v 0.199734 7.578510 -0.430794
v 0.314968 7.226940 -0.687869
v -0.809275 6.573720 0.374903
v -0.376135 5.984580 0.813732
v -0.699665 6.188470 0.533124
v -0.281805 6.775580 0.905917
v 0.762980 6.179570 0.464043
v 0.482200 7.609560 -0.135907
v 0.760401 7.264210 -0.254676
v 0.380891 6.744870 -0.836921
v 0.899321 6.738490 -0.380889
v 0.000000 7.698400 -0.121099
v 0.159126 7.708650 0.042125
v 0.482200 7.609570 0.263561
v 0.000000 7.696360 0.203301
v 0.793181 7.264210 0.060293
v 0.000000 8.277170 0.063825
v -0.159126 7.708650 0.042125
v -0.482200 7.609570 0.263561
v 0.199734 7.572300 0.552238
v -0.199734 7.572300 0.552238
v -0.380891 6.744870 -0.836921
v 0.699664 6.188470 0.533124
v 0.695657 6.202140 0.527012
v -0.899322 6.738490 -0.380889
v -0.929699 6.375270 -0.042014
v -0.812097 6.359400 0.277387
v -0.953725 6.656110 -0.002993
v 0.000000 6.236240 0.384607
v 0.000000 6.236240 0.384607
v 0.028049 6.247090 0.459498
v -0.793182 7.264210 0.060293
v 0.281805 6.775580 0.905917
v 0.929699 6.375270 -0.042014
v 0.953725 6.656110 -0.002993
v -0.028050 6.247090 0.459498
v -0.695658 6.202150 0.527013
v 0.812096 6.359400 0.277387
v -0.578331 6.299620 0.939023
v -0.661942 6.550990 0.954366
v -0.801874 6.441900 0.689386
v -0.270521 6.336840 1.158330
v -0.670864 6.183710 0.592975
v -0.764905 6.273000 0.577721
v -0.809663 6.494200 0.535164
v -0.328811 6.698070 1.098690
v -0.312370 6.591400 1.181720
v 0.000000 6.599680 1.216680
v -0.657622 6.657660 0.871339
v 0.809663 6.494200 0.535164
v 0.657622 6.657660 0.871340
v 0.801873 6.441900 0.689387
v 0.764905 6.273000 0.577721
v 0.000000 6.357110 1.191430
v 0.328811 6.698070 1.098690
v 0.661942 6.550990 0.954366
v 0.312370 6.591400 1.181720
v 0.270521 6.336840 1.158330
v 0.578331 6.299620 0.939023
v 0.670864 6.183710 0.592975
v 0.578331 6.180220 0.737093
v -0.323865 6.228870 0.838058
v -0.323865 6.246550 1.034940
v -0.578331 6.180220 0.737093
v 0.323865 6.246550 1.034940
v 0.323865 6.228870 0.838058
v 0.000000 6.312890 0.838058
v 0.000000 6.307760 0.686611
v 0.000000 6.312890 1.115710
v -0.469037 6.243970 0.676552
v -0.412805 6.243970 0.773949
v -0.525268 5.937620 0.773949
v -0.469037 6.243970 0.871345
v -0.581500 6.243970 0.676552
v -0.581500 6.243970 0.871345
v -0.637732 6.243970 0.773949
v 0.525268 5.937620 0.773949
v 0.469037 6.243970 0.676552
v 0.581500 6.243970 0.676552
v 0.469037 6.243970 0.871345
v 0.412805 6.243970 0.773949
v 0.637732 6.243970 0.773949
v 0.581500 6.243970 0.871345
v 0.063780 6.698020 1.144620
v 0.089512 6.719530 1.101290
v 0.000000 6.730180 1.106580
v 0.101718 6.686910 1.085100
v 0.072477 6.711360 1.035860
v 0.081999 6.735190 1.039630
v 0.115081 6.707530 1.095330
v 0.063780 6.741050 1.057970
v 0.081999 6.679870 1.151040
v -0.072477 6.711360 1.035860
v -0.081999 6.735190 1.039630
v -0.063780 6.741050 1.057970
v 0.072477 6.662460 1.134330
v -0.101718 6.686910 1.085100
v -0.115081 6.707530 1.095330
v -0.089512 6.719530 1.101290
v -0.063780 6.698020 1.144620
v -0.072477 6.662460 1.134330
v -0.081999 6.679870 1.151040
v -0.246390 6.320000 1.057400
v 0.246389 6.320000 1.057400
v -0.256455 6.283640 1.073060
v 0.316295 6.133370 0.994452
v -0.316295 6.133370 0.994452
v 0.256455 6.283640 1.073060
vt 0.292893 0.000000
vt 0.056015 1.000000
vt 0.000000 0.000000
vt 0.307458 1.000000
vt 0.707107 0.000000
vt 0.692542 1.000000
vt 1.000000 0.000000
vt 0.943985 1.000000
vt 0.307458 0.999958
vt 0.035163 0.999958
vt 0.692542 0.999958
vt 0.964837 0.999958
vt 0.038708 0.553118
vt 0.961319 0.553002
vt 0.329889 1.000000
vt 0.296946 0.893378
vt 0.703054 0.893378
vt 0.670111 1.000000
vt 0.711495 0.000000
vt 0.915841 1.000000
vt 0.672247 1.000000
vt 0.288505 0.000000
vt 0.327753 1.000000
vt 0.084159 1.000000
vt 0.961481 1.000000
vt 0.695201 1.000000
vt 0.709199 0.000000
vt 0.304799 1.000000
vt 0.290801 0.000000
vt 0.038520 1.000000
vt 1.000000 1.000000
vt 0.984197 0.000000
vt 0.709199 1.000000
vt 0.700164 0.000000
vt 0.290801 1.000000
vt 0.299836 0.000000
vt 0.000000 1.000000
vt 0.015803 0.000000
vt 0.706697 1.000000
vt 0.937827 0.000000
vt 0.681354 0.000000
vt 0.293303 1.000000
vt 0.318646 0.000000
vt 0.062173 0.000000
vt 0.183232 0.000000
vt 0.292893 1.000000
vt 0.368790 0.000000
vt 0.707107 1.000000
vt 0.631210 0.000000
vt 0.816768 0.000000
vt 0.368791 0.000000
vt 0.716130 0.000000
vt 0.589524 0.000000
vt 0.410476 0.000000
vt 0.283870 0.000000
vt 0.500000 0.000000
vt 0.889761 0.000000
vt 0.110239 0.000000
vt 0.435850 0.157415
vt 0.369117 0.352238
vt 0.352075 0.338755
vt 0.441363 0.189561
vt 0.564150 0.157415
vt 0.558637 0.189561
vt 0.647925 0.338755
vt 0.630883 0.352238
vt 0.654872 0.662567
vt 0.639297 0.646857
vt 0.564150 0.900838
vt 0.558637 0.860530
vt 0.435850 0.900838
vt 0.441363 0.860530
vt 0.345128 0.662567
vt 0.360703 0.646857
vt 0.469766 0.665159
vt 0.384895 0.600038
vt 0.427008 0.556122
vt 0.452322 0.760214
vt 0.530234 0.665159
vt 0.547678 0.760214
vt 0.572992 0.556122
vt 0.615105 0.600038
vt 0.636134 0.646706
vt 0.557657 0.815327
vt 0.644369 0.506976
vt 0.640732 0.521404
vt 0.622503 0.367246
vt 0.622930 0.403303
vt 0.442343 0.815327
vt 0.363866 0.646706
vt 0.359268 0.521404
vt 0.355631 0.506976
vt 0.377070 0.403303
vt 0.377497 0.367246
vt 0.620067 0.483576
vt 0.615105 0.367113
vt 0.379933 0.483576
vt 0.384895 0.367113
vt 0.429494 0.882252
vt 0.308745 0.877951
vt 0.307643 0.877147
vt 0.432261 0.885057
vt 0.570506 0.882252
vt 0.567739 0.885057
vt 0.692356 0.877147
vt 0.691254 0.877951
vt 0.603409 0.868328
vt 0.067740 0.910488
vt 0.932260 0.910488
vt 0.572992 0.408416
vt 0.605911 0.308743
vt 0.615495 0.334286
vt 0.605304 0.311003
vt 0.595355 0.276582
vt 0.556937 0.204986
vt 0.500000 0.204986
vt 0.443063 0.204986
vt 0.404645 0.276582
vt 0.384505 0.334287
vt 0.394089 0.308743
vt 0.394696 0.311003
vt 0.427008 0.408416
vt 0.874566 0.904849
vt 0.906108 0.823671
vt 0.908776 0.639644
vt 0.995189 0.451434
vt 0.857143 0.205987
vt 0.972360 0.160059
vt 0.857143 0.000000
vt 0.914286 0.006027
vt 0.960550 0.009031
vt 0.992019 0.297450
vt 1.000000 0.541668
vt 0.997627 0.656374
vt 0.125434 0.904849
vt 0.093892 0.823671
vt 0.000000 0.541668
vt 0.004810 0.451436
vt 0.027640 0.160059
vt 0.142857 0.205987
vt 0.142857 0.000000
vt 0.300000 0.114436
vt 0.300000 0.083920
vt 0.500000 0.228874
vt 0.500000 0.305166
vt 0.700000 0.114436
vt 0.667057 0.270196
vt 0.692901 0.709351
vt 0.500000 0.723641
vt 0.307099 0.709351
vt 0.332942 0.270196
vt 0.091224 0.639644
vt 0.700000 0.083920
vt 0.002373 0.656374
vt 0.007981 0.297450
vt 0.039450 0.009031
vt 0.085714 0.006027
vt 0.500000 0.868328
vt 0.396591 0.868328
vt 0.290236 0.876623
vt 0.475912 0.490293
vt 0.500000 0.430697
vt 0.469766 0.301675
vt 0.530234 0.301675
vt 0.524087 0.490293
vt 0.500000 0.550647
vt 0.500000 0.482269
vt 0.617868 -0.002417
vt 0.499098 -0.144616
vt 0.569845 -0.144508
vt 0.591614 -0.002463
vt 0.777315 0.372433
vt 0.746768 0.372386
vt 0.907935 0.619533
vt 0.876221 0.621972
vt 0.608947 -0.002433
vt 0.500483 -0.002625
vt 0.428352 -0.144725
vt 0.392019 -0.002816
vt 0.383097 -0.002832
vt 0.409351 -0.002786
vt 0.373511 0.371774
vt 0.253494 0.371627
vt 0.252249 0.629159
vt 0.123274 0.620815
vt 0.222947 0.371580
vt 0.091568 0.618277
vt 0.626751 0.372164
vt 0.747221 0.629920
vt 0.244013 0.371612
vt 0.373527 0.371774
vt 0.626735 0.372164
vt 0.756249 0.372400
vt 0.876913 0.619485
vt 0.500131 0.371940
vt 0.396545 0.633063
vt 0.602913 0.633381
vt 0.122589 0.618325
vt 0.649847 0.068507
vt 0.628578 0.001895
vt 0.827076 0.323658
vt 0.928503 0.492320
vt 0.381712 0.063911
vt 0.427249 0.008634
vt 0.427249 0.008633
vt 0.246903 0.321542
vt 0.147651 0.599066
vt 0.819418 0.629881
vt 0.725237 0.381365
vt 0.636580 0.651285
vt 0.589101 0.403912
vt 0.466277 0.694713
vt 0.447039 0.434957
vt 0.253732 0.629691
vt 0.319457 0.343624
vt 0.446992 0.072147
vt 0.581943 0.073877
vt 0.446958 0.071597
vt 0.581467 0.073943
vt 0.499726 0.635304
vt 0.499333 0.977864
vt 0.336954 1.000970
vt 0.161456 0.977533
vt -0.000686 0.989524
vt 0.661639 1.001470
vt 0.837208 0.978572
vt 0.999313 0.991062
vt 0.256908 0.972696
vt 0.095288 0.869684
vt 0.691531 1.326250
vt 0.675805 0.881576
vt 0.899495 0.859296
vt 0.993331 0.599743
vt 0.052363 1.038490
vt 0.250458 1.561360
vt 0.106960 1.608350
vt 0.326337 0.942016
vt 0.250769 1.561680
vt 0.326178 0.942554
vt 0.106897 1.608570
vt 0.052523 1.038600
vt 0.342331 0.077233
vt 0.342249 0.077664
vt 0.175294 0.002352
vt 0.044648 0.004420
vt 0.175481 0.002352
vt 0.044898 0.004312
vt 0.515914 0.688232
vt 0.500000 0.696456
vt 0.500585 0.698029
vt 0.514510 0.691508
vt 0.484085 0.688232
vt 0.485490 0.691508
vt 0.499415 0.698029
vt 0.790898 0.070263
vt 0.201234 0.069155
vt 0.476448 0.999994
vt 0.518222 1.000120
vt 1.032800 1.016860
vt -0.018861 1.013640
vt 0.493762 1.006340
vt 0.940442 0.625329
vt 0.960000 0.969766
vt 0.875051 0.260290
vt 0.703837 0.004941
vt 0.494094 0.389403
vt 0.275517 0.006262
vt 0.489677 0.005602
vt 0.110192 0.262648
vt 0.053207 0.628064
vt 0.035330 0.972816
vt 0.860430 0.555382
vt 0.938099 0.081018
vt 0.822928 0.242066
vt 0.990731 0.373179
vt 0.788672 0.684965
vt 0.890023 0.543230
vt 0.788672 0.401508
vt 0.860430 0.190975
vt 0.286253 0.401508
vt 0.214496 0.190975
vt 0.184903 0.543230
vt 0.084194 0.373179
vt 0.286253 0.684965
vt 0.214496 0.555382
vt 0.251997 0.242066
vt 0.136826 0.081018
vt 0.251998 -0.080042
vt 0.822928 -0.080042
vt 0.537463 0.694095
usemtl mat_0
s 1
f 6/1 4/2 5/3
f 6/1 7/4 4/2
f 9/5 7/4 6/1
f 9/5 8/6 7/4
f 10/7 8/6 9/5
f 10/7 11/8 8/6
f 2/9 1/3 15/10
f 15/9 16/1 2/3
f 17/11 16/1 15/9
f 17/11 18/5 16/1
f 14/12 18/5 17/11
f 14/12 13/7 18/5
f 22/13 21/3 25/3
f 20/13 22/13 25/3
f 28/14 30/7 26/7
f 24/14 28/14 26/7
f 258/15 298/16 307/17
f 285/18 258/15 307/17
f 27/19 13/20 26/7
f 27/19 18/21 13/20
f 33/22 18/21 27/19
f 33/22 16/23 18/21
f 21/3 16/23 33/22
f 21/3 2/24 16/23
f 9/21 30/7 10/20
f 9/21 31/19 30/7
f 6/23 31/19 9/21
f 6/23 32/22 31/19
f 5/24 32/22 6/23
f 5/24 25/3 32/22
f 30/25 36/7 26/25
f 30/25 35/7 36/7
f 31/26 35/7 30/25
f 31/26 37/27 35/7
f 32/28 37/27 31/26
f 32/28 38/29 37/27
f 25/30 38/29 32/28
f 25/30 39/3 38/29
f 21/30 39/3 25/30
f 21/30 41/3 39/3
f 33/28 41/3 21/30
f 33/28 42/29 41/3
f 27/26 42/29 33/28
f 27/26 40/27 42/29
f 26/25 40/27 27/26
f 26/25 36/7 40/27
f 35/31 43/32 36/31
f 35/31 44/32 43/32
f 37/33 44/32 35/31
f 37/33 45/34 44/32
f 38/35 45/34 37/33
f 38/35 46/36 45/34
f 39/37 46/36 38/35
f 39/37 48/38 46/36
f 41/37 48/38 39/37
f 41/37 49/38 48/38
f 42/35 49/38 41/37
f 42/35 50/36 49/38
f 40/33 50/36 42/35
f 40/33 47/34 50/36
f 36/31 47/34 40/33
f 36/31 43/32 47/34
f 52/39 44/31 45/39
f 52/39 51/40 44/31
f 64/41 51/40 52/39
f 64/41 63/40 51/40
f 53/42 45/39 46/42
f 53/42 52/41 45/39
f 65/43 52/41 53/42
f 65/43 64/41 52/41
f 54/37 46/42 48/37
f 54/37 53/43 46/42
f 66/44 53/43 54/37
f 66/44 65/43 53/43
f 55/37 48/37 49/37
f 55/37 54/44 48/37
f 60/44 54/44 55/37
f 60/44 66/44 54/44
f 56/42 49/37 50/42
f 56/42 55/44 49/37
f 59/43 55/44 56/42
f 59/43 60/44 55/44
f 57/39 50/42 47/39
f 57/39 56/43 50/42
f 61/41 56/43 57/39
f 61/41 59/43 56/43
f 58/31 47/39 43/31
f 58/31 57/41 47/39
f 62/40 57/41 58/31
f 62/40 61/41 57/41
f 51/31 43/31 44/31
f 51/31 58/40 43/31
f 63/40 58/40 51/31
f 63/40 62/40 58/40
f 68/37 66/37 60/37
f 68/37 67/45 66/37
f 77/45 67/45 68/37
f 77/45 75/45 67/45
f 69/46 60/37 59/46
f 69/46 68/45 60/37
f 78/47 68/45 69/46
f 78/47 77/45 68/45
f 70/48 59/46 61/48
f 70/48 69/47 59/46
f 79/49 69/47 70/48
f 79/49 78/47 69/47
f 71/31 61/48 62/31
f 71/31 70/49 61/48
f 80/50 70/49 71/31
f 80/50 79/49 70/49
f 72/31 62/31 63/31
f 72/31 71/50 62/31
f 81/50 71/50 72/31
f 81/50 80/50 71/50
f 73/48 63/31 64/48
f 73/48 72/50 63/31
f 82/49 72/50 73/48
f 82/49 81/50 72/50
f 74/46 64/48 65/46
f 74/46 73/49 64/48
f 76/51 73/49 74/46
f 76/51 82/49 73/49
f 67/37 65/46 66/37
f 67/37 74/51 65/46
f 75/45 74/51 67/37
f 75/45 76/51 74/51
f 81/31 84/52 80/31
f 81/31 83/52 84/52
f 82/48 83/52 81/31
f 82/48 85/53 83/52
f 76/46 85/53 82/48
f 76/46 87/54 85/53
f 75/37 87/54 76/46
f 75/37 88/55 87/54
f 77/37 88/55 75/37
f 77/37 89/55 88/55
f 78/46 89/55 77/37
f 78/46 90/54 89/55
f 79/48 90/54 78/46
f 79/48 86/53 90/54
f 80/31 86/53 79/48
f 80/31 84/52 86/53
f 85/48 87/46 91/56
f 84/31 93/56 86/48
f 84/31 92/57 93/56
f 83/31 92/57 84/31
f 83/31 96/57 92/57
f 85/48 96/57 83/31
f 85/48 91/56 96/57
f 89/37 95/58 88/37
f 89/37 94/58 95/58
f 90/46 94/58 89/37
f 90/46 93/56 94/58
f 88/37 95/58 91/56
f 87/46 88/37 91/56
f 90/46 86/48 93/56
f 7/59 229/60 4/61
f 7/59 230/62 229/60
f 8/63 230/62 7/59
f 8/63 236/64 230/62
f 11/65 236/64 8/63
f 11/65 235/66 236/64
f 14/67 235/66 11/65
f 14/67 234/68 235/66
f 17/69 234/68 14/67
f 17/69 233/70 234/68
f 15/71 233/70 17/69
f 15/71 232/72 233/70
f 1/73 232/72 15/71
f 1/73 231/74 232/72
f 231/61 1/74 4/73
f 4/61 229/60 231/74
f 237/75 239/76 240/77
f 237/75 238/78 239/76
f 253/79 238/78 237/75
f 253/79 254/80 238/78
f 260/81 254/80 253/79
f 260/81 261/82 254/80
f 263/83 233/70 262/84
f 263/83 234/68 233/70
f 287/85 234/68 263/83
f 287/85 286/86 234/68
f 248/87 286/86 287/85
f 248/87 290/88 286/86
f 232/72 262/84 233/70
f 232/72 274/89 262/84
f 231/74 274/89 232/72
f 231/74 277/90 274/89
f 278/91 277/90 231/74
f 278/91 280/92 277/90
f 279/93 280/92 278/91
f 279/93 255/94 280/92
f 268/95 263/83 261/82
f 268/95 287/85 263/83
f 245/96 287/85 268/95
f 245/96 248/87 287/85
f 262/84 261/82 263/83
f 262/84 254/80 261/82
f 274/89 254/80 262/84
f 274/89 238/78 254/80
f 277/90 238/78 274/89
f 277/90 239/76 238/78
f 280/92 239/76 277/90
f 280/92 284/97 239/76
f 255/94 284/97 280/92
f 255/94 251/98 284/97
f 357/99 289/100 257/101
f 357/99 355/102 289/100
f 360/103 355/102 357/99
f 360/103 356/104 355/102
f 275/105 356/104 360/103
f 275/105 276/106 356/104
f 360/103 357/99 359/99
f 358/107 360/103 359/99
f 3/3 1/10 2/3
f 4/3 1/2 3/10
f 5/3 4/2 3/3
f 14/12 12/7 13/7
f 14/12 11/8 12/7
f 10/7 12/7 11/8
f 22/13 2/24 21/3
f 22/13 34/108 2/24
f 3/24 2/24 34/108
f 34/108 19/108 3/24
f 5/24 3/24 19/108
f 19/108 20/13 5/24
f 25/3 5/24 20/13
f 13/20 24/14 26/7
f 13/20 23/109 24/14
f 12/20 23/109 13/20
f 12/20 29/109 23/109
f 10/20 29/109 12/20
f 10/20 28/14 29/109
f 30/7 28/14 10/20
f 268/95 266/110 245/96
f 268/95 260/81 266/110
f 261/82 260/81 268/95
f 275/111 259/112 276/113
f 275/111 243/114 259/112
f 235/66 259/112 243/114
f 235/66 290/88 259/112
f 286/86 290/88 235/66
f 235/66 234/68 286/86
f 244/115 235/66 243/114
f 244/115 236/64 235/66
f 252/116 236/64 244/115
f 252/116 230/62 236/64
f 256/117 230/62 252/116
f 256/117 229/60 230/62
f 241/118 229/60 256/117
f 241/118 242/119 229/60
f 257/120 242/119 241/118
f 257/120 289/121 242/119
f 279/93 229/60 242/119
f 279/93 278/91 229/60
f 231/74 229/60 278/91
f 284/97 240/77 239/76
f 284/97 271/122 240/77
f 251/98 271/122 284/97
f 307/17 247/123 285/18
f 307/17 303/124 247/123
f 308/125 303/124 307/17
f 308/125 304/126 303/124
f 311/127 304/126 308/125
f 311/127 305/128 304/126
f 313/129 305/128 311/127
f 313/129 312/130 305/128
f 259/131 305/128 312/130
f 259/131 290/132 305/128
f 302/133 305/128 290/132
f 302/133 304/126 305/128
f 303/124 304/126 302/133
f 302/133 247/123 303/124
f 248/134 247/123 302/133
f 302/133 290/132 248/134
f 249/135 298/16 258/15
f 249/135 301/136 298/16
f 297/137 301/136 249/135
f 297/137 293/138 301/136
f 296/139 293/138 297/137
f 296/139 291/140 293/138
f 316/141 291/140 296/139
f 316/141 315/142 291/140
f 314/143 315/142 316/141
f 314/143 319/144 315/142
f 321/144 315/142 319/144
f 321/144 306/145 315/142
f 317/146 306/145 321/144
f 317/146 310/147 306/145
f 311/127 310/147 317/146
f 311/127 308/125 310/147
f 309/148 310/147 308/125
f 309/148 300/149 310/147
f 307/17 300/149 309/148
f 307/17 298/16 300/149
f 299/150 300/149 298/16
f 299/150 294/151 300/149
f 292/152 294/151 299/150
f 292/152 291/140 294/151
f 293/138 291/140 292/152
f 292/152 301/136 293/138
f 298/16 301/136 292/152
f 292/152 299/150 298/16
f 307/17 309/148 308/125
f 300/149 306/145 310/147
f 300/149 294/151 306/145
f 315/142 306/145 294/151
f 294/151 291/140 315/142
f 317/146 313/129 311/127
f 317/146 318/153 313/129
f 319/144 318/153 317/146
f 317/146 321/144 319/144
f 255/154 297/137 249/135
f 255/154 279/155 297/137
f 296/139 297/137 279/155
f 279/155 242/156 296/139
f 295/157 296/139 242/156
f 295/157 316/141 296/139
f 252/158 359/99 256/159
f 252/158 358/107 359/99
f 244/107 358/107 252/158
f 358/103 275/105 360/103
f 358/103 243/107 275/105
f 244/107 243/107 358/103
f 257/101 359/159 357/99
f 257/101 241/160 359/159
f 256/159 359/159 241/160
f 271/122 270/161 240/77
f 271/122 267/162 270/161
f 273/163 267/162 271/122
f 273/163 272/164 267/162
f 266/110 267/162 272/164
f 266/110 265/165 267/162
f 260/81 265/165 266/110
f 260/81 264/166 265/165
f 253/79 264/166 260/81
f 253/79 237/75 264/166
f 240/77 264/166 237/75
f 240/77 270/161 264/166
f 269/167 264/166 270/161
f 269/167 265/165 264/166
f 267/162 265/165 269/167
f 269/167 270/161 267/162
usemtl mat_1
f 99/168 91/169 95/170
f 99/168 100/171 91/169
f 116/172 100/171 99/168
f 116/172 113/173 100/171
f 131/174 113/173 116/172
f 131/174 129/175 113/173
f 94/170 99/168 95/170
f 94/170 101/176 99/168
f 93/169 101/176 94/170
f 93/169 104/177 101/176
f 92/178 104/177 93/169
f 92/178 102/179 104/177
f 96/178 102/179 92/178
f 96/178 103/180 102/179
f 91/169 103/180 96/178
f 91/169 98/181 103/180
f 108/182 98/181 97/177
f 108/182 111/183 98/181
f 118/184 111/183 108/182
f 118/184 119/185 111/183
f 111/183 103/180 98/181
f 111/183 112/186 103/180
f 119/185 112/186 111/183
f 119/185 132/187 112/186
f 113/173 97/177 100/171
f 113/173 110/188 97/177
f 129/175 110/188 113/173
f 129/175 120/189 110/188
f 114/190 103/180 112/186
f 114/190 102/179 103/180
f 105/191 102/179 114/190
f 105/191 104/177 102/179
f 109/192 101/176 104/177
f 109/192 115/193 101/176
f 124/189 115/193 109/192
f 124/189 125/194 115/193
f 115/193 99/168 101/176
f 115/193 116/172 99/168
f 125/194 116/172 115/193
f 125/194 131/174 116/172
f 107/195 117/196 118/184
f 108/182 107/195 118/184
f 110/188 120/189 121/197
f 107/195 110/188 121/197
f 106/195 123/197 124/189
f 109/192 106/195 124/189
f 105/191 127/196 106/195
f 105/191 126/184 127/196
f 114/190 126/184 105/191
f 114/190 130/198 126/184
f 112/186 130/198 114/190
f 112/186 132/187 130/198
f 150/199 23/200 29/200
f 150/199 149/199 23/200
f 160/201 149/199 150/199
f 160/201 159/201 149/199
f 166/202 159/201 160/201
f 166/202 165/202 159/201
f 151/203 28/204 24/205
f 151/203 152/203 28/204
f 154/206 152/203 151/203
f 154/206 153/206 152/203
f 171/207 153/206 154/206
f 171/207 172/207 153/206
f 167/208 159/201 165/202
f 167/208 157/209 159/201
f 168/210 157/209 167/208
f 168/210 158/211 157/209
f 169/212 158/211 168/210
f 169/212 164/213 158/211
f 170/214 164/213 169/212
f 170/214 155/215 164/213
f 171/207 155/215 170/214
f 171/207 154/206 155/215
f 173/214 153/206 172/207
f 173/214 156/215 153/206
f 174/212 156/215 173/214
f 174/212 162/213 156/215
f 175/210 162/213 174/212
f 175/210 161/211 162/213
f 176/208 161/211 175/210
f 176/208 163/209 161/211
f 166/202 163/209 176/208
f 166/202 160/201 163/209
f 191/199 19/200 34/200
f 191/199 192/199 19/200
f 201/201 192/199 191/199
f 201/201 202/201 192/199
f 208/202 202/201 201/201
f 208/202 207/202 202/201
f 193/203 22/205 20/204
f 193/203 194/203 22/205
f 196/206 194/203 193/203
f 196/206 195/206 194/203
f 214/207 195/206 196/206
f 214/207 213/207 195/206
f 200/209 208/202 201/201
f 200/209 209/208 208/202
f 199/211 209/208 200/209
f 199/211 210/210 209/208
f 206/213 210/210 199/211
f 206/213 211/212 210/210
f 197/215 211/212 206/213
f 197/215 212/214 211/212
f 195/206 212/214 197/215
f 195/206 213/207 212/214
f 198/215 214/207 196/206
f 198/215 215/214 214/207
f 204/213 215/214 198/215
f 204/213 216/212 215/214
f 203/211 216/212 204/213
f 203/211 217/210 216/212
f 205/209 217/210 203/211
f 205/209 218/208 217/210
f 202/201 218/208 205/209
f 202/201 207/202 218/208
f 91/169 97/177 98/181
f 91/169 100/171 97/177
f 106/195 104/177 105/191
f 106/195 109/192 104/177
f 97/177 107/195 108/182
f 97/177 110/188 107/195
f 151/203 155/215 154/206
f 151/203 148/216 155/215
f 24/205 148/216 151/203
f 24/205 23/200 148/216
f 147/217 148/216 23/200
f 147/217 158/211 148/216
f 157/209 158/211 147/217
f 147/217 159/201 157/209
f 149/199 159/201 147/217
f 147/217 23/200 149/199
f 148/216 164/213 155/215
f 148/216 158/211 164/213
f 156/215 152/203 153/206
f 156/215 145/218 152/203
f 162/213 145/218 156/215
f 162/213 161/211 145/218
f 146/219 145/218 161/211
f 146/219 29/200 145/218
f 150/199 29/200 146/219
f 146/219 160/201 150/199
f 163/209 160/201 146/219
f 146/219 161/211 163/209
f 28/204 145/218 29/200
f 28/204 152/203 145/218
f 197/215 194/203 195/206
f 197/215 189/216 194/203
f 206/213 189/216 197/215
f 206/213 199/211 189/216
f 190/217 189/216 199/211
f 190/217 34/200 189/216
f 191/199 34/200 190/217
f 190/217 201/201 191/199
f 200/209 201/201 190/217
f 190/217 199/211 200/209
f 22/205 189/216 34/200
f 22/205 194/203 189/216
f 193/203 198/215 196/206
f 193/203 188/218 198/215
f 20/204 188/218 193/203
f 20/204 19/200 188/218
f 187/219 188/218 19/200
f 187/219 203/211 188/218
f 205/209 203/211 187/219
f 187/219 202/201 205/209
f 192/199 202/201 187/219
f 187/219 19/200 192/199
f 204/213 188/218 203/211
f 204/213 198/215 188/218
f 122/220 107/195 121/197
f 122/220 117/196 107/195
f 135/221 117/196 122/220
f 135/221 144/222 117/196
f 137/223 117/196 144/222
f 137/223 118/184 117/196
f 119/185 118/184 137/223
f 137/223 139/224 119/185
f 132/187 119/185 139/224
f 139/224 130/198 132/187
f 138/223 130/198 139/224
f 138/223 126/184 130/198
f 127/196 126/184 138/223
f 138/223 143/222 127/196
f 136/221 127/196 143/222
f 136/221 128/220 127/196
f 123/197 128/220 136/221
f 123/197 106/195 128/220
f 127/196 128/220 106/195
f 121/197 135/221 122/220
f 121/197 133/225 135/221
f 140/226 133/225 121/197
f 121/197 120/189 140/226
f 129/175 140/226 120/189
f 129/175 142/227 140/226
f 131/174 142/227 129/175
f 131/174 125/194 142/227
f 141/226 142/227 125/194
f 125/194 124/189 141/226
f 123/197 141/226 124/189
f 123/197 134/225 141/226
f 136/221 134/225 123/197
f 173/214 177/228 174/212
f 173/214 172/207 177/228
f 182/229 177/228 172/207
f 172/207 171/207 182/229
f 170/214 182/229 171/207
f 170/214 178/228 182/229
f 169/212 178/228 170/214
f 169/212 186/230 178/228
f 168/210 186/230 169/212
f 168/210 184/231 186/230
f 180/232 184/231 168/210
f 168/210 167/208 180/232
f 165/202 180/232 167/208
f 165/202 181/233 180/232
f 166/202 181/233 165/202
f 166/202 176/208 181/233
f 179/232 181/233 176/208
f 176/208 175/210 179/232
f 183/231 179/232 175/210
f 175/210 174/212 183/231
f 185/230 183/231 174/212
f 174/212 177/228 185/230
f 216/212 219/228 215/214
f 216/212 227/230 219/228
f 225/231 227/230 216/212
f 216/212 217/210 225/231
f 222/232 225/231 217/210
f 217/210 218/208 222/232
f 221/233 222/232 218/208
f 218/208 207/202 221/233
f 208/202 221/233 207/202
f 208/202 223/232 221/233
f 209/208 223/232 208/202
f 209/208 210/210 223/232
f 226/231 223/232 210/210
f 210/210 228/230 226/231
f 211/212 228/230 210/210
f 211/212 220/228 228/230
f 212/214 220/228 211/212
f 212/214 224/229 220/228
f 213/207 224/229 212/214
f 213/207 214/207 224/229
f 219/228 224/229 214/207
f 214/207 215/214 219/228
usemtl mat_2
f 325/119 324/77 322/118
f 327/234 328/234 325/118
f 324/114 328/234 327/234
f 324/114 326/76 328/234
usemtl mat_3
f 272/235 245/234 266/236
f 272/235 246/237 245/234
f 273/238 246/237 272/235
f 273/238 250/239 246/237
f 271/240 250/239 273/238
f 271/240 251/241 250/239
f 250/239 258/242 285/243
f 246/237 250/239 285/243
f 245/234 247/244 248/245
f 245/234 246/237 247/244
f 285/243 247/244 246/237
f 249/246 251/241 255/247
f 249/246 250/239 251/241
f 258/242 250/239 249/246
usemtl mat_4
f 259/248 281/249 283/250
f 276/251 259/248 283/250
f 281/249 242/252 289/253
f 288/254 281/249 289/253
f 355/255 356/256 283/257
f 288/258 355/255 283/257
f 283/250 281/249 288/254
f 289/259 355/255 288/258
f 283/257 356/256 276/260
usemtl mat_5
f 282/261 295/262 242/263
f 282/261 316/264 295/262
f 314/265 316/264 282/261
f 282/261 320/266 314/265
f 318/267 320/266 282/261
f 318/267 319/268 320/266
f 314/265 320/266 319/268
f 282/261 313/269 318/267
f 282/261 312/270 313/269
f 259/271 312/270 282/261
usemtl mat_6
f 341/272 339/273 340/274
f 341/272 342/275 339/273
f 343/276 342/275 341/272
f 343/276 337/277 342/275
f 336/278 342/275 337/277
f 336/278 344/279 342/275
f 352/280 344/279 336/278
f 352/280 354/281 344/279
f 351/282 354/281 352/280
f 351/282 350/283 354/281
f 347/284 350/283 351/282
f 347/284 346/285 350/283
f 343/276 346/285 347/284
f 343/276 341/272 346/285
f 345/286 341/272 340/274
f 345/286 346/285 341/272
f 349/287 346/285 345/286
f 349/287 350/283 346/285
f 353/288 350/283 349/287
f 353/288 354/281 350/283
f 348/289 354/281 353/288
f 348/289 344/279 354/281
f 339/273 344/279 348/289
f 339/273 342/275 344/279
f 337/277 338/290 336/278
f 337/277 343/276 338/290
f 347/284 338/290 343/276
f 347/284 351/282 338/290
f 352/280 338/290 351/282
f 352/280 336/278 338/290
