# Blender v2.66 (sub 1) OBJ File: 'BR_Chikorita-Shiny01.blend'
# www.blender.org
mtllib BR_Chikorita-Shiny01.mtl
o chicorita
v 0.596900 1.199724 -0.065470
v 0.606000 1.145714 0.000200
v 0.657457 1.314998 -0.000210
v 0.746979 1.265290 -0.053170
v 0.690539 1.281436 -0.076390
v 0.690539 1.308906 -0.040130
v 0.694500 1.102412 -0.000250
v 0.739500 1.216979 -0.098270
v 0.777000 1.151000 -0.050500
v 0.629000 1.226704 -0.096060
v 0.634098 1.265290 -0.053170
v 0.680373 1.236431 -0.113920
v 0.722440 1.314998 -0.000210
v 0.778079 1.196222 -0.000210
v 0.690539 1.328085 -0.000210
v 0.690539 1.328085 -0.000210
v 0.783000 1.123182 -0.000700
v 0.816461 1.009957 0.000370
v 0.789716 0.867905 0.000980
v 0.562581 1.009081 0.000380
v 0.846809 1.112330 -0.086200
v 0.800593 1.214703 -0.172770
v 0.535290 1.116361 -0.063040
v 0.720667 0.792367 0.001590
v 0.634933 0.830004 0.000980
v -0.595899 1.199724 -0.065570
v -0.625000 1.234305 -0.099960
v -0.634099 1.265290 -0.053170
v -0.657458 1.314998 -0.000210
v -0.690539 1.308906 -0.040130
v -0.690539 1.281436 -0.076390
v -0.777000 1.155000 -0.051400
v -0.778080 1.196222 -0.000210
v -0.746980 1.265290 -0.053170
v -0.603000 1.149114 -0.000300
v -0.786000 1.125182 -0.000200
v -0.722440 1.314998 -0.000210
v -0.847510 1.115392 -0.086610
v -0.802114 1.217486 -0.173470
v -0.633853 0.834549 0.001140
v -0.718644 0.796364 0.002060
v -0.740980 1.217179 -0.101170
v -0.562386 1.014174 0.000230
v -0.535960 1.121501 -0.063490
v -0.694500 1.105112 -0.000250
v -0.816254 1.013298 0.000240
v -0.788558 0.871574 0.001150
v -0.690539 1.328085 -0.000210
v -0.690539 1.328085 -0.000210
v -0.680374 1.237431 -0.114720
v 1.000051 0.677577 -0.262360
v 0.395817 0.939567 -0.184330
v 0.478409 0.717468 -0.188080
v 1.004021 0.779197 -0.275630
v 0.940312 1.082823 -0.296890
v 0.874999 1.183208 -0.291600
v 0.976963 0.982437 -0.302170
v 0.634856 1.286828 -0.244320
v 0.392317 1.070112 -0.188440
v 0.463131 1.215227 -0.204040
v 0.548994 1.276382 -0.224170
v 0.758456 1.260373 -0.273710
v 0.412326 1.142669 -0.190490
v 0.619913 0.593719 -0.191840
v 0.958716 0.575957 -0.249080
v 0.798101 0.542342 -0.220460
v 1.099431 0.477190 -0.590350
v 1.123571 0.595087 -0.758130
v 0.269065 0.945594 -0.334860
v 0.469045 1.425604 -0.616080
v 0.394601 1.333681 -0.472830
v 0.333030 1.209430 -0.349080
v 0.616198 1.423208 -0.801850
v 0.439096 0.575669 -0.287780
v 1.043661 0.359292 -0.422580
v 1.032931 0.998306 -0.818150
v 0.616658 0.426262 -0.288910
v 0.887273 1.265419 -0.826020
v 0.302965 1.077512 -0.319720
v -0.876263 1.184520 -0.293830
v -0.616250 0.598157 -0.188750
v -0.976546 0.982995 -0.302560
v -1.001827 0.779943 -0.274170
v -0.760167 1.262924 -0.276580
v -0.550843 1.281267 -0.227410
v -0.637005 1.290619 -0.247840
v -0.954965 0.576891 -0.245780
v -0.997019 0.678417 -0.259980
v -0.464681 1.221206 -0.206990
v -0.413227 1.148746 -0.192720
v -0.395058 0.945935 -0.184420
v -0.392636 1.076286 -0.189950
v -0.476326 0.722871 -0.186590
v -0.940753 1.083757 -0.298200
v -0.794360 0.545028 -0.217270
v -1.174239 -1.165970 -1.191600
v -1.082379 -1.536520 -1.232460
v -0.928222 -1.919920 -1.080170
v 0.903827 -1.945380 -1.076670
v 1.067051 -1.566630 -1.234610
v -0.221006 -2.015010 -0.372370
v 1.178081 -1.199030 -1.197650
v -1.179259 -0.964350 -0.676520
v 0.199182 -2.016130 -0.365240
v 1.181861 -0.992470 -0.684090
v -0.692919 -0.897120 -0.290380
v -0.003952 -1.325950 -2.035170
v -0.375847 -1.317970 -1.980720
v -0.261625 -1.762190 -1.767400
v -0.007727 -1.686820 -1.874660
v -0.900904 -1.857580 -1.255950
v -0.202734 -1.711580 -0.274270
v 0.465827 -1.152750 -0.200960
v -0.001729 -1.165330 -0.172250
v 0.189273 -1.711440 -0.269600
v -0.522265 -2.027110 -1.258670
v -0.594103 -2.086340 -1.082380
v 0.425058 -1.905940 -1.564990
v 0.254867 -2.051120 -1.343920
v 0.565691 -2.103640 -1.073240
v 0.494542 -2.043130 -1.253280
v -0.835877 -1.775580 -1.413900
v -0.726297 -1.715780 -1.536380
v -1.014389 -1.420880 -1.473550
v -0.864623 -1.305240 -1.679180
v -1.093229 -1.015010 -1.496760
v -0.620235 -1.311610 -1.868980
v 0.708936 -1.733810 -1.536300
v 0.814864 -1.797130 -1.413050
v 0.857551 -1.326890 -1.679080
v 1.002721 -1.446760 -1.474580
v 1.098051 -1.039180 -1.499750
v -0.464609 -1.146720 -0.199270
v 0.001551 -0.904520 -0.211700
v 0.391610 -0.907130 -0.227510
v -0.386032 -0.900820 -0.224910
v -0.008588 -1.711350 -0.223080
v -0.012449 -2.019210 -0.341010
v -0.014762 -2.204530 -0.609880
v -0.323262 -2.226640 -0.823350
v -0.015162 -2.230290 -0.819150
v 0.292938 -2.233940 -0.814950
v -0.014782 -2.218220 -0.995780
v -0.358770 -1.632820 -1.829270
v -0.005840 -1.528180 -1.962700
v 0.368645 -1.327320 -1.980680
v 0.343643 -1.641650 -1.829230
v 0.613098 -1.327100 -1.868900
v 0.240811 -1.771700 -1.767420
v -0.014402 -2.146470 -1.172410
v -0.290269 -2.046390 -1.347590
v -0.447219 -1.893820 -1.565240
v 0.877337 -1.882630 -1.254330
v 0.699808 -0.909750 -0.295570
v 0.194783 -2.181700 -1.081780
v -0.218042 -2.173690 -1.084470
v -1.112949 -1.695130 -0.872540
v -1.159119 -1.417250 -0.709410
v -0.309971 -2.189050 -0.669740
v -0.289174 -2.018930 -0.400480
v -0.265876 -1.718180 -0.296490
v -0.949134 -1.959360 -0.904400
v -0.665940 -2.143600 -0.906080
v -1.151189 -1.195820 -0.547590
v -0.425563 -2.205720 -0.835740
v -0.927393 -1.102590 -0.341280
v -0.617004 -1.148200 -0.203360
v -0.954700 -1.777580 -0.359480
v -1.017179 -1.550560 -0.314110
v -0.499075 -2.098600 -0.370040
v -0.494169 -1.488550 -0.101020
v -0.409709 -1.679100 -0.164210
v -0.954023 -1.378850 -0.222810
v -0.840086 -1.978840 -0.374690
v -0.424619 -1.957860 -0.277830
v -0.597476 -1.296600 -0.086740
v -0.686016 -1.251060 -0.110720
v -0.686016 -1.251060 -0.110720
v -0.872889 -1.276970 -0.188200
v 0.491965 -1.486180 -0.097220
v 0.403621 -1.674670 -0.156800
v 0.478452 -2.100090 -0.355740
v 0.822659 -1.989220 -0.368550
v 0.688665 -1.254620 -0.113890
v 0.688665 -1.254620 -0.113890
v 0.875881 -1.287480 -0.196410
v 0.409550 -1.955790 -0.265310
v 1.011541 -1.564230 -0.318940
v 0.954333 -1.388490 -0.228910
v 0.942573 -1.790710 -0.359060
v 0.602044 -1.296790 -0.089260
v 0.569127 -1.657410 0.003620
v 0.725243 -1.840040 0.004500
v 0.766043 -1.334760 -0.066900
v 0.617614 -1.825820 0.006620
v 0.621056 -1.220660 -0.074220
v 0.596829 -1.250800 -0.044550
v 0.611023 -1.212730 0.000160
v 0.768474 -1.659310 0.002370
v 0.579323 -1.378730 0.000420
v 0.671894 -1.417830 0.000110
v 0.730919 -1.215140 -0.068770
v 0.742200 -1.208840 -0.000460
v 0.760154 -1.267840 -0.033680
v 0.764465 -1.379680 -0.000200
v 0.671365 -1.179620 -0.000150
v 0.671365 -1.179620 -0.000150
v 0.675988 -1.217900 -0.077480
v 0.822891 -1.393800 -0.082130
v -1.038029 0.356306 -0.415700
v -0.619520 1.419195 -0.807640
v -0.334431 1.213501 -0.352410
v -0.471739 1.424678 -0.621370
v -0.268338 0.946304 -0.334910
v -1.093469 0.587647 -0.754020
v -1.032689 0.990651 -0.818830
v -0.435289 0.579325 -0.283580
v -0.611594 0.428432 -0.282910
v -0.889266 1.258865 -0.829900
v -0.397079 1.335841 -0.477620
v -0.303341 1.079903 -0.321410
v -1.091459 0.471976 -0.584860
v 1.094741 -1.724300 -0.874860
v 0.924084 -1.985240 -0.899010
v 0.636839 -2.162180 -0.893190
v 0.256227 -1.714070 -0.286640
v 1.150591 -1.444760 -0.718530
v 0.282857 -2.193570 -0.650460
v 0.394740 -2.216620 -0.817050
v 0.270361 -2.017410 -0.384570
v 1.150661 -1.219940 -0.561370
v 0.932378 -1.116690 -0.353850
v 0.623012 -1.151450 -0.210590
v -0.572050 -1.659670 -0.000440
v -0.625716 -1.826810 0.000840
v -0.763023 -1.379060 -0.000230
v -0.765228 -1.327820 -0.063060
v -0.822353 -1.385510 -0.077160
v -0.731116 -1.839760 0.000830
v -0.771598 -1.657750 0.000810
v -0.730141 -1.214020 -0.064930
v -0.740799 -1.208220 -0.000490
v -0.669958 -1.179960 -0.000800
v -0.669958 -1.179960 -0.000800
v -0.577955 -1.380020 -0.000850
v -0.670489 -1.418170 -0.000540
v -0.609580 -1.214020 -0.001110
v -0.759037 -1.264060 -0.031770
v -0.593872 -1.251350 -0.043930
v -0.616344 -1.220470 -0.071710
v -0.673243 -1.217240 -0.074310
v 0.038890 1.853066 -1.566050
v -0.038899 1.853066 -1.566050
v -0.000005 1.643752 -1.525510
v -0.038899 1.878474 -1.633140
v -0.128097 1.722324 -1.733000
v -0.128097 1.669943 -1.594680
v -0.000005 1.748514 -1.802160
v 0.038890 1.878474 -1.633140
v 0.128087 1.722324 -1.733000
v 0.128087 1.669943 -1.594680
v -0.038888 -0.575310 -2.485655
v 0.038901 -0.575310 -2.485655
v 0.000006 -0.445350 -2.316641
v 0.038901 -0.549900 -2.552751
v 0.128098 -0.366780 -2.524124
v 0.128098 -0.419160 -2.385802
v 0.000006 -0.340590 -2.593286
v -0.038888 -0.549900 -2.552751
v -0.128086 -0.366780 -2.524124
v -0.128086 -0.419160 -2.385802
v 1.150091 0.936126 -1.913280
v 1.126051 1.005313 -1.887080
v 0.965556 0.878622 -1.815260
v 1.126051 1.030721 -1.954180
v 0.925974 1.071121 -1.979600
v 0.925974 1.018740 -1.841280
v 0.965557 0.983384 -2.091900
v 1.150091 0.961534 -1.980380
v 1.005141 0.843266 -2.065890
v 1.005141 0.790885 -1.927560
v -1.153309 0.312694 -2.149380
v -1.129269 0.243507 -2.175580
v -0.968777 0.290844 -2.037850
v -1.129269 0.268916 -2.242670
v -0.929194 0.255488 -2.288480
v -0.929194 0.203107 -2.150160
v -0.968777 0.395606 -2.314498
v -1.153309 0.338102 -2.216470
v -1.008359 0.483343 -2.202190
v -1.008359 0.430963 -2.063870
v -1.126059 1.005305 -1.887090
v -1.150089 0.936118 -1.913290
v -0.965560 0.878614 -1.815260
v -1.150089 0.961527 -1.980380
v -1.005143 0.843258 -2.065890
v -1.005143 0.790877 -1.927570
v -0.965560 0.983376 -2.091910
v -1.126059 1.030713 -1.954180
v -0.925977 1.071113 -1.979600
v -0.925977 1.018732 -1.841280
v 1.129271 0.243519 -2.175570
v 1.153311 0.312706 -2.149370
v 0.968780 0.290856 -2.037850
v 1.153311 0.338114 -2.216470
v 1.008361 0.483355 -2.202190
v 1.008361 0.430975 -2.063870
v 0.968780 0.395618 -2.314494
v 1.129271 0.268928 -2.242670
v 0.929197 0.255500 -2.288480
v 0.929197 0.203119 -2.150150
v -0.756204 1.614503 -1.656390
v -0.815793 1.567742 -1.674100
v -0.669401 1.421497 -1.609680
v -0.815793 1.593151 -1.741190
v -0.767526 1.423068 -1.846320
v -0.767526 1.370687 -1.708000
v -0.669401 1.526259 -1.886320
v -0.756204 1.639912 -1.723490
v -0.571277 1.577068 -1.788000
v -0.571277 1.524687 -1.649680
v 0.724764 -0.336250 -2.395127
v 0.784353 -0.289490 -2.377419
v 0.637961 -0.222600 -2.232290
v 0.784353 -0.264080 -2.444515
v 0.736085 -0.067030 -2.410613
v 0.736085 -0.119410 -2.272290
v 0.637961 -0.117840 -2.508933
v 0.724764 -0.310840 -2.462223
v 0.539837 -0.221030 -2.468931
v 0.539837 -0.273410 -2.330608
v 0.815776 1.567765 -1.674090
v 0.756187 1.614526 -1.656380
v 0.669384 1.421519 -1.609670
v 0.756187 1.639934 -1.723480
v 0.571260 1.577091 -1.788000
v 0.571260 1.524710 -1.649670
v 0.669384 1.526281 -1.886320
v 0.815776 1.593173 -1.741180
v 0.767508 1.423091 -1.846310
v 0.767508 1.370710 -1.707990
v -0.784353 -0.289480 -2.377416
v -0.724764 -0.336240 -2.395123
v -0.637961 -0.222590 -2.232280
v -0.724764 -0.310830 -2.462219
v -0.539837 -0.221020 -2.468927
v -0.539837 -0.273400 -2.330605
v -0.637961 -0.117830 -2.508929
v -0.784353 -0.264070 -2.444511
v -0.736086 -0.067020 -2.410609
v -0.736086 -0.119400 -2.272290
v 0.766882 1.429545 -1.644910
v -1.119899 -0.317440 -0.766370
v -1.148229 -0.328320 -1.258710
v -0.694658 -0.524010 -2.091370
v -0.483390 -0.584210 -2.169390
v -1.093159 -0.305500 -1.672100
v -0.905926 -0.445900 -1.955780
v -0.701927 -0.299980 -0.388720
v -0.324600 -0.293520 -0.311750
v 1.131221 -0.317440 -0.766430
v 1.159501 -0.328320 -1.258770
v 0.494583 -0.584210 -2.169420
v 0.705860 -0.524010 -2.091410
v 0.005594 -0.629280 -2.219630
v 1.104401 -0.305500 -1.672160
v 0.710957 -0.304310 -0.390560
v 0.333083 -0.295680 -0.312670
v 0.917137 -0.445900 -1.955830
v -0.673075 -0.902800 -1.955240
v 0.004524 -0.292790 -0.287960
v -1.123489 0.081541 -0.774460
v -1.171089 0.091358 -1.248550
v -0.853999 -0.158500 -2.157120
v -0.702616 0.053742 -0.387860
v 0.134689 0.953077 -0.297720
v 0.000313 0.960560 -0.278270
v 0.001960 0.567673 -0.229100
v -0.001922 1.478493 -0.664370
v -0.001447 1.376295 -0.494010
v 0.192908 1.364925 -0.503980
v 1.131371 0.089874 -0.778120
v 1.178821 0.101997 -1.252160
v 0.710798 0.056931 -0.391590
v 0.303835 0.055708 -0.313390
v -0.195712 1.364065 -0.505090
v 0.864074 -0.149710 -2.158810
v -0.000973 1.261292 -0.367190
v 0.151604 1.240100 -0.385370
v 0.006329 -0.451560 -2.394882
v 0.462256 -0.401310 -2.348492
v -0.390450 1.461716 -0.696760
v -0.291313 1.219070 -0.422420
v 0.386788 1.463436 -0.694550
v 0.269376 0.421084 -0.276100
v 0.002599 0.414961 -0.252500
v 0.004107 0.054485 -0.287440
v 1.140711 0.188255 -1.677640
v -1.097769 0.685458 -1.668200
v -1.155389 0.613156 -1.193770
v -1.048759 1.011798 -1.197010
v -0.981162 1.082192 -1.657200
v 1.100141 0.696702 -1.670370
v 1.158761 0.623489 -1.195190
v 0.192190 1.537063 -0.916920
v -0.002164 1.548433 -0.906950
v -0.153450 1.240181 -0.385960
v -0.196429 1.536203 -0.918020
v 1.048791 1.021234 -1.196760
v 0.979500 1.092222 -1.659140
v 0.840311 1.347482 -1.215510
v 0.440343 1.501537 -0.902550
v -0.843914 1.340268 -1.216690
v -0.002407 1.597548 -1.167340
v -0.003937 1.694720 -1.652200
v -0.424805 1.624948 -1.644680
v -0.498073 1.516659 -1.199000
v -0.449997 -0.405980 -2.347593
v -0.972436 0.308068 -2.159400
v -0.264914 0.421723 -0.273940
v -0.296866 0.054113 -0.311520
v -1.133139 0.176623 -1.675400
v 0.493898 1.521468 -1.196580
v -0.134012 0.953432 -0.297750
v -0.216665 0.573540 -0.256620
v 0.977154 0.319850 -2.163130
v 0.289743 1.218908 -0.421230
v -0.444261 1.498273 -0.904870
v 0.220526 0.572131 -0.258130
v 0.417637 1.629258 -1.645510
v -0.771984 1.421672 -1.643400
v -0.230135 -1.903160 -1.796190
v -0.009903 -1.838560 -1.873550
v 0.339586 -2.028170 -1.635740
v -0.015999 -2.237960 -1.818680
v -0.017670 -2.323980 -1.783050
v -0.090157 -2.283700 -1.769460
v -0.250430 -2.141680 -1.452110
v -0.183279 -2.238450 -1.585640
v -0.017074 -2.283140 -1.531710
v -0.015566 -2.227650 -1.339810
v 0.208578 -1.905180 -1.801710
v 0.129505 -2.056060 -1.808430
v -0.012275 -1.987730 -1.866000
v 0.056227 -2.286550 -1.769570
v -0.168938 -2.050410 -1.805920
v 0.253900 -2.144630 -1.707590
v 0.206464 -2.144910 -1.457420
v 0.135414 -2.241540 -1.595670
v -0.382204 -2.018440 -1.636840
v -0.017647 -2.325080 -1.718750
v -0.283103 -2.136320 -1.707660
v 0.853974 1.365246 -3.268147
v 0.885513 1.366742 -3.092638
v 0.944439 0.967955 -3.127735
v 0.897297 0.998060 -3.304865
v -0.870012 1.355133 -3.261817
v -0.796129 1.354269 -3.437722
v -0.838546 1.018151 -3.475727
v -0.908855 0.987340 -3.298155
v -0.676460 1.714878 -3.223073
v -0.708899 1.722185 -3.045701
v -0.390758 1.932405 -3.030010
v -0.378408 1.940446 -3.212327
v -0.010956 2.025750 -3.039938
v -0.011533 2.015160 -3.228085
v 0.369777 1.936982 -3.032875
v 0.355882 1.944779 -3.215039
v 0.690526 1.730607 -3.050973
v 0.656754 1.722791 -3.228026
v 0.723361 1.694569 -2.617296
v 0.571863 1.771167 -2.494207
v -0.586992 1.764377 -2.490140
v -0.738029 1.685774 -2.611790
v 0.289295 1.878981 -2.371804
v 0.386716 1.727367 -2.133360
v 0.420365 1.834664 -2.419057
v 0.191874 1.993400 -2.544419
v 0.092779 1.907120 -2.338021
v -0.902415 0.504747 -3.105245
v -0.714638 0.183750 -3.090380
v 0.898227 0.515584 -3.112029
v -1.006969 0.868014 -2.647016
v -0.009044 2.020000 -2.541572
v -0.006317 1.789716 -2.134090
v -0.398559 1.722631 -2.131130
v -0.108082 1.905911 -2.337265
v -0.304203 1.875404 -2.369932
v -0.209847 1.990981 -2.542906
v -0.410261 1.900532 -2.592949
v -0.435954 1.829878 -2.416428
v -0.470965 1.096809 -3.910421
v -0.593030 1.366773 -3.732789
v -0.291084 1.439090 -3.905114
v -0.315042 1.114945 -3.973943
v 1.001851 0.880104 -2.654584
v -0.390749 -0.027950 -3.099408
v 0.393182 1.905367 -2.595976
v 0.316724 1.853610 -3.550114
v 0.285776 1.757316 -3.703025
v -0.012307 1.817985 -3.719236
v -0.012599 1.919423 -3.567734
v -0.626888 1.078674 -3.796302
v -0.589730 0.790311 -3.765794
v -0.302246 0.491408 -3.774713
v -0.569592 0.504180 -3.617859
v -0.716806 1.360521 -3.589766
v -0.625342 1.677213 -3.400444
v -0.603094 1.593862 -3.560628
v -0.899801 1.355998 -3.085912
v -0.756164 1.049916 -3.626994
v 0.001570 -0.092220 -3.130327
v -0.309508 1.760752 -3.700783
v -0.340934 1.849775 -3.547713
v -0.009566 2.005360 -2.703663
v 0.425541 0.823443 -3.882105
v 0.273923 0.849552 -3.951107
v 0.296966 1.118628 -3.976249
v 0.453790 1.102375 -3.913904
v -0.009211 1.126450 -4.005823
v 0.144867 0.960122 -4.010412
v -0.617429 0.378429 -3.455573
v -0.350049 0.175845 -3.470863
v -0.001223 0.119762 -3.501318
v -0.336584 0.317613 -3.622788
v -0.004395 0.449029 -3.817073
v -0.002899 0.268382 -3.659196
v 0.560743 0.509672 -3.621297
v 0.330424 0.321503 -3.625223
v 0.293235 0.494991 -3.776956
v 0.577159 0.797334 -3.770190
v 0.143001 0.639637 -3.917325
v 0.277731 1.615439 -3.813152
v 0.269685 1.442465 -3.907226
v -0.011114 1.492464 -3.933881
v -0.011711 1.670773 -3.834584
v 0.698109 1.368772 -3.594931
v 0.573770 1.373795 -3.737185
v 0.583415 1.601075 -3.565143
v 0.612151 0.385829 -3.460205
v 0.782405 0.687278 -3.480655
v 0.714768 0.192352 -3.095764
v 0.825176 1.028164 -3.481995
v 0.701535 0.742306 -3.625423
v 0.610614 1.086122 -3.800964
v 0.740868 1.058646 -3.632459
v -0.935215 1.320948 -2.639633
v -0.300296 1.611960 -3.810975
v -0.161137 0.958281 -4.009260
v -0.007232 0.815483 -3.984894
v -0.154739 0.637845 -3.916203
v -0.288515 0.846167 -3.948988
v -0.439122 0.818239 -3.878848
v 0.347121 0.180041 -3.473489
v -0.954185 0.956529 -3.120582
v 0.393308 -0.023230 -3.102362
v 0.924708 1.332141 -2.646640
v 0.604847 1.684617 -3.405079
v 0.328030 1.910848 -3.397202
v -0.012109 1.981805 -3.416232
v -0.351218 1.906760 -3.394643
v 0.779154 1.363750 -3.443657
v -0.791449 0.677806 -3.474726
v -0.712688 0.734059 -3.620260
v -0.007680 1.919364 -2.323885
v 0.713210 1.537966 -2.139420
v -0.722773 1.529306 -2.135340
v -0.776068 0.022999 -2.647023
v 0.004488 -0.268670 -2.701922
v -0.443692 -0.201360 -2.670681
v 0.961105 0.393199 -2.640683
v 0.781767 0.032394 -2.651447
v 0.451992 -0.195950 -2.673224
v -0.995947 0.779798 -2.161330
v -0.959683 0.381615 -2.635228
v -0.919031 1.202438 -2.151840
v 0.995251 0.791806 -2.166990
v 0.913299 1.213488 -2.157050
v -0.164994 1.485263 -3.823822
v -0.164994 1.485263 -3.823822
v -0.094090 1.397512 -4.073082
v -0.094090 1.397512 -4.073082
v -0.010353 1.353760 -4.059275
v -0.013969 1.682441 -3.729396
v -0.011170 1.433699 -4.084065
v 0.143677 1.488064 -3.825024
v 0.143677 1.488064 -3.825024
v -0.011397 1.338925 -3.923286
v -0.011397 1.338925 -3.923286
v 0.072471 1.399017 -4.073718
v 0.072471 1.399017 -4.073718
v -0.009463 1.211289 -4.308190
v -0.118390 1.256816 -4.344580
v -0.118390 1.256816 -4.344580
v -0.010419 1.277447 -4.349090
v 0.098049 1.259424 -4.345410
v 0.098049 1.259424 -4.345410
v -0.329691 0.849396 -4.728830
v -0.329691 0.849396 -4.728830
v 0.315693 0.860555 -4.734840
v 0.315693 0.860555 -4.734840
v -0.005697 0.810787 -4.673960
v -0.007054 0.862612 -4.723600
v 0.713896 0.085285 -5.053060
v 0.713896 0.085285 -5.053060
v -0.705258 0.054885 -5.033800
v -0.705258 0.054885 -5.033800
v 0.004889 0.070288 -5.001130
v 0.006097 0.045083 -4.951960
v 0.025650 -0.846950 -5.056680
v 0.026914 -0.851350 -4.993380
v -0.933963 -0.868950 -5.079500
v -0.933963 -0.868950 -5.079500
v 0.983652 -0.819340 -5.114370
v 0.983652 -0.819340 -5.114370
v 0.915786 -1.723120 -4.891560
v 0.915786 -1.723120 -4.891560
v 0.055823 -1.755290 -4.830080
v -0.806416 -1.775330 -4.852310
v -0.806416 -1.775330 -4.852310
v 0.056463 -1.737140 -4.777880
v 0.089139 -2.441290 -4.394250
v 0.089652 -2.471870 -4.414310
v -0.353410 -2.479270 -4.448790
v -0.353410 -2.479270 -4.448790
v 0.531028 -2.448760 -4.472830
v 0.531028 -2.448760 -4.472830
v -0.112673 -2.757760 -4.184565
v -0.112673 -2.757760 -4.184565
v 0.326037 -2.742500 -4.196587
v 0.326037 -2.742500 -4.196587
v 0.125260 -3.036250 -3.920338
v 0.125260 -3.036250 -3.920338
v -0.436322 -0.941560 -2.065980
v -1.070929 -0.786080 -1.515070
v -1.145699 -0.708130 -1.228230
v -0.701239 -0.596440 -0.360940
v -0.352334 -0.599340 -0.283330
v 0.440455 -0.948910 -2.065950
v 1.153651 -0.727390 -1.228160
v 1.077861 -0.803360 -1.515010
v -0.909828 -0.864040 -1.766440
v 0.915194 -0.879330 -1.766390
v 0.711117 -0.608270 -0.360900
v 0.362332 -0.605250 -0.283310
v 0.004940 -0.602240 -0.257980
v 0.000821 -0.958940 -2.113390
v 0.677824 -0.914120 -1.955200
v -1.122969 -0.656380 -0.735310
v 1.131781 -0.675270 -0.735240
vt 0.171094 0.946014
vt 0.146471 0.962080
vt 0.175197 0.964137
vt 0.154422 0.937800
vt 0.209762 0.920180
vt 0.192847 0.917895
vt 0.640071 0.914381
vt 0.595184 0.933100
vt 0.575032 0.925887
vt 0.616827 0.913366
vt 0.389927 0.922244
vt 0.396234 0.917008
vt 0.357297 0.910347
vt 0.353260 0.916068
vt 0.541399 0.921443
vt 0.579078 0.915438
vt 0.577474 0.909974
vt 0.537572 0.916512
vt 0.635404 0.901745
vt 0.664540 0.901852
vt 0.676243 0.901959
vt 0.622278 0.901896
vt 0.270288 0.902037
vt 0.298821 0.902036
vt 0.313349 0.902101
vt 0.259329 0.902038
vt 0.723373 0.920159
vt 0.779686 0.938259
vt 0.742045 0.918138
vt 0.760464 0.946130
vt 0.690911 0.920636
vt 0.718368 0.947347
vt 0.757072 0.964245
vt 0.791002 0.962384
vt 0.211268 0.947618
vt 0.240789 0.920945
vt 0.640092 0.902029
vt 0.689234 0.902060
vt 0.620506 0.902059
vt 0.681993 0.902029
vt 0.663301 0.901999
vt 0.296618 0.902021
vt 0.254738 0.902021
vt 0.273665 0.901975
vt 0.247241 0.902066
vt 0.315965 0.902067
vt 0.216930 0.956469
vt 0.287932 0.947703
vt 0.333104 0.920711
vt 0.384297 0.935802
vt 0.353005 0.944161
vt 0.408381 0.920828
vt 0.334432 0.907165
vt 0.311751 0.902121
vt 0.297953 0.906446
vt 0.301180 0.912318
vt 0.273674 0.906872
vt 0.289709 0.902106
vt 0.267667 0.902090
vt 0.234875 0.910298
vt 0.249396 0.907298
vt 0.233275 0.913280
vt 0.217154 0.919263
vt 0.489750 0.892500
vt 0.220355 0.913298
vt 0.155897 0.929652
vt 0.148972 0.936144
vt 0.712885 0.956293
vt 0.640608 0.947054
vt 0.597731 0.919991
vt 0.575069 0.943220
vt 0.544781 0.934831
vt 0.716144 0.913605
vt 0.780378 0.930345
vt 0.720614 0.919896
vt 0.788152 0.936525
vt 0.522130 0.920470
vt 0.703935 0.913694
vt 0.701700 0.910548
vt 0.687256 0.907491
vt 0.669130 0.902089
vt 0.663511 0.907032
vt 0.636865 0.912682
vt 0.639766 0.906573
vt 0.601389 0.906974
vt 0.625038 0.902057
vt 0.647084 0.902073
vt 0.635020 0.942454
vt 0.673531 0.915861
vt 0.652393 0.907815
vt 0.668399 0.907027
vt 0.686246 0.910778
vt 0.705080 0.916762
vt 0.697449 0.906419
vt 0.722761 0.917028
vt 0.732683 0.917294
vt 0.747836 0.943275
vt 0.772371 0.940253
vt 0.740007 0.915957
vt 0.680175 0.902114
vt 0.656217 0.902091
vt 0.632259 0.902069
vt 0.613118 0.905253
vt 0.574413 0.911567
vt 0.579830 0.911670
vt 0.550225 0.918177
vt 0.558364 0.919656
vt 0.593584 0.912352
vt 0.629796 0.905375
vt 0.765835 0.931805
vt 0.738934 0.915289
vt 0.727744 0.914621
vt 0.750738 0.923357
vt 0.684263 0.913179
vt 0.635145 0.916626
vt 0.636026 0.911738
vt 0.587077 0.916569
vt 0.597719 0.911549
vt 0.541048 0.918940
vt 0.575361 0.911360
vt 0.678551 0.904622
vt 0.638486 0.906915
vt 0.708403 0.943671
vt 0.753708 0.005177
vt 0.775321 0.005507
vt 0.749886 0.058083
vt 0.790879 0.005540
vt 0.789216 0.005507
vt 0.802615 0.005507
vt 0.825984 0.005507
vt 0.812921 0.048170
vt 0.825530 0.046024
vt 0.809780 0.084507
vt 0.789216 0.066884
vt 0.789216 0.037663
vt 0.765510 0.048170
vt 0.763369 0.082726
vt 0.784946 0.097118
vt 0.828050 0.005903
vt 0.236675 0.085868
vt 0.232853 0.048170
vt 0.248897 0.058164
vt 0.209147 0.066884
vt 0.213417 0.097762
vt 0.187962 0.086843
vt 0.185442 0.048170
vt 0.209147 0.037663
vt 0.195749 0.005507
vt 0.209147 0.005507
vt 0.223042 0.005507
vt 0.245915 0.005580
vt 0.207484 0.005540
vt 0.172379 0.005507
vt 0.172833 0.046749
vt 0.169053 0.005500
vt 0.301384 0.911583
vt 0.253168 0.913019
vt 0.209690 0.914454
vt 0.187205 0.923010
vt 0.198306 0.915169
vt 0.172740 0.931528
vt 0.197004 0.915884
vt 0.172197 0.940046
vt 0.203848 0.917314
vt 0.188651 0.943309
vt 0.213538 0.917094
vt 0.227476 0.943867
vt 0.230996 0.916874
vt 0.262424 0.916005
vt 0.249758 0.910813
vt 0.267618 0.907173
vt 0.257867 0.904667
vt 0.238779 0.906440
vt 0.255431 0.902089
vt 0.280201 0.902091
vt 0.304971 0.902094
vt 0.323119 0.905276
vt 0.361918 0.911643
vt 0.356344 0.911783
vt 0.386091 0.918263
vt 0.377675 0.919824
vt 0.342415 0.912501
vt 0.306893 0.905380
vt 0.300499 0.942746
vt 0.295765 0.914558
vt 0.284025 0.907855
vt 0.299015 0.907112
vt 0.319090 0.913529
vt 0.360716 0.926129
vt 0.340504 0.933367
vt 0.395567 0.918942
vt 0.361263 0.911365
vt 0.339263 0.911474
vt 0.350372 0.916358
vt 0.302644 0.916324
vt 0.222236 0.005979
vt 0.192514 0.057647
vt 0.188038 0.005728
vt 0.213771 0.060379
vt 0.235027 0.063111
vt 0.211047 0.094537
vt 0.248235 0.075223
vt 0.248693 0.040726
vt 0.249152 0.006230
vt 0.256434 0.006022
vt 0.217569 0.005771
vt 0.178704 0.005520
vt 0.173864 0.030936
vt 0.159689 0.056143
vt 0.749803 0.005203
vt 0.742504 0.004996
vt 0.781385 0.005247
vt 0.750925 0.041224
vt 0.765356 0.065134
vt 0.752047 0.077245
vt 0.788429 0.097094
vt 0.785766 0.062936
vt 0.776709 0.005455
vt 0.806176 0.060739
vt 0.810914 0.005706
vt 0.824975 0.032471
vt 0.820266 0.005498
vt 0.839036 0.059236
vt 0.372768 0.368304
vt 0.035714 0.758929
vt 0.037946 0.234375
vt 0.372768 0.609375
vt 0.645089 0.368304
vt 0.642857 0.609375
vt 0.959821 0.196429
vt 0.957589 0.756696
vt 0.513393 0.982143
vt 0.524554 0.013393
vt 0.021000 0.803500
vt 0.062500 0.803125
vt 0.031250 0.806250
vt 0.031711 0.808179
vt 0.888021 0.892448
vt 0.542411 0.844643
vt 0.890625 0.845536
vt 0.546875 0.892411
vt 0.546875 0.910045
vt 0.207589 0.892634
vt 0.207589 0.910714
vt 0.212500 0.927500
vt 0.546875 0.929018
vt 0.888393 0.928795
vt 0.888393 0.909821
vt 0.209821 0.845312
vt 1.052440 0.829558
vt 0.912751 0.829117
vt 1.046120 0.750000
vt 0.779380 0.908234
vt 1.058760 0.909116
vt 0.500001 0.965278
vt 0.500001 0.908328
vt 0.639691 0.829283
vt 0.500001 0.829330
vt 0.500001 0.750332
vt 0.360312 0.829531
vt -0.046120 0.750000
vt 0.087251 0.829365
vt -0.052438 0.829558
vt 0.220622 0.908730
vt -0.058757 0.909116
vt 0.500000 0.059011
vt 0.543409 0.018581
vt 0.556410 0.048515
vt 0.500000 0.028475
vt 0.443590 0.048515
vt 0.456590 0.018581
vt 0.500000 0.051417
vt 0.456590 0.058968
vt 0.443590 0.087670
vt 0.500000 0.083557
vt 0.331774 0.171698
vt 0.500000 0.170110
vt 0.668226 0.171698
vt 0.580447 0.000003
vt 0.500885 0.032278
vt 0.419554 -0.000000
vt 0.500993 0.000000
vt 0.419554 0.041152
vt 0.543409 0.058968
vt 0.580447 0.041155
vt 0.556410 0.087670
vt 0.668226 0.136149
vt 0.500000 0.146145
vt 0.869965 0.308488
vt 0.500000 0.314373
vt 0.500000 0.512449
vt 0.130035 0.308488
vt 0.000000 0.510449
vt 0.050854 0.711506
vt 0.500000 0.709205
vt 0.500000 0.866481
vt 0.949146 0.711505
vt 0.728889 0.871243
vt 0.614444 0.935621
vt 0.500000 1.000000
vt 0.385556 0.935622
vt 0.271111 0.871243
vt 1.000000 0.510449
vt 0.331774 0.136149
vt 0.130035 0.336945
vt 0.500000 0.337060
vt 0.500000 0.531341
vt 0.869965 0.336945
vt 1.000000 0.530595
vt 0.949146 0.723378
vt 0.500000 0.724822
vt 0.500000 0.878385
vt 0.050854 0.723378
vt 0.271111 0.876542
vt 0.385556 0.938271
vt 0.614444 0.938271
vt 0.728889 0.876541
vt 0.000000 0.530595
usemtl mat_0
s 1
f 157/1 96/2 97/3
f 157/1 158/4 96/2
f 168/5 158/4 157/1
f 168/5 169/6 158/4
f 58/7 70/8 71/9
f 61/10 58/7 71/9
f 160/11 161/12 172/13
f 175/14 160/11 172/13
f 230/15 187/16 181/17
f 226/18 230/15 181/17
f 195/19 193/20 199/21
f 192/22 195/19 199/21
f 239/23 235/24 234/25
f 240/26 239/23 234/25
f 190/27 227/28 188/29
f 190/27 223/30 227/28
f 183/31 223/30 190/27
f 183/31 224/32 223/30
f 227/28 223/30 100/33
f 102/34 227/28 100/33
f 168/5 157/1 162/35
f 174/36 168/5 162/35
f 25/37 18/38 20/39
f 25/37 19/40 18/38
f 24/41 19/40 25/37
f 40/42 47/43 41/44
f 40/42 46/45 47/43
f 43/46 46/45 40/42
f 98/47 157/1 97/3
f 98/47 162/35 157/1
f 163/48 162/35 98/47
f 163/48 174/36 162/35
f 170/49 174/36 163/48
f 170/49 239/23 174/36
f 235/24 239/23 170/49
f 170/49 175/14 235/24
f 160/11 175/14 170/49
f 170/49 159/50 160/11
f 165/51 159/50 170/49
f 170/49 163/48 165/51
f 101/52 160/11 159/50
f 101/52 161/12 160/11
f 172/13 235/24 175/14
f 172/13 234/25 235/24
f 171/53 234/25 172/13
f 171/53 245/54 234/25
f 176/55 245/54 171/53
f 171/53 167/56 176/55
f 161/12 167/56 171/53
f 171/53 172/13 161/12
f 178/57 176/55 167/56
f 246/58 234/25 245/54
f 246/58 240/26 234/25
f 236/59 240/26 246/58
f 236/59 238/60 240/26
f 237/61 238/60 236/59
f 237/61 179/62 238/60
f 178/57 179/62 237/61
f 178/57 166/63 179/62
f 167/64 166/63 178/57
f 167/64 106/64 166/63
f 239/23 168/5 174/36
f 239/23 240/26 168/5
f 169/6 168/5 240/26
f 240/26 173/65 169/6
f 238/60 173/65 240/26
f 238/60 179/62 173/65
f 166/63 173/65 179/62
f 166/63 164/66 173/65
f 103/67 164/66 166/63
f 103/67 158/4 164/66
f 96/2 158/4 103/67
f 164/66 169/6 173/65
f 164/66 158/4 169/6
f 223/30 99/68 100/33
f 223/30 224/32 99/68
f 225/69 99/68 224/32
f 224/32 183/31 225/69
f 182/70 225/69 183/31
f 182/70 229/71 225/69
f 228/72 229/71 182/70
f 182/70 230/15 228/72
f 187/16 230/15 182/70
f 182/70 195/19 187/16
f 193/20 195/19 182/70
f 182/70 183/31 193/20
f 190/27 193/20 183/31
f 190/27 199/21 193/20
f 188/29 199/21 190/27
f 188/29 189/73 199/21
f 231/74 189/73 188/29
f 231/74 232/75 189/73
f 105/76 232/75 231/74
f 231/74 227/28 105/76
f 188/29 227/28 231/74
f 227/28 102/34 105/76
f 230/15 104/77 228/72
f 230/15 226/18 104/77
f 186/78 189/73 232/75
f 186/78 209/79 189/73
f 194/80 209/79 186/78
f 194/80 205/81 209/79
f 199/21 209/79 205/81
f 199/21 189/73 209/79
f 186/78 184/82 194/80
f 186/78 232/64 184/82
f 233/83 184/82 232/64
f 233/83 191/84 184/82
f 180/85 191/84 233/83
f 180/85 200/86 191/84
f 192/22 200/86 180/85
f 192/22 201/87 200/86
f 199/21 201/87 192/22
f 199/21 205/81 201/87
f 232/64 154/64 233/83
f 226/18 180/85 233/83
f 226/18 181/17 180/85
f 192/22 180/85 181/17
f 181/17 195/19 192/22
f 187/16 195/19 181/17
f 58/7 73/88 70/8
f 58/7 62/89 73/88
f 12/90 62/89 58/7
f 12/90 8/91 62/89
f 22/92 62/89 8/91
f 22/92 56/93 62/89
f 21/94 56/93 22/92
f 21/94 55/95 56/93
f 57/96 55/95 21/94
f 57/96 76/97 55/95
f 68/98 76/97 57/96
f 57/96 54/99 68/98
f 21/94 54/99 57/96
f 21/94 18/38 54/99
f 17/100 18/38 21/94
f 17/100 7/101 18/38
f 20/39 18/38 7/101
f 7/101 2/102 20/39
f 23/103 20/39 2/102
f 23/103 59/104 20/39
f 63/105 59/104 23/103
f 63/105 79/106 59/104
f 72/107 79/106 63/105
f 63/105 60/108 72/107
f 23/103 60/108 63/105
f 23/103 1/109 60/108
f 2/102 1/109 23/103
f 54/99 67/110 68/98
f 54/99 51/111 67/110
f 18/38 51/111 54/99
f 18/38 19/40 51/111
f 65/112 51/111 19/40
f 65/112 75/113 51/111
f 66/114 75/113 65/112
f 66/114 77/115 75/113
f 64/116 77/115 66/114
f 64/116 74/117 77/115
f 53/118 74/117 64/116
f 53/118 69/119 74/117
f 52/120 69/119 53/118
f 52/120 59/104 69/119
f 20/39 59/104 52/120
f 52/120 53/118 20/39
f 25/37 20/39 53/118
f 53/118 64/116 25/37
f 24/41 25/37 64/116
f 64/116 66/114 24/41
f 65/112 24/41 66/114
f 65/112 19/40 24/41
f 59/104 79/106 69/119
f 75/113 67/110 51/111
f 21/94 9/121 17/100
f 21/94 22/92 9/121
f 8/91 9/121 22/92
f 58/7 10/122 12/90
f 58/7 61/10 10/122
f 1/109 10/122 61/10
f 60/10 1/108 61/109
f 72/107 60/108 61/10
f 61/10 71/9 72/107
f 62/89 78/123 73/88
f 62/89 56/93 78/123
f 55/95 78/123 56/93
f 55/95 76/97 78/123
f 3/124 1/125 2/126
f 2/124 7/127 3/125
f 16/128 3/125 7/127
f 7/127 13/129 16/128
f 14/130 13/129 7/127
f 14/130 4/131 13/129
f 9/132 4/131 14/130
f 9/132 8/133 4/131
f 5/134 4/131 8/133
f 5/134 6/135 4/131
f 11/136 6/135 5/134
f 11/136 3/125 6/135
f 1/126 3/125 11/136
f 10/136 1/137 11/126
f 5/134 10/137 11/136
f 5/134 12/138 10/137
f 8/133 12/138 5/134
f 6/135 13/129 4/131
f 6/135 15/128 13/129
f 3/125 15/128 6/135
f 14/130 17/139 9/132
f 14/130 7/127 17/139
f 27/140 28/141 26/142
f 27/140 31/143 28/141
f 50/144 31/143 27/140
f 50/144 42/145 31/143
f 34/146 31/143 42/145
f 34/146 30/147 31/143
f 37/148 30/147 34/146
f 37/148 48/149 30/147
f 29/150 30/147 48/149
f 29/150 28/141 30/147
f 26/142 28/141 29/150
f 29/150 35/151 26/142
f 45/152 35/151 29/150
f 29/150 49/149 45/152
f 37/148 45/152 49/149
f 37/148 33/153 45/152
f 34/146 33/153 37/148
f 34/146 32/154 33/153
f 42/145 32/154 34/146
f 28/141 31/143 30/147
f 36/155 33/153 32/154
f 36/155 45/152 33/153
f 41/44 81/156 40/42
f 41/44 95/157 81/156
f 87/158 95/157 41/44
f 87/158 210/159 95/157
f 88/160 210/159 87/158
f 88/160 222/161 210/159
f 83/162 222/161 88/160
f 83/162 215/163 222/161
f 82/164 215/163 83/162
f 82/164 216/165 215/163
f 94/166 216/165 82/164
f 94/166 219/167 216/165
f 80/168 219/167 94/166
f 80/168 84/169 219/167
f 39/170 84/169 80/168
f 39/170 42/171 84/169
f 32/172 42/171 39/170
f 39/170 38/173 32/172
f 80/168 38/173 39/170
f 80/168 94/166 38/173
f 82/164 38/173 94/166
f 82/164 83/162 38/173
f 46/45 38/173 83/162
f 46/45 36/174 38/173
f 45/175 36/174 46/45
f 46/45 43/46 45/175
f 35/176 45/175 43/46
f 43/46 44/177 35/176
f 92/178 44/177 43/46
f 92/178 90/179 44/177
f 221/180 90/179 92/178
f 221/180 212/181 90/179
f 89/182 90/179 212/181
f 89/182 44/177 90/179
f 26/183 44/177 89/182
f 26/183 35/176 44/177
f 36/174 32/172 38/173
f 88/160 46/45 83/162
f 88/160 47/43 46/45
f 87/158 47/43 88/160
f 87/158 41/44 47/43
f 84/169 211/184 219/167
f 84/169 86/185 211/184
f 50/186 86/185 84/169
f 50/186 27/187 86/185
f 85/188 86/185 27/187
f 85/188 220/189 86/185
f 212/181 220/189 85/188
f 85/188 89/182 212/181
f 26/183 89/182 85/188
f 85/188 27/187 26/183
f 84/169 42/171 50/186
f 86/185 213/190 211/184
f 86/185 220/189 213/190
f 92/178 214/191 221/180
f 92/178 91/192 214/191
f 43/46 91/192 92/178
f 43/46 93/193 91/192
f 40/42 93/193 43/46
f 40/42 81/156 93/193
f 217/194 93/193 81/156
f 217/194 214/191 93/193
f 91/192 93/193 214/191
f 81/156 218/195 217/194
f 81/156 95/157 218/195
f 210/159 218/195 95/157
f 243/196 241/197 242/198
f 243/196 251/199 241/197
f 250/200 251/199 243/196
f 250/200 177/201 251/199
f 176/202 177/201 250/200
f 250/200 249/203 176/202
f 247/204 249/203 250/200
f 247/204 245/205 249/203
f 246/206 245/205 247/204
f 247/204 244/196 246/206
f 242/198 246/206 244/196
f 242/198 236/207 246/206
f 248/208 236/207 242/198
f 248/208 237/209 236/207
f 241/197 237/209 248/208
f 241/197 177/201 237/209
f 251/199 177/201 241/197
f 245/205 176/202 249/203
f 250/200 243/196 247/204
f 248/208 242/198 241/197
f 198/210 200/211 201/212
f 198/210 197/213 200/211
f 196/214 197/213 198/210
f 196/214 191/215 197/213
f 185/216 191/215 196/214
f 196/214 208/217 185/216
f 206/218 208/217 196/214
f 206/218 202/219 208/217
f 203/220 202/219 206/218
f 203/220 204/221 202/219
f 205/222 204/221 203/220
f 205/222 194/223 204/221
f 202/219 204/221 194/223
f 194/223 185/216 202/219
f 208/217 202/219 185/216
f 197/213 191/215 200/211
f 198/210 206/218 196/214
f 203/220 201/212 205/222
f 203/220 207/218 201/212
f 198/210 201/212 207/218
usemtl mat_1
f 253/224 256/225 257/226
f 253/224 255/227 256/225
f 252/228 255/227 253/224
f 252/228 259/229 255/227
f 261/230 259/229 252/228
f 261/230 260/231 259/229
f 263/228 266/231 267/230
f 263/228 265/229 266/231
f 262/224 265/229 263/228
f 262/224 269/227 265/229
f 271/226 269/227 262/224
f 271/226 270/225 269/227
f 273/224 276/225 277/226
f 273/224 275/227 276/225
f 272/228 275/227 273/224
f 272/228 279/229 275/227
f 281/230 279/229 272/228
f 281/230 280/231 279/229
f 283/228 286/231 287/230
f 283/228 285/229 286/231
f 282/224 285/229 283/228
f 282/224 289/227 285/229
f 291/226 289/227 282/224
f 291/226 290/225 289/227
f 293/224 296/225 297/226
f 293/224 295/227 296/225
f 292/228 295/227 293/224
f 292/228 299/229 295/227
f 301/230 299/229 292/228
f 301/230 300/231 299/229
f 303/224 306/231 307/230
f 303/224 305/227 306/231
f 302/228 305/227 303/224
f 302/228 309/229 305/227
f 309/227 310/225 308/232
f 311/226 310/225 309/227
f 302/224 311/226 309/227
f 303/224 307/230 304/233
f 313/228 316/231 317/230
f 313/228 315/229 316/231
f 312/224 315/229 313/228
f 312/224 319/227 315/229
f 321/226 319/227 312/224
f 321/226 320/225 319/227
f 323/228 326/231 327/230
f 323/228 325/229 326/231
f 322/224 325/229 323/228
f 322/224 329/227 325/229
f 331/226 329/227 322/224
f 331/226 330/225 329/227
f 333/224 336/225 337/226
f 333/224 335/227 336/225
f 332/228 335/227 333/224
f 332/228 339/229 335/227
f 341/230 339/229 332/228
f 341/230 340/231 339/229
f 343/228 346/231 347/230
f 343/228 345/229 346/231
f 342/224 345/229 343/228
f 342/224 349/227 345/229
f 351/226 349/227 342/224
f 351/226 350/225 349/227
f 255/227 258/232 256/225
f 255/227 259/229 258/232
f 260/231 258/232 259/229
f 252/228 254/233 261/230
f 252/228 253/224 254/233
f 257/226 254/233 253/224
f 265/229 268/232 266/231
f 265/229 269/227 268/232
f 270/225 268/232 269/227
f 262/224 264/233 271/226
f 262/224 263/228 264/233
f 267/230 264/233 263/228
f 275/227 278/232 276/225
f 275/227 279/229 278/232
f 280/231 278/232 279/229
f 272/228 274/233 281/230
f 272/228 273/224 274/233
f 277/226 274/233 273/224
f 285/229 288/232 286/231
f 285/229 289/227 288/232
f 290/225 288/232 289/227
f 282/224 284/233 291/226
f 282/224 283/228 284/233
f 287/230 284/233 283/228
f 295/227 298/232 296/225
f 295/227 299/229 298/232
f 300/231 298/232 299/229
f 292/228 294/233 301/230
f 292/228 293/224 294/233
f 297/226 294/233 293/224
f 304/233 302/224 303/228
f 304/233 311/226 302/224
f 305/227 308/232 306/231
f 305/227 309/229 308/232
f 315/229 318/232 316/231
f 315/229 319/227 318/232
f 320/225 318/232 319/227
f 312/224 314/233 321/226
f 312/224 313/228 314/233
f 317/230 314/233 313/228
f 325/229 328/232 326/231
f 325/229 329/227 328/232
f 330/225 328/232 329/227
f 322/224 324/233 331/226
f 322/224 323/228 324/233
f 327/230 324/233 323/228
f 335/227 338/232 336/225
f 335/227 339/229 338/232
f 340/231 338/232 339/229
f 332/228 334/233 341/230
f 332/228 333/224 334/233
f 337/226 334/233 333/224
f 345/229 348/232 346/231
f 345/229 349/227 348/232
f 350/225 348/232 349/227
f 342/224 344/233 351/226
f 342/224 343/228 344/233
f 347/230 344/233 343/228
usemtl mat_2
f 373/234 353/234 372/234
f 373/234 354/234 353/234
f 422/234 354/234 373/234
f 422/234 357/234 354/234
f 635/234 354/234 357/234
f 635/234 636/234 354/234
f 126/234 636/234 635/234
f 126/234 96/234 636/234
f 124/234 96/234 126/234
f 124/234 97/234 96/234
f 122/234 97/234 124/234
f 122/234 111/234 97/234
f 638/234 359/234 637/234
f 638/234 360/234 359/234
f 646/234 360/234 638/234
f 646/234 371/234 360/234
f 645/234 371/234 646/234
f 645/234 368/234 371/234
f 644/234 368/234 645/234
f 644/234 367/234 368/234
f 362/234 382/234 361/234
f 362/234 383/234 382/234
f 366/234 383/234 362/234
f 366/234 398/234 383/234
f 640/234 366/234 362/234
f 640/234 641/234 366/234
f 102/234 641/234 640/234
f 102/234 132/234 641/234
f 100/234 132/234 102/234
f 100/234 131/234 132/234
f 153/234 131/234 100/234
f 153/234 129/234 131/234
f 385/234 367/234 384/234
f 385/234 368/234 367/234
f 397/234 368/234 385/234
f 397/234 371/234 368/234
f 421/234 371/234 397/234
f 421/234 360/234 371/234
f 375/234 360/234 421/234
f 375/234 359/234 360/234
f 110/235 432/235 109/235
f 110/235 433/235 432/235
f 149/235 433/235 110/235
f 149/235 442/235 433/235
f 118/235 442/235 149/235
f 118/235 434/235 442/235
f 97/234 111/234 98/234
f 376/234 388/234 377/234
f 376/234 389/234 388/234
f 69/234 389/234 376/234
f 69/234 427/234 389/234
f 385/234 396/234 397/234
f 385/234 395/234 396/234
f 384/234 395/234 385/234
f 384/234 77/234 395/234
f 111/234 116/234 117/234
f 98/234 111/234 117/234
f 121/234 153/234 99/234
f 120/234 121/234 99/234
f 401/234 399/234 400/234
f 401/234 402/234 399/234
f 413/234 402/234 401/234
f 413/234 431/234 402/234
f 417/234 431/234 413/234
f 417/234 416/234 431/234
f 414/234 416/234 417/234
f 414/234 415/234 416/234
f 423/234 415/234 414/234
f 423/234 430/234 415/234
f 411/234 430/234 423/234
f 411/234 352/234 430/234
f 409/234 352/234 411/234
f 409/234 410/234 352/234
f 404/234 410/234 409/234
f 404/234 403/234 410/234
f 383/234 403/234 404/234
f 383/234 398/234 403/234
f 421/234 218/234 375/234
f 421/234 420/234 218/234
f 397/234 420/234 421/234
f 397/234 396/234 420/234
f 373/234 400/234 399/234
f 422/234 373/234 399/234
f 407/234 377/234 388/234
f 407/234 424/234 377/234
f 393/234 424/234 407/234
f 393/234 214/234 424/234
f 77/234 74/234 429/234
f 395/234 77/234 429/234
f 124/234 123/234 122/234
f 124/234 125/234 123/234
f 126/234 125/234 124/234
f 126/234 642/234 125/234
f 642/234 127/234 125/234
f 642/234 370/234 127/234
f 358/234 370/234 642/234
f 358/234 355/234 370/234
f 440/235 438/235 439/235
f 440/235 441/235 438/235
f 449/235 441/235 440/235
f 449/235 448/235 441/235
f 447/235 448/235 449/235
f 447/235 434/235 448/235
f 443/235 434/235 447/235
f 443/235 442/235 434/235
f 444/235 442/235 443/235
f 444/235 433/235 442/235
f 446/235 433/235 444/235
f 446/235 432/235 433/235
f 452/235 432/235 446/235
f 452/235 450/235 432/235
f 439/235 450/235 452/235
f 439/235 438/235 450/235
f 130/234 129/234 128/234
f 130/234 131/234 129/234
f 643/234 131/234 130/234
f 643/234 132/234 131/234
f 404/234 409/234 76/234
f 68/234 404/234 76/234
f 134/234 645/234 646/234
f 134/234 135/234 645/234
f 114/234 135/234 134/234
f 114/234 113/234 135/234
f 136/234 637/234 106/234
f 136/234 638/234 637/234
f 134/234 638/234 136/234
f 134/234 646/234 638/234
f 138/234 228/234 104/234
f 138/234 139/234 228/234
f 101/234 139/234 138/234
f 101/234 159/234 139/234
f 73/234 78/234 411/234
f 423/234 73/234 411/234
f 219/234 211/234 417/234
f 413/234 219/234 417/234
f 401/234 400/234 215/234
f 216/234 401/234 215/234
f 634/234 108/234 127/234
f 370/234 634/234 127/234
f 648/234 146/234 639/234
f 648/234 148/234 146/234
f 643/234 148/234 648/234
f 643/234 130/234 148/234
f 150/235 448/235 119/235
f 150/235 441/235 448/235
f 151/235 441/235 150/235
f 151/235 438/235 441/235
f 152/235 109/235 432/235
f 450/235 152/235 432/235
f 456/236 454/236 455/236
f 456/236 453/236 454/236
f 543/236 453/236 456/236
f 543/236 562/237 453/236
f 546/236 562/237 543/236
f 546/236 537/236 562/237
f 545/236 537/236 546/236
f 545/236 538/236 537/236
f 460/236 458/236 459/236
f 460/236 457/236 458/236
f 555/236 457/236 460/236
f 555/236 510/236 457/236
f 483/236 510/236 555/236
f 483/236 547/236 510/236
f 574/236 547/236 483/236
f 574/236 576/236 547/236
f 399/236 576/236 574/236
f 399/236 402/236 576/236
f 465/236 464/236 463/236
f 465/236 466/236 464/236
f 467/236 466/236 465/236
f 467/236 468/236 466/236
f 570/236 390/236 418/236
f 570/236 569/236 390/236
f 497/236 569/236 570/236
f 497/236 512/236 569/236
f 523/236 512/236 497/236
f 523/236 524/236 512/236
f 525/236 524/236 523/236
f 525/236 527/236 524/236
f 505/236 527/236 525/236
f 505/236 526/236 527/236
f 569/236 391/236 390/236
f 569/236 573/236 391/236
f 512/236 573/236 569/236
f 512/236 556/236 573/236
f 524/236 556/236 512/236
f 524/236 554/236 556/236
f 527/236 554/236 524/236
f 527/236 529/236 554/236
f 526/236 529/236 527/236
f 526/236 530/236 529/236
f 483/236 419/236 574/236
f 483/236 575/236 419/236
f 555/236 575/236 483/236
f 555/236 480/236 575/236
f 486/236 415/236 485/236
f 486/236 416/236 415/236
f 567/236 416/236 486/236
f 567/236 431/236 416/236
f 576/236 431/236 567/236
f 576/236 402/236 431/236
f 577/236 410/236 403/236
f 577/236 578/236 410/236
f 496/236 578/236 577/236
f 496/236 557/236 578/236
f 455/236 557/236 496/236
f 455/236 454/236 557/236
f 352/236 476/236 430/236
f 352/236 566/236 476/236
f 410/236 566/236 352/236
f 410/236 578/236 566/236
f 430/236 476/236 485/236
f 415/236 430/236 485/236
f 571/236 577/236 426/236
f 571/236 496/236 577/236
f 482/236 496/236 571/236
f 482/236 455/236 496/236
f 497/236 570/236 568/236
f 481/236 497/236 568/236
f 501/236 499/236 500/236
f 501/236 502/236 499/236
f 513/236 502/236 501/236
f 513/236 514/236 502/236
f 508/236 507/236 458/236
f 508/236 509/236 507/236
f 561/236 509/236 508/236
f 561/236 514/236 509/236
f 560/236 514/236 561/236
f 560/236 502/236 514/236
f 559/237 502/236 560/236
f 559/237 499/236 502/236
f 558/236 499/236 559/237
f 558/236 539/236 499/236
f 562/237 539/236 558/236
f 562/237 537/236 539/236
f 503/236 507/236 493/236
f 503/236 511/236 507/236
f 504/236 511/236 503/236
f 504/236 564/236 511/236
f 515/236 463/236 490/236
f 515/236 465/236 463/236
f 498/236 465/236 515/236
f 498/236 467/236 465/236
f 519/236 517/236 518/236
f 519/236 516/236 517/236
f 545/236 516/236 519/236
f 545/236 531/236 516/236
f 546/236 531/236 545/236
f 546/236 544/236 531/236
f 543/236 544/236 546/236
f 543/236 541/236 544/236
f 528/236 530/236 531/236
f 528/236 529/236 530/236
f 540/236 529/236 528/236
f 540/236 554/236 529/236
f 535/236 533/236 534/236
f 535/236 536/236 533/236
f 494/236 536/236 535/236
f 494/236 548/236 536/236
f 520/236 534/236 518/236
f 520/236 535/236 534/236
f 495/236 535/236 520/236
f 495/236 494/236 535/236
f 540/236 482/236 542/236
f 540/236 541/236 482/236
f 528/236 541/236 540/236
f 528/236 544/236 541/236
f 576/236 567/236 474/236
f 547/236 576/236 474/236
f 501/236 548/236 513/236
f 501/236 536/236 548/236
f 500/236 536/236 501/236
f 500/236 533/236 536/236
f 492/236 504/236 503/236
f 492/236 553/236 504/236
f 495/236 553/236 492/236
f 495/236 552/236 553/236
f 471/236 566/236 578/236
f 557/236 471/236 578/236
f 560/236 468/236 559/236
f 560/236 466/236 468/236
f 561/236 466/236 560/236
f 561/236 464/236 466/236
f 556/236 542/236 572/236
f 573/236 556/236 572/236
f 563/236 481/236 480/236
f 563/236 522/236 481/236
f 564/236 522/236 563/236
f 564/236 506/236 522/236
f 99/234 153/234 100/234
f 154/234 644/234 645/234
f 135/234 154/234 645/234
f 528/236 531/236 544/236
f 523/236 522/236 506/236
f 525/236 523/236 506/236
f 511/236 458/236 507/236
f 511/236 459/236 458/236
f 564/236 459/236 511/236
f 564/236 563/236 459/236
f 114/234 134/234 136/234
f 133/234 114/234 136/234
f 401/234 219/234 413/234
f 401/234 216/234 219/234
f 119/235 434/235 118/235
f 119/235 448/235 434/235
f 366/234 426/236 398/234
f 366/234 387/236 426/236
f 571/236 426/236 387/236
f 387/236 572/236 571/236
f 391/236 572/236 387/236
f 391/236 573/236 572/236
f 572/236 482/236 571/236
f 572/236 542/236 482/236
f 117/234 163/234 98/234
f 117/234 165/234 163/234
f 116/234 165/234 117/234
f 116/234 140/234 165/234
f 156/234 140/234 116/234
f 156/234 143/234 140/234
f 150/234 143/234 156/234
f 150/234 155/234 143/234
f 121/234 155/234 150/234
f 121/234 142/234 155/234
f 229/234 142/234 121/234
f 229/234 228/234 142/234
f 139/234 142/234 228/234
f 139/234 141/234 142/234
f 140/234 141/234 139/234
f 140/234 143/234 141/234
f 142/234 141/234 143/234
f 143/234 155/234 142/234
f 116/234 150/234 156/234
f 116/234 151/234 150/234
f 152/234 151/234 116/234
f 116/234 123/234 152/234
f 122/234 123/234 116/234
f 116/234 111/234 122/234
f 120/234 229/234 121/234
f 120/234 225/234 229/234
f 99/234 225/234 120/234
f 140/234 159/234 165/234
f 140/234 139/234 159/234
f 119/234 121/234 150/234
f 119/234 118/234 121/234
f 128/234 121/234 118/234
f 128/234 129/234 121/234
f 153/234 121/234 129/234
f 635/234 642/234 126/234
f 635/234 357/234 642/234
f 358/234 642/234 357/234
f 357/234 374/234 358/234
f 419/236 374/234 357/234
f 357/234 422/236 419/236
f 574/236 419/236 422/236
f 422/236 399/236 574/236
f 374/234 355/234 358/234
f 374/234 418/234 355/234
f 356/234 355/234 418/234
f 356/234 634/234 355/234
f 365/234 634/234 356/234
f 365/234 647/234 634/234
f 639/234 647/234 365/234
f 639/234 107/234 647/234
f 146/234 107/234 639/234
f 146/234 145/234 107/234
f 147/234 145/234 146/234
f 147/234 110/234 145/234
f 149/234 110/234 147/234
f 147/234 118/234 149/234
f 128/234 118/234 147/234
f 147/234 148/234 128/234
f 146/234 148/234 147/234
f 148/234 130/234 128/234
f 634/234 370/234 355/234
f 418/234 365/234 356/234
f 418/234 390/234 365/234
f 391/234 365/234 390/234
f 391/234 363/234 365/234
f 364/234 363/234 391/234
f 364/234 639/234 363/234
f 648/234 639/234 364/234
f 364/234 369/234 648/234
f 387/234 369/234 364/234
f 387/234 366/234 369/234
f 643/234 369/234 366/234
f 643/234 648/234 369/234
f 365/234 363/234 639/234
f 364/234 391/234 387/234
f 107/234 634/234 647/234
f 107/234 108/234 634/234
f 145/234 108/234 107/234
f 145/234 144/234 108/234
f 110/234 144/234 145/234
f 110/234 109/234 144/234
f 152/234 144/234 109/234
f 152/234 123/234 144/234
f 127/234 144/234 123/234
f 127/234 108/234 144/234
f 123/234 125/234 127/234
f 641/234 643/234 366/234
f 641/234 132/234 643/234
f 409/234 78/234 76/234
f 409/234 411/234 78/234
f 69/234 429/234 74/234
f 69/234 376/234 429/234
f 378/234 429/234 376/234
f 378/234 395/234 429/234
f 396/234 395/234 378/234
f 378/234 420/234 396/234
f 425/234 420/234 378/234
f 425/234 217/234 420/234
f 214/234 217/234 425/234
f 425/234 424/234 214/234
f 378/234 424/234 425/234
f 378/234 377/234 424/234
f 376/234 377/234 378/234
f 217/234 218/234 420/234
f 384/234 75/234 77/234
f 384/234 382/234 75/234
f 361/234 382/234 384/234
f 384/234 367/234 361/234
f 644/234 361/234 367/234
f 644/234 650/234 361/234
f 154/234 650/234 644/234
f 154/234 105/234 650/234
f 232/234 105/234 154/234
f 382/234 67/234 75/234
f 382/234 68/234 67/234
f 383/234 68/234 382/234
f 383/234 404/234 68/234
f 103/234 636/234 96/234
f 103/234 649/234 636/234
f 106/234 649/234 103/234
f 106/234 637/234 649/234
f 353/234 649/234 637/234
f 353/234 636/234 649/234
f 354/234 636/234 353/234
f 103/234 166/234 106/234
f 359/234 353/234 637/234
f 359/234 375/234 353/234
f 372/234 353/234 375/234
f 375/234 210/234 372/234
f 218/234 210/234 375/234
f 222/234 372/234 210/234
f 222/234 215/234 372/234
f 373/234 372/234 215/234
f 215/234 400/234 373/234
f 106/234 133/234 136/234
f 106/234 167/234 133/234
f 112/234 133/234 167/234
f 112/234 114/234 133/234
f 137/234 114/234 112/234
f 137/234 115/234 114/234
f 104/234 115/234 137/234
f 104/234 226/234 115/234
f 233/234 115/234 226/234
f 233/234 113/234 115/234
f 154/234 113/234 233/234
f 154/234 135/234 113/234
f 113/234 114/234 115/234
f 161/234 112/234 167/234
f 161/234 101/234 112/234
f 137/234 112/234 101/234
f 101/234 138/234 137/234
f 104/234 137/234 138/234
f 393/234 221/234 214/234
f 393/234 212/234 221/234
f 220/234 212/234 393/234
f 393/234 392/234 220/234
f 386/234 392/234 393/234
f 386/234 379/234 392/234
f 380/234 379/234 386/234
f 380/234 381/234 379/234
f 388/234 381/234 380/234
f 388/234 389/234 381/234
f 427/234 381/234 389/234
f 427/234 394/234 381/234
f 71/234 394/234 427/234
f 71/234 70/234 394/234
f 73/234 394/234 70/234
f 73/234 412/234 394/234
f 423/234 412/234 73/234
f 423/234 405/234 412/234
f 414/234 405/234 423/234
f 414/234 406/234 405/234
f 408/234 406/234 414/234
f 408/234 379/234 406/234
f 392/234 379/234 408/234
f 408/234 428/234 392/234
f 417/234 428/234 408/234
f 417/234 211/234 428/234
f 392/234 428/234 211/234
f 211/234 213/234 392/234
f 220/234 392/234 213/234
f 408/234 414/234 417/234
f 394/234 379/234 381/234
f 394/234 405/234 379/234
f 412/234 405/234 394/234
f 405/234 406/234 379/234
f 386/234 388/234 380/234
f 386/234 407/234 388/234
f 393/234 407/234 386/234
f 427/234 72/234 71/234
f 427/234 79/234 72/234
f 69/234 79/234 427/234
f 450/235 151/235 152/235
f 450/235 438/235 151/235
f 568/236 480/236 481/236
f 568/236 575/236 480/236
f 374/236 575/236 568/236
f 374/236 419/236 575/236
f 568/236 418/236 374/236
f 568/236 570/236 418/236
f 398/236 577/236 403/236
f 398/236 426/236 577/236
f 492/236 494/236 495/236
f 492/236 493/236 494/236
f 503/236 493/236 492/236
f 493/236 548/236 494/236
f 493/236 513/236 548/236
f 509/236 513/236 493/236
f 509/236 514/236 513/236
f 509/236 493/236 507/236
f 523/236 481/236 522/236
f 523/236 497/236 481/236
f 538/236 539/236 537/236
f 538/236 500/236 539/236
f 533/236 500/236 538/236
f 538/236 534/236 533/236
f 519/236 534/236 538/236
f 519/236 518/236 534/236
f 538/236 545/236 519/236
f 539/236 500/236 499/236
f 456/236 541/236 543/236
f 456/236 482/236 541/236
f 455/236 482/236 456/236
f 530/236 516/236 531/236
f 530/236 517/236 516/236
f 532/236 517/236 530/236
f 532/236 521/236 517/236
f 550/236 521/236 532/236
f 550/236 549/236 521/236
f 551/236 549/236 550/236
f 551/236 552/236 549/236
f 505/236 552/236 551/236
f 505/236 553/236 552/236
f 504/236 553/236 505/236
f 505/236 506/236 504/236
f 525/236 506/236 505/236
f 564/236 504/236 506/236
f 532/236 551/236 550/236
f 532/236 526/236 551/236
f 530/236 526/236 532/236
f 526/236 505/236 551/236
f 495/236 549/236 552/236
f 495/236 520/236 549/236
f 521/236 549/236 520/236
f 520/236 518/236 521/236
f 517/236 521/236 518/236
f 542/236 554/236 540/236
f 542/236 556/236 554/236
f 563/236 460/236 459/236
f 563/236 480/236 460/236
f 555/236 460/236 480/236
f 361/234 640/234 362/234
f 361/234 650/234 640/234
f 105/234 640/234 650/234
f 105/234 102/234 640/234
f 454/238 471/239 557/240
f 454/238 469/241 471/239
f 470/242 469/241 454/238
f 470/242 467/243 469/241
f 468/244 467/243 470/242
f 470/242 559/245 468/244
f 558/246 559/245 470/242
f 470/242 562/247 558/246
f 453/248 562/247 470/242
f 470/242 454/238 453/248
f 467/243 471/239 469/241
f 467/243 498/249 471/239
f 474/239 510/238 547/240
f 474/239 462/241 510/238
f 463/243 462/241 474/239
f 463/243 461/242 462/241
f 464/244 461/242 463/243
f 464/244 561/245 461/242
f 508/246 461/242 561/245
f 508/246 458/247 461/242
f 457/248 461/242 458/247
f 457/248 510/238 461/242
f 462/241 461/242 510/238
f 474/239 490/249 463/243
f 471/236 472/236 566/236
f 471/236 498/236 472/236
f 477/236 472/236 498/236
f 477/236 476/236 472/236
f 566/236 472/236 476/236
f 567/236 473/236 474/236
f 567/236 486/236 473/236
f 491/236 473/236 486/236
f 491/236 490/236 473/236
f 474/236 473/236 490/236
f 443/235 435/235 444/235
f 443/235 445/235 435/235
f 447/235 445/235 443/235
f 447/235 449/235 445/235
f 451/235 445/235 449/235
f 451/235 436/235 445/235
f 437/235 436/235 451/235
f 437/235 435/235 436/235
f 446/235 435/235 437/235
f 446/235 444/235 435/235
f 445/235 436/235 435/235
f 437/235 452/235 446/235
f 437/235 439/235 452/235
f 451/235 439/235 437/235
f 451/235 440/235 439/235
f 449/235 440/235 451/235
usemtl mat_3
f 477/250 475/251 476/252
f 477/250 478/253 475/251
f 498/254 478/253 477/250
f 498/254 515/255 478/253
f 484/256 478/253 515/255
f 484/256 479/257 478/253
f 565/258 479/257 484/256
f 565/258 485/259 479/257
f 487/260 485/259 565/258
f 487/260 486/261 485/259
f 488/262 486/261 487/260
f 488/262 491/263 486/261
f 489/264 491/263 488/262
f 489/264 490/265 491/263
f 515/255 490/265 489/264
f 489/264 484/256 515/255
f 487/260 484/256 489/264
f 487/260 565/258 484/256
f 487/260 489/264 488/262
f 479/257 475/251 478/253
f 479/257 476/252 475/251
f 485/259 476/252 479/257
usemtl mat_4
f 592/266 581/267 593/268
f 592/266 583/269 581/267
f 597/270 583/269 592/266
f 597/270 590/271 583/269
f 585/272 591/273 596/274
f 595/275 585/272 596/274
f 600/276 603/277 599/278
f 595/275 600/276 599/278
f 595/275 596/274 600/276
f 583/269 579/279 581/267
f 583/269 589/280 579/279
f 583/269 586/281 588/280
f 583/269 590/271 586/281
f 591/273 584/282 587/283
f 591/273 585/272 584/282
f 582/284 584/282 585/272
f 582/284 580/285 584/282
f 585/272 594/286 582/284
f 585/272 595/275 594/286
f 599/278 594/286 595/275
f 598/287 592/266 593/268
f 598/287 602/288 592/266
f 606/289 602/288 598/287
f 606/289 609/290 602/288
f 611/291 609/290 606/289
f 611/291 605/292 609/290
f 615/293 605/292 611/291
f 611/291 617/294 615/293
f 621/295 617/294 611/291
f 621/295 622/296 617/294
f 620/297 622/296 621/295
f 620/297 625/298 622/296
f 629/299 622/296 625/298
f 629/299 633/300 622/296
f 631/301 622/296 633/300
f 631/301 627/302 622/296
f 617/294 622/296 627/302
f 611/291 620/297 621/295
f 611/291 613/303 620/297
f 606/289 613/303 611/291
f 605/292 602/288 609/290
f 605/292 601/304 602/288
f 592/266 602/288 601/304
f 601/304 597/270 592/266
f 604/305 603/277 600/276
f 604/305 608/306 603/277
f 610/307 608/306 604/305
f 610/307 607/308 608/306
f 612/309 607/308 610/307
f 610/307 619/310 612/309
f 618/311 619/310 610/307
f 618/311 623/312 619/310
f 616/313 623/312 618/311
f 616/313 626/314 623/312
f 630/315 623/312 626/314
f 630/315 632/300 623/312
f 628/316 623/312 632/300
f 628/316 624/317 623/312
f 619/310 623/312 624/317
f 610/307 616/313 618/311
f 610/307 614/318 616/313
f 604/305 614/318 610/307
f 607/308 603/277 608/306
f 607/308 599/278 603/277
