xof 0303txt 0032

template AnimTicksPerSecond {
  <9E415A43-7BA6-4a73-8743-B73D47E88476>
  DWORD AnimTicksPerSecond;
}

template XSkinMeshHeader {
  <3cf169ce-ff7c-44ab-93c0-f78f62d172e2>
  WORD nMaxSkinWeightsPerVertex;
  WORD nMaxSkinWeightsPerFace;
  WORD nBones;
}

template SkinWeights {
  <6f0d123b-bad2-4167-a0d0-80224f25fabb>
  STRING transformNodeName;
  DWORD nWeights;
  array DWORD vertexIndices[nWeights];
  array float weights[nWeights];
  Matrix4x4 matrixOffset;
}

Frame Root {
  FrameTransformMatrix {
     1.000000, 0.000000, 0.000000, 0.000000,
     0.000000, 0.000000, 1.000000, 0.000000,
     0.000000, 1.000000,-0.000000, 0.000000,
     0.000000, 0.000000, 0.000000, 1.000000;;
  }
  Frame sand_mat_0 {
    FrameTransformMatrix {
       1.000000, 0.000000, 0.000000, 0.000000,
       0.000000, 1.000000, 0.000000, 0.000000,
       0.000000, 0.000000, 1.000000, 0.000000,
       0.000000, 0.000000, 0.000000, 1.000000;;
    }
    Mesh { //Mesh Mesh
      24;
       1.211770; 0.000003;-1.792480;,
       1.780230; 0.000003; 0.000000;,
       0.945614; 1.288190;-1.255430;,
       1.780230; 0.000003; 0.000000;,
       0.822703; 1.821780; 0.000000;,
       0.945614; 1.288190;-1.255430;,
       0.822703; 1.821780; 0.000000;,
       1.780230; 0.000003; 0.000000;,
       0.945614; 1.288190; 1.255430;,
       1.780230; 0.000003; 0.000000;,
       1.211770; 0.000003; 1.792480;,
       0.945614; 1.288190; 1.255430;,
      -1.211770; 0.000003;-1.792480;,
      -0.945619; 1.288190;-1.255430;,
      -1.780230; 0.000002; 0.000000;,
      -0.945619; 1.288190;-1.255430;,
      -0.822709; 1.821780; 0.000000;,
      -1.780230; 0.000002; 0.000000;,
      -1.780230; 0.000002; 0.000000;,
      -0.822709; 1.821780; 0.000000;,
      -0.945619; 1.288190; 1.255430;,
      -0.945619; 1.288190; 1.255430;,
      -1.211770; 0.000002; 1.792480;,
      -1.780230; 0.000002; 0.000000;;
      8;
      3;0;1;2;,
      3;3;4;5;,
      3;6;7;8;,
      3;9;10;11;,
      3;12;13;14;,
      3;15;16;17;,
      3;18;19;20;,
      3;21;22;23;;
      MeshNormals { //Mesh Normals
        24;
        -0.907071;-0.307321; 0.287637;,
        -0.919706;-0.392560;-0.000000;,
        -0.898862;-0.392438; 0.194891;,
        -0.919706;-0.392560;-0.000000;,
        -0.885159;-0.465224;-0.000000;,
        -0.898862;-0.392438; 0.194891;,
        -0.885159;-0.465224;-0.000000;,
        -0.919706;-0.392560;-0.000000;,
        -0.898862;-0.392438;-0.194891;,
        -0.919706;-0.392560;-0.000000;,
        -0.907071;-0.307321;-0.287637;,
        -0.898862;-0.392438;-0.194891;,
         0.907071;-0.307321; 0.287637;,
         0.898862;-0.392438; 0.194891;,
         0.919706;-0.392560;-0.000000;,
         0.898862;-0.392438; 0.194891;,
         0.885159;-0.465224;-0.000000;,
         0.919706;-0.392560;-0.000000;,
         0.919706;-0.392560;-0.000000;,
         0.885159;-0.465224;-0.000000;,
         0.898862;-0.392438;-0.194891;,
         0.898862;-0.392438;-0.194891;,
         0.907071;-0.307321;-0.287637;,
         0.919706;-0.392560;-0.000000;;
        8;
        3;0;1;2;,
        3;3;4;5;,
        3;6;7;8;,
        3;9;10;11;,
        3;12;13;14;,
        3;15;16;17;,
        3;18;19;20;,
        3;21;22;23;;
      } //End of Mesh Normals
      MeshMaterialList { //Mesh Material List
        1;
        8;
        0,
        0,
        0,
        0,
        0,
        0,
        0,
        0;;
        Material mat_0 {
           0.640000; 0.640000; 0.640000; 1.000000;;
           92.156863;
           0.250000; 0.250000; 0.250000;;
           0.000000; 0.000000; 0.000000;;
          TextureFilename {"Textures/sand_0_0.tga";}
        }
      } //End of Mesh Material List
      MeshTextureCoords { //Mesh UV Coordinates
        24;
         1.000000; 1.000000;,
         0.500000; 0.993056;,
         0.855290; 0.295752;,
         0.500000; 0.993056;,
         0.487847;-0.010420;,
         0.855290; 0.295752;,
         0.487847;-0.010420;,
         0.500000; 0.993056;,
         0.148183; 0.295752;,
         0.500000; 0.993056;,
        -0.000000; 0.996528;,
         0.148183; 0.295752;,
         1.000000; 1.000000;,
         0.855290; 0.295752;,
         0.500000; 0.993056;,
         0.855290; 0.295752;,
         0.487847;-0.010420;,
         0.500000; 0.993056;,
         0.500000; 0.993056;,
         0.487847;-0.010420;,
         0.148183; 0.295752;,
         0.148183; 0.295752;,
        -0.000000; 0.996528;,
         0.500000; 0.993056;;
      } //End of Mesh UV Coordinates
    } //End of Mesh Mesh
  } //End of sand_mat_0
  Frame sand_mat_3 {
    FrameTransformMatrix {
       1.000000, 0.000000, 0.000000, 0.000000,
       0.000000, 1.000000, 0.000000, 0.000000,
       0.000000, 0.000000, 1.000000, 0.000000,
       0.000000, 0.000000, 0.000000, 1.000000;;
    }
    Mesh { //Mesh Mesh
      60;
      -0.000003; 0.832134;-2.016900;,
       1.211770; 0.000003;-1.792480;,
       0.945614; 1.288190;-1.255430;,
      -0.945619; 1.288190;-1.255430;,
      -1.211770; 0.000003;-1.792480;,
      -0.000003; 0.832134;-2.016900;,
      -0.000003;-0.925468;-2.052770;,
       1.348350;-1.288190;-1.279520;,
       1.211770; 0.000003;-1.792480;,
      -1.211770; 0.000003;-1.792480;,
      -1.348360;-1.288190;-1.279520;,
      -0.000003;-0.925468;-2.052770;,
      -0.000003;-2.139020;-0.858114;,
       1.356020;-1.821770; 0.000000;,
       1.348350;-1.288190;-1.279520;,
      -1.348360;-1.288190;-1.279520;,
      -1.356020;-1.821770; 0.000000;,
      -0.000003;-2.139020;-0.858114;,
      -0.000003;-0.925470; 2.052770;,
       1.211770; 0.000003; 1.792480;,
       1.348350;-1.288190; 1.279520;,
      -1.348360;-1.288190; 1.279520;,
      -1.211770; 0.000002; 1.792480;,
      -0.000003;-0.925470; 2.052770;,
       0.945614; 1.288190; 1.255430;,
       1.211770; 0.000003; 1.792480;,
      -0.000003; 0.832133; 2.016900;,
       1.211770; 0.000003; 1.792480;,
      -0.000003;-0.925470; 2.052770;,
      -0.000003; 0.832133; 2.016900;,
      -0.000003; 0.832133; 2.016900;,
      -0.000003;-0.925470; 2.052770;,
      -1.211770; 0.000002; 1.792480;,
      -1.211770; 0.000002; 1.792480;,
      -0.945619; 1.288190; 1.255430;,
      -0.000003; 0.832133; 2.016900;,
       1.211770; 0.000003;-1.792480;,
      -0.000003; 0.832134;-2.016900;,
      -0.000003;-0.925468;-2.052770;,
      -0.000003; 0.832134;-2.016900;,
      -1.211770; 0.000003;-1.792480;,
      -0.000003;-0.925468;-2.052770;,
      -0.945619; 1.288190; 1.255430;,
      -0.000003; 2.004310; 0.831384;,
      -0.000003; 0.832133; 2.016900;,
      -0.000003; 2.004310; 0.831384;,
       0.945614; 1.288190; 1.255430;,
      -0.000003; 0.832133; 2.016900;,
       1.348350;-1.288190; 1.279520;,
      -0.000003;-2.139020; 0.858112;,
      -0.000003;-0.925470; 2.052770;,
      -0.000003;-2.139020; 0.858112;,
      -1.348360;-1.288190; 1.279520;,
      -0.000003;-0.925470; 2.052770;,
       1.348350;-1.288190;-1.279520;,
      -0.000003;-0.925468;-2.052770;,
      -0.000003;-2.139020;-0.858114;,
      -0.000003;-0.925468;-2.052770;,
      -1.348360;-1.288190;-1.279520;,
      -0.000003;-2.139020;-0.858114;;
      20;
      3;0;1;2;,
      3;3;4;5;,
      3;6;7;8;,
      3;9;10;11;,
      3;12;13;14;,
      3;15;16;17;,
      3;18;19;20;,
      3;21;22;23;,
      3;24;25;26;,
      3;27;28;29;,
      3;30;31;32;,
      3;33;34;35;,
      3;36;37;38;,
      3;39;40;41;,
      3;42;43;44;,
      3;45;46;47;,
      3;48;49;50;,
      3;51;52;53;,
      3;54;55;56;,
      3;57;58;59;;
      MeshNormals { //Mesh Normals
        60;
        -0.000000;-0.250679; 0.968047;,
        -0.356151;-0.023072; 0.934111;,
        -0.436659;-0.421522; 0.794733;,
         0.436659;-0.421522; 0.794733;,
         0.356151;-0.023072; 0.934111;,
        -0.000000;-0.250679; 0.968047;,
        -0.000000; 0.372051; 0.928190;,
        -0.368664; 0.645772; 0.668569;,
        -0.356151;-0.023072; 0.934111;,
         0.356151;-0.023072; 0.934111;,
         0.368664; 0.645772; 0.668569;,
        -0.000000; 0.372051; 0.928190;,
        -0.000000; 0.816370; 0.577471;,
        -0.418470; 0.837367; 0.351695;,
        -0.368664; 0.645772; 0.668569;,
         0.368664; 0.645772; 0.668569;,
         0.418470; 0.837367; 0.351695;,
        -0.000000; 0.816370; 0.577471;,
        -0.000000; 0.372051;-0.928190;,
        -0.356151;-0.023072;-0.934111;,
        -0.321574; 0.507981;-0.799066;,
         0.321574; 0.507981;-0.799066;,
         0.356151;-0.023072;-0.934111;,
        -0.000000; 0.372051;-0.928190;,
        -0.321329;-0.581530;-0.747337;,
        -0.356151;-0.023072;-0.934111;,
        -0.000000;-0.403912;-0.914792;,
        -0.356151;-0.023072;-0.934111;,
        -0.000000; 0.372051;-0.928190;,
        -0.000000;-0.403912;-0.914792;,
        -0.000000;-0.403912;-0.914792;,
        -0.000000; 0.372051;-0.928190;,
         0.356151;-0.023072;-0.934111;,
         0.356151;-0.023072;-0.934111;,
         0.321329;-0.581530;-0.747337;,
        -0.000000;-0.403912;-0.914792;,
        -0.356151;-0.023072; 0.934111;,
        -0.000000;-0.250679; 0.968047;,
        -0.000000; 0.372051; 0.928190;,
        -0.000000;-0.250679; 0.968047;,
         0.356151;-0.023072; 0.934111;,
        -0.000000; 0.372051; 0.928190;,
         0.321329;-0.581530;-0.747337;,
        -0.000000;-0.711081;-0.703085;,
        -0.000000;-0.403912;-0.914792;,
        -0.000000;-0.711081;-0.703085;,
        -0.321329;-0.581530;-0.747337;,
        -0.000000;-0.403912;-0.914792;,
        -0.321574; 0.507981;-0.799066;,
        -0.000000; 0.701529;-0.712607;,
        -0.000000; 0.372051;-0.928190;,
        -0.000000; 0.701529;-0.712607;,
         0.321574; 0.507981;-0.799066;,
        -0.000000; 0.372051;-0.928190;,
        -0.368664; 0.645772; 0.668569;,
        -0.000000; 0.372051; 0.928190;,
        -0.000000; 0.816370; 0.577471;,
        -0.000000; 0.372051; 0.928190;,
         0.368664; 0.645772; 0.668569;,
        -0.000000; 0.816370; 0.577471;;
        20;
        3;0;1;2;,
        3;3;4;5;,
        3;6;7;8;,
        3;9;10;11;,
        3;12;13;14;,
        3;15;16;17;,
        3;18;19;20;,
        3;21;22;23;,
        3;24;25;26;,
        3;27;28;29;,
        3;30;31;32;,
        3;33;34;35;,
        3;36;37;38;,
        3;39;40;41;,
        3;42;43;44;,
        3;45;46;47;,
        3;48;49;50;,
        3;51;52;53;,
        3;54;55;56;,
        3;57;58;59;;
      } //End of Mesh Normals
      MeshMaterialList { //Mesh Material List
        1;
        20;
        0,
        0,
        0,
        0,
        0,
        0,
        0,
        0,
        0,
        0,
        0,
        0,
        0,
        0,
        0,
        0,
        0,
        0,
        0,
        0;;
        Material mat_3 {
           0.640000; 0.640000; 0.640000; 1.000000;;
           92.156863;
           0.250000; 0.250000; 0.250000;;
           0.000000; 0.000000; 0.000000;;
          TextureFilename {"Textures/sand_0_3.tga";}
        }
      } //End of Mesh Material List
      MeshTextureCoords { //Mesh UV Coordinates
        60;
         0.495624; 0.342980;,
         0.997056; 0.008194;,
         0.988117; 0.626047;,
         0.988117; 0.626047;,
         0.997056; 0.008194;,
         0.495624; 0.342980;,
         0.495624; 0.342980;,
         0.997069;-0.000660;,
         1.002560; 0.638364;,
         1.002560; 0.638364;,
         0.997069;-0.000660;,
         0.495624; 0.342980;,
         0.486695; 0.340748;,
         0.997069;-0.000660;,
         1.002560; 0.676310;,
         1.002560; 0.676310;,
         0.997069;-0.000660;,
         0.486695; 0.340748;,
         0.485356; 0.345064;,
         0.017072;-0.018300;,
         0.002079; 0.676310;,
        -0.003974; 0.658351;,
        -0.001357;-0.000660;,
         0.474195; 0.347296;,
        -0.001357;-0.000660;,
        -0.003974; 0.658351;,
         0.474195; 0.347296;,
        -0.003974; 0.658351;,
         0.469731; 1.016421;,
         0.474195; 0.347296;,
         0.474195; 0.347296;,
         0.469731; 1.016421;,
        -0.003974; 0.658351;,
        -0.003974; 0.658351;,
        -0.001357;-0.000660;,
         0.474195; 0.347296;,
         1.002560; 0.651756;,
         0.495624; 1.009873;,
         0.495624; 0.342980;,
         0.495624; 1.009873;,
         1.002560; 0.651756;,
         0.495624; 0.342980;,
        -0.000153; 0.665149;,
         0.474195; 0.318278;,
         0.469731; 1.018653;,
         0.474195; 0.318278;,
        -0.000153; 0.665149;,
         0.469731; 1.018653;,
         0.002079; 0.676310;,
         0.469731; 1.016421;,
         0.474195; 0.347296;,
         0.469731; 1.016421;,
         0.002079; 0.676310;,
         0.474195; 0.347296;,
         1.002560; 0.676310;,
         0.495624; 1.009873;,
         0.495624; 0.342980;,
         0.495624; 1.009873;,
         1.002560; 0.676310;,
         0.495624; 0.342980;;
      } //End of Mesh UV Coordinates
    } //End of Mesh Mesh
  } //End of sand_mat_3
  Frame sand_mat_1 {
    FrameTransformMatrix {
       1.000000, 0.000000, 0.000000, 0.000000,
       0.000000, 1.000000, 0.000000, 0.000000,
       0.000000, 0.000000, 1.000000, 0.000000,
       0.000000, 0.000000, 0.000000, 1.000000;;
    }
    Mesh { //Mesh Mesh
      24;
       1.211770; 0.000003;-1.792480;,
       1.348350;-1.288190;-1.279520;,
       1.780230; 0.000003; 0.000000;,
       1.348350;-1.288190;-1.279520;,
       1.356020;-1.821770; 0.000000;,
       1.780230; 0.000003; 0.000000;,
       1.348350;-1.288190; 1.279520;,
       1.780230; 0.000003; 0.000000;,
       1.356020;-1.821770; 0.000000;,
       1.348350;-1.288190; 1.279520;,
       1.211770; 0.000003; 1.792480;,
       1.780230; 0.000003; 0.000000;,
      -1.211770; 0.000003;-1.792480;,
      -1.780230; 0.000002; 0.000000;,
      -1.348360;-1.288190;-1.279520;,
      -1.780230; 0.000002; 0.000000;,
      -1.356020;-1.821770; 0.000000;,
      -1.348360;-1.288190;-1.279520;,
      -1.356020;-1.821770; 0.000000;,
      -1.780230; 0.000002; 0.000000;,
      -1.348360;-1.288190; 1.279520;,
      -1.780230; 0.000002; 0.000000;,
      -1.211770; 0.000002; 1.792480;,
      -1.348360;-1.288190; 1.279520;;
      8;
      3;0;1;2;,
      3;3;4;5;,
      3;6;7;8;,
      3;9;10;11;,
      3;12;13;14;,
      3;15;16;17;,
      3;18;19;20;,
      3;21;22;23;;
      MeshNormals { //Mesh Normals
        24;
        -0.953032; 0.019288; 0.302225;,
        -0.971252; 0.123508; 0.203436;,
        -0.991974; 0.126286;-0.000000;,
        -0.971252; 0.123508; 0.203436;,
        -0.973937; 0.226783;-0.000000;,
        -0.991974; 0.126286;-0.000000;,
        -0.971252; 0.123508;-0.203436;,
        -0.991974; 0.126286;-0.000000;,
        -0.973937; 0.226783;-0.000000;,
        -0.971252; 0.123508;-0.203436;,
        -0.953032; 0.019288;-0.302225;,
        -0.991974; 0.126286;-0.000000;,
         0.953032; 0.019288; 0.302225;,
         0.991974; 0.126286;-0.000000;,
         0.971252; 0.123508; 0.203436;,
         0.991974; 0.126286;-0.000000;,
         0.973937; 0.226783;-0.000000;,
         0.971252; 0.123508; 0.203436;,
         0.973937; 0.226783;-0.000000;,
         0.991974; 0.126286;-0.000000;,
         0.971252; 0.123508;-0.203436;,
         0.991974; 0.126286;-0.000000;,
         0.953032; 0.019288;-0.302225;,
         0.971252; 0.123508;-0.203436;;
        8;
        3;0;1;2;,
        3;3;4;5;,
        3;6;7;8;,
        3;9;10;11;,
        3;12;13;14;,
        3;15;16;17;,
        3;18;19;20;,
        3;21;22;23;;
      } //End of Mesh Normals
      MeshMaterialList { //Mesh Material List
        1;
        8;
        0,
        0,
        0,
        0,
        0,
        0,
        0,
        0;;
        Material mat_1 {
           0.640000; 0.640000; 0.640000; 1.000000;;
           92.156863;
           0.250000; 0.250000; 0.250000;;
           0.000000; 0.000000; 0.000000;;
          TextureFilename {"Textures/sand_0_1.tga";}
        }
      } //End of Mesh Material List
      MeshTextureCoords { //Mesh UV Coordinates
        24;
         1.005200; 0.004185;,
         0.858250; 0.706458;,
         0.503472; 0.004185;,
         0.858250; 0.706458;,
         0.503472; 0.997349;,
         0.503472; 0.004185;,
         0.148694; 0.706458;,
         0.503472; 0.004185;,
         0.503472; 0.997349;,
         0.148694; 0.706458;,
         0.001741; 0.004185;,
         0.503472; 0.004185;,
         1.005200; 0.004185;,
         0.503472; 0.004185;,
         0.858250; 0.706458;,
         0.503472; 0.004185;,
         0.503472; 0.997349;,
         0.858250; 0.706458;,
         0.503472; 0.997349;,
         0.503472; 0.004185;,
         0.148694; 0.706458;,
         0.503472; 0.004185;,
         0.001741; 0.004185;,
         0.148694; 0.706458;;
      } //End of Mesh UV Coordinates
    } //End of Mesh Mesh
  } //End of sand_mat_1
  Frame sand_mat_4 {
    FrameTransformMatrix {
       1.000000, 0.000000, 0.000000, 0.000000,
       0.000000, 1.000000, 0.000000, 0.000000,
       0.000000, 0.000000, 1.000000, 0.000000,
       0.000000, 0.000000, 0.000000, 1.000000;;
    }
    Mesh { //Mesh Mesh
      12;
       1.348350;-1.288190; 1.279520;,
       1.356020;-1.821770; 0.000000;,
      -0.000003;-2.139020; 0.858112;,
       1.356020;-1.821770; 0.000000;,
      -0.000003;-2.139020;-0.858114;,
      -0.000003;-2.139020; 0.858112;,
      -1.356020;-1.821770; 0.000000;,
      -0.000003;-2.139020; 0.858112;,
      -0.000003;-2.139020;-0.858114;,
      -1.356020;-1.821770; 0.000000;,
      -1.348360;-1.288190; 1.279520;,
      -0.000003;-2.139020; 0.858112;;
      4;
      3;0;1;2;,
      3;3;4;5;,
      3;6;7;8;,
      3;9;10;11;;
      MeshNormals { //Mesh Normals
        12;
        -0.418470; 0.837367;-0.351695;,
        -0.332286; 0.925230;-0.183050;,
        -0.000000; 0.984497;-0.175268;,
        -0.332286; 0.925230;-0.183050;,
        -0.000000; 0.999969;-0.000000;,
        -0.000000; 0.984497;-0.175268;,
         0.332286; 0.925230;-0.183050;,
        -0.000000; 0.984497;-0.175268;,
        -0.000000; 0.999969;-0.000000;,
         0.332286; 0.925230;-0.183050;,
         0.418470; 0.837367;-0.351695;,
        -0.000000; 0.984497;-0.175268;;
        4;
        3;0;1;2;,
        3;3;4;5;,
        3;6;7;8;,
        3;9;10;11;;
      } //End of Mesh Normals
      MeshMaterialList { //Mesh Material List
        1;
        4;
        0,
        0,
        0,
        0;;
        Material mat_4 {
           0.640000; 0.640000; 0.640000; 1.000000;;
           92.156863;
           0.250000; 0.250000; 0.250000;;
           0.000000; 0.000000; 0.000000;;
          TextureFilename {"Textures/sand_0_4.tga";}
        }
      } //End of Mesh Material List
      MeshTextureCoords { //Mesh UV Coordinates
        12;
         0.000762; 0.005308;,
        -0.010320; 0.665179;,
         0.995536; 0.344558;,
        -0.010320; 0.665179;,
         0.995536; 1.001425;,
         0.995536; 0.344558;,
        -0.010320; 0.665179;,
         0.995536; 0.344558;,
         0.995536; 1.001425;,
        -0.010320; 0.665179;,
         0.000762; 0.005308;,
         0.995536; 0.344558;;
      } //End of Mesh UV Coordinates
    } //End of Mesh Mesh
  } //End of sand_mat_4
  Frame sand_mat_2 {
    FrameTransformMatrix {
       1.000000, 0.000000, 0.000000, 0.000000,
       0.000000, 1.000000, 0.000000, 0.000000,
       0.000000, 0.000000, 1.000000, 0.000000,
       0.000000, 0.000000, 0.000000, 1.000000;;
    }
    Mesh { //Mesh Mesh
      24;
      -0.000003; 2.004310; 0.831384;,
       0.822703; 1.821780; 0.000000;,
       0.945614; 1.288190; 1.255430;,
      -0.945619; 1.288190; 1.255430;,
      -0.822709; 1.821780; 0.000000;,
      -0.000003; 2.004310; 0.831384;,
      -0.822709; 1.821780; 0.000000;,
      -0.000003; 2.004310;-0.831382;,
      -0.000003; 2.004310; 0.831384;,
      -0.000003; 2.004310; 0.831384;,
      -0.000003; 2.004310;-0.831382;,
       0.822703; 1.821780; 0.000000;,
      -0.000003; 2.004310;-0.831382;,
       0.945614; 1.288190;-1.255430;,
       0.822703; 1.821780; 0.000000;,
      -0.000003; 0.832134;-2.016900;,
       0.945614; 1.288190;-1.255430;,
      -0.000003; 2.004310;-0.831382;,
      -0.000003; 2.004310;-0.831382;,
      -0.945619; 1.288190;-1.255430;,
      -0.000003; 0.832134;-2.016900;,
      -0.945619; 1.288190;-1.255430;,
      -0.000003; 2.004310;-0.831382;,
      -0.822709; 1.821780; 0.000000;;
      8;
      3;0;1;2;,
      3;3;4;5;,
      3;6;7;8;,
      3;9;10;11;,
      3;12;13;14;,
      3;15;16;17;,
      3;18;19;20;,
      3;21;22;23;;
      MeshNormals { //Mesh Normals
        24;
        -0.000000;-0.979675;-0.200507;,
        -0.384411;-0.923154;-0.000000;,
        -0.486221;-0.820307;-0.301035;,
         0.486221;-0.820307;-0.301035;,
         0.384411;-0.923154;-0.000000;,
        -0.000000;-0.979675;-0.200507;,
         0.384411;-0.923154;-0.000000;,
        -0.000000;-0.926145; 0.377148;,
        -0.000000;-0.979675;-0.200507;,
        -0.000000;-0.979675;-0.200507;,
        -0.000000;-0.926145; 0.377148;,
        -0.384411;-0.923154;-0.000000;,
        -0.000000;-0.926145; 0.377148;,
        -0.333628;-0.765954; 0.549486;,
        -0.384411;-0.923154;-0.000000;,
        -0.000000;-0.711081; 0.703085;,
        -0.333628;-0.765954; 0.549486;,
        -0.000000;-0.926145; 0.377148;,
        -0.000000;-0.926145; 0.377148;,
         0.333628;-0.765954; 0.549486;,
        -0.000000;-0.711081; 0.703085;,
         0.333628;-0.765954; 0.549486;,
        -0.000000;-0.926145; 0.377148;,
         0.384411;-0.923154;-0.000000;;
        8;
        3;0;1;2;,
        3;3;4;5;,
        3;6;7;8;,
        3;9;10;11;,
        3;12;13;14;,
        3;15;16;17;,
        3;18;19;20;,
        3;21;22;23;;
      } //End of Mesh Normals
      MeshMaterialList { //Mesh Material List
        1;
        8;
        0,
        0,
        0,
        0,
        0,
        0,
        0,
        0;;
        Material mat_2 {
           0.640000; 0.640000; 0.640000; 1.000000;;
           92.156863;
           0.250000; 0.250000; 0.250000;;
           0.000000; 0.000000; 0.000000;;
          TextureFilename {"Textures/sand_0_2.tga";}
        }
      } //End of Mesh Material List
      MeshTextureCoords { //Mesh UV Coordinates
        24;
         0.977479; 0.668296;,
         0.026786; 0.484305;,
         0.017857; 0.834549;,
         0.017857; 0.834549;,
         0.026786; 0.484723;,
         0.977479; 0.668296;,
         0.026786; 0.484723;,
         0.977479; 0.323472;,
         0.977479; 0.668296;,
         0.977479; 0.668296;,
         0.977479; 0.323472;,
         0.017857; 0.484723;,
         0.977479; 0.323472;,
        -0.008929; 0.150522;,
         0.017857; 0.484723;,
        -0.008929; 0.150522;,
         0.977479; 0.323472;,
         0.968551; 0.012680;,
         0.977479; 0.323472;,
        -0.008929; 0.150522;,
         0.968551; 0.012680;,
        -0.008929; 0.150522;,
         0.977479; 0.323472;,
         0.026786; 0.484723;;
      } //End of Mesh UV Coordinates
    } //End of Mesh Mesh
  } //End of sand_mat_2
} //End of Root Frame
