# Blender v2.66 (sub 1) OBJ File: 'BR_Sandshrew-Shiny01.blend'
# www.blender.org
mtllib BR_Sandshrew-Shiny01.mtl
o sand_c
v 0.945614 -1.255430 -1.288190
v 0.822703 0.000000 -1.821780
v 1.780230 0.000000 -0.000003
v -0.000003 -0.831382 -2.004310
v -0.945619 -1.255430 -1.288190
v -0.822709 0.000000 -1.821780
v -1.780230 0.000000 -0.000002
v 1.211770 -1.792480 -0.000003
v -0.000003 -2.016900 -0.832134
v -1.211770 -1.792480 -0.000003
v 1.348350 -1.279520 1.288190
v -0.000003 -2.052770 0.925468
v -1.348360 -1.279520 1.288190
v 1.356020 0.000000 1.821770
v -0.000003 -0.858114 2.139020
v -1.356020 0.000000 1.821770
v 1.348350 1.279520 1.288190
v -0.000003 0.858112 2.139020
v -1.348360 1.279520 1.288190
v 1.211770 1.792480 -0.000003
v -0.000003 2.052770 0.925470
v -1.211770 1.792480 -0.000002
v 0.945614 1.255430 -1.288190
v -0.000003 2.016900 -0.832133
v -0.945619 1.255430 -1.288190
v -0.000003 0.831384 -2.004310
vt 0.855290 0.704248
vt 0.500000 0.006944
vt 1.000000 -0.000000
vt 0.487847 1.010420
vt 0.148183 0.704248
vt -0.000000 0.003472
vt 0.503472 0.995815
vt 0.858250 0.293542
vt 1.005200 0.995815
vt 0.503472 0.002651
vt 0.148694 0.293542
vt 0.001741 0.995815
vt 0.017857 0.165451
vt 0.026786 0.515695
vt 0.977479 0.331704
vt 0.026786 0.515277
vt 0.977479 0.676528
vt 0.017857 0.515277
vt -0.008929 0.849478
vt 0.968551 0.987320
vt 0.988117 0.373953
vt 0.997056 0.991806
vt 0.495624 0.657020
vt 1.002560 0.361636
vt 0.997069 1.000660
vt 1.002560 0.323690
vt 0.486695 0.659252
vt 0.002079 0.323690
vt 0.017072 1.018300
vt 0.485356 0.654936
vt 0.474195 0.652704
vt -0.001357 1.000660
vt -0.003974 0.341649
vt 0.469731 -0.016421
vt 0.495624 -0.009873
vt 1.002560 0.348244
vt 0.469731 -0.018653
vt 0.474195 0.681722
vt -0.000153 0.334851
vt 0.995536 0.655442
vt -0.010320 0.334821
vt 0.000762 0.994692
vt 0.995536 -0.001425
usemtl mat_0
s 1
f 1/1 3/2 8/3
f 1/1 2/4 3/2
f 23/5 3/2 2/4
f 23/5 20/6 3/2
f 7/2 5/1 10/3
f 7/2 6/4 5/1
f 25/5 6/4 7/2
f 7/2 22/6 25/5
usemtl mat_1
f 3/7 11/8 8/9
f 3/7 14/10 11/8
f 17/11 14/10 3/7
f 3/7 20/12 17/11
f 13/8 7/7 10/9
f 13/8 16/10 7/7
f 19/11 7/7 16/10
f 19/11 22/12 7/7
usemtl mat_2
f 23/13 2/14 26/15
f 26/15 6/16 25/13
f 26/15 4/17 6/16
f 2/18 4/17 26/15
f 2/18 1/19 4/17
f 4/20 1/17 9/19
f 9/20 5/19 4/17
f 6/16 4/17 5/19
usemtl mat_3
f 1/21 8/22 9/23
f 9/23 10/22 5/21
f 8/24 11/25 12/23
f 12/23 13/25 10/24
f 11/26 14/25 15/27
f 15/27 16/25 13/26
f 17/28 20/29 21/30
f 21/31 22/32 19/33
f 24/31 20/33 23/32
f 24/31 21/34 20/33
f 22/33 21/34 24/31
f 24/31 25/32 22/33
f 12/23 9/35 8/36
f 12/23 10/36 9/35
f 24/37 26/38 25/39
f 24/37 23/39 26/38
f 21/31 18/34 17/28
f 21/31 19/28 18/34
f 15/23 12/35 11/26
f 15/23 13/26 12/35
usemtl mat_4
f 18/40 14/41 17/42
f 18/40 15/43 14/41
f 16/41 15/43 18/40
f 18/40 19/42 16/41
