# Blender v2.66 (sub 1) OBJ File: 'BR_Cubone.blend'
# www.blender.org
mtllib BR_Cubone.mtl
o karakara
v 0.000000 0.550519 -4.303487
v 0.000000 0.306665 -4.491830
v -0.186602 0.289661 -4.476224
v -0.156840 0.529435 -4.289991
v -0.399540 0.442614 -4.263958
v -0.437083 0.216776 -4.434306
v -0.431688 -0.067774 -4.508865
v -0.219177 -0.022738 -4.567142
v 0.000000 -0.015188 -4.587438
v -0.130394 0.745427 -4.005408
v 0.000000 0.767410 -4.022459
v 0.000000 1.035345 -3.758913
v -0.116425 1.011657 -3.736200
v -0.245162 0.916585 -3.668939
v -0.257875 0.677288 -3.973530
v -1.040426 -0.485048 -3.939048
v -0.598432 0.209389 -4.292891
v -0.633433 -0.178104 -4.414135
v -1.028467 -0.599815 -4.083497
v -1.235309 -0.884751 -3.821218
v -1.193799 -0.707271 -3.767615
v -1.181198 -0.617724 -3.334304
v -1.322430 -0.755492 -3.249042
v -1.142494 -0.372100 -2.689009
v -0.865226 0.264368 -2.909721
v -0.589648 1.685771 -2.879377
v -0.589648 1.685771 -2.879377
v -0.593931 1.687302 -2.949635
v -0.593931 1.687302 -2.949635
v -0.659923 1.493285 -2.991442
v -0.686455 1.511776 -2.810748
v -0.781818 1.105801 -2.671481
v -0.760583 1.069104 -2.879208
v -0.549704 1.664260 -3.169125
v -0.569899 1.502557 -3.181135
v -0.736115 1.025961 -2.984710
v -0.500492 1.787999 -3.146587
v -0.500492 1.787999 -3.146587
v -0.335596 1.971403 -2.914182
v -0.520448 1.686099 -2.928300
v -0.528475 1.701007 -2.891374
v -0.343866 1.989619 -2.818198
v -0.342380 1.882633 -3.044951
v -0.434084 1.792973 -3.096330
v -0.774170 0.771667 -2.962506
v -0.840898 0.738649 -2.815101
v -0.867927 0.754280 -2.685284
v -0.944676 0.366344 -2.637965
v -0.917483 0.321620 -2.753388
v -0.544413 1.118411 -3.257217
v -0.475592 0.869881 -3.376115
v -0.223684 1.330759 -3.534179
v -0.112070 1.380147 -3.591231
v 0.000000 1.397930 -3.612056
v 0.000000 1.867219 -3.527166
v -0.112759 1.853131 -3.509771
v -0.222507 1.810156 -3.459045
v -0.425738 1.243609 -3.365327
v -0.417525 1.679129 -3.301356
v -0.874081 -1.360749 -4.207255
v -0.774925 -1.302560 -4.121810
v -0.994896 -1.263236 -4.055113
v -1.072581 -1.325445 -4.146646
v -1.203511 -1.214012 -4.150092
v -1.134505 -1.136372 -4.061175
v -1.123972 -1.099397 -3.978514
v -0.966778 -1.267126 -3.968486
v -0.701396 -1.346828 -4.039740
v -0.715000 -1.395900 -3.905643
v -0.973055 -1.276778 -3.877587
v -1.141845 -1.153162 -3.861697
v -1.213550 -1.245924 -3.661393
v -0.988706 -1.333535 -3.675306
v -0.723296 -1.448322 -3.696780
v -0.792690 -1.060951 -4.491507
v -0.949281 -0.979819 -4.491539
v -0.840003 -0.860834 -4.436201
v -0.672160 -0.948222 -4.441043
v -0.570218 -0.804704 -4.472740
v -0.767306 -0.714127 -4.433070
v -0.956926 -0.749506 -4.313039
v -1.009807 -0.866205 -4.339067
v -1.105557 -0.974816 -4.405162
v -1.187340 -1.606144 -4.493170
v -1.365525 -1.576135 -4.460900
v -1.383530 -1.490230 -4.639060
v -1.167311 -1.525409 -4.648516
v -1.161109 -1.409335 -4.737155
v -1.329831 -1.362484 -4.734372
v -1.433316 -1.307697 -4.651143
v -1.494103 -1.387639 -4.558593
v -1.469358 -1.486650 -4.426885
v -0.670803 -1.138344 -4.304677
v -0.785854 -1.219896 -4.370112
v -0.578423 -1.123290 -4.293713
v -0.318393 -1.162344 -4.327055
v -0.355665 -1.376154 -4.115901
v 0.000000 -1.411698 -4.131471
v 0.000000 -1.191006 -4.349148
v 0.000000 -0.856980 -4.532079
v -0.286802 -0.838498 -4.504256
v 0.000000 -1.572531 -3.723478
v -0.383263 -1.537630 -3.715497
v -0.377773 -1.487057 -3.930876
v 0.000000 -1.524194 -3.941978
v -0.333508 -1.522171 -3.080197
v 0.000000 -1.556498 -3.080660
v -0.652494 -1.427176 -3.081164
v -0.214465 2.030706 -2.405499
v -0.214465 2.030706 -2.405499
v -0.215478 2.107791 -2.519689
v -0.358511 1.948447 -2.482968
v -0.358511 1.948447 -2.482968
v -0.238165 2.147695 -2.670261
v -0.504890 1.821337 -2.549855
v -0.504890 1.821337 -2.549855
v 0.000000 2.212390 -2.672400
v 0.000000 2.200271 -2.966220
v -0.108509 2.189005 -2.961922
v -0.108034 2.200880 -2.673393
v -0.208900 2.152477 -2.953663
v -0.210307 2.096977 -3.202668
v -0.110144 2.133288 -3.230127
v 0.000000 2.145066 -3.239021
v 0.000000 2.083039 -2.269800
v 0.000000 2.163000 -2.429659
v -0.103043 2.151857 -2.442903
v -0.097350 2.072475 -2.294337
v -1.070523 -0.269423 -2.613392
v -1.013188 -0.175117 -2.541364
v -0.662362 0.213023 -4.096736
v -0.662362 0.213023 -4.096736
v -0.595930 0.327255 -4.041398
v -0.595930 0.327255 -4.041398
v -0.963435 -0.328867 -3.878070
v -0.963435 -0.328867 -3.878070
v -0.433828 0.640635 -3.592599
v -0.433828 0.640635 -3.592599
v -0.522430 0.626908 -3.438899
v -0.522430 0.626908 -3.438899
v -0.806188 0.187040 -3.110260
v -0.806188 0.187040 -3.110260
v -1.063261 -0.487615 -3.460135
v -1.063261 -0.487615 -3.460135
v -1.059321 -0.519921 -3.753997
v -1.059321 -0.519921 -3.753997
v -0.761950 -1.014194 -2.586612
v -0.940011 -1.299671 -3.083360
v -0.503066 -1.182414 -2.596536
v -1.032576 -0.764349 -2.523454
v -1.169420 -1.075692 -2.982042
v -0.249938 -1.271804 -2.596830
v 0.000000 -1.297552 -2.596778
v -1.530728 -1.247919 -2.843255
v -1.538440 -1.233063 -2.901144
v -1.538440 -1.233063 -2.901144
v -1.445616 -1.285041 -2.944467
v -1.445616 -1.285041 -2.944467
v -1.446645 -1.294832 -2.887937
v -1.594262 -1.184935 -2.918979
v -1.570327 -1.170413 -2.978849
v -1.570327 -1.170413 -2.978849
v -1.662804 -1.404550 -2.836187
v -1.591526 -1.673438 -3.403931
v -1.543767 -1.672655 -3.350948
v -1.600725 -1.447091 -2.868508
v -1.703282 -1.391819 -2.886928
v -1.647864 -1.633913 -3.401568
v -1.318542 -0.678779 -2.553393
v -1.500275 -1.003355 -3.080625
v -1.190138 -0.674282 -2.497571
v -1.416549 -0.974916 -2.449149
v -1.325258 -1.053625 -2.489414
v -1.501641 -0.912132 -2.468269
v -1.489790 -1.530418 -3.515300
v -1.354088 -1.254282 -3.660349
v -1.429013 -1.535870 -3.434031
v -1.578638 -1.493030 -3.487643
v -1.450199 -1.233311 -3.609957
v -1.174368 -0.941762 -3.958815
v -1.056348 -0.755164 -4.125132
v -1.091495 -0.882283 -4.153436
v -0.700246 -0.472515 -4.422012
v -0.491079 -0.431172 -4.515144
v -0.252590 -0.426482 -4.581394
v 0.000000 -0.432698 -4.608000
v -1.462712 -1.347412 -2.962370
v -1.640509 -1.225623 -2.966447
v -1.574654 -1.283884 -2.879754
v -1.253237 -1.087234 -3.775124
v -1.207673 -1.061135 -3.857191
v -0.886836 0.385541 -2.344339
v -0.948343 -0.203890 -2.486700
v -0.948343 -0.203890 -2.486700
v -0.948343 -0.203890 -2.486700
v -0.874707 -0.136720 -2.533136
v -0.874707 -0.136720 -2.533136
v -0.874707 -0.136720 -2.533136
v -0.835706 0.372853 -2.315822
v -0.835706 0.372853 -2.315822
v -0.940515 0.406149 -2.430417
v -0.672952 1.277177 -2.529519
v -0.672952 1.277177 -2.529519
v -0.672952 1.277177 -2.529519
v -0.713207 1.193813 -2.435862
v -0.655975 1.185962 -2.411337
v -0.655975 1.185962 -2.411337
v -0.623924 1.270367 -2.500080
v -0.623924 1.270367 -2.500080
v -0.623924 1.270367 -2.500080
v -0.626603 1.209008 -2.562490
v -0.648942 1.122622 -2.289438
v -0.626142 1.116621 -2.275142
v -0.626142 1.116621 -2.275142
v -0.626142 1.116621 -2.275142
v -0.820731 0.631469 -2.510457
v -0.820731 0.631469 -2.510457
v -0.868855 0.630131 -2.530398
v -0.777956 0.635814 -2.507825
v -0.777956 0.635814 -2.507825
v -0.777956 0.635814 -2.507825
v -0.477725 1.765779 -2.532094
v -0.477725 1.765779 -2.532094
v -0.338135 1.892172 -2.496954
v -0.338135 1.892172 -2.496954
v -0.193015 1.974511 -2.428022
v -0.193015 1.974511 -2.428022
v -0.168653 1.921785 -2.553863
v -0.300876 1.840196 -2.603365
v -0.431347 1.719688 -2.597332
v -0.787420 0.777041 -2.515113
v -0.787420 0.777041 -2.515113
v -0.787420 0.777041 -2.515113
v -0.830833 0.779152 -2.534802
v -0.830833 0.779152 -2.534802
v -0.795580 0.928844 -2.528430
v -0.753224 0.912375 -2.499486
v -0.753224 0.912375 -2.499486
v -0.734519 0.933994 -2.563383
v -0.739532 0.766748 -2.557256
v -0.739532 0.766748 -2.557256
v -0.569916 1.604739 -2.525175
v -0.569916 1.604739 -2.525175
v -0.613631 1.621765 -2.542262
v -0.613631 1.621765 -2.542262
v -0.522490 1.577410 -2.608057
v -0.717749 1.030525 -2.407073
v -0.717749 1.030525 -2.407073
v -0.769015 1.050092 -2.432204
v -0.778864 1.127379 -2.468583
v -0.345413 2.047941 -2.775280
v -0.345413 2.047941 -2.775280
v -0.398239 1.860638 -3.273927
v -0.217666 2.004902 -3.364046
v -0.376516 1.901512 -3.095854
v -0.376516 1.901512 -3.095854
v -0.318496 2.024715 -2.884416
v -0.318496 2.024715 -2.884416
v -0.454297 -1.103571 -2.531670
v -0.454297 -1.103571 -2.531670
v -0.682231 -0.947220 -2.524424
v -0.682231 -0.947220 -2.524424
v -0.864329 -0.730923 -2.513027
v -0.864329 -0.730923 -2.513027
v -0.790882 -0.717388 -2.599423
v -0.632302 -0.912820 -2.607919
v -0.427101 -1.053629 -2.615271
v -1.121891 -0.965619 -4.202402
v -1.202066 -1.059797 -4.279910
v -0.216023 -0.478571 -3.473000
v 0.000000 2.056677 -3.419606
v -0.112203 2.044086 -3.406161
v -0.072279 1.962216 -2.473278
v -0.084124 2.012464 -2.329465
v -0.084124 2.012464 -2.329465
v 0.000000 2.020952 -2.312437
v 0.000000 2.020952 -2.312437
v 0.000000 2.020952 -2.312437
v 0.000000 1.972509 -2.464273
v 0.000000 1.972509 -2.464273
v 0.000000 -1.147897 -2.618852
v -0.213695 -1.127589 -2.618404
v -0.225470 -1.184936 -2.533975
v -0.225470 -1.184936 -2.533975
v 0.000000 -1.207173 -2.534293
v 0.000000 -1.207173 -2.534293
v 0.000000 -1.207173 -2.534293
v 0.000000 -1.207173 -2.534293
v -0.401988 -0.938196 -3.147631
v -0.401988 -0.938196 -3.147631
v -0.401988 -0.938196 -3.147631
v -0.693595 -0.638902 -3.127954
v -0.693595 -0.638902 -3.127954
v -0.693595 -0.638902 -3.127954
v -0.224574 1.702383 -3.093966
v -0.224574 1.702383 -3.093966
v -0.224574 1.702383 -3.093966
v -0.137150 1.798403 -3.075949
v -0.137150 1.798403 -3.075949
v -0.137150 1.798403 -3.075949
v -0.320092 1.599429 -3.105835
v -0.320092 1.599429 -3.105835
v -0.320092 1.599429 -3.105835
v -0.760160 -0.159994 -3.112336
v -0.760160 -0.159994 -3.112336
v -0.760160 -0.159994 -3.112336
v -0.647239 0.759370 -3.130853
v -0.647239 0.759370 -3.130853
v -0.647239 0.759370 -3.130853
v -0.620290 0.920666 -3.131757
v -0.620290 0.920666 -3.131757
v -0.620290 0.920666 -3.131757
v -0.675323 0.533350 -3.125423
v -0.675323 0.533350 -3.125423
v -0.675323 0.533350 -3.125423
v -0.414673 1.491910 -3.114761
v -0.414673 1.491910 -3.114761
v -0.414673 1.491910 -3.114761
v -0.500768 1.233820 -3.122107
v -0.500768 1.233820 -3.122107
v -0.500768 1.233820 -3.122107
v -0.064200 1.876964 -3.052228
v -0.064200 1.876964 -3.052228
v -0.064200 1.876964 -3.052228
v 0.000000 1.910284 -3.039663
v 0.000000 1.910284 -3.039663
v 0.000000 1.910284 -3.039663
v 0.000000 -1.025773 -3.151572
v 0.000000 -1.025773 -3.151572
v -0.659280 1.096590 -2.288099
v -0.635120 1.092716 -2.276269
v -0.635120 1.092716 -2.276269
v -0.635120 1.092716 -2.276269
v 0.156840 0.529435 -4.289991
v 0.186602 0.289661 -4.476224
v 0.399540 0.442614 -4.263958
v 0.437083 0.216776 -4.434306
v 0.431688 -0.067774 -4.508865
v 0.219177 -0.022738 -4.567142
v 0.130394 0.745427 -4.005408
v 0.116425 1.011657 -3.736200
v 0.245162 0.916585 -3.668939
v 0.257875 0.677288 -3.973530
v 1.040426 -0.485048 -3.939048
v 1.028467 -0.599815 -4.083497
v 0.633433 -0.178104 -4.414135
v 0.598432 0.209389 -4.292891
v 1.193799 -0.707271 -3.767615
v 1.235309 -0.884751 -3.821218
v 1.181198 -0.617724 -3.334304
v 0.865226 0.264368 -2.909721
v 1.142494 -0.372100 -2.689009
v 1.322430 -0.755492 -3.249042
v 0.589648 1.685771 -2.879377
v 0.589648 1.685771 -2.879377
v 0.686455 1.511776 -2.810748
v 0.659923 1.493285 -2.991442
v 0.593931 1.687302 -2.949635
v 0.593931 1.687302 -2.949635
v 0.781818 1.105801 -2.671481
v 0.760583 1.069104 -2.879208
v 0.736115 1.025961 -2.984710
v 0.569899 1.502557 -3.181135
v 0.549704 1.664260 -3.169125
v 0.500492 1.787999 -3.146587
v 0.500492 1.787999 -3.146587
v 0.335596 1.971403 -2.914182
v 0.343866 1.989619 -2.818198
v 0.528475 1.701007 -2.891374
v 0.520448 1.686099 -2.928300
v 0.434084 1.792973 -3.096330
v 0.342380 1.882633 -3.044951
v 0.840898 0.738649 -2.815101
v 0.774170 0.771667 -2.962506
v 0.867927 0.754280 -2.685284
v 0.944676 0.366344 -2.637965
v 0.917483 0.321620 -2.753388
v 0.475592 0.869881 -3.376115
v 0.544413 1.118411 -3.257217
v 0.112070 1.380147 -3.591231
v 0.223684 1.330759 -3.534179
v 0.112759 1.853131 -3.509771
v 0.222507 1.810156 -3.459045
v 0.425738 1.243609 -3.365327
v 0.417525 1.679129 -3.301356
v 0.874081 -1.360749 -4.207255
v 1.072581 -1.325445 -4.146646
v 0.994896 -1.263236 -4.055113
v 0.774925 -1.302560 -4.121810
v 1.203511 -1.214012 -4.150092
v 1.134505 -1.136372 -4.061175
v 1.123972 -1.099397 -3.978514
v 0.966778 -1.267126 -3.968486
v 0.701396 -1.346828 -4.039740
v 0.973055 -1.276778 -3.877587
v 0.715000 -1.395900 -3.905643
v 1.141845 -1.153162 -3.861697
v 1.213550 -1.245924 -3.661393
v 0.988706 -1.333535 -3.675306
v 0.723296 -1.448322 -3.696780
v 0.792690 -1.060951 -4.491507
v 0.672160 -0.948222 -4.441043
v 0.840003 -0.860834 -4.436201
v 0.949281 -0.979819 -4.491539
v 0.570218 -0.804704 -4.472740
v 0.767306 -0.714127 -4.433070
v 0.956926 -0.749506 -4.313039
v 1.009807 -0.866205 -4.339067
v 1.105557 -0.974816 -4.405162
v 1.187340 -1.606144 -4.493170
v 1.167311 -1.525409 -4.648516
v 1.383530 -1.490230 -4.639060
v 1.365525 -1.576135 -4.460900
v 1.161109 -1.409335 -4.737155
v 1.329831 -1.362484 -4.734372
v 1.433316 -1.307697 -4.651143
v 1.494103 -1.387639 -4.558593
v 1.469358 -1.486650 -4.426885
v 0.785854 -1.219896 -4.370112
v 0.670803 -1.138344 -4.304677
v 0.578423 -1.123290 -4.293713
v 0.355665 -1.376154 -4.115901
v 0.318393 -1.162344 -4.327055
v 0.286802 -0.838498 -4.504256
v 0.377773 -1.487057 -3.930876
v 0.383263 -1.537630 -3.715497
v 0.333508 -1.522171 -3.080197
v 0.652494 -1.427176 -3.081164
v 0.214465 2.030706 -2.405499
v 0.214465 2.030706 -2.405499
v 0.358511 1.948447 -2.482968
v 0.358511 1.948447 -2.482968
v 0.215478 2.107791 -2.519689
v 0.504890 1.821337 -2.549855
v 0.504890 1.821337 -2.549855
v 0.238165 2.147695 -2.670261
v 0.108034 2.200880 -2.673393
v 0.108509 2.189005 -2.961922
v 0.208900 2.152477 -2.953663
v 0.210307 2.096977 -3.202668
v 0.110144 2.133288 -3.230127
v 0.097350 2.072475 -2.294337
v 0.103043 2.151857 -2.442903
v 1.013188 -0.175117 -2.541364
v 1.070523 -0.269423 -2.613392
v 0.595930 0.327255 -4.041398
v 0.595930 0.327255 -4.041398
v 0.662362 0.213023 -4.096736
v 0.662362 0.213023 -4.096736
v 0.963435 -0.328867 -3.878070
v 0.963435 -0.328867 -3.878070
v 0.433828 0.640635 -3.592599
v 0.433828 0.640635 -3.592599
v 0.522430 0.626908 -3.438899
v 0.522430 0.626908 -3.438899
v 0.806188 0.187040 -3.110260
v 0.806188 0.187040 -3.110260
v 1.063261 -0.487615 -3.460135
v 1.063261 -0.487615 -3.460135
v 1.059321 -0.519921 -3.753997
v 1.059321 -0.519921 -3.753997
v 0.761950 -1.014194 -2.586612
v 0.503066 -1.182414 -2.596536
v 0.940011 -1.299671 -3.083360
v 1.169420 -1.075692 -2.982042
v 1.032576 -0.764349 -2.523454
v 0.249938 -1.271804 -2.596830
v 1.530728 -1.247919 -2.843255
v 1.446645 -1.294832 -2.887937
v 1.445616 -1.285041 -2.944467
v 1.445616 -1.285041 -2.944467
v 1.538440 -1.233063 -2.901144
v 1.538440 -1.233063 -2.901144
v 1.570327 -1.170413 -2.978849
v 1.570327 -1.170413 -2.978849
v 1.594262 -1.184935 -2.918979
v 1.662804 -1.404550 -2.836187
v 1.600725 -1.447091 -2.868508
v 1.543767 -1.672655 -3.350948
v 1.591526 -1.673438 -3.403931
v 1.647864 -1.633913 -3.401568
v 1.703282 -1.391819 -2.886928
v 1.318542 -0.678779 -2.553393
v 1.500275 -1.003355 -3.080625
v 1.190138 -0.674282 -2.497571
v 1.325258 -1.053625 -2.489414
v 1.416549 -0.974916 -2.449149
v 1.501641 -0.912132 -2.468269
v 1.489790 -1.530418 -3.515300
v 1.429013 -1.535870 -3.434031
v 1.354088 -1.254282 -3.660349
v 1.450199 -1.233311 -3.609957
v 1.578638 -1.493030 -3.487643
v 1.091495 -0.882283 -4.153436
v 1.056348 -0.755164 -4.125132
v 1.174368 -0.941762 -3.958815
v 0.491079 -0.431172 -4.515144
v 0.700246 -0.472515 -4.422012
v 0.252590 -0.426482 -4.581394
v 1.462712 -1.347412 -2.962370
v 1.640509 -1.225623 -2.966447
v 1.574654 -1.283884 -2.879754
v 1.207673 -1.061135 -3.857191
v 1.253237 -1.087234 -3.775124
v 0.886836 0.385541 -2.344339
v 0.835706 0.372853 -2.315822
v 0.835706 0.372853 -2.315822
v 0.874707 -0.136720 -2.533136
v 0.874707 -0.136720 -2.533136
v 0.874707 -0.136720 -2.533136
v 0.948343 -0.203890 -2.486700
v 0.948343 -0.203890 -2.486700
v 0.948343 -0.203890 -2.486700
v 0.940515 0.406149 -2.430417
v 0.672952 1.277177 -2.529519
v 0.672952 1.277177 -2.529519
v 0.672952 1.277177 -2.529519
v 0.623924 1.270367 -2.500080
v 0.623924 1.270367 -2.500080
v 0.623924 1.270367 -2.500080
v 0.655975 1.185962 -2.411337
v 0.655975 1.185962 -2.411337
v 0.713207 1.193813 -2.435862
v 0.626603 1.209008 -2.562490
v 0.626142 1.116621 -2.275142
v 0.626142 1.116621 -2.275142
v 0.626142 1.116621 -2.275142
v 0.648942 1.122622 -2.289438
v 0.868855 0.630131 -2.530398
v 0.820731 0.631469 -2.510457
v 0.820731 0.631469 -2.510457
v 0.777956 0.635814 -2.507825
v 0.777956 0.635814 -2.507825
v 0.777956 0.635814 -2.507825
v 0.338135 1.892172 -2.496954
v 0.338135 1.892172 -2.496954
v 0.477725 1.765779 -2.532094
v 0.477725 1.765779 -2.532094
v 0.193015 1.974511 -2.428022
v 0.193015 1.974511 -2.428022
v 0.168653 1.921785 -2.553863
v 0.300876 1.840196 -2.603365
v 0.431347 1.719688 -2.597332
v 0.830833 0.779152 -2.534802
v 0.830833 0.779152 -2.534802
v 0.787420 0.777041 -2.515113
v 0.787420 0.777041 -2.515113
v 0.787420 0.777041 -2.515113
v 0.795580 0.928844 -2.528430
v 0.753224 0.912375 -2.499486
v 0.753224 0.912375 -2.499486
v 0.734519 0.933994 -2.563383
v 0.739532 0.766748 -2.557256
v 0.739532 0.766748 -2.557256
v 0.613631 1.621765 -2.542262
v 0.613631 1.621765 -2.542262
v 0.569916 1.604739 -2.525175
v 0.569916 1.604739 -2.525175
v 0.522490 1.577410 -2.608057
v 0.769015 1.050092 -2.432204
v 0.717749 1.030525 -2.407073
v 0.717749 1.030525 -2.407073
v 0.778864 1.127379 -2.468583
v 0.345413 2.047941 -2.775280
v 0.345413 2.047941 -2.775280
v 0.398239 1.860638 -3.273927
v 0.217666 2.004902 -3.364046
v 0.376516 1.901512 -3.095854
v 0.376516 1.901512 -3.095854
v 0.318496 2.024715 -2.884416
v 0.318496 2.024715 -2.884416
v 0.682231 -0.947220 -2.524424
v 0.682231 -0.947220 -2.524424
v 0.454297 -1.103571 -2.531670
v 0.454297 -1.103571 -2.531670
v 0.864329 -0.730923 -2.513027
v 0.864329 -0.730923 -2.513027
v 0.790882 -0.717388 -2.599423
v 0.632302 -0.912820 -2.607919
v 0.427101 -1.053629 -2.615271
v 1.121891 -0.965619 -4.202402
v 1.202066 -1.059797 -4.279910
v 0.216023 -0.478571 -3.473000
v 0.112203 2.044086 -3.406161
v 0.084124 2.012464 -2.329465
v 0.084124 2.012464 -2.329465
v 0.072279 1.962216 -2.473278
v 0.225470 -1.184936 -2.533975
v 0.225470 -1.184936 -2.533975
v 0.213695 -1.127589 -2.618404
v 0.693595 -0.638902 -3.127954
v 0.693595 -0.638902 -3.127954
v 0.693595 -0.638902 -3.127954
v 0.401988 -0.938196 -3.147631
v 0.401988 -0.938196 -3.147631
v 0.401988 -0.938196 -3.147631
v 0.137150 1.798403 -3.075949
v 0.137150 1.798403 -3.075949
v 0.137150 1.798403 -3.075949
v 0.224574 1.702383 -3.093966
v 0.224574 1.702383 -3.093966
v 0.224574 1.702383 -3.093966
v 0.320092 1.599429 -3.105835
v 0.320092 1.599429 -3.105835
v 0.320092 1.599429 -3.105835
v 0.760160 -0.159994 -3.112336
v 0.760160 -0.159994 -3.112336
v 0.760160 -0.159994 -3.112336
v 0.620290 0.920666 -3.131757
v 0.620290 0.920666 -3.131757
v 0.620290 0.920666 -3.131757
v 0.647239 0.759370 -3.130853
v 0.647239 0.759370 -3.130853
v 0.647239 0.759370 -3.130853
v 0.675323 0.533350 -3.125423
v 0.675323 0.533350 -3.125423
v 0.675323 0.533350 -3.125423
v 0.414673 1.491910 -3.114761
v 0.414673 1.491910 -3.114761
v 0.414673 1.491910 -3.114761
v 0.500768 1.233820 -3.122107
v 0.500768 1.233820 -3.122107
v 0.500768 1.233820 -3.122107
v 0.064200 1.876964 -3.052228
v 0.064200 1.876964 -3.052228
v 0.064200 1.876964 -3.052228
v 0.659280 1.096590 -2.288099
v 0.635120 1.092716 -2.276269
v 0.635120 1.092716 -2.276269
v 0.635120 1.092716 -2.276269
vt 0.310368 0.884293
vt 0.355465 0.915790
vt 0.314014 0.881832
vt 0.352526 0.918635
vt 0.329023 0.877085
vt 0.368065 0.908146
vt 0.409472 0.932368
vt 0.417258 0.921741
vt 0.479270 0.934966
vt 0.480081 0.922886
vt 0.550499 0.920901
vt 0.548193 0.910958
vt 0.606484 0.888590
vt 0.599733 0.882510
vt 0.643447 0.850088
vt 0.630420 0.844594
vt 0.662620 0.816350
vt 0.646861 0.811749
vt 0.671363 0.777078
vt 0.655924 0.773665
vt 0.408167 0.936068
vt 0.369342 0.882360
vt 0.436332 0.904468
vt 0.454050 0.839726
vt 0.509236 0.844180
vt 0.489962 0.805899
vt 0.558495 0.796355
vt 0.481018 0.730360
vt 0.533644 0.692024
vt 0.350102 0.636596
vt 0.469869 0.589907
vt 0.340205 0.601646
vt 0.452118 0.576119
vt 0.332473 0.580600
vt 0.435815 0.562986
vt 0.272873 0.833050
vt 0.276673 0.829941
vt 0.288453 0.824128
vt 0.307902 0.769756
vt 0.348966 0.846729
vt 0.226553 0.784994
vt 0.230648 0.780853
vt 0.247084 0.768589
vt 0.487228 0.905905
vt 0.536092 0.851771
vt 0.568351 0.821445
vt 0.558068 0.860008
vt 0.587645 0.833430
vt 0.572475 0.868936
vt 0.594037 0.851578
vt 0.588756 0.883069
vt 0.607459 0.867791
vt 0.645433 0.933884
vt 0.654592 0.918262
vt 0.663169 0.945481
vt 0.670062 0.921388
vt 0.669250 0.946168
vt 0.675250 0.926235
vt 0.616434 0.895404
vt 0.632827 0.874101
vt 0.602335 0.883472
vt 0.622767 0.858521
vt 0.363471 0.695794
vt 0.451988 0.753304
vt 0.163619 0.612105
vt 0.121163 0.646169
vt 0.166816 0.645053
vt 0.121428 0.633358
vt 0.148168 0.563149
vt 0.113666 0.564534
vt 0.220717 0.624588
vt 0.214373 0.586711
vt 0.277845 0.612899
vt 0.275143 0.589228
vt 0.522109 0.555000
vt 0.537680 0.559720
vt 0.574082 0.546171
vt 0.587689 0.553513
vt 0.638108 0.631754
vt 0.642679 0.626538
vt 0.645775 0.640809
vt 0.651437 0.636994
vt 0.140821 0.668504
vt 0.228175 0.643826
vt 0.168776 0.679642
vt 0.119429 0.664394
vt 0.099806 0.665345
vt 0.106872 0.687613
vt 0.066014 0.683568
vt 0.081932 0.712994
vt 0.059737 0.688575
vt 0.075158 0.720674
vt 0.057700 0.690197
vt 0.072981 0.723125
vt 0.272137 0.639777
vt 0.522887 0.565179
vt 0.563228 0.549657
vt 0.626444 0.642236
vt 0.634168 0.651581
vt 0.255158 0.715195
vt 0.212193 0.693515
vt 0.310275 0.741730
vt 0.138251 0.701563
vt 0.190549 0.713228
vt 0.115599 0.730316
vt 0.175482 0.744016
vt 0.108169 0.739566
vt 0.166944 0.754419
vt 0.105734 0.742737
vt 0.163870 0.758217
vt 0.244965 0.560627
vt 0.270843 0.561789
vt 0.626724 0.864087
vt 0.615969 0.847397
vt 0.616642 0.831601
vt 0.626268 0.806634
vt 0.604897 0.803736
vt 0.636079 0.769749
vt 0.620933 0.767213
vt 0.573004 0.904141
vt 0.578467 0.914386
vt 0.557897 0.904295
vt 0.592492 0.913342
vt 0.532534 0.903724
vt 0.558825 0.889659
vt 0.538651 0.884913
vt 0.577602 0.901711
vt 0.644621 0.958664
vt 0.635149 0.946564
vt 0.652720 0.958134
vt 0.611439 0.892618
vt 0.649592 0.852927
vt 0.553694 0.925974
vt 0.669040 0.818375
vt 0.677397 0.778533
vt 0.588988 0.802915
vt 0.593499 0.787950
vt 0.761209 0.697833
vt 0.752194 0.613072
vt 0.754961 0.696782
vt 0.758339 0.613133
vt 0.738973 0.694315
vt 0.735188 0.613199
vt 0.718424 0.691486
vt 0.712362 0.613489
vt 0.702740 0.689653
vt 0.700339 0.611945
vt 0.754646 0.659695
vt 0.733894 0.600639
vt 0.779134 0.648747
vt 0.754030 0.606262
vt 0.707373 0.549382
vt 0.691370 0.549343
vt 0.077471 0.538212
vt 0.064144 0.559033
vt 0.091692 0.552338
vt 0.057246 0.586489
vt 0.056526 0.545032
vt 0.048051 0.587060
vt 0.054600 0.542617
vt 0.046062 0.586879
vt 0.050104 0.639670
vt 0.048157 0.640454
vt 0.056419 0.638165
vt 0.081723 0.617212
vt 0.085738 0.637112
vt 0.068424 0.513468
vt 0.070250 0.517942
vt 0.368714 0.856820
vt 0.427050 0.828607
vt 0.457573 0.803416
vt 0.661256 0.548035
vt 0.616528 0.539713
vt 0.668315 0.535228
vt 0.726229 0.592993
vt 0.711982 0.549375
vt 0.675481 0.659618
vt 0.694841 0.720267
vt 0.694706 0.710606
vt 0.668127 0.653725
vt 0.656780 0.646794
vt 0.648585 0.647341
vt 0.665926 0.662977
vt 0.688008 0.719836
vt 0.637956 0.659804
vt 0.663653 0.735531
vt 0.585976 0.671605
vt 0.618753 0.757834
vt 0.729016 0.595773
vt 0.671059 0.725755
vt 0.622378 0.767022
vt 0.670116 0.740574
vt 0.480345 0.939818
vt 0.341083 0.521860
vt 0.440789 0.553018
vt 0.429177 0.561485
vt 0.338890 0.527060
vt 0.295623 0.556870
vt 0.296374 0.557350
vt 0.335327 0.542755
vt 0.296605 0.560986
vt 0.271208 0.558199
vt 0.247812 0.555349
vt 0.227386 0.538499
vt 0.224003 0.543081
vt 0.216635 0.514648
vt 0.215965 0.516805
vt 0.199157 0.543748
vt 0.185923 0.555458
vt 0.184745 0.560826
vt 0.200515 0.539276
vt 0.211465 0.517049
vt 0.212502 0.514442
vt 0.196530 0.566838
vt 0.101420 0.554888
vt 0.123271 0.561295
vt 0.087186 0.542319
vt 0.080624 0.524348
vt 0.079157 0.521243
vt 0.151111 0.560034
vt 0.110406 0.574291
vt 0.096301 0.565265
vt 0.134231 0.663747
vt 0.117631 0.660462
vt 0.131239 0.573191
vt 0.155836 0.575146
vt 0.272987 0.565883
vt 0.244074 0.567001
vt 0.274263 0.670474
vt 0.246378 0.670638
vt 0.236658 0.957925
vt 0.342366 0.957925
vt 0.415381 0.957925
vt 0.461012 0.957925
vt 0.202199 0.957925
vt 0.177608 0.957925
vt 0.129864 0.957925
vt 0.090515 0.957925
vt 0.074122 0.957925
vt 0.058426 0.957925
vt 0.043787 0.957925
vt 0.031809 0.957925
vt 0.210642 0.549715
vt 0.173025 0.823279
vt 0.055253 0.789768
vt 0.109191 0.801218
vt 0.153675 0.828348
vt 0.179413 0.839367
vt 0.153018 0.858957
vt 0.169482 0.875413
vt 0.148721 0.902503
vt 0.152370 0.863543
vt 0.100077 0.904774
vt 0.116543 0.829375
vt 0.065206 0.837316
vt 0.569294 0.559897
vt 0.609954 0.573046
vt 0.596324 0.561218
vt 0.580873 0.571236
vt 0.531901 0.557819
vt 0.529561 0.573572
vt 0.563347 0.575121
vt 0.587690 0.576462
vt 0.610390 0.561638
vt 0.600476 0.577033
vt 0.614234 0.561696
vt 0.603987 0.577115
vt 0.296291 0.908661
vt 0.222867 0.949754
vt 0.271069 0.928045
vt 0.206549 0.941990
vt 0.290384 0.871906
vt 0.089311 0.550571
vt 0.087532 0.548929
vt 0.629859 0.573090
vt 0.625408 0.573099
vt 0.152029 0.665912
vt 0.170617 0.667539
vt 0.192241 0.668879
vt 0.433201 0.667097
vt 0.515993 0.669945
vt 0.313337 0.669483
vt 0.098289 0.653846
vt 0.104049 0.656137
vt 0.474364 0.957925
vt 0.026729 0.957925
vt 0.172618 0.882761
vt 0.174578 0.861195
vt 0.218534 0.825848
vt 0.291676 0.870101
vt 0.567734 0.673533
vt 0.582874 0.674251
usemtl mat_0
s 1
f 1/1 3/2 4/3
f 1/1 2/4 3/2
f 2/3 1/4 334/1
f 334/3 335/2 2/4
f 336/5 335/2 334/3
f 336/5 337/6 335/2
f 3/2 5/5 4/3
f 3/2 6/6 5/5
f 8/7 6/6 3/2
f 8/7 7/8 6/6
f 185/9 7/8 8/7
f 185/9 184/10 7/8
f 101/11 184/10 185/9
f 101/11 79/12 184/10
f 96/13 79/12 101/11
f 96/13 95/14 79/12
f 97/15 95/14 96/13
f 97/15 68/16 95/14
f 104/17 68/16 97/15
f 104/17 69/18 68/16
f 103/19 69/18 104/17
f 103/19 74/20 69/18
f 2/4 8/7 3/2
f 2/4 9/21 8/7
f 335/2 9/21 2/4
f 335/2 339/7 9/21
f 337/6 339/7 335/2
f 337/6 338/8 339/7
f 347/22 338/8 337/6
f 347/22 346/23 338/8
f 344/24 346/23 347/22
f 344/24 345/25 346/23
f 348/26 345/25 344/24
f 348/26 349/27 345/25
f 350/28 349/27 348/26
f 350/28 353/29 349/27
f 351/30 353/29 350/28
f 351/30 352/31 353/29
f 377/32 352/31 351/30
f 377/32 445/33 352/31
f 376/34 445/33 377/32
f 376/34 444/35 445/33
f 11/36 4/3 10/37
f 11/36 1/1 4/3
f 340/37 1/1 11/36
f 334/37 1/3 340/1
f 343/38 334/3 340/37
f 343/38 336/5 334/3
f 452/39 336/5 343/38
f 452/39 446/40 336/5
f 12/41 10/37 13/42
f 12/41 11/36 10/37
f 341/42 11/36 12/41
f 341/42 340/37 11/36
f 342/43 340/37 341/42
f 342/43 343/38 340/37
f 10/37 14/43 13/42
f 10/37 15/38 14/43
f 4/3 15/38 10/37
f 4/3 5/5 15/38
f 18/23 16/24 17/22
f 18/23 19/25 16/24
f 183/44 19/25 18/23
f 183/44 181/45 19/25
f 19/25 21/26 16/24
f 19/25 20/27 21/26
f 181/45 20/27 19/25
f 181/45 180/46 20/27
f 182/47 180/46 181/45
f 182/47 66/48 180/46
f 268/49 66/48 182/47
f 268/49 65/50 66/48
f 269/51 65/50 268/49
f 269/51 64/52 65/50
f 91/53 64/52 269/51
f 91/53 92/54 64/52
f 86/55 92/54 91/53
f 86/55 85/56 92/54
f 87/57 85/56 86/55
f 87/57 84/58 85/56
f 94/59 84/58 87/57
f 94/59 60/60 84/58
f 93/61 60/60 94/59
f 93/61 61/62 60/60
f 95/14 61/62 93/61
f 95/14 68/16 61/62
f 25/30 23/29 24/31
f 25/30 22/28 23/29
f 141/63 22/28 25/30
f 141/63 143/64 22/28
f 31/65 28/66 30/67
f 31/65 26/68 28/66
f 245/69 26/68 31/65
f 245/69 115/70 26/68
f 33/71 31/65 30/67
f 33/71 32/72 31/65
f 46/73 32/72 33/71
f 46/73 47/74 32/72
f 49/32 47/74 46/73
f 49/32 48/34 47/74
f 129/33 48/34 49/32
f 129/33 130/35 48/34
f 171/75 130/35 129/33
f 171/75 150/76 130/35
f 172/77 150/76 171/75
f 172/77 173/78 150/76
f 154/79 173/78 172/77
f 154/79 159/80 173/78
f 155/81 159/80 154/79
f 155/81 157/82 159/80
f 34/83 33/71 30/67
f 34/83 36/84 33/71
f 35/85 36/84 34/83
f 37/86 30/67 28/66
f 37/86 34/83 30/67
f 255/87 34/83 37/86
f 255/87 253/88 34/83
f 122/89 253/88 255/87
f 122/89 254/90 253/88
f 123/91 254/90 122/89
f 123/91 272/92 254/90
f 124/93 272/92 123/91
f 124/93 271/94 272/92
f 441/91 271/94 124/93
f 441/91 584/92 271/94
f 440/89 584/92 441/91
f 440/89 567/90 584/92
f 568/87 567/90 440/89
f 568/87 566/88 567/90
f 365/86 566/88 568/87
f 365/86 364/83 566/88
f 358/66 364/83 365/86
f 358/66 357/67 364/83
f 354/68 357/67 358/66
f 354/68 356/65 357/67
f 434/70 356/65 354/68
f 434/70 556/69 356/65
f 45/95 33/71 36/84
f 45/95 46/73 33/71
f 25/30 46/73 45/95
f 25/30 49/32 46/73
f 24/31 49/32 25/30
f 24/31 129/33 49/32
f 169/96 129/33 24/31
f 169/96 171/75 129/33
f 174/97 171/75 169/96
f 174/97 172/77 171/75
f 160/98 172/77 174/97
f 160/98 154/79 172/77
f 161/99 154/79 160/98
f 161/99 155/81 154/79
f 51/100 45/95 50/101
f 51/100 25/30 45/95
f 139/102 25/30 51/100
f 139/102 141/63 25/30
f 35/85 45/95 36/84
f 35/85 50/101 45/95
f 59/103 50/101 35/85
f 59/103 58/104 50/101
f 57/105 58/104 59/103
f 57/105 52/106 58/104
f 56/107 52/106 57/105
f 56/107 53/108 52/106
f 55/109 53/108 56/107
f 55/109 54/110 53/108
f 382/107 54/110 55/109
f 382/107 380/108 54/110
f 383/105 380/108 382/107
f 383/105 381/106 380/108
f 385/103 381/106 383/105
f 385/103 384/104 381/106
f 363/85 384/104 385/103
f 363/85 379/101 384/104
f 362/84 379/101 363/85
f 362/84 374/95 379/101
f 361/71 374/95 362/84
f 361/71 373/73 374/95
f 360/72 373/73 361/71
f 360/72 375/74 373/73
f 549/111 375/74 360/72
f 549/111 545/112 375/74
f 53/108 14/43 52/106
f 53/108 13/42 14/43
f 54/110 13/42 53/108
f 54/110 12/41 13/42
f 380/108 12/41 54/110
f 380/108 341/42 12/41
f 381/106 341/42 380/108
f 381/106 342/43 341/42
f 384/104 342/43 381/106
f 384/104 378/100 342/43
f 14/43 58/104 52/106
f 14/43 51/100 58/104
f 137/39 51/100 14/43
f 137/39 139/102 51/100
f 63/113 61/62 62/114
f 63/113 60/60 61/62
f 85/56 60/60 63/113
f 85/56 84/58 60/60
f 62/114 64/52 63/113
f 62/114 65/50 64/52
f 67/115 65/50 62/114
f 67/115 66/48 65/50
f 70/116 66/48 67/115
f 70/116 71/117 66/48
f 73/118 71/117 70/116
f 73/118 72/119 71/117
f 68/16 62/114 61/62
f 68/16 67/115 62/114
f 69/18 67/115 68/16
f 69/18 70/116 67/115
f 74/20 70/116 69/18
f 74/20 73/118 70/116
f 78/120 76/121 77/122
f 78/120 75/123 76/121
f 93/61 75/123 78/120
f 93/61 94/59 75/123
f 80/124 78/120 77/122
f 80/124 79/12 78/120
f 183/44 79/12 80/124
f 183/44 184/10 79/12
f 18/23 184/10 183/44
f 18/23 7/8 184/10
f 17/22 7/8 18/23
f 17/22 6/6 7/8
f 82/125 80/124 77/122
f 82/125 81/126 80/124
f 268/49 81/126 82/125
f 268/49 182/47 81/126
f 76/121 82/125 77/122
f 76/121 83/127 82/125
f 89/128 83/127 76/121
f 89/128 90/129 83/127
f 86/55 90/129 89/128
f 86/55 91/53 90/129
f 89/128 87/57 86/55
f 89/128 88/130 87/57
f 76/121 88/130 89/128
f 76/121 75/123 88/130
f 95/14 93/61 78/120
f 79/12 95/14 78/120
f 99/131 97/15 96/13
f 99/131 98/132 97/15
f 423/13 98/132 99/131
f 423/13 422/15 98/132
f 421/14 422/15 423/13
f 421/14 394/16 422/15
f 420/61 394/16 421/14
f 420/61 389/62 394/16
f 419/59 389/62 420/61
f 419/59 386/60 389/62
f 411/57 386/60 419/59
f 411/57 410/58 386/60
f 412/55 410/58 411/57
f 412/55 413/56 410/58
f 417/53 413/56 412/55
f 417/53 418/54 413/56
f 582/51 418/54 417/53
f 582/51 390/52 418/54
f 581/49 390/52 582/51
f 581/49 391/50 390/52
f 494/47 391/50 581/49
f 494/47 392/48 391/50
f 495/45 392/48 494/47
f 495/45 496/46 392/48
f 345/25 496/46 495/45
f 345/25 349/27 496/46
f 100/133 96/13 101/11
f 100/133 99/131 96/13
f 424/11 99/131 100/133
f 424/11 423/13 99/131
f 405/12 423/13 424/11
f 405/12 421/14 423/13
f 402/120 421/14 405/12
f 402/120 420/61 421/14
f 401/123 420/61 402/120
f 401/123 419/59 420/61
f 414/130 419/59 401/123
f 414/130 411/57 419/59
f 415/128 411/57 414/130
f 415/128 412/55 411/57
f 416/129 412/55 415/128
f 416/129 417/53 412/55
f 409/127 417/53 416/129
f 409/127 582/51 417/53
f 408/125 582/51 409/127
f 408/125 581/49 582/51
f 407/126 581/49 408/125
f 407/126 494/47 581/49
f 105/134 103/19 104/17
f 105/134 102/135 103/19
f 425/17 102/135 105/134
f 425/17 426/19 102/135
f 396/18 426/19 425/17
f 396/18 400/20 426/19
f 395/116 400/20 396/18
f 395/116 399/118 400/20
f 397/117 399/118 395/116
f 397/117 398/119 399/118
f 503/136 398/119 397/117
f 503/136 504/137 398/119
f 496/46 504/137 503/136
f 496/46 349/27 504/137
f 98/132 104/17 97/15
f 98/132 105/134 104/17
f 422/15 105/134 98/132
f 422/15 425/17 105/134
f 394/16 425/17 422/15
f 394/16 396/18 425/17
f 393/115 396/18 394/16
f 393/115 395/116 396/18
f 392/48 395/116 393/115
f 392/48 397/117 395/116
f 496/46 397/117 392/48
f 496/46 503/136 397/117
f 102/138 106/139 103/140
f 102/138 107/141 106/139
f 426/140 107/141 102/138
f 426/140 427/139 107/141
f 400/142 427/139 426/140
f 400/142 428/143 427/139
f 399/144 428/143 400/142
f 399/144 464/145 428/143
f 398/146 464/145 399/144
f 398/146 465/147 464/145
f 490/148 465/147 398/146
f 490/148 500/149 465/147
f 479/150 500/149 490/148
f 479/150 478/151 500/149
f 106/139 74/142 103/140
f 106/139 108/143 74/142
f 152/152 108/143 106/139
f 152/152 149/153 108/143
f 109/154 111/155 112/156
f 111/155 115/70 112/156
f 111/155 114/157 115/70
f 127/158 114/157 111/155
f 127/158 120/159 114/157
f 126/160 120/159 127/158
f 126/160 117/161 120/159
f 443/158 117/161 126/160
f 443/158 437/159 117/161
f 433/155 437/159 443/158
f 433/155 436/157 437/159
f 431/156 436/157 433/155
f 431/156 434/70 436/157
f 117/161 119/162 120/159
f 117/161 118/163 119/162
f 437/159 118/163 117/161
f 437/159 438/162 118/163
f 436/157 438/162 437/159
f 436/157 439/164 438/162
f 564/165 439/164 436/157
f 564/165 570/166 439/164
f 121/164 120/159 119/162
f 121/164 114/157 120/159
f 257/166 114/157 121/164
f 257/166 251/165 114/157
f 119/162 122/89 121/164
f 119/162 123/91 122/89
f 118/163 123/91 119/162
f 118/163 124/93 123/91
f 438/162 124/93 118/163
f 438/162 441/91 124/93
f 439/164 441/91 438/162
f 439/164 440/89 441/91
f 570/166 440/89 439/164
f 570/166 568/87 440/89
f 125/167 127/158 128/168
f 125/167 126/160 127/158
f 442/168 126/160 125/167
f 442/168 443/158 126/160
f 429/154 443/158 442/168
f 429/154 433/155 443/158
f 128/168 127/158 111/155
f 109/154 128/168 111/155
f 133/40 17/22 131/169
f 133/40 5/5 17/22
f 137/39 5/5 133/40
f 137/39 15/38 5/5
f 16/24 131/169 17/22
f 16/24 135/170 131/169
f 21/26 135/170 16/24
f 21/26 145/171 135/170
f 22/28 145/171 21/26
f 22/28 143/64 145/171
f 148/145 149/153 147/172
f 148/145 108/143 149/153
f 73/144 108/143 148/145
f 73/144 74/142 108/143
f 150/173 148/145 147/172
f 150/173 151/147 148/145
f 173/174 151/147 150/173
f 173/174 159/175 151/147
f 107/141 152/152 106/139
f 107/141 153/176 152/152
f 427/139 153/176 107/141
f 427/139 467/152 153/176
f 428/143 467/152 427/139
f 428/143 463/153 467/152
f 464/145 463/153 428/143
f 464/145 462/172 463/153
f 465/147 462/172 464/145
f 465/147 466/173 462/172
f 469/175 466/173 465/147
f 469/175 486/174 466/173
f 166/177 164/178 165/179
f 166/177 163/180 164/178
f 187/181 163/180 166/177
f 187/181 189/182 163/180
f 158/82 189/182 187/181
f 158/82 156/81 189/182
f 167/183 164/178 163/180
f 167/183 168/184 164/178
f 188/185 168/184 167/183
f 188/185 178/186 168/184
f 170/187 178/186 188/185
f 170/187 179/188 178/186
f 23/29 179/188 170/187
f 23/29 20/27 179/188
f 22/28 20/27 23/29
f 22/28 21/26 20/27
f 170/187 24/31 23/29
f 170/187 169/96 24/31
f 160/98 169/96 170/187
f 160/98 174/97 169/96
f 159/175 157/189 151/147
f 170/187 161/99 160/98
f 177/190 176/191 72/119
f 177/190 175/192 176/191
f 165/179 175/192 177/190
f 165/179 164/178 175/192
f 175/192 179/188 176/191
f 175/192 178/186 179/188
f 164/178 178/186 175/192
f 164/178 168/184 178/186
f 186/193 101/11 185/9
f 186/193 100/133 101/11
f 499/9 100/133 186/193
f 499/9 424/11 100/133
f 497/10 424/11 499/9
f 497/10 405/12 424/11
f 498/44 405/12 497/10
f 498/44 406/124 405/12
f 9/21 185/9 8/7
f 9/21 186/193 185/9
f 339/7 186/193 9/21
f 339/7 499/9 186/193
f 338/8 499/9 339/7
f 338/8 497/10 499/9
f 346/23 497/10 338/8
f 346/23 498/44 497/10
f 345/25 498/44 346/23
f 345/25 495/45 498/44
f 177/148 166/151 165/150
f 177/148 187/149 166/151
f 72/146 187/149 177/148
f 72/146 151/147 187/149
f 73/144 151/147 72/146
f 73/144 148/145 151/147
f 189/182 167/183 163/180
f 189/182 188/185 167/183
f 156/81 188/185 189/182
f 156/81 162/99 188/185
f 191/136 72/119 190/137
f 191/136 71/117 72/119
f 180/46 71/117 191/136
f 180/46 66/48 71/117
f 190/137 180/46 191/136
f 190/137 20/27 180/46
f 176/191 20/27 190/137
f 176/191 179/188 20/27
f 199/194 193/195 196/196
f 199/194 192/197 193/195
f 219/198 192/197 199/194
f 219/198 216/199 192/197
f 192/197 130/35 193/195
f 192/197 201/200 130/35
f 216/199 201/200 192/197
f 216/199 218/201 201/200
f 231/202 218/201 216/199
f 231/202 234/112 218/201
f 237/203 234/112 231/202
f 237/203 236/111 234/112
f 247/204 236/111 237/203
f 247/204 249/205 236/111
f 332/206 249/205 247/204
f 332/206 330/207 249/205
f 205/208 208/209 202/210
f 205/208 206/211 208/209
f 212/212 206/211 205/208
f 212/212 213/213 206/211
f 211/214 209/209 207/211
f 224/215 116/70 222/216
f 224/215 113/156 116/70
f 226/217 113/156 224/215
f 226/217 110/154 113/156
f 275/218 110/154 226/217
f 275/218 128/168 110/154
f 276/219 128/168 275/218
f 276/219 125/167 128/168
f 586/218 125/167 276/219
f 586/218 442/168 125/167
f 539/217 442/168 586/218
f 539/217 430/154 442/168
f 535/215 430/154 539/217
f 535/215 432/156 430/154
f 537/216 432/156 535/215
f 537/216 435/70 432/156
f 557/220 435/70 537/216
f 557/220 555/69 435/70
f 520/209 555/69 557/220
f 520/209 516/210 555/69
f 229/221 227/217 225/215
f 229/221 228/222 227/217
f 295/223 228/222 229/221
f 295/223 298/224 228/222
f 223/216 229/221 225/215
f 223/216 230/225 229/221
f 243/220 230/225 223/216
f 243/220 246/226 230/225
f 209/209 246/226 243/220
f 209/209 211/214 246/226
f 240/227 238/203 232/202
f 240/227 239/228 238/203
f 307/229 239/228 240/227
f 307/229 310/230 239/228
f 241/227 233/202 217/199
f 220/198 241/227 217/199
f 331/206 214/213 212/212
f 330/207 331/206 212/212
f 531/199 548/202 554/227
f 533/198 531/199 554/227
f 528/212 526/213 628/206
f 627/207 528/212 628/206
f 616/231 314/231 305/232
f 607/232 616/231 305/232
f 293/233 592/233 608/232
f 306/232 293/233 608/232
f 290/234 595/234 593/233
f 294/233 290/234 593/233
f 315/231 617/231 613/235
f 308/235 315/231 613/235
f 309/235 614/235 610/236
f 311/236 309/235 610/236
f 622/237 320/237 312/236
f 611/236 622/237 312/236
f 321/237 623/237 619/238
f 317/238 321/237 619/238
f 318/238 620/238 604/239
f 302/239 318/238 604/239
f 303/239 605/239 601/240
f 296/240 303/239 601/240
f 297/240 602/240 598/241
f 299/241 297/240 598/241
f 300/241 599/241 625/242
f 323/242 300/241 625/242
f 242/220 203/210 210/209
f 242/220 244/69 203/210
f 222/216 244/69 242/220
f 222/216 116/70 244/69
f 204/210 250/243 205/208
f 204/210 32/72 250/243
f 245/69 32/72 204/210
f 245/69 31/65 32/72
f 32/72 249/205 250/243
f 32/72 236/111 249/205
f 47/74 236/111 32/72
f 47/74 235/112 236/111
f 48/34 235/112 47/74
f 48/34 218/201 235/112
f 59/103 254/90 57/105
f 59/103 253/88 254/90
f 35/85 253/88 59/103
f 35/85 34/83 253/88
f 122/89 255/87 257/166
f 121/164 122/89 257/166
f 51/100 50/101 58/104
f 41/244 252/245 42/246
f 41/244 27/247 252/245
f 40/248 27/247 41/244
f 40/248 29/249 27/247
f 44/250 29/249 40/248
f 44/250 38/251 29/249
f 43/252 38/251 44/250
f 43/252 256/253 38/251
f 39/254 256/253 43/252
f 39/254 258/255 256/253
f 42/246 258/255 39/254
f 42/246 252/245 258/255
f 261/256 149/257 259/258
f 261/256 147/259 149/257
f 263/260 147/259 261/256
f 263/260 150/76 147/259
f 194/195 150/76 263/260
f 194/195 130/35 150/76
f 262/256 265/261 264/260
f 262/256 266/262 265/261
f 260/258 266/262 262/256
f 260/258 267/263 266/262
f 283/264 267/263 260/258
f 283/264 282/265 267/263
f 285/266 282/265 283/264
f 285/266 281/267 282/265
f 265/261 197/196 195/195
f 264/260 265/261 195/195
f 83/127 268/49 82/125
f 83/127 269/51 268/49
f 90/129 269/51 83/127
f 90/129 91/53 269/51
f 198/196 221/198 200/194
f 88/130 75/123 94/59
f 87/57 88/130 94/59
f 63/113 64/52 92/54
f 85/56 63/113 92/54
f 72/119 176/191 190/137
f 146/268 132/269 136/270
f 146/268 134/271 132/269
f 270/272 134/271 146/268
f 272/92 57/105 254/90
f 272/92 56/107 57/105
f 271/94 56/107 272/92
f 271/94 55/109 56/107
f 584/92 55/109 271/94
f 584/92 382/107 55/109
f 567/90 382/107 584/92
f 567/90 383/105 382/107
f 566/88 383/105 567/90
f 566/88 385/103 383/105
f 364/83 385/103 566/88
f 364/83 363/85 385/103
f 273/273 227/217 228/222
f 273/273 274/218 227/217
f 279/274 274/218 273/273
f 279/274 277/219 274/218
f 284/264 153/275 286/266
f 284/264 152/276 153/275
f 259/258 152/276 284/264
f 259/258 149/257 152/276
f 230/225 295/223 229/221
f 230/225 301/277 295/223
f 246/226 301/277 230/225
f 246/226 316/278 301/277
f 211/214 316/278 246/226
f 211/214 319/279 316/278
f 239/228 319/279 211/214
f 239/228 310/230 319/279
f 304/280 265/261 292/281
f 304/280 198/196 265/261
f 313/282 198/196 304/280
f 313/282 221/198 198/196
f 307/229 221/198 313/282
f 307/229 240/227 221/198
f 273/273 325/283 279/274
f 273/273 322/284 325/283
f 228/222 322/284 273/273
f 228/222 298/224 322/284
f 5/5 6/6 17/22
f 15/38 137/39 14/43
f 207/211 239/228 211/214
f 207/211 248/204 239/228
f 215/213 248/204 207/211
f 215/213 333/206 248/204
f 239/228 248/204 238/203
f 158/189 187/149 151/147
f 170/187 188/185 162/99
f 356/65 361/71 357/67
f 356/65 360/72 361/71
f 556/69 360/72 356/65
f 556/69 517/210 360/72
f 361/71 364/83 357/67
f 361/71 363/85 364/83
f 362/84 363/85 361/71
f 377/32 375/74 376/34
f 377/32 373/73 375/74
f 351/30 373/73 377/32
f 351/30 374/95 373/73
f 378/100 374/95 351/30
f 378/100 379/101 374/95
f 386/60 388/114 389/62
f 386/60 387/113 388/114
f 410/58 387/113 386/60
f 410/58 413/56 387/113
f 391/50 387/113 390/52
f 391/50 388/114 387/113
f 392/48 388/114 391/50
f 392/48 393/115 388/114
f 389/62 388/114 393/115
f 394/16 389/62 393/115
f 402/120 404/121 401/123
f 402/120 403/122 404/121
f 405/12 403/122 402/120
f 405/12 406/124 403/122
f 408/125 406/124 407/126
f 408/125 403/122 406/124
f 409/127 403/122 408/125
f 409/127 404/121 403/122
f 416/129 404/121 409/127
f 416/129 415/128 404/121
f 429/154 431/156 433/155
f 448/169 336/5 446/40
f 448/169 347/22 336/5
f 450/170 347/22 448/169
f 450/170 344/24 347/22
f 460/171 344/24 450/170
f 460/171 348/26 344/24
f 458/64 348/26 460/171
f 458/64 350/28 348/26
f 456/63 350/28 458/64
f 456/63 351/30 350/28
f 454/102 351/30 456/63
f 454/102 378/100 351/30
f 452/39 378/100 454/102
f 452/39 342/43 378/100
f 468/79 470/82 472/81
f 468/79 469/80 470/82
f 487/77 469/80 468/79
f 487/77 486/78 469/80
f 485/75 486/78 487/77
f 485/75 466/76 486/78
f 445/33 466/76 485/75
f 445/33 444/35 466/76
f 476/98 472/81 474/99
f 476/98 468/79 472/81
f 488/97 468/79 476/98
f 488/97 487/77 468/79
f 483/96 487/77 488/97
f 483/96 485/75 487/77
f 352/31 485/75 483/96
f 352/31 445/33 485/75
f 477/180 479/179 480/178
f 477/180 478/177 479/179
f 502/182 478/177 477/180
f 502/182 500/181 478/177
f 473/81 500/181 502/182
f 473/81 471/82 500/181
f 481/184 477/180 480/178
f 481/184 482/183 477/180
f 493/186 482/183 481/184
f 493/186 501/185 482/183
f 492/188 501/185 493/186
f 492/188 484/187 501/185
f 349/27 484/187 492/188
f 349/27 353/29 484/187
f 483/96 353/29 352/31
f 483/96 484/187 353/29
f 488/97 484/187 483/96
f 488/97 476/98 484/187
f 469/175 465/147 470/189
f 484/187 476/98 474/99
f 489/192 398/119 491/191
f 489/192 490/190 398/119
f 480/178 490/190 489/192
f 480/178 479/179 490/190
f 493/186 491/191 492/188
f 493/186 489/192 491/191
f 481/184 489/192 493/186
f 481/184 480/178 489/192
f 501/185 477/180 482/183
f 501/185 502/182 477/180
f 475/99 502/182 501/185
f 475/99 473/81 502/182
f 505/197 508/196 511/195
f 505/197 506/194 508/196
f 530/199 506/194 505/197
f 530/199 532/198 506/194
f 514/200 511/195 444/35
f 514/200 505/197 511/195
f 529/201 505/197 514/200
f 529/201 530/199 505/197
f 544/112 530/199 529/201
f 544/112 546/202 530/199
f 549/111 546/202 544/112
f 549/111 550/203 546/202
f 560/205 550/203 549/111
f 560/205 561/204 550/203
f 627/207 561/204 560/205
f 627/207 629/206 561/204
f 521/211 515/210 518/209
f 521/211 523/208 515/210
f 525/213 523/208 521/211
f 525/213 528/212 523/208
f 524/214 522/211 519/209
f 541/222 536/215 540/217
f 541/222 542/221 536/215
f 597/224 542/221 541/222
f 597/224 600/223 542/221
f 543/225 536/215 542/221
f 543/225 538/216 536/215
f 559/226 538/216 543/225
f 559/226 558/220 538/216
f 524/214 558/220 559/226
f 524/214 519/209 558/220
f 552/228 547/202 551/203
f 552/228 553/227 547/202
f 609/230 553/227 552/228
f 609/230 612/229 553/227
f 563/243 517/210 523/208
f 563/243 360/72 517/210
f 560/205 360/72 563/243
f 560/205 549/111 360/72
f 378/100 384/104 379/101
f 355/247 368/246 565/245
f 355/247 369/244 368/246
f 359/249 369/244 355/247
f 359/249 370/248 369/244
f 366/251 370/248 359/249
f 366/251 371/250 370/248
f 569/253 371/250 366/251
f 569/253 372/252 371/250
f 571/255 372/252 569/253
f 571/255 367/254 372/252
f 565/245 367/254 571/255
f 565/245 368/246 367/254
f 462/259 574/258 463/257
f 462/259 572/256 574/258
f 466/76 572/256 462/259
f 466/76 576/260 572/256
f 444/35 576/260 466/76
f 444/35 512/195 576/260
f 579/262 577/260 578/261
f 579/262 573/256 577/260
f 580/263 573/256 579/262
f 580/263 575/258 573/256
f 590/265 575/258 580/263
f 590/265 588/264 575/258
f 281/267 588/264 590/265
f 281/267 287/266 588/264
f 513/195 509/196 578/261
f 577/260 513/195 578/261
f 510/196 507/194 534/198
f 545/112 529/201 376/34
f 375/74 545/112 376/34
f 414/130 401/123 404/121
f 415/128 414/130 404/121
f 418/54 390/52 387/113
f 413/56 418/54 387/113
f 398/119 504/137 491/191
f 504/137 349/27 492/188
f 491/191 504/137 492/188
f 449/269 461/268 451/270
f 449/269 583/272 461/268
f 447/271 583/272 449/269
f 585/218 541/222 540/217
f 585/218 587/273 541/222
f 278/219 587/273 585/218
f 278/219 280/274 587/273
f 467/276 288/266 153/275
f 467/276 589/264 288/266
f 463/257 589/264 467/276
f 463/257 574/258 589/264
f 603/277 542/221 600/223
f 603/277 543/225 542/221
f 618/278 543/225 603/277
f 618/278 559/226 543/225
f 621/279 559/226 618/278
f 621/279 524/214 559/226
f 609/230 524/214 621/279
f 609/230 552/228 524/214
f 510/196 591/281 578/261
f 510/196 606/280 591/281
f 534/198 606/280 510/196
f 534/198 615/282 606/280
f 553/227 615/282 534/198
f 553/227 612/229 615/282
f 624/284 280/274 326/283
f 624/284 587/273 280/274
f 597/224 587/273 624/284
f 597/224 541/222 587/273
f 336/5 347/22 337/6
f 343/38 342/43 452/39
f 562/204 524/214 552/228
f 562/204 522/211 524/214
f 630/206 522/211 562/204
f 630/206 527/213 522/211
f 552/228 551/203 562/204
f 471/189 465/147 500/149
f 484/187 475/99 501/185
f 291/234 329/285 596/234
f 327/286 324/242 626/242
f 181/45 81/126 182/47
f 181/45 183/44 81/126
f 80/124 81/126 183/44
f 48/34 201/200 218/201
f 48/34 130/35 201/200
f 250/243 212/212 205/208
f 250/243 330/207 212/212
f 249/205 330/207 250/243
f 115/70 251/165 26/68
f 115/70 114/157 251/165
f 270/272 138/287 134/271
f 270/272 140/288 138/287
f 142/289 140/288 270/272
f 270/272 144/290 142/289
f 146/268 144/290 270/272
f 266/262 292/281 265/261
f 266/262 289/291 292/281
f 267/263 289/291 266/262
f 267/263 282/265 289/291
f 328/292 289/291 282/265
f 282/265 281/267 328/292
f 590/265 328/292 281/267
f 590/265 594/291 328/292
f 580/263 594/291 590/265
f 580/263 579/262 594/291
f 591/281 594/291 579/262
f 579/262 578/261 591/281
f 407/126 495/45 494/47
f 407/126 498/44 495/45
f 406/124 498/44 407/126
f 514/200 376/34 529/201
f 514/200 444/35 376/34
f 528/212 563/243 523/208
f 528/212 627/207 563/243
f 560/205 563/243 627/207
f 564/165 434/70 354/68
f 564/165 436/157 434/70
f 453/287 583/272 447/271
f 453/287 455/288 583/272
f 457/289 583/272 455/288
f 457/289 459/290 583/272
f 461/268 583/272 459/290
usemtl mat_1
f 40/95 41/248 42/252
f 40/95 43/74 41/248
