# Blender v2.66 (sub 1) OBJ File: 'BR_Sunkern-Shiny01.blend'
# www.blender.org
mtllib BR_Sunkern-Shiny01.mtl
o himanuts
v -0.806744 -0.221908 -3.758870
v -0.808309 0.000000 -3.645380
v -0.924705 -0.000001 -3.901150
v -0.806744 0.221908 -3.758870
v -0.807509 0.264445 -4.848280
v -0.851359 0.286705 -4.523420
v -0.616277 0.483323 -4.604100
v -0.839783 0.304862 -3.933330
v -0.869400 0.303468 -4.214470
v -0.963927 -0.000001 -4.190880
v -0.325595 0.656291 -4.240270
v -0.367500 0.640929 -4.236230
v -0.372293 0.611407 -4.206900
v 0.372293 0.611407 -4.206900
v 0.367500 0.640929 -4.236230
v 0.325595 0.656291 -4.240270
v 0.317604 0.627713 -4.212840
v 0.307756 0.642979 -4.174250
v 0.384123 0.626550 -4.171710
v -0.615778 0.498442 -3.906330
v -0.227515 0.001803 -3.312920
v 0.000000 0.001926 -3.292710
v 0.000000 0.242916 -3.359370
v -0.615507 -0.509812 -3.901220
v -0.229565 -0.659838 -3.901270
v -0.228012 -0.587335 -3.637210
v -0.223914 -0.275145 -3.330930
v -0.469008 0.001373 -3.383280
v -0.524107 0.563917 -4.305180
v -0.679232 0.000688 -3.495500
v -0.618455 0.354199 -3.629520
v -0.384124 0.626550 -4.171710
v -0.307756 0.642979 -4.174250
v -0.317604 0.627713 -4.212840
v -0.352357 0.651319 -4.270010
v -0.110994 0.708705 -4.423960
v -0.179823 0.625642 -4.658540
v -0.839783 -0.305646 -3.933330
v -0.464470 0.211715 -3.432450
v 0.000000 0.534893 -5.200040
v -0.198982 0.509713 -5.276350
v -0.197053 0.571629 -5.008360
v -0.617921 -0.362265 -3.629220
v -0.392542 0.098243 -5.344720
v -0.641059 0.363999 -5.724930
v -0.338504 0.349587 -5.427800
v -0.897411 -0.000001 -4.762390
v -0.945077 -0.000001 -4.462710
v -0.207757 0.558775 -3.659060
v -0.219101 0.626500 -3.910880
v -0.218020 0.620313 -5.777620
v -0.579302 0.445957 -4.945480
v -0.424258 0.595889 -4.639020
v -0.817779 0.000000 -5.028080
v -0.093673 0.697234 -4.384620
v 0.000000 0.446963 -5.497640
v -0.055050 0.499748 -5.319770
v -0.136138 0.125287 -5.330030
v -0.220763 0.288717 -3.404680
v -0.378284 0.445749 -5.212300
v -0.661160 0.203658 -5.314180
v -0.994393 -0.000001 -5.626360
v -0.557769 0.381786 -5.134210
v -0.288633 0.463233 -5.241430
v 0.000000 0.716683 -4.452690
v 0.000000 0.702829 -4.484840
v 0.000000 0.706479 -4.417310
v 0.000000 0.672776 -4.532400
v 0.110994 0.708705 -4.423960
v 0.093673 0.697234 -4.384620
v 0.000000 -0.124163 -4.692970
v -0.634819 -0.529180 -4.235320
v -0.616276 -0.502172 -4.587120
v -0.240656 -0.647339 -4.627850
v -0.240324 -0.680250 -4.245830
v -0.216067 -0.577562 -5.011920
v -0.198799 -0.509713 -5.276350
v 0.000000 -0.509713 -5.276350
v 0.240324 -0.680250 -4.245830
v 0.634819 -0.529179 -4.235320
v 0.615507 -0.509812 -3.901220
v -0.392542 -0.098243 -5.344720
v -0.136138 -0.125287 -5.330030
v 0.000001 -0.446963 -5.497640
v -0.218019 -0.620313 -5.777620
v -0.579301 -0.446654 -4.945160
v -0.557768 -0.381786 -5.134210
v -0.378284 -0.445750 -5.212300
v -0.661160 -0.203658 -5.314180
v -0.641059 -0.363999 -5.724930
v -0.851359 -0.303330 -4.523420
v -0.869400 -0.321186 -4.214470
v -0.338503 -0.349588 -5.427800
v -0.807509 -0.268347 -4.848280
v -0.228638 -0.459683 -3.451220
v 0.924705 0.000000 -3.901150
v 0.808308 0.000000 -3.645380
v 0.806744 -0.221908 -3.758870
v 0.806744 0.221908 -3.758870
v 0.616277 0.483323 -4.604100
v 0.851360 0.286705 -4.523420
v 0.807509 0.264445 -4.848280
v 0.963927 0.000000 -4.190880
v 0.869400 0.303468 -4.214470
v 0.839783 0.304862 -3.933330
v 0.617921 -0.362265 -3.629220
v 0.839782 -0.305646 -3.933330
v 0.615777 0.498442 -3.906330
v 0.227515 0.001803 -3.312920
v 0.223915 -0.275145 -3.330930
v 0.469008 0.001373 -3.383280
v 0.000000 0.631574 -4.662100
v 0.179823 0.625642 -4.658540
v 0.197053 0.571629 -5.008360
v 0.000000 0.577562 -5.011920
v 0.524107 0.563917 -4.305180
v 0.679232 0.000688 -3.495500
v 0.618455 0.354200 -3.629520
v 0.352356 0.651319 -4.270010
v 0.464470 0.211715 -3.432450
v 0.198981 0.509713 -5.276350
v 0.228012 -0.587335 -3.637210
v 0.338504 0.349587 -5.427800
v 0.641059 0.363999 -5.724930
v 0.392542 0.098243 -5.344720
v 0.945076 0.000000 -4.462710
v 0.897411 0.000000 -4.762390
v 0.219100 0.626500 -3.910880
v 0.207757 0.558775 -3.659060
v 0.218020 0.620313 -5.777620
v 0.579301 0.445957 -4.945480
v 0.424258 0.595889 -4.639020
v 0.817779 0.000000 -5.028080
v 0.229565 -0.659838 -3.901270
v 0.055050 0.499748 -5.319770
v 0.136138 0.125287 -5.330030
v 0.378284 0.445749 -5.212300
v 0.661160 0.203658 -5.314180
v 0.994393 0.000000 -5.626360
v 0.557769 0.381786 -5.134210
v 0.288633 0.463233 -5.241430
v 0.216067 -0.577562 -5.011920
v 0.240656 -0.647339 -4.627850
v 0.616276 -0.502172 -4.587120
v 0.198799 -0.509713 -5.276350
v 0.136138 -0.125287 -5.330030
v 0.392542 -0.098243 -5.344720
v 0.218019 -0.620313 -5.777620
v 0.378284 -0.445750 -5.212300
v 0.557769 -0.381786 -5.134210
v 0.579301 -0.446654 -4.945160
v 0.641059 -0.363999 -5.724930
v 0.661160 -0.203658 -5.314180
v 0.869399 -0.321185 -4.214470
v 0.851359 -0.303330 -4.523420
v 0.338503 -0.349587 -5.427800
v 0.807508 -0.268347 -4.848280
v 0.220763 0.288717 -3.404680
v 0.226988 -0.459683 -3.451220
v 0.191532 0.654498 -4.652270
v -0.191532 0.654498 -4.652270
v 0.000000 -0.051828 -5.525680
v 0.052089 0.000000 -5.525680
v 0.080647 0.000000 -5.374360
v 0.000000 -0.093464 -5.374360
v 0.642469 0.000000 -5.300380
v 0.000000 0.335570 -5.319950
v -0.642469 0.000000 -5.300380
v -0.080647 0.000000 -5.374360
v 0.000000 -0.335570 -5.319950
v 0.000000 0.093464 -5.374360
v 0.000000 0.051828 -5.525680
v -0.052089 0.000000 -5.525680
v 0.000000 -0.045277 -5.847280
v -0.045621 0.000000 -5.847280
v 0.000000 0.045277 -5.847280
v 0.045621 0.000000 -5.847280
v -0.000002 -0.044341 -5.893030
v 0.044641 0.000000 -5.890750
v -0.000002 0.044341 -5.893030
v 0.013988 0.000000 -5.953020
v 0.262017 0.283943 -6.059890
v 0.553904 0.324179 -6.106100
v 0.547928 0.000000 -6.234150
v 0.094282 0.153913 -5.954790
v 0.067141 0.000000 -6.014690
v 0.262017 -0.283943 -6.059890
v 0.251568 0.000000 -6.157570
v 0.054049 -0.100723 -5.917610
v 0.094281 -0.153913 -5.954790
v 0.054049 0.100723 -5.917610
v 0.554233 0.000000 -6.047100
v 0.270278 0.000000 -6.019600
v 0.553904 -0.324180 -6.106100
v -0.013988 0.000000 -5.953020
v -0.044641 0.000000 -5.890750
v -0.547928 0.000000 -6.234150
v -0.553904 0.324179 -6.106100
v -0.262017 0.283943 -6.059890
v -0.067141 0.000000 -6.014690
v -0.094282 0.153913 -5.954790
v -0.251568 0.000000 -6.157570
v -0.262017 -0.283943 -6.059890
v -0.054049 0.100723 -5.917610
v -0.094281 -0.153913 -5.954790
v -0.054049 -0.100723 -5.917610
v -0.270278 0.000000 -6.019600
v -0.554233 0.000000 -6.047100
v -0.553904 -0.324180 -6.106100
v 0.483474 0.530032 -4.869160
v 0.489012 0.509698 -4.866300
v 0.402883 0.537836 -4.884690
v 0.553538 0.528894 -4.820380
v 0.563771 0.491322 -4.815100
v 0.602408 0.534594 -4.745780
v 0.615778 0.485503 -4.738880
v 0.622644 0.546265 -4.656710
v 0.637115 0.493130 -4.649240
v 0.611165 0.562130 -4.566730
v 0.624534 0.513039 -4.559840
v 0.569718 0.579774 -4.489550
v 0.579951 0.542202 -4.484270
v 0.504614 0.596510 -4.436910
v 0.510152 0.576176 -4.434060
v 0.425765 0.609792 -4.416830
v 0.456575 0.553191 -4.871400
v 0.503836 0.571686 -4.824530
v 0.537469 0.590504 -4.751200
v 0.552354 0.606782 -4.662580
v 0.546225 0.618040 -4.572160
v 0.520016 0.622566 -4.493700
v 0.477716 0.619669 -4.439160
v 0.415523 0.572969 -4.872440
v 0.427981 0.608231 -4.826440
v 0.438359 0.638253 -4.753700
v 0.445079 0.658465 -4.665280
v 0.447116 0.665789 -4.574650
v 0.444161 0.659111 -4.495610
v 0.436663 0.639448 -4.440190
v 0.371317 0.584068 -4.871980
v 0.346299 0.628738 -4.825600
v 0.331636 0.665047 -4.752600
v 0.329563 0.687466 -4.664090
v 0.340393 0.692583 -4.573550
v 0.362479 0.679618 -4.494770
v 0.392457 0.650546 -4.439740
v 0.335802 0.583512 -4.870160
v 0.280676 0.627711 -4.822230
v 0.245896 0.663705 -4.748200
v 0.236758 0.686014 -4.659330
v 0.254653 0.691241 -4.569160
v 0.296856 0.678591 -4.491410
v 0.356942 0.649990 -4.437910
v 0.318495 0.571451 -4.867460
v 0.248696 0.605426 -4.817240
v 0.204113 0.634588 -4.741680
v 0.212870 0.662125 -4.562630
v 0.264876 0.656306 -4.486410
v 0.339635 0.637929 -4.435210
v 0.213554 0.021212 -4.555950
v -0.402883 0.537836 -4.884690
v -0.489012 0.509698 -4.866300
v -0.483474 0.530032 -4.869160
v -0.563771 0.491322 -4.815100
v -0.553538 0.528894 -4.820380
v -0.615778 0.485503 -4.738880
v -0.602408 0.534594 -4.745780
v -0.637115 0.493130 -4.649240
v -0.622644 0.546265 -4.656710
v -0.624534 0.513039 -4.559840
v -0.611165 0.562130 -4.566730
v -0.579951 0.542202 -4.484270
v -0.569718 0.579774 -4.489550
v -0.510152 0.576176 -4.434060
v -0.504614 0.596510 -4.436910
v -0.425765 0.609792 -4.416830
v -0.456575 0.553191 -4.871400
v -0.503836 0.571686 -4.824530
v -0.537469 0.590504 -4.751200
v -0.552354 0.606782 -4.662580
v -0.546225 0.618040 -4.572160
v -0.520016 0.622566 -4.493700
v -0.477716 0.619669 -4.439160
v -0.415523 0.572969 -4.872440
v -0.427981 0.608231 -4.826440
v -0.438359 0.638253 -4.753700
v -0.445079 0.658465 -4.665280
v -0.447116 0.665789 -4.574650
v -0.444161 0.659111 -4.495610
v -0.436663 0.639448 -4.440190
v -0.371317 0.584068 -4.871980
v -0.346298 0.628738 -4.825600
v -0.331636 0.665047 -4.752600
v -0.329563 0.687466 -4.664090
v -0.340393 0.692583 -4.573550
v -0.362479 0.679618 -4.494770
v -0.392457 0.650546 -4.439740
v -0.335802 0.583512 -4.870160
v -0.280676 0.627711 -4.822230
v -0.245896 0.663705 -4.748200
v -0.236758 0.686014 -4.659330
v -0.254653 0.691241 -4.569160
v -0.296856 0.678591 -4.491410
v -0.356942 0.649990 -4.437910
v -0.318495 0.571451 -4.867460
v -0.248696 0.605426 -4.817240
v -0.204113 0.634588 -4.741680
v -0.212870 0.662125 -4.562630
v -0.264876 0.656306 -4.486410
v -0.339635 0.637929 -4.435210
v -0.213554 0.021212 -4.555950
v 0.000000 0.599224 -3.751920
v 0.000000 0.667941 -3.934220
v 0.000000 0.736623 -4.116510
v 0.089896 0.734843 -4.198520
v -0.089896 0.734843 -4.198520
v 0.090578 0.734419 -4.164630
v -0.090578 0.734419 -4.164630
v 0.000000 0.748499 -4.224040
v 0.000000 0.747640 -4.189420
v 0.865181 0.000000 -6.207660
v 0.843113 -0.287576 -6.080690
v 0.831123 0.000000 -6.023520
v 0.843113 0.287576 -6.080690
v 1.071670 0.198532 -5.963570
v 1.109810 0.000000 -6.054340
v 1.206810 0.000000 -5.921480
v 1.186040 0.056711 -5.873980
v 1.213970 0.000000 -5.849900
v 1.056170 0.000000 -5.929090
v 1.071670 -0.198532 -5.963570
v 1.179530 0.000000 -5.863030
v 1.186040 -0.056712 -5.873980
v -0.843113 -0.287576 -6.080700
v -0.865181 0.000000 -6.207670
v -0.843113 0.287576 -6.080700
v -0.831123 0.000000 -6.023530
v -1.109810 0.000000 -6.054340
v -1.071670 0.198532 -5.963570
v -1.213970 0.000000 -5.849900
v -1.186040 0.056711 -5.873980
v -1.206810 0.000000 -5.921480
v -1.056170 0.000000 -5.929100
v -1.071670 -0.198532 -5.963570
v -1.179530 0.000000 -5.863030
v -1.186040 -0.056712 -5.873980
v 0.000000 0.490068 -3.515100
vt 0.658482 0.482143
vt 0.533114 -4.325170
vt 0.700613 -3.962820
vt 0.506696 0.482143
vt 0.700613 4.709840
vt 0.533114 5.279290
vt 0.373816 -4.598030
vt 0.361648 0.466758
vt 0.373816 5.569930
vt 0.212264 0.404258
vt 0.228853 5.316980
vt 0.533113 -4.325170
vt 0.361648 0.466755
vt 0.700613 4.709830
vt 0.212264 0.404255
vt 0.228853 -4.620730
vt 0.138902 -3.270420
vt 0.080383 0.341750
vt 0.138902 3.953920
vt 0.004464 0.361607
vt 0.991071 0.482143
vt 0.080383 0.341747
vt 0.004167 0.360417
vt 1.043400 1.062500
vt 0.025000 2.243750
vt -0.025000 1.081250
vt 1.015630 2.206250
vt 1.487500 0.775000
vt 1.509370 1.868750
vt 1.463540 -0.291667
vt 0.863281 1.015630
vt 0.855469 -0.062500
vt -0.007220 -0.532270
vt 0.106249 0.684028
vt -0.338187 0.769990
vt -0.412727 -0.452737
vt 1.487340 0.783333
vt 0.109375 0.687500
vt 0.000000 -0.531250
vt -0.406250 -0.468750
vt -0.343750 0.781250
vt 1.015630 2.203130
vt -0.023438 1.078130
vt 0.023438 2.234380
vt 1.512410 1.869930
vt -0.156250 -4.027780
vt 0.375000 -4.923610
vt -0.182292 -4.927080
vt 0.763393 -4.290180
vt 0.817708 -3.322920
vt 1.333330 -3.312500
vt 1.453130 -2.343750
vt 0.968750 -0.875000
vt 0.695772 -1.895220
vt 0.546875 -0.687500
vt 0.296875 -1.962500
vt -0.212740 -1.324520
vt -0.437500 -0.906250
vt 1.218750 -3.906250
vt 1.484380 -1.250000
vt 1.453130 -0.093750
vt 0.953125 0.312500
vt 0.953125 1.000000
vt 0.562500 1.343750
vt -0.076389 -3.156250
vt 0.345833 -2.310420
vt 0.178125 -2.272920
vt 0.208807 -2.139200
vt 0.333333 -2.183330
vt 0.326705 -2.078130
vt 0.233631 -2.049110
vt -0.259615 -1.456730
vt 0.359375 1.468750
vt 0.171875 1.614580
vt -0.296875 1.437500
vt -0.058594 1.039060
vt -0.050781 -0.070313
vt -0.078125 -4.117190
vt 0.872396 -4.291670
vt -0.101563 -4.708330
vt -0.145833 -5.036460
vt 1.278130 -3.912500
vt 0.872605 -4.293460
vt 1.279950 -3.910750
vt -0.100463 -4.703860
vt -0.143619 -5.032840
vt 1.329270 -3.313310
vt 0.764499 -4.292630
vt 1.217450 -3.910750
vt 0.817432 -3.324100
vt 1.456090 -2.341670
vt 0.967241 -0.885383
vt 1.481160 -1.255070
vt 1.451310 -0.103255
vt 0.956446 0.321625
vt 0.540863 -0.691679
vt 0.695311 -1.895810
vt 0.326806 -2.078360
vt 0.232991 -2.048620
vt 0.209092 -2.141530
vt -0.260221 -1.457550
vt -0.212707 -1.326520
vt -0.440364 -0.906065
vt -0.077792 -3.160190
vt -0.157080 -4.036150
vt 0.374616 -4.923980
vt -0.181898 -4.930140
vt 0.948013 0.989322
vt 0.559150 1.329240
vt 0.362812 1.464490
vt 0.167708 1.620010
vt -0.298103 1.427530
vt 1.029270 0.489784
vt 0.500002 -0.879167
vt 1.068460 -1.112790
vt 0.500000 0.490466
vt 1.035030 2.230250
vt -0.033350 2.235050
vt -0.029272 0.489784
vt -0.068455 -1.112790
vt 0.398438 1.807290
vt 0.439732 0.450893
vt -0.163086 0.480469
vt -0.195685 2.197920
vt 0.439443 0.451345
vt 0.398517 1.806760
vt -0.162694 0.479532
vt -0.142270 -1.427630
vt 0.963867 0.534180
vt 0.762500 2.790630
vt 1.218750 2.138540
vt 0.862305 -1.833980
vt 1.313480 -0.851563
vt 0.963657 0.533613
vt 0.861899 -1.833730
vt 1.312900 -0.850168
vt 0.762365 2.789690
vt 1.219170 2.138690
vt 0.431547 2.101120
vt 0.302622 2.107040
vt 0.568453 2.101120
vt 0.697378 2.107040
vt 0.208716 1.946240
vt 0.071920 1.776520
vt 0.093969 1.907250
vt 0.190124 1.802160
vt 0.391357 1.973110
vt 0.378994 1.818550
vt 0.809876 1.802160
vt 0.906031 1.907250
vt 0.928080 1.776520
vt 0.791284 1.946240
vt 0.621006 1.818550
vt 0.608643 1.973110
vt 0.329794 2.140470
vt 0.177663 2.260050
vt 0.167556 2.094750
vt 0.219543 2.022320
vt 0.088805 1.979610
vt 0.000000 2.220380
vt 0.309792 2.053750
vt 0.400040 2.079520
vt 0.500000 2.079520
vt 0.599960 2.079520
vt 0.690208 2.053750
vt 0.670206 2.140470
vt 0.822337 2.260050
vt 0.832444 2.094750
vt 1.000000 2.220380
vt 0.911195 1.979610
vt 0.780457 2.022320
vt 0.609625 2.281250
vt 0.500000 2.168580
vt 0.527680 2.096990
vt 0.500000 2.048810
vt 0.600052 2.079520
vt 0.645130 2.065470
vt 0.309791 2.053750
vt 0.354870 2.065470
vt 0.399948 2.079520
vt 0.390375 2.281250
vt 0.390376 2.281250
vt 0.609624 2.281250
vt 0.472320 2.096990
vt 0.452899 1.720670
vt 0.500000 1.748060
vt 0.444190 1.736500
vt 0.500000 1.733820
vt 0.547101 1.720670
vt 0.555810 1.736500
vt 0.500000 1.761000
vt 0.500000 1.780140
vt 0.506220 1.000860
vt 0.644174 0.595276
vt 0.997494 0.676379
vt 0.496606 0.585448
vt 0.349251 0.598086
vt -0.002459 0.685906
vt -0.030546 -1.264240
vt 1.036660 -1.887650
vt -0.036651 -1.887650
vt 1.030530 -1.264240
vt -0.038055 -0.450750
vt 1.038030 -0.450750
vt -0.013935 0.451182
vt 1.013910 0.451182
vt -0.031983 1.357950
vt 1.031960 1.357950
vt 1.046320 -2.326760
vt -0.050223 -2.326760
vt 1.035860 -2.610770
vt -0.035882 -2.610770
vt 0.566185 0.197744
vt 0.311146 0.368511
vt 0.592991 0.214369
vt 0.295440 0.353639
vt 0.539378 0.181119
vt 0.279734 0.338766
vt 0.788506 0.080546
vt 0.820114 0.097334
vt 0.759215 0.064740
vt 0.193196 0.386693
vt 0.182043 0.370988
vt 0.204348 0.402399
vt 0.097698 0.418344
vt 0.095477 0.400863
vt 0.093255 0.383382
vt 0.658582 0.989773
vt 0.818189 0.981131
vt 0.680364 0.989773
vt 0.777943 0.981131
vt 0.601698 0.989773
vt 0.672833 0.981131
vt 0.517787 0.989773
vt 0.517787 0.981131
vt 0.433877 0.989773
vt 0.362741 0.981131
vt 0.376992 0.989773
vt 0.257632 0.981131
vt 0.355211 0.989773
vt 0.217386 0.981131
vt 0.898016 0.968198
vt 0.847074 0.968198
vt 0.720365 0.968198
vt 0.517787 0.968198
vt 0.315210 0.968198
vt 0.188500 0.968198
vt 0.137559 0.968198
vt 0.929343 0.952941
vt 0.874205 0.952941
vt 0.737055 0.952941
vt 0.517787 0.952941
vt 0.298519 0.952941
vt 0.161370 0.952941
vt 0.106231 0.952941
vt 0.898016 0.937685
vt 0.847074 0.937685
vt 0.720365 0.937685
vt 0.517787 0.937685
vt 0.315210 0.937685
vt 0.188500 0.937685
vt 0.137559 0.937685
vt 0.818189 0.924751
vt 0.777943 0.924751
vt 0.672833 0.924751
vt 0.517787 0.924751
vt 0.362741 0.924751
vt 0.257632 0.924751
vt 0.217386 0.924751
vt 0.680364 0.916109
vt 0.658582 0.916109
vt 0.601698 0.916109
vt 0.517787 0.916109
vt 0.433877 0.916109
vt 0.376992 0.916109
vt 0.355211 0.916109
vt 0.517787 0.992808
vt 0.517787 0.913074
vt 0.818189 0.983972
vt 0.658582 0.992614
vt 0.680364 0.992614
vt 0.777943 0.983972
vt 0.898016 0.971038
vt 0.847074 0.971038
vt 0.929343 0.955782
vt 0.874205 0.955782
vt 0.898016 0.940526
vt 0.847074 0.940526
vt 0.818189 0.927592
vt 0.777943 0.927592
vt 0.680364 0.918950
vt 0.658582 0.918950
vt 0.601698 0.992614
vt 0.672833 0.983972
vt 0.720365 0.971038
vt 0.737055 0.955782
vt 0.720365 0.940526
vt 0.672833 0.927592
vt 0.601698 0.918950
vt 0.517787 0.992614
vt 0.517787 0.983972
vt 0.517787 0.971038
vt 0.517787 0.955782
vt 0.517787 0.940526
vt 0.517787 0.927592
vt 0.517787 0.918950
vt 0.433877 0.992614
vt 0.362741 0.983972
vt 0.315210 0.971038
vt 0.298519 0.955782
vt 0.315210 0.940526
vt 0.362741 0.927592
vt 0.433877 0.918950
vt 0.376992 0.992614
vt 0.257632 0.983972
vt 0.188500 0.971038
vt 0.161370 0.955782
vt 0.188500 0.940526
vt 0.257632 0.927592
vt 0.376992 0.918950
vt 0.355211 0.992614
vt 0.217386 0.983972
vt 0.137559 0.971038
vt 0.106231 0.955782
vt 0.137559 0.940526
vt 0.217386 0.927592
vt 0.355211 0.918950
vt 0.517787 0.995649
vt 0.517787 0.915915
vt 0.500000 -0.186916
vt 0.498047 0.320313
vt -0.000000 0.321010
vt -0.066987 -0.110121
vt -0.029130 0.747806
vt -0.001734 0.321010
vt 0.500000 0.747806
vt 1.001730 0.321010
vt 1.029130 0.747806
vt 0.500000 -0.184375
vt 1.066990 -0.110121
vt 0.499999 1.025080
vt 0.500000 0.750000
vt -0.024554 0.750000
vt 0.764564 1.025080
vt 0.499999 1.302350
vt 0.235435 1.025080
vt -0.505682 -1.934660
vt 0.168269 -2.281250
vt -0.071875 -3.175000
vt -0.071949 -3.173840
vt 0.177083 -2.273440
vt -0.503606 -1.937500
vt -0.271029 -1.493440
vt -0.276622 -1.610710
vt -0.271635 -1.495190
vt -0.275240 -1.612980
vt 0.499998 -0.007876
vt 0.615922 1.012550
vt 0.909560 0.885288
vt 0.499998 1.028770
vt 0.384074 1.012550
vt 0.090436 0.885288
vt 0.500000 1.727420
vt 0.545544 1.702900
vt 0.545201 1.716370
vt 0.500000 1.713630
vt 0.454799 1.716370
vt 0.454456 1.702900
vt 0.500000 1.661700
vt 0.444625 0.085253
vt 0.452712 0.085253
vt 0.296487 0.055339
vt 0.288401 0.055339
vt -0.007433 0.428119
vt 0.837208 0.661219
vt 0.944716 0.437877
vt -0.007433 0.666086
vt 0.952803 0.437877
vt 0.845294 0.661219
vt -0.007433 0.440481
vt -0.007433 0.657435
vt 0.834622 0.211956
vt -0.007433 0.199916
vt 0.826536 0.211956
vt -0.007433 0.061692
vt -0.007433 0.022671
vt 0.122801 0.014144
vt -0.007433 0.049067
vt 0.130887 0.014144
vt -0.007433 0.220005
vt -0.007433 0.859085
vt 0.583762 0.850899
vt 0.012619 0.961480
vt 0.354721 0.956586
vt 0.027202 0.982894
vt 0.012619 0.954173
vt 0.346634 0.956586
vt -0.007433 0.847033
vt 0.575675 0.850899
usemtl mat_0
s 1
f 47/1 6/2 5/3
f 47/1 48/4 6/2
f 94/5 48/4 47/1
f 94/5 91/6 48/4
f 48/4 9/7 6/2
f 48/4 10/8 9/7
f 91/6 10/8 48/4
f 91/6 92/9 10/8
f 3/10 10/8 92/9
f 38/11 3/10 92/9
f 101/12 127/1 102/3
f 101/12 126/4 127/1
f 104/7 126/4 101/12
f 104/7 103/13 126/4
f 155/6 103/13 154/9
f 155/6 126/4 103/13
f 157/14 126/4 155/6
f 157/14 127/1 126/4
f 103/13 96/15 107/11
f 154/9 103/13 107/11
f 10/8 8/16 9/7
f 10/8 3/10 8/16
f 4/17 8/16 3/10
f 3/10 2/18 4/17
f 1/19 2/18 3/10
f 1/19 30/20 2/18
f 4/17 2/18 30/20
f 38/10 1/11 3/19
f 54/21 47/1 5/3
f 54/21 94/5 47/1
f 105/16 103/13 104/7
f 105/16 96/15 103/13
f 99/17 96/15 105/16
f 99/17 97/22 96/15
f 117/23 97/22 99/17
f 117/23 98/19 97/22
f 96/15 97/22 98/19
f 98/19 107/11 96/15
f 127/1 133/21 102/3
f 127/1 157/14 133/21
usemtl mat_1
f 72/24 74/25 75/26
f 72/24 73/27 74/25
f 92/28 73/27 72/24
f 92/28 91/29 73/27
f 38/30 92/28 72/31
f 24/32 38/30 72/31
f 113/33 114/34 115/35
f 112/36 113/33 115/35
f 154/37 107/30 81/32
f 80/31 154/37 81/32
f 42/38 37/39 112/40
f 115/41 42/38 112/40
f 144/42 79/43 143/44
f 144/42 80/24 79/43
f 155/45 80/24 144/42
f 155/45 154/37 80/24
f 49/46 39/47 59/48
f 49/46 31/49 39/47
f 20/50 31/49 49/46
f 20/50 8/51 31/49
f 9/52 8/51 20/50
f 20/50 7/53 9/52
f 29/54 7/53 20/50
f 29/54 53/55 7/53
f 35/56 53/55 29/54
f 35/56 37/39 53/55
f 36/57 37/39 35/56
f 36/57 68/58 37/39
f 112/40 37/39 68/58
f 8/51 4/59 31/49
f 7/53 6/60 9/52
f 7/53 5/61 6/60
f 52/62 5/61 7/53
f 52/62 63/63 5/61
f 60/64 63/63 52/62
f 52/62 42/38 60/64
f 53/55 42/38 52/62
f 53/55 37/39 42/38
f 52/62 7/53 53/55
f 50/65 20/50 49/46
f 50/65 32/66 20/50
f 33/67 32/66 50/65
f 33/67 34/68 32/66
f 13/69 32/66 34/68
f 13/69 29/54 32/66
f 12/70 29/54 13/69
f 12/70 35/56 29/54
f 11/71 35/56 12/70
f 11/71 36/57 35/56
f 55/72 36/57 11/71
f 11/71 34/68 55/72
f 13/69 34/68 11/71
f 11/71 12/70 13/69
f 29/54 20/50 32/66
f 42/38 64/73 60/64
f 42/38 41/74 64/73
f 40/75 41/74 42/38
f 42/38 115/41 40/75
f 75/76 24/32 72/31
f 75/76 25/77 24/32
f 26/78 24/32 25/77
f 26/78 43/79 24/32
f 95/80 43/79 26/78
f 95/80 27/81 43/79
f 43/79 38/30 24/32
f 43/79 1/82 38/30
f 81/32 79/76 80/31
f 81/32 134/77 79/76
f 122/78 134/77 81/32
f 81/32 106/83 122/78
f 107/30 106/83 81/32
f 107/30 98/84 106/83
f 106/83 159/85 122/78
f 106/83 110/86 159/85
f 105/87 118/88 99/89
f 105/87 108/90 118/88
f 104/91 108/90 105/87
f 104/91 100/92 108/90
f 101/93 100/92 104/91
f 101/93 102/94 100/92
f 131/95 100/92 102/94
f 131/95 132/96 100/92
f 114/34 132/96 131/95
f 114/34 113/33 132/96
f 119/56 132/96 113/33
f 119/56 116/97 132/96
f 15/98 116/97 119/56
f 15/98 14/69 116/97
f 16/99 14/69 15/98
f 16/99 17/100 14/69
f 70/101 17/100 16/99
f 16/99 69/102 70/101
f 119/56 69/102 16/99
f 119/56 113/33 69/102
f 68/103 69/102 113/33
f 113/33 112/36 68/103
f 119/56 16/99 15/98
f 116/97 100/92 132/96
f 116/97 108/90 100/92
f 19/66 108/90 116/97
f 19/66 128/104 108/90
f 18/67 128/104 19/66
f 19/66 17/100 18/67
f 14/69 17/100 19/66
f 19/66 116/97 14/69
f 129/105 108/90 128/104
f 129/105 118/88 108/90
f 120/106 118/88 129/105
f 129/105 158/107 120/106
f 140/108 131/95 102/94
f 140/108 137/109 131/95
f 114/34 131/95 137/109
f 137/109 141/110 114/34
f 121/111 114/34 141/110
f 121/111 40/112 114/34
f 115/35 114/34 40/112
usemtl mat_2
f 21/113 23/114 59/115
f 21/113 22/116 23/114
f 27/117 22/116 21/113
f 27/117 110/118 22/116
f 109/119 22/116 110/118
f 109/119 23/114 22/116
f 158/120 23/114 109/119
usemtl mat_3
f 39/121 28/122 21/123
f 59/124 39/121 21/123
f 111/125 120/126 158/124
f 109/127 111/125 158/124
f 28/122 27/128 21/123
f 28/122 30/129 27/128
f 39/121 30/129 28/122
f 39/121 31/130 30/129
f 4/131 30/129 31/130
f 30/129 43/132 27/128
f 30/129 1/133 43/132
f 110/128 111/125 109/127
f 110/128 117/134 111/125
f 106/135 117/134 110/128
f 106/135 98/136 117/134
f 117/134 120/126 111/125
f 117/134 118/137 120/126
f 99/138 118/137 117/134
usemtl mat_4
f 58/139 82/140 44/140
f 58/139 83/139 82/140
f 136/141 83/139 58/139
f 136/141 146/141 83/139
f 125/142 146/141 136/141
f 125/142 147/142 146/141
f 86/143 91/144 94/145
f 86/143 73/146 91/144
f 76/147 73/146 86/143
f 76/147 74/148 73/146
f 144/149 157/150 155/151
f 144/149 151/152 157/150
f 143/153 151/152 144/149
f 143/153 142/154 151/152
f 44/140 46/155 58/139
f 44/140 45/156 46/155
f 61/157 45/156 44/140
f 61/157 63/158 45/156
f 5/145 63/158 61/157
f 61/157 54/159 5/145
f 62/160 54/159 61/157
f 62/160 89/157 54/159
f 82/140 89/157 62/160
f 82/140 90/156 89/157
f 93/155 90/156 82/140
f 93/155 88/161 90/156
f 77/162 88/161 93/155
f 77/162 76/147 88/161
f 78/163 76/147 77/162
f 78/163 142/154 76/147
f 145/164 142/154 78/163
f 145/164 149/165 142/154
f 156/166 149/165 145/164
f 156/166 152/167 149/165
f 147/142 152/167 156/166
f 147/142 153/168 152/167
f 139/169 153/168 147/142
f 139/169 133/170 153/168
f 138/168 133/170 139/169
f 138/168 102/150 133/170
f 140/171 102/150 138/168
f 138/168 124/167 140/171
f 125/142 124/167 138/168
f 125/142 123/166 124/167
f 136/141 123/166 125/142
f 136/141 130/172 123/166
f 56/173 130/172 136/141
f 56/173 135/174 130/172
f 40/175 135/174 56/173
f 40/175 121/176 135/174
f 130/172 135/174 121/176
f 121/176 123/166 130/172
f 141/177 123/166 121/176
f 141/177 137/165 123/166
f 124/167 123/166 137/165
f 137/165 140/171 124/167
f 44/140 62/160 61/157
f 44/140 82/140 62/160
f 139/169 125/142 138/168
f 139/169 147/142 125/142
f 60/178 45/156 63/158
f 60/178 46/155 45/156
f 64/179 46/155 60/178
f 64/179 41/180 46/155
f 51/181 46/155 41/180
f 51/181 58/139 46/155
f 56/173 58/139 51/181
f 56/173 136/141 58/139
f 86/143 88/161 76/147
f 86/143 87/158 88/161
f 94/145 87/158 86/143
f 94/145 89/157 87/158
f 54/159 89/157 94/145
f 90/156 87/158 89/157
f 90/156 88/161 87/158
f 83/139 93/155 82/140
f 83/139 85/182 93/155
f 84/173 85/182 83/139
f 84/173 78/163 85/182
f 148/183 78/163 84/173
f 148/183 145/164 78/163
f 156/166 145/164 148/183
f 148/183 146/141 156/166
f 84/173 146/141 148/183
f 84/173 83/139 146/141
f 156/166 146/141 147/142
f 77/162 85/182 78/163
f 77/162 93/155 85/182
f 149/165 151/152 142/154
f 149/165 150/171 151/152
f 152/167 150/171 149/165
f 152/167 153/168 150/171
f 157/150 150/171 153/168
f 157/150 151/152 150/171
f 153/168 133/170 157/150
f 51/181 57/184 56/173
f 51/181 41/180 57/184
f 40/175 57/184 41/180
f 40/175 56/173 57/184
f 55/185 65/186 36/187
f 55/185 67/188 65/186
f 70/189 65/186 67/188
f 70/189 69/190 65/186
f 66/191 65/186 69/190
f 66/191 36/187 65/186
f 68/192 36/187 66/191
f 66/191 69/190 68/192
usemtl mat_5
f 71/193 55/194 34/195
f 71/193 67/196 55/194
f 70/197 67/196 71/193
f 71/193 17/198 70/197
usemtl mat_6
f 25/199 122/200 26/201
f 25/199 134/202 122/200
f 75/203 134/202 25/199
f 75/203 79/204 134/202
f 74/205 79/204 75/203
f 74/205 143/206 79/204
f 76/207 143/206 74/205
f 76/207 142/208 143/206
f 159/209 26/201 122/200
f 159/209 95/210 26/201
f 110/211 95/210 159/209
f 110/211 27/212 95/210
usemtl mat_7
f 165/213 163/214 164/215
f 165/213 162/216 163/214
f 169/217 162/216 165/213
f 169/217 173/218 162/216
f 171/213 173/218 169/217
f 171/213 172/216 173/218
f 164/215 172/216 171/213
f 164/215 163/214 172/216
f 164/215 167/219 166/220
f 164/215 171/213 167/219
f 169/217 167/219 171/213
f 169/217 168/221 167/219
f 165/213 168/221 169/217
f 165/213 170/219 168/221
f 166/220 170/219 165/213
f 165/213 164/215 166/220
usemtl mat_8
f 173/218 174/222 162/216
f 173/218 175/223 174/222
f 172/216 175/223 173/218
f 172/216 176/222 175/223
f 163/214 176/222 172/216
f 163/214 177/224 176/222
f 162/216 177/224 163/214
f 162/216 174/222 177/224
usemtl mat_9
f 179/225 174/222 178/226
f 179/225 177/224 174/222
f 180/226 177/224 179/225
f 180/226 176/222 177/224
f 196/227 176/222 180/226
f 196/227 175/223 176/222
f 178/226 175/223 196/227
f 178/226 174/222 175/223
usemtl mat_10
f 210/228 214/229 211/230
f 210/228 213/231 214/229
f 226/232 213/231 210/228
f 226/232 227/233 213/231
f 233/234 227/233 226/232
f 233/234 234/235 227/233
f 240/236 234/235 233/234
f 240/236 241/237 234/235
f 247/238 241/237 240/236
f 247/238 248/239 241/237
f 254/240 248/239 247/238
f 254/240 255/241 248/239
f 213/231 216/242 214/229
f 213/231 215/243 216/242
f 227/233 215/243 213/231
f 227/233 228/244 215/243
f 234/235 228/244 227/233
f 234/235 235/245 228/244
f 241/237 235/245 234/235
f 241/237 242/246 235/245
f 248/239 242/246 241/237
f 248/239 249/247 242/246
f 255/241 249/247 248/239
f 255/241 256/248 249/247
f 215/243 218/249 216/242
f 215/243 217/250 218/249
f 228/244 217/250 215/243
f 228/244 229/251 217/250
f 235/245 229/251 228/244
f 235/245 236/252 229/251
f 242/246 236/252 235/245
f 242/246 243/253 236/252
f 249/247 243/253 242/246
f 249/247 250/254 243/253
f 256/248 250/254 249/247
f 256/248 160/255 250/254
f 217/250 220/256 218/249
f 217/250 219/257 220/256
f 229/251 219/257 217/250
f 229/251 230/258 219/257
f 236/252 230/258 229/251
f 236/252 237/259 230/258
f 243/253 237/259 236/252
f 243/253 244/260 237/259
f 250/254 244/260 243/253
f 250/254 251/261 244/260
f 160/255 251/261 250/254
f 160/255 257/262 251/261
f 219/257 222/263 220/256
f 219/257 221/264 222/263
f 230/258 221/264 219/257
f 230/258 231/265 221/264
f 237/259 231/265 230/258
f 237/259 238/266 231/265
f 244/260 238/266 237/259
f 244/260 245/267 238/266
f 251/261 245/267 244/260
f 251/261 252/268 245/267
f 257/262 252/268 251/261
f 257/262 258/269 252/268
f 221/264 224/270 222/263
f 221/264 223/271 224/270
f 231/265 223/271 221/264
f 231/265 232/272 223/271
f 238/266 232/272 231/265
f 238/266 239/273 232/272
f 245/267 239/273 238/266
f 245/267 246/274 239/273
f 252/268 246/274 245/267
f 252/268 253/275 246/274
f 258/269 253/275 252/268
f 258/269 259/276 253/275
f 211/230 212/277 210/228
f 211/230 260/252 212/277
f 214/229 260/252 211/230
f 214/229 216/242 260/252
f 218/249 260/252 216/242
f 218/249 220/256 260/252
f 222/263 260/252 220/256
f 222/263 224/270 260/252
f 225/278 260/252 224/270
f 225/278 259/276 260/252
f 253/275 259/276 225/278
f 225/278 246/274 253/275
f 239/273 246/274 225/278
f 225/278 232/272 239/273
f 223/271 232/272 225/278
f 225/278 224/270 223/271
f 212/277 226/232 210/228
f 212/277 233/234 226/232
f 240/236 233/234 212/277
f 212/277 247/238 240/236
f 254/240 247/238 212/277
f 212/277 260/252 254/240
f 255/241 254/240 260/252
f 260/252 256/248 255/241
f 160/255 256/248 260/252
f 260/252 257/262 160/255
f 258/269 257/262 260/252
f 260/252 259/276 258/269
usemtl mat_11
f 264/279 263/280 262/281
f 264/279 265/282 263/280
f 266/283 265/282 264/279
f 266/283 267/284 265/282
f 268/285 267/284 266/283
f 268/285 269/286 267/284
f 270/287 269/286 268/285
f 270/287 271/288 269/286
f 272/289 271/288 270/287
f 272/289 273/290 271/288
f 274/291 273/290 272/289
f 274/291 275/292 273/290
f 265/282 277/293 263/280
f 265/282 278/294 277/293
f 267/284 278/294 265/282
f 267/284 279/295 278/294
f 269/286 279/295 267/284
f 269/286 280/296 279/295
f 271/288 280/296 269/286
f 271/288 281/297 280/296
f 273/290 281/297 271/288
f 273/290 282/298 281/297
f 275/292 282/298 273/290
f 275/292 283/299 282/298
f 278/294 284/300 277/293
f 278/294 285/301 284/300
f 279/295 285/301 278/294
f 279/295 286/302 285/301
f 280/296 286/302 279/295
f 280/296 287/303 286/302
f 281/297 287/303 280/296
f 281/297 288/304 287/303
f 282/298 288/304 281/297
f 282/298 289/305 288/304
f 283/299 289/305 282/298
f 283/299 290/306 289/305
f 285/301 291/307 284/300
f 285/301 292/308 291/307
f 286/302 292/308 285/301
f 286/302 293/309 292/308
f 287/303 293/309 286/302
f 287/303 294/310 293/309
f 288/304 294/310 287/303
f 288/304 295/311 294/310
f 289/305 295/311 288/304
f 289/305 296/312 295/311
f 290/306 296/312 289/305
f 290/306 297/313 296/312
f 292/308 298/314 291/307
f 292/308 299/315 298/314
f 293/309 299/315 292/308
f 293/309 300/316 299/315
f 294/310 300/316 293/309
f 294/310 301/317 300/316
f 295/311 301/317 294/310
f 295/311 302/318 301/317
f 296/312 302/318 295/311
f 296/312 303/319 302/318
f 297/313 303/319 296/312
f 297/313 304/320 303/319
f 299/315 305/321 298/314
f 299/315 306/322 305/321
f 300/316 306/322 299/315
f 300/316 307/323 306/322
f 301/317 307/323 300/316
f 301/317 161/324 307/323
f 302/318 161/324 301/317
f 302/318 308/325 161/324
f 303/319 308/325 302/318
f 303/319 309/326 308/325
f 304/320 309/326 303/319
f 304/320 310/327 309/326
f 263/280 261/328 262/281
f 263/280 277/293 261/328
f 284/300 261/328 277/293
f 284/300 291/307 261/328
f 298/314 261/328 291/307
f 298/314 305/321 261/328
f 311/303 261/328 305/321
f 311/303 262/281 261/328
f 264/279 262/281 311/303
f 311/303 266/283 264/279
f 268/285 266/283 311/303
f 311/303 270/287 268/285
f 272/289 270/287 311/303
f 311/303 274/291 272/289
f 276/329 274/291 311/303
f 276/329 275/292 274/291
f 283/299 275/292 276/329
f 276/329 290/306 283/299
f 297/313 290/306 276/329
f 276/329 304/320 297/313
f 310/327 304/320 276/329
f 276/329 311/303 310/327
f 309/326 310/327 311/303
f 311/303 308/325 309/326
f 161/324 308/325 311/303
f 311/303 307/323 161/324
f 306/322 307/323 311/303
f 311/303 305/321 306/322
usemtl mat_12
f 23/330 347/331 49/332
f 59/333 23/330 49/332
f 347/331 50/334 49/335
f 347/331 312/336 50/334
f 129/337 312/336 347/331
f 129/337 128/338 312/336
f 129/337 347/331 23/339
f 158/340 129/337 23/339
usemtl mat_13
f 313/341 312/342 128/338
f 313/341 50/343 312/342
usemtl mat_14
f 128/338 314/344 313/341
f 313/341 314/345 50/346
usemtl mat_14_NONE
f 314/347 33/348 50/349
f 128/350 18/351 314/352
f 315/353 18/67 17/100
f 315/353 317/354 18/67
f 314/352 18/67 317/354
f 33/67 316/355 34/68
f 33/67 318/356 316/355
f 314/352 318/356 33/67
f 71/357 315/358 17/359
f 71/357 319/360 315/358
f 316/361 319/360 71/357
f 71/357 34/362 316/361
f 319/363 317/364 315/365
f 319/363 320/366 317/364
f 316/367 320/366 319/363
f 316/367 318/368 320/366
f 320/366 314/369 317/364
f 320/366 318/368 314/369
f 190/370 185/371 191/372
f 189/373 190/370 191/372
f 201/371 205/370 206/373
f 204/372 201/371 206/373
f 184/374 322/375 194/376
f 184/374 321/377 322/375
f 183/378 321/377 184/374
f 183/378 324/379 321/377
f 192/380 324/379 183/378
f 192/380 323/381 324/379
f 194/376 323/381 192/380
f 194/376 322/375 323/381
f 335/377 209/376 334/375
f 335/377 197/374 209/376
f 336/379 197/374 335/377
f 336/379 198/378 197/374
f 337/381 198/378 336/379
f 337/381 208/380 198/378
f 334/375 208/380 337/381
f 334/375 209/376 208/380
f 184/374 182/382 183/378
f 184/374 188/383 182/382
f 187/384 188/383 184/374
f 187/384 186/385 188/383
f 190/370 186/385 187/384
f 190/370 181/386 186/385
f 189/373 181/386 190/370
f 189/373 178/387 181/386
f 179/388 178/387 189/373
f 189/373 191/372 179/388
f 180/389 179/388 191/372
f 191/372 181/386 180/389
f 185/371 181/386 191/372
f 185/371 186/385 181/386
f 182/382 186/385 185/371
f 182/382 188/383 186/385
f 178/387 180/389 181/386
f 178/387 195/386 180/389
f 206/373 195/386 178/387
f 206/373 205/370 195/386
f 200/385 195/386 205/370
f 200/385 201/371 195/386
f 199/382 201/371 200/385
f 199/382 207/390 201/371
f 208/380 207/390 199/382
f 208/380 203/384 207/390
f 209/376 203/384 208/380
f 209/376 197/374 203/384
f 202/383 203/384 197/374
f 202/383 200/385 203/384
f 199/382 200/385 202/383
f 202/383 197/374 199/382
f 198/378 199/382 197/374
f 198/378 208/380 199/382
f 205/370 203/384 200/385
f 205/370 207/390 203/384
f 201/371 207/390 205/370
f 182/382 192/380 183/378
f 182/382 193/390 192/380
f 185/371 193/390 182/382
f 185/371 190/370 193/390
f 187/384 193/390 190/370
f 187/384 192/380 193/390
f 194/376 192/380 187/384
f 187/384 184/374 194/376
f 204/372 195/386 201/371
f 204/372 180/389 195/386
f 196/388 180/389 204/372
f 204/372 206/373 196/388
f 178/387 196/388 206/373
f 321/377 326/391 322/375
f 321/377 324/379 326/391
f 325/392 326/391 324/379
f 325/392 327/393 326/391
f 328/394 327/393 325/392
f 328/394 329/395 327/393
f 332/396 329/395 328/394
f 332/396 333/397 329/395
f 330/398 333/397 332/396
f 330/398 331/399 333/397
f 323/381 331/399 330/398
f 323/381 322/375 331/399
f 326/391 331/399 322/375
f 326/391 327/393 331/399
f 333/397 331/399 327/393
f 327/393 329/395 333/397
f 328/394 330/398 332/396
f 328/394 325/392 330/398
f 323/381 330/398 325/392
f 325/392 324/379 323/381
f 334/375 338/391 335/377
f 334/375 344/399 338/391
f 337/381 344/399 334/375
f 337/381 343/398 344/399
f 339/392 343/398 337/381
f 339/392 341/394 343/398
f 342/393 341/394 339/392
f 342/393 340/395 341/394
f 346/397 340/395 342/393
f 346/397 345/396 340/395
f 343/398 345/396 346/397
f 343/398 341/394 345/396
f 340/395 345/396 341/394
f 346/397 344/399 343/398
f 346/397 342/393 344/399
f 338/391 344/399 342/393
f 342/393 339/392 338/391
f 336/379 338/391 339/392
f 336/379 335/377 338/391
f 337/381 336/379 339/392
