xof 0303txt 0032

template AnimTicksPerSecond {
  <9E415A43-7BA6-4a73-8743-B73D47E88476>
  DWORD AnimTicksPerSecond;
}

template XSkinMeshHeader {
  <3cf169ce-ff7c-44ab-93c0-f78f62d172e2>
  WORD nMaxSkinWeightsPerVertex;
  WORD nMaxSkinWeightsPerFace;
  WORD nBones;
}

template SkinWeights {
  <6f0d123b-bad2-4167-a0d0-80224f25fabb>
  STRING transformNodeName;
  DWORD nWeights;
  array DWORD vertexIndices[nWeights];
  array float weights[nWeights];
  Matrix4x4 matrixOffset;
}

Frame Root {
  FrameTransformMatrix {
     1.000000, 0.000000, 0.000000, 0.000000,
     0.000000, 0.000000, 1.000000, 0.000000,
     0.000000, 1.000000,-0.000000, 0.000000,
     0.000000, 0.000000, 0.000000, 1.000000;;
  }
  Frame gamale_mat_0 {
    FrameTransformMatrix {
       1.000000, 0.000000, 0.000000, 0.000000,
       0.000000, 1.000000, 0.000000, 0.000000,
       0.000000, 0.000000, 1.000000, 0.000000,
       0.000000, 0.000000, 0.000000, 1.000000;;
    }
    Mesh { //Mesh Mesh
      228;
       4.438517; 8.622012;-0.575559;,
       5.965364; 4.962550;-1.614354;,
       5.787640; 9.140356;-0.628815;,
       5.965364; 4.962550;-1.614354;,
       7.095384; 6.100078;-1.497803;,
       5.787640; 9.140356;-0.628815;,
       7.140926; 9.492935;-0.720605;,
       5.787640; 9.140356;-0.628815;,
       7.095384; 6.100078;-1.497803;,
       7.095384; 6.100078;-1.497803;,
       8.231524; 7.729666;-1.266820;,
       7.140926; 9.492935;-0.720605;,
       7.140926; 9.492935;-0.720605;,
       8.231524; 7.729666;-1.266820;,
       7.973158; 9.419584;-0.843877;,
       8.231524; 7.729666;-1.266820;,
       8.425594; 8.601604;-1.090127;,
       7.973158; 9.419584;-0.843877;,
       0.667985; 6.013556;-0.694162;,
       0.105880; 5.303113;-0.785690;,
       0.560937; 4.504373;-1.028275;,
       0.667985; 6.013556;-0.694162;,
       0.560937; 4.504373;-1.028275;,
       0.958025; 4.334823;-1.118180;,
       1.570880; 0.980675;-2.587382;,
       2.232816; 1.030601;-2.605139;,
       3.239082; 2.265006;-2.154752;,
       1.570880; 0.980675;-2.587382;,
       3.239082; 2.265006;-2.154752;,
       3.207024; 2.863179;-1.906474;,
       0.886212; 4.533003;-1.084364;,
       0.526893; 4.609908;-1.031903;,
       0.089359; 3.872513;-1.310381;,
       0.886212; 4.533003;-1.084364;,
       0.089359; 3.872513;-1.310381;,
       0.099400; 3.405692;-1.503275;,
      -0.560936; 4.504374;-1.028276;,
      -0.105880; 5.303113;-0.785692;,
      -0.667986; 6.013556;-0.694163;,
      -0.560936; 4.504374;-1.028276;,
      -0.667986; 6.013556;-0.694163;,
      -0.958025; 4.334823;-1.118181;,
      -3.239081; 2.265007;-2.154748;,
      -2.232815; 1.030601;-2.605135;,
      -1.570879; 0.980676;-2.587378;,
      -3.239081; 2.265007;-2.154748;,
      -1.570879; 0.980676;-2.587378;,
      -3.207023; 2.863179;-1.906469;,
      -0.089357; 3.872515;-1.310377;,
      -0.526891; 4.609907;-1.031899;,
      -0.886210; 4.533003;-1.084360;,
      -0.089357; 3.872515;-1.310377;,
      -0.886210; 4.533003;-1.084360;,
      -0.099399; 3.405692;-1.503271;,
      -5.965364; 4.962551;-1.614355;,
      -4.438516; 8.622013;-0.575561;,
      -7.095383; 6.100078;-1.497804;,
      -4.438516; 8.622013;-0.575561;,
      -5.787638; 9.140356;-0.628817;,
      -7.095383; 6.100078;-1.497804;,
      -7.095383; 6.100078;-1.497804;,
      -5.787638; 9.140356;-0.628817;,
      -8.231523; 7.729666;-1.266821;,
      -5.787638; 9.140356;-0.628817;,
      -7.140925; 9.492935;-0.720606;,
      -8.231523; 7.729666;-1.266821;,
      -8.231523; 7.729666;-1.266821;,
      -7.140925; 9.492935;-0.720606;,
      -8.425593; 8.601604;-1.090129;,
      -7.140925; 9.492935;-0.720606;,
      -7.973158; 9.419584;-0.843879;,
      -8.425593; 8.601604;-1.090129;,
       7.973158; 9.419584;-0.843877;,
       8.155028;10.626924;-0.616202;,
       7.337869;10.742757;-0.484883;,
       7.337869;10.742757;-0.484883;,
       7.140926; 9.492935;-0.720605;,
       7.973158; 9.419584;-0.843877;,
       9.632033; 8.257298;-1.324311;,
       8.425594; 8.601604;-1.090127;,
       9.448225; 7.386918;-1.501767;,
       8.425594; 8.601604;-1.090127;,
       8.231524; 7.729666;-1.266820;,
       9.448225; 7.386918;-1.501767;,
       9.150313;10.267963;-0.799626;,
       7.973158; 9.419584;-0.843877;,
       9.675435; 9.506417;-1.042209;,
       7.973158; 9.419584;-0.843877;,
       8.425594; 8.601604;-1.090127;,
       9.675435; 9.506417;-1.042209;,
       0.958025; 4.334823;-1.118180;,
       1.805375; 4.163790;-1.266086;,
       0.667985; 6.013556;-0.694162;,
       1.805375; 4.163790;-1.266086;,
       3.187175; 4.048145;-1.469650;,
       0.667985; 6.013556;-0.694162;,
       0.667985; 6.013556;-0.694162;,
       3.187175; 4.048145;-1.469650;,
       1.782022; 7.147962;-0.575238;,
       3.187175; 4.048145;-1.469650;,
       4.495368; 4.300883;-1.578875;,
       1.782022; 7.147962;-0.575238;,
       1.782022; 7.147962;-0.575238;,
       4.495368; 4.300883;-1.578875;,
       3.149387; 8.030708;-0.546820;,
       4.495368; 4.300883;-1.578875;,
       5.965364; 4.962550;-1.614354;,
       3.149387; 8.030708;-0.546820;,
       3.149387; 8.030708;-0.546820;,
       5.965364; 4.962550;-1.614354;,
       4.438517; 8.622012;-0.575559;,
       0.099400; 3.405692;-1.503275;,
       0.171713; 2.485853;-1.886397;,
       0.886212; 4.533003;-1.084364;,
       0.171713; 2.485853;-1.886397;,
       1.693575; 4.274394;-1.237587;,
       0.886212; 4.533003;-1.084364;,
       1.693575; 4.274394;-1.237587;,
       0.171713; 2.485853;-1.886397;,
       0.430846; 1.655630;-2.243403;,
       0.430846; 1.655630;-2.243403;,
       2.531151; 3.858981;-1.457156;,
       1.693575; 4.274394;-1.237587;,
       2.531151; 3.858981;-1.457156;,
       0.430846; 1.655630;-2.243403;,
       0.884980; 1.195119;-2.459377;,
       0.884980; 1.195119;-2.459377;,
       2.982811; 3.416749;-1.665457;,
       2.531151; 3.858981;-1.457156;,
       2.982811; 3.416749;-1.665457;,
       0.884980; 1.195119;-2.459377;,
       1.570880; 0.980675;-2.587382;,
       1.570880; 0.980675;-2.587382;,
       3.207024; 2.863179;-1.906474;,
       2.982811; 3.416749;-1.665457;,
       4.030388; 1.884476;-2.357274;,
       3.239082; 2.265006;-2.154752;,
       3.747541; 1.054401;-2.682878;,
       3.239082; 2.265006;-2.154752;,
       2.971383; 1.463743;-2.469363;,
       3.747541; 1.054401;-2.682878;,
       2.971383; 1.463743;-2.469363;,
       3.239082; 2.265006;-2.154752;,
       2.232816; 1.030601;-2.605139;,
       2.232816; 1.030601;-2.605139;,
       2.443494; 0.129937;-2.991550;,
       2.971383; 1.463743;-2.469363;,
       2.971383; 1.463743;-2.469363;,
       2.443494; 0.129937;-2.991550;,
       3.233078; 0.326598;-2.956270;,
      -8.155027;10.626924;-0.616203;,
      -7.973158; 9.419584;-0.843879;,
      -7.337870;10.742757;-0.484884;,
      -7.973158; 9.419584;-0.843879;,
      -7.140925; 9.492935;-0.720606;,
      -7.337870;10.742757;-0.484884;,
      -9.632033; 8.257297;-1.324312;,
      -9.448224; 7.386918;-1.501768;,
      -8.425593; 8.601604;-1.090129;,
      -9.448224; 7.386918;-1.501768;,
      -8.231523; 7.729666;-1.266821;,
      -8.425593; 8.601604;-1.090129;,
      -9.150313;10.267968;-0.799628;,
      -9.675435; 9.506417;-1.042211;,
      -7.973158; 9.419584;-0.843879;,
      -9.675435; 9.506417;-1.042211;,
      -8.425593; 8.601604;-1.090129;,
      -7.973158; 9.419584;-0.843879;,
      -0.958025; 4.334823;-1.118181;,
      -0.667986; 6.013556;-0.694163;,
      -1.805374; 4.163790;-1.266087;,
      -0.667986; 6.013556;-0.694163;,
      -3.187175; 4.048144;-1.469651;,
      -1.805374; 4.163790;-1.266087;,
      -3.187175; 4.048144;-1.469651;,
      -0.667986; 6.013556;-0.694163;,
      -1.782022; 7.147963;-0.575239;,
      -1.782022; 7.147963;-0.575239;,
      -4.495367; 4.300883;-1.578877;,
      -3.187175; 4.048144;-1.469651;,
      -4.495367; 4.300883;-1.578877;,
      -1.782022; 7.147963;-0.575239;,
      -3.149388; 8.030708;-0.546821;,
      -3.149388; 8.030708;-0.546821;,
      -5.965364; 4.962551;-1.614355;,
      -4.495367; 4.300883;-1.578877;,
      -5.965364; 4.962551;-1.614355;,
      -3.149388; 8.030708;-0.546821;,
      -4.438516; 8.622013;-0.575561;,
      -0.099399; 3.405692;-1.503271;,
      -0.886210; 4.533003;-1.084360;,
      -0.171713; 2.485852;-1.886393;,
      -0.886210; 4.533003;-1.084360;,
      -1.693574; 4.274395;-1.237584;,
      -0.171713; 2.485852;-1.886393;,
      -0.171713; 2.485852;-1.886393;,
      -1.693574; 4.274395;-1.237584;,
      -0.430843; 1.655628;-2.243399;,
      -1.693574; 4.274395;-1.237584;,
      -2.531149; 3.858981;-1.457153;,
      -0.430843; 1.655628;-2.243399;,
      -0.430843; 1.655628;-2.243399;,
      -2.531149; 3.858981;-1.457153;,
      -0.884979; 1.195120;-2.459373;,
      -2.531149; 3.858981;-1.457153;,
      -2.982809; 3.416749;-1.665453;,
      -0.884979; 1.195120;-2.459373;,
      -0.884979; 1.195120;-2.459373;,
      -2.982809; 3.416749;-1.665453;,
      -1.570879; 0.980676;-2.587378;,
      -2.982809; 3.416749;-1.665453;,
      -3.207023; 2.863179;-1.906469;,
      -1.570879; 0.980676;-2.587378;,
      -4.030387; 1.884476;-2.357270;,
      -3.747539; 1.054402;-2.682874;,
      -3.239081; 2.265007;-2.154748;,
      -3.747539; 1.054402;-2.682874;,
      -2.971381; 1.463742;-2.469359;,
      -3.239081; 2.265007;-2.154748;,
      -3.239081; 2.265007;-2.154748;,
      -2.971381; 1.463742;-2.469359;,
      -2.232815; 1.030601;-2.605135;,
      -2.971381; 1.463742;-2.469359;,
      -2.443492; 0.129937;-2.991546;,
      -2.232815; 1.030601;-2.605135;,
      -2.443492; 0.129937;-2.991546;,
      -2.971381; 1.463742;-2.469359;,
      -3.233076; 0.326599;-2.956266;;
      76;
      3;0;1;2;,
      3;3;4;5;,
      3;6;7;8;,
      3;9;10;11;,
      3;12;13;14;,
      3;15;16;17;,
      3;18;19;20;,
      3;21;22;23;,
      3;24;25;26;,
      3;27;28;29;,
      3;30;31;32;,
      3;33;34;35;,
      3;36;37;38;,
      3;39;40;41;,
      3;42;43;44;,
      3;45;46;47;,
      3;48;49;50;,
      3;51;52;53;,
      3;54;55;56;,
      3;57;58;59;,
      3;60;61;62;,
      3;63;64;65;,
      3;66;67;68;,
      3;69;70;71;,
      3;72;73;74;,
      3;75;76;77;,
      3;78;79;80;,
      3;81;82;83;,
      3;84;85;86;,
      3;87;88;89;,
      3;90;91;92;,
      3;93;94;95;,
      3;96;97;98;,
      3;99;100;101;,
      3;102;103;104;,
      3;105;106;107;,
      3;108;109;110;,
      3;111;112;113;,
      3;114;115;116;,
      3;117;118;119;,
      3;120;121;122;,
      3;123;124;125;,
      3;126;127;128;,
      3;129;130;131;,
      3;132;133;134;,
      3;135;136;137;,
      3;138;139;140;,
      3;141;142;143;,
      3;144;145;146;,
      3;147;148;149;,
      3;150;151;152;,
      3;153;154;155;,
      3;156;157;158;,
      3;159;160;161;,
      3;162;163;164;,
      3;165;166;167;,
      3;168;169;170;,
      3;171;172;173;,
      3;174;175;176;,
      3;177;178;179;,
      3;180;181;182;,
      3;183;184;185;,
      3;186;187;188;,
      3;189;190;191;,
      3;192;193;194;,
      3;195;196;197;,
      3;198;199;200;,
      3;201;202;203;,
      3;204;205;206;,
      3;207;208;209;,
      3;210;211;212;,
      3;213;214;215;,
      3;216;217;218;,
      3;219;220;221;,
      3;222;223;224;,
      3;225;226;227;;
      MeshNormals { //Mesh Normals
        228;
         0.123753;-0.222816; 0.966948;,
         0.123936;-0.222846; 0.966918;,
         0.123844;-0.222968; 0.966918;,
         0.123936;-0.222846; 0.966918;,
         0.124210;-0.222907; 0.966887;,
         0.123844;-0.222968; 0.966918;,
         0.124424;-0.215979; 0.968413;,
         0.123844;-0.222968; 0.966918;,
         0.124210;-0.222907; 0.966887;,
         0.124210;-0.222907; 0.966887;,
         0.123508;-0.223273; 0.966887;,
         0.124424;-0.215979; 0.968413;,
         0.124424;-0.215979; 0.968413;,
         0.123508;-0.223273; 0.966887;,
         0.124485;-0.216956; 0.968200;,
         0.123508;-0.223273; 0.966887;,
         0.123325;-0.223090; 0.966948;,
         0.124485;-0.216956; 0.968200;,
         0.123844;-0.222877; 0.966918;,
         0.124241;-0.222846; 0.966887;,
         0.123875;-0.222846; 0.966918;,
         0.123844;-0.222877; 0.966918;,
         0.123875;-0.222846; 0.966918;,
         0.123783;-0.222846; 0.966948;,
         0.053377;-0.380352; 0.923276;,
         0.054048;-0.381390; 0.922819;,
         0.053377;-0.380352; 0.923276;,
         0.053377;-0.380352; 0.923276;,
         0.053377;-0.380352; 0.923276;,
         0.053377;-0.380352; 0.923276;,
         0.053377;-0.380352; 0.923276;,
         0.053377;-0.380352; 0.923276;,
         0.053377;-0.380352; 0.923276;,
         0.053377;-0.380352; 0.923276;,
         0.053377;-0.380352; 0.923276;,
         0.053377;-0.380352; 0.923276;,
        -0.123875;-0.222846; 0.966918;,
        -0.124241;-0.222846; 0.966887;,
        -0.123844;-0.222877; 0.966918;,
        -0.123875;-0.222846; 0.966918;,
        -0.123844;-0.222877; 0.966918;,
        -0.123783;-0.222846; 0.966948;,
        -0.053377;-0.380352; 0.923276;,
        -0.054048;-0.381390; 0.922819;,
        -0.053377;-0.380352; 0.923276;,
        -0.053377;-0.380352; 0.923276;,
        -0.053377;-0.380352; 0.923276;,
        -0.053377;-0.380352; 0.923276;,
        -0.053377;-0.380352; 0.923276;,
        -0.053377;-0.380352; 0.923276;,
        -0.053377;-0.380352; 0.923276;,
        -0.053377;-0.380352; 0.923276;,
        -0.053377;-0.380352; 0.923276;,
        -0.053377;-0.380352; 0.923276;,
        -0.123966;-0.222755; 0.966948;,
        -0.123875;-0.222877; 0.966918;,
        -0.123997;-0.222846; 0.966918;,
        -0.123875;-0.222877; 0.966918;,
        -0.123753;-0.223090; 0.966887;,
        -0.123997;-0.222846; 0.966918;,
        -0.123997;-0.222846; 0.966918;,
        -0.123753;-0.223090; 0.966887;,
        -0.123569;-0.223304; 0.966857;,
        -0.123753;-0.223090; 0.966887;,
        -0.124424;-0.215918; 0.968444;,
        -0.123569;-0.223304; 0.966857;,
        -0.123569;-0.223304; 0.966857;,
        -0.124424;-0.215918; 0.968444;,
        -0.123600;-0.223060; 0.966918;,
        -0.124424;-0.215918; 0.968444;,
        -0.124546;-0.216803; 0.968200;,
        -0.123600;-0.223060; 0.966918;,
         0.124485;-0.216956; 0.968200;,
         0.127354;-0.202277; 0.970977;,
         0.126804;-0.202551; 0.971007;,
         0.126804;-0.202551; 0.971007;,
         0.124424;-0.215979; 0.968413;,
         0.124485;-0.216956; 0.968200;,
         0.123936;-0.223273; 0.966826;,
         0.123325;-0.223090; 0.966948;,
         0.123844;-0.223334; 0.966826;,
         0.123325;-0.223090; 0.966948;,
         0.123508;-0.223273; 0.966887;,
         0.123844;-0.223334; 0.966826;,
         0.123997;-0.222510; 0.966979;,
         0.124485;-0.216956; 0.968200;,
         0.123997;-0.222510; 0.966979;,
         0.124485;-0.216956; 0.968200;,
         0.123325;-0.223090; 0.966948;,
         0.123997;-0.222510; 0.966979;,
         0.123783;-0.222846; 0.966948;,
         0.123783;-0.222846; 0.966948;,
         0.123844;-0.222877; 0.966918;,
         0.123783;-0.222846; 0.966948;,
         0.123783;-0.222877; 0.966948;,
         0.123844;-0.222877; 0.966918;,
         0.123844;-0.222877; 0.966918;,
         0.123783;-0.222877; 0.966948;,
         0.123753;-0.222877; 0.966948;,
         0.123783;-0.222877; 0.966948;,
         0.123722;-0.222877; 0.966948;,
         0.123753;-0.222877; 0.966948;,
         0.123753;-0.222877; 0.966948;,
         0.123722;-0.222877; 0.966948;,
         0.123753;-0.222846; 0.966948;,
         0.123722;-0.222877; 0.966948;,
         0.123936;-0.222846; 0.966918;,
         0.123753;-0.222846; 0.966948;,
         0.123753;-0.222846; 0.966948;,
         0.123936;-0.222846; 0.966918;,
         0.123753;-0.222816; 0.966948;,
         0.053377;-0.380352; 0.923276;,
         0.053377;-0.380352; 0.923276;,
         0.053377;-0.380352; 0.923276;,
         0.053377;-0.380352; 0.923276;,
         0.053377;-0.380352; 0.923276;,
         0.053377;-0.380352; 0.923276;,
         0.053377;-0.380352; 0.923276;,
         0.053377;-0.380352; 0.923276;,
         0.053377;-0.380352; 0.923276;,
         0.053377;-0.380352; 0.923276;,
         0.053377;-0.380352; 0.923276;,
         0.053377;-0.380352; 0.923276;,
         0.053377;-0.380352; 0.923276;,
         0.053377;-0.380352; 0.923276;,
         0.053377;-0.380352; 0.923276;,
         0.053377;-0.380352; 0.923276;,
         0.053377;-0.380352; 0.923276;,
         0.053377;-0.380352; 0.923276;,
         0.053377;-0.380352; 0.923276;,
         0.053377;-0.380352; 0.923276;,
         0.053377;-0.380352; 0.923276;,
         0.053377;-0.380352; 0.923276;,
         0.053377;-0.380352; 0.923276;,
         0.053377;-0.380352; 0.923276;,
         0.053377;-0.380352; 0.923276;,
         0.053377;-0.380352; 0.923276;,
         0.053377;-0.380352; 0.923276;,
         0.053377;-0.380352; 0.923276;,
         0.053591;-0.380871; 0.923063;,
         0.053377;-0.380352; 0.923276;,
         0.053591;-0.380871; 0.923063;,
         0.053377;-0.380352; 0.923276;,
         0.054048;-0.381390; 0.922819;,
         0.054048;-0.381390; 0.922819;,
         0.054384;-0.382580; 0.922300;,
         0.053591;-0.380871; 0.923063;,
         0.053591;-0.380871; 0.923063;,
         0.054384;-0.382580; 0.922300;,
         0.054048;-0.382488; 0.922361;,
        -0.127354;-0.202277; 0.970977;,
        -0.124546;-0.216803; 0.968200;,
        -0.126804;-0.202551; 0.971007;,
        -0.124546;-0.216803; 0.968200;,
        -0.124424;-0.215918; 0.968444;,
        -0.126804;-0.202551; 0.971007;,
        -0.123936;-0.223273; 0.966826;,
        -0.123844;-0.223334; 0.966826;,
        -0.123600;-0.223060; 0.966918;,
        -0.123844;-0.223334; 0.966826;,
        -0.123569;-0.223304; 0.966857;,
        -0.123600;-0.223060; 0.966918;,
        -0.123997;-0.222510; 0.966979;,
        -0.123997;-0.222510; 0.966979;,
        -0.124546;-0.216803; 0.968200;,
        -0.123997;-0.222510; 0.966979;,
        -0.123600;-0.223060; 0.966918;,
        -0.124546;-0.216803; 0.968200;,
        -0.123783;-0.222846; 0.966948;,
        -0.123844;-0.222877; 0.966918;,
        -0.123783;-0.222846; 0.966948;,
        -0.123844;-0.222877; 0.966918;,
        -0.123783;-0.222877; 0.966948;,
        -0.123783;-0.222846; 0.966948;,
        -0.123783;-0.222877; 0.966948;,
        -0.123844;-0.222877; 0.966918;,
        -0.123753;-0.222877; 0.966948;,
        -0.123753;-0.222877; 0.966948;,
        -0.123722;-0.222907; 0.966948;,
        -0.123783;-0.222877; 0.966948;,
        -0.123722;-0.222907; 0.966948;,
        -0.123753;-0.222877; 0.966948;,
        -0.123753;-0.222846; 0.966948;,
        -0.123753;-0.222846; 0.966948;,
        -0.123966;-0.222755; 0.966948;,
        -0.123722;-0.222907; 0.966948;,
        -0.123966;-0.222755; 0.966948;,
        -0.123753;-0.222846; 0.966948;,
        -0.123875;-0.222877; 0.966918;,
        -0.053377;-0.380352; 0.923276;,
        -0.053377;-0.380352; 0.923276;,
        -0.053377;-0.380352; 0.923276;,
        -0.053377;-0.380352; 0.923276;,
        -0.053377;-0.380352; 0.923276;,
        -0.053377;-0.380352; 0.923276;,
        -0.053377;-0.380352; 0.923276;,
        -0.053377;-0.380352; 0.923276;,
        -0.053377;-0.380352; 0.923276;,
        -0.053377;-0.380352; 0.923276;,
        -0.053377;-0.380352; 0.923276;,
        -0.053377;-0.380352; 0.923276;,
        -0.053377;-0.380352; 0.923276;,
        -0.053377;-0.380352; 0.923276;,
        -0.053377;-0.380352; 0.923276;,
        -0.053377;-0.380352; 0.923276;,
        -0.053377;-0.380352; 0.923276;,
        -0.053377;-0.380352; 0.923276;,
        -0.053377;-0.380352; 0.923276;,
        -0.053377;-0.380352; 0.923276;,
        -0.053377;-0.380352; 0.923276;,
        -0.053377;-0.380352; 0.923276;,
        -0.053377;-0.380352; 0.923276;,
        -0.053377;-0.380352; 0.923276;,
        -0.053377;-0.380352; 0.923276;,
        -0.053377;-0.380352; 0.923276;,
        -0.053377;-0.380352; 0.923276;,
        -0.053377;-0.380352; 0.923276;,
        -0.053591;-0.380871; 0.923063;,
        -0.053377;-0.380352; 0.923276;,
        -0.053377;-0.380352; 0.923276;,
        -0.053591;-0.380871; 0.923063;,
        -0.054048;-0.381390; 0.922819;,
        -0.053591;-0.380871; 0.923063;,
        -0.054384;-0.382611; 0.922300;,
        -0.054048;-0.381390; 0.922819;,
        -0.054384;-0.382611; 0.922300;,
        -0.053591;-0.380871; 0.923063;,
        -0.054048;-0.382488; 0.922361;;
        76;
        3;0;1;2;,
        3;3;4;5;,
        3;6;7;8;,
        3;9;10;11;,
        3;12;13;14;,
        3;15;16;17;,
        3;18;19;20;,
        3;21;22;23;,
        3;24;25;26;,
        3;27;28;29;,
        3;30;31;32;,
        3;33;34;35;,
        3;36;37;38;,
        3;39;40;41;,
        3;42;43;44;,
        3;45;46;47;,
        3;48;49;50;,
        3;51;52;53;,
        3;54;55;56;,
        3;57;58;59;,
        3;60;61;62;,
        3;63;64;65;,
        3;66;67;68;,
        3;69;70;71;,
        3;72;73;74;,
        3;75;76;77;,
        3;78;79;80;,
        3;81;82;83;,
        3;84;85;86;,
        3;87;88;89;,
        3;90;91;92;,
        3;93;94;95;,
        3;96;97;98;,
        3;99;100;101;,
        3;102;103;104;,
        3;105;106;107;,
        3;108;109;110;,
        3;111;112;113;,
        3;114;115;116;,
        3;117;118;119;,
        3;120;121;122;,
        3;123;124;125;,
        3;126;127;128;,
        3;129;130;131;,
        3;132;133;134;,
        3;135;136;137;,
        3;138;139;140;,
        3;141;142;143;,
        3;144;145;146;,
        3;147;148;149;,
        3;150;151;152;,
        3;153;154;155;,
        3;156;157;158;,
        3;159;160;161;,
        3;162;163;164;,
        3;165;166;167;,
        3;168;169;170;,
        3;171;172;173;,
        3;174;175;176;,
        3;177;178;179;,
        3;180;181;182;,
        3;183;184;185;,
        3;186;187;188;,
        3;189;190;191;,
        3;192;193;194;,
        3;195;196;197;,
        3;198;199;200;,
        3;201;202;203;,
        3;204;205;206;,
        3;207;208;209;,
        3;210;211;212;,
        3;213;214;215;,
        3;216;217;218;,
        3;219;220;221;,
        3;222;223;224;,
        3;225;226;227;;
      } //End of Mesh Normals
      MeshMaterialList { //Mesh Material List
        1;
        76;
        0,
        0,
        0,
        0,
        0,
        0,
        0,
        0,
        0,
        0,
        0,
        0,
        0,
        0,
        0,
        0,
        0,
        0,
        0,
        0,
        0,
        0,
        0,
        0,
        0,
        0,
        0,
        0,
        0,
        0,
        0,
        0,
        0,
        0,
        0,
        0,
        0,
        0,
        0,
        0,
        0,
        0,
        0,
        0,
        0,
        0,
        0,
        0,
        0,
        0,
        0,
        0,
        0,
        0,
        0,
        0,
        0,
        0,
        0,
        0,
        0,
        0,
        0,
        0,
        0,
        0,
        0,
        0,
        0,
        0,
        0,
        0,
        0,
        0,
        0,
        0;;
        Material mat_0 {
           0.640000; 0.640000; 0.640000; 1.000000;;
           92.156863;
           0.250000; 0.250000; 0.250000;;
           0.000000; 0.000000; 0.000000;;
          TextureFilename {"Textures/gamale_1_0.tga";}
        }
      } //End of Mesh Material List
      MeshTextureCoords { //Mesh UV Coordinates
        228;
         0.563251; 0.053160;,
         0.599100; 0.190710;,
         0.578660; 0.051143;,
         0.599100; 0.190710;,
         0.618925; 0.158298;,
         0.578660; 0.051143;,
         0.624403; 0.038166;,
         0.578660; 0.051143;,
         0.618925; 0.158298;,
         0.618925; 0.158298;,
         0.666480; 0.111162;,
         0.624403; 0.038166;,
         0.624403; 0.038166;,
         0.666480; 0.111162;,
         0.663597; 0.052363;,
         0.666480; 0.111162;,
         0.686051; 0.081299;,
         0.663597; 0.052363;,
         0.352008; 0.149094;,
         0.327525; 0.174438;,
         0.343277; 0.203954;,
         0.352008; 0.149094;,
         0.343277; 0.203954;,
         0.361727; 0.211363;,
         0.588114; 0.542831;,
         0.630777; 0.535410;,
         0.683498; 0.454909;,
         0.588114; 0.542831;,
         0.683498; 0.454909;,
         0.669759; 0.417386;,
         0.379129; 0.346522;,
         0.356381; 0.338428;,
         0.326896; 0.368088;,
         0.379129; 0.346522;,
         0.326896; 0.368088;,
         0.322709; 0.400961;,
         0.343277; 0.203954;,
         0.327525; 0.174438;,
         0.352008; 0.149094;,
         0.343277; 0.203954;,
         0.352008; 0.149094;,
         0.361727; 0.211363;,
         0.683498; 0.454909;,
         0.630777; 0.535410;,
         0.588114; 0.542831;,
         0.683498; 0.454909;,
         0.588114; 0.542831;,
         0.669759; 0.417386;,
         0.326896; 0.368088;,
         0.356381; 0.338428;,
         0.379129; 0.346522;,
         0.326896; 0.368088;,
         0.379129; 0.346522;,
         0.322709; 0.400961;,
         0.599100; 0.190710;,
         0.563251; 0.053160;,
         0.618925; 0.158298;,
         0.563251; 0.053160;,
         0.578660; 0.051143;,
         0.618925; 0.158298;,
         0.618925; 0.158298;,
         0.578660; 0.051143;,
         0.666480; 0.111162;,
         0.578660; 0.051143;,
         0.624403; 0.038166;,
         0.666480; 0.111162;,
         0.666480; 0.111162;,
         0.624403; 0.038166;,
         0.686051; 0.081299;,
         0.624403; 0.038166;,
         0.663597; 0.052363;,
         0.686051; 0.081299;,
         0.683652; 0.019220;,
         0.649699; 0.004912;,
         0.663597; 0.052363;,
         0.649699; 0.004912;,
         0.624403; 0.038166;,
         0.663597; 0.052363;,
         0.721013; 0.104163;,
         0.686051; 0.081299;,
         0.700311; 0.131983;,
         0.686051; 0.081299;,
         0.666480; 0.111162;,
         0.700311; 0.131983;,
         0.720652; 0.030135;,
         0.663597; 0.052363;,
         0.736337; 0.059838;,
         0.663597; 0.052363;,
         0.686051; 0.081299;,
         0.736337; 0.059838;,
         0.361727; 0.211363;,
         0.396582; 0.219899;,
         0.352008; 0.149094;,
         0.396582; 0.219899;,
         0.453647; 0.227727;,
         0.352008; 0.149094;,
         0.352008; 0.149094;,
         0.453647; 0.227727;,
         0.399754; 0.108458;,
         0.453647; 0.227727;,
         0.508175; 0.221618;,
         0.399754; 0.108458;,
         0.399754; 0.108458;,
         0.508175; 0.221618;,
         0.457606; 0.078985;,
         0.508175; 0.221618;,
         0.569970; 0.200655;,
         0.457606; 0.078985;,
         0.457606; 0.078985;,
         0.569970; 0.200655;,
         0.511814; 0.060190;,
         0.322709; 0.400961;,
         0.319694; 0.452508;,
         0.379129; 0.346522;,
         0.319694; 0.452508;,
         0.425681; 0.368868;,
         0.379129; 0.346522;,
         0.425681; 0.368868;,
         0.319694; 0.452508;,
         0.328647; 0.500968;,
         0.328647; 0.500968;,
         0.472795; 0.400180;,
         0.425681; 0.368868;,
         0.472795; 0.400180;,
         0.328647; 0.500968;,
         0.352307; 0.530945;,
         0.352307; 0.530945;,
         0.496453; 0.429122;,
         0.472795; 0.400180;,
         0.496453; 0.429122;,
         0.352307; 0.530945;,
         0.391897; 0.549639;,
         0.391897; 0.549639;,
         0.505520; 0.461947;,
         0.496453; 0.429122;,
         0.729575; 0.462514;,
         0.683498; 0.454909;,
         0.723543; 0.515807;,
         0.683498; 0.454909;,
         0.672121; 0.506385;,
         0.723543; 0.515807;,
         0.672121; 0.506385;,
         0.683498; 0.454909;,
         0.630777; 0.535410;,
         0.630777; 0.535410;,
         0.651652; 0.582202;,
         0.672121; 0.506385;,
         0.672121; 0.506385;,
         0.651652; 0.582202;,
         0.698008; 0.561156;,
         0.683652; 0.019220;,
         0.663597; 0.052363;,
         0.649699; 0.004912;,
         0.663597; 0.052363;,
         0.624403; 0.038166;,
         0.649699; 0.004912;,
         0.721013; 0.104163;,
         0.700311; 0.131983;,
         0.686051; 0.081299;,
         0.700311; 0.131983;,
         0.666480; 0.111162;,
         0.686051; 0.081299;,
         0.720652; 0.030135;,
         0.736337; 0.059838;,
         0.663597; 0.052363;,
         0.736337; 0.059838;,
         0.686051; 0.081299;,
         0.663597; 0.052363;,
         0.361727; 0.211363;,
         0.352008; 0.149094;,
         0.396582; 0.219899;,
         0.352008; 0.149094;,
         0.453647; 0.227727;,
         0.396582; 0.219899;,
         0.453647; 0.227727;,
         0.352008; 0.149094;,
         0.399754; 0.108458;,
         0.399754; 0.108458;,
         0.508175; 0.221618;,
         0.453647; 0.227727;,
         0.508175; 0.221618;,
         0.399754; 0.108458;,
         0.457606; 0.078985;,
         0.457606; 0.078985;,
         0.569970; 0.200655;,
         0.508175; 0.221618;,
         0.569970; 0.200655;,
         0.457606; 0.078985;,
         0.511814; 0.060190;,
         0.322709; 0.400961;,
         0.379129; 0.346522;,
         0.319694; 0.452508;,
         0.379129; 0.346522;,
         0.425681; 0.368868;,
         0.319694; 0.452508;,
         0.319694; 0.452508;,
         0.425681; 0.368868;,
         0.328647; 0.500968;,
         0.425681; 0.368868;,
         0.472795; 0.400180;,
         0.328647; 0.500968;,
         0.328647; 0.500968;,
         0.472795; 0.400180;,
         0.352307; 0.530945;,
         0.472795; 0.400180;,
         0.496453; 0.429122;,
         0.352307; 0.530945;,
         0.352307; 0.530945;,
         0.496453; 0.429122;,
         0.391897; 0.549639;,
         0.496453; 0.429122;,
         0.505520; 0.461947;,
         0.391897; 0.549639;,
         0.729575; 0.462514;,
         0.723543; 0.515807;,
         0.683498; 0.454909;,
         0.723543; 0.515807;,
         0.672121; 0.506385;,
         0.683498; 0.454909;,
         0.683498; 0.454909;,
         0.672121; 0.506385;,
         0.630777; 0.535410;,
         0.672121; 0.506385;,
         0.651652; 0.582202;,
         0.630777; 0.535410;,
         0.651652; 0.582202;,
         0.672121; 0.506385;,
         0.698008; 0.561156;;
      } //End of Mesh UV Coordinates
    } //End of Mesh Mesh
  } //End of gamale_mat_0
} //End of Root Frame
