# Blender v2.66 (sub 1) OBJ File: 'BR_Forretress-Shiny01.blend'
# www.blender.org
mtllib BR_Forretress-Shiny01.mtl
o foretos
v -1.359570 4.268510 -10.004100
v 1.359580 4.268510 -10.004100
v 0.000002 4.978950 -11.994000
v -3.459210 3.272960 -11.017700
v -3.559420 2.638090 -10.004100
v 3.459210 3.272960 -11.017700
v 3.284520 3.759290 -11.993500
v 1.359570 -4.268510 -10.004100
v -1.359580 -4.268510 -10.004100
v -0.000002 -4.978950 -11.994000
v 3.284520 -3.759290 -11.993500
v 3.459210 -3.272960 -11.017700
v -1.359580 -4.268510 -13.995900
v 1.359570 -4.268510 -13.995900
v 1.359580 4.268510 -13.995900
v -1.359570 4.268510 -13.995900
v -3.284520 -3.759290 -11.993500
v -3.559420 2.638080 -13.995900
v -3.459210 3.272960 -12.969100
v 3.459210 3.272960 -12.969100
v 4.399680 -0.000002 -10.004100
v 4.936440 -0.000002 -11.994000
v 4.596280 1.953810 -11.993500
v 4.399680 -0.000002 -13.995900
v 4.596280 -1.953810 -11.993500
v 4.188740 -2.268850 -12.969100
v -3.459210 -3.272960 -12.969100
v -4.188740 -2.268840 -11.017700
v -3.559420 -2.638080 -10.004100
v -4.399680 0.000002 -10.004100
v -4.188740 2.268850 -11.017700
v -4.399680 0.000002 -13.995900
v -4.596280 1.953810 -11.993500
v -4.188740 2.268850 -12.969100
v -4.936440 0.000002 -11.994000
v -3.284520 3.759290 -11.993500
v -4.596280 -1.953810 -11.993500
v 4.188740 2.268850 -12.969100
v 3.559420 2.638080 -13.995900
v 4.188740 2.268850 -11.017700
v 3.559420 2.638080 -10.004100
v -3.559420 -2.638080 -13.995900
v -4.188740 -2.268840 -12.969100
v -3.459210 -3.272960 -11.017700
v 3.459210 -3.272960 -12.969100
v 3.559420 -2.638080 -13.995900
v 4.188740 -2.268850 -11.017700
v 3.559420 -2.638090 -10.004100
v -4.188740 2.268850 -12.969100
v -4.596280 1.953810 -11.993500
v -4.188740 2.268850 -11.017700
v -3.459210 3.272960 -11.017700
v -3.284520 3.759290 -11.993500
v -3.459210 3.272960 -12.969100
v -3.459210 -3.272960 -12.969100
v -3.284520 -3.759290 -11.993500
v -3.459210 -3.272960 -11.017700
v -4.188740 -2.268840 -11.017700
v -4.596280 -1.953810 -11.993500
v -4.188740 -2.268840 -12.969100
v 4.188740 -2.268850 -12.969100
v 4.596280 -1.953810 -11.993500
v 4.188740 -2.268850 -11.017700
v 3.459210 -3.272960 -11.017700
v 3.284520 -3.759290 -11.993500
v 3.459210 -3.272960 -12.969100
v 3.459210 3.272960 -12.969100
v 3.284520 3.759290 -11.993500
v 3.459210 3.272960 -11.017700
v 4.188740 2.268850 -11.017700
v 4.596280 1.953810 -11.993500
v 4.188740 2.268850 -12.969100
v -1.367730 4.294120 -9.992110
v 1.367740 4.294120 -9.992110
v 0.000002 5.008820 -11.993900
v -3.479960 3.292600 -12.974900
v -3.304230 3.781840 -11.993400
v -1.367730 4.294120 -14.007900
v 3.479960 3.292600 -11.011800
v 3.304230 3.781840 -11.993400
v 1.367730 -4.294120 -9.992110
v -1.367740 -4.294120 -9.992110
v -0.000002 -5.008820 -11.993900
v 3.304230 -3.781840 -11.993400
v 3.479960 -3.292600 -11.011800
v -1.367740 -4.294120 -14.007900
v 1.367730 -4.294120 -14.007900
v 1.367740 4.294120 -14.007900
v -3.304230 -3.781840 -11.993400
v 4.426080 -0.000002 -9.992110
v 4.623860 1.965530 -11.993400
v 4.213870 2.282460 -11.011800
v 3.479960 3.292600 -12.974900
v 4.966060 -0.000002 -11.993900
v 4.426080 -0.000002 -14.007900
v 4.623860 -1.965530 -11.993400
v 4.213870 -2.282460 -12.974900
v -3.479970 -3.292600 -12.974900
v 4.213870 -2.282460 -11.011800
v 3.479960 -3.292600 -12.974900
v -4.426080 0.000002 -14.007900
v -4.623860 1.965530 -11.993400
v -4.213870 2.282460 -12.974900
v -4.966060 0.000002 -11.993900
v -4.426080 0.000002 -9.992110
v -4.623860 -1.965530 -11.993400
v 4.213870 2.282460 -12.974900
v -4.213870 -2.282460 -11.011800
v -3.479960 -3.292600 -11.011800
v -4.213870 -2.282460 -12.974900
v -3.479960 3.292600 -11.011800
v -4.213870 2.282460 -11.011800
v -3.113910 1.903210 -8.905530
v -2.592440 1.792430 -8.009380
v -3.511710 2.564150 -8.819710
v 2.564490 3.358040 -8.695780
v 3.767130 2.472310 -8.585580
v 3.988500 2.448260 -9.005170
v 3.193870 1.833540 -8.666620
v 3.509480 1.731910 -9.116670
v 3.780160 0.924478 -9.120640
v 2.940670 1.086350 -7.382690
v 3.663450 1.166820 -7.903820
v -4.764710 -1.932750 -8.652260
v -4.061260 -0.391867 -7.962100
v -4.776290 0.993159 -8.645000
v -0.749225 -2.951500 -7.519630
v -1.213480 0.762821 -7.060610
v -1.213480 0.762821 -7.060610
v -1.610640 0.302468 -6.282300
v 4.688950 0.609122 -8.617690
v -2.733210 2.490600 -7.688870
v -2.289210 -0.317404 -7.546890
v -2.289210 -0.317404 -7.546890
v -2.319400 -0.047622 -6.693380
v 3.471710 -0.931874 -8.635580
v 3.345540 -2.574960 -8.909950
v 3.968250 -1.876480 -8.324360
v -0.213460 -3.911700 -8.415020
v -1.005040 -3.717860 -7.284260
v -1.761460 -3.876180 -8.754110
v -1.286030 4.021160 -8.256850
v -0.975654 2.971020 -7.200080
v -2.252930 -2.881160 -8.222210
v -1.961170 -3.679830 -7.676290
v -2.448840 -3.626850 -8.980950
v -3.172330 -0.875870 -8.028160
v -3.948840 0.655564 -8.842150
v 2.680880 -2.928990 -7.621530
v 2.681740 -0.982597 -7.954460
v 2.906230 -0.983676 -7.187940
v 2.313050 -0.989323 -6.822740
v 2.311640 2.847510 -8.433060
v 1.686580 0.619821 -7.080350
v 1.686580 0.619821 -7.080350
v 2.507730 1.213690 -7.813260
v 1.696240 -0.754391 -7.170150
v 1.696240 -0.754391 -7.170150
v -3.883600 -2.139560 -8.071380
v -0.795921 2.195130 -7.632710
v 1.095960 3.910610 -7.806250
v 1.644860 0.858022 -6.449700
v 1.516730 3.089040 -7.948740
v 0.868329 0.885041 -6.253140
v 0.252600 2.595510 -7.051680
v -0.477945 -1.469100 -7.025040
v 1.152140 -1.636920 -7.053680
v 0.899096 -1.173390 -6.180230
v 4.712780 -1.888050 -9.048400
v -0.127630 -0.987054 -6.138980
v -0.374069 -0.452548 -6.862190
v -0.374069 -0.452548 -6.862190
v 0.785977 -3.256840 -8.058560
v 1.925580 -2.807510 -7.194880
v 1.453440 -2.116220 -7.497650
v 0.239527 2.072430 -7.367420
v 0.572065 1.128280 -6.934580
v 2.520340 -3.058410 -8.626230
v 3.699050 3.393400 -9.554080
v 3.699050 3.393400 -9.554080
v -2.143730 -4.648500 -9.509220
v -2.143730 -4.648500 -9.509220
v -1.014090 -4.984930 -9.473720
v -1.014090 -4.984930 -9.473720
v -1.851290 -4.090880 -10.298500
v -1.030950 -4.410810 -10.292800
v 1.019900 4.423480 -10.292300
v 1.004540 4.955410 -9.473740
v 1.004540 4.955410 -9.473740
v 1.893350 4.106440 -10.297000
v 4.348770 2.481020 -9.603280
v 4.348770 2.481020 -9.603280
v -3.784650 3.436360 -9.554090
v -3.784650 3.436360 -9.554090
v -2.151550 4.622890 -9.509230
v -2.151550 4.622890 -9.509230
v 4.348770 -2.510540 -9.603270
v 4.348770 -2.510540 -9.603270
v -1.014090 4.955410 -9.473740
v -1.014090 4.955410 -9.473740
v -1.854020 4.149290 -10.298500
v -4.481260 2.481020 -9.603280
v -4.481260 2.481020 -9.603280
v -3.913760 2.219590 -10.323200
v -3.310710 3.049620 -10.305600
v -4.481260 -2.510540 -9.603270
v -4.481260 -2.510540 -9.603270
v -5.105050 -0.590716 -9.660450
v -5.105050 -0.590716 -9.660450
v -3.776840 -3.461980 -9.554070
v -3.776840 -3.461980 -9.554070
v -5.105050 0.561189 -9.660450
v -5.105050 0.561189 -9.660450
v -3.310710 -3.056340 -10.305600
v -4.469360 0.509635 -10.368500
v -4.469360 -0.516345 -10.368500
v 3.950990 2.219590 -10.323200
v 3.347930 3.049620 -10.305600
v 4.972570 0.561187 -9.660460
v 4.972570 0.561187 -9.660460
v 4.972560 -0.590709 -9.660450
v 4.972560 -0.590709 -9.660450
v 4.506590 0.509629 -10.368500
v 4.506580 -0.516347 -10.368500
v -3.913760 -2.226310 -10.323200
v 2.058130 -4.605530 -9.509220
v 2.058130 -4.605530 -9.509220
v 1.004550 -4.984930 -9.473720
v 1.004550 -4.984930 -9.473720
v 1.019440 -4.410810 -10.292800
v 1.893350 -4.113150 -10.297000
v 3.950990 -2.226300 -10.323200
v 3.691230 -3.419010 -9.554070
v 3.691230 -3.419010 -9.554070
v 3.347930 -3.056340 -10.305600
v -1.030950 4.413020 -10.292800
v 2.065940 4.579920 -9.509230
v 2.065940 4.579920 -9.509230
v -0.420757 5.575660 -10.680200
v -0.420757 5.575660 -10.680200
v -0.501976 5.000920 -11.272900
v 0.465661 5.000920 -11.272900
v 0.398886 5.575660 -10.680200
v 0.398886 5.575660 -10.680200
v 2.533330 4.340870 -11.286700
v 3.316170 3.772110 -11.300400
v 3.599970 4.276330 -10.696000
v 3.599970 4.276330 -10.696000
v 2.936870 4.758110 -10.688200
v 2.936870 4.758110 -10.688200
v 4.601040 2.022760 -11.387000
v 5.172750 2.123120 -10.745700
v 5.172750 2.123120 -10.745700
v 5.426040 1.343590 -10.754300
v 5.426040 1.343590 -10.754300
v 4.900060 1.102480 -11.402100
v 5.179460 -2.102340 -10.745600
v 5.179460 -2.102340 -10.745600
v 4.612210 -1.988240 -11.387000
v 5.432750 -1.322810 -10.754200
v 5.432750 -1.322810 -10.754200
v 4.911230 -1.067960 -11.402000
v 2.562730 -4.319550 -11.286700
v 2.954580 -4.745280 -10.688200
v 2.954580 -4.745280 -10.688200
v 3.345560 -3.750790 -11.300400
v 3.617680 -4.263500 -10.696000
v 3.617680 -4.263500 -10.696000
v 0.465665 -5.000910 -11.272900
v -0.420753 -5.575650 -10.680200
v -0.420753 -5.575650 -10.680200
v 0.398890 -5.575650 -10.680200
v 0.398890 -5.575650 -10.680200
v -0.501972 -5.000910 -11.272900
v -2.562710 -4.319540 -11.286700
v -2.954560 -4.745270 -10.688100
v -2.954560 -4.745270 -10.688100
v -3.617660 -4.263500 -10.696000
v -3.617660 -4.263500 -10.696000
v -3.345550 -3.750780 -11.300400
v -4.911270 -1.067970 -11.402000
v -4.612250 -1.988240 -11.387000
v -5.432780 -1.322820 -10.754200
v -5.432780 -1.322820 -10.754200
v -5.179500 -2.102340 -10.745600
v -5.179500 -2.102340 -10.745600
v -5.172750 2.123140 -10.745700
v -5.172750 2.123140 -10.745700
v -4.601030 2.022770 -11.387100
v -4.900050 1.102500 -11.402100
v -5.426030 1.343610 -10.754300
v -5.426030 1.343610 -10.754300
v -3.599980 4.276350 -10.696000
v -3.599980 4.276350 -10.696000
v -3.316170 3.772130 -11.300400
v -2.936870 4.758130 -10.688200
v -2.936870 4.758130 -10.688200
v -2.533340 4.340890 -11.286700
v 1.761460 3.876180 -15.245900
v 2.252930 2.881160 -15.777800
v 1.961170 3.679830 -16.323700
v 1.005040 3.717860 -16.715700
v 2.319400 0.047622 -17.306601
v 1.610640 -0.302467 -17.717699
v 3.511710 -2.564150 -15.180300
v 2.592440 -1.792430 -15.990600
v 3.113910 -1.903210 -15.094500
v -3.767140 -2.472300 -15.414400
v -2.564490 -3.358040 -15.304200
v -3.988500 -2.448250 -14.994800
v -3.509480 -1.731910 -14.883300
v -3.193870 -1.833540 -15.333400
v -3.780160 -0.924477 -14.879300
v -2.940670 -1.086340 -16.617300
v -3.663450 -1.166820 -16.096201
v 1.213480 -0.762820 -16.939400
v 1.213480 -0.762820 -16.939400
v 0.749225 2.951500 -16.480400
v 2.733210 -2.490600 -16.311100
v 2.289210 0.317404 -16.453100
v 2.289210 0.317404 -16.453100
v -4.688950 -0.609120 -15.382300
v -2.681740 0.982599 -16.045500
v -2.680880 2.928990 -16.378401
v -2.906230 0.983678 -16.812000
v -2.313060 0.989325 -17.177200
v -1.686580 -0.619819 -16.919600
v -1.686580 -0.619819 -16.919600
v -2.311650 -2.847510 -15.566900
v -2.507730 -1.213690 -16.186701
v -2.507730 -1.213690 -16.186701
v -1.696240 0.754392 -16.829800
v -1.696240 0.754392 -16.829800
v 0.213461 3.911700 -15.585000
v 1.286030 -4.021160 -15.743100
v 0.975653 -2.971010 -16.799900
v 4.061260 0.391866 -16.037901
v 4.764710 1.932750 -15.347700
v 4.776280 -0.993160 -15.355000
v 3.172330 0.875870 -15.971800
v 2.448840 3.626850 -15.019000
v 3.883600 2.139560 -15.928600
v 3.948840 -0.655565 -15.157800
v -3.345540 2.574960 -15.090000
v -3.471710 0.931875 -15.364400
v -3.968250 1.876490 -15.675600
v -4.712780 1.888060 -14.951600
v -1.516730 -3.089040 -16.051201
v 0.795920 -2.195120 -16.367300
v -1.644860 -0.858021 -17.550301
v -1.095960 -3.910600 -16.193701
v 0.477944 1.469100 -16.974899
v -0.868331 -0.885040 -17.746799
v -1.152140 1.636930 -16.946301
v -0.252601 -2.595510 -16.948299
v -0.899097 1.173390 -17.819799
v 0.127629 0.987055 -17.861000
v 0.374069 0.452549 -17.137800
v -1.925580 2.807510 -16.805099
v -0.785977 3.256840 -15.941400
v -1.453440 2.116220 -16.502300
v -0.239528 -2.072430 -16.632601
v -0.572066 -1.128280 -17.065399
v -0.572066 -1.128280 -17.065399
v -2.520340 3.058410 -15.373700
v 2.143730 4.648510 -14.490700
v 2.143730 4.648510 -14.490700
v 1.014090 4.984930 -14.526300
v 1.014090 4.984930 -14.526300
v 1.851290 4.090880 -13.701500
v 1.030960 4.410810 -13.707200
v -1.893350 -4.106440 -13.702900
v -1.004550 -4.955410 -14.526200
v -1.004550 -4.955410 -14.526200
v -1.019900 -4.423480 -13.707700
v -3.699050 -3.393400 -14.445900
v -3.699050 -3.393400 -14.445900
v 3.784650 -3.436370 -14.445900
v 3.784650 -3.436370 -14.445900
v 2.151550 -4.622890 -14.490800
v 2.151550 -4.622890 -14.490800
v 1.014080 -4.955410 -14.526200
v 1.014080 -4.955410 -14.526200
v 1.854020 -4.149290 -13.701500
v -4.348770 -2.481020 -14.396700
v -4.348770 -2.481020 -14.396700
v 3.310710 -3.049620 -13.694400
v 4.481260 -2.481020 -14.396700
v 4.481260 -2.481020 -14.396700
v 3.913760 -2.219590 -13.676800
v 3.776840 3.461980 -14.445900
v 3.776840 3.461980 -14.445900
v 3.913830 2.226300 -13.676800
v 4.481320 2.510540 -14.396700
v 4.481320 2.510540 -14.396700
v 3.310710 3.056340 -13.694400
v 5.105050 0.590708 -14.339500
v 5.105050 0.590708 -14.339500
v 5.105050 -0.561191 -14.339500
v 5.105050 -0.561191 -14.339500
v 4.469390 0.516343 -13.631500
v 4.469370 -0.509633 -13.631500
v -3.950990 -2.219590 -13.676800
v -2.058130 4.605540 -14.490800
v -2.058130 4.605540 -14.490800
v -1.004540 4.984930 -14.526300
v -1.004540 4.984930 -14.526300
v -1.019430 4.410810 -13.707200
v -1.893350 4.113150 -13.702900
v -4.348770 2.510540 -14.396700
v -4.348770 2.510540 -14.396700
v -3.950980 2.226300 -13.676800
v -3.347930 3.056340 -13.694400
v -3.691230 3.419010 -14.445900
v -3.691230 3.419010 -14.445900
v -4.506580 -0.509629 -13.631500
v -4.506550 0.516342 -13.631500
v -4.972560 0.590710 -14.339500
v -4.972560 0.590710 -14.339500
v -4.972560 -0.561188 -14.339500
v -4.972560 -0.561188 -14.339500
v -3.347930 -3.049620 -13.694400
v -2.065940 -4.579920 -14.490800
v -2.065940 -4.579920 -14.490800
v 1.030950 -4.413020 -13.707200
v -0.398888 5.575650 -13.319800
v -0.398888 5.575650 -13.319800
v 0.420755 5.575650 -13.319800
v 0.420755 5.575650 -13.319800
v -0.467169 5.000910 -12.727100
v 0.503564 5.000910 -12.727100
v 2.954570 4.745280 -13.311800
v 2.954570 4.745280 -13.311800
v 3.614670 4.263660 -13.302300
v 3.614670 4.263660 -13.302300
v 2.562720 4.319550 -12.713300
v 3.345560 3.750790 -12.699600
v 4.612310 1.988230 -12.613000
v 4.911320 1.067960 -12.597900
v 5.432840 1.322810 -13.245700
v 5.432840 1.322810 -13.245700
v 5.179560 2.102330 -13.254300
v 5.179560 2.102330 -13.254300
v 5.426090 -1.343600 -13.245800
v 5.426090 -1.343600 -13.245800
v 4.900110 -1.102490 -12.598000
v 4.601100 -2.022770 -12.613000
v 5.172810 -2.123130 -13.254400
v 5.172810 -2.123130 -13.254400
v 3.316190 -3.772100 -12.699600
v 3.599990 -4.276330 -13.304000
v 3.599990 -4.276330 -13.304000
v 2.936890 -4.758100 -13.311800
v 2.936890 -4.758100 -13.311800
v 2.533360 -4.340860 -12.713300
v 0.420754 -5.575650 -13.319800
v 0.420754 -5.575650 -13.319800
v -0.398889 -5.575650 -13.319800
v -0.398889 -5.575650 -13.319800
v 0.501974 -5.000910 -12.727100
v -0.465663 -5.000910 -12.727100
v -3.599990 -4.276330 -13.304000
v -3.599990 -4.276330 -13.304000
v -3.316180 -3.772100 -12.699600
v -2.936880 -4.758100 -13.311800
v -2.936880 -4.758100 -13.311800
v -2.533350 -4.340860 -12.713300
v -4.899970 -1.102490 -12.598000
v -5.425950 -1.343600 -13.245800
v -5.425950 -1.343600 -13.245800
v -5.172670 -2.123130 -13.254400
v -5.172670 -2.123130 -13.254400
v -4.600950 -2.022770 -12.613000
v -5.432710 1.322800 -13.245700
v -5.432710 1.322800 -13.245700
v -5.179430 2.102330 -13.254300
v -5.179430 2.102330 -13.254300
v -4.911190 1.067960 -12.597900
v -4.612180 1.988230 -12.612900
v -2.954570 4.745280 -13.311800
v -2.954570 4.745280 -13.311800
v -2.562720 4.319550 -12.713300
v -3.617680 4.263510 -13.304000
v -3.617680 4.263510 -13.304000
v -3.345560 3.750790 -12.699600
v -6.471810 4.033800 -12.002900
v -5.166510 2.804390 -12.002700
v -4.717900 3.421850 -11.238200
v -6.082300 4.414120 -12.003400
v -6.156830 4.467330 -12.533000
v -5.841850 4.900860 -12.002900
v -4.269290 4.039310 -12.002700
v -4.717900 3.421850 -12.759700
v -6.156830 4.467330 -11.464700
v -4.099210 2.223350 -12.997900
v -4.418070 1.789190 -12.003200
v -3.388120 3.202080 -10.998700
v -3.072020 3.641870 -12.003200
v -3.388120 3.202080 -12.997900
v -4.099210 2.223350 -10.998700
v 4.717900 3.421850 -11.238200
v 5.166510 2.804390 -12.002700
v 6.471810 4.033800 -12.002900
v 6.082300 4.414120 -12.003400
v 6.156830 4.467330 -12.533000
v 5.841850 4.900860 -12.002900
v 4.717900 3.421850 -12.759700
v 4.269290 4.039310 -12.002700
v 6.156830 4.467330 -11.464700
v 4.418070 1.789190 -12.003200
v 4.099210 2.223350 -12.997900
v 3.388120 3.202080 -10.998700
v 3.388120 3.202080 -12.997900
v 4.099210 2.223350 -10.998700
v 3.072020 3.641870 -12.003200
v 4.717900 -3.421850 -11.238200
v 6.471810 -4.033800 -12.002900
v 5.166510 -2.804390 -12.002700
v 6.082300 -4.414120 -12.003400
v 6.156830 -4.467330 -12.533000
v 5.841850 -4.900860 -12.002900
v 4.269290 -4.039310 -12.002700
v 4.717900 -3.421850 -12.759700
v 6.156830 -4.467330 -11.464700
v 3.388120 -3.202080 -12.997900
v 4.099210 -2.223350 -12.997900
v 3.388120 -3.202080 -10.998700
v 3.072020 -3.641870 -12.003200
v 4.418070 -1.789190 -12.003200
v 4.099210 -2.223350 -10.998700
v -4.717900 -3.421850 -11.238200
v -5.166510 -2.804390 -12.002700
v -6.471810 -4.033800 -12.002900
v -6.082300 -4.414120 -12.003400
v -6.156830 -4.467330 -12.533000
v -5.841850 -4.900860 -12.002900
v -4.717900 -3.421850 -12.759700
v -4.269290 -4.039310 -12.002700
v -6.156830 -4.467330 -11.464700
v -4.099210 -2.223350 -12.997900
v -3.388120 -3.202080 -10.998700
v -3.388120 -3.202080 -12.997900
v -4.099210 -2.223350 -10.998700
v -4.418070 -1.789190 -12.003200
v -3.072020 -3.641870 -12.003200
v -5.859810 4.919210 -12.002900
v -6.177310 4.482210 -12.537300
v -6.102180 4.428580 -12.003500
v -6.494810 4.045210 -12.002900
v -6.177310 4.482210 -11.460400
v 6.102180 4.428580 -12.003500
v 5.859810 4.919210 -12.002900
v 6.177310 4.482210 -11.460400
v 6.177310 4.482210 -12.537300
v 6.494810 4.045210 -12.002900
v 6.494810 -4.045210 -12.002900
v 6.177310 -4.482210 -11.460400
v 6.102180 -4.428580 -12.003500
v 6.177310 -4.482210 -12.537300
v 5.859810 -4.919210 -12.002900
v -6.494810 -4.045210 -12.002900
v -6.177310 -4.482210 -12.537300
v -6.102180 -4.428580 -12.003500
v -5.859810 -4.919210 -12.002900
v -6.177310 -4.482210 -11.460400
vt 0.625189 0.000000
vt 0.500000 0.498490
vt 0.374811 0.000000
vt 0.802438 0.498364
vt 0.818523 0.253933
vt 0.827750 0.000000
vt 0.885698 0.253933
vt 0.905121 0.000000
vt 0.923224 0.498364
vt 0.954545 0.498490
vt 0.905121 1.000000
vt 0.885698 0.742769
vt 0.827750 1.000000
vt 0.818523 0.742769
vt 0.625189 1.000000
vt 0.197562 0.498364
vt 0.374811 1.000000
vt 0.181477 0.742769
vt 0.172250 1.000000
vt 0.114302 0.742769
vt 0.094879 1.000000
vt 0.076776 0.498364
vt 0.045455 0.498490
vt 0.094879 0.000000
vt 0.114302 0.253933
vt 0.172250 0.000000
vt 0.181477 0.253933
vt 0.000000 0.500026
vt 0.123695 1.000000
vt 0.044333 1.000000
vt 0.142697 0.500026
vt 0.044333 0.000000
vt 0.123695 0.000000
vt 0.123694 1.000000
vt 1.000000 0.500026
vt 0.876305 1.000000
vt 0.955666 1.000000
vt 0.857302 0.500026
vt 0.955666 0.000000
vt 0.876305 0.000000
vt 0.362292 -0.306452
vt 0.637708 -0.306452
vt 0.500000 0.497565
vt 0.149625 0.891563
vt 0.167318 0.497361
vt 0.362292 1.306450
vt 0.850375 0.103117
vt 0.832682 0.497361
vt 0.637708 1.306450
vt 0.850375 0.891563
vt 0.149625 0.103117
vt 0.945633 -0.306452
vt 0.965546 0.497361
vt 0.924268 0.103117
vt 1.000000 0.497565
vt 0.945633 1.306450
vt 0.924268 0.891563
vt 0.054367 1.306450
vt 0.034454 0.497361
vt 0.075732 0.891563
vt 0.000000 0.497565
vt 0.054367 -0.306452
vt 0.075732 0.103117
vt 0.044934 0.496856
vt 0.291003 0.496958
vt 0.184681 0.903247
vt 0.184681 0.093116
vt 0.044375 0.496856
vt 0.184122 0.093116
vt 0.184122 0.903247
vt 0.351767 0.472876
vt 0.286537 0.504271
vt 0.319507 0.829991
vt 0.407503 0.833402
vt 0.030163 0.552973
vt 0.061485 0.673321
vt 0.060420 0.410938
vt 0.030163 0.449676
vt 0.088668 0.454299
vt 0.088668 0.546304
vt 0.957648 0.449676
vt 0.957647 0.552973
vt 0.914761 0.546304
vt 0.914762 0.454299
vt 0.674254 0.868850
vt 0.689420 0.913004
vt 0.592454 0.947027
vt 0.593824 0.895543
vt 0.453803 0.051540
vt 0.461277 0.000000
vt 0.536713 0.000000
vt 0.542858 0.051540
vt 0.406671 0.055621
vt 0.592454 0.055621
vt 0.770293 0.073315
vt 0.831322 0.116518
vt 0.805202 0.161735
vt 0.733154 0.110731
vt 0.976072 0.309608
vt 0.999382 0.379513
vt 0.950974 0.401134
vt 0.923455 0.318608
vt 0.976689 0.688529
vt 0.924483 0.678297
vt 0.952003 0.595771
vt 1.000000 0.618625
vt 0.807908 0.836354
vt 0.832952 0.882332
vt 0.771923 0.925536
vt 0.735860 0.887358
vt 0.406671 0.947027
vt 0.461278 1.000000
vt 0.536713 1.000000
vt 0.167053 0.882332
vt 0.228081 0.925535
vt 0.302705 0.916858
vt 0.152403 0.810456
vt 0.192097 0.836354
vt 0.264145 0.887358
vt 0.000000 0.618625
vt 0.047997 0.595771
vt 0.075517 0.678297
vt 0.023311 0.688530
vt 0.076549 0.318607
vt 0.049030 0.401134
vt 0.000621 0.379512
vt 0.023932 0.309607
vt 0.151684 0.191843
vt 0.301986 0.085441
vt 0.229709 0.073313
vt 0.168681 0.116516
vt 0.266848 0.110729
vt 0.194800 0.161733
vt 0.680488 0.829991
vt 0.713458 0.504271
vt 0.648228 0.472877
vt 0.592492 0.833402
vt 0.969833 0.552973
vt 0.911330 0.546304
vt 0.911328 0.454299
vt 0.969832 0.449675
vt 0.939575 0.410938
vt 0.938510 0.673321
vt 0.407542 0.947027
vt 0.310576 0.913005
vt 0.325741 0.868850
vt 0.406171 0.895543
vt 0.085238 0.546304
vt 0.042349 0.552973
vt 0.042349 0.449676
vt 0.085236 0.454299
vt 0.538718 1.000000
vt 0.593325 0.947027
vt 0.463283 1.000000
vt 0.771915 0.925535
vt 0.832667 0.882346
vt 0.847592 0.810456
vt 0.697290 0.916858
vt 0.735852 0.887358
vt 0.807899 0.836354
vt 1.000000 0.618624
vt 0.976689 0.688528
vt 0.924483 0.678296
vt 0.950971 0.401134
vt 0.923451 0.318608
vt 0.976068 0.309608
vt 0.999379 0.379512
vt 0.831316 0.116518
vt 0.770288 0.073314
vt 0.698009 0.085440
vt 0.848311 0.191842
vt 0.805196 0.161735
vt 0.733149 0.110731
vt 0.463283 0.000000
vt 0.407542 0.055621
vt 0.593324 0.055621
vt 0.538718 0.000000
vt 0.546193 0.051540
vt 0.457137 0.051540
vt 0.266840 0.110731
vt 0.194792 0.161735
vt 0.168673 0.116518
vt 0.229701 0.073315
vt 0.000623 0.379512
vt 0.023934 0.309608
vt 0.076550 0.318608
vt 0.049031 0.401134
vt 0.000000 0.618624
vt 0.047997 0.595770
vt 0.075517 0.678296
vt 0.023311 0.688528
vt 0.264136 0.887359
vt 0.228073 0.925537
vt 0.167045 0.882333
vt 0.192089 0.836355
vt 0.453803 0.948460
vt 0.405118 0.895543
vt 0.542858 0.948460
vt 0.594877 0.895543
vt 0.546339 0.948460
vt 0.456999 0.948460
vt 0.329620 0.866853
vt 0.405118 0.104260
vt 0.329368 0.127910
vt 0.593867 0.103322
vt 0.674254 0.131753
vt 0.690138 0.089294
vt 0.840440 0.195696
vt 0.808125 0.226524
vt 0.900237 0.277513
vt 0.863628 0.300958
vt 0.736022 0.198866
vt 0.867079 0.280452
vt 0.846706 0.278295
vt 0.822993 0.344691
vt 0.793946 0.335577
vt 0.847905 0.417097
vt 0.819517 0.583567
vt 0.931545 0.445377
vt 0.865216 0.668275
vt 0.933738 0.669313
vt 0.900237 0.725135
vt 0.863627 0.699646
vt 0.839721 0.806602
vt 0.808125 0.774079
vt 0.731959 0.774265
vt 0.572338 0.792059
vt 0.746734 0.762659
vt 0.677220 0.751766
vt 0.712881 0.588719
vt 0.656114 0.567651
vt 0.730798 0.391162
vt 0.770643 0.402582
vt 0.767474 0.588212
vt 0.837164 0.395365
vt 0.746813 0.588116
vt 0.807905 0.730911
vt 0.712752 0.244649
vt 0.600867 0.149315
vt 0.639592 0.222989
vt 0.651385 0.423057
vt 0.655225 0.444418
vt 0.606037 0.646793
vt 0.582749 0.605225
vt 0.579917 0.420634
vt 0.488255 0.588515
vt 0.465574 0.540583
vt 0.456014 0.631743
vt 0.523249 0.267246
vt 0.381643 0.139400
vt 0.410208 0.233573
vt 0.248453 0.276654
vt 0.289316 0.528464
vt 0.261409 0.339263
vt 0.176804 0.270059
vt 0.292655 0.758370
vt 0.337887 0.847599
vt 0.480356 0.850784
vt 0.431047 0.764678
vt 0.633767 0.689774
vt 0.388320 0.431594
vt 0.552651 0.398822
vt 0.522046 0.314154
vt 0.426749 0.303151
vt 0.087573 0.277513
vt 0.274625 0.825241
vt 0.208038 0.578545
vt 0.136573 0.441212
vt 0.126227 0.535141
vt 0.142578 0.691867
vt 0.087573 0.725135
vt 0.213415 0.329329
vt 0.195303 0.774079
vt 0.139802 0.699646
vt 0.139802 0.300957
vt 0.195303 0.226524
vt 0.670376 0.866853
vt 0.804692 0.774079
vt 0.860199 0.699646
vt 0.912428 0.725135
vt 0.857417 0.691867
vt 0.725370 0.825241
vt 0.791957 0.578545
vt 0.707341 0.758370
vt 0.710679 0.528464
vt 0.738586 0.339263
vt 0.863422 0.441212
vt 0.786580 0.329329
vt 0.823191 0.270059
vt 0.751542 0.276654
vt 0.662109 0.847599
vt 0.519640 0.850784
vt 0.568948 0.764678
vt 0.427657 0.792059
vt 0.393958 0.646793
vt 0.366228 0.689774
vt 0.343882 0.567651
vt 0.344771 0.444418
vt 0.269198 0.391162
vt 0.287244 0.244649
vt 0.360403 0.222989
vt 0.399129 0.149315
vt 0.348611 0.423057
vt 0.420078 0.420634
vt 0.417247 0.605225
vt 0.511740 0.588515
vt 0.543981 0.631743
vt 0.611676 0.431594
vt 0.534421 0.540583
vt 0.447344 0.398822
vt 0.477949 0.314154
vt 0.476746 0.267246
vt 0.573246 0.303151
vt 0.589787 0.233573
vt 0.268037 0.774265
vt 0.253262 0.762659
vt 0.253183 0.588116
vt 0.232522 0.588212
vt 0.162832 0.395365
vt 0.229352 0.402582
vt 0.153289 0.278295
vt 0.263974 0.198866
vt 0.132916 0.280452
vt 0.159556 0.195696
vt 0.099759 0.277513
vt 0.068451 0.445377
vt 0.152091 0.417097
vt 0.180479 0.583567
vt 0.206050 0.335577
vt 0.177003 0.344691
vt 0.618353 0.139400
vt 0.912422 0.277513
vt 0.873768 0.535141
vt 0.309857 0.089294
vt 0.287114 0.588719
vt 0.322775 0.751766
vt 0.860193 0.300957
vt 0.804692 0.226524
vt 0.670627 0.127910
vt 0.594877 0.104260
vt 0.406128 0.103322
vt 0.325741 0.131753
vt 0.191870 0.226524
vt 0.136369 0.300957
vt 0.066258 0.669313
vt 0.134780 0.668275
vt 0.099759 0.725135
vt 0.192090 0.730912
vt 0.160275 0.806602
vt 0.136369 0.699646
vt 0.191871 0.774079
vt -0.000000 0.000927
vt 0.166542 0.403868
vt 0.235220 0.000000
vt 0.499822 0.403868
vt 0.265832 1.000000
vt 0.499835 1.000000
vt 0.500168 0.969309
vt 0.733837 1.000000
vt 0.763498 0.000000
vt 0.833102 0.403868
vt 1.000000 0.000927
vt 0.764780 0.000001
vt 0.833458 0.403868
vt 0.500178 0.403869
vt 0.236502 0.000001
vt 0.166898 0.403868
vt 0.236502 0.000000
vt 0.500178 0.403868
vt 0.266163 1.000000
vt 0.500165 1.000000
vt 0.499832 0.969309
vt 0.734168 1.000000
vt 0.764780 0.000000
vt 0.500000 1.125000
vt 0.500889 0.505367
vt 1.125000 0.504702
vt -0.125000 0.504702
vt 0.500000 -0.125000
vt 0.499111 0.505367
usemtl mat_0
s 1
f 3/1 1/2 2/3
f 2/1 7/4 3/2
f 6/5 7/4 2/1
f 2/1 41/6 6/5
f 40/7 6/5 41/6
f 41/6 21/8 40/7
f 23/9 40/7 21/8
f 21/8 22/10 23/9
f 25/9 22/10 21/8
f 25/9 24/11 22/10
f 26/12 24/11 25/9
f 26/12 46/13 24/11
f 45/14 46/13 26/12
f 45/14 14/15 46/13
f 11/4 14/15 45/14
f 11/4 10/2 14/15
f 8/1 10/2 11/4
f 8/1 9/3 10/2
f 17/16 10/2 9/3
f 17/16 13/17 10/2
f 27/18 13/17 17/16
f 27/18 42/19 13/17
f 43/20 42/19 27/18
f 43/20 32/21 42/19
f 37/22 32/21 43/20
f 37/22 35/23 32/21
f 30/24 35/23 37/22
f 30/24 33/22 35/23
f 31/25 33/22 30/24
f 30/24 5/26 31/25
f 4/27 31/25 5/26
f 5/26 1/3 4/27
f 4/16 1/27 36/3
f 1/3 3/2 36/16
f 16/17 36/16 3/2
f 16/17 19/18 36/16
f 18/19 19/18 16/17
f 18/19 34/20 19/18
f 32/21 34/20 18/19
f 32/21 33/22 34/20
f 35/23 33/22 32/21
f 10/2 13/17 14/15
f 24/11 23/9 22/10
f 24/11 38/12 23/9
f 39/13 38/12 24/11
f 39/13 20/14 38/12
f 15/15 20/14 39/13
f 15/15 7/4 20/14
f 3/2 7/4 15/15
f 15/15 16/17 3/2
f 12/5 8/1 11/4
f 12/5 48/6 8/1
f 47/7 48/6 12/5
f 47/7 21/8 48/6
f 25/9 21/8 47/7
f 9/3 44/27 17/16
f 9/3 29/26 44/27
f 28/25 44/27 29/26
f 29/26 30/24 28/25
f 37/22 28/25 30/24
usemtl mat_1
f 50/28 54/29 49/30
f 50/28 53/31 54/29
f 51/32 53/31 50/28
f 51/32 52/33 53/31
f 56/31 60/30 55/34
f 56/31 59/28 60/30
f 57/33 59/28 56/31
f 57/33 58/32 59/28
f 62/35 66/36 61/37
f 62/35 65/38 66/36
f 63/39 65/38 62/35
f 63/39 64/40 65/38
f 68/38 72/37 67/36
f 68/38 71/35 72/37
f 69/40 71/35 68/38
f 69/40 70/39 71/35
usemtl mat_2
f 73/41 74/42 75/43
f 76/44 77/45 78/46
f 79/47 80/48 74/42
f 75/43 88/49 78/46
f 88/49 80/48 93/50
f 73/41 77/45 111/51
f 81/42 84/48 85/47
f 81/42 83/43 84/48
f 82/41 83/43 81/42
f 82/41 89/45 83/43
f 109/51 89/45 82/41
f 90/52 91/53 92/54
f 90/52 94/55 91/53
f 96/53 94/55 90/52
f 96/53 95/56 94/55
f 97/57 95/56 96/53
f 99/54 96/53 90/52
f 95/56 91/53 94/55
f 95/56 107/57 91/53
f 86/46 89/45 98/44
f 86/46 83/43 89/45
f 87/49 83/43 86/46
f 87/49 84/48 83/43
f 100/50 84/48 87/49
f 101/58 102/59 103/60
f 101/58 104/61 102/59
f 106/59 104/61 101/58
f 106/59 105/62 104/61
f 108/63 105/62 106/59
f 110/60 106/59 101/58
f 105/62 102/59 104/61
f 105/62 112/63 102/59
usemtl mat_3
f 77/64 75/65 78/66
f 77/64 73/67 75/65
f 80/68 75/65 74/69
f 80/68 88/70 75/65
usemtl mat_4
f 130/71 135/72 145/73
f 140/74 130/71 145/73
f 208/75 124/76 126/77
f 212/78 208/75 126/77
f 215/79 216/80 209/75
f 213/78 215/79 209/75
f 220/81 222/82 224/83
f 223/84 220/81 224/83
f 231/85 227/86 229/87
f 230/88 231/85 229/87
f 241/89 239/90 243/91
f 242/92 241/89 243/91
f 240/90 199/93 189/94
f 244/91 240/90 189/94
f 250/95 247/96 246/97
f 245/98 250/95 246/97
f 252/99 254/100 256/101
f 251/102 252/99 256/101
f 257/103 259/104 262/105
f 260/106 257/103 262/105
f 266/107 267/108 264/109
f 263/110 266/107 264/109
f 183/111 270/112 272/113
f 228/87 183/111 272/113
f 278/114 277/115 181/116
f 210/117 278/114 181/116
f 279/114 280/118 275/119
f 276/115 279/114 275/119
f 284/120 281/121 282/122
f 286/123 284/120 282/122
f 289/124 290/125 291/126
f 287/127 289/124 291/126
f 193/128 195/129 296/130
f 294/131 193/128 296/130
f 293/131 297/130 298/132
f 295/133 293/131 298/132
f 301/134 303/135 304/136
f 302/137 301/134 304/136
f 398/138 401/139 402/140
f 399/141 398/138 402/140
f 339/142 338/143 397/138
f 400/141 339/142 397/138
f 407/144 405/145 409/146
f 408/147 407/144 409/146
f 417/148 418/149 420/150
f 416/151 417/148 420/150
f 428/152 369/153 406/144
f 426/154 428/152 406/144
f 432/155 434/156 392/157
f 366/158 432/155 392/157
f 436/159 437/160 435/156
f 433/155 436/159 435/156
f 439/105 440/161 442/162
f 438/163 439/105 442/162
f 446/164 447/165 448/166
f 444/167 446/164 448/166
f 452/168 453/169 380/170
f 378/171 452/168 380/170
f 450/172 455/173 454/169
f 451/168 450/172 454/169
f 458/174 374/175 382/176
f 456/177 458/174 382/176
f 459/174 457/177 460/178
f 461/179 459/174 460/178
f 467/180 464/181 462/182
f 466/183 467/180 462/182
f 469/184 471/185 473/186
f 468/187 469/184 473/186
f 475/188 478/189 479/190
f 477/191 475/188 479/190
f 482/192 480/193 484/194
f 485/195 482/192 484/194
f 274/196 184/111 186/197
f 274/196 271/112 184/111
f 269/198 271/112 274/196
f 269/198 273/113 271/112
f 429/152 371/199 368/153
f 429/152 431/200 371/199
f 427/154 431/200 429/152
f 427/154 430/201 431/200
f 184/111 185/202 186/197
f 184/111 182/116 185/202
f 275/119 185/202 182/116
f 182/116 276/115 275/119
f 241/89 200/93 239/90
f 241/89 236/203 200/93
f 201/204 200/93 236/203
f 201/204 196/129 200/93
f 298/132 196/129 201/204
f 298/132 297/130 196/129
f 188/94 242/92 243/91
f 188/94 187/205 242/92
f 190/206 187/205 188/94
f 188/94 237/207 190/206
f 245/98 190/206 237/207
f 237/207 250/95 245/98
f 180/208 246/97 247/96
f 180/208 218/209 246/97
f 192/210 218/209 180/208
f 192/210 217/211 218/209
f 251/102 217/211 192/210
f 192/210 252/99 251/102
f 238/207 248/96 249/95
f 238/207 179/208 248/96
f 116/212 179/208 238/207
f 116/212 118/213 179/208
f 117/214 118/213 116/212
f 117/214 120/215 118/213
f 119/216 120/215 117/214
f 119/216 121/217 120/215
f 136/218 121/217 119/216
f 136/218 131/219 121/217
f 138/220 131/219 136/218
f 138/220 169/221 131/219
f 197/222 169/221 138/220
f 197/222 221/82 169/221
f 258/103 221/82 197/222
f 258/103 261/106 221/82
f 121/217 118/213 120/215
f 121/217 131/219 118/213
f 191/210 118/213 131/219
f 191/210 179/208 118/213
f 221/82 131/219 169/221
f 221/82 219/81 131/219
f 191/210 131/219 219/81
f 219/81 255/100 191/210
f 253/99 191/210 255/100
f 256/101 220/81 223/84
f 256/101 254/100 220/81
f 198/222 259/104 257/103
f 198/222 232/223 259/104
f 233/224 232/223 198/222
f 233/224 235/225 232/223
f 266/107 235/225 233/224
f 233/224 267/108 266/107
f 222/82 262/105 224/83
f 222/82 260/106 262/105
f 227/86 263/110 264/109
f 227/86 231/85 263/110
f 234/224 265/109 268/108
f 234/224 226/86 265/109
f 178/226 226/86 234/224
f 178/226 173/227 226/86
f 149/228 173/227 178/226
f 149/228 174/229 173/227
f 152/230 174/229 149/228
f 152/230 158/231 174/229
f 156/232 158/231 152/230
f 152/230 122/233 156/232
f 151/234 122/233 152/230
f 151/234 123/235 122/233
f 150/236 123/235 151/234
f 150/236 119/216 123/235
f 136/218 119/216 150/236
f 150/236 137/237 136/218
f 178/226 137/237 150/236
f 178/226 234/224 137/237
f 197/222 137/237 234/224
f 197/222 138/220 137/237
f 136/218 137/237 138/220
f 117/214 123/235 119/216
f 117/214 122/233 123/235
f 116/212 122/233 117/214
f 116/212 153/238 122/233
f 161/239 153/238 116/212
f 161/239 163/240 153/238
f 162/241 163/240 161/239
f 162/241 155/242 163/240
f 167/243 155/242 162/241
f 162/241 168/244 167/243
f 164/245 168/244 162/241
f 164/245 170/246 168/244
f 171/247 170/246 164/245
f 171/247 166/248 170/246
f 167/243 170/246 166/248
f 167/243 168/244 170/246
f 149/228 151/234 152/230
f 149/228 150/236 151/234
f 178/226 150/236 149/228
f 153/238 156/232 122/233
f 153/238 154/242 156/232
f 163/240 154/242 153/238
f 161/239 164/245 162/241
f 161/239 165/249 164/245
f 142/250 165/249 161/239
f 142/250 143/251 165/249
f 132/252 143/251 142/250
f 132/252 130/71 143/251
f 135/72 130/71 132/252
f 132/252 133/253 135/72
f 114/254 133/253 132/252
f 132/252 115/255 114/254
f 142/250 115/255 132/252
f 142/250 193/128 115/255
f 195/129 193/128 142/250
f 142/250 199/93 195/129
f 161/239 199/93 142/250
f 161/239 189/94 199/93
f 238/207 189/94 161/239
f 161/239 116/212 238/207
f 144/256 135/72 133/253
f 144/256 145/73 135/72
f 141/257 145/73 144/256
f 141/257 140/74 145/73
f 139/258 140/74 141/257
f 139/258 127/259 140/74
f 173/227 127/259 139/258
f 173/227 167/243 127/259
f 175/260 167/243 173/227
f 175/260 157/231 167/243
f 154/242 167/243 157/231
f 157/231 156/232 154/242
f 174/229 175/260 173/227
f 174/229 158/231 175/260
f 166/248 127/259 167/243
f 166/248 129/261 127/259
f 172/247 129/261 166/248
f 172/247 177/262 129/261
f 176/263 129/261 177/262
f 176/263 160/264 129/261
f 165/249 160/264 176/263
f 165/249 143/251 160/264
f 128/261 160/264 143/251
f 143/251 130/71 128/261
f 127/259 128/261 130/71
f 130/71 140/74 127/259
f 176/263 164/245 165/249
f 176/263 177/262 164/245
f 171/247 164/245 177/262
f 202/265 115/255 193/128
f 202/265 126/77 115/255
f 212/78 126/77 202/265
f 202/265 288/127 212/78
f 292/126 212/78 288/127
f 173/227 228/87 226/86
f 173/227 139/258 228/87
f 183/111 228/87 139/258
f 139/258 141/257 183/111
f 181/116 183/111 141/257
f 141/257 146/266 181/116
f 144/256 146/266 141/257
f 144/256 147/267 146/266
f 134/253 147/267 144/256
f 134/253 114/254 147/267
f 148/268 147/267 114/254
f 148/268 125/269 147/267
f 126/77 125/269 148/268
f 126/77 124/76 125/269
f 159/270 125/269 124/76
f 159/270 147/267 125/269
f 146/266 147/267 159/270
f 159/270 210/117 146/266
f 124/76 210/117 159/270
f 124/76 206/271 210/117
f 208/75 206/271 124/76
f 208/75 283/120 206/271
f 285/123 206/271 283/120
f 181/116 146/266 210/117
f 148/268 115/255 126/77
f 148/268 113/272 115/255
f 114/254 113/272 148/268
f 114/254 115/255 113/272
f 229/87 269/198 230/88
f 229/87 273/113 269/198
f 211/117 280/118 279/114
f 211/117 214/273 280/118
f 207/271 214/273 211/117
f 207/271 225/274 214/273
f 282/122 225/274 207/271
f 207/271 286/123 282/122
f 281/121 209/75 216/80
f 281/121 284/120 209/75
f 290/125 213/78 291/126
f 290/125 215/79 213/78
f 203/265 289/124 287/127
f 203/265 204/275 289/124
f 194/128 204/275 203/265
f 194/128 205/276 204/275
f 295/133 205/276 194/128
f 194/128 293/131 295/133
f 370/277 368/153 371/199
f 370/277 367/158 368/153
f 436/159 367/158 370/277
f 436/159 433/155 367/158
f 407/144 430/201 427/154
f 407/144 408/147 430/201
f 437/160 391/157 435/156
f 437/160 396/278 391/157
f 393/279 391/157 396/278
f 393/279 394/280 391/157
f 438/163 394/280 393/279
f 438/163 442/162 394/280
f 398/138 439/105 401/139
f 398/138 440/161 439/105
f 397/138 443/162 441/161
f 397/138 395/280 443/162
f 338/143 395/280 397/138
f 338/143 392/157 395/280
f 342/281 392/157 338/143
f 342/281 341/282 392/157
f 340/283 341/282 342/281
f 340/283 300/284 341/282
f 321/285 300/284 340/283
f 340/283 306/286 321/285
f 343/287 306/286 340/283
f 343/287 307/288 306/286
f 305/289 307/288 343/287
f 305/289 306/286 307/288
f 319/290 306/286 305/289
f 319/290 320/285 306/286
f 303/135 320/285 319/290
f 303/135 300/284 320/285
f 301/134 300/284 303/135
f 301/134 299/291 300/284
f 302/137 299/291 301/134
f 302/137 334/292 299/291
f 318/293 334/292 302/137
f 318/293 360/294 334/292
f 354/295 360/294 318/293
f 354/295 361/296 360/294
f 332/297 361/296 354/295
f 354/295 327/298 332/297
f 330/299 332/297 327/298
f 327/298 329/300 330/299
f 348/301 329/300 327/298
f 348/301 351/302 329/300
f 350/303 351/302 348/301
f 350/303 353/304 351/302
f 356/305 353/304 350/303
f 356/305 357/306 353/304
f 354/295 357/306 356/305
f 354/295 352/307 357/306
f 318/293 352/307 354/295
f 318/293 317/308 352/307
f 358/309 352/307 317/308
f 358/309 357/306 352/307
f 353/304 357/306 358/309
f 358/309 364/310 353/304
f 362/311 353/304 364/310
f 362/311 355/312 353/304
f 349/313 355/312 362/311
f 349/313 336/314 355/312
f 316/308 336/314 349/313
f 316/308 304/136 336/314
f 318/293 304/136 316/308
f 318/293 302/137 304/136
f 299/291 341/282 300/284
f 299/291 366/158 341/282
f 369/153 366/158 299/291
f 299/291 334/292 369/153
f 406/144 369/153 334/292
f 334/292 360/294 406/144
f 404/145 406/144 360/294
f 360/294 365/315 404/145
f 324/316 365/315 360/294
f 324/316 323/317 365/315
f 325/318 323/317 324/316
f 325/318 315/319 323/317
f 314/320 315/319 325/318
f 314/320 308/321 315/319
f 309/322 308/321 314/320
f 309/322 310/323 308/321
f 376/324 310/323 309/322
f 376/324 385/325 310/323
f 322/326 310/323 385/325
f 322/326 313/327 310/323
f 345/328 313/327 322/326
f 345/328 312/329 313/327
f 323/317 312/329 345/328
f 323/317 315/319 312/329
f 308/321 312/329 315/319
f 308/321 311/330 312/329
f 310/323 311/330 308/321
f 310/323 313/327 311/330
f 312/329 311/330 313/327
f 392/157 341/282 366/158
f 355/312 351/302 353/304
f 355/312 335/331 351/302
f 336/314 335/331 355/312
f 336/314 319/290 335/331
f 304/136 319/290 336/314
f 304/136 303/135 319/290
f 305/289 335/331 319/290
f 305/289 378/171 335/331
f 389/332 378/171 305/289
f 305/289 339/142 389/332
f 343/287 339/142 305/289
f 343/287 337/333 339/142
f 340/283 337/333 343/287
f 340/283 342/281 337/333
f 338/143 337/333 342/281
f 338/143 339/142 337/333
f 350/303 354/295 356/305
f 350/303 328/298 354/295
f 348/301 328/298 350/303
f 317/308 363/310 358/309
f 317/308 362/311 363/310
f 349/313 362/311 317/308
f 380/170 335/331 378/171
f 380/170 382/176 335/331
f 351/302 335/331 382/176
f 382/176 374/175 351/302
f 424/334 351/302 374/175
f 424/334 309/322 351/302
f 376/324 309/322 424/334
f 424/334 465/183 376/324
f 463/182 376/324 465/183
f 309/322 329/300 351/302
f 309/322 314/320 329/300
f 331/299 329/300 314/320
f 314/320 326/335 331/299
f 325/318 326/335 314/320
f 325/318 324/316 326/335
f 359/336 326/335 324/316
f 359/336 333/297 326/335
f 361/296 333/297 359/336
f 359/336 360/294 361/296
f 324/316 360/294 359/336
f 333/297 331/299 326/335
f 400/141 389/332 339/142
f 400/141 445/167 389/332
f 449/166 389/332 445/167
f 399/141 446/164 444/167
f 399/141 402/140 446/164
f 447/165 388/332 448/166
f 447/165 390/337 388/332
f 387/338 388/332 390/337
f 387/338 379/171 388/332
f 450/172 379/171 387/338
f 450/172 451/168 379/171
f 455/173 381/170 454/169
f 455/173 384/339 381/170
f 383/176 381/170 384/339
f 384/339 425/340 383/176
f 460/178 383/176 425/340
f 460/178 457/177 383/176
f 461/179 373/175 459/174
f 461/179 375/341 373/175
f 372/342 373/175 375/341
f 372/342 423/334 373/175
f 467/180 423/334 372/342
f 467/180 466/183 423/334
f 464/181 377/324 462/182
f 464/181 422/343 377/324
f 403/344 377/324 422/343
f 403/344 386/325 377/324
f 473/186 386/325 403/344
f 473/186 471/185 386/325
f 420/150 468/187 416/151
f 420/150 469/184 468/187
f 421/150 472/185 470/184
f 421/150 385/325 472/185
f 322/326 385/325 421/150
f 421/150 419/149 322/326
f 347/345 322/326 419/149
f 347/345 346/346 322/326
f 411/347 346/346 347/345
f 411/347 344/348 346/346
f 414/349 344/348 411/347
f 414/349 365/315 344/348
f 404/145 365/315 414/349
f 414/349 483/194 404/145
f 481/193 404/145 483/194
f 346/346 345/328 322/326
f 346/346 344/348 345/328
f 323/317 345/328 344/348
f 344/348 365/315 323/317
f 419/149 411/347 347/345
f 419/149 474/188 411/347
f 476/191 411/347 474/188
f 479/190 410/347 477/191
f 479/190 412/350 410/347
f 413/351 410/347 412/350
f 413/351 415/349 410/347
f 485/195 415/349 413/351
f 485/195 484/194 415/349
f 478/189 418/149 417/148
f 478/189 475/188 418/149
f 482/192 405/145 480/193
f 482/192 409/146 405/145
usemtl mat_5
f 496/352 487/353 495/354
f 496/352 500/354 487/353
f 488/355 487/353 500/354
f 488/355 486/356 487/353
f 494/357 486/356 488/355
f 494/357 489/358 486/356
f 491/359 489/358 494/357
f 491/359 490/357 489/358
f 493/355 490/357 491/359
f 493/355 486/356 490/357
f 487/353 486/356 493/355
f 493/355 495/354 487/353
f 499/360 495/354 493/355
f 493/355 492/361 499/360
f 491/359 492/361 493/355
f 491/359 488/355 492/361
f 494/357 488/355 491/359
f 489/358 490/357 486/356
f 497/360 488/355 500/354
f 497/360 492/361 488/355
f 498/362 492/361 497/360
f 498/362 499/360 492/361
f 511/363 502/364 510/362
f 511/363 507/365 502/364
f 513/366 507/365 511/363
f 513/366 508/367 507/365
f 515/352 508/367 513/366
f 515/352 512/368 508/367
f 501/369 508/367 512/368
f 501/369 506/370 508/367
f 509/371 506/370 501/369
f 509/371 504/372 506/370
f 503/373 504/372 509/371
f 503/373 505/371 504/372
f 507/365 505/371 503/373
f 507/365 506/370 505/371
f 508/367 506/370 507/365
f 504/372 505/371 506/370
f 503/373 502/364 507/365
f 503/373 501/369 502/364
f 509/371 501/369 503/373
f 502/364 514/374 510/362
f 502/364 501/369 514/374
f 512/368 514/374 501/369
f 528/362 522/361 527/360
f 528/362 525/360 522/361
f 523/355 522/361 525/360
f 523/355 521/359 522/361
f 520/357 521/359 523/355
f 520/357 519/358 521/359
f 517/356 519/358 520/357
f 517/356 524/357 519/358
f 516/355 524/357 517/356
f 516/355 521/359 524/357
f 522/361 521/359 516/355
f 516/355 527/360 522/361
f 530/354 527/360 516/355
f 516/355 518/353 530/354
f 517/356 518/353 516/355
f 517/356 523/355 518/353
f 520/357 523/355 517/356
f 524/357 521/359 519/358
f 518/353 529/352 530/354
f 518/353 526/354 529/352
f 523/355 526/354 518/353
f 523/355 525/360 526/354
f 544/362 532/364 543/374
f 544/362 540/374 532/364
f 537/369 532/364 540/374
f 537/369 533/373 532/364
f 535/371 533/373 537/369
f 535/371 534/372 533/373
f 536/370 534/372 535/371
f 536/370 539/371 534/372
f 531/369 539/371 536/370
f 531/369 533/373 539/371
f 532/364 533/373 531/369
f 531/369 543/374 532/364
f 541/368 543/374 531/369
f 531/369 538/367 541/368
f 536/370 538/367 531/369
f 536/370 537/369 538/367
f 535/371 537/369 536/370
f 534/372 539/371 533/373
f 542/368 537/369 540/374
f 542/368 538/367 537/369
f 545/352 538/367 542/368
f 545/352 541/368 538/367
usemtl mat_6
f 547/375 548/376 546/377
f 547/375 549/378 548/376
f 550/379 548/376 549/378
f 550/379 546/377 548/376
f 553/379 551/380 552/378
f 553/379 555/377 551/380
f 554/375 551/380 555/377
f 554/375 552/378 551/380
f 557/379 558/376 556/378
f 557/379 560/377 558/376
f 559/375 558/376 560/377
f 559/375 556/378 558/376
f 562/375 563/380 561/377
f 562/375 564/378 563/380
f 565/379 563/380 564/378
f 565/379 561/377 563/380
