# Blender v2.66 (sub 1) OBJ File: 'BR_Nuzleaf-Shiny03.blend'
# www.blender.org
mtllib BR_Nuzleaf-Shiny03.mtl
o konohana
v 3.442420 0.289591 -4.801330
v 3.442420 -0.284499 -4.801330
v 1.044850 -1.235930 -2.702779
v 0.993934 1.385050 -2.641939
v 1.661138 1.098912 -2.712055
v 1.705181 1.042852 -2.153798
v 1.023908 1.336276 -2.153204
v 1.043699 1.045254 -1.707702
v 1.581965 0.848971 -1.707798
v 0.562590 1.008823 -1.707763
v 1.682720 -0.981893 -2.713427
v 1.070082 -1.199158 -2.149326
v 1.738419 -0.952921 -2.153969
v 2.149329 0.488219 -2.153969
v 2.109964 0.499123 -2.745459
v 1.052315 -0.988670 -1.707702
v 0.502099 -0.927202 -1.707641
v 1.572064 -0.747958 -1.706957
v 1.941785 -0.278376 -1.707825
v 1.930162 0.405590 -1.707825
v 2.176106 -0.373720 -2.153969
v 0.208159 0.748199 -1.707825
v 0.055993 0.069496 -1.673987
v 2.084058 -0.404725 -2.746217
v 0.228844 -0.646607 -1.707580
v 1.357011 0.497968 -1.424571
v 1.027096 0.612630 -1.422918
v 0.768562 0.578424 -1.423993
v 0.357496 0.042626 -1.420071
v 0.480608 0.414078 -1.425067
v 0.415636 -0.340761 -1.420790
v 0.955371 -0.591793 -1.422918
v 0.663279 -0.521294 -1.420225
v 1.319233 -0.442591 -1.425046
v 1.529853 -0.152985 -1.425046
v 1.564305 0.251059 -1.417483
v 0.981000 -0.302235 -1.292160
v 0.981000 -0.302235 -1.292160
v 0.724026 -0.007100 -1.274455
v 0.724026 -0.007100 -1.274455
v 0.981000 0.191441 -1.301770
v 0.981000 0.191441 -1.301770
v 0.874093 -0.674690 -3.668030
v 0.874093 -0.674690 -3.668030
v 0.534181 -0.833571 -3.405002
v 0.534181 -0.833571 -3.405002
v 0.000000 1.038575 -3.559980
v 0.574195 0.952203 -3.592635
v 0.539007 -0.799455 -3.640628
v 0.000000 -0.863316 -3.613040
v 0.559987 0.996538 -3.397838
v 0.559987 0.996538 -3.397838
v 0.317131 1.051395 -3.216870
v 0.317131 1.051395 -3.216870
v -0.574195 0.952203 -3.592635
v -0.539007 -0.799455 -3.640628
v 0.857083 0.282233 -4.801506
v 0.733657 0.464883 -4.793939
v 0.643199 0.310263 -5.019535
v 0.805788 -0.032088 -5.019564
v 0.998829 0.235405 -4.434311
v 1.007566 -0.224230 -4.433785
v 0.000000 0.862245 -4.463440
v 0.000000 0.758204 -4.798243
v 0.388307 0.696286 -4.795691
v 0.462661 0.802489 -4.463440
v 0.315672 0.576001 -5.019535
v 0.000000 0.624807 -5.034028
v 0.573796 -0.378767 -5.019534
v 0.674727 -0.462864 -4.793215
v 0.804943 -0.339580 -4.801903
v 0.466639 -0.674805 -4.463440
v 0.384807 -0.577668 -4.795691
v 0.000000 -0.605883 -4.798243
v 0.000000 -0.725492 -4.463440
v 0.756039 -0.549415 -4.463440
v 0.000037 0.100978 -5.216676
v -0.000037 -0.502348 -5.019533
v 0.305315 -0.471563 -5.019534
v 0.795629 0.583924 -4.463440
v 0.929984 -0.330673 -4.801493
v 0.945465 -0.029171 -5.019582
v -0.805788 -0.032088 -5.019564
v -0.643199 0.310263 -5.019535
v -0.733657 0.464883 -4.793939
v -0.462661 0.802489 -4.463440
v -0.388307 0.696286 -4.795691
v -0.315672 0.576001 -5.019535
v -0.573796 -0.378767 -5.019534
v -0.804943 -0.339580 -4.801903
v -0.674727 -0.462864 -4.793215
v -0.466639 -0.674805 -4.463440
v -0.384807 -0.577668 -4.795691
v -0.756039 -0.549415 -4.463440
v -0.305315 -0.471563 -5.019534
v -0.795629 0.583924 -4.463440
v 3.905330 -0.542376 -4.996923
v 3.905330 -0.034825 -5.132834
v 3.905330 -0.542376 -4.390619
v 2.597057 0.000000 -5.019810
v 2.597056 0.173367 -4.459364
v 2.597056 -0.172322 -4.459364
v 4.888700 0.380814 -4.754394
v 4.888700 -0.029743 -4.873347
v 4.888700 -0.440300 -4.754394
v 3.929291 0.913630 -4.761078
v 3.929291 0.913630 -4.437432
v 0.724084 0.000000 -0.721042
v 1.010795 -0.306541 -0.690547
v 1.697447 0.465944 -0.061041
v 1.474085 -0.325000 -0.061041
v 0.565663 -0.325000 -0.061041
v 0.335658 0.465987 -0.061041
v 1.427547 1.346000 -0.061042
v 1.422683 0.670000 -0.061041
v 0.657617 0.670000 -0.061041
v 0.641357 1.346000 -0.061041
v 1.437648 1.010000 -0.061041
v 1.439947 0.955000 -0.191041
v 1.790229 0.810000 -0.191041
v 1.813400 0.860000 -0.061041
v 1.651799 0.465816 -0.441042
v 0.657844 0.668976 -0.481042
v 0.656819 1.230000 -0.217602
v 1.430856 1.230000 -0.219484
v 1.422908 0.671475 -0.481042
v 0.784586 -0.644743 -0.061041
v 0.791174 -0.609586 -0.446041
v 0.594527 -0.324838 -0.551042
v 1.210831 -0.609578 -0.446041
v 1.420010 -0.324854 -0.551041
v 0.630954 0.000000 -0.661041
v 0.439922 0.465816 -0.441041
v 0.636453 0.955000 -0.191041
v 0.634159 1.010000 -0.061041
v 0.242911 0.860000 -0.061042
v 0.287280 0.810000 -0.191041
v 1.396016 0.000000 -0.661042
v 1.036614 0.388181 -0.662615
v 1.010711 0.279493 -0.725951
v 1.246417 -0.644734 -0.061042
v 1.528929 1.524555 -5.995374
v 1.553866 1.650886 -6.328813
v 1.829312 1.321818 -6.334181
v 0.779249 1.939098 -5.797447
v 0.000000 2.007589 -5.754513
v 0.475289 2.135078 -7.480864
v 0.889309 1.804613 -7.759257
v 0.000000 0.743232 -8.620214
v 0.839608 0.715869 -8.485033
v 0.803622 1.339686 -8.224075
v 0.000000 1.413306 -8.352734
v 0.851918 0.000000 -8.595816
v 0.817914 -0.817914 -8.522571
v 1.553508 -0.784563 -8.156116
v 1.634012 0.000000 -8.220493
v 0.000000 -2.230652 -7.565475
v 0.835870 -2.098804 -7.535589
v 0.784563 -1.597867 -8.127755
v 0.000000 -1.717258 -8.225036
v 0.890988 -2.230652 -6.773279
v 0.835870 -2.098804 -6.131355
v 1.614918 -1.614918 -6.166339
v 1.735584 -1.735584 -6.812434
v 0.792935 -1.614919 -5.496575
v 0.000000 -2.230652 -6.059428
v 0.000000 -1.735584 -5.398254
v 0.983717 0.000000 -5.010460
v 0.870154 0.807850 -5.102298
v 1.599040 0.702911 -5.471712
v 1.735585 0.000000 -5.398256
v 2.201633 0.000000 -6.059394
v 2.072715 -0.887893 -6.131355
v 1.614918 -0.792935 -5.496574
v 2.195944 -0.924185 -6.812434
v 2.044499 -0.878998 -7.500247
v 1.614919 -1.614919 -7.458529
v 1.978582 0.779563 -6.021101
v 2.196252 0.687093 -6.744504
v 2.380953 0.000000 -6.771069
v 0.734448 1.523346 -5.393998
v 1.414873 1.182727 -5.579465
v 0.644419 1.809852 -7.916702
v 1.287235 1.252834 -7.992647
v 1.537723 0.677511 -8.116828
v 0.000000 0.000000 -8.745144
v 1.363156 -1.354495 -7.953248
v 0.000000 -0.904331 -8.630000
v 0.000000 -2.380951 -6.848299
v 1.368949 -1.368950 -5.696994
v 0.835870 -0.835870 -5.102298
v 0.000000 -0.924185 -4.994866
v 0.000000 0.000000 -4.872401
v 0.000000 0.807838 -4.994866
v 0.000000 1.603689 -5.325938
v 2.163374 -0.012501 -7.603078
v 0.101860 0.074945 -8.586968
v 0.000000 0.007673 -8.640148
v 0.000000 0.151789 -8.568071
v 1.880669 0.636705 -7.728793
v 1.595846 1.219453 -7.677942
v 1.783980 1.202358 -7.425139
v 2.134193 0.659571 -7.233639
v 0.000000 2.177402 -7.571616
v 0.000000 1.859047 -8.025682
v 1.949536 1.230631 -6.713347
v 1.902762 1.203594 -7.130079
v -1.528929 1.524554 -5.995374
v -1.829312 1.321818 -6.334181
v -1.553866 1.650886 -6.328813
v -0.779249 1.939098 -5.797447
v -1.184018 1.780195 -7.489636
v -0.889309 1.804613 -7.759257
v -0.803622 1.339686 -8.224075
v -0.839608 0.715869 -8.485033
v -0.851918 0.000000 -8.595811
v -1.634012 0.000000 -8.220493
v -1.553508 -0.784563 -8.156116
v -0.817914 -0.817914 -8.522571
v -0.784563 -1.597867 -8.127755
v -0.835870 -2.098804 -7.535589
v -0.890988 -2.230652 -6.773279
v -1.735584 -1.735584 -6.812434
v -1.614918 -1.614918 -6.166339
v -0.835870 -2.098804 -6.131355
v -0.792935 -1.614918 -5.496575
v -0.983717 0.000000 -5.010461
v -1.735586 0.000000 -5.398259
v -1.599040 0.702911 -5.471712
v -0.870154 0.807850 -5.102298
v -2.201633 0.000000 -6.059394
v -1.614918 -0.792935 -5.496574
v -2.072715 -0.887893 -6.131355
v -2.195944 -0.924185 -6.812434
v -1.614919 -1.614919 -7.458529
v -2.044499 -0.878998 -7.500246
v -2.380951 0.000000 -6.771064
v -2.196252 0.687093 -6.744505
v -1.978582 0.779563 -6.021101
v -0.734448 1.523346 -5.393998
v -1.414873 1.182727 -5.579465
v -0.644419 1.809852 -7.916702
v -1.287236 1.252834 -7.992647
v -1.537723 0.677511 -8.116828
v -1.363156 -1.354495 -7.953248
v -1.368949 -1.368950 -5.696994
v -0.835870 -0.835870 -5.102298
v -2.163374 -0.012500 -7.603078
v -0.101860 0.074945 -8.586968
v -0.909669 2.074698 -6.177370
v -1.502922 1.751999 -6.846430
v -1.595846 1.219453 -7.677942
v -1.880669 0.636705 -7.728793
v -1.783980 1.202358 -7.425139
v -2.134193 0.659571 -7.233640
v -1.902762 1.203594 -7.130079
v -1.949536 1.230631 -6.713347
v -1.360623 1.759014 -7.263247
v 0.292382 2.421026 -6.333589
v 0.000000 3.691353 -6.508017
v 0.092616 3.792322 -6.581640
v 0.416792 2.449713 -6.615374
v 0.000000 3.792322 -6.655713
v 0.310142 2.451958 -6.860189
v 0.524860 2.312325 -6.615005
v 0.376571 2.309977 -6.915766
v 0.000000 2.441480 -6.989175
v 0.000000 2.319526 -7.071200
v 0.889512 2.126350 -6.956244
v -0.292382 2.421026 -6.333589
v -0.416792 2.449713 -6.615374
v -0.092616 3.792322 -6.581640
v -0.310142 2.451958 -6.860189
v -0.524860 2.312325 -6.615005
v -0.376571 2.309977 -6.915766
v 0.182757 0.102707 -10.000896
v 0.000000 0.011759 -10.002715
v 0.000000 0.112551 -9.956648
v 0.696215 0.118745 -10.636052
v 0.696215 0.118745 -10.636052
v 0.000000 0.123855 -10.639781
v 0.000000 -0.037996 -10.645679
v -0.696215 0.118745 -10.636052
v -0.696215 0.118745 -10.636052
v 0.000000 -0.024305 -11.893185
v 1.017361 0.143824 -11.889823
v 1.017361 0.143824 -11.889823
v 0.000000 0.143927 -11.894979
v -1.017361 0.143824 -11.889819
v -1.017361 0.143824 -11.889819
v 0.000000 0.083896 -13.806705
v 0.716453 0.182400 -13.818364
v 0.716453 0.182400 -13.818364
v 0.000000 0.163828 -13.818634
v -0.716453 0.182400 -13.818364
v -0.716453 0.182400 -13.818364
v -1.044850 -1.235930 -2.702779
v -0.993934 1.385050 -2.641939
v -1.023908 1.336276 -2.153204
v -1.705181 1.042852 -2.153798
v -1.661138 1.098912 -2.712055
v -0.424242 1.237998 -2.153591
v -0.367320 1.276098 -2.565232
v -1.043699 1.045254 -1.707702
v -1.581965 0.848971 -1.707798
v -0.562590 1.008823 -1.707763
v -1.682720 -0.981893 -2.713427
v -1.738418 -0.952921 -2.153969
v -1.070082 -1.199158 -2.149326
v -2.149329 0.488219 -2.153969
v -2.109964 0.499123 -2.745459
v -1.052315 -0.988670 -1.707702
v -0.502099 -0.927202 -1.707641
v -1.572064 -0.747958 -1.706957
v -1.941785 -0.278376 -1.707825
v -2.176106 -0.373720 -2.153969
v -1.930162 0.405590 -1.707825
v -0.055993 0.069496 -1.673987
v -0.208159 0.748199 -1.707825
v -2.084058 -0.404725 -2.746217
v -0.228844 -0.646607 -1.707580
v -1.027096 0.612630 -1.422918
v -1.357011 0.497968 -1.424571
v -0.768562 0.578424 -1.423993
v -0.357495 0.042626 -1.420071
v -0.480608 0.414078 -1.425067
v -0.415636 -0.340761 -1.420790
v -0.955371 -0.591793 -1.422918
v -0.663279 -0.521294 -1.420225
v -1.319233 -0.442591 -1.425046
v -1.529853 -0.152986 -1.425046
v -1.564305 0.251059 -1.417483
v -0.981000 -0.302235 -1.292160
v -0.981000 -0.302235 -1.292160
v -1.209426 -0.018601 -1.303663
v -1.209426 -0.018601 -1.303663
v -0.981000 0.191441 -1.301770
v -0.981000 0.191441 -1.301770
v -3.587290 0.909617 -4.763136
v -3.587290 0.909617 -4.438677
v -3.556609 -0.304512 -4.961862
v -3.556609 0.000000 -5.098353
v -2.597056 0.302400 -4.800262
v -2.597056 -0.297307 -4.800262
v -4.931239 0.373521 -4.562020
v -4.888699 0.380814 -4.791746
v -4.480630 0.475616 -4.936130
v -4.931239 -0.433007 -4.564733
v -4.480630 -0.545568 -4.944024
v -4.888700 -0.029743 -4.913532
v -4.888700 -0.440300 -4.794536
v -4.480630 -0.034976 -5.063694
v -2.342237 0.000000 -5.019767
v -2.346339 0.177915 -4.456661
v -2.346337 -0.176870 -4.456661
v -1.010795 -0.306940 -0.690547
v -0.724084 -0.000399 -0.721042
v -1.289794 -0.000399 -0.721042
v -1.697447 0.465545 -0.061041
v -0.335658 0.465587 -0.061041
v -0.565663 -0.325399 -0.061041
v -1.474085 -0.325399 -0.061041
v -1.427547 1.345601 -0.061041
v -0.641357 1.345600 -0.061041
v -0.657617 0.669601 -0.061041
v -1.422683 0.669601 -0.061041
v -1.437648 1.009601 -0.061041
v -1.813400 0.859601 -0.061041
v -1.790229 0.809601 -0.191041
v -1.439947 0.954601 -0.191041
v -1.651799 0.465417 -0.441041
v -0.656819 1.229601 -0.217602
v -0.657844 0.668576 -0.481042
v -1.430856 1.229601 -0.219484
v -1.422907 0.671075 -0.481042
v -0.784586 -0.645142 -0.061041
v -0.594527 -0.325237 -0.551041
v -0.791174 -0.609986 -0.446041
v -1.210831 -0.609978 -0.446041
v -1.420010 -0.325253 -0.551041
v -0.630954 -0.000399 -0.661041
v -0.439922 0.465417 -0.441041
v -0.636453 0.954601 -0.191041
v -0.287280 0.809601 -0.191041
v -0.242911 0.859601 -0.061041
v -0.634159 1.009633 -0.061042
v -1.396015 -0.000399 -0.661042
v -1.246417 -0.645134 -0.061041
v 3.556610 0.245886 -4.443082
v 3.556610 0.330963 -4.959778
v 3.556610 0.000000 -5.095734
v 3.556610 -0.304512 -4.959777
v 3.556610 -0.330964 -4.388631
v 1.015214 -1.102490 -3.156072
v 0.372748 -1.035994 -3.081466
v 0.328198 -1.129504 -2.677934
v 0.424242 1.237998 -2.153591
v 0.367320 1.276098 -2.565232
v 0.922291 1.253460 -3.156072
v 1.456356 0.981584 -3.224356
v 1.106344 -0.790835 -3.538322
v 1.396797 -0.328994 -3.653762
v 1.423377 0.403894 -3.637762
v 0.404019 -1.124477 -2.152821
v -0.091905 0.100623 -2.060127
v 0.043876 0.926496 -2.153977
v 1.828577 0.463902 -3.279194
v 1.801542 -0.387389 -3.279200
v 1.492740 -0.916256 -3.223531
v -0.049964 -0.734173 -2.679992
v 0.041488 -0.926732 -2.685228
v 1.115645 0.837723 -3.513673
v -0.091615 0.100775 -2.484620
v 0.098290 -0.835157 -2.153651
v 0.000000 0.100825 -2.847482
v 0.000000 0.100825 -2.847482
v 0.027872 1.100827 -2.548143
v 0.336215 1.229513 -3.014044
v -0.071208 0.891811 -2.534749
v 3.587291 0.909617 -4.761078
v 3.587291 0.909617 -4.437432
v 3.905330 0.302571 -4.390619
v 3.905330 0.472726 -4.958951
v 1.057892 -0.243543 -4.118424
v 1.077205 0.301070 -4.079933
v 0.000000 0.972498 -3.996518
v 0.543492 0.881409 -4.023766
v 1.128131 -0.291211 -3.813427
v 1.128131 -0.291211 -3.813427
v 1.150619 0.363164 -3.784791
v 1.150619 0.363164 -3.784791
v 0.511663 -0.729538 -4.137349
v 0.000000 -0.795684 -4.132893
v 0.919865 0.697124 -3.658332
v 0.919865 0.697124 -3.658332
v 0.875271 0.643394 -4.051015
v 0.826037 -0.605837 -4.137349
v -1.077205 0.301070 -4.079934
v -1.057892 -0.243543 -4.118425
v -0.543492 0.881409 -4.023766
v -0.511663 -0.729538 -4.137349
v -0.875271 0.643394 -4.051015
v -0.826037 -0.605837 -4.137350
v 2.597056 0.302400 -4.800262
v 3.442420 0.000000 -5.019954
v 2.597056 -0.297307 -4.800262
v 3.442420 -0.168333 -4.474917
v 3.442420 0.172898 -4.474917
v 4.931239 0.373521 -4.524480
v 4.344600 0.507215 -4.465075
v 4.480630 0.475616 -4.904610
v 4.931239 -0.433007 -4.524480
v 4.480630 -0.545568 -4.904610
v 4.344600 0.507217 -4.927344
v 4.480630 -0.034976 -5.023564
v 4.344611 -0.580661 -4.465075
v 4.344611 -0.580658 -4.927343
v 4.344609 -0.036721 -5.073638
v 0.000000 -0.860286 -3.014107
v 0.000000 -0.860286 -3.014107
v 0.000000 -0.860286 -3.014107
v 0.000000 1.042483 -3.013644
v 0.000000 1.042483 -3.013644
v 0.000000 1.042483 -3.013644
v -0.328198 -1.129504 -2.677934
v -0.372749 -1.035994 -3.081465
v -1.015214 -1.102490 -3.156072
v -0.922291 1.253460 -3.156072
v -1.456356 0.981584 -3.224356
v -1.106344 -0.790835 -3.538322
v -0.534181 -0.833571 -3.405002
v -0.534181 -0.833571 -3.405002
v -0.874093 -0.674690 -3.668030
v -0.874093 -0.674690 -3.668030
v -1.150619 0.363164 -3.784791
v -1.150619 0.363164 -3.784791
v -1.128131 -0.291211 -3.813427
v -1.128131 -0.291211 -3.813427
v -0.559987 0.996538 -3.397838
v -0.559987 0.996538 -3.397838
v -0.317131 1.051395 -3.216870
v -0.317131 1.051395 -3.216870
v -1.423377 0.403894 -3.637762
v -1.396797 -0.328994 -3.653762
v -0.404019 -1.124477 -2.152821
v 0.091905 0.100623 -2.060127
v -0.043876 0.926496 -2.153977
v -1.801542 -0.387389 -3.279200
v -1.828577 0.463902 -3.279194
v -1.492740 -0.916256 -3.223531
v -0.919865 0.697124 -3.658332
v -0.919865 0.697124 -3.658332
v -0.041488 -0.926733 -2.685230
v 0.049964 -0.734173 -2.679992
v -1.115645 0.837723 -3.513673
v 0.091615 0.100775 -2.484620
v -0.098290 -0.835157 -2.153651
v -0.027872 1.100827 -2.548143
v -0.336215 1.229513 -3.014044
v 0.071208 0.891811 -2.534749
v 2.344182 0.313156 -4.800262
v 2.342237 0.000000 -5.019767
v 2.346339 0.177915 -4.456661
v 2.344173 -0.308063 -4.800262
v 2.346337 -0.176870 -4.456661
v 1.289794 0.000000 -0.721042
v 1.209426 -0.018601 -1.303663
v 1.209426 -0.018601 -1.303663
v 0.989103 0.215455 -1.182508
v 0.000000 2.234903 -6.092819
v 1.184018 1.780195 -7.489636
v 0.737075 2.133415 -7.219201
v 0.390601 2.279754 -6.288850
v 0.909669 2.074699 -6.177370
v 1.502922 1.751999 -6.846430
v 0.960705 2.119555 -6.474057
v 0.000000 2.400542 -6.208231
v 0.000000 2.287037 -7.162591
v 1.360623 1.759014 -7.263247
v -0.475289 2.135078 -7.480864
v -0.737075 2.133415 -7.219201
v -0.390601 2.279754 -6.288850
v -0.960705 2.119555 -6.474057
v -0.889512 2.126350 -6.956244
v 0.000000 0.205883 -14.992322
v 0.000000 0.205883 -14.992322
v -3.556610 0.245886 -4.443339
v -3.556610 0.330963 -4.961796
v -3.556610 -0.330964 -4.389950
v -3.905330 0.302571 -4.390625
v -3.905330 0.472726 -4.964179
v -3.929291 0.913630 -4.763135
v -3.929291 0.913630 -4.438371
v -3.442420 0.289591 -4.801927
v -3.442420 0.000000 -5.021018
v -3.442420 -0.284499 -4.801775
v -3.442420 -0.168333 -4.474987
v -3.442420 0.172898 -4.475012
v -0.857083 0.282233 -4.801506
v -0.998829 0.235405 -4.434311
v -1.007567 -0.224231 -4.433788
v -0.929984 -0.330673 -4.801493
v -0.945465 -0.029171 -5.019582
v -3.905330 -0.542376 -5.014179
v -3.905329 -0.034825 -5.146404
v -3.905329 -0.542376 -4.407545
v -2.597057 0.000000 -5.019810
v -2.597056 0.173367 -4.459364
v -2.344182 0.313156 -4.800262
v -2.344173 -0.308063 -4.800261
v -2.597056 -0.172322 -4.459364
v -4.344600 0.507215 -4.479048
v -4.344611 -0.580661 -4.504911
v -4.344611 -0.580658 -4.965241
v -4.344600 0.507217 -4.951560
v -4.344605 -0.036721 -5.111901
v -0.724026 -0.007100 -1.274455
v -0.724026 -0.007100 -1.274455
v -0.989103 0.215455 -1.182508
v -1.010711 0.279093 -0.725952
v -1.036614 0.387782 -0.662615
v -0.182757 0.102707 -10.000896
vt 0.686232 0.308831
vt 0.655478 0.349996
vt 0.682030 0.347937
vt 0.656760 0.301647
vt 0.682871 0.231987
vt 0.654923 0.232040
vt 0.669894 0.180324
vt 0.649002 0.180332
vt 0.518426 0.232040
vt 0.544806 0.299550
vt 0.547639 0.232121
vt 0.515851 0.296662
vt 0.492393 0.232093
vt 0.488240 0.293351
vt 0.466390 0.229041
vt 0.473748 0.293296
vt 0.529394 0.180332
vt 0.552438 0.180346
vt 0.573221 0.232145
vt 0.574812 0.180349
vt 0.604055 0.232145
vt 0.602223 0.180349
vt 0.629977 0.232145
vt 0.625919 0.180230
vt 0.544458 0.355521
vt 0.519133 0.350477
vt 0.482159 0.342350
vt 0.465193 0.342510
vt 0.507473 0.180341
vt 0.487426 0.180349
vt 0.464162 0.168931
vt 0.442862 0.226161
vt 0.264152 0.530554
vt 0.264108 0.469836
vt 0.300427 0.515679
vt 0.300577 0.469415
vt 0.420194 0.974460
vt 0.456258 0.949571
vt 0.413809 0.954614
vt 0.479642 0.974466
vt 0.250751 0.993279
vt 0.533307 0.974460
vt 0.620183 0.974460
vt 0.575431 0.974460
vt 0.620183 0.935735
vt 0.577100 0.935288
vt 0.620183 0.877145
vt 0.566756 0.877145
vt 0.620183 0.819300
vt 0.566924 0.820079
vt 0.620183 0.732717
vt 0.566978 0.733154
vt 0.600175 0.659342
vt 0.576995 0.691920
vt 0.456439 0.810032
vt 0.499852 0.871955
vt 0.502998 0.820079
vt 0.466566 0.872047
vt 0.406542 0.803379
vt 0.408327 0.877145
vt 0.332451 0.798611
vt 0.333236 0.877145
vt 0.250751 0.793842
vt 0.250751 0.877145
vt 0.533092 0.820079
vt 0.532292 0.877145
vt 0.264152 0.597234
vt 0.300427 0.567416
vt 0.264152 0.566976
vt 0.300427 0.622193
vt 0.264152 0.600010
vt 0.250751 0.719041
vt 0.333227 0.724755
vt 0.406704 0.736252
vt 0.452454 0.758382
vt 0.503173 0.763393
vt 0.543414 0.737949
vt 0.331636 0.954920
vt 0.250751 0.955367
vt 0.330249 0.974460
vt 0.250751 0.974460
vt 0.540042 0.934855
vt 0.516587 0.936303
vt 0.250884 0.098493
vt 0.304771 0.122230
vt 0.250884 0.122246
vt 0.299475 0.098377
vt 0.250884 0.060690
vt 0.304771 0.060770
vt 0.359828 0.515375
vt 0.407284 0.526088
vt 0.345503 0.512060
vt 0.402804 0.525323
vt 0.359828 0.567418
vt 0.402804 0.567352
vt 0.359828 0.622528
vt 0.402804 0.611482
vt 0.345503 0.626210
vt 0.407284 0.610717
vt 0.384110 0.470077
vt 0.413258 0.401746
vt 0.413428 0.457951
vt 0.383850 0.383883
vt 0.347643 0.473116
vt 0.347364 0.380743
vt 0.297613 0.461915
vt 0.297406 0.393431
vt 0.250489 0.534895
vt 0.250489 0.566976
vt 0.345503 0.512059
vt 0.345503 0.567440
vt 0.277618 0.647881
vt 0.331412 0.690666
vt 0.570302 0.442645
vt 0.612708 0.466772
vt 0.610177 0.444842
vt 0.568861 0.462839
vt 0.541093 0.425602
vt 0.541482 0.445470
vt 0.632080 0.299738
vt 0.605849 0.299907
vt 0.572560 0.299803
vt 0.607806 0.360646
vt 0.571681 0.360645
vt 0.634067 0.353963
vt 0.250489 0.595134
vt 0.321015 0.122226
vt 0.315594 0.098377
vt 0.320753 0.060784
vt 0.315595 0.098377
vt 0.424444 0.444496
vt 0.424357 0.415522
vt 0.640168 0.428987
vt 0.643684 0.446802
vt 0.411290 0.058446
vt 0.419134 0.099971
vt 0.433886 0.100017
vt 0.433792 0.124598
vt 0.417215 0.124600
vt 0.428071 0.099973
vt 0.542215 0.133526
vt 0.523118 0.151695
vt 0.542633 0.151548
vt 0.558674 0.135292
vt 0.617417 0.151693
vt 0.616409 0.135567
vt 0.594154 0.135021
vt 0.599703 0.151693
vt 0.663896 0.151108
vt 0.642029 0.133227
vt 0.643576 0.151254
vt 0.452363 0.465835
vt 0.452363 0.469365
vt 0.454076 0.462305
vt 0.407032 0.060902
vt 0.406828 0.098511
vt 0.398916 0.122206
vt 0.406772 0.098513
vt 0.407010 0.060899
vt 0.710456 0.309973
vt 0.745814 0.226108
vt 0.708611 0.229773
vt 0.745999 0.289300
vt 0.711275 0.343056
vt 0.745200 0.326227
vt 0.690859 0.180316
vt 0.709145 0.169033
vt 0.550295 0.151932
vt 0.564417 0.151627
vt 0.508358 0.143215
vt 0.679036 0.140811
vt 0.632915 0.151400
vt 0.579319 0.150654
vt 0.276699 0.005695
vt 0.252903 0.049201
vt 0.253463 0.006227
vt 0.275041 0.050672
vt 0.298835 0.010702
vt 0.292011 0.051627
vt 0.276441 0.008624
vt 0.273183 0.039784
vt 0.462545 0.652860
vt 0.380077 0.696242
vt 0.446502 0.696321
vt 0.367344 0.652862
vt 0.438561 0.635831
vt 0.387455 0.634288
vt 0.459062 0.555146
vt 0.517177 0.503046
vt 0.459229 0.504145
vt 0.517841 0.555265
vt 0.458821 0.573809
vt 0.517472 0.573933
vt 0.458971 0.622728
vt 0.516416 0.622860
vt 0.571870 0.543208
vt 0.610182 0.551405
vt 0.570469 0.554863
vt 0.610553 0.542857
vt 0.577002 0.522164
vt 0.613045 0.518131
vt 0.568225 0.613405
vt 0.557561 0.548746
vt 0.579918 0.615890
vt 0.608663 0.605159
vt 0.619950 0.545714
vt 0.619829 0.604128
vt 0.427897 0.557427
vt 0.422413 0.614460
vt 0.549415 0.614812
vt 0.544265 0.554191
vt 0.474909 0.652946
vt 0.489734 0.632689
vt 0.492739 0.634667
vt 0.469543 0.652648
vt 0.455971 0.697203
vt 0.452700 0.697218
vt 0.503334 0.696963
vt 0.524312 0.671752
vt 0.529403 0.672501
vt 0.503308 0.690195
vt 0.473585 0.672877
vt 0.477592 0.672654
vt 0.525965 0.632627
vt 0.522795 0.634576
vt 0.540822 0.652369
vt 0.534069 0.652405
vt 0.554856 0.696700
vt 0.551184 0.706404
vt 0.428562 0.715722
vt 0.394798 0.715604
vt 0.070149 0.324846
vt 0.125147 0.384781
vt 0.130301 0.347211
vt 0.072375 0.364114
vt 0.012796 0.291727
vt 0.000583 0.335488
vt 0.001210 0.541793
vt 0.109500 0.483162
vt 0.006191 0.496437
vt 0.101470 0.547387
vt 0.000371 0.617151
vt 0.092563 0.617512
vt 0.000371 0.692509
vt 0.085140 0.685308
vt 0.001948 0.746548
vt 0.074578 0.754027
vt 0.001271 0.802763
vt 0.079080 0.806287
vt 0.236278 0.617151
vt 0.223710 0.681807
vt 0.223117 0.550395
vt 0.192412 0.478430
vt 0.131055 0.446044
vt 0.089178 0.447393
vt 0.232208 0.870331
vt 0.076411 0.911694
vt 0.197984 0.923055
vt 0.079629 0.867315
vt 0.215778 0.824618
vt 0.165385 0.757601
vt 0.000543 0.910339
vt 0.072235 0.949541
vt 0.000771 0.948390
vt 0.325417 0.171511
vt 0.291222 0.155033
vt 0.295664 0.175601
vt 0.325417 0.149051
vt 0.358981 0.176985
vt 0.360798 0.155033
vt 0.383363 0.188143
vt 0.393774 0.176985
vt 0.393774 0.214275
vt 0.414256 0.212327
vt 0.363000 0.212327
vt 0.325417 0.208321
vt 0.237602 0.128155
vt 0.216843 0.195209
vt 0.416248 0.270393
vt 0.361464 0.318902
vt 0.408901 0.316410
vt 0.366842 0.270393
vt 0.408901 0.224377
vt 0.361464 0.221885
vt 0.230542 0.282438
vt 0.273597 0.196357
vt 0.282229 0.283749
vt 0.232288 0.320232
vt 0.282229 0.371141
vt 0.097901 0.405228
vt 0.364537 0.149051
vt 0.325417 0.142233
vt 0.198788 0.085283
vt 0.193347 0.145869
vt 0.062919 0.121343
vt 0.001063 0.045120
vt 0.001213 0.098663
vt 0.291223 0.149051
vt 0.315129 0.270393
vt 0.315129 0.216760
vt 0.315129 0.324027
vt 0.315129 0.371115
vt 0.358850 0.364112
vt 0.393924 0.349838
vt 0.497267 0.452809
vt 0.496327 0.465837
vt 0.496254 0.478864
vt 0.012557 0.266965
vt 0.014764 0.236776
vt 0.010521 0.239735
vt 0.017808 0.267781
vt 0.007472 0.285787
vt 0.000733 0.308920
vt 0.000500 0.324953
vt 0.001421 0.226900
vt 0.001120 0.206265
vt 0.459058 0.118039
vt 0.475480 0.005533
vt 0.487943 0.118039
vt 0.458817 0.005533
vt 0.444287 0.118039
vt 0.458888 0.005533
vt 0.531491 0.001612
vt 0.499790 0.011882
vt 0.531248 0.041946
vt 0.499769 0.001612
vt 0.593149 0.001612
vt 0.593263 0.060686
vt 0.717642 0.121044
vt 0.657189 0.068384
vt 0.718864 0.080874
vt 0.656413 0.121079
vt 0.687811 0.001612
vt 0.688564 0.042951
vt 0.568678 0.083259
vt 0.569079 0.121128
vt 0.461391 0.292119
vt 0.443548 0.325747
vt 0.443047 0.289300
vt 0.480676 0.408370
vt 0.701648 0.309709
vt 0.060378 0.186692
vt 0.064322 0.225895
vt 0.507772 0.409692
vt 0.000365 0.867241
vt 0.227548 0.423082
vt 0.200602 0.373866
vt 0.200213 0.415284
vt 0.233372 0.373364
vt 0.282229 0.447685
vt 0.001060 0.358446
vt 0.001539 0.408147
vt 0.195279 0.316952
vt 0.196917 0.282336
vt 0.191693 0.226848
vt 0.398882 0.171511
vt 0.009037 0.449344
vt 0.428168 0.099973
vt 0.250489 0.547139
vt 0.669589 0.410676
vt 0.250489 0.582945
vt 0.271961 0.051470
vt 0.502971 0.652480
vt 0.477051 0.714582
vt 0.533323 0.714454
vt 0.176592 0.194105
vt 0.510240 0.121895
vt 0.746517 0.001612
vt 0.747937 0.121027
vt 0.748586 0.114778
vt 0.497937 0.447721
vt 0.496597 0.483942
vt 0.197869 0.340501
vt 0.250751 0.627182
vt 0.857394 0.782968
vt 0.931526 0.810378
vt 0.948135 0.767832
vt 0.836181 0.829060
vt 0.786857 0.795571
vt 0.784838 0.843158
vt 0.906014 0.931481
vt 0.987689 0.916107
vt 0.918663 0.870740
vt 0.984995 0.964148
vt 0.913529 0.986141
vt 0.976025 0.993919
vt 0.831547 0.953470
vt 0.776519 0.894443
vt 0.835201 0.885509
vt 0.968066 0.806121
vt 0.983225 0.851066
vt 0.625889 0.869775
vt 0.728199 0.950899
vt 0.721981 0.879041
vt 0.625732 0.933380
vt 0.625601 0.999014
usemtl mat_0
s 1
f 396/1 394/2 395/3
f 396/1 3/4 394/2
f 404/5 3/4 396/1
f 404/5 12/6 3/4
f 17/7 12/6 404/5
f 17/7 16/8 12/6
f 7/9 5/10 6/11
f 7/9 4/12 5/10
f 397/13 4/12 7/9
f 397/13 398/14 4/12
f 406/15 398/14 397/13
f 406/15 417/16 398/14
f 6/11 8/17 7/9
f 6/11 9/18 8/17
f 14/19 9/18 6/11
f 14/19 20/20 9/18
f 21/21 20/20 14/19
f 21/21 19/22 20/20
f 13/23 19/22 21/21
f 13/23 18/24 19/22
f 12/6 18/24 13/23
f 12/6 16/8 18/24
f 4/12 400/25 5/10
f 4/12 399/26 400/25
f 398/14 399/26 4/12
f 398/14 418/27 399/26
f 417/16 418/27 398/14
f 417/16 462/28 418/27
f 10/29 7/9 8/17
f 10/29 397/13 7/9
f 22/30 397/13 10/29
f 22/30 406/15 397/13
f 23/31 406/15 22/30
f 23/31 405/32 406/15
f 390/33 421/34 389/33
f 390/33 420/34 421/34
f 423/35 420/34 390/33
f 423/35 106/36 420/34
f 422/35 106/36 423/35
f 422/35 107/36 106/36
f 389/33 107/36 422/35
f 389/33 421/34 107/36
f 59/37 57/38 58/39
f 59/37 60/40 57/38
f 77/41 60/40 59/37
f 77/41 69/42 60/40
f 78/43 69/42 77/41
f 78/43 79/44 69/42
f 74/45 79/44 78/43
f 74/45 73/46 79/44
f 75/47 73/46 74/45
f 75/47 72/48 73/46
f 433/49 72/48 75/47
f 433/49 432/50 72/48
f 50/51 432/50 433/49
f 50/51 49/52 432/50
f 460/53 49/52 50/51
f 460/53 46/54 49/52
f 425/55 62/56 424/57
f 425/55 61/58 62/56
f 436/59 61/58 425/55
f 436/59 80/60 61/58
f 427/61 80/60 436/59
f 427/61 66/62 80/60
f 426/63 66/62 427/61
f 426/63 63/64 66/62
f 440/61 63/64 426/63
f 440/61 86/62 63/64
f 442/59 86/62 440/61
f 442/59 96/60 86/62
f 438/55 96/60 442/59
f 438/55 540/58 96/60
f 439/57 540/58 438/55
f 439/57 541/56 540/58
f 443/65 541/56 439/57
f 443/65 94/66 541/56
f 441/50 94/66 443/65
f 441/50 92/48 94/66
f 433/49 92/48 441/50
f 433/49 75/47 92/48
f 392/67 98/68 391/69
f 392/67 97/70 98/68
f 393/71 97/70 392/67
f 393/71 99/70 97/70
f 47/72 427/61 48/73
f 47/72 426/63 427/61
f 55/73 426/63 47/72
f 55/73 440/61 426/63
f 491/74 440/61 55/73
f 491/74 442/59 440/61
f 475/75 442/59 491/74
f 475/75 438/55 442/59
f 477/76 438/55 475/75
f 477/76 439/57 438/55
f 474/77 439/57 477/76
f 474/77 443/65 439/57
f 56/52 443/65 474/77
f 56/52 441/50 443/65
f 50/51 441/50 56/52
f 50/51 433/49 441/50
f 63/64 65/78 66/62
f 63/64 64/79 65/78
f 86/62 64/79 63/64
f 86/62 87/78 64/79
f 96/60 87/78 86/62
f 96/60 85/39 87/78
f 540/58 85/39 96/60
f 540/58 539/38 85/39
f 64/79 67/80 65/78
f 64/79 68/81 67/80
f 87/78 68/81 64/79
f 87/78 88/80 68/81
f 85/39 88/80 87/78
f 85/39 84/37 88/80
f 539/38 84/37 85/39
f 539/38 83/40 84/37
f 70/82 60/40 69/42
f 70/82 71/83 60/40
f 76/66 71/83 70/82
f 76/66 62/56 71/83
f 437/65 62/56 76/66
f 437/65 424/57 62/56
f 44/77 424/57 437/65
f 44/77 428/76 424/57
f 430/75 424/57 428/76
f 430/75 425/55 424/57
f 434/74 425/55 430/75
f 434/74 436/59 425/55
f 48/73 436/59 434/74
f 48/73 427/61 436/59
f 1/84 100/85 445/86
f 1/84 444/87 100/85
f 444/88 1/87 448/84
f 448/88 101/89 444/87
f 447/88 101/89 448/88
f 447/88 102/89 101/89
f 2/84 102/89 447/88
f 2/84 446/87 102/89
f 445/86 446/87 2/84
f 445/86 100/85 446/87
f 451/90 449/91 450/92
f 451/90 103/93 449/91
f 455/94 103/93 451/90
f 455/94 104/95 103/93
f 453/96 104/95 455/94
f 453/96 105/97 104/95
f 456/98 105/97 453/96
f 456/98 452/99 105/97
f 422/100 393/101 389/102
f 422/100 99/103 393/101
f 450/104 99/103 422/100
f 450/104 456/105 99/103
f 449/106 456/105 450/104
f 449/106 452/107 456/105
f 390/33 98/68 423/35
f 390/33 391/69 98/68
f 1/108 391/69 390/33
f 1/108 445/109 391/69
f 456/98 453/96 457/98
f 107/36 421/34 420/34
f 106/36 107/36 420/34
f 423/35 450/92 422/35
f 423/35 454/110 450/92
f 98/68 454/110 423/35
f 98/68 458/111 454/110
f 97/70 458/111 98/68
f 97/70 457/98 458/111
f 99/70 457/98 97/70
f 99/70 456/98 457/98
f 53/112 47/72 48/73
f 51/113 53/112 48/73
f 403/114 429/115 402/116
f 403/114 431/117 429/115
f 412/118 431/117 403/114
f 412/118 435/119 431/117
f 13/23 3/4 12/6
f 13/23 11/120 3/4
f 21/21 11/120 13/23
f 21/21 24/121 11/120
f 14/19 24/121 21/21
f 14/19 15/122 24/121
f 6/11 15/122 14/19
f 6/11 5/10 15/122
f 408/123 15/122 407/124
f 408/123 24/121 15/122
f 409/125 24/121 408/123
f 409/125 11/120 24/121
f 394/2 11/120 409/125
f 394/2 3/4 11/120
f 451/90 450/92 454/110
f 2/126 392/67 391/69
f 445/109 2/126 391/69
f 444/87 502/127 100/85
f 444/87 501/128 502/127
f 101/89 501/128 444/87
f 101/89 503/129 501/128
f 102/89 503/129 101/89
f 102/89 505/129 503/129
f 446/87 505/129 102/89
f 446/87 504/130 505/129
f 100/85 504/130 446/87
f 100/85 502/127 504/130
f 455/94 457/98 453/96
f 455/94 458/111 457/98
f 451/90 458/111 455/94
f 451/90 454/110 458/111
f 448/131 389/102 393/101
f 447/132 448/131 393/101
f 48/73 434/74 51/113
f 58/39 66/62 65/78
f 58/39 80/60 66/62
f 57/38 80/60 58/39
f 57/38 61/58 80/60
f 67/80 58/39 65/78
f 67/80 59/37 58/39
f 68/81 59/37 67/80
f 68/81 77/41 59/37
f 88/80 77/41 68/81
f 88/80 84/37 77/41
f 73/46 69/42 79/44
f 73/46 70/82 69/42
f 72/48 70/82 73/46
f 72/48 76/66 70/82
f 432/50 76/66 72/48
f 432/50 437/65 76/66
f 49/52 437/65 432/50
f 49/52 44/77 437/65
f 46/54 44/77 49/52
f 400/25 15/122 5/10
f 400/25 407/124 15/122
f 412/118 407/124 400/25
f 412/118 403/114 407/124
f 401/133 429/115 43/134
f 401/133 402/116 429/115
f 409/125 402/116 401/133
f 409/125 408/123 402/116
f 62/135 81/136 71/137
f 60/138 82/139 57/140
f 82/139 60/138 71/137
f 81/136 82/139 71/137
f 40/141 30/142 28/143
f 42/144 40/141 28/143
f 34/145 38/146 508/147
f 35/148 34/145 508/147
f 31/149 40/150 38/146
f 33/151 31/149 38/146
f 90/137 83/138 543/139
f 542/136 90/137 543/139
f 324/143 326/142 558/141
f 338/144 324/143 558/141
f 336/147 334/146 330/145
f 331/148 336/147 330/145
f 334/146 558/150 327/149
f 329/151 334/146 327/149
f 272/152 263/153 261/152
f 260/154 272/152 261/152
f 504/130 62/155 505/129
f 504/130 81/156 62/155
f 502/127 81/156 504/130
f 502/127 82/157 81/156
f 501/128 82/157 502/127
f 501/128 57/158 82/157
f 503/129 57/158 501/128
f 503/129 61/159 57/158
f 505/129 61/159 503/129
f 505/129 62/155 61/159
f 410/160 405/161 414/162
f 410/160 413/163 405/161
f 459/164 413/163 410/160
f 459/164 415/165 413/163
f 25/166 405/161 23/167
f 25/166 414/162 405/161
f 17/7 414/162 25/166
f 17/7 404/5 414/162
f 27/168 9/18 26/169
f 27/168 8/17 9/18
f 28/143 8/17 27/168
f 28/143 10/29 8/17
f 30/142 10/29 28/143
f 30/142 22/30 10/29
f 29/170 22/30 30/142
f 29/170 23/31 22/30
f 31/149 23/167 29/171
f 31/149 25/166 23/167
f 33/151 25/166 31/149
f 33/151 17/7 25/166
f 32/172 17/7 33/151
f 32/172 16/8 17/7
f 34/145 16/8 32/172
f 34/145 18/24 16/8
f 35/148 18/24 34/145
f 35/148 19/22 18/24
f 36/173 19/22 35/148
f 36/173 20/20 19/22
f 26/169 20/20 36/173
f 26/169 9/18 20/20
f 109/174 39/175 108/176
f 109/174 37/177 39/175
f 506/178 37/177 109/174
f 506/178 507/179 37/177
f 140/180 507/179 506/178
f 140/180 509/181 507/179
f 108/176 509/181 140/180
f 108/176 39/175 509/181
f 113/182 111/183 112/184
f 113/182 110/185 111/183
f 116/186 110/185 113/182
f 116/186 115/187 110/185
f 117/188 115/189 116/190
f 117/188 114/191 115/189
f 124/192 114/191 117/188
f 124/192 125/193 114/191
f 123/194 125/193 124/192
f 123/194 126/195 125/193
f 121/196 119/197 120/198
f 121/196 118/199 119/197
f 110/200 118/199 121/196
f 110/200 115/201 118/199
f 120/198 110/202 121/203
f 120/198 122/204 110/202
f 119/197 122/204 120/198
f 119/197 126/205 122/204
f 118/206 126/205 119/197
f 118/206 115/207 126/205
f 123/194 124/192 117/208
f 116/209 123/194 117/208
f 115/210 114/211 125/193
f 126/195 115/210 125/193
f 129/212 127/213 128/214
f 129/212 112/215 127/213
f 133/216 112/215 129/212
f 133/216 113/217 112/215
f 137/198 135/199 136/196
f 137/198 134/197 135/199
f 133/204 134/197 137/198
f 133/204 123/205 134/197
f 133/204 137/198 136/203
f 113/202 133/204 136/203
f 139/218 506/219 138/220
f 139/218 140/221 506/219
f 132/222 140/221 139/218
f 132/222 108/223 140/221
f 141/224 128/214 127/213
f 141/224 130/225 128/214
f 111/226 130/225 141/224
f 111/226 131/227 130/225
f 110/228 131/227 111/226
f 110/228 122/229 131/227
f 136/196 135/199 116/201
f 113/200 136/196 116/201
f 135/206 134/197 123/205
f 116/207 135/206 123/205
f 127/230 112/184 111/183
f 141/231 127/230 111/183
f 29/170 30/142 40/141
f 42/144 36/173 508/147
f 42/144 26/169 36/173
f 28/143 26/169 42/144
f 28/143 27/168 26/169
f 508/147 36/173 35/148
f 31/149 29/171 40/150
f 408/123 407/124 403/114
f 402/116 408/123 403/114
f 512/232 148/233 511/234
f 512/232 147/235 148/233
f 266/236 147/235 512/232
f 266/236 518/237 147/235
f 149/238 151/239 152/240
f 149/238 150/241 151/239
f 186/242 150/241 149/238
f 186/242 153/243 150/241
f 188/244 153/243 186/242
f 188/244 154/245 153/243
f 160/246 154/245 188/244
f 160/246 159/247 154/245
f 157/248 159/247 160/246
f 157/248 158/249 159/247
f 156/250 154/245 155/251
f 156/250 153/243 154/245
f 185/252 153/243 156/250
f 185/252 150/241 153/243
f 184/253 150/241 185/252
f 184/253 151/239 150/241
f 148/254 151/239 184/253
f 148/254 183/255 151/239
f 164/256 162/257 163/258
f 164/256 161/259 162/257
f 177/260 161/259 164/256
f 177/260 158/249 161/259
f 187/261 158/249 177/260
f 187/261 159/247 158/249
f 155/251 159/247 187/261
f 155/251 154/245 159/247
f 166/262 165/263 162/257
f 166/262 167/264 165/263
f 225/257 167/264 166/262
f 225/257 226/263 167/264
f 171/265 169/266 170/267
f 171/265 168/268 169/266
f 174/269 168/268 171/265
f 174/269 191/270 168/268
f 190/271 191/270 174/269
f 190/271 165/272 191/270
f 163/273 165/272 190/271
f 163/273 162/274 165/272
f 171/265 173/275 174/269
f 171/265 172/276 173/275
f 170/277 172/276 171/265
f 170/277 178/278 172/276
f 164/279 176/280 177/281
f 164/279 175/282 176/280
f 163/283 175/282 164/279
f 163/283 173/284 175/282
f 179/285 172/286 178/278
f 179/285 180/287 172/286
f 203/288 180/287 179/285
f 203/288 196/289 180/287
f 148/233 147/235 183/290
f 192/291 168/268 191/270
f 192/291 193/292 168/268
f 247/270 193/292 192/291
f 247/270 227/268 193/292
f 232/269 227/268 247/270
f 232/269 228/265 227/268
f 233/275 228/265 232/269
f 233/275 231/276 228/265
f 169/293 182/294 170/277
f 169/293 181/295 182/294
f 194/296 181/295 169/293
f 194/296 195/297 181/295
f 230/293 195/297 194/296
f 230/293 240/295 195/297
f 229/277 240/295 230/293
f 229/277 241/294 240/295
f 193/292 169/266 168/268
f 193/292 194/298 169/266
f 227/268 194/298 193/292
f 227/268 230/266 194/298
f 228/265 230/266 227/268
f 228/265 229/267 230/266
f 173/275 163/273 190/271
f 174/269 173/275 190/271
f 180/299 173/284 172/300
f 180/299 175/282 173/284
f 196/301 175/282 180/299
f 196/301 176/280 175/282
f 156/302 176/280 196/301
f 156/302 155/303 176/280
f 176/280 155/303 187/304
f 177/281 176/280 187/304
f 261/152 259/305 260/154
f 261/152 262/306 259/305
f 263/153 262/306 261/152
f 263/153 264/307 262/306
f 262/308 513/309 259/310
f 262/308 265/311 513/309
f 264/312 265/311 262/308
f 264/312 266/236 265/311
f 267/313 266/236 264/312
f 267/313 268/314 266/236
f 273/312 268/314 267/313
f 273/312 275/236 268/314
f 271/308 275/236 273/312
f 271/308 274/311 275/236
f 270/310 274/311 271/308
f 270/310 522/309 274/311
f 517/315 522/309 270/310
f 517/315 510/316 522/309
f 259/310 510/316 517/315
f 259/310 513/309 510/316
f 277/317 197/318 276/319
f 277/317 198/320 197/318
f 562/319 198/320 277/317
f 562/319 249/318 198/320
f 278/321 249/318 562/319
f 278/321 199/322 249/318
f 276/319 199/322 278/321
f 276/319 197/318 199/322
f 282/323 276/324 280/325
f 282/323 277/326 276/324
f 284/325 277/326 282/323
f 284/325 562/324 277/326
f 285/327 280/325 286/328
f 285/327 282/323 280/325
f 289/328 282/323 285/327
f 289/328 284/325 282/323
f 281/329 287/330 279/331
f 281/329 288/332 287/330
f 283/331 288/332 281/329
f 283/331 290/330 288/332
f 291/333 286/328 292/334
f 291/333 285/327 286/328
f 295/334 285/327 291/333
f 295/334 289/328 285/327
f 288/332 293/335 287/330
f 288/332 294/336 293/335
f 290/330 294/336 288/332
f 290/330 296/335 294/336
f 419/337 415/338 462/28
f 419/337 413/339 415/338
f 406/15 413/339 419/337
f 406/15 405/32 413/339
f 418/27 462/28 54/340
f 396/1 414/162 404/5
f 396/1 411/341 414/162
f 395/3 411/341 396/1
f 395/3 459/164 411/341
f 145/342 510/316 513/309
f 514/343 145/342 513/309
f 418/27 54/340 52/344
f 399/26 418/27 52/344
f 189/345 162/257 161/259
f 189/345 166/262 162/257
f 222/259 166/262 189/345
f 222/259 225/257 166/262
f 223/256 225/257 222/259
f 223/256 224/258 225/257
f 185/346 201/347 184/348
f 185/346 200/349 201/347
f 156/350 200/349 185/346
f 156/350 196/289 200/349
f 204/351 183/290 147/235
f 204/351 205/352 183/290
f 520/235 205/352 204/351
f 520/235 242/290 205/352
f 179/285 207/353 203/288
f 179/285 206/354 207/353
f 178/278 206/354 179/285
f 178/278 144/355 206/354
f 167/356 191/270 165/272
f 167/356 192/291 191/270
f 226/272 192/291 167/356
f 226/272 247/270 192/291
f 246/271 247/270 226/272
f 246/271 232/269 247/270
f 224/273 232/269 246/271
f 224/273 233/275 232/269
f 201/347 511/234 148/233
f 184/348 201/347 148/233
f 205/357 151/239 183/255
f 205/357 152/240 151/239
f 242/255 152/240 205/357
f 242/255 214/239 152/240
f 213/254 214/239 242/255
f 213/254 243/253 214/239
f 467/2 465/1 466/3
f 467/2 297/4 465/1
f 490/125 297/4 467/2
f 490/125 307/120 297/4
f 488/123 307/120 490/125
f 488/123 320/121 307/120
f 489/124 320/121 488/123
f 489/124 311/122 320/121
f 469/25 311/122 489/124
f 469/25 301/10 311/122
f 468/26 301/10 469/25
f 468/26 298/12 301/10
f 499/27 298/12 468/26
f 499/27 303/14 298/12
f 464/28 303/14 499/27
f 464/28 498/16 303/14
f 300/11 298/12 299/9
f 300/11 301/10 298/12
f 310/19 301/10 300/11
f 310/19 311/122 301/10
f 316/21 311/122 310/19
f 316/21 320/121 311/122
f 308/23 320/121 316/21
f 308/23 307/120 320/121
f 309/6 307/120 308/23
f 309/6 297/4 307/120
f 485/5 297/4 309/6
f 485/5 465/1 297/4
f 497/162 465/1 485/5
f 497/162 493/341 465/1
f 303/14 299/9 298/12
f 303/14 302/13 299/9
f 498/16 302/13 303/14
f 498/16 487/15 302/13
f 299/9 305/18 300/11
f 299/9 304/17 305/18
f 302/13 304/17 299/9
f 302/13 306/29 304/17
f 487/15 306/29 302/13
f 487/15 319/30 306/29
f 486/32 319/30 487/15
f 486/32 318/31 319/30
f 340/34 528/33 527/33
f 340/34 339/34 528/33
f 533/36 339/34 340/34
f 533/36 532/36 339/34
f 530/35 532/36 533/36
f 530/35 531/35 532/36
f 552/92 531/35 530/35
f 552/92 555/110 531/35
f 545/68 341/67 342/69
f 545/68 544/70 341/67
f 556/111 544/70 545/68
f 556/111 554/98 544/70
f 352/94 554/98 556/111
f 352/94 349/96 554/98
f 350/95 349/96 352/94
f 350/95 351/97 349/96
f 91/82 83/40 90/83
f 91/82 89/42 83/40
f 93/46 89/42 91/82
f 93/46 95/44 89/42
f 74/45 95/44 93/46
f 74/45 78/43 95/44
f 547/85 534/84 535/86
f 547/85 343/87 534/84
f 353/127 343/87 547/85
f 353/127 549/128 343/87
f 543/157 549/128 353/127
f 543/157 539/158 549/128
f 344/87 535/86 536/84
f 344/87 547/85 535/86
f 550/130 547/85 344/87
f 550/130 353/127 547/85
f 542/156 353/127 550/130
f 542/156 543/157 353/127
f 93/46 75/47 74/45
f 93/46 92/48 75/47
f 91/82 92/48 93/46
f 91/82 94/66 92/48
f 90/83 94/66 91/82
f 90/83 541/56 94/66
f 346/93 552/92 345/91
f 346/93 347/90 552/92
f 350/95 347/90 346/93
f 350/95 352/94 347/90
f 544/70 529/71 341/67
f 544/70 546/70 529/71
f 554/98 546/70 544/70
f 554/98 553/98 546/70
f 527/102 546/103 530/100
f 527/102 529/101 546/103
f 538/131 529/101 527/102
f 538/131 537/132 529/101
f 531/35 342/69 528/33
f 531/35 545/68 342/69
f 555/110 545/68 531/35
f 555/110 556/111 545/68
f 347/90 556/111 555/110
f 347/90 352/94 556/111
f 552/104 348/107 345/106
f 552/104 553/105 348/107
f 530/100 553/105 552/104
f 530/100 546/103 553/105
f 553/98 554/98 349/96
f 528/33 339/34 532/36
f 531/35 528/33 532/36
f 530/35 533/36 340/34
f 527/33 530/35 340/34
f 77/41 95/44 78/43
f 77/41 89/42 95/44
f 84/37 89/42 77/41
f 84/37 83/40 89/42
f 55/73 47/72 481/112
f 479/113 55/73 481/112
f 484/116 476/117 483/114
f 484/116 478/115 476/117
f 470/133 478/115 484/116
f 470/133 473/134 478/115
f 309/6 313/7 485/5
f 309/6 312/8 313/7
f 308/23 312/8 309/6
f 308/23 314/24 312/8
f 316/21 314/24 308/23
f 316/21 315/22 314/24
f 310/19 315/22 316/21
f 310/19 317/20 315/22
f 300/11 317/20 310/19
f 300/11 305/18 317/20
f 347/90 555/110 552/92
f 342/69 534/108 528/33
f 342/69 535/109 534/108
f 341/67 535/109 342/69
f 341/67 536/126 535/109
f 351/97 348/99 553/98
f 349/96 351/97 553/98
f 50/51 56/52 472/54
f 460/53 50/51 472/54
f 343/87 538/88 534/84
f 343/87 548/89 538/88
f 549/128 548/89 343/87
f 549/128 354/129 548/89
f 539/158 354/129 549/128
f 539/158 540/159 354/129
f 55/73 479/113 491/74
f 472/54 56/52 474/77
f 495/118 476/117 492/119
f 495/118 483/114 476/117
f 469/25 483/114 495/118
f 469/25 489/124 483/114
f 541/135 90/137 542/136
f 551/89 550/130 344/87
f 551/89 355/129 550/130
f 548/89 355/129 551/89
f 548/89 354/129 355/129
f 537/88 344/87 536/84
f 537/88 551/89 344/87
f 538/88 551/89 537/88
f 538/88 548/89 551/89
f 355/129 542/156 550/130
f 355/129 541/155 542/156
f 354/129 541/155 355/129
f 354/129 540/159 541/155
f 497/162 496/163 494/160
f 497/162 486/161 496/163
f 321/166 486/161 497/162
f 321/166 318/167 486/161
f 461/164 494/160 496/163
f 416/165 461/164 496/163
f 304/17 323/169 305/18
f 304/17 322/168 323/169
f 306/29 322/168 304/17
f 306/29 324/143 322/168
f 319/30 324/143 306/29
f 319/30 326/142 324/143
f 318/31 326/142 319/30
f 318/31 325/170 326/142
f 321/166 325/171 318/167
f 321/166 327/149 325/171
f 313/7 327/149 321/166
f 313/7 329/151 327/149
f 312/8 329/151 313/7
f 312/8 328/172 329/151
f 314/24 328/172 312/8
f 314/24 330/145 328/172
f 315/22 330/145 314/24
f 315/22 331/148 330/145
f 317/20 331/148 315/22
f 317/20 332/173 331/148
f 305/18 332/173 317/20
f 305/18 323/169 332/173
f 357/176 333/177 356/174
f 357/176 557/175 333/177
f 560/180 557/175 357/176
f 560/180 559/181 557/175
f 358/178 559/181 560/180
f 358/178 335/179 559/181
f 356/174 335/179 358/178
f 356/174 333/177 335/179
f 361/184 359/185 360/182
f 361/184 362/183 359/185
f 376/230 362/183 361/184
f 376/230 388/231 362/183
f 363/191 365/190 366/189
f 363/191 364/188 365/190
f 374/193 364/188 363/191
f 374/193 372/192 364/188
f 375/195 372/192 374/193
f 375/195 373/194 372/192
f 369/198 367/199 368/196
f 369/198 370/197 367/199
f 371/204 370/197 369/198
f 371/204 375/205 370/197
f 369/198 368/203 359/202
f 371/204 369/198 359/202
f 364/208 372/192 373/194
f 365/209 364/208 373/194
f 374/193 363/211 366/210
f 375/195 374/193 366/210
f 378/214 361/215 377/212
f 378/214 376/213 361/215
f 379/225 376/213 378/214
f 379/225 388/224 376/213
f 380/227 388/224 379/225
f 380/227 362/226 388/224
f 371/229 362/226 380/227
f 371/229 359/228 362/226
f 385/196 383/197 384/198
f 385/196 386/199 383/197
f 360/200 386/199 385/196
f 360/200 365/201 386/199
f 377/212 361/215 360/217
f 382/216 377/212 360/217
f 384/198 360/202 385/203
f 384/198 382/204 360/202
f 383/197 382/204 384/198
f 383/197 373/205 382/204
f 386/206 373/205 383/197
f 386/206 365/207 373/205
f 560/221 387/220 358/219
f 560/221 561/218 387/220
f 357/223 561/218 560/221
f 357/223 381/222 561/218
f 359/200 368/196 367/199
f 366/201 359/200 367/199
f 366/207 367/206 370/197
f 375/205 366/207 370/197
f 313/7 321/166 497/162
f 485/5 313/7 497/162
f 366/187 365/186 360/182
f 359/185 366/187 360/182
f 325/170 558/141 326/142
f 323/169 336/147 332/173
f 323/169 338/144 336/147
f 322/168 338/144 323/169
f 322/168 324/143 338/144
f 336/147 331/148 332/173
f 327/149 558/150 325/171
f 488/123 483/114 489/124
f 488/123 484/116 483/114
f 490/125 484/116 488/123
f 490/125 470/133 484/116
f 212/234 520/235 521/232
f 212/234 213/233 520/235
f 252/347 213/233 212/234
f 252/347 243/348 213/233
f 253/349 243/348 252/347
f 253/349 244/346 243/348
f 248/289 244/346 253/349
f 248/289 217/350 244/346
f 215/241 152/240 214/239
f 215/241 149/238 152/240
f 216/243 149/238 215/241
f 216/243 186/242 149/238
f 219/245 186/242 216/243
f 219/245 188/244 186/242
f 220/247 188/244 219/245
f 220/247 160/246 188/244
f 221/249 160/246 220/247
f 221/249 157/248 160/246
f 218/251 216/243 217/250
f 218/251 219/245 216/243
f 245/261 219/245 218/251
f 245/261 220/247 219/245
f 235/260 220/247 245/261
f 235/260 221/249 220/247
f 223/256 221/249 235/260
f 223/256 222/259 221/249
f 236/280 223/279 235/281
f 236/280 234/282 223/279
f 248/301 234/282 236/280
f 248/301 237/299 234/282
f 238/285 231/286 237/287
f 238/285 239/278 231/286
f 257/354 239/278 238/285
f 257/354 209/355 239/278
f 213/233 242/290 520/235
f 244/252 214/239 243/253
f 244/252 215/241 214/239
f 217/250 215/241 244/252
f 217/250 216/243 215/241
f 246/271 226/272 225/274
f 224/273 246/271 225/274
f 234/282 224/283 223/279
f 234/282 233/284 224/283
f 237/299 233/284 234/282
f 237/299 231/300 233/284
f 218/303 235/281 245/304
f 218/303 236/280 235/281
f 217/302 236/280 218/303
f 217/302 248/301 236/280
f 271/306 260/154 270/305
f 271/306 272/152 260/154
f 273/307 272/152 271/306
f 273/307 263/153 272/152
f 496/339 464/28 416/338
f 496/339 500/337 464/28
f 486/32 500/337 496/339
f 486/32 487/15 500/337
f 499/27 482/340 464/28
f 461/164 466/3 465/1
f 493/341 461/164 465/1
f 522/309 510/316 211/342
f 250/343 522/309 211/342
f 480/344 482/340 499/27
f 468/26 480/344 499/27
f 255/288 237/287 248/289
f 255/288 238/285 237/287
f 256/353 238/285 255/288
f 256/353 257/354 238/285
f 521/232 520/235 518/237
f 275/236 521/232 518/237
f 239/278 229/277 228/265
f 231/276 239/278 228/265
f 83/138 539/358 543/139
f 389/33 1/108 390/33
f 448/33 1/359 389/108
f 45/360 401/133 43/134
f 45/360 394/2 401/133
f 395/3 394/2 45/360
f 45/360 459/164 395/3
f 394/2 409/125 401/133
f 393/71 2/126 447/361
f 393/71 392/67 2/126
f 104/95 449/91 103/93
f 104/95 452/99 449/91
f 105/97 452/99 104/95
f 410/160 411/341 459/164
f 410/160 414/162 411/341
f 509/181 41/362 507/179
f 509/181 39/175 41/362
f 132/222 109/363 108/223
f 132/222 129/212 109/363
f 133/216 129/212 132/222
f 132/222 123/364 133/216
f 139/218 123/364 132/222
f 139/218 126/365 123/364
f 138/220 126/365 139/218
f 138/220 122/229 126/365
f 131/227 122/229 138/220
f 138/220 109/363 131/227
f 506/219 109/363 138/220
f 109/363 130/225 131/227
f 109/363 128/214 130/225
f 129/212 128/214 109/363
f 38/146 32/172 33/151
f 38/146 34/145 32/172
f 412/118 52/344 435/119
f 412/118 399/26 52/344
f 400/25 399/26 412/118
f 145/342 182/294 181/295
f 145/342 142/366 182/294
f 514/343 142/366 145/342
f 294/336 525/367 293/335
f 294/336 296/335 525/367
f 526/368 291/333 292/334
f 526/368 295/334 291/333
f 419/337 417/16 406/15
f 419/337 462/28 417/16
f 278/369 279/331 276/370
f 278/369 281/329 279/331
f 283/331 281/329 278/369
f 278/369 562/370 283/331
f 517/371 260/154 259/305
f 517/371 270/305 260/154
f 263/153 267/372 264/307
f 263/153 273/307 267/372
f 203/288 200/349 196/289
f 203/288 202/373 200/349
f 207/353 202/373 203/288
f 201/347 200/349 202/373
f 518/237 204/351 147/235
f 518/237 520/235 204/351
f 182/294 178/278 170/277
f 182/294 142/366 178/278
f 144/355 178/278 142/366
f 268/314 518/237 266/236
f 268/314 275/236 518/237
f 463/374 47/72 53/112
f 463/374 481/112 47/72
f 534/108 527/33 528/33
f 534/108 538/359 527/33
f 470/133 471/360 473/134
f 470/133 467/2 471/360
f 490/125 467/2 470/133
f 466/3 471/360 467/2
f 466/3 461/164 471/360
f 536/126 529/71 537/361
f 536/126 341/67 529/71
f 345/91 350/95 346/93
f 345/91 348/99 350/95
f 351/97 350/95 348/99
f 493/341 494/160 461/164
f 493/341 497/162 494/160
f 337/362 559/181 335/179
f 337/362 557/175 559/181
f 356/363 381/222 357/223
f 356/363 377/212 381/222
f 378/214 377/212 356/363
f 356/363 379/225 378/214
f 380/227 379/225 356/363
f 356/363 387/220 380/227
f 358/219 387/220 356/363
f 382/216 381/222 377/212
f 382/216 373/364 381/222
f 561/218 381/222 373/364
f 373/364 375/365 561/218
f 387/220 561/218 375/365
f 375/365 371/229 387/220
f 380/227 387/220 371/229
f 328/172 334/146 329/151
f 328/172 330/145 334/146
f 480/344 495/118 492/119
f 480/344 468/26 495/118
f 469/25 495/118 468/26
f 241/294 211/342 240/295
f 241/294 208/366 211/342
f 239/278 208/366 241/294
f 239/278 209/355 208/366
f 208/366 250/343 211/342
f 239/278 241/294 229/277
f 498/16 500/337 487/15
f 498/16 464/28 500/337
f 253/349 255/288 248/289
f 253/349 254/373 255/288
f 252/347 254/373 253/349
f 254/373 256/353 255/288
f 189/345 221/249 222/259
f 189/345 157/248 221/249
f 158/249 157/248 189/345
f 189/345 161/259 158/249
usemtl mat_1
f 514/375 143/376 142/377
f 514/375 516/378 143/376
f 513/379 516/378 514/375
f 513/379 265/380 516/378
f 519/381 207/382 515/383
f 519/381 202/384 207/382
f 511/385 202/384 519/381
f 511/385 201/386 202/384
f 512/387 265/380 266/388
f 512/387 269/389 265/380
f 511/385 269/389 512/387
f 511/385 519/381 269/389
f 523/378 208/377 210/376
f 523/378 250/375 208/377
f 274/380 250/375 523/378
f 274/380 522/379 250/375
f 254/384 251/383 256/382
f 254/384 258/381 251/383
f 252/386 258/381 254/384
f 252/386 212/385 258/381
f 524/389 275/388 274/380
f 524/389 521/387 275/388
f 258/381 521/387 524/389
f 258/381 212/385 521/387
f 143/376 144/390 142/377
f 143/376 515/383 144/390
f 516/378 515/383 143/376
f 516/378 269/389 515/383
f 265/380 269/389 516/378
f 515/383 269/389 519/381
f 515/383 206/391 144/390
f 515/383 207/382 206/391
f 209/390 210/376 208/377
f 209/390 251/383 210/376
f 257/391 251/383 209/390
f 257/391 256/382 251/383
f 251/383 523/378 210/376
f 251/383 524/389 523/378
f 258/381 524/389 251/383
f 274/380 523/378 524/389
usemtl mat_2
f 195/392 145/393 181/394
f 195/392 146/395 145/393
f 240/394 146/395 195/392
f 240/394 211/393 146/395
f 146/395 510/396 145/393
f 146/395 211/393 510/396
