xof 0303txt 0032

template AnimTicksPerSecond {
  <9E415A43-7BA6-4a73-8743-B73D47E88476>
  DWORD AnimTicksPerSecond;
}

template XSkinMeshHeader {
  <3cf169ce-ff7c-44ab-93c0-f78f62d172e2>
  WORD nMaxSkinWeightsPerVertex;
  WORD nMaxSkinWeightsPerFace;
  WORD nBones;
}

template SkinWeights {
  <6f0d123b-bad2-4167-a0d0-80224f25fabb>
  STRING transformNodeName;
  DWORD nWeights;
  array DWORD vertexIndices[nWeights];
  array float weights[nWeights];
  Matrix4x4 matrixOffset;
}

Frame Root {
  FrameTransformMatrix {
     1.000000, 0.000000, 0.000000, 0.000000,
     0.000000, 0.000000, 1.000000, 0.000000,
     0.000000, 1.000000,-0.000000, 0.000000,
     0.000000, 0.000000, 0.000000, 1.000000;;
  }
  Frame absol_mat_2 {
    FrameTransformMatrix {
       1.000000, 0.000000, 0.000000, 0.000000,
       0.000000, 1.000000, 0.000000, 0.000000,
       0.000000, 0.000000, 1.000000, 0.000000,
       0.000000, 0.000000, 0.000000, 1.000000;;
    }
    Mesh { //Mesh Mesh
      75;
      -0.928789; 7.069170; 2.535706;,
      -1.530542; 6.166691; 2.248856;,
      -0.799041; 7.771970; 1.522716;,
      -1.530542; 6.166691; 2.248856;,
      -1.771801; 5.901163; 0.665996;,
      -0.799041; 7.771970; 1.522716;,
      -1.771801; 5.901163; 0.665996;,
      -1.530542; 6.166691; 2.248856;,
      -2.111431; 4.685352; 1.724246;,
      -1.530542; 6.166691; 2.248856;,
      -0.720486; 5.876397; 3.333096;,
      -2.111431; 4.685352; 1.724246;,
      -2.111431; 4.685352; 1.724246;,
      -0.720486; 5.876397; 3.333096;,
      -0.690159; 4.342354; 3.304686;,
      -0.720486; 5.876397; 3.333096;,
       0.743924; 5.876397; 3.340106;,
      -0.690159; 4.342354; 3.304686;,
      -0.690159; 4.342354; 3.304686;,
       0.743924; 5.876397; 3.340106;,
       0.715970; 4.342348; 3.299766;,
       0.743924; 5.876397; 3.340106;,
       2.018548; 5.842273; 2.189796;,
       0.715970; 4.342348; 3.299766;,
       0.715970; 4.342348; 3.299766;,
       2.018548; 5.842273; 2.189796;,
       2.144989; 4.551591; 1.684906;,
       2.018548; 5.842273; 2.189796;,
       2.036248; 5.732898; 0.846505;,
       2.144989; 4.551591; 1.684906;,
       2.036248; 5.732898; 0.846505;,
       2.018548; 5.842273; 2.189796;,
       1.398219; 7.381610; 1.709586;,
       2.018548; 5.842273; 2.189796;,
       0.743924; 5.876397; 3.340106;,
       1.398219; 7.381610; 1.709586;,
       1.398219; 7.381610; 1.709586;,
       0.743924; 5.876397; 3.340106;,
       0.132868; 6.983290; 2.968976;,
       0.743924; 5.876397; 3.340106;,
      -0.720486; 5.876397; 3.333096;,
       0.132868; 6.983290; 2.968976;,
       0.132868; 6.983290; 2.968976;,
      -0.720486; 5.876397; 3.333096;,
      -0.928789; 7.069170; 2.535706;,
      -0.720486; 5.876397; 3.333096;,
      -1.530542; 6.166691; 2.248856;,
      -0.928789; 7.069170; 2.535706;,
      -2.111431; 4.685352; 1.724246;,
      -0.690159; 4.342354; 3.304686;,
      -1.663891; 2.938350; 2.031446;,
      -0.690159; 4.342354; 3.304686;,
       0.011719; 3.207450; 3.038106;,
      -1.663891; 2.938350; 2.031446;,
      -1.663891; 2.938350; 2.031446;,
       0.011719; 3.207450; 3.038106;,
       0.011719; 2.410810; 2.649426;,
       0.011719; 3.207450; 3.038106;,
       1.587649; 2.932940; 2.015696;,
       0.011719; 2.410810; 2.649426;,
       0.011719; 2.410810; 2.649426;,
       1.587649; 2.932940; 2.015696;,
       0.011719; 1.816170; 2.084216;,
       0.011719; 1.816170; 2.084216;,
      -1.663891; 2.938350; 2.031446;,
       0.011719; 2.410810; 2.649426;,
      -0.690159; 4.342354; 3.304686;,
       0.715970; 4.342348; 3.299766;,
       0.011719; 3.207450; 3.038106;,
       0.715970; 4.342348; 3.299766;,
       1.587649; 2.932940; 2.015696;,
       0.011719; 3.207450; 3.038106;,
       1.587649; 2.932940; 2.015696;,
       0.715970; 4.342348; 3.299766;,
       2.144989; 4.551591; 1.684906;;
      25;
      3;0;1;2;,
      3;3;4;5;,
      3;6;7;8;,
      3;9;10;11;,
      3;12;13;14;,
      3;15;16;17;,
      3;18;19;20;,
      3;21;22;23;,
      3;24;25;26;,
      3;27;28;29;,
      3;30;31;32;,
      3;33;34;35;,
      3;36;37;38;,
      3;39;40;41;,
      3;42;43;44;,
      3;45;46;47;,
      3;48;49;50;,
      3;51;52;53;,
      3;54;55;56;,
      3;57;58;59;,
      3;60;61;62;,
      3;63;64;65;,
      3;66;67;68;,
      3;69;70;71;,
      3;72;73;74;;
      MeshNormals { //Mesh Normals
        75;
         0.704550;-0.467116;-0.534165;,
         0.873348;-0.308054;-0.377270;,
         0.876705;-0.461226;-0.136418;,
         0.873348;-0.308054;-0.377270;,
         0.919706;-0.385235;-0.075533;,
         0.876705;-0.461226;-0.136418;,
         0.919706;-0.385235;-0.075533;,
         0.873348;-0.308054;-0.377270;,
         0.857509;-0.091433;-0.506272;,
         0.873348;-0.308054;-0.377270;,
         0.413221;-0.177099;-0.893216;,
         0.857509;-0.091433;-0.506272;,
         0.857509;-0.091433;-0.506272;,
         0.413221;-0.177099;-0.893216;,
         0.392865; 0.157445;-0.906003;,
         0.413221;-0.177099;-0.893216;,
        -0.370769;-0.203955;-0.906034;,
         0.392865; 0.157445;-0.906003;,
         0.392865; 0.157445;-0.906003;,
        -0.370769;-0.203955;-0.906034;,
        -0.387738; 0.181158;-0.903775;,
        -0.370769;-0.203955;-0.906034;,
        -0.882351;-0.197424;-0.427107;,
        -0.387738; 0.181158;-0.903775;,
        -0.387738; 0.181158;-0.903775;,
        -0.882351;-0.197424;-0.427107;,
        -0.869045; 0.086825;-0.487014;,
        -0.882351;-0.197424;-0.427107;,
        -0.972106;-0.234413; 0.006256;,
        -0.869045; 0.086825;-0.487014;,
        -0.972106;-0.234413; 0.006256;,
        -0.882351;-0.197424;-0.427107;,
        -0.744469;-0.474471;-0.469680;,
        -0.882351;-0.197424;-0.427107;,
        -0.370769;-0.203955;-0.906034;,
        -0.744469;-0.474471;-0.469680;,
        -0.744469;-0.474471;-0.469680;,
        -0.370769;-0.203955;-0.906034;,
        -0.136631;-0.487930;-0.862117;,
        -0.370769;-0.203955;-0.906034;,
         0.413221;-0.177099;-0.893216;,
        -0.136631;-0.487930;-0.862117;,
        -0.136631;-0.487930;-0.862117;,
         0.413221;-0.177099;-0.893216;,
         0.704550;-0.467116;-0.534165;,
         0.413221;-0.177099;-0.893216;,
         0.873348;-0.308054;-0.377270;,
         0.704550;-0.467116;-0.534165;,
         0.857509;-0.091433;-0.506272;,
         0.392865; 0.157445;-0.906003;,
         0.582537; 0.319071;-0.747520;,
         0.392865; 0.157445;-0.906003;,
        -0.011231; 0.422437;-0.906308;,
         0.582537; 0.319071;-0.747520;,
         0.582537; 0.319071;-0.747520;,
        -0.011231; 0.422437;-0.906308;,
        -0.014069; 0.573351;-0.819147;,
        -0.011231; 0.422437;-0.906308;,
        -0.593707; 0.337779;-0.730308;,
        -0.014069; 0.573351;-0.819147;,
        -0.014069; 0.573351;-0.819147;,
        -0.593707; 0.337779;-0.730308;,
        -0.012024; 0.688864;-0.724754;,
        -0.012024; 0.688864;-0.724754;,
         0.582537; 0.319071;-0.747520;,
        -0.014069; 0.573351;-0.819147;,
         0.392865; 0.157445;-0.906003;,
        -0.387738; 0.181158;-0.903775;,
        -0.011231; 0.422437;-0.906308;,
        -0.387738; 0.181158;-0.903775;,
        -0.593707; 0.337779;-0.730308;,
        -0.011231; 0.422437;-0.906308;,
        -0.593707; 0.337779;-0.730308;,
        -0.387738; 0.181158;-0.903775;,
        -0.869045; 0.086825;-0.487014;;
        25;
        3;0;1;2;,
        3;3;4;5;,
        3;6;7;8;,
        3;9;10;11;,
        3;12;13;14;,
        3;15;16;17;,
        3;18;19;20;,
        3;21;22;23;,
        3;24;25;26;,
        3;27;28;29;,
        3;30;31;32;,
        3;33;34;35;,
        3;36;37;38;,
        3;39;40;41;,
        3;42;43;44;,
        3;45;46;47;,
        3;48;49;50;,
        3;51;52;53;,
        3;54;55;56;,
        3;57;58;59;,
        3;60;61;62;,
        3;63;64;65;,
        3;66;67;68;,
        3;69;70;71;,
        3;72;73;74;;
      } //End of Mesh Normals
      MeshMaterialList { //Mesh Material List
        1;
        25;
        0,
        0,
        0,
        0,
        0,
        0,
        0,
        0,
        0,
        0,
        0,
        0,
        0,
        0,
        0,
        0,
        0,
        0,
        0,
        0,
        0,
        0,
        0,
        0,
        0;;
        Material mat_2 {
           0.640000; 0.640000; 0.640000; 1.000000;;
           92.156863;
           0.250000; 0.250000; 0.250000;;
           0.000000; 0.000000; 0.000000;;
          TextureFilename {"Textures/absol_1_2.tga";}
        }
      } //End of Mesh Material List
      MeshTextureCoords { //Mesh UV Coordinates
        75;
         0.203125; 0.023437;,
         0.136719; 0.367187;,
         0.039063;-0.136720;,
         0.136719; 0.367187;,
         0.000000; 0.265625;,
         0.039063;-0.136720;,
         0.000000; 0.265625;,
         0.136719; 0.367187;,
         0.191406; 0.687500;,
         0.136719; 0.367187;,
         0.285156; 0.324219;,
         0.191406; 0.687500;,
         0.191406; 0.687500;,
         0.285156; 0.324219;,
         0.382813; 0.593750;,
         0.285156; 0.324219;,
         0.652344; 0.316406;,
         0.382813; 0.593750;,
         0.382813; 0.593750;,
         0.652344; 0.316406;,
         0.585938; 0.593750;,
         0.652344; 0.316406;,
         0.812500; 0.406250;,
         0.585938; 0.593750;,
         0.585938; 0.593750;,
         0.812500; 0.406250;,
         0.812500; 0.679687;,
         0.812500; 0.406250;,
         0.980469; 0.281250;,
         0.812500; 0.679687;,
         0.980469; 0.281250;,
         0.812500; 0.406250;,
         0.933594;-0.187500;,
         0.812500; 0.406250;,
         0.652344; 0.316406;,
         0.933594;-0.187500;,
         0.933594;-0.187500;,
         0.652344; 0.316406;,
         0.742188; 0.011719;,
         0.652344; 0.316406;,
         0.285156; 0.324219;,
         0.742188; 0.011719;,
         0.742188; 0.011719;,
         0.285156; 0.324219;,
         0.203125; 0.023437;,
         0.285156; 0.324219;,
         0.136719; 0.367187;,
         0.203125; 0.023437;,
         0.191406; 0.687500;,
         0.382813; 0.593750;,
         0.339844; 0.859375;,
         0.382813; 0.593750;,
         0.492188; 0.832031;,
         0.339844; 0.859375;,
         0.339844; 0.859375;,
         0.492188; 0.832031;,
         0.496094; 0.908203;,
         0.492188; 0.832031;,
         0.640625; 0.871094;,
         0.496094; 0.908203;,
         0.496094; 0.908203;,
         0.640625; 0.871094;,
         0.500000; 0.984375;,
         0.500000; 0.984375;,
         0.339844; 0.859375;,
         0.496094; 0.908203;,
         0.382813; 0.593750;,
         0.585938; 0.593750;,
         0.492188; 0.832031;,
         0.585938; 0.593750;,
         0.640625; 0.871094;,
         0.492188; 0.832031;,
         0.640625; 0.871094;,
         0.585938; 0.593750;,
         0.812500; 0.679687;;
      } //End of Mesh UV Coordinates
    } //End of Mesh Mesh
  } //End of absol_mat_2
  Frame absol_mat_3 {
    FrameTransformMatrix {
       1.000000, 0.000000, 0.000000, 0.000000,
       0.000000, 1.000000, 0.000000, 0.000000,
       0.000000, 0.000000, 1.000000, 0.000000,
       0.000000, 0.000000, 0.000000, 1.000000;;
    }
    Mesh { //Mesh Mesh
      249;
      -2.172241; 7.602650; 3.064986;,
      -1.979632; 7.877460; 3.076976;,
      -2.596541; 7.593540; 2.929956;,
      -1.979632; 7.877460; 3.076976;,
      -2.694652; 8.004270; 2.825276;,
      -2.596541; 7.593540; 2.929956;,
      -2.617451; 7.601860; 3.076026;,
      -2.596541; 7.593540; 2.929956;,
      -2.694652; 8.004270; 2.825276;,
      -2.694652; 8.004270; 2.825276;,
      -2.734391; 8.020080; 3.102836;,
      -2.617451; 7.601860; 3.076026;,
      -2.617451; 7.601860; 3.076026;,
      -2.734391; 8.020080; 3.102836;,
      -2.172241; 7.602650; 3.064986;,
      -2.734391; 8.020080; 3.102836;,
      -1.979632; 7.877460; 3.076976;,
      -2.172241; 7.602650; 3.064986;,
      -2.668132; 8.708950; 2.752766;,
      -1.804032; 8.504860; 3.066456;,
      -2.409942; 9.538290; 2.733196;,
      -1.804032; 8.504860; 3.066456;,
      -1.644272; 9.217270; 3.048756;,
      -2.409942; 9.538290; 2.733196;,
      -2.409942; 9.538290; 2.733196;,
      -1.644272; 9.217270; 3.048756;,
      -1.915982;10.372660; 2.762696;,
      -1.644272; 9.217270; 3.048756;,
      -1.330862;10.080900; 3.044466;,
      -1.915982;10.372660; 2.762696;,
      -1.915982;10.372660; 2.762696;,
      -1.330862;10.080900; 3.044466;,
      -1.255892;11.119770; 2.842196;,
      -1.330862;10.080900; 3.044466;,
      -0.864279;10.814080; 3.069536;,
      -1.255892;11.119770; 2.842196;,
      -1.255892;11.119770; 2.842196;,
      -0.864279;10.814080; 3.069536;,
      -0.448992;11.693340; 2.970985;,
      -0.864279;10.814080; 3.069536;,
      -0.250654;11.462210; 3.120496;,
      -0.448992;11.693340; 2.970985;,
      -0.448992;11.693340; 2.970985;,
      -0.250654;11.462210; 3.120496;,
       0.403750;12.087190; 3.123715;,
      -0.250654;11.462210; 3.120496;,
       0.431765;12.003000; 3.187416;,
       0.403750;12.087190; 3.123715;,
       0.403750;12.087190; 3.123715;,
       0.388393;12.093300; 3.230965;,
      -0.448992;11.693340; 2.970985;,
       0.388393;12.093300; 3.230965;,
      -0.479188;11.705350; 3.181865;,
      -0.448992;11.693340; 2.970985;,
      -0.448992;11.693340; 2.970985;,
      -0.479188;11.705350; 3.181865;,
      -1.255892;11.119770; 2.842196;,
      -0.479188;11.705350; 3.181865;,
      -1.298932;11.136880; 3.142776;,
      -1.255892;11.119770; 2.842196;,
      -1.255892;11.119770; 2.842196;,
      -1.298932;11.136880; 3.142776;,
      -1.915982;10.372660; 2.762696;,
      -1.298932;11.136880; 3.142776;,
      -1.966712;10.392840; 3.117016;,
      -1.915982;10.372660; 2.762696;,
      -1.915982;10.372660; 2.762696;,
      -1.966712;10.392840; 3.117016;,
      -2.409942; 9.538290; 2.733196;,
      -1.966712;10.392840; 3.117016;,
      -2.462412; 9.559160; 3.099636;,
      -2.409942; 9.538290; 2.733196;,
      -2.409942; 9.538290; 2.733196;,
      -2.462412; 9.559160; 3.099636;,
      -2.668132; 8.708950; 2.752766;,
      -2.462412; 9.559160; 3.099636;,
      -2.718021; 8.728780; 3.101146;,
      -2.668132; 8.708950; 2.752766;,
      -2.668132; 8.708950; 2.752766;,
      -2.718021; 8.728780; 3.101146;,
      -2.694652; 8.004270; 2.825276;,
      -2.718021; 8.728780; 3.101146;,
      -2.734391; 8.020080; 3.102836;,
      -2.694652; 8.004270; 2.825276;,
      -1.804032; 8.504860; 3.066456;,
      -2.718021; 8.728780; 3.101146;,
      -1.644272; 9.217270; 3.048756;,
      -2.718021; 8.728780; 3.101146;,
      -2.462412; 9.559160; 3.099636;,
      -1.644272; 9.217270; 3.048756;,
      -1.644272; 9.217270; 3.048756;,
      -2.462412; 9.559160; 3.099636;,
      -1.330862;10.080900; 3.044466;,
      -2.462412; 9.559160; 3.099636;,
      -1.966712;10.392840; 3.117016;,
      -1.330862;10.080900; 3.044466;,
      -1.330862;10.080900; 3.044466;,
      -1.966712;10.392840; 3.117016;,
      -0.864279;10.814080; 3.069536;,
      -1.966712;10.392840; 3.117016;,
      -1.298932;11.136880; 3.142776;,
      -0.864279;10.814080; 3.069536;,
      -0.864279;10.814080; 3.069536;,
      -1.298932;11.136880; 3.142776;,
      -0.250654;11.462210; 3.120496;,
      -1.298932;11.136880; 3.142776;,
      -0.479188;11.705350; 3.181865;,
      -0.250654;11.462210; 3.120496;,
      -0.250654;11.462210; 3.120496;,
      -0.479188;11.705350; 3.181865;,
       0.431765;12.003000; 3.187416;,
      -0.479188;11.705350; 3.181865;,
       0.388393;12.093300; 3.230965;,
       0.431765;12.003000; 3.187416;,
      -0.450878; 6.618690; 2.487746;,
      -0.002920; 6.199052; 3.090486;,
       0.667594; 6.589440; 2.633826;,
       0.633832; 6.570040; 3.483126;,
       0.980649; 6.917170; 3.515166;,
       0.667594; 6.589440; 2.633826;,
       0.980649; 6.917170; 3.515166;,
       1.398219; 7.381610; 1.709586;,
       0.667594; 6.589440; 2.633826;,
       1.398219; 7.381610; 1.709586;,
       0.980649; 6.917170; 3.515166;,
       1.040369; 7.100410; 3.518516;,
       0.980649; 6.917170; 3.515166;,
       0.011719; 6.680240; 4.310696;,
       1.040369; 7.100410; 3.518516;,
       1.040369; 7.100410; 3.518516;,
       0.011719; 6.680240; 4.310696;,
       0.107339; 6.961830; 4.143716;,
       0.011719; 6.680240; 4.310696;,
      -0.083902; 6.961830; 4.143716;,
       0.107339; 6.961830; 4.143716;,
      -0.083902; 6.961830; 4.143716;,
       0.011719; 6.680240; 4.310696;,
      -1.016932; 7.100410; 3.518516;,
       0.011719; 6.680240; 4.310696;,
      -0.957213; 6.917170; 3.515166;,
      -1.016932; 7.100410; 3.518516;,
      -1.016932; 7.100410; 3.518516;,
      -0.957213; 6.917170; 3.515166;,
      -0.928789; 7.069170; 2.535696;,
      -0.957213; 6.917170; 3.515166;,
      -0.450878; 6.618690; 2.487746;,
      -0.928789; 7.069170; 2.535696;,
      -0.450878; 6.618690; 2.487746;,
      -0.957213; 6.917170; 3.515166;,
      -0.569928; 6.556550; 3.483126;,
       1.398219; 7.381610; 1.709586;,
       1.040369; 7.100410; 3.518516;,
       1.061278; 7.260230; 3.397076;,
      -1.016932; 7.100410; 3.518516;,
      -0.928789; 7.069170; 2.535696;,
      -1.037841; 7.260230; 3.397076;,
      -0.928789; 7.069170; 2.535696;,
      -1.036322; 7.743210; 2.546986;,
      -1.037841; 7.260230; 3.397076;,
      -1.037841; 7.260230; 3.397076;,
      -1.036322; 7.743210; 2.546986;,
      -1.118631; 7.806270; 3.027546;,
      -1.036322; 7.743210; 2.546986;,
      -1.039102; 8.236350; 3.050866;,
      -1.118631; 7.806270; 3.027546;,
      -1.118631; 7.806270; 3.027546;,
      -1.039102; 8.236350; 3.050866;,
      -0.993212; 8.119861; 3.247956;,
      -0.993212; 8.119861; 3.247956;,
      -1.773342; 8.109960; 2.968636;,
      -1.118631; 7.806270; 3.027546;,
      -1.118631; 7.806270; 3.027546;,
      -1.773342; 8.109960; 2.968636;,
      -1.827862; 7.959040; 3.089316;,
      -1.773342; 8.109960; 2.968636;,
      -1.979632; 7.877460; 3.076976;,
      -1.827862; 7.959040; 3.089316;,
      -1.979632; 7.877460; 3.076976;,
      -1.773342; 8.109960; 2.968636;,
      -2.694652; 8.004270; 2.825276;,
      -1.773342; 8.109960; 2.968636;,
      -2.668132; 8.708950; 2.752766;,
      -2.694652; 8.004270; 2.825276;,
      -2.668132; 8.708950; 2.752766;,
      -1.773342; 8.109960; 2.968636;,
      -1.804032; 8.504860; 3.066456;,
      -1.773342; 8.109960; 2.968636;,
      -1.742112; 8.274650; 3.092716;,
      -1.804032; 8.504860; 3.066456;,
      -1.742112; 8.274650; 3.092716;,
      -1.773342; 8.109960; 2.968636;,
      -0.993212; 8.119861; 3.247956;,
      -0.993212; 8.119861; 3.247956;,
      -0.935516; 7.893960; 3.639956;,
      -1.742112; 8.274650; 3.092716;,
      -1.742112; 8.274650; 3.092716;,
      -0.935516; 7.893960; 3.639956;,
      -1.802692; 8.115060; 3.188526;,
      -0.935516; 7.893960; 3.639956;,
      -1.077961; 7.590700; 3.373406;,
      -1.802692; 8.115060; 3.188526;,
      -1.802692; 8.115060; 3.188526;,
      -1.077961; 7.590700; 3.373406;,
      -1.827862; 7.959040; 3.089316;,
      -1.077961; 7.590700; 3.373406;,
      -1.118631; 7.806270; 3.027546;,
      -1.827862; 7.959040; 3.089316;,
      -1.118631; 7.806270; 3.027546;,
      -1.077961; 7.590700; 3.373406;,
      -1.037841; 7.260230; 3.397076;,
      -1.827862; 7.959040; 3.089316;,
      -1.979632; 7.877460; 3.076976;,
      -1.802692; 8.115060; 3.188526;,
      -1.979632; 7.877460; 3.076976;,
      -2.734391; 8.020080; 3.102836;,
      -1.802692; 8.115060; 3.188526;,
      -1.802692; 8.115060; 3.188526;,
      -2.734391; 8.020080; 3.102836;,
      -2.718021; 8.728780; 3.101146;,
      -2.718021; 8.728780; 3.101146;,
      -1.804032; 8.504860; 3.066456;,
      -1.802692; 8.115060; 3.188526;,
      -1.802692; 8.115060; 3.188526;,
      -1.804032; 8.504860; 3.066456;,
      -1.742112; 8.274650; 3.092716;,
       0.980649; 6.917170; 3.515166;,
       0.011719; 6.576200; 4.136416;,
       0.011719; 6.680240; 4.310696;,
       0.011719; 6.576200; 4.136416;,
      -0.957213; 6.917170; 3.515166;,
       0.011719; 6.680240; 4.310696;,
      -2.172241; 7.602650; 3.064986;,
      -2.596541; 7.593540; 2.929956;,
      -2.451021; 7.330390; 3.040516;,
      -2.451021; 7.330390; 3.040516;,
      -2.596541; 7.593540; 2.929956;,
      -2.617451; 7.601860; 3.076026;,
      -2.451021; 7.330390; 3.040516;,
      -2.617451; 7.601860; 3.076026;,
      -2.172241; 7.602650; 3.064986;,
       0.431765;12.003000; 3.187416;,
       0.720318;12.173610; 3.219016;,
       0.403750;12.087190; 3.123715;,
       0.720318;12.173610; 3.219016;,
       0.388393;12.093300; 3.230965;,
       0.403750;12.087190; 3.123715;,
       0.388393;12.093300; 3.230965;,
       0.720318;12.173610; 3.219016;,
       0.431765;12.003000; 3.187416;;
      83;
      3;0;1;2;,
      3;3;4;5;,
      3;6;7;8;,
      3;9;10;11;,
      3;12;13;14;,
      3;15;16;17;,
      3;18;19;20;,
      3;21;22;23;,
      3;24;25;26;,
      3;27;28;29;,
      3;30;31;32;,
      3;33;34;35;,
      3;36;37;38;,
      3;39;40;41;,
      3;42;43;44;,
      3;45;46;47;,
      3;48;49;50;,
      3;51;52;53;,
      3;54;55;56;,
      3;57;58;59;,
      3;60;61;62;,
      3;63;64;65;,
      3;66;67;68;,
      3;69;70;71;,
      3;72;73;74;,
      3;75;76;77;,
      3;78;79;80;,
      3;81;82;83;,
      3;84;85;86;,
      3;87;88;89;,
      3;90;91;92;,
      3;93;94;95;,
      3;96;97;98;,
      3;99;100;101;,
      3;102;103;104;,
      3;105;106;107;,
      3;108;109;110;,
      3;111;112;113;,
      3;114;115;116;,
      3;117;118;119;,
      3;120;121;122;,
      3;123;124;125;,
      3;126;127;128;,
      3;129;130;131;,
      3;132;133;134;,
      3;135;136;137;,
      3;138;139;140;,
      3;141;142;143;,
      3;144;145;146;,
      3;147;148;149;,
      3;150;151;152;,
      3;153;154;155;,
      3;156;157;158;,
      3;159;160;161;,
      3;162;163;164;,
      3;165;166;167;,
      3;168;169;170;,
      3;171;172;173;,
      3;174;175;176;,
      3;177;178;179;,
      3;180;181;182;,
      3;183;184;185;,
      3;186;187;188;,
      3;189;190;191;,
      3;192;193;194;,
      3;195;196;197;,
      3;198;199;200;,
      3;201;202;203;,
      3;204;205;206;,
      3;207;208;209;,
      3;210;211;212;,
      3;213;214;215;,
      3;216;217;218;,
      3;219;220;221;,
      3;222;223;224;,
      3;225;226;227;,
      3;228;229;230;,
      3;231;232;233;,
      3;234;235;236;,
      3;237;238;239;,
      3;240;241;242;,
      3;243;244;245;,
      3;246;247;248;;
      MeshNormals { //Mesh Normals
        249;
        -0.301614; 0.184759; 0.935331;,
        -0.263710; 0.455672; 0.850154;,
         0.489120; 0.423017; 0.762749;,
        -0.263710; 0.455672; 0.850154;,
         0.583056; 0.214057; 0.783715;,
         0.489120; 0.423017; 0.762749;,
         0.689444; 0.343059;-0.637898;,
         0.489120; 0.423017; 0.762749;,
         0.583056; 0.214057; 0.783715;,
         0.583056; 0.214057; 0.783715;,
         0.778436; 0.130009;-0.614093;,
         0.689444; 0.343059;-0.637898;,
         0.689444; 0.343059;-0.637898;,
         0.778436; 0.130009;-0.614093;,
        -0.023835; 0.073519;-0.996979;,
         0.778436; 0.130009;-0.614093;,
        -0.016175; 0.319498;-0.947417;,
        -0.023835; 0.073519;-0.996979;,
         0.567003;-0.076113; 0.820154;,
        -0.428144;-0.096225; 0.898556;,
         0.490829;-0.226356; 0.841304;,
        -0.428144;-0.096225; 0.898556;,
        -0.342204; 0.123173; 0.931486;,
         0.490829;-0.226356; 0.841304;,
         0.490829;-0.226356; 0.841304;,
        -0.342204; 0.123173; 0.931486;,
         0.389874;-0.352550; 0.850673;,
        -0.342204; 0.123173; 0.931486;,
        -0.361064; 0.171545; 0.916593;,
         0.389874;-0.352550; 0.850673;,
         0.389874;-0.352550; 0.850673;,
        -0.361064; 0.171545; 0.916593;,
         0.282266;-0.453413; 0.845393;,
        -0.361064; 0.171545; 0.916593;,
        -0.351146; 0.231727; 0.907163;,
         0.282266;-0.453413; 0.845393;,
         0.282266;-0.453413; 0.845393;,
        -0.351146; 0.231727; 0.907163;,
         0.148442;-0.515152; 0.844111;,
        -0.351146; 0.231727; 0.907163;,
        -0.338023; 0.298502; 0.892514;,
         0.148442;-0.515152; 0.844111;,
         0.148442;-0.515152; 0.844111;,
        -0.338023; 0.298502; 0.892514;,
        -0.051057;-0.496445; 0.866543;,
        -0.338023; 0.298502; 0.892514;,
        -0.404736; 0.462264; 0.788965;,
        -0.051057;-0.496445; 0.866543;,
        -0.051057;-0.496445; 0.866543;,
         0.208228;-0.571429;-0.793756;,
         0.148442;-0.515152; 0.844111;,
         0.208228;-0.571429;-0.793756;,
         0.367046;-0.599963;-0.710837;,
         0.148442;-0.515152; 0.844111;,
         0.148442;-0.515152; 0.844111;,
         0.367046;-0.599963;-0.710837;,
         0.282266;-0.453413; 0.845393;,
         0.367046;-0.599963;-0.710837;,
         0.499252;-0.536699;-0.680166;,
         0.282266;-0.453413; 0.845393;,
         0.282266;-0.453413; 0.845393;,
         0.499252;-0.536699;-0.680166;,
         0.389874;-0.352550; 0.850673;,
         0.499252;-0.536699;-0.680166;,
         0.605548;-0.431074;-0.668905;,
         0.389874;-0.352550; 0.850673;,
         0.389874;-0.352550; 0.850673;,
         0.605548;-0.431074;-0.668905;,
         0.490829;-0.226356; 0.841304;,
         0.605548;-0.431074;-0.668905;,
         0.697806;-0.311258;-0.645100;,
         0.490829;-0.226356; 0.841304;,
         0.490829;-0.226356; 0.841304;,
         0.697806;-0.311258;-0.645100;,
         0.567003;-0.076113; 0.820154;,
         0.697806;-0.311258;-0.645100;,
         0.768303;-0.156255;-0.620685;,
         0.567003;-0.076113; 0.820154;,
         0.567003;-0.076113; 0.820154;,
         0.768303;-0.156255;-0.620685;,
         0.583056; 0.214057; 0.783715;,
         0.768303;-0.156255;-0.620685;,
         0.778436; 0.130009;-0.614093;,
         0.583056; 0.214057; 0.783715;,
        -0.124271;-0.177252;-0.976257;,
         0.768303;-0.156255;-0.620685;,
        -0.051729; 0.006592;-0.998627;,
         0.768303;-0.156255;-0.620685;,
         0.697806;-0.311258;-0.645100;,
        -0.051729; 0.006592;-0.998627;,
        -0.051729; 0.006592;-0.998627;,
         0.697806;-0.311258;-0.645100;,
        -0.071139; 0.062105;-0.995514;,
         0.697806;-0.311258;-0.645100;,
         0.605548;-0.431074;-0.668905;,
        -0.071139; 0.062105;-0.995514;,
        -0.071139; 0.062105;-0.995514;,
         0.605548;-0.431074;-0.668905;,
        -0.072115; 0.118778;-0.990265;,
         0.605548;-0.431074;-0.668905;,
         0.499252;-0.536699;-0.680166;,
        -0.072115; 0.118778;-0.990265;,
        -0.072115; 0.118778;-0.990265;,
         0.499252;-0.536699;-0.680166;,
        -0.064577; 0.178961;-0.981719;,
         0.499252;-0.536699;-0.680166;,
         0.367046;-0.599963;-0.710837;,
        -0.064577; 0.178961;-0.981719;,
        -0.064577; 0.178961;-0.981719;,
         0.367046;-0.599963;-0.710837;,
        -0.115604; 0.362590;-0.924741;,
         0.367046;-0.599963;-0.710837;,
         0.208228;-0.571429;-0.793756;,
        -0.115604; 0.362590;-0.924741;,
         0.443770; 0.828181; 0.342235;,
        -0.057283; 0.798853; 0.598773;,
        -0.596942; 0.782617; 0.176427;,
        -0.706809; 0.707266;-0.011933;,
        -0.812159; 0.465377;-0.351787;,
        -0.596942; 0.782617; 0.176427;,
        -0.812159; 0.465377;-0.351787;,
        -0.820063; 0.570940;-0.038636;,
        -0.596942; 0.782617; 0.176427;,
        -0.820063; 0.570940;-0.038636;,
        -0.812159; 0.465377;-0.351787;,
        -0.906552; 0.199011;-0.372204;,
        -0.812159; 0.465377;-0.351787;,
        -0.000000; 0.315806;-0.948790;,
        -0.906552; 0.199011;-0.372204;,
        -0.906552; 0.199011;-0.372204;,
        -0.000000; 0.315806;-0.948790;,
        -0.325297;-0.398114;-0.857692;,
        -0.000000; 0.315806;-0.948790;,
         0.325297;-0.398114;-0.857692;,
        -0.325297;-0.398114;-0.857692;,
         0.325297;-0.398114;-0.857692;,
        -0.000000; 0.315806;-0.948790;,
         0.945097; 0.245186;-0.215888;,
        -0.000000; 0.315806;-0.948790;,
         0.842097; 0.471694;-0.261361;,
         0.945097; 0.245186;-0.215888;,
         0.945097; 0.245186;-0.215888;,
         0.842097; 0.471694;-0.261361;,
         0.882656; 0.456038; 0.113742;,
         0.842097; 0.471694;-0.261361;,
         0.443770; 0.828181; 0.342235;,
         0.882656; 0.456038; 0.113742;,
         0.443770; 0.828181; 0.342235;,
         0.842097; 0.471694;-0.261361;,
         0.681570; 0.720725; 0.126499;,
        -0.820063; 0.570940;-0.038636;,
        -0.906552; 0.199011;-0.372204;,
        -0.980102;-0.021638;-0.197241;,
         0.945097; 0.245186;-0.215888;,
         0.882656; 0.456038; 0.113742;,
         0.981170; 0.178838; 0.072695;,
         0.882656; 0.456038; 0.113742;,
         0.987732; 0.083651; 0.131748;,
         0.981170; 0.178838; 0.072695;,
         0.981170; 0.178838; 0.072695;,
         0.987732; 0.083651; 0.131748;,
         0.836726; 0.178350; 0.517747;,
         0.987732; 0.083651; 0.131748;,
         0.977905;-0.174596;-0.114872;,
         0.836726; 0.178350; 0.517747;,
         0.836726; 0.178350; 0.517747;,
         0.977905;-0.174596;-0.114872;,
         0.298379;-0.946928;-0.119388;,
         0.298379;-0.946928;-0.119388;,
        -0.261910; 0.080294; 0.961730;,
         0.836726; 0.178350; 0.517747;,
         0.836726; 0.178350; 0.517747;,
        -0.261910; 0.080294; 0.961730;,
        -0.040742; 0.997589;-0.055666;,
        -0.261910; 0.080294; 0.961730;,
        -0.263710; 0.455672; 0.850154;,
        -0.040742; 0.997589;-0.055666;,
        -0.263710; 0.455672; 0.850154;,
        -0.261910; 0.080294; 0.961730;,
         0.583056; 0.214057; 0.783715;,
        -0.261910; 0.080294; 0.961730;,
         0.567003;-0.076113; 0.820154;,
         0.583056; 0.214057; 0.783715;,
         0.567003;-0.076113; 0.820154;,
        -0.261910; 0.080294; 0.961730;,
        -0.428144;-0.096225; 0.898556;,
        -0.261910; 0.080294; 0.961730;,
        -0.758110;-0.635639;-0.145573;,
        -0.428144;-0.096225; 0.898556;,
        -0.758110;-0.635639;-0.145573;,
        -0.261910; 0.080294; 0.961730;,
         0.298379;-0.946928;-0.119388;,
         0.298379;-0.946928;-0.119388;,
         0.372143;-0.180975;-0.910337;,
        -0.758110;-0.635639;-0.145573;,
        -0.758110;-0.635639;-0.145573;,
         0.372143;-0.180975;-0.910337;,
         0.165410;-0.007080;-0.986175;,
         0.372143;-0.180975;-0.910337;,
         0.848994; 0.467849;-0.245491;,
         0.165410;-0.007080;-0.986175;,
         0.165410;-0.007080;-0.986175;,
         0.848994; 0.467849;-0.245491;,
        -0.040742; 0.997589;-0.055666;,
         0.848994; 0.467849;-0.245491;,
         0.836726; 0.178350; 0.517747;,
        -0.040742; 0.997589;-0.055666;,
         0.836726; 0.178350; 0.517747;,
         0.848994; 0.467849;-0.245491;,
         0.981170; 0.178838; 0.072695;,
        -0.040742; 0.997589;-0.055666;,
        -0.016175; 0.319498;-0.947417;,
         0.165410;-0.007080;-0.986175;,
        -0.016175; 0.319498;-0.947417;,
         0.778436; 0.130009;-0.614093;,
         0.165410;-0.007080;-0.986175;,
         0.165410;-0.007080;-0.986175;,
         0.778436; 0.130009;-0.614093;,
         0.768303;-0.156255;-0.620685;,
         0.768303;-0.156255;-0.620685;,
        -0.124271;-0.177252;-0.976257;,
         0.165410;-0.007080;-0.986175;,
         0.165410;-0.007080;-0.986175;,
        -0.124271;-0.177252;-0.976257;,
        -0.758110;-0.635639;-0.145573;,
        -0.812159; 0.465377;-0.351787;,
        -0.000000; 0.858638;-0.512558;,
        -0.000000; 0.315806;-0.948790;,
        -0.000000; 0.858638;-0.512558;,
         0.842097; 0.471694;-0.261361;,
        -0.000000; 0.315806;-0.948790;,
        -0.301614; 0.184759; 0.935331;,
         0.489120; 0.423017; 0.762749;,
        -0.054964; 0.996399;-0.064455;,
        -0.054964; 0.996399;-0.064455;,
         0.489120; 0.423017; 0.762749;,
         0.689444; 0.343059;-0.637898;,
        -0.054964; 0.996399;-0.064455;,
         0.689444; 0.343059;-0.637898;,
        -0.023835; 0.073519;-0.996979;,
        -0.404736; 0.462264; 0.788965;,
        -0.934355;-0.337352;-0.114566;,
        -0.051057;-0.496445; 0.866543;,
        -0.934355;-0.337352;-0.114566;,
         0.208228;-0.571429;-0.793756;,
        -0.051057;-0.496445; 0.866543;,
         0.208228;-0.571429;-0.793756;,
        -0.934355;-0.337352;-0.114566;,
        -0.115604; 0.362590;-0.924741;;
        83;
        3;0;1;2;,
        3;3;4;5;,
        3;6;7;8;,
        3;9;10;11;,
        3;12;13;14;,
        3;15;16;17;,
        3;18;19;20;,
        3;21;22;23;,
        3;24;25;26;,
        3;27;28;29;,
        3;30;31;32;,
        3;33;34;35;,
        3;36;37;38;,
        3;39;40;41;,
        3;42;43;44;,
        3;45;46;47;,
        3;48;49;50;,
        3;51;52;53;,
        3;54;55;56;,
        3;57;58;59;,
        3;60;61;62;,
        3;63;64;65;,
        3;66;67;68;,
        3;69;70;71;,
        3;72;73;74;,
        3;75;76;77;,
        3;78;79;80;,
        3;81;82;83;,
        3;84;85;86;,
        3;87;88;89;,
        3;90;91;92;,
        3;93;94;95;,
        3;96;97;98;,
        3;99;100;101;,
        3;102;103;104;,
        3;105;106;107;,
        3;108;109;110;,
        3;111;112;113;,
        3;114;115;116;,
        3;117;118;119;,
        3;120;121;122;,
        3;123;124;125;,
        3;126;127;128;,
        3;129;130;131;,
        3;132;133;134;,
        3;135;136;137;,
        3;138;139;140;,
        3;141;142;143;,
        3;144;145;146;,
        3;147;148;149;,
        3;150;151;152;,
        3;153;154;155;,
        3;156;157;158;,
        3;159;160;161;,
        3;162;163;164;,
        3;165;166;167;,
        3;168;169;170;,
        3;171;172;173;,
        3;174;175;176;,
        3;177;178;179;,
        3;180;181;182;,
        3;183;184;185;,
        3;186;187;188;,
        3;189;190;191;,
        3;192;193;194;,
        3;195;196;197;,
        3;198;199;200;,
        3;201;202;203;,
        3;204;205;206;,
        3;207;208;209;,
        3;210;211;212;,
        3;213;214;215;,
        3;216;217;218;,
        3;219;220;221;,
        3;222;223;224;,
        3;225;226;227;,
        3;228;229;230;,
        3;231;232;233;,
        3;234;235;236;,
        3;237;238;239;,
        3;240;241;242;,
        3;243;244;245;,
        3;246;247;248;;
      } //End of Mesh Normals
      MeshMaterialList { //Mesh Material List
        1;
        83;
        0,
        0,
        0,
        0,
        0,
        0,
        0,
        0,
        0,
        0,
        0,
        0,
        0,
        0,
        0,
        0,
        0,
        0,
        0,
        0,
        0,
        0,
        0,
        0,
        0,
        0,
        0,
        0,
        0,
        0,
        0,
        0,
        0,
        0,
        0,
        0,
        0,
        0,
        0,
        0,
        0,
        0,
        0,
        0,
        0,
        0,
        0,
        0,
        0,
        0,
        0,
        0,
        0,
        0,
        0,
        0,
        0,
        0,
        0,
        0,
        0,
        0,
        0,
        0,
        0,
        0,
        0,
        0,
        0,
        0,
        0,
        0,
        0,
        0,
        0,
        0,
        0,
        0,
        0,
        0,
        0,
        0,
        0;;
        Material mat_3 {
           0.640000; 0.640000; 0.640000; 1.000000;;
           92.156863;
           0.250000; 0.250000; 0.250000;;
           0.000000; 0.000000; 0.000000;;
          TextureFilename {"Textures/absol_1_3.tga";}
        }
      } //End of Mesh Material List
      MeshTextureCoords { //Mesh UV Coordinates
        249;
        -4.594920;-0.998080;,
        -4.147390;-1.751040;,
        -5.580770;-0.856590;,
        -4.147390;-1.751040;,
        -5.808730;-1.875860;,
        -5.580770;-0.856590;,
        -5.629370;-1.005490;,
        -5.580770;-0.856590;,
        -5.808730;-1.875860;,
        -5.808730;-1.875860;,
        -5.901080;-2.158820;,
        -5.629370;-1.005490;,
        -5.629370;-1.005490;,
        -5.901080;-2.158820;,
        -4.594920;-0.998080;,
        -5.901080;-2.158820;,
        -4.147390;-1.751040;,
        -4.594920;-0.998080;,
        -5.747130;-3.717270;,
        -3.739390;-3.437300;,
        -5.147220;-5.941400;,
        -3.739390;-3.437300;,
        -3.368190;-5.347080;,
        -5.147220;-5.941400;,
        -5.147220;-5.941400;,
        -3.368190;-5.347080;,
        -3.999510;-8.221590;,
        -3.368190;-5.347080;,
        -2.639990;-7.677080;,
        -3.999510;-8.221590;,
        -3.999510;-8.221590;,
        -2.639990;-7.677080;,
        -2.465800;-10.309200;,
        -2.639990;-7.677080;,
        -1.555890;-9.680000;,
        -2.465800;-10.309200;,
        -2.465800;-10.309200;,
        -1.555890;-9.680000;,
        -0.590977;-11.970600;,
        -1.555890;-9.680000;,
        -0.130141;-11.475500;,
        -0.590977;-11.970600;,
        -0.590977;-11.970600;,
        -0.130141;-11.475500;,
         1.390360;-13.167100;,
        -0.130141;-11.475500;,
         1.455450;-12.994800;,
         1.390360;-13.167100;,
         1.390360;-13.167100;,
         1.354680;-13.276400;,
        -0.590977;-11.970600;,
         1.354680;-13.276400;,
        -0.661137;-12.185600;,
        -0.590977;-11.970600;,
        -0.590977;-11.970600;,
        -0.661137;-12.185600;,
        -2.465800;-10.309200;,
        -0.661137;-12.185600;,
        -2.565800;-10.615700;,
        -2.465800;-10.309200;,
        -2.465800;-10.309200;,
        -2.565800;-10.615700;,
        -3.999510;-8.221590;,
        -2.565800;-10.615700;,
        -4.117390;-8.582800;,
        -3.999510;-8.221590;,
        -3.999510;-8.221590;,
        -4.117390;-8.582800;,
        -5.147220;-5.941400;,
        -4.117390;-8.582800;,
        -5.269130;-6.314980;,
        -5.147220;-5.941400;,
        -5.147220;-5.941400;,
        -5.269130;-6.314980;,
        -5.747130;-3.717270;,
        -5.269130;-6.314980;,
        -5.863030;-4.072420;,
        -5.747130;-3.717270;,
        -5.747130;-3.717270;,
        -5.863030;-4.072420;,
        -5.808730;-1.875860;,
        -5.863030;-4.072420;,
        -5.901080;-2.158820;,
        -5.808730;-1.875860;,
        -3.739390;-3.437300;,
        -5.863030;-4.072420;,
        -3.368190;-5.347080;,
        -5.863030;-4.072420;,
        -5.269130;-6.314980;,
        -3.368190;-5.347080;,
        -3.368190;-5.347080;,
        -5.269130;-6.314980;,
        -2.639990;-7.677080;,
        -5.269130;-6.314980;,
        -4.117390;-8.582800;,
        -2.639990;-7.677080;,
        -2.639990;-7.677080;,
        -4.117390;-8.582800;,
        -1.555890;-9.680000;,
        -4.117390;-8.582800;,
        -2.565800;-10.615700;,
        -1.555890;-9.680000;,
        -1.555890;-9.680000;,
        -2.565800;-10.615700;,
        -0.130141;-11.475500;,
        -2.565800;-10.615700;,
        -0.661137;-12.185600;,
        -0.130141;-11.475500;,
        -0.130141;-11.475500;,
        -0.661137;-12.185600;,
         1.455450;-12.994800;,
        -0.661137;-12.185600;,
         1.354680;-13.276400;,
         1.455450;-12.994800;,
        -0.835938; 1.906250;,
         0.500000; 2.460940;,
         2.031250; 1.929688;,
         2.012130; 1.469577;,
         2.671490; 0.521846;,
         2.031250; 1.929688;,
         2.671490; 0.521846;,
         3.195740; 0.613699;,
         2.031250; 1.929688;,
         3.195740; 0.613699;,
         2.671490; 0.521846;,
         2.718050;-0.146270;,
         2.671490; 0.521846;,
         0.479477; 0.265322;,
         2.718050;-0.146270;,
         2.718050;-0.146270;,
         0.479477; 0.265322;,
         0.682825;-0.298830;,
         0.479477; 0.265322;,
         0.276128;-0.298830;,
         0.682825;-0.298830;,
         0.276128;-0.298830;,
         0.479477; 0.265322;,
        -1.759090;-0.146270;,
         0.479477; 0.265322;,
        -1.712540; 0.521846;,
        -1.759090;-0.146270;,
        -1.759090;-0.146270;,
        -1.712540; 0.521846;,
        -1.520630; 0.733968;,
        -1.712540; 0.521846;,
        -0.835938; 1.906250;,
        -1.520630; 0.733968;,
        -0.835938; 1.906250;,
        -1.712540; 0.521846;,
        -1.053170; 1.469577;,
         3.195740; 0.613699;,
         2.718050;-0.146270;,
         2.693650;-0.445340;,
        -1.759090;-0.146270;,
        -1.520630; 0.733968;,
        -1.734700;-0.445340;,
        -1.520630; 0.733968;,
        -1.749310;-0.995390;,
        -1.734700;-0.445340;,
        -1.734700;-0.445340;,
        -1.749310;-0.995390;,
        -2.044990;-1.449430;,
        -1.749310;-0.995390;,
        -1.755210;-2.614250;,
        -2.044990;-1.449430;,
        -2.044990;-1.449430;,
        -1.755210;-2.614250;,
        -1.568340;-2.512860;,
        -1.568340;-2.512860;,
        -3.668090;-2.285530;,
        -2.044990;-1.449430;,
        -2.044990;-1.449430;,
        -3.668090;-2.285530;,
        -3.794770;-1.982190;,
        -3.668090;-2.285530;,
        -4.147390;-1.751040;,
        -3.794770;-1.982190;,
        -4.147390;-1.751040;,
        -3.668090;-2.285530;,
        -5.808730;-1.875860;,
        -3.668090;-2.285530;,
        -5.747130;-3.717270;,
        -5.808730;-1.875860;,
        -5.747130;-3.717270;,
        -3.668090;-2.285530;,
        -3.739390;-3.437300;,
        -3.668090;-2.285530;,
        -3.595530;-2.837960;,
        -3.739390;-3.437300;,
        -3.595530;-2.837960;,
        -3.668090;-2.285530;,
        -1.568340;-2.512860;,
        -1.568340;-2.512860;,
        -1.338480;-2.205140;,
        -3.595530;-2.837960;,
        -3.595530;-2.837960;,
        -1.338480;-2.205140;,
        -3.736290;-2.489650;,
        -1.338480;-2.205140;,
        -1.963580;-0.984150;,
        -3.736290;-2.489650;,
        -3.736290;-2.489650;,
        -1.963580;-0.984150;,
        -3.794770;-1.982190;,
        -1.963580;-0.984150;,
        -2.044990;-1.449430;,
        -3.794770;-1.982190;,
        -2.044990;-1.449430;,
        -1.963580;-0.984150;,
        -1.734700;-0.445340;,
        -3.794770;-1.982190;,
        -4.147390;-1.751040;,
        -3.736290;-2.489650;,
        -4.147390;-1.751040;,
        -5.901080;-2.158820;,
        -3.736290;-2.489650;,
        -3.736290;-2.489650;,
        -5.901080;-2.158820;,
        -5.863030;-4.072420;,
        -5.863030;-4.072420;,
        -3.739390;-3.437300;,
        -3.736290;-2.489650;,
        -3.736290;-2.489650;,
        -3.739390;-3.437300;,
        -3.595530;-2.837960;,
         2.671490; 0.521846;,
         0.479477; 0.686925;,
         0.479477; 0.265322;,
         0.479477; 0.686925;,
        -1.712540; 0.521846;,
         0.479477; 0.265322;,
        -4.594920;-0.998080;,
        -5.580770;-0.856590;,
        -5.242670;-0.241190;,
        -5.242670;-0.241190;,
        -5.580770;-0.856590;,
        -5.629370;-1.005490;,
        -5.242670;-0.241190;,
        -5.629370;-1.005490;,
        -4.594920;-0.998080;,
         1.455450;-12.994800;,
         2.125900;-13.483100;,
         1.390360;-13.167100;,
         2.125900;-13.483100;,
         1.354680;-13.276400;,
         1.390360;-13.167100;,
         1.354680;-13.276400;,
         2.125900;-13.483100;,
         1.455450;-12.994800;;
      } //End of Mesh UV Coordinates
    } //End of Mesh Mesh
  } //End of absol_mat_3
  Frame absol_mat_0 {
    FrameTransformMatrix {
       1.000000, 0.000000, 0.000000, 0.000000,
       0.000000, 1.000000, 0.000000, 0.000000,
       0.000000, 0.000000, 1.000000, 0.000000,
       0.000000, 0.000000, 0.000000, 1.000000;;
    }
    Mesh { //Mesh Mesh
      237;
       0.637820; 7.644670; 4.224056;,
       0.012054; 7.560850; 4.417856;,
       0.311625; 8.197920; 4.268266;,
       0.012054; 7.560850; 4.417856;,
       0.011718; 8.192630; 4.489836;,
       0.311625; 8.197920; 4.268266;,
       0.012063; 8.895870; 4.209096;,
       0.311625; 8.197920; 4.268266;,
       0.011718; 8.192630; 4.489836;,
       0.011718; 8.192630; 4.489836;,
      -0.288428; 8.204270; 4.241336;,
       0.012063; 8.895870; 4.209096;,
       0.012063; 8.895870; 4.209096;,
      -0.288428; 8.204270; 4.241336;,
      -1.170242; 8.519220; 3.704396;,
      -0.288428; 8.204270; 4.241336;,
      -1.046732; 8.027610; 3.932156;,
      -1.170242; 8.519220; 3.704396;,
      -1.046732; 8.027610; 3.932156;,
      -0.288428; 8.204270; 4.241336;,
      -0.597791; 7.666930; 4.213646;,
      -0.288428; 8.204270; 4.241336;,
       0.012054; 7.560850; 4.417856;,
      -0.597791; 7.666930; 4.213646;,
       0.012054; 7.560850; 4.417856;,
      -0.288428; 8.204270; 4.241336;,
       0.011718; 8.192630; 4.489836;,
       0.012063; 8.895870; 4.209096;,
       1.126178; 8.319500; 4.000436;,
       0.311625; 8.197920; 4.268266;,
       1.126178; 8.319500; 4.000436;,
       0.637820; 7.644670; 4.224056;,
       0.311625; 8.197920; 4.268266;,
       1.126178; 8.319500; 4.000436;,
       1.172158; 7.918240; 3.866286;,
       0.637820; 7.644670; 4.224056;,
       1.172158; 7.918240; 3.866286;,
       0.997648; 7.738300; 3.582806;,
       0.637820; 7.644670; 4.224056;,
       0.637820; 7.644670; 4.224056;,
       0.997648; 7.738300; 3.582806;,
       0.245882; 7.546240; 4.051086;,
       0.245882; 7.546240; 4.051086;,
       0.012054; 7.560850; 4.417856;,
       0.637820; 7.644670; 4.224056;,
       0.012054; 7.560850; 4.417856;,
       0.245882; 7.546240; 4.051086;,
      -0.222446; 7.546240; 4.051086;,
      -0.222446; 7.546240; 4.051086;,
      -0.597791; 7.666930; 4.213646;,
       0.012054; 7.560850; 4.417856;,
      -0.597791; 7.666930; 4.213646;,
      -0.222446; 7.546240; 4.051086;,
      -0.935516; 7.893960; 3.639956;,
      -0.935516; 7.893960; 3.639956;,
      -1.046732; 8.027610; 3.932156;,
      -0.597791; 7.666930; 4.213646;,
      -1.046732; 8.027610; 3.932156;,
      -0.935516; 7.893960; 3.639956;,
      -1.039102; 8.236350; 3.050866;,
      -1.039102; 8.236350; 3.050866;,
      -1.170242; 8.519220; 3.704396;,
      -1.046732; 8.027610; 3.932156;,
      -1.170242; 8.519220; 3.704396;,
      -1.039102; 8.236350; 3.050866;,
      -1.121452; 8.866270; 2.874246;,
      -1.039102; 8.236350; 3.050866;,
      -1.036322; 7.743210; 2.546986;,
      -1.121452; 8.866270; 2.874246;,
      -1.121452; 8.866270; 2.874246;,
      -1.036322; 7.743210; 2.546986;,
      -0.799041; 7.771970; 1.522716;,
      -1.036322; 7.743210; 2.546986;,
      -0.928789; 7.069170; 2.535706;,
      -0.799041; 7.771970; 1.522716;,
      -1.121452; 8.866270; 2.874246;,
      -0.843868; 9.272070; 3.252546;,
      -1.170242; 8.519220; 3.704396;,
      -0.843868; 9.272070; 3.252546;,
       0.012063; 8.895870; 4.209096;,
      -1.170242; 8.519220; 3.704396;,
       0.012063; 8.895870; 4.209096;,
      -0.843868; 9.272070; 3.252546;,
      -0.116556; 9.520580; 3.458206;,
      -0.843868; 9.272070; 3.252546;,
       0.142144; 9.627900; 2.394586;,
      -0.116556; 9.520580; 3.458206;,
      -0.116556; 9.520580; 3.458206;,
       0.142144; 9.627900; 2.394586;,
       0.894782; 9.422740; 3.347556;,
       0.142144; 9.627900; 2.394586;,
       1.037308; 9.345700; 2.250546;,
       0.894782; 9.422740; 3.347556;,
       0.894782; 9.422740; 3.347556;,
       1.037308; 9.345700; 2.250546;,
       1.586748; 8.970620; 3.076126;,
       1.037308; 9.345700; 2.250546;,
       1.566488; 8.457110; 2.056946;,
       1.586748; 8.970620; 3.076126;,
       1.586748; 8.970620; 3.076126;,
       1.566488; 8.457110; 2.056946;,
       1.914318; 8.118731; 3.131526;,
       1.566488; 8.457110; 2.056946;,
       1.398219; 7.381610; 1.709586;,
       1.914318; 8.118731; 3.131526;,
       1.914318; 8.118731; 3.131526;,
       1.398219; 7.381610; 1.709586;,
       1.899778; 7.293020; 3.257356;,
       1.398219; 7.381610; 1.709586;,
       1.500919; 6.429240; 3.021316;,
       1.899778; 7.293020; 3.257356;,
       1.899778; 7.293020; 3.257356;,
       1.500919; 6.429240; 3.021316;,
       1.569749; 6.559830; 3.608086;,
       1.500919; 6.429240; 3.021316;,
       0.989131; 5.937501; 3.801106;,
       1.569749; 6.559830; 3.608086;,
       1.569749; 6.559830; 3.608086;,
       0.989131; 5.937501; 3.801106;,
       1.055969; 6.113386; 4.078106;,
       0.989131; 5.937501; 3.801106;,
       0.421875; 5.776882; 4.357416;,
       1.055969; 6.113386; 4.078106;,
       1.055969; 6.113386; 4.078106;,
       0.421875; 5.776882; 4.357416;,
       0.875391; 6.359571; 3.871236;,
       0.421875; 5.776882; 4.357416;,
       0.750000; 5.897393; 3.712066;,
       0.875391; 6.359571; 3.871236;,
       0.875391; 6.359571; 3.871236;,
       0.750000; 5.897393; 3.712066;,
       1.113279; 6.379440; 2.739736;,
       1.113279; 6.379440; 2.739736;,
       1.070309; 7.059470; 3.539976;,
       0.875391; 6.359571; 3.871236;,
       0.875391; 6.359571; 3.871236;,
       1.070309; 7.059470; 3.539976;,
       1.185169; 6.744950; 3.717346;,
       1.070309; 7.059470; 3.539976;,
       1.285899; 7.700050; 3.572496;,
       1.185169; 6.744950; 3.717346;,
       1.185169; 6.744950; 3.717346;,
       1.285899; 7.700050; 3.572496;,
       1.569749; 6.559830; 3.608086;,
       1.285899; 7.700050; 3.572496;,
       1.899778; 7.293020; 3.257356;,
       1.569749; 6.559830; 3.608086;,
       1.899778; 7.293020; 3.257356;,
       1.285899; 7.700050; 3.572496;,
       1.914318; 8.118731; 3.131526;,
       1.285899; 7.700050; 3.572496;,
       1.172158; 7.918240; 3.866286;,
       1.914318; 8.118731; 3.131526;,
       1.914318; 8.118731; 3.131526;,
       1.172158; 7.918240; 3.866286;,
       1.126178; 8.319500; 4.000436;,
       1.126178; 8.319500; 4.000436;,
       1.586748; 8.970620; 3.076126;,
       1.914318; 8.118731; 3.131526;,
       1.586748; 8.970620; 3.076126;,
       1.126178; 8.319500; 4.000436;,
       1.017668; 8.924510; 3.834556;,
       1.126178; 8.319500; 4.000436;,
       0.012063; 8.895870; 4.209096;,
       1.017668; 8.924510; 3.834556;,
       1.017668; 8.924510; 3.834556;,
       0.012063; 8.895870; 4.209096;,
      -0.116556; 9.520580; 3.458206;,
      -0.116556; 9.520580; 3.458206;,
       0.894782; 9.422740; 3.347556;,
       1.017668; 8.924510; 3.834556;,
       1.017668; 8.924510; 3.834556;,
       0.894782; 9.422740; 3.347556;,
       1.586748; 8.970620; 3.076126;,
       0.875391; 6.359571; 3.871236;,
       1.185169; 6.744950; 3.717346;,
       1.055969; 6.113386; 4.078106;,
       1.185169; 6.744950; 3.717346;,
       1.569749; 6.559830; 3.608086;,
       1.055969; 6.113386; 4.078106;,
       1.172158; 7.918240; 3.866286;,
       1.285899; 7.700050; 3.572496;,
       0.997648; 7.738300; 3.582806;,
       1.285899; 7.700050; 3.572496;,
       1.070309; 7.059470; 3.539976;,
       0.997648; 7.738300; 3.582806;,
       0.997648; 7.738300; 3.582806;,
       1.070309; 7.059470; 3.539976;,
       1.398219; 7.381610; 1.709586;,
       1.070309; 7.059470; 3.539976;,
       1.113279; 6.379440; 2.739736;,
       1.398219; 7.381610; 1.709586;,
       0.421875; 5.776882; 4.357416;,
       0.989131; 5.937501; 3.801106;,
       0.750000; 5.897393; 3.712066;,
       0.989131; 5.937501; 3.801106;,
       1.113279; 6.379440; 2.739736;,
       0.750000; 5.897393; 3.712066;,
       1.113279; 6.379440; 2.739736;,
       0.989131; 5.937501; 3.801106;,
       1.500919; 6.429240; 3.021316;,
       1.500919; 6.429240; 3.021316;,
       1.398219; 7.381610; 1.709586;,
       1.113279; 6.379440; 2.739736;,
       1.398219; 7.381610; 1.709586;,
       1.566488; 8.457110; 2.056946;,
       0.883017; 8.097310; 1.165236;,
       1.566488; 8.457110; 2.056946;,
       1.037308; 9.345700; 2.250546;,
       0.883017; 8.097310; 1.165236;,
       0.883017; 8.097310; 1.165236;,
       1.037308; 9.345700; 2.250546;,
       0.204705; 9.175990; 1.475306;,
       1.037308; 9.345700; 2.250546;,
       0.142144; 9.627900; 2.394586;,
       0.204705; 9.175990; 1.475306;,
       0.204705; 9.175990; 1.475306;,
       0.142144; 9.627900; 2.394586;,
      -0.714745; 9.129870; 2.002256;,
       0.142144; 9.627900; 2.394586;,
      -0.843868; 9.272070; 3.252546;,
      -0.714745; 9.129870; 2.002256;,
      -0.714745; 9.129870; 2.002256;,
      -0.843868; 9.272070; 3.252546;,
      -1.121452; 8.866270; 2.874246;,
      -1.121452; 8.866270; 2.874246;,
      -0.799041; 7.771970; 1.522716;,
      -0.714745; 9.129870; 2.002256;,
      -0.714745; 9.129870; 2.002256;,
      -0.799041; 7.771970; 1.522716;,
      -0.262142; 8.285280; 0.983746;,
      -0.262142; 8.285280; 0.983746;,
       0.204705; 9.175990; 1.475306;,
      -0.714745; 9.129870; 2.002256;,
       0.204705; 9.175990; 1.475306;,
      -0.262142; 8.285280; 0.983746;,
       0.883017; 8.097310; 1.165236;;
      79;
      3;0;1;2;,
      3;3;4;5;,
      3;6;7;8;,
      3;9;10;11;,
      3;12;13;14;,
      3;15;16;17;,
      3;18;19;20;,
      3;21;22;23;,
      3;24;25;26;,
      3;27;28;29;,
      3;30;31;32;,
      3;33;34;35;,
      3;36;37;38;,
      3;39;40;41;,
      3;42;43;44;,
      3;45;46;47;,
      3;48;49;50;,
      3;51;52;53;,
      3;54;55;56;,
      3;57;58;59;,
      3;60;61;62;,
      3;63;64;65;,
      3;66;67;68;,
      3;69;70;71;,
      3;72;73;74;,
      3;75;76;77;,
      3;78;79;80;,
      3;81;82;83;,
      3;84;85;86;,
      3;87;88;89;,
      3;90;91;92;,
      3;93;94;95;,
      3;96;97;98;,
      3;99;100;101;,
      3;102;103;104;,
      3;105;106;107;,
      3;108;109;110;,
      3;111;112;113;,
      3;114;115;116;,
      3;117;118;119;,
      3;120;121;122;,
      3;123;124;125;,
      3;126;127;128;,
      3;129;130;131;,
      3;132;133;134;,
      3;135;136;137;,
      3;138;139;140;,
      3;141;142;143;,
      3;144;145;146;,
      3;147;148;149;,
      3;150;151;152;,
      3;153;154;155;,
      3;156;157;158;,
      3;159;160;161;,
      3;162;163;164;,
      3;165;166;167;,
      3;168;169;170;,
      3;171;172;173;,
      3;174;175;176;,
      3;177;178;179;,
      3;180;181;182;,
      3;183;184;185;,
      3;186;187;188;,
      3;189;190;191;,
      3;192;193;194;,
      3;195;196;197;,
      3;198;199;200;,
      3;201;202;203;,
      3;204;205;206;,
      3;207;208;209;,
      3;210;211;212;,
      3;213;214;215;,
      3;216;217;218;,
      3;219;220;221;,
      3;222;223;224;,
      3;225;226;227;,
      3;228;229;230;,
      3;231;232;233;,
      3;234;235;236;;
      MeshNormals { //Mesh Normals
        237;
        -0.426374; 0.614917;-0.663350;,
         0.017762; 0.632344;-0.774468;,
        -0.403302;-0.139470;-0.904355;,
         0.017762; 0.632344;-0.774468;,
         0.024903;-0.118717;-0.992584;,
        -0.403302;-0.139470;-0.904355;,
         0.072634;-0.526200;-0.847224;,
        -0.403302;-0.139470;-0.904355;,
         0.024903;-0.118717;-0.992584;,
         0.024903;-0.118717;-0.992584;,
         0.487350;-0.178014;-0.854823;,
         0.072634;-0.526200;-0.847224;,
         0.072634;-0.526200;-0.847224;,
         0.487350;-0.178014;-0.854823;,
         0.886563;-0.190313;-0.421613;,
         0.487350;-0.178014;-0.854823;,
         0.824671; 0.242103;-0.511155;,
         0.886563;-0.190313;-0.421613;,
         0.824671; 0.242103;-0.511155;,
         0.487350;-0.178014;-0.854823;,
         0.537278; 0.584674;-0.607807;,
         0.487350;-0.178014;-0.854823;,
         0.017762; 0.632344;-0.774468;,
         0.537278; 0.584674;-0.607807;,
         0.017762; 0.632344;-0.774468;,
         0.487350;-0.178014;-0.854823;,
         0.024903;-0.118717;-0.992584;,
         0.072634;-0.526200;-0.847224;,
        -0.576434;-0.118351;-0.808496;,
        -0.403302;-0.139470;-0.904355;,
        -0.576434;-0.118351;-0.808496;,
        -0.426374; 0.614917;-0.663350;,
        -0.403302;-0.139470;-0.904355;,
        -0.576434;-0.118351;-0.808496;,
        -0.612507; 0.471541;-0.634358;,
        -0.426374; 0.614917;-0.663350;,
        -0.612507; 0.471541;-0.634358;,
         0.169469; 0.788537;-0.591144;,
        -0.426374; 0.614917;-0.663350;,
        -0.426374; 0.614917;-0.663350;,
         0.169469; 0.788537;-0.591144;,
        -0.147252; 0.985717;-0.081332;,
        -0.147252; 0.985717;-0.081332;,
         0.017762; 0.632344;-0.774468;,
        -0.426374; 0.614917;-0.663350;,
         0.017762; 0.632344;-0.774468;,
        -0.147252; 0.985717;-0.081332;,
         0.200781; 0.977599;-0.062838;,
         0.200781; 0.977599;-0.062838;,
         0.537278; 0.584674;-0.607807;,
         0.017762; 0.632344;-0.774468;,
         0.537278; 0.584674;-0.607807;,
         0.200781; 0.977599;-0.062838;,
         0.768761; 0.636647; 0.060488;,
         0.768761; 0.636647; 0.060488;,
         0.824671; 0.242103;-0.511155;,
         0.537278; 0.584674;-0.607807;,
         0.824671; 0.242103;-0.511155;,
         0.768761; 0.636647; 0.060488;,
         0.984161; 0.176458; 0.015656;,
         0.984161; 0.176458; 0.015656;,
         0.886563;-0.190313;-0.421613;,
         0.824671; 0.242103;-0.511155;,
         0.886563;-0.190313;-0.421613;,
         0.984161; 0.176458; 0.015656;,
         0.946837;-0.301462; 0.112247;,
         0.984161; 0.176458; 0.015656;,
         0.979614; 0.077395; 0.185339;,
         0.946837;-0.301462; 0.112247;,
         0.946837;-0.301462; 0.112247;,
         0.979614; 0.077395; 0.185339;,
         0.913511;-0.104648; 0.393078;,
         0.979614; 0.077395; 0.185339;,
         0.962279; 0.149693; 0.227119;,
         0.913511;-0.104648; 0.393078;,
         0.946837;-0.301462; 0.112247;,
         0.613453;-0.755120;-0.231117;,
         0.886563;-0.190313;-0.421613;,
         0.613453;-0.755120;-0.231117;,
         0.072634;-0.526200;-0.847224;,
         0.886563;-0.190313;-0.421613;,
         0.072634;-0.526200;-0.847224;,
         0.613453;-0.755120;-0.231117;,
         0.146306;-0.905179;-0.399030;,
         0.613453;-0.755120;-0.231117;,
         0.059664;-0.980010; 0.189764;,
         0.146306;-0.905179;-0.399030;,
         0.146306;-0.905179;-0.399030;,
         0.059664;-0.980010; 0.189764;,
        -0.361370;-0.862850;-0.353343;,
         0.059664;-0.980010; 0.189764;,
        -0.525925;-0.777398; 0.344981;,
        -0.361370;-0.862850;-0.353343;,
        -0.361370;-0.862850;-0.353343;,
        -0.525925;-0.777398; 0.344981;,
        -0.809931;-0.561876;-0.168126;,
        -0.525925;-0.777398; 0.344981;,
        -0.839351;-0.287912; 0.461013;,
        -0.809931;-0.561876;-0.168126;,
        -0.809931;-0.561876;-0.168126;,
        -0.839351;-0.287912; 0.461013;,
        -0.966033;-0.115757;-0.230903;,
        -0.839351;-0.287912; 0.461013;,
        -0.878292; 0.119633; 0.462844;,
        -0.966033;-0.115757;-0.230903;,
        -0.966033;-0.115757;-0.230903;,
        -0.878292; 0.119633; 0.462844;,
        -0.948973; 0.084140;-0.303873;,
        -0.878292; 0.119633; 0.462844;,
        -0.705710; 0.658834; 0.260445;,
        -0.948973; 0.084140;-0.303873;,
        -0.948973; 0.084140;-0.303873;,
        -0.705710; 0.658834; 0.260445;,
        -0.807062; 0.257363;-0.531388;,
        -0.705710; 0.658834; 0.260445;,
        -0.502335; 0.864620;-0.004486;,
        -0.807062; 0.257363;-0.531388;,
        -0.807062; 0.257363;-0.531388;,
        -0.502335; 0.864620;-0.004486;,
        -0.532670; 0.110294;-0.839076;,
        -0.502335; 0.864620;-0.004486;,
         0.645772; 0.406262;-0.646443;,
        -0.532670; 0.110294;-0.839076;,
        -0.532670; 0.110294;-0.839076;,
         0.645772; 0.406262;-0.646443;,
         0.727103;-0.566668;-0.387494;,
         0.645772; 0.406262;-0.646443;,
         0.594317; 0.647755; 0.476608;,
         0.727103;-0.566668;-0.387494;,
         0.727103;-0.566668;-0.387494;,
         0.594317; 0.647755; 0.476608;,
         0.971129;-0.164983; 0.172124;,
         0.971129;-0.164983; 0.172124;,
         0.924711;-0.151524;-0.349132;,
         0.727103;-0.566668;-0.387494;,
         0.727103;-0.566668;-0.387494;,
         0.924711;-0.151524;-0.349132;,
        -0.078341;-0.346019;-0.934935;,
         0.924711;-0.151524;-0.349132;,
        -0.365917; 0.251625;-0.895962;,
        -0.078341;-0.346019;-0.934935;,
        -0.078341;-0.346019;-0.934935;,
        -0.365917; 0.251625;-0.895962;,
        -0.807062; 0.257363;-0.531388;,
        -0.365917; 0.251625;-0.895962;,
        -0.948973; 0.084140;-0.303873;,
        -0.807062; 0.257363;-0.531388;,
        -0.948973; 0.084140;-0.303873;,
        -0.365917; 0.251625;-0.895962;,
        -0.966033;-0.115757;-0.230903;,
        -0.365917; 0.251625;-0.895962;,
        -0.612507; 0.471541;-0.634358;,
        -0.966033;-0.115757;-0.230903;,
        -0.966033;-0.115757;-0.230903;,
        -0.612507; 0.471541;-0.634358;,
        -0.576434;-0.118351;-0.808496;,
        -0.576434;-0.118351;-0.808496;,
        -0.809931;-0.561876;-0.168126;,
        -0.966033;-0.115757;-0.230903;,
        -0.809931;-0.561876;-0.168126;,
        -0.576434;-0.118351;-0.808496;,
        -0.483718;-0.509384;-0.711692;,
        -0.576434;-0.118351;-0.808496;,
         0.072634;-0.526200;-0.847224;,
        -0.483718;-0.509384;-0.711692;,
        -0.483718;-0.509384;-0.711692;,
         0.072634;-0.526200;-0.847224;,
         0.146306;-0.905179;-0.399030;,
         0.146306;-0.905179;-0.399030;,
        -0.361370;-0.862850;-0.353343;,
        -0.483718;-0.509384;-0.711692;,
        -0.483718;-0.509384;-0.711692;,
        -0.361370;-0.862850;-0.353343;,
        -0.809931;-0.561876;-0.168126;,
         0.727103;-0.566668;-0.387494;,
        -0.078341;-0.346019;-0.934935;,
        -0.532670; 0.110294;-0.839076;,
        -0.078341;-0.346019;-0.934935;,
        -0.807062; 0.257363;-0.531388;,
        -0.532670; 0.110294;-0.839076;,
        -0.612507; 0.471541;-0.634358;,
        -0.365917; 0.251625;-0.895962;,
         0.169469; 0.788537;-0.591144;,
        -0.365917; 0.251625;-0.895962;,
         0.924711;-0.151524;-0.349132;,
         0.169469; 0.788537;-0.591144;,
         0.169469; 0.788537;-0.591144;,
         0.924711;-0.151524;-0.349132;,
         0.984741;-0.039796; 0.169408;,
         0.924711;-0.151524;-0.349132;,
         0.971129;-0.164983; 0.172124;,
         0.984741;-0.039796; 0.169408;,
         0.645772; 0.406262;-0.646443;,
        -0.502335; 0.864620;-0.004486;,
         0.594317; 0.647755; 0.476608;,
        -0.502335; 0.864620;-0.004486;,
        -0.423231; 0.784967; 0.452376;,
         0.594317; 0.647755; 0.476608;,
        -0.423231; 0.784967; 0.452376;,
        -0.502335; 0.864620;-0.004486;,
        -0.705710; 0.658834; 0.260445;,
        -0.705710; 0.658834; 0.260445;,
        -0.878292; 0.119633; 0.462844;,
        -0.423231; 0.784967; 0.452376;,
        -0.878292; 0.119633; 0.462844;,
        -0.839351;-0.287912; 0.461013;,
        -0.555071;-0.358959; 0.750328;,
        -0.839351;-0.287912; 0.461013;,
        -0.525925;-0.777398; 0.344981;,
        -0.555071;-0.358959; 0.750328;,
        -0.555071;-0.358959; 0.750328;,
        -0.525925;-0.777398; 0.344981;,
        -0.050600;-0.706534; 0.705832;,
        -0.525925;-0.777398; 0.344981;,
         0.059664;-0.980010; 0.189764;,
        -0.050600;-0.706534; 0.705832;,
        -0.050600;-0.706534; 0.705832;,
         0.059664;-0.980010; 0.189764;,
         0.667867;-0.611591; 0.424116;,
         0.059664;-0.980010; 0.189764;,
         0.613453;-0.755120;-0.231117;,
         0.667867;-0.611591; 0.424116;,
         0.667867;-0.611591; 0.424116;,
         0.613453;-0.755120;-0.231117;,
         0.946837;-0.301462; 0.112247;,
         0.946837;-0.301462; 0.112247;,
         0.913511;-0.104648; 0.393078;,
         0.667867;-0.611591; 0.424116;,
         0.667867;-0.611591; 0.424116;,
         0.913511;-0.104648; 0.393078;,
         0.383557;-0.439833; 0.812037;,
         0.383557;-0.439833; 0.812037;,
        -0.050600;-0.706534; 0.705832;,
         0.667867;-0.611591; 0.424116;,
        -0.050600;-0.706534; 0.705832;,
         0.383557;-0.439833; 0.812037;,
        -0.555071;-0.358959; 0.750328;;
        79;
        3;0;1;2;,
        3;3;4;5;,
        3;6;7;8;,
        3;9;10;11;,
        3;12;13;14;,
        3;15;16;17;,
        3;18;19;20;,
        3;21;22;23;,
        3;24;25;26;,
        3;27;28;29;,
        3;30;31;32;,
        3;33;34;35;,
        3;36;37;38;,
        3;39;40;41;,
        3;42;43;44;,
        3;45;46;47;,
        3;48;49;50;,
        3;51;52;53;,
        3;54;55;56;,
        3;57;58;59;,
        3;60;61;62;,
        3;63;64;65;,
        3;66;67;68;,
        3;69;70;71;,
        3;72;73;74;,
        3;75;76;77;,
        3;78;79;80;,
        3;81;82;83;,
        3;84;85;86;,
        3;87;88;89;,
        3;90;91;92;,
        3;93;94;95;,
        3;96;97;98;,
        3;99;100;101;,
        3;102;103;104;,
        3;105;106;107;,
        3;108;109;110;,
        3;111;112;113;,
        3;114;115;116;,
        3;117;118;119;,
        3;120;121;122;,
        3;123;124;125;,
        3;126;127;128;,
        3;129;130;131;,
        3;132;133;134;,
        3;135;136;137;,
        3;138;139;140;,
        3;141;142;143;,
        3;144;145;146;,
        3;147;148;149;,
        3;150;151;152;,
        3;153;154;155;,
        3;156;157;158;,
        3;159;160;161;,
        3;162;163;164;,
        3;165;166;167;,
        3;168;169;170;,
        3;171;172;173;,
        3;174;175;176;,
        3;177;178;179;,
        3;180;181;182;,
        3;183;184;185;,
        3;186;187;188;,
        3;189;190;191;,
        3;192;193;194;,
        3;195;196;197;,
        3;198;199;200;,
        3;201;202;203;,
        3;204;205;206;,
        3;207;208;209;,
        3;210;211;212;,
        3;213;214;215;,
        3;216;217;218;,
        3;219;220;221;,
        3;222;223;224;,
        3;225;226;227;,
        3;228;229;230;,
        3;231;232;233;,
        3;234;235;236;;
      } //End of Mesh Normals
      MeshMaterialList { //Mesh Material List
        1;
        79;
        0,
        0,
        0,
        0,
        0,
        0,
        0,
        0,
        0,
        0,
        0,
        0,
        0,
        0,
        0,
        0,
        0,
        0,
        0,
        0,
        0,
        0,
        0,
        0,
        0,
        0,
        0,
        0,
        0,
        0,
        0,
        0,
        0,
        0,
        0,
        0,
        0,
        0,
        0,
        0,
        0,
        0,
        0,
        0,
        0,
        0,
        0,
        0,
        0,
        0,
        0,
        0,
        0,
        0,
        0,
        0,
        0,
        0,
        0,
        0,
        0,
        0,
        0,
        0,
        0,
        0,
        0,
        0,
        0,
        0,
        0,
        0,
        0,
        0,
        0,
        0,
        0,
        0,
        0;;
        Material mat_0 {
           0.640000; 0.640000; 0.640000; 1.000000;;
           92.156863;
           0.250000; 0.250000; 0.250000;;
           0.000000; 0.000000; 0.000000;;
          TextureFilename {"Textures/absol_1_0.tga";}
        }
      } //End of Mesh Material List
      MeshTextureCoords { //Mesh UV Coordinates
        237;
         1.766660; 0.954716;,
         0.511420; 1.040579;,
         1.109380; 0.507812;,
         0.511420; 1.040579;,
         0.510748; 0.565722;,
         1.109380; 0.507812;,
         1.109380; 0.507812;,
         0.510748; 0.565722;,
         0.531250;-0.062500;,
         0.510748; 0.565722;,
        -0.090702; 0.507369;,
         0.531250;-0.062500;,
         0.531250;-0.062500;,
        -0.090702; 0.507369;,
        -2.086070; 0.265385;,
        -0.090702; 0.507369;,
        -1.681860; 0.722075;,
        -2.086070; 0.265385;,
        -1.681860; 0.722075;,
        -0.090702; 0.507369;,
        -0.825974; 0.988595;,
        -0.090702; 0.507369;,
         0.511420; 1.040579;,
        -0.825974; 0.988595;,
         0.511420; 1.040579;,
        -0.090702; 0.507369;,
         0.510748; 0.565722;,
         0.531250;-0.062500;,
         2.660320; 0.385740;,
         1.109380; 0.507812;,
         2.660320; 0.385740;,
         5.329160; 1.126591;,
         1.109380; 0.507812;,
         2.040340; 1.126504;,
         2.491210; 1.199067;,
         2.332240; 1.207535;,
         2.491210; 1.199067;,
         2.403670; 1.207381;,
         2.332240; 1.207535;,
         2.332240; 1.207535;,
         2.403670; 1.207381;,
         2.201420; 1.222438;,
         2.201420; 1.222438;,
         2.194950; 1.216926;,
         2.332240; 1.207535;,
         2.194950; 1.216926;,
         2.201420; 1.222438;,
         2.089790; 1.199896;,
         2.089790; 1.199896;,
         2.048670; 1.211241;,
         2.194950; 1.216926;,
         2.048670; 1.211241;,
         2.089790; 1.199896;,
         1.978150; 1.177355;,
         1.978150; 1.177355;,
         1.955060; 1.182090;,
         2.048670; 1.211241;,
         1.955060; 1.182090;,
         1.978150; 1.177355;,
         1.964570; 1.146814;,
         1.964570; 1.146814;,
         1.910850; 1.132140;,
         1.955060; 1.182090;,
         1.910850; 1.132140;,
         1.964570; 1.146814;,
         1.911330; 1.104870;,
         1.964570; 1.146814;,
         1.956280; 1.188224;,
         1.911330; 1.104870;,
         1.911330; 1.104870;,
         1.956280; 1.188224;,
         2.004420; 1.193001;,
         1.956280; 1.188224;,
         1.988750; 1.238464;,
         2.004420; 1.193001;,
         1.911330; 1.104870;,
         2.002450; 1.060450;,
         1.910850; 1.132140;,
         2.002450; 1.060450;,
         2.194950; 1.097846;,
         1.910850; 1.132140;,
         2.194950; 1.097846;,
         2.002450; 1.060450;,
         2.182340; 1.038277;,
         2.002450; 1.060450;,
         2.222780; 1.037030;,
         2.182340; 1.038277;,
         2.182340; 1.038277;,
         2.222780; 1.037030;,
         2.388790; 1.049331;,
         2.222780; 1.037030;,
         2.398430; 1.057922;,
         2.388790; 1.049331;,
         2.388790; 1.049331;,
         2.398430; 1.057922;,
         2.538250; 1.099703;,
         2.398430; 1.057922;,
         2.504780; 1.139581;,
         2.538250; 1.099703;,
         2.538250; 1.099703;,
         2.504780; 1.139581;,
         2.594800; 1.190475;,
         2.504780; 1.139581;,
         2.471580; 1.231640;,
         2.594800; 1.190475;,
         2.594800; 1.190475;,
         2.471580; 1.231640;,
         2.575330; 1.235082;,
         2.471580; 1.231640;,
         2.550530; 1.304158;,
         2.575330; 1.235082;,
         2.575330; 1.235082;,
         2.550530; 1.304158;,
         2.555870; 1.279689;,
         2.550530; 1.304158;,
         2.419950; 1.365766;,
         2.555870; 1.279689;,
         2.555870; 1.279689;,
         2.419950; 1.365766;,
         2.433280; 1.348005;,
         2.419950; 1.365766;,
         2.339360; 1.380872;,
         2.433280; 1.348005;,
         2.433280; 1.348005;,
         2.339360; 1.380872;,
         2.378040; 1.340282;,
         2.339360; 1.380872;,
         2.363850; 1.368450;,
         2.378040; 1.340282;,
         2.378040; 1.340282;,
         2.363850; 1.368450;,
         2.403800; 1.321820;,
         2.403800; 1.321820;,
         2.409770; 1.281583;,
         2.378040; 1.340282;,
         2.378040; 1.340282;,
         2.409770; 1.281583;,
         2.475880; 1.273268;,
         2.409770; 1.281583;,
         2.487380; 1.217617;,
         2.475880; 1.273268;,
         2.475880; 1.273268;,
         2.487380; 1.217617;,
         2.555870; 1.279689;,
         2.487380; 1.217617;,
         2.575330; 1.235082;,
         2.555870; 1.279689;,
         2.575330; 1.235082;,
         2.487380; 1.217617;,
         2.594800; 1.190475;,
         2.487380; 1.217617;,
         2.491210; 1.199067;,
         2.594800; 1.190475;,
         2.594800; 1.190475;,
         2.491210; 1.199067;,
         2.429990; 1.145303;,
         2.429990; 1.145303;,
         2.538250; 1.099703;,
         2.594800; 1.190475;,
         2.538250; 1.099703;,
         2.429990; 1.145303;,
         2.415350; 1.094828;,
         2.429990; 1.145303;,
         2.194950; 1.097846;,
         2.415350; 1.094828;,
         2.415350; 1.094828;,
         2.194950; 1.097846;,
         2.182340; 1.038277;,
         2.182340; 1.038277;,
         2.388790; 1.049331;,
         2.415350; 1.094828;,
         2.415350; 1.094828;,
         2.388790; 1.049331;,
         2.538250; 1.099703;,
         2.378040; 1.340282;,
         2.475880; 1.273268;,
         2.433280; 1.348005;,
         2.475880; 1.273268;,
         2.555870; 1.279689;,
         2.433280; 1.348005;,
         2.491210; 1.199067;,
         2.487380; 1.217617;,
         2.403670; 1.207381;,
         2.487380; 1.217617;,
         2.409770; 1.281583;,
         2.403670; 1.207381;,
         2.403670; 1.207381;,
         2.409770; 1.281583;,
         2.471580; 1.231640;,
         2.409770; 1.281583;,
         2.403800; 1.321820;,
         2.471580; 1.231640;,
         2.339360; 1.380872;,
         2.419950; 1.365766;,
         2.363850; 1.368450;,
         2.419950; 1.365766;,
         2.403800; 1.321820;,
         2.363850; 1.368450;,
         2.403800; 1.321820;,
         2.419950; 1.365766;,
         2.550530; 1.304158;,
         2.550530; 1.304158;,
         2.471580; 1.231640;,
         2.403800; 1.321820;,
         2.471580; 1.231640;,
         2.504780; 1.139581;,
         2.371320; 1.190620;,
         2.504780; 1.139581;,
         2.398430; 1.057922;,
         2.371320; 1.190620;,
         2.371320; 1.190620;,
         2.398430; 1.057922;,
         2.241050; 1.086444;,
         2.398430; 1.057922;,
         2.222780; 1.037030;,
         2.241050; 1.086444;,
         2.241050; 1.086444;,
         2.222780; 1.037030;,
         2.027460; 1.084476;,
         2.222780; 1.037030;,
         2.002450; 1.060450;,
         2.027460; 1.084476;,
         2.027460; 1.084476;,
         2.002450; 1.060450;,
         1.911330; 1.104870;,
         1.911330; 1.104870;,
         2.004420; 1.193001;,
         2.027460; 1.084476;,
         2.027460; 1.084476;,
         2.004420; 1.193001;,
         2.137740; 1.171300;,
         2.137740; 1.171300;,
         2.241050; 1.086444;,
         2.027460; 1.084476;,
         2.241050; 1.086444;,
         2.137740; 1.171300;,
         2.371320; 1.190620;;
      } //End of Mesh UV Coordinates
    } //End of Mesh Mesh
  } //End of absol_mat_0
  Frame absol_mat_1 {
    FrameTransformMatrix {
       1.000000, 0.000000, 0.000000, 0.000000,
       0.000000, 1.000000, 0.000000, 0.000000,
       0.000000, 0.000000, 1.000000, 0.000000,
       0.000000, 0.000000, 0.000000, 1.000000;;
    }
    Mesh { //Mesh Mesh
      33;
      -1.771801; 5.901163; 0.665996;,
      -0.806364; 6.815200;-0.307674;,
      -0.799041; 7.771970; 1.522716;,
      -0.806364; 6.815200;-0.307674;,
      -0.262142; 8.285280; 0.983746;,
      -0.799041; 7.771970; 1.522716;,
      -0.262142; 8.285280; 0.983746;,
      -0.806364; 6.815200;-0.307674;,
       0.288506; 7.847180; 0.384521;,
      -0.806364; 6.815200;-0.307674;,
       0.300477; 7.823620;-0.377951;,
       0.288506; 7.847180; 0.384521;,
       0.288506; 7.847180; 0.384521;,
       0.300477; 7.823620;-0.377951;,
       1.333549; 6.582600;-0.206688;,
       0.300477; 7.823620;-0.377951;,
       0.286476; 7.991980;-1.294544;,
       1.333549; 6.582600;-0.206688;,
       0.286476; 7.991980;-1.294544;,
       0.300477; 7.823620;-0.377951;,
      -0.806364; 6.815200;-0.307674;,
      -0.262142; 8.285280; 0.983746;,
       0.288506; 7.847180; 0.384521;,
       0.883017; 8.097310; 1.165236;,
       0.288506; 7.847180; 0.384521;,
       1.333549; 6.582600;-0.206688;,
       0.883017; 8.097310; 1.165236;,
       0.883017; 8.097310; 1.165236;,
       1.333549; 6.582600;-0.206688;,
       1.398219; 7.381610; 1.709586;,
       1.333549; 6.582600;-0.206688;,
       2.036248; 5.732898; 0.846505;,
       1.398219; 7.381610; 1.709586;;
      11;
      3;0;1;2;,
      3;3;4;5;,
      3;6;7;8;,
      3;9;10;11;,
      3;12;13;14;,
      3;15;16;17;,
      3;18;19;20;,
      3;21;22;23;,
      3;24;25;26;,
      3;27;28;29;,
      3;30;31;32;;
      MeshNormals { //Mesh Normals
        33;
         0.793542;-0.540544; 0.279366;,
         0.709769;-0.658864; 0.249123;,
         0.794397;-0.539567; 0.278848;,
         0.709769;-0.658864; 0.249123;,
         0.375286;-0.775658; 0.507401;,
         0.794397;-0.539567; 0.278848;,
         0.375286;-0.775658; 0.507401;,
         0.709769;-0.658864; 0.249123;,
        -0.147618;-0.864925; 0.479629;,
         0.709769;-0.658864; 0.249123;,
        -0.078249;-0.993378;-0.083926;,
        -0.147618;-0.864925; 0.479629;,
        -0.147618;-0.864925; 0.479629;,
        -0.078249;-0.993378;-0.083926;,
        -0.800012;-0.563952; 0.204657;,
        -0.078249;-0.993378;-0.083926;,
        -0.045869;-0.982604;-0.179785;,
        -0.800012;-0.563952; 0.204657;,
        -0.045869;-0.982604;-0.179785;,
        -0.078249;-0.993378;-0.083926;,
         0.709769;-0.658864; 0.249123;,
         0.375286;-0.775658; 0.507401;,
        -0.147618;-0.864925; 0.479629;,
        -0.604419;-0.678060; 0.418165;,
        -0.147618;-0.864925; 0.479629;,
        -0.800012;-0.563952; 0.204657;,
        -0.604419;-0.678060; 0.418165;,
        -0.604419;-0.678060; 0.418165;,
        -0.800012;-0.563952; 0.204657;,
        -0.864589;-0.452681; 0.217933;,
        -0.800012;-0.563952; 0.204657;,
        -0.867000;-0.448805; 0.216376;,
        -0.864589;-0.452681; 0.217933;;
        11;
        3;0;1;2;,
        3;3;4;5;,
        3;6;7;8;,
        3;9;10;11;,
        3;12;13;14;,
        3;15;16;17;,
        3;18;19;20;,
        3;21;22;23;,
        3;24;25;26;,
        3;27;28;29;,
        3;30;31;32;;
      } //End of Mesh Normals
      MeshMaterialList { //Mesh Material List
        1;
        11;
        0,
        0,
        0,
        0,
        0,
        0,
        0,
        0,
        0,
        0,
        0;;
        Material mat_1 {
           0.640000; 0.640000; 0.640000; 1.000000;;
           92.156863;
           0.250000; 0.250000; 0.250000;;
           0.000000; 0.000000; 0.000000;;
          TextureFilename {"Textures/absol_1_1.tga";}
        }
      } //End of Mesh Material List
      MeshTextureCoords { //Mesh UV Coordinates
        33;
         0.646484; 0.958333;,
         0.386434; 1.052083;,
         0.636353;-0.343750;,
         0.386434; 1.052083;,
         0.323110;-0.361980;,
         0.636353;-0.343750;,
         0.323110;-0.361980;,
         0.386434; 1.052083;,
         0.006490; 0.208333;,
         0.386434; 1.052083;,
         0.009867; 0.656250;,
         0.006490; 0.208333;,
         0.006490; 0.208333;,
         0.009867; 0.656250;,
         0.386434; 1.052083;,
         0.009867; 0.656250;,
         0.009867; 1.062500;,
         0.386434; 1.052083;,
         0.009867; 1.062500;,
         0.009867; 0.656250;,
         0.386434; 1.052083;,
         0.323110;-0.361980;,
         0.006490; 0.208333;,
         0.323110;-0.361980;,
         0.006490; 0.208333;,
         0.386434; 1.052083;,
         0.323110;-0.361980;,
         0.323110;-0.361980;,
         0.386434; 1.052083;,
         0.636353;-0.343750;,
         0.386434; 1.052083;,
         0.646484; 0.895833;,
         0.636353;-0.343750;;
      } //End of Mesh UV Coordinates
    } //End of Mesh Mesh
  } //End of absol_mat_1
  Frame absol_mat_4 {
    FrameTransformMatrix {
       1.000000, 0.000000, 0.000000, 0.000000,
       0.000000, 1.000000, 0.000000, 0.000000,
       0.000000, 0.000000, 1.000000, 0.000000,
       0.000000, 0.000000, 0.000000, 1.000000;;
    }
    Mesh { //Mesh Mesh
      42;
       0.107339; 6.961830; 4.143716;,
      -0.083902; 6.961830; 4.143716;,
      -0.222446; 7.546240; 4.051086;,
       0.107339; 6.961830; 4.143716;,
      -0.222446; 7.546240; 4.051086;,
       0.245882; 7.546240; 4.051086;,
       1.398219; 7.381610; 1.709586;,
       1.061278; 7.260230; 3.397076;,
       1.000562; 7.893960; 3.639956;,
       1.061278; 7.260230; 3.397076;,
       0.245882; 7.546240; 4.051086;,
       1.000562; 7.893960; 3.639956;,
       0.245882; 7.546240; 4.051086;,
       1.061278; 7.260230; 3.397076;,
       0.180456; 7.049410; 3.971396;,
       1.061278; 7.260230; 3.397076;,
       1.040369; 7.100410; 3.518516;,
       0.180456; 7.049410; 3.971396;,
       0.180456; 7.049410; 3.971396;,
       1.040369; 7.100410; 3.518516;,
       0.107339; 6.961830; 4.143716;,
       0.107339; 6.961830; 4.143716;,
       0.245882; 7.546240; 4.051086;,
       0.180456; 7.049410; 3.971396;,
      -1.077961; 7.590700; 3.373406;,
      -0.935516; 7.893960; 3.639956;,
      -1.037841; 7.260230; 3.397076;,
      -0.935516; 7.893960; 3.639956;,
      -0.222446; 7.546240; 4.051086;,
      -1.037841; 7.260230; 3.397076;,
      -1.037841; 7.260230; 3.397076;,
      -0.222446; 7.546240; 4.051086;,
      -0.157019; 7.049410; 3.971396;,
      -0.157019; 7.049410; 3.971396;,
      -0.222446; 7.546240; 4.051086;,
      -0.083902; 6.961830; 4.143716;,
      -0.157019; 7.049410; 3.971396;,
      -0.083902; 6.961830; 4.143716;,
      -1.016932; 7.100410; 3.518516;,
      -1.016932; 7.100410; 3.518516;,
      -1.037841; 7.260230; 3.397076;,
      -0.157019; 7.049410; 3.971396;;
      14;
      3;0;1;2;,
      3;3;4;5;,
      3;6;7;8;,
      3;9;10;11;,
      3;12;13;14;,
      3;15;16;17;,
      3;18;19;20;,
      3;21;22;23;,
      3;24;25;26;,
      3;27;28;29;,
      3;30;31;32;,
      3;33;34;35;,
      3;36;37;38;,
      3;39;40;41;;
      MeshNormals { //Mesh Normals
        42;
        -0.371654;-0.244575;-0.895566;,
         0.371654;-0.244575;-0.895566;,
         0.428816; 0.077303;-0.900052;,
        -0.371654;-0.244575;-0.895566;,
         0.428816; 0.077303;-0.900052;,
        -0.425886; 0.084658;-0.900784;,
        -0.980193;-0.018372;-0.197028;,
        -0.795404;-0.052126;-0.603809;,
        -0.778710; 0.158055;-0.607105;,
        -0.795404;-0.052126;-0.603809;,
        -0.425886; 0.084658;-0.900784;,
        -0.778710; 0.158055;-0.607105;,
        -0.425886; 0.084658;-0.900784;,
        -0.795404;-0.052126;-0.603809;,
        -0.683584;-0.316568;-0.657613;,
        -0.795404;-0.052126;-0.603809;,
        -0.362957;-0.551225;-0.751244;,
        -0.683584;-0.316568;-0.657613;,
        -0.683584;-0.316568;-0.657613;,
        -0.362957;-0.551225;-0.751244;,
        -0.371654;-0.244575;-0.895566;,
        -0.371654;-0.244575;-0.895566;,
        -0.425886; 0.084658;-0.900784;,
        -0.683584;-0.316568;-0.657613;,
         0.847377; 0.065127;-0.526933;,
         0.632405; 0.186071;-0.751946;,
         0.596088;-0.066561;-0.800134;,
         0.632405; 0.186071;-0.751946;,
         0.428816; 0.077303;-0.900052;,
         0.596088;-0.066561;-0.800134;,
         0.596088;-0.066561;-0.800134;,
         0.428816; 0.077303;-0.900052;,
         0.683584;-0.316568;-0.657613;,
         0.683584;-0.316568;-0.657613;,
         0.428816; 0.077303;-0.900052;,
         0.371654;-0.244575;-0.895566;,
         0.683584;-0.316568;-0.657613;,
         0.371654;-0.244575;-0.895566;,
         0.362957;-0.551225;-0.751244;,
         0.362957;-0.551225;-0.751244;,
         0.596088;-0.066561;-0.800134;,
         0.683584;-0.316568;-0.657613;;
        14;
        3;0;1;2;,
        3;3;4;5;,
        3;6;7;8;,
        3;9;10;11;,
        3;12;13;14;,
        3;15;16;17;,
        3;18;19;20;,
        3;21;22;23;,
        3;24;25;26;,
        3;27;28;29;,
        3;30;31;32;,
        3;33;34;35;,
        3;36;37;38;,
        3;39;40;41;;
      } //End of Mesh Normals
      MeshMaterialList { //Mesh Material List
        1;
        14;
        0,
        0,
        0,
        0,
        0,
        0,
        0,
        0,
        0,
        0,
        0,
        0,
        0,
        0;;
        Material mat_4 {
           0.640000; 0.640000; 0.640000; 1.000000;;
           92.156863;
           0.250000; 0.250000; 0.250000;;
           0.000000; 0.000000; 0.000000;;
          TextureFilename {"Textures/absol_1_4.tga";}
        }
      } //End of Mesh Material List
      MeshTextureCoords { //Mesh UV Coordinates
        42;
        -0.168642; 0.245546;,
        -0.168642; 0.245546;,
         0.122685; 0.029647;,
        -0.168642; 0.245546;,
         0.122685; 0.029647;,
         0.118056; 0.010817;,
         2.267340; 0.163012;,
         1.006940; 0.189904;,
         0.886107;-0.073390;,
         1.006940; 0.189904;,
         0.118056; 0.010817;,
         0.886107;-0.073390;,
         0.118056; 0.010817;,
         1.006940; 0.189904;,
         0.017988; 0.226136;,
         1.006940; 0.189904;,
         1.045140; 0.245192;,
         0.017988; 0.226136;,
         0.017988; 0.226136;,
         1.045140; 0.245192;,
        -0.168642; 0.245546;,
        -0.168642; 0.245546;,
         0.118056; 0.010817;,
         0.017988; 0.226136;,
         1.190970; 0.093750;,
         0.949074;-0.064900;,
         1.048610; 0.197115;,
         0.949074;-0.064900;,
         0.122685; 0.029647;,
         1.048610; 0.197115;,
         1.048610; 0.197115;,
         0.122685; 0.029647;,
         0.017988; 0.230944;,
         0.017988; 0.230944;,
         0.122685; 0.029647;,
        -0.168642; 0.245546;,
         0.017988; 0.230944;,
        -0.168642; 0.245546;,
         1.083330; 0.251202;,
         1.083330; 0.251202;,
         1.048610; 0.197115;,
         0.017988; 0.230944;;
      } //End of Mesh UV Coordinates
    } //End of Mesh Mesh
  } //End of absol_mat_4
  Frame absol_mat_5 {
    FrameTransformMatrix {
       1.000000, 0.000000, 0.000000, 0.000000,
       0.000000, 1.000000, 0.000000, 0.000000,
       0.000000, 0.000000, 1.000000, 0.000000,
       0.000000, 0.000000, 0.000000, 1.000000;;
    }
    Mesh { //Mesh Mesh
      24;
      -0.450878; 6.618690; 2.487746;,
      -0.569928; 6.556550; 3.483126;,
      -0.002920; 6.199052; 3.090486;,
      -0.569928; 6.556550; 3.483126;,
       0.011719; 6.343330; 3.746326;,
      -0.002920; 6.199052; 3.090486;,
       0.633832; 6.570040; 3.483126;,
      -0.002920; 6.199052; 3.090486;,
       0.011719; 6.343330; 3.746326;,
       0.011719; 6.343330; 3.746326;,
       0.011719; 6.576200; 4.136416;,
       0.633832; 6.570040; 3.483126;,
       0.633832; 6.570040; 3.483126;,
       0.011719; 6.576200; 4.136416;,
       0.980649; 6.917170; 3.515166;,
       0.633832; 6.570040; 3.483126;,
       0.667594; 6.589440; 2.633826;,
      -0.002920; 6.199052; 3.090486;,
       0.011719; 6.343330; 3.746326;,
      -0.569928; 6.556550; 3.483126;,
       0.011719; 6.576200; 4.136416;,
      -0.569928; 6.556550; 3.483126;,
      -0.957213; 6.917170; 3.515166;,
       0.011719; 6.576200; 4.136416;;
      8;
      3;0;1;2;,
      3;3;4;5;,
      3;6;7;8;,
      3;9;10;11;,
      3;12;13;14;,
      3;15;16;17;,
      3;18;19;20;,
      3;21;22;23;;
      MeshNormals { //Mesh Normals
        24;
         0.587695; 0.800073; 0.120212;,
         0.547563; 0.774743;-0.316050;,
         0.073397; 0.995514;-0.059481;,
         0.547563; 0.774743;-0.316050;,
         0.003449; 0.920988;-0.389538;,
         0.073397; 0.995514;-0.059481;,
        -0.527940; 0.776849;-0.343150;,
         0.073397; 0.995514;-0.059481;,
         0.003449; 0.920988;-0.389538;,
         0.003449; 0.920988;-0.389538;,
         0.004151; 0.833308;-0.552751;,
        -0.527940; 0.776849;-0.343150;,
        -0.527940; 0.776849;-0.343150;,
         0.004151; 0.833308;-0.552751;,
        -0.567034; 0.616901;-0.545793;,
        -0.527940; 0.776849;-0.343150;,
        -0.503281; 0.864101;-0.000244;,
         0.073397; 0.995514;-0.059481;,
         0.003449; 0.920988;-0.389538;,
         0.547563; 0.774743;-0.316050;,
         0.004151; 0.833308;-0.552751;,
         0.547563; 0.774743;-0.316050;,
         0.559648; 0.647053;-0.517747;,
         0.004151; 0.833308;-0.552751;;
        8;
        3;0;1;2;,
        3;3;4;5;,
        3;6;7;8;,
        3;9;10;11;,
        3;12;13;14;,
        3;15;16;17;,
        3;18;19;20;,
        3;21;22;23;;
      } //End of Mesh Normals
      MeshMaterialList { //Mesh Material List
        1;
        8;
        0,
        0,
        0,
        0,
        0,
        0,
        0,
        0;;
        Material mat_5 {
           0.640000; 0.640000; 0.640000; 1.000000;;
           92.156863;
           0.250000; 0.250000; 0.250000;;
           0.000000; 0.000000; 0.000000;;
          TextureFilename {"Textures/absol_1_5.tga";}
        }
      } //End of Mesh Material List
      MeshTextureCoords { //Mesh UV Coordinates
        24;
        -0.687500; 1.207813;,
        -0.668750; 0.953750;,
         0.498629; 1.127228;,
        -0.668750; 0.953750;,
         0.492188; 0.953125;,
         0.498629; 1.127228;,
         1.650000; 0.956250;,
         0.498629; 1.127228;,
         0.492188; 0.953125;,
         0.492188; 0.953125;,
         0.489583; 0.748958;,
         1.650000; 0.956250;,
         1.650000; 0.956250;,
         0.489583; 0.748958;,
         2.664060; 0.751562;,
         1.650000; 0.956250;,
         1.828130; 1.131250;,
         0.498629; 1.127228;,
         0.492188; 0.953125;,
        -0.668750; 0.953750;,
         0.489583; 0.748958;,
        -0.668750; 0.953750;,
        -1.693750; 0.766250;,
         0.489583; 0.748958;;
      } //End of Mesh UV Coordinates
    } //End of Mesh Mesh
  } //End of absol_mat_5
} //End of Root Frame
