# Blender MTL File: 'BR_Luvdisc-Shiny01.blend'
# Material Count: 5

newmtl mat_0
Ns 96.078431
Ka 0.000000 0.000000 0.000000
Kd 0.800000 0.800000 0.800000
Ks 0.500000 0.500000 0.500000
Ni 1.000000
d 1.000000
illum 2
map_Kd Textures\lovecus_1_0.tga
map_d Textures\lovecus_1_0.tga

newmtl mat_1
Ns 96.078431
Ka 0.000000 0.000000 0.000000
Kd 0.800000 0.800000 0.800000
Ks 0.500000 0.500000 0.500000
Ni 1.000000
d 1.000000
illum 2
map_Kd Textures\lovecus_1_2.tga
map_d Textures\lovecus_1_2.tga

newmtl mat_2
Ns 96.078431
Ka 0.000000 0.000000 0.000000
Kd 0.800000 0.800000 0.800000
Ks 0.500000 0.500000 0.500000
Ni 1.000000
d 1.000000
illum 2
map_Kd Textures\lovecus_1_4.tga
map_d Textures\lovecus_1_4.tga

newmtl mat_3
Ns 96.078431
Ka 0.000000 0.000000 0.000000
Kd 0.800000 0.800000 0.800000
Ks 0.500000 0.500000 0.500000
Ni 1.000000
d 1.000000
illum 2
map_Kd Textures\lovecus_1_7.tga
map_d Textures\lovecus_1_7.tga

newmtl mat_4
Ns 96.078431
Ka 0.000000 0.000000 0.000000
Kd 0.800000 0.800000 0.800000
Ks 0.500000 0.500000 0.500000
Ni 1.000000
d 1.000000
illum 2
map_Kd Textures\lovecus_1_9.tga
map_d Textures\lovecus_1_9.tga
