xof 0303txt 0032

template AnimTicksPerSecond {
  <9E415A43-7BA6-4a73-8743-B73D47E88476>
  DWORD AnimTicksPerSecond;
}

template XSkinMeshHeader {
  <3cf169ce-ff7c-44ab-93c0-f78f62d172e2>
  WORD nMaxSkinWeightsPerVertex;
  WORD nMaxSkinWeightsPerFace;
  WORD nBones;
}

template SkinWeights {
  <6f0d123b-bad2-4167-a0d0-80224f25fabb>
  STRING transformNodeName;
  DWORD nWeights;
  array DWORD vertexIndices[nWeights];
  array float weights[nWeights];
  Matrix4x4 matrixOffset;
}

Frame Root {
  FrameTransformMatrix {
     1.000000, 0.000000, 0.000000, 0.000000,
     0.000000, 0.000000, 1.000000, 0.000000,
     0.000000, 1.000000,-0.000000, 0.000000,
     0.000000, 0.000000, 0.000000, 1.000000;;
  }
  Frame denryu_mat_0 {
    FrameTransformMatrix {
       1.000000, 0.000000, 0.000000, 0.000000,
       0.000000, 1.000000, 0.000000, 0.000000,
       0.000000, 0.000000, 1.000000, 0.000000,
       0.000000, 0.000000, 0.000000, 1.000000;;
    }
    Mesh { //Mesh Mesh
      90;
       0.406725; 0.704458;-0.088037;,
       0.352203; 0.406720; 0.522039;,
       0.704464;-0.406719;-0.088022;,
       0.406725; 0.704458;-0.088037;,
       0.704464;-0.406719;-0.088022;,
       0.813444;-0.000000;-0.088017;,
       0.406725; 0.704458;-0.088037;,
       0.813444;-0.000000;-0.088017;,
       0.203347; 0.704458; 0.264182;,
       0.406725; 0.704458;-0.088037;,
      -0.203373; 0.704459; 0.264161;,
       0.352203; 0.406720; 0.522039;,
      -0.203373; 0.704459; 0.264161;,
       0.406724;-0.704459;-0.088037;,
       0.352203; 0.406720; 0.522039;,
       0.000000; 1.000000; 0.000000;,
       0.352203; 0.406720; 0.522039;,
       0.406724;-0.704459;-0.088037;,
       0.406724;-0.704459;-0.088037;,
       0.000000; 1.000000; 0.000000;,
       0.000000; 1.000000; 0.000000;,
       0.000000; 1.000000; 0.000000;,
       0.000000; 1.000000; 0.000000;,
       0.000000;-0.000000; 0.000000;,
       0.000000; 1.000000; 0.000000;,
       0.000000;-0.000000; 0.000000;,
       0.000000;-0.000000; 0.000000;,
      -0.203373; 0.704459; 0.264161;,
      -0.203374;-0.704459; 0.264162;,
       0.406724;-0.704459;-0.088037;,
      -0.203374;-0.704459; 0.264162;,
      -0.406752; 0.000001; 0.616381;,
       0.406724;-0.704459;-0.088037;,
       0.406724;-0.704459;-0.088037;,
      -0.406752; 0.000001; 0.616381;,
       0.000000; 1.000000; 0.000000;,
      -0.406752; 0.000001; 0.616381;,
       0.000000;-0.000000; 0.000000;,
       0.000000; 1.000000; 0.000000;,
       0.000000; 1.000000; 0.000000;,
       0.000000;-0.000000; 0.000000;,
       0.000000;-0.000000; 0.000000;,
       0.000000;-0.000000; 0.000000;,
       0.000000;-0.000000; 0.000000;,
       0.000000;-0.000000; 0.000000;,
      -0.203374;-0.704459; 0.264162;,
      -0.704455;-0.406719;-0.088095;,
      -0.406752; 0.000001; 0.616381;,
      -0.704455;-0.406719;-0.088095;,
      -0.704455; 0.406721;-0.088096;,
      -0.406752; 0.000001; 0.616381;,
      -0.406752; 0.000001; 0.616381;,
      -0.704455; 0.406721;-0.088096;,
       0.000000;-0.000000; 0.000000;,
      -0.704455; 0.406721;-0.088096;,
       0.000000;-0.000000; 0.000000;,
       0.000000;-0.000000; 0.000000;,
       0.000000;-0.000000; 0.000000;,
       0.000000;-0.000000; 0.000000;,
       0.000000;-0.000000; 0.000000;,
       0.000000;-0.000000; 0.000000;,
       0.000000;-0.000000; 0.000000;,
       0.000000;-0.000000; 0.000000;,
       0.000000; 1.000000; 0.000000;,
       0.704464;-0.406719;-0.088022;,
       0.352203; 0.406720; 0.522039;,
       0.000000; 1.000000; 0.000000;,
       0.352203; 0.406720; 0.522039;,
       0.000000; 1.000000; 0.000000;,
       0.000000; 1.000000; 0.000000;,
       0.000000; 1.000000; 0.000000;,
       0.000000;-0.000000; 0.000000;,
       0.000000; 1.000000; 0.000000;,
       0.000000;-0.000000; 0.000000;,
       0.000000;-0.000000; 0.000000;,
      -0.704455;-0.406719;-0.088095;,
       0.000000;-0.000000; 0.000000;,
      -0.704455; 0.406721;-0.088096;,
       0.000000;-0.000000; 0.000000;,
       0.000000;-0.000000; 0.000000;,
      -0.704455; 0.406721;-0.088096;,
       0.000000;-0.000000; 0.000000;,
       0.000000;-0.000000; 0.000000;,
       0.000000;-0.000000; 0.000000;,
       0.813444;-0.000000;-0.088017;,
       0.704464;-0.406719;-0.088022;,
       0.000000; 1.000000; 0.000000;,
       0.000000; 1.000000; 0.000000;,
       0.000000;-0.000000; 0.000000;,
       0.813444;-0.000000;-0.088017;;
      30;
      3;0;1;2;,
      3;3;4;5;,
      3;6;7;8;,
      3;9;10;11;,
      3;12;13;14;,
      3;15;16;17;,
      3;18;19;20;,
      3;21;22;23;,
      3;24;25;26;,
      3;27;28;29;,
      3;30;31;32;,
      3;33;34;35;,
      3;36;37;38;,
      3;39;40;41;,
      3;42;43;44;,
      3;45;46;47;,
      3;48;49;50;,
      3;51;52;53;,
      3;54;55;56;,
      3;57;58;59;,
      3;60;61;62;,
      3;63;64;65;,
      3;66;67;68;,
      3;69;70;71;,
      3;72;73;74;,
      3;75;76;77;,
      3;78;79;80;,
      3;81;82;83;,
      3;84;85;86;,
      3;87;88;89;;
      MeshNormals { //Mesh Normals
        90;
        -0.144139; 0.921232; 0.361248;,
         0.364483; 0.069735; 0.928587;,
         0.423566;-0.859523;-0.285928;,
        -0.144139; 0.921232; 0.361248;,
         0.423566;-0.859523;-0.285928;,
        -0.412915;-0.139134; 0.900052;,
        -0.144139; 0.921232; 0.361248;,
        -0.412915;-0.139134; 0.900052;,
        -0.774560;-0.447188;-0.447249;,
        -0.144139; 0.921232; 0.361248;,
        -0.004486; 0.319224; 0.947661;,
         0.364483; 0.069735; 0.928587;,
        -0.004486; 0.319224; 0.947661;,
        -0.874691;-0.053621; 0.481643;,
         0.364483; 0.069735; 0.928587;,
         0.908322; 0.234626;-0.346171;,
         0.364483; 0.069735; 0.928587;,
        -0.874691;-0.053621; 0.481643;,
        -0.874691;-0.053621; 0.481643;,
        -0.221015;-0.444990;-0.867794;,
         0.908322; 0.234626;-0.346171;,
         0.908322; 0.234626;-0.346171;,
        -0.221015;-0.444990;-0.867794;,
        -0.000000;-0.000000;-0.000000;,
        -0.221015;-0.444990;-0.867794;,
        -0.000000;-0.000000;-0.000000;,
        -0.000000;-0.000000;-0.000000;,
        -0.004486; 0.319224; 0.947661;,
         0.390179; 0.690970;-0.608478;,
        -0.874691;-0.053621; 0.481643;,
         0.390179; 0.690970;-0.608478;,
         0.190619;-0.249031;-0.949522;,
        -0.874691;-0.053621; 0.481643;,
        -0.874691;-0.053621; 0.481643;,
         0.190619;-0.249031;-0.949522;,
        -0.221015;-0.444990;-0.867794;,
         0.190619;-0.249031;-0.949522;,
         0.573473;-0.726524; 0.378430;,
        -0.221015;-0.444990;-0.867794;,
        -0.221015;-0.444990;-0.867794;,
         0.573473;-0.726524; 0.378430;,
        -0.000000;-0.000000;-0.000000;,
         0.573473;-0.726524; 0.378430;,
        -0.000000;-0.000000;-0.000000;,
        -0.000000;-0.000000;-0.000000;,
         0.390179; 0.690970;-0.608478;,
         0.951720; 0.306772; 0.007935;,
         0.190619;-0.249031;-0.949522;,
         0.951720; 0.306772; 0.007935;,
         0.479202;-0.796838; 0.367931;,
         0.190619;-0.249031;-0.949522;,
         0.190619;-0.249031;-0.949522;,
         0.479202;-0.796838; 0.367931;,
         0.573473;-0.726524; 0.378430;,
         0.479202;-0.796838; 0.367931;,
        -0.000000;-0.000000;-0.000000;,
         0.573473;-0.726524; 0.378430;,
         0.573473;-0.726524; 0.378430;,
        -0.000000;-0.000000;-0.000000;,
        -0.000000;-0.000000;-0.000000;,
        -0.000000;-0.000000;-0.000000;,
        -0.000000;-0.000000;-0.000000;,
        -0.000000;-0.000000;-0.000000;,
        -0.682607;-0.374279; 0.627644;,
         0.423566;-0.859523;-0.285928;,
         0.364483; 0.069735; 0.928587;,
        -0.682607;-0.374279; 0.627644;,
         0.364483; 0.069735; 0.928587;,
         0.908322; 0.234626;-0.346171;,
        -0.682607;-0.374279; 0.627644;,
         0.908322; 0.234626;-0.346171;,
         0.107547;-0.000000; 0.994171;,
         0.908322; 0.234626;-0.346171;,
        -0.000000;-0.000000;-0.000000;,
         0.107547;-0.000000; 0.994171;,
         0.951720; 0.306772; 0.007935;,
        -0.124088;-0.000000; 0.992248;,
         0.479202;-0.796838; 0.367931;,
        -0.124088;-0.000000; 0.992248;,
        -0.000000;-0.000000;-0.000000;,
         0.479202;-0.796838; 0.367931;,
        -0.000000;-0.000000;-0.000000;,
        -0.124088;-0.000000; 0.992248;,
        -0.000000;-0.000000;-0.000000;,
        -0.412915;-0.139134; 0.900052;,
         0.423566;-0.859523;-0.285928;,
        -0.682607;-0.374279; 0.627644;,
        -0.682607;-0.374279; 0.627644;,
         0.107547;-0.000000; 0.994171;,
        -0.412915;-0.139134; 0.900052;;
        30;
        3;0;1;2;,
        3;3;4;5;,
        3;6;7;8;,
        3;9;10;11;,
        3;12;13;14;,
        3;15;16;17;,
        3;18;19;20;,
        3;21;22;23;,
        3;24;25;26;,
        3;27;28;29;,
        3;30;31;32;,
        3;33;34;35;,
        3;36;37;38;,
        3;39;40;41;,
        3;42;43;44;,
        3;45;46;47;,
        3;48;49;50;,
        3;51;52;53;,
        3;54;55;56;,
        3;57;58;59;,
        3;60;61;62;,
        3;63;64;65;,
        3;66;67;68;,
        3;69;70;71;,
        3;72;73;74;,
        3;75;76;77;,
        3;78;79;80;,
        3;81;82;83;,
        3;84;85;86;,
        3;87;88;89;;
      } //End of Mesh Normals
      MeshMaterialList { //Mesh Material List
        1;
        30;
        0,
        0,
        0,
        0,
        0,
        0,
        0,
        0,
        0,
        0,
        0,
        0,
        0,
        0,
        0,
        0,
        0,
        0,
        0,
        0,
        0,
        0,
        0,
        0,
        0,
        0,
        0,
        0,
        0,
        0;;
        Material mat_0 {
           0.640000; 0.640000; 0.640000; 1.000000;;
           92.156863;
           0.250000; 0.250000; 0.250000;;
           0.000000; 0.000000; 0.000000;;
          TextureFilename {"Textures/denryu_0_0.tga";}
        }
      } //End of Mesh Material List
      MeshTextureCoords { //Mesh UV Coordinates
        90;
         0.000000; 1.000000;,
         0.000000; 1.000000;,
         0.000000; 1.000000;,
         0.000000; 1.000000;,
         0.000000; 1.000000;,
         0.000000; 1.000000;,
         0.000000; 1.000000;,
         0.000000; 1.000000;,
         0.000000; 1.000000;,
         0.000000; 1.000000;,
         0.000000; 1.000000;,
         0.000000; 1.000000;,
         0.000000; 1.000000;,
         0.000000; 1.000000;,
         0.000000; 1.000000;,
         0.000000; 1.000000;,
         0.000000; 1.000000;,
         0.000000; 1.000000;,
         0.000000; 1.000000;,
         0.000000; 1.000000;,
         0.000000; 1.000000;,
         0.000000; 1.000000;,
         0.000000; 1.000000;,
         0.000000; 1.000000;,
         0.000000; 1.000000;,
         0.000000; 1.000000;,
         0.000000; 1.000000;,
         0.000000; 1.000000;,
         0.000000; 1.000000;,
         0.000000; 1.000000;,
         0.000000; 1.000000;,
         0.000000; 1.000000;,
         0.000000; 1.000000;,
         0.000000; 1.000000;,
         0.000000; 1.000000;,
         0.000000; 1.000000;,
         0.000000; 1.000000;,
         0.000000; 1.000000;,
         0.000000; 1.000000;,
         0.000000; 1.000000;,
         0.000000; 1.000000;,
         0.000000; 1.000000;,
         0.000000; 1.000000;,
         0.000000; 1.000000;,
         0.000000; 1.000000;,
         0.000000; 1.000000;,
         0.000000; 1.000000;,
         0.000000; 1.000000;,
         0.000000; 1.000000;,
         0.000000; 1.000000;,
         0.000000; 1.000000;,
         0.000000; 1.000000;,
         0.000000; 1.000000;,
         0.000000; 1.000000;,
         0.000000; 1.000000;,
         0.000000; 1.000000;,
         0.000000; 1.000000;,
         0.000000; 1.000000;,
         0.000000; 1.000000;,
         0.000000; 1.000000;,
         0.000000; 1.000000;,
         0.000000; 1.000000;,
         0.000000; 1.000000;,
         0.000000; 1.000000;,
         0.000000; 1.000000;,
         0.000000; 1.000000;,
         0.000000; 1.000000;,
         0.000000; 1.000000;,
         0.000000; 1.000000;,
         0.000000; 1.000000;,
         0.000000; 1.000000;,
         0.000000; 1.000000;,
         0.000000; 1.000000;,
         0.000000; 1.000000;,
         0.000000; 1.000000;,
         0.000000; 1.000000;,
         0.000000; 1.000000;,
         0.000000; 1.000000;,
         0.000000; 1.000000;,
         0.000000; 1.000000;,
         0.000000; 1.000000;,
         0.000000; 1.000000;,
         0.000000; 1.000000;,
         0.000000; 1.000000;,
         0.000000; 1.000000;,
         0.000000; 1.000000;,
         0.000000; 1.000000;,
         0.000000; 1.000000;,
         0.000000; 1.000000;,
         0.000000; 1.000000;;
      } //End of Mesh UV Coordinates
    } //End of Mesh Mesh
  } //End of denryu_mat_0
} //End of Root Frame
