# Blender v2.66 (sub 1) OBJ File: 'BR_Infernape.blend'
# www.blender.org
mtllib BR_Infernape.mtl
o goukazaru
v 0.943265 0.400422 -14.817522
v 0.000000 0.154044 -15.043253
v 0.454941 2.601651 -15.278400
v 0.000000 2.952551 -14.990280
v 0.776825 2.457138 -15.461664
v 1.380697 1.246395 -15.298884
v -0.943265 0.400422 -14.817522
v -0.430385 2.436343 -15.603459
v -0.771870 2.515782 -15.452714
v -1.380697 1.246395 -15.298884
v -0.089028 1.646450 -17.063086
v 0.489028 1.459791 -16.882578
v 1.081531 1.012055 -16.507324
v 1.902408 0.206880 -15.629004
v -0.158723 0.524567 -17.330145
v 0.572550 0.365923 -17.228888
v 1.091269 0.248075 -16.871336
v 1.871409 -0.310467 -15.830974
v -0.549740 1.420463 -16.769957
v -1.918545 0.026401 -15.475533
v -1.435878 0.985795 -16.206152
v -0.740931 0.392757 -17.044003
v -1.640195 0.189168 -16.602030
v -1.992359 -0.448228 -15.658160
v 0.962661 -2.067057 -15.463354
v 0.291078 -2.111516 -15.043626
v 0.796280 -2.193520 -17.310936
v 1.113749 -2.050795 -16.157396
v -0.938206 -1.995297 -15.179606
v -1.181364 -2.095558 -15.461230
v -1.090924 -1.725755 -17.381308
v -1.945064 -2.113104 -15.983154
v -1.738962 -2.895622 -16.472294
v -1.113170 -2.920461 -17.110933
v -0.190702 -1.895411 -17.657091
v -0.395647 -3.068557 -17.362436
v -0.296444 -1.802445 -14.528513
v -0.934611 -1.954777 -14.670086
v 0.988560 -4.825778 -15.032890
v 0.334607 -4.716319 -14.501016
v 0.071345 -4.831449 -16.734411
v 0.871030 -4.781516 -16.408255
v 1.350395 -4.634049 -15.954713
v -0.891494 -4.945148 -14.311440
v -0.399695 -5.023602 -14.769960
v -0.544481 -4.859385 -16.310236
v -0.792458 -4.894725 -15.549498
v 0.780239 -4.745941 -17.795534
v 0.558960 -3.152802 -17.647713
v 1.116166 -4.520453 -15.451938
v 0.365738 -4.534163 -14.856802
v -0.535571 -4.404763 -15.190592
v 0.052452 -8.449110 -17.505001
v 0.314738 -8.528283 -17.279123
v 0.034442 -10.033805 -18.284510
v 0.091931 -8.537724 -17.118280
v -0.159134 -8.574900 -17.196028
v 0.930002 -8.636122 -16.852983
v 0.205881 -8.033637 -17.066284
v -0.169490 -0.701953 -14.296935
v 1.419016 -0.373913 -14.881086
v -0.205246 -0.694872 -17.373671
v 0.718475 -0.843992 -17.104790
v 1.553260 -0.952920 -16.071268
v -1.207377 -0.481391 -14.770920
v -0.995001 -0.892985 -16.855194
v -1.566300 -1.169271 -15.961432
v 1.220413 -3.662021 -15.371146
v 0.432439 -3.759017 -14.927001
v 1.294635 -3.264396 -16.664875
v 1.486750 -3.740436 -15.820082
v -0.407866 -3.686783 -16.820766
v -0.897869 -3.725286 -14.623436
v -1.019086 -3.589684 -14.286297
v -0.825390 -3.698088 -16.563627
v -1.121520 -3.601912 -15.902757
v -0.580619 -3.754818 -15.255212
v -0.649532 -3.564811 -14.229611
v -0.452218 -3.683998 -14.575632
v 0.786388 -5.930464 -14.876612
v 0.252859 -5.866978 -14.365372
v 1.167818 -5.818311 -15.408264
v 0.165343 -5.479221 -16.235357
v 0.900804 -5.596309 -15.911077
v -0.323759 -5.913824 -14.751459
v -0.585506 -5.811822 -15.323037
v -0.365819 -5.591621 -15.849509
v 0.426480 -7.218019 -16.041822
v -0.149126 -7.258478 -15.855820
v -0.197684 -6.740951 -17.211197
v 0.407501 -6.844586 -17.093542
v 0.604157 -7.216895 -16.536444
v -0.736446 -7.187405 -15.989123
v -0.768174 -6.813636 -17.040264
v -0.934236 -7.171195 -16.510397
vt 0.661526 0.029656
vt 0.652873 0.029883
vt 0.674037 0.039472
vt 0.674638 0.048152
usemtl mat_0
s 1
f 11/1 12/2 3/3
f 11/1 8/4 12/2
