# Blender v2.66 (sub 1) OBJ File: 'BR_Shedinja-Shiny01.blend'
# www.blender.org
mtllib BR_Shedinja-Shiny01.mtl
o nukenin_c
v -0.584487 0.584706 -6.037350
v -1.079990 -0.130523 -5.648610
v -1.527340 0.856250 -5.209680
v -1.411080 -0.825882 -4.899990
v -1.995560 0.463399 -4.326500
v -1.079990 1.843020 -4.770750
v -1.411080 1.752680 -3.753013
v 0.000000 2.286720 -3.515465
v 0.000000 2.251760 -4.588940
v -1.527340 1.395510 -2.663980
v 0.000000 1.973550 -2.406861
v -1.411080 0.825882 -1.669450
v 0.000000 1.359920 -1.431900
v -1.079990 0.130523 -0.920830
v 0.000000 0.539257 -0.739020
v -0.584487 -0.584706 -0.532090
v 0.000000 -0.363501 -0.433700
v 0.000000 -1.210920 -0.562410
v -1.527340 -1.395510 -3.905462
v -2.159980 0.000000 -3.284721
v -1.411080 -1.752680 -2.816429
v -1.995560 -0.463399 -2.242940
v -1.527340 -0.856250 -1.359760
v -0.826589 -1.118740 -0.769640
v -0.584487 -1.652780 -1.007190
v 0.000000 -1.873990 -1.105580
v -1.079990 -1.843020 -1.798690
v 0.000000 -2.251760 -1.980500
v 0.000000 -2.286720 -3.053977
v -1.420920 -1.092900 -5.018770
v -1.420920 -1.092900 -5.018770
v -1.140400 -1.684530 -4.034022
v -1.140400 -1.684530 -4.034022
v -1.255380 -0.334890 -5.739520
v -1.255380 -0.334890 -5.739520
v -0.840345 -0.795536 -5.895630
v -0.840345 -0.795536 -5.895630
v -1.129600 -1.348130 -5.204570
v -1.129600 -1.348130 -5.204570
v -0.292243 0.399898 -6.119560
v 0.000000 0.188793 -6.414470
v 0.000000 0.188793 -6.414470
v 0.000000 0.188793 -6.414470
v 0.000000 0.188793 -6.414470
v 0.000000 0.188793 -6.414470
v 0.000000 -2.144450 -3.600475
v 0.000000 -2.144450 -3.600475
v 0.000000 -2.144450 -3.600475
v 0.000000 -2.144450 -3.600475
v 0.000000 -2.144450 -3.600475
v 0.000000 -2.144450 -3.600475
v 0.000000 -2.301400 -3.469703
v -0.494711 0.202711 -6.492550
v -0.494711 0.202711 -6.492550
v -0.282401 -1.854120 -4.180084
v -0.282401 -1.854120 -4.180084
v 0.000000 -0.588569 -4.522450
v -1.025110 -1.055000 -5.602100
v -1.025110 -1.055000 -5.602100
v -1.025110 -1.640430 -4.788110
v -1.025110 -1.640430 -4.788110
v -0.685760 -1.889210 -4.351680
v -0.685760 -1.889210 -4.351680
v -0.433908 -0.565436 -6.085890
v -0.433908 -0.565436 -6.085890
v 0.000000 -0.574033 -6.156250
v 0.000000 -0.574033 -6.156250
v -1.118300 -3.008570 -3.179728
v -1.118300 -3.008570 -3.179728
v -1.355410 -2.114080 -4.051856
v -1.355410 -2.114080 -4.051856
v -1.679840 -2.515670 -3.622705
v -1.679840 -2.515670 -3.622705
v -1.241380 0.613303 -1.604780
v -1.318400 0.925864 -1.455310
v -1.576900 0.633789 -1.379840
v -0.995922 0.765644 -2.119460
v -1.129330 1.307010 -1.860570
v -0.906293 1.049990 -2.785961
v -1.060330 1.675110 -2.487021
v -0.996509 1.390150 -3.425694
v -1.129910 1.931530 -3.166804
v -1.242400 1.694990 -3.867245
v -1.319420 2.007550 -3.717775
v -1.578070 1.882810 -3.992300
v -1.499960 0.404896 -1.704310
v -1.655010 2.111700 -3.667828
v -1.711180 2.111930 -3.080294
v -1.731530 1.883420 -2.387127
v -1.710600 1.487410 -1.774060
v -1.500970 1.486580 -3.966768
v -1.835550 0.509051 -1.654360
v -2.025060 0.585073 -2.205330
v -1.443790 0.404673 -2.291841
v -2.076550 0.774833 -2.708410
v -2.094640 0.841486 -2.885114
v -1.423440 0.633178 -2.985008
v -2.025650 1.209580 -3.511563
v -1.444370 1.029180 -3.598074
v -1.836570 1.590730 -3.916822
v -1.912570 0.821611 -1.504890
v -2.158460 1.126440 -1.946440
v -2.248680 1.466610 -2.586174
v -2.159050 1.750950 -3.252673
v -1.913590 1.903290 -3.767351
v -1.654000 1.030020 -1.405370
v -1.457080 -0.191809 -1.034180
v -1.382650 -0.159456 -0.789340
v -1.494070 0.134749 -1.090170
v -1.138870 -0.136022 -0.708410
v -1.101880 -0.462581 -0.652420
v -1.301330 -0.376139 -1.138760
v -1.161010 -0.529301 -1.026510
v -1.326350 -0.390919 -0.888260
v -0.972548 0.034986 -0.848670
v -1.087220 0.188146 -0.960910
v -1.269600 0.063089 -0.854320
v -1.204060 0.265489 -1.158790
v -1.337190 0.281748 -1.462030
v -1.015440 -0.612558 -0.901040
v -1.363950 0.002369 -1.344450
v -0.786142 -0.632104 -0.694520
v -0.804068 -0.345327 -0.712480
v -0.839433 -0.185222 -0.736430
v -1.352930 -0.222977 -1.251000
v -0.753191 3.398990 -4.343460
v -0.553862 2.592370 -3.945596
v 0.000000 2.877920 -3.945595
v -1.023400 3.058990 -4.343460
v -1.337140 3.370780 -4.938920
v -0.759838 3.943830 -5.641300
v -1.447310 3.480260 -5.641300
v -0.701998 3.802230 -4.938920
v -0.701998 3.802230 -6.343680
v -1.337140 3.370770 -6.343680
v -0.537286 3.398990 -6.939130
v -1.023400 3.058990 -6.939130
v 0.000000 2.877920 -7.337000
v -0.642147 2.543530 -7.337000
v 0.000000 3.622670 -6.939130
v 0.000000 3.622670 -6.939130
v 0.000000 4.081640 -6.343680
v 0.000000 4.081640 -6.343680
v 0.000000 4.242810 -5.641300
v 0.000000 4.242810 -5.641300
v 0.000000 4.153010 -4.938920
v 0.000000 4.153010 -4.938920
v 0.001314 3.800220 -4.334400
v 0.001314 3.800220 -4.334400
v 0.001314 2.950980 -3.591156
v 0.001314 2.950980 -3.591156
v 0.000000 2.003490 -3.805883
v -1.476850 2.003490 -4.343460
v -0.799264 2.003490 -3.945596
v -1.364430 0.699699 -5.200510
v -1.622740 1.025650 -5.114510
v -1.622740 1.025650 -5.114510
v -1.629780 0.945081 -5.641300
v -1.629780 0.945081 -5.641300
v -1.622740 1.025650 -6.168090
v -1.622740 1.025650 -6.168090
v -1.364430 0.699700 -6.343680
v -1.476850 0.592278 -5.641300
v -0.782729 0.197798 -5.641300
v -0.723147 0.335249 -6.343680
v -1.044290 1.005610 -6.939130
v -0.553473 0.726672 -6.939140
v -0.642147 1.463440 -7.337000
v 0.000000 1.239750 -7.337000
v -0.455518 2.003490 -7.444420
v -1.629780 3.061890 -5.641300
v -1.629780 3.061890 -5.641300
v -1.622740 2.981330 -5.114510
v -1.622740 2.981330 -5.114510
v -1.044290 1.005610 -4.343460
v -1.637730 2.003490 -6.722250
v -1.637730 2.003490 -6.722250
v -1.476850 2.003490 -6.939130
v -1.647010 1.377670 -6.481070
v -1.647010 1.377670 -6.481070
v -1.637730 2.003490 -4.560350
v -1.637730 2.003490 -4.560350
v -1.647010 1.377670 -4.801530
v -1.647010 1.377670 -4.801530
v -1.236600 2.003490 -7.198010
v -1.237660 2.003490 -7.939710
v -1.647010 2.629300 -4.801530
v -1.647010 2.629300 -4.801530
v -1.622740 2.981330 -6.168090
v -1.622740 2.981330 -6.168090
v -1.647010 2.629300 -6.481070
v -1.647010 2.629300 -6.481070
v 0.001314 3.426210 -3.824810
v 0.001314 3.426210 -3.824810
v 0.000000 0.592278 -6.939130
v 0.000000 0.159654 -6.343680
v 0.000000 0.007736 -5.641300
v -1.962750 2.889840 -6.155890
v -1.962750 2.889840 -5.132850
v 0.000000 2.003490 -7.476720
v -2.395140 2.515380 -5.939690
v -2.395140 2.003860 -6.235020
v -2.553400 2.003860 -5.644370
v -1.962750 2.003860 -6.667410
v -1.962750 1.117870 -6.155890
v -2.395140 1.492330 -5.939690
v -2.395140 2.515380 -5.349040
v -1.962750 1.117870 -5.132840
v -2.395140 1.492330 -5.349040
v -2.395140 2.003860 -5.053710
v -1.962750 2.003860 -4.621320
v 1.527340 0.856250 -5.209680
v 1.079990 -0.130523 -5.648610
v 0.584486 0.584706 -6.037350
v 1.995560 0.463399 -4.326500
v 1.411080 -0.825882 -4.899990
v 1.411080 1.752680 -3.753013
v 1.079990 1.843020 -4.770750
v 1.527340 1.395510 -2.663980
v 1.411080 0.825882 -1.669450
v 1.079990 0.130523 -0.920830
v 0.584487 -0.584706 -0.532090
v 2.159980 0.000000 -3.284721
v 1.527340 -1.395510 -3.905462
v 1.995560 -0.463398 -2.242940
v 1.411080 -1.752680 -2.816429
v 1.527340 -0.856250 -1.359760
v 0.826589 -1.118740 -0.769640
v 0.584487 -1.652780 -1.007190
v 1.079990 -1.843020 -1.798690
v 1.420920 -1.092900 -5.018770
v 1.420920 -1.092900 -5.018770
v 1.255380 -0.334890 -5.739520
v 1.255380 -0.334890 -5.739520
v 1.025110 -1.055000 -5.602100
v 1.025110 -1.055000 -5.602100
v 0.840346 -0.795536 -5.895630
v 0.840346 -0.795536 -5.895630
v 1.129600 -1.348130 -5.204570
v 1.129600 -1.348130 -5.204570
v 0.292243 0.399898 -6.119560
v 1.140400 -1.684530 -4.034022
v 1.140400 -1.684530 -4.034022
v 0.494711 0.247684 -6.472350
v 0.494711 0.247684 -6.472350
v 0.282401 -1.854120 -4.180084
v 0.282401 -1.854120 -4.180084
v 1.025110 -1.640430 -4.788110
v 1.025110 -1.640430 -4.788110
v 0.685760 -1.889210 -4.351680
v 0.685760 -1.889210 -4.351680
v 0.433908 -0.565436 -6.085890
v 0.433908 -0.565436 -6.085890
v 1.118300 -2.707900 -3.377613
v 1.118300 -2.707900 -3.377613
v 1.355410 -2.056510 -4.026010
v 1.679850 -2.384340 -3.563745
v 1.679850 -2.384340 -3.563745
v 1.576900 0.633789 -1.379840
v 1.318400 0.925864 -1.455310
v 1.241380 0.613303 -1.604780
v 1.129330 1.307010 -1.860570
v 0.995922 0.765644 -2.119460
v 1.060330 1.675110 -2.487021
v 0.906292 1.049990 -2.785961
v 1.129910 1.931530 -3.166804
v 0.996509 1.390150 -3.425694
v 1.319420 2.007550 -3.717775
v 1.242400 1.694990 -3.867245
v 1.578070 1.882810 -3.992300
v 1.499960 0.404896 -1.704310
v 1.655010 2.111700 -3.667828
v 1.711180 2.111930 -3.080294
v 1.731530 1.883420 -2.387127
v 1.710600 1.487410 -1.774060
v 1.500970 1.486580 -3.966768
v 1.835550 0.509051 -1.654360
v 1.443790 0.404673 -2.291841
v 2.025060 0.585073 -2.205330
v 1.423440 0.633178 -2.985008
v 2.094640 0.841485 -2.885114
v 1.444370 1.029180 -3.598074
v 2.025650 1.209580 -3.511563
v 1.836570 1.590730 -3.916822
v 1.912570 0.821611 -1.504890
v 2.158460 1.126440 -1.946440
v 2.248680 1.466610 -2.586174
v 2.159050 1.750950 -3.252673
v 1.913590 1.903290 -3.767352
v 1.654000 1.030020 -1.405370
v 1.494070 0.134749 -1.090170
v 1.382650 -0.159456 -0.789340
v 1.457080 -0.191809 -1.034180
v 1.101880 -0.462581 -0.652420
v 1.138870 -0.136022 -0.708410
v 1.301330 -0.376139 -1.138760
v 1.352930 -0.222977 -1.251000
v 0.972548 0.034986 -0.848670
v 0.839433 -0.185222 -0.736430
v 1.337190 0.281748 -1.462030
v 1.204060 0.265489 -1.158790
v 1.015440 -0.612558 -0.901040
v 1.161010 -0.529301 -1.026510
v 1.326350 -0.390918 -0.888260
v 1.363950 0.002369 -1.344450
v 0.804068 -0.345327 -0.712480
v 0.786142 -0.632104 -0.694520
v 1.269600 0.063089 -0.854320
v 1.087220 0.188146 -0.960910
v 0.553861 2.592370 -3.945596
v 0.753190 3.398990 -4.343460
v 1.023400 3.058990 -4.343460
v 1.337140 3.370780 -4.938920
v 0.701998 3.802230 -4.938920
v 1.447310 3.480260 -5.641300
v 0.759838 3.943830 -5.641300
v 1.337140 3.370770 -6.343680
v 0.701998 3.802230 -6.343680
v 1.023400 3.058990 -6.939130
v 0.537286 3.398990 -6.939130
v 0.642147 2.543530 -7.337000
v 0.799264 2.003490 -3.945596
v 1.476850 2.003490 -4.343460
v 1.629780 0.945081 -5.641300
v 1.629780 0.945081 -5.641300
v 1.622740 1.025650 -5.114510
v 1.622740 1.025650 -5.114510
v 1.364430 0.699700 -5.200510
v 1.364430 0.699700 -6.343680
v 1.622740 1.025650 -6.168090
v 1.622740 1.025650 -6.168090
v 0.782729 0.197798 -5.641300
v 1.476850 0.592278 -5.641300
v 0.723147 0.335249 -6.343680
v 0.553473 0.726672 -6.939140
v 1.044290 1.005610 -6.939130
v 0.642147 1.463440 -7.337000
v 0.455518 2.003490 -7.444420
v 1.622740 2.981330 -5.114510
v 1.622740 2.981330 -5.114510
v 1.629780 3.061890 -5.641300
v 1.629780 3.061890 -5.641300
v 1.044290 1.005610 -4.343470
v 1.476850 2.003490 -6.939130
v 1.637730 2.003490 -6.722250
v 1.637730 2.003490 -6.722250
v 1.647010 1.377670 -6.481070
v 1.647010 1.377670 -6.481070
v 1.647010 1.377670 -4.801530
v 1.647010 1.377670 -4.801530
v 1.637730 2.003490 -4.560350
v 1.637730 2.003490 -4.560350
v 1.237660 2.003490 -7.939710
v 1.236600 2.003490 -7.198010
v 1.647010 2.629300 -4.801530
v 1.647010 2.629300 -4.801530
v 1.622740 2.981330 -6.168090
v 1.622740 2.981330 -6.168090
v 1.647010 2.629300 -6.481070
v 1.647010 2.629300 -6.481070
v 1.962750 2.889840 -5.132840
v 1.962750 2.889840 -6.155890
v 2.553400 2.003860 -5.644370
v 2.395140 2.003860 -6.235020
v 2.395140 2.515380 -5.939690
v 1.962750 2.003860 -6.667410
v 1.962750 1.117870 -6.155890
v 2.395140 1.492330 -5.939690
v 2.395140 2.515380 -5.349040
v 1.962750 1.117870 -5.132840
v 2.395140 1.492330 -5.349040
v 2.395140 2.003860 -5.053710
v 1.962750 2.003860 -4.621320
v -5.649830 -0.287112 -6.595100
v -5.649830 -0.287112 -6.595100
v -4.124580 -1.288540 -5.296530
v -4.124580 -1.288540 -5.296530
v -5.703810 -0.918216 -5.884580
v -5.703810 -0.918216 -5.884580
v -4.150220 -1.387600 -4.914320
v -4.150220 -1.387600 -4.914320
v -3.769600 -2.036210 -3.916499
v -3.769600 -2.036210 -3.916499
v -3.606370 -2.269760 -3.615909
v -3.606370 -2.269760 -3.615909
v -3.066970 -1.712880 -4.441430
v -3.066970 -1.712880 -4.441430
v -2.480890 -2.258960 -3.684571
v -2.480890 -2.258960 -3.684571
v -1.978840 0.894172 -7.355840
v -1.978840 0.894172 -7.355840
v -2.520260 0.605895 -7.231110
v -2.520260 0.605895 -7.231110
v -4.400030 0.577392 -7.449440
v -4.400030 0.577392 -7.449440
v -4.144500 0.870308 -7.758840
v -4.144500 0.870308 -7.758840
v 3.690640 -0.038747 -6.404740
v 5.845050 0.231420 -6.528980
v 5.845050 0.231420 -6.528980
v 4.443020 -1.131930 -5.367510
v 4.443020 -1.131930 -5.367510
v 6.001580 -0.759190 -5.774300
v 6.001580 -0.759190 -5.774300
v 3.922400 -1.731520 -4.724800
v 3.922400 -1.731520 -4.724800
v 4.389440 -1.625960 -4.817330
v 4.389440 -1.625960 -4.817330
v 3.455350 -1.656880 -4.820410
v 3.455350 -1.656880 -4.820410
v 3.180350 -1.487630 -4.903300
v 3.639450 -2.440660 -3.692638
v 3.949870 -2.090560 -4.445060
v 3.949870 -2.090560 -4.445060
v 1.978840 0.843619 -7.171030
v 1.978840 0.843619 -7.171030
v 2.843660 1.008200 -7.248340
v 2.843660 1.008200 -7.248340
v 3.965860 1.324080 -7.537190
v 3.965860 1.324080 -7.537190
v 3.937920 0.947922 -7.142900
v 3.937920 0.947922 -7.142900
v 3.221430 0.155397 -6.437760
v 3.221430 0.155397 -6.437760
v 3.268510 0.376628 -6.687900
v 3.268510 0.376628 -6.687900
v -2.408940 -0.158540 -6.198810
v -2.408940 -0.158540 -6.198810
v -2.103780 -1.430270 -4.870070
v -2.103780 -1.430270 -4.870070
v 2.247710 -1.776170 -4.758330
v 2.247710 -1.776170 -4.758330
v 2.288340 -0.234454 -6.085970
vt 0.497569 0.871947
vt 0.620682 0.650887
vt 0.702115 0.798557
vt 0.353430 0.746776
vt 0.392706 0.894960
vt 0.261482 0.741484
vt 0.998632 0.515280
vt 0.906660 0.725167
vt 0.887933 0.554998
vt 0.991386 0.694768
vt 0.933716 0.329918
vt 0.813896 0.372909
vt 0.524625 0.476699
vt 0.235354 0.580488
vt 0.806519 0.166903
vt 0.695820 0.206621
vt 0.428568 0.302510
vt 0.161316 0.398399
vt 0.636406 0.051051
vt 0.551681 0.081450
vt 0.347135 0.154840
vt 0.142589 0.228231
vt 0.050617 0.438118
vt 0.057864 0.258630
vt 0.449276 0.000000
vt 0.403423 0.016452
vt 0.292723 0.056170
vt 0.182024 0.095889
vt 0.136171 0.112341
vt 0.645827 0.936946
vt 0.607519 0.950691
vt 0.563759 1.000000
vt 0.175444 0.601984
vt 0.047574 0.507628
vt 0.035947 0.547794
vt 0.273616 0.021522
vt 0.414907 0.099121
vt 0.443592 0.076005
vt 0.446656 0.117888
vt 0.397649 0.078141
vt 0.428738 0.036572
vt 0.491572 0.059465
vt 0.496429 0.045933
vt 0.537702 0.070330
vt 0.531877 0.069385
vt 0.563625 0.088152
vt 0.579657 0.121238
vt 0.552557 0.109764
vt 0.583028 0.171940
vt 0.525116 0.152280
vt 0.484865 0.100402
vt 0.478404 0.136655
vt 0.393598 0.043610
vt 0.453043 0.046614
vt 0.500128 0.050618
vt 0.500169 0.952430
vt 0.715975 0.631600
vt 0.873956 0.726914
vt 0.500168 0.761801
vt 0.126381 0.726914
vt 0.284362 0.631600
vt 0.126381 0.275882
vt 0.284362 0.371196
vt 0.500168 0.050366
vt 0.500168 0.240995
vt 0.873956 0.275882
vt 0.715975 0.371196
vt 0.500169 0.761801
vt 0.500169 0.240995
vt 0.500169 0.050366
vt 0.873957 0.275882
vt 0.944196 0.506696
vt 0.928180 0.125296
vt 0.764040 0.129815
vt 0.500013 0.023484
vt 0.235986 0.129815
vt 0.087471 0.267800
vt 0.053480 0.500046
vt 0.087471 0.732293
vt 0.235986 0.870277
vt 0.500013 0.976609
vt 0.764040 0.870277
vt 0.928180 0.874796
vt 0.500168 0.501398
vt 0.053481 0.500046
vt 0.500169 0.501398
vt 0.496135 0.934508
vt 0.563907 0.948747
vt 0.615133 0.943489
vt 0.500528 0.925142
vt 0.558178 0.972759
vt 0.566438 0.983021
vt 0.574699 0.993284
vt 0.541657 0.952235
vt 0.549918 0.962497
vt 0.464391 0.958145
vt 0.446305 0.935603
vt 0.476154 0.956233
vt 0.429103 0.984752
vt 0.416230 0.978991
vt 0.377610 0.993645
vt 0.371534 0.983650
vt 0.410651 0.952351
vt 0.341818 0.955484
vt 0.340534 0.932954
vt 0.442369 0.911549
vt 0.378084 0.915855
vt 0.377474 0.906182
vt 0.417124 0.904408
vt 0.449039 0.883205
vt 0.403231 0.892151
vt 0.386524 0.876961
vt 0.390405 0.867770
vt 0.417166 0.869436
vt 0.443927 0.879237
vt 0.476154 0.868695
vt 0.436212 0.865421
vt 0.449564 0.850363
vt 0.469440 0.884790
vt 0.459849 0.888322
vt 0.451780 0.900717
vt 0.449296 0.913118
vt 0.451780 0.925142
vt 0.456173 0.934508
vt 0.465837 0.941204
vt 0.476154 0.942816
vt 0.487917 0.958145
vt 0.523205 0.980048
vt 0.486471 0.941204
vt 0.543768 0.983521
vt 0.506004 0.935603
vt 0.618854 0.925923
vt 0.581444 0.909395
vt 0.568974 0.903885
vt 0.562578 0.902587
vt 0.549909 0.905577
vt 0.543390 0.898691
vt 0.556182 0.901288
vt 0.509940 0.911549
vt 0.503270 0.883205
vt 0.577412 0.876961
vt 0.569621 0.867770
vt 0.508382 0.879237
vt 0.492460 0.888322
vt 0.516096 0.865421
vt 0.502744 0.857909
vt 0.482869 0.884790
vt 0.500528 0.900717
vt 0.503013 0.913118
vt -2.064850 0.170354
vt -4.794450 0.456924
vt -4.390970 0.170354
vt -2.276670 0.456924
vt 0.506130 0.170355
vt 0.506130 0.456924
vt -4.390970 0.743495
vt -2.064850 0.743496
vt 0.506130 0.743496
vt -3.241950 0.986437
vt -1.461610 0.986438
vt 0.506130 0.986438
vt -4.490910 0.743495
vt -2.360510 0.456925
vt -4.902620 0.456925
vt -2.142300 0.743496
vt -3.318440 0.986437
vt -1.520890 0.986438
vt 0.506130 0.743495
vt 5.806710 0.456924
vt 3.077100 0.170354
vt 5.403230 0.170354
vt 3.288930 0.456924
vt 5.403230 0.743495
vt 3.077100 0.743496
vt 4.254200 0.986437
vt 2.473870 0.986438
vt 3.372770 0.456925
vt 5.503170 0.743495
vt 5.914890 0.456925
vt 3.154560 0.743496
vt 4.330700 0.986438
vt 2.533150 0.986438
vt 0.506130 1.148770
vt -1.845650 1.148770
vt -1.162140 1.192590
vt 0.506130 1.205770
vt 2.174400 1.192590
vt 2.857910 1.148770
vt 5.035010 1.092060
vt 5.914880 0.986438
vt 6.504110 0.897951
vt 6.538090 0.799548
vt 6.449190 0.671852
vt 6.474980 0.456924
vt 6.449190 0.241997
vt 6.538090 0.114301
vt 4.254210 -0.072589
vt 3.264590 -0.072589
vt 2.534570 -0.234918
vt 0.506130 -0.234918
vt 0.506130 -0.291920
vt -1.522310 -0.234918
vt -2.421070 -0.234918
vt -4.902620 -0.072589
vt -3.318440 -0.072589
vt -5.491850 0.015899
vt -5.525830 0.114301
vt -4.490910 0.277083
vt -5.436930 0.241996
vt -5.462720 0.456925
vt -5.436930 0.671853
vt -5.525830 0.799548
vt -5.491850 0.897951
vt -4.902620 0.986438
vt -4.022750 1.092060
vt -5.436930 0.671852
vt -5.462720 0.456924
vt -5.436930 0.241997
vt -3.241950 -0.072589
vt -2.252330 -0.072589
vt 0.510941 -0.379529
vt 0.510941 -0.284198
vt 0.510941 -0.076287
vt 3.433330 -0.234918
vt 5.914890 -0.072589
vt 4.330700 -0.072588
vt 6.504110 0.015899
vt 5.503170 0.277083
vt 6.474980 0.456925
vt 6.449190 0.671853
vt 0.463155 0.499118
vt 0.487281 0.544731
vt 0.487281 0.421899
vt 0.428696 0.521980
vt 0.399705 0.580123
vt 0.390778 0.635607
vt 0.399705 0.688568
vt 0.415490 0.727674
vt 0.450212 0.753023
vt 0.487281 0.762396
vt 0.524350 0.753023
vt 0.559072 0.727674
vt 0.574857 0.688568
vt 0.583784 0.635607
vt 0.574857 0.580123
vt 0.545866 0.521980
vt 0.511407 0.499118
vt 0.265940 -0.143629
vt 0.168601 -0.230204
vt 0.191849 -0.210720
vt 0.225673 -0.177377
vt 0.292995 -0.056747
vt 0.246498 -0.095715
vt 0.265763 0.026646
vt 0.225495 -0.007102
vt 0.191542 0.084205
vt 0.168294 0.064721
vt 0.548950 0.752087
vt 1.067680 0.403760
vt 0.880475 0.786812
vt 0.493464 0.281116
vt 0.293513 0.821279
vt 0.051032 0.463459
vt 1.136410 -0.068846
vt 0.473367 -0.138295
vt -0.037510 0.000088
vt 0.043899 -0.108737
vt 0.050217 -0.188654
vt -0.112202 -0.082790
vt -0.084970 -0.166183
vt 0.012500 -0.204257
vt 0.130753 -0.121158
vt 0.113799 -0.197747
vt -0.044702 -0.132435
vt -0.010749 -0.223742
vt 0.067301 -0.236715
vt 0.136894 -0.030800
vt -0.065704 -0.043821
vt -0.060245 -0.066856
vt -0.044879 0.037840
vt 0.130576 0.049117
vt 0.012193 0.090667
vt 0.113492 0.097178
vt -0.085147 0.004092
vt -0.011056 0.071183
vt 0.913981 -0.184267
vt 0.990237 -0.117236
vt 0.932194 -0.169181
vt 0.958691 -0.143365
vt 0.834623 -0.189308
vt 0.821240 -0.152096
vt 0.773479 -0.179263
vt 0.715334 -0.134699
vt 0.791692 -0.164178
vt 0.746880 -0.108569
vt 0.871049 -0.159137
vt 0.884331 -0.099838
vt 1.011430 -0.049967
vt 0.975005 -0.080139
vt 0.816290 -0.090221
vt 0.694001 -0.070131
vt 0.730427 -0.039960
vt 0.889142 -0.029878
vt 0.958552 -0.011529
vt 0.990098 0.014600
vt 0.913741 0.044079
vt 0.931953 0.059165
vt 0.884193 0.031998
vt 0.746741 0.023267
vt 0.870809 0.069210
vt 0.791451 0.064169
vt 0.715195 -0.002863
vt 0.773238 0.049083
vt 0.090219 0.100507
vt 0.624959 0.977670
vt 0.852577 0.071787
vt 0.090574 -0.240043
vt 0.500000 0.500000
vt 0.265625 -0.121875
vt 0.000000 0.000000
vt 0.531250 -0.093750
vt 0.852855 -0.191885
usemtl mat_0
s 1
f 2/1 5/2 3/3
f 2/1 4/4 5/2
f 34/5 4/4 2/1
f 34/5 30/6 4/4
f 8/7 6/8 7/9
f 8/7 9/10 6/8
f 217/9 9/10 8/7
f 217/9 218/8 9/10
f 215/2 218/8 217/9
f 215/2 212/3 218/8
f 216/4 212/3 215/2
f 216/4 213/1 212/3
f 231/6 213/1 216/4
f 231/6 233/5 213/1
f 7/9 11/11 8/7
f 7/9 10/12 11/11
f 5/2 10/12 7/9
f 5/2 20/13 10/12
f 4/4 20/13 5/2
f 4/4 19/14 20/13
f 10/12 13/15 11/11
f 10/12 12/16 13/15
f 20/13 12/16 10/12
f 20/13 22/17 12/16
f 19/14 22/17 20/13
f 19/14 21/18 22/17
f 12/16 15/19 13/15
f 12/16 14/20 15/19
f 22/17 14/20 12/16
f 22/17 23/21 14/20
f 21/18 23/21 22/17
f 21/18 27/22 23/21
f 29/23 27/22 21/18
f 29/23 28/24 27/22
f 226/18 28/24 29/23
f 226/18 230/22 28/24
f 225/17 230/22 226/18
f 225/17 227/21 230/22
f 220/16 227/21 225/17
f 220/16 221/20 227/21
f 13/15 221/20 220/16
f 13/15 15/19 221/20
f 14/20 17/25 15/19
f 14/20 16/26 17/25
f 23/21 16/26 14/20
f 23/21 24/27 16/26
f 27/22 24/27 23/21
f 27/22 25/28 24/27
f 28/24 25/28 27/22
f 28/24 26/29 25/28
f 230/22 26/29 28/24
f 230/22 229/28 26/29
f 227/21 229/28 230/22
f 227/21 228/27 229/28
f 221/20 228/27 227/21
f 221/20 222/26 228/27
f 15/19 222/26 221/20
f 15/19 17/25 222/26
f 7/9 6/8 3/3
f 5/2 7/9 3/3
f 11/11 217/9 8/7
f 11/11 219/12 217/9
f 13/15 219/12 11/11
f 13/15 220/16 219/12
f 223/13 216/4 215/2
f 223/13 224/14 216/4
f 225/17 224/14 223/13
f 225/17 226/18 224/14
f 219/12 215/2 217/9
f 219/12 223/13 215/2
f 220/16 223/13 219/12
f 220/16 225/17 223/13
f 1/30 2/1 3/3
f 1/30 34/5 2/1
f 34/31 1/5 40/30
f 40/31 41/32 34/5
f 213/1 214/30 212/3
f 213/1 233/5 214/30
f 241/31 214/30 233/5
f 233/5 44/32 241/31
f 224/14 231/6 216/4
f 224/14 242/33 231/6
f 226/18 242/33 224/14
f 226/18 52/34 242/33
f 29/23 52/34 226/18
f 29/23 21/18 52/34
f 32/33 52/34 21/18
f 32/33 46/35 52/34
f 242/33 52/34 46/35
f 19/14 32/33 21/18
f 19/14 30/6 32/33
f 4/4 30/6 19/14
f 16/26 18/36 17/25
f 16/26 24/27 18/36
f 25/28 18/36 24/27
f 25/28 26/29 18/36
f 229/28 18/36 26/29
f 229/28 228/27 18/36
f 222/26 18/36 228/27
f 222/26 17/25 18/36
f 113/37 114/38 112/39
f 113/37 120/40 114/38
f 111/41 114/38 120/40
f 111/41 108/42 114/38
f 110/43 108/42 111/41
f 110/43 117/44 108/42
f 115/45 117/44 110/43
f 115/45 116/46 117/44
f 118/47 117/44 116/46
f 118/47 109/48 117/44
f 119/49 109/48 118/47
f 119/49 121/50 109/48
f 107/51 109/48 121/50
f 107/51 108/42 109/48
f 114/38 108/42 107/51
f 107/51 112/39 114/38
f 125/52 112/39 107/51
f 107/51 121/50 125/52
f 109/48 108/42 117/44
f 122/53 111/41 120/40
f 122/53 123/54 111/41
f 110/43 111/41 123/54
f 123/54 124/55 110/43
f 115/45 110/43 124/55
f 297/52 293/51 296/39
f 297/52 305/50 293/51
f 291/48 293/51 305/50
f 291/48 292/42 293/51
f 308/44 292/42 291/48
f 308/44 295/43 292/42
f 298/45 295/43 308/44
f 298/45 299/55 295/43
f 306/54 295/43 299/55
f 306/54 294/41 295/43
f 307/53 294/41 306/54
f 307/53 302/40 294/41
f 304/38 294/41 302/40
f 304/38 292/42 294/41
f 293/51 292/42 304/38
f 304/38 296/39 293/51
f 303/37 296/39 304/38
f 304/38 302/40 303/37
f 294/41 292/42 295/43
f 300/49 291/48 305/50
f 300/49 301/47 291/48
f 308/44 291/48 301/47
f 301/47 309/46 308/44
f 298/45 308/44 309/46
usemtl mat_1
f 204/56 201/57 198/58
f 204/56 202/59 201/57
f 205/60 202/59 204/56
f 205/60 206/61 202/59
f 208/62 206/61 205/60
f 208/62 209/63 206/61
f 211/64 209/63 208/62
f 211/64 210/65 209/63
f 199/66 210/65 211/64
f 199/66 207/67 210/65
f 198/58 207/67 199/66
f 198/58 201/57 207/67
f 364/68 362/58 365/57
f 364/68 366/56 362/58
f 368/61 366/56 364/68
f 368/61 367/60 366/56
f 371/63 367/60 368/61
f 371/63 370/62 367/60
f 372/69 370/62 371/63
f 372/69 373/70 370/62
f 369/67 373/70 372/69
f 369/67 361/71 373/70
f 365/57 361/71 369/67
f 365/57 362/58 361/71
f 199/66 172/72 198/58
f 199/66 174/73 172/72
f 188/74 174/73 199/66
f 199/66 211/64 188/74
f 182/75 188/74 211/64
f 211/64 184/76 182/75
f 208/62 184/76 211/64
f 208/62 157/77 184/76
f 159/78 157/77 208/62
f 208/62 205/60 159/78
f 161/79 159/78 205/60
f 205/60 180/80 161/79
f 204/56 180/80 205/60
f 204/56 177/81 180/80
f 192/82 177/81 204/56
f 204/56 198/58 192/82
f 190/83 192/82 198/58
f 198/58 172/72 190/83
f 202/59 203/84 201/57
f 202/59 206/61 203/84
f 209/63 203/84 206/61
f 209/63 210/65 203/84
f 207/67 203/84 210/65
f 207/67 201/57 203/84
f 362/58 342/72 361/71
f 362/58 358/83 342/72
f 360/82 358/83 362/58
f 362/58 366/56 360/82
f 346/81 360/82 366/56
f 366/56 348/80 346/81
f 367/60 348/80 366/56
f 367/60 331/79 348/80
f 325/85 331/79 367/60
f 367/60 370/62 325/85
f 327/77 325/85 370/62
f 370/62 350/76 327/77
f 373/70 350/76 370/62
f 373/70 352/75 350/76
f 356/74 352/75 373/70
f 373/70 361/71 356/74
f 340/73 356/74 361/71
f 361/71 342/72 340/73
f 365/57 363/86 364/68
f 365/57 369/67 363/86
f 372/69 363/86 369/67
f 372/69 371/63 363/86
f 368/61 363/86 371/63
f 368/61 364/68 363/86
usemtl mat_2
f 237/87 398/88 399/89
f 235/90 237/87 399/89
f 425/91 422/92 420/93
f 433/94 425/91 420/93
f 433/94 424/95 425/91
f 53/96 35/97 42/98
f 53/96 391/99 35/97
f 393/100 35/97 391/99
f 393/100 397/101 35/97
f 395/102 35/97 397/101
f 395/102 428/103 35/97
f 375/104 35/97 428/103
f 375/104 379/105 35/97
f 31/106 35/97 379/105
f 379/105 377/107 31/106
f 381/108 31/106 377/107
f 381/108 430/109 31/106
f 33/110 31/106 430/109
f 430/109 386/111 33/110
f 382/112 33/110 386/111
f 382/112 384/113 33/110
f 389/114 33/110 384/113
f 389/114 70/115 33/110
f 49/116 33/110 70/115
f 70/115 72/117 49/116
f 69/118 49/116 72/117
f 68/118 56/119 48/116
f 68/118 63/120 56/119
f 73/117 63/120 68/118
f 73/117 71/115 63/120
f 388/114 63/120 71/115
f 388/114 61/121 63/120
f 385/113 61/121 388/114
f 385/113 38/122 61/121
f 383/112 38/122 385/113
f 383/112 387/111 38/122
f 429/109 38/122 387/111
f 429/109 380/108 38/122
f 376/107 38/122 380/108
f 376/107 378/105 38/122
f 59/123 38/122 378/105
f 378/105 36/124 59/123
f 374/104 36/124 378/105
f 374/104 427/103 36/124
f 394/102 36/124 427/103
f 394/102 396/101 36/124
f 392/100 36/124 396/101
f 392/100 390/99 36/124
f 65/125 36/124 390/99
f 390/99 67/126 65/125
f 54/96 67/126 390/99
f 54/96 43/98 67/126
f 245/127 67/126 43/98
f 245/127 415/128 67/126
f 253/129 67/126 415/128
f 415/128 237/87 253/129
f 417/130 237/87 415/128
f 417/130 419/93 237/87
f 421/92 237/87 419/93
f 421/92 426/91 237/87
f 423/95 237/87 426/91
f 423/95 433/94 237/87
f 398/88 237/87 433/94
f 433/94 234/131 398/88
f 418/130 234/131 433/94
f 418/130 416/128 234/131
f 244/127 234/131 416/128
f 244/127 45/98 234/131
f 433/94 420/93 418/130
f 234/131 400/89 398/88
f 234/131 404/132 400/89
f 402/133 404/132 234/131
f 234/131 407/134 402/133
f 405/135 407/134 234/131
f 234/131 411/136 405/135
f 431/137 411/136 234/131
f 431/137 410/138 411/136
f 405/135 411/136 410/138
f 232/139 431/137 234/131
f 232/139 243/140 431/137
f 413/141 431/137 243/140
f 243/140 412/142 413/141
f 256/143 412/142 243/140
f 256/143 251/144 412/142
f 258/145 251/144 256/143
f 258/145 254/146 251/144
f 247/147 251/144 254/146
f 254/146 50/116 247/147
f 249/148 412/142 251/144
f 249/148 414/141 412/142
f 432/137 414/141 249/148
f 249/148 239/149 432/137
f 401/133 432/137 239/149
f 401/133 409/138 432/137
f 406/135 409/138 401/133
f 401/133 408/134 406/135
f 239/149 403/132 401/133
f 239/149 235/90 403/132
f 399/89 403/132 235/90
f 51/116 256/143 243/140
f 51/116 257/145 256/143
f 255/146 257/145 51/116
usemtl mat_3
f 133/150 132/151 130/152
f 133/150 131/153 132/151
f 146/154 131/153 133/150
f 146/154 144/155 131/153
f 131/153 135/156 132/151
f 131/153 134/157 135/156
f 144/155 134/157 131/153
f 144/155 142/158 134/157
f 134/157 137/159 135/156
f 134/157 136/160 137/159
f 142/158 136/160 134/157
f 142/158 140/161 136/160
f 162/162 164/163 163/164
f 162/162 165/165 164/163
f 166/166 165/165 162/162
f 166/166 167/167 165/165
f 196/168 167/167 195/161
f 196/168 165/165 167/167
f 197/155 165/165 196/168
f 197/155 164/163 165/165
f 315/169 314/170 313/171
f 315/169 316/172 314/170
f 317/173 316/172 315/169
f 317/173 318/174 316/172
f 319/175 318/174 317/173
f 319/175 320/176 318/174
f 143/158 320/176 141/161
f 143/158 318/174 320/176
f 145/155 318/174 143/158
f 145/155 316/172 318/174
f 147/154 316/172 145/155
f 147/154 314/170 316/172
f 332/177 329/178 333/179
f 332/177 334/180 329/178
f 197/155 334/180 332/177
f 197/155 196/168 334/180
f 334/180 336/181 329/178
f 334/180 335/182 336/181
f 196/168 335/182 334/180
f 196/168 195/161 335/182
f 138/183 136/160 140/161
f 138/183 139/184 136/160
f 170/185 139/184 138/183
f 138/183 200/186 170/185
f 338/187 200/186 138/183
f 338/187 169/183 200/186
f 337/188 169/183 338/187
f 337/188 335/182 169/183
f 336/181 335/182 337/188
f 337/188 354/189 336/181
f 344/190 336/181 354/189
f 344/190 345/191 336/181
f 319/175 345/191 344/190
f 319/175 359/192 345/191
f 317/173 359/192 319/175
f 317/173 357/193 359/192
f 315/169 357/193 317/173
f 315/169 341/194 357/193
f 339/195 341/194 315/169
f 315/169 313/171 339/195
f 355/196 339/195 313/171
f 313/171 312/197 355/196
f 311/198 312/197 313/171
f 311/198 310/199 312/197
f 128/200 310/199 311/198
f 128/200 152/201 310/199
f 127/202 152/201 128/200
f 127/202 154/203 152/201
f 153/204 154/203 127/202
f 153/204 175/205 154/203
f 181/206 175/205 153/204
f 181/206 183/207 175/205
f 155/208 175/205 183/207
f 183/207 156/209 155/208
f 158/210 155/208 156/209
f 158/210 163/164 155/208
f 162/162 163/164 158/210
f 158/210 160/211 162/162
f 179/212 162/162 160/211
f 179/212 166/166 162/162
f 176/213 166/166 179/212
f 176/213 178/214 166/166
f 137/159 178/214 176/213
f 137/159 185/215 178/214
f 139/184 185/215 137/159
f 137/159 136/160 139/184
f 155/208 163/164 164/163
f 185/215 166/166 178/214
f 185/215 168/184 166/166
f 167/167 166/166 168/184
f 168/184 169/183 167/167
f 170/185 169/183 168/184
f 170/185 200/186 169/183
f 354/189 319/175 344/190
f 354/189 321/188 319/175
f 320/176 319/175 321/188
f 321/188 138/183 320/176
f 338/187 138/183 321/188
f 138/183 141/161 320/176
f 169/183 195/161 167/167
f 169/183 335/182 195/161
f 191/212 137/159 176/213
f 191/212 135/156 137/159
f 189/216 135/156 191/212
f 189/216 132/151 135/156
f 171/217 132/151 189/216
f 171/217 173/218 132/151
f 130/152 132/151 173/218
f 173/218 187/207 130/152
f 129/219 130/152 187/207
f 129/219 126/220 130/152
f 127/202 126/220 129/219
f 127/202 128/200 126/220
f 150/221 126/220 128/200
f 150/221 193/222 126/220
f 133/150 126/220 193/222
f 133/150 130/152 126/220
f 129/219 153/204 127/202
f 129/219 181/206 153/204
f 187/207 181/206 129/219
f 148/223 133/150 193/222
f 148/223 146/154 133/150
f 311/198 151/221 128/200
f 311/198 194/222 151/221
f 314/170 194/222 311/198
f 314/170 149/223 194/222
f 147/154 149/223 314/170
f 313/171 314/170 311/198
f 322/224 310/199 152/201
f 322/224 323/225 310/199
f 343/226 323/225 322/224
f 343/226 351/227 323/225
f 349/196 351/227 343/226
f 343/226 328/228 349/196
f 326/195 349/196 328/228
f 328/228 324/229 326/195
f 333/179 324/229 328/228
f 333/179 329/178 324/229
f 330/230 324/229 329/178
f 329/178 347/192 330/230
f 336/181 347/192 329/178
f 336/181 345/191 347/192
f 332/177 333/179 328/228
f 323/225 312/197 310/199
f 323/225 351/227 312/197
f 355/196 312/197 351/227
usemtl mat_4
f 55/231 57/232 47/233
f 55/231 62/234 57/232
f 60/235 57/232 62/234
f 60/235 39/236 57/232
f 58/237 57/232 39/236
f 58/237 37/238 57/232
f 64/239 57/232 37/238
f 64/239 66/240 57/232
f 252/241 57/232 66/240
f 252/241 238/242 57/232
f 236/243 57/232 238/242
f 236/243 240/244 57/232
f 248/245 57/232 240/244
f 248/245 250/246 57/232
f 246/247 57/232 250/246
f 246/247 47/233 57/232
usemtl mat_5
f 77/248 75/249 74/250
f 77/248 78/251 75/249
f 79/252 78/251 77/248
f 79/252 80/253 78/251
f 81/254 80/253 79/252
f 81/254 82/255 80/253
f 83/256 82/255 81/254
f 83/256 84/257 82/255
f 87/258 82/259 84/260
f 87/258 88/261 82/259
f 105/262 88/261 87/258
f 105/262 104/263 88/261
f 88/261 80/264 82/259
f 88/261 89/265 80/264
f 104/263 89/265 88/261
f 104/263 103/266 89/265
f 89/267 78/251 80/253
f 89/267 90/268 78/251
f 103/269 90/268 89/267
f 103/269 102/270 90/268
f 92/271 94/272 86/273
f 92/271 93/274 94/272
f 101/275 93/274 92/271
f 101/275 102/270 93/274
f 106/276 102/270 101/275
f 106/276 90/268 102/270
f 75/249 90/268 106/276
f 75/249 78/251 90/268
f 93/274 97/277 94/272
f 93/274 96/278 97/277
f 95/279 96/278 93/274
f 98/280 97/277 96/278
f 98/280 99/281 97/277
f 100/282 99/281 98/280
f 100/282 91/283 99/281
f 102/270 95/279 93/274
f 102/270 96/278 95/279
f 103/269 96/278 102/270
f 104/284 96/278 103/269
f 104/284 98/280 96/278
f 105/285 98/280 104/284
f 105/285 100/282 98/280
f 260/286 263/287 261/288
f 260/286 262/289 263/287
f 290/290 262/289 260/286
f 290/290 275/291 262/289
f 285/292 275/291 290/290
f 285/292 286/293 275/291
f 277/294 286/293 285/292
f 277/294 279/295 286/293
f 271/296 279/295 277/294
f 271/296 278/297 279/295
f 262/289 265/298 263/287
f 262/289 264/299 265/298
f 275/291 264/299 262/289
f 275/291 274/300 264/299
f 286/293 274/300 275/291
f 286/293 287/301 274/300
f 279/295 287/301 286/293
f 279/295 281/302 287/301
f 278/297 281/302 279/295
f 278/297 280/303 281/302
f 266/304 265/298 264/299
f 266/304 267/305 265/298
f 268/306 267/305 266/304
f 268/306 269/307 267/305
f 266/259 272/258 268/260
f 266/259 273/261 272/258
f 264/264 273/261 266/259
f 264/264 274/265 273/261
f 282/308 281/302 280/303
f 282/308 283/309 281/302
f 276/310 283/309 282/308
f 276/310 284/311 283/309
f 283/309 287/301 281/302
f 283/309 288/312 287/301
f 284/311 288/312 283/309
f 284/311 289/313 288/312
f 288/263 274/265 287/266
f 288/263 273/261 274/265
f 289/262 273/261 288/263
f 289/262 272/258 273/261
f 83/256 85/314 84/257
f 83/256 91/283 85/314
f 100/282 85/314 91/283
f 100/282 105/285 85/314
f 85/315 87/258 84/260
f 85/315 105/262 87/258
f 270/316 269/307 268/306
f 270/316 276/310 269/307
f 284/311 276/310 270/316
f 270/316 289/313 284/311
f 272/258 270/315 268/260
f 272/258 289/262 270/315
f 75/249 76/317 74/250
f 75/249 106/276 76/317
f 101/275 76/317 106/276
f 101/275 92/271 76/317
f 86/273 76/317 92/271
f 86/273 74/250 76/317
f 186/318 168/319 185/320
f 186/318 170/321 168/319
f 139/319 170/321 186/318
f 186/318 185/320 139/319
f 261/288 259/322 260/286
f 261/288 271/296 259/322
f 277/294 259/322 271/296
f 277/294 285/292 259/322
f 290/290 259/322 285/292
f 290/290 260/286 259/322
f 353/318 354/320 337/319
f 353/318 321/319 354/320
f 338/321 321/319 353/318
f 353/318 337/319 338/321
