# Blender v2.66 (sub 1) OBJ File: 'BR_Nidorina-Shiny01.blend'
# www.blender.org
mtllib BR_Nidorina-Shiny01.mtl
o nidorina
v 1.724580 -3.260070 -2.203570
v 1.524550 -2.121260 -1.563840
v 0.000000 -1.973010 -0.624700
v 2.087460 -1.145110 -4.542090
v 2.240710 -1.245300 -4.316440
v 1.913700 -2.029180 -4.636990
v -2.191110 -0.242657 -2.981800
v -2.055000 -0.640316 -4.310870
v -2.240710 -1.245300 -4.316440
v -2.087460 -1.145110 -4.542090
v -1.913700 -2.029180 -4.636990
v 2.055000 -0.640315 -4.310870
v 0.000000 0.614652 -1.412180
v 0.000000 -0.475191 -0.813736
v 1.304130 -1.184240 -1.092020
v 2.191110 -0.242656 -2.981800
v 2.061040 -3.120610 -2.242200
v 1.735410 -0.145324 -1.940730
v 1.873610 -3.164370 -2.640430
v -1.304130 -1.184240 -1.092020
v -1.524550 -2.121260 -1.563840
v -2.052330 -0.396436 -2.063600
v -1.735410 -0.145325 -1.940730
v -1.724580 -3.260070 -2.203570
v -2.061040 -3.120610 -2.242200
v -1.873610 -3.164370 -2.640430
v 2.052330 -0.396435 -2.063600
v 2.591500 -0.507966 -2.820230
v 1.524670 -3.274330 -3.830080
v 2.313350 -2.605190 -3.825220
v 0.000000 -2.088040 -4.860030
v 0.000000 -3.666680 -3.475130
v -1.524670 -3.274330 -3.830080
v -2.591500 -0.507967 -2.820230
v -2.313350 -2.605190 -3.825220
v 0.000000 -3.876880 -1.328570
v 0.908500 -4.261000 -2.762300
v -0.908500 -4.261000 -2.762300
v 0.000000 -4.080030 -3.452270
v 0.000000 -4.425180 -1.610650
v 0.000000 -5.551120 -2.504220
v 0.487428 -5.065790 -3.294370
v 0.000000 -4.811930 -3.653590
v -0.487428 -5.065790 -3.294370
v 0.000000 -6.091810 -4.115860
v 1.906850 -0.190271 -4.440100
v 1.783750 0.485184 -3.317940
v 1.434240 0.810880 -2.603720
v 0.000000 -0.178431 -5.921620
v 1.256630 -0.103215 -5.508210
v 1.627710 -0.844544 -5.219060
v 0.000000 -0.745664 -5.617150
v -1.256630 -0.103216 -5.508210
v -1.627710 -0.844544 -5.219060
v 1.499570 1.035230 -3.891480
v -1.783750 0.485184 -3.317940
v -1.434240 0.810879 -2.603720
v -1.499570 1.035230 -3.891480
v -1.906850 -0.190271 -4.440100
v 0.000000 1.073910 -2.107010
v 0.000000 1.434520 -2.625050
v -1.792110 0.329873 -4.708110
v -1.686320 0.058623 -5.228830
v 0.997960 1.347880 -3.133340
v -0.997961 1.347880 -3.133340
v 1.686320 0.058623 -5.228830
v 1.792110 0.329873 -4.708110
v 0.779418 0.206958 -5.776790
v 0.000000 0.042237 -6.056020
v -0.779418 0.206958 -5.776790
v -1.255540 1.489130 -3.685730
v 1.877840 0.845109 -4.905770
v 1.615850 0.511385 -5.324940
v 0.000000 1.616180 -2.996400
v 1.778700 1.139450 -4.443460
v -1.615850 0.511385 -5.324940
v -1.877840 0.845109 -4.905770
v -1.778700 1.139450 -4.443460
v 1.255540 1.489130 -3.685730
v 1.417840 1.039730 -5.567900
v 1.767030 1.459680 -5.232940
v -1.495670 3.077980 -4.982320
v -1.847370 2.742400 -4.665670
v -0.899900 4.129960 -4.487240
v -0.503813 3.451330 -5.385670
v -1.053600 3.830700 -5.052370
v 0.899900 4.129960 -4.487240
v 1.847370 2.742400 -4.665670
v 1.495670 3.077980 -4.982320
v 1.053600 3.830700 -5.052370
v 0.503813 3.451330 -5.385670
v -1.211900 2.939900 -5.552810
v -1.268900 2.315230 -6.208530
v -1.512750 2.188160 -5.576060
v 1.211900 2.939900 -5.552810
v 1.942510 2.213860 -4.864000
v -1.417840 1.039730 -5.567900
v -1.211400 1.348860 -6.494920
v -0.750200 0.552800 -6.595770
v 2.005770 1.532010 -4.771590
v 0.000000 0.549402 -6.695570
v 0.750200 0.552800 -6.595770
v 0.000000 3.522570 -4.990940
v -1.547980 1.755910 -4.053420
v -2.005770 1.532010 -4.771590
v -1.767030 1.459680 -5.232940
v -0.715453 2.620940 -6.606280
v -0.788800 1.699570 -6.797890
v 0.000000 2.742400 -4.665670
v 1.547980 1.755910 -4.053420
v -1.474710 2.566600 -4.026890
v -1.521530 1.832880 -6.439290
v -0.865752 2.463740 -3.751960
v 1.512750 2.188160 -5.576060
v 1.268920 2.315230 -6.208530
v 0.865752 2.463740 -3.751960
v -1.942510 2.213860 -4.864000
v 0.000000 1.694400 -6.950060
v 0.000000 2.909770 -6.773950
v 0.715453 2.620940 -6.606280
v 0.000000 3.761750 -5.608430
v 0.788826 1.699570 -6.797890
v 1.521530 1.832880 -6.439290
v 1.211400 1.348860 -6.494920
v 1.474710 2.566600 -4.026890
v 0.000000 2.079780 -3.381690
v 1.706540 2.937600 -4.633340
v 1.655250 3.137780 -4.626460
v 1.624720 3.098420 -3.987100
v 1.464270 3.339520 -4.622970
v -1.543510 3.098420 -3.987100
v -1.574040 3.137780 -4.626460
v -1.625330 2.937600 -4.633340
v -1.383060 3.339520 -4.622970
v 0.000000 3.252450 -3.609870
v -0.957780 3.850210 -4.526230
v 0.000000 4.246440 -4.480270
v 0.000000 2.969980 -4.440340
v 0.000000 3.977650 -3.914470
v -0.785263 3.596240 -4.002310
v 1.283760 3.038070 -4.011160
v -1.283760 3.038070 -4.011160
v 0.785263 3.596240 -4.002310
v 0.957780 3.850210 -4.526230
v 2.341900 -0.831405 -4.922780
v 2.648970 -0.815873 -4.740640
v 2.207010 -0.590658 -6.303030
v 2.240120 -0.285911 -7.683280
v 1.761300 0.686102 -7.449270
v 2.092290 0.818057 -7.366810
v 2.483650 -0.246922 -7.595410
v 2.566310 -0.531399 -6.168020
v 1.725580 0.846403 -7.811130
v 2.004570 1.033670 -7.707060
v 2.160240 0.674400 -8.020240
v 1.870570 0.563969 -8.012940
v 1.913020 0.455956 -7.837350
v 2.213110 0.544100 -7.802440
v 1.549770 1.179990 -7.386710
v 1.876390 1.326800 -7.343420
v 2.589970 -1.083510 -7.486180
v 2.681290 -1.321290 -6.905310
v 2.832780 -1.742670 -6.077020
v 3.011690 -2.006230 -7.372640
v 3.050050 -2.130340 -7.144500
v 2.866480 -1.813930 -5.727240
v 3.016970 -1.728340 -5.656170
v 2.997220 -1.654270 -6.056010
v 2.838940 -1.203140 -6.933320
v 2.759680 -0.971291 -7.461710
v 3.034590 -2.129210 -5.982470
v 3.162530 -2.092210 -5.957360
v 3.030660 -2.132860 -5.691440
v 3.166780 -1.953640 -7.364450
v 3.210410 -2.064390 -7.162090
v 3.180700 -2.113000 -5.644510
v -0.666100 4.466150 -4.676300
v 0.000000 4.697500 -4.369310
v -0.320200 4.433170 -5.418620
v 0.320200 4.433170 -5.418620
v 0.666100 4.466150 -4.676300
v -0.610599 4.211980 -5.276970
v 0.610600 4.211980 -5.276970
v 0.000000 4.363670 -4.591030
v -2.648970 -0.815873 -4.740640
v -2.341900 -0.831405 -4.922780
v -2.207010 -0.590658 -6.303030
v -2.092290 0.818057 -7.366810
v -1.761300 0.686102 -7.449270
v -2.240120 -0.285911 -7.683280
v -2.483650 -0.246922 -7.595410
v -2.566310 -0.531399 -6.168020
v -2.160240 0.674400 -8.020240
v -2.004570 1.033670 -7.707060
v -1.725580 0.846403 -7.811130
v -1.870570 0.563969 -8.012940
v -1.913020 0.455956 -7.837350
v -2.213110 0.544100 -7.802440
v -1.549770 1.179990 -7.386710
v -1.876390 1.326800 -7.343420
v -2.589970 -1.083500 -7.486180
v -2.832780 -1.742670 -6.077020
v -2.681290 -1.321290 -6.905310
v -3.050050 -2.130340 -7.144500
v -3.011690 -2.006230 -7.372640
v -2.866480 -1.813930 -5.727240
v -2.997220 -1.654270 -6.056010
v -3.016970 -1.728340 -5.656170
v -2.759680 -0.971291 -7.461710
v -2.838940 -1.203140 -6.933320
v -3.034590 -2.129210 -5.982470
v -3.162530 -2.092210 -5.957360
v -3.030660 -2.132860 -5.691440
v -3.210410 -2.064390 -7.162090
v -3.166780 -1.953640 -7.364450
v -3.180700 -2.112990 -5.644510
v 2.067740 0.074912 -2.794030
v 2.746390 0.315915 -3.276670
v 2.696340 0.412550 -3.211970
v 2.696340 0.412550 -3.211970
v 2.560700 1.072600 -3.481550
v 2.560700 1.072600 -3.481550
v 2.590000 1.077830 -3.587960
v 2.625330 0.050059 -3.763670
v 2.402020 0.889402 -3.973780
v 1.989090 -0.154065 -4.189970
v 1.934580 0.484891 -4.491460
v 1.405100 0.117423 -4.451800
v 1.532330 -0.263448 -3.803070
v 1.371290 1.062980 -2.937240
v 2.079170 0.148491 -2.810800
v 2.079170 0.148491 -2.810800
v 1.445840 1.047010 -2.941040
v 1.445840 1.047010 -2.941040
v 1.007970 0.480478 -3.910900
v 1.958220 1.459730 -3.363750
v 1.958220 1.459730 -3.363750
v 1.894460 1.524550 -3.451850
v 1.671300 1.403560 -3.959850
v 1.319380 0.796066 -4.327690
v 1.556160 1.253950 -2.324490
v 2.219650 0.658416 -1.738630
v 1.855070 1.590060 -2.649280
v 2.605210 1.509020 -2.500590
v 2.671610 0.927435 -2.006740
v 1.952470 1.135590 -1.191900
v 2.244070 1.181710 -1.139930
v 1.479090 1.449590 -1.675270
v 2.265020 1.624770 -1.568010
v 1.693920 1.749180 -1.753350
v 1.914300 1.203750 -1.113800
v 1.792650 1.676840 -1.296440
v 2.144120 1.591190 -1.376040
v 1.711230 1.738360 -1.330470
v 1.442460 1.507870 -1.495770
v 1.580030 1.798450 -1.596250
v 2.150810 1.255950 -1.004060
v 2.016900 1.658280 -1.150720
v 1.937220 1.477320 -1.104360
v 1.249240 1.844450 -1.253590
v 1.937320 1.386690 -0.789480
v 1.815390 1.725380 -0.925409
v -2.696340 0.412550 -3.211970
v -2.696340 0.412550 -3.211970
v -2.746390 0.315915 -3.276670
v -2.067740 0.074912 -2.794030
v -2.560700 1.072600 -3.481550
v -2.560700 1.072600 -3.481550
v -2.590000 1.077830 -3.587960
v -2.625330 0.050059 -3.763670
v -2.402020 0.889402 -3.973780
v -1.934580 0.484891 -4.491460
v -1.989090 -0.154065 -4.189970
v -1.405100 0.117423 -4.451800
v -1.532330 -0.263448 -3.803070
v -2.079170 0.148491 -2.810800
v -2.079170 0.148491 -2.810800
v -1.371290 1.062980 -2.937240
v -1.445840 1.047010 -2.941040
v -1.445840 1.047010 -2.941040
v -1.007970 0.480478 -3.910900
v -1.894460 1.524550 -3.451850
v -1.671300 1.403560 -3.959850
v -1.319380 0.796066 -4.327690
v -1.958220 1.459730 -3.363750
v -1.958220 1.459730 -3.363750
v -1.556160 1.253950 -2.324490
v -2.219650 0.658416 -1.738630
v -2.605210 1.509020 -2.500590
v -1.855070 1.590060 -2.649280
v -2.671610 0.927435 -2.006740
v -2.244070 1.181710 -1.139930
v -1.952470 1.135590 -1.191900
v -1.479090 1.449590 -1.675270
v -2.265020 1.624770 -1.568010
v -1.693920 1.749180 -1.753350
v -1.914300 1.203750 -1.113800
v -2.144120 1.591190 -1.376040
v -1.792650 1.676840 -1.296440
v -1.711230 1.738360 -1.330470
v -1.442460 1.507870 -1.495780
v -1.580030 1.798450 -1.596250
v -2.150810 1.255950 -1.004060
v -2.016900 1.658280 -1.150720
v -1.937220 1.477320 -1.104360
v -1.937320 1.386690 -0.789480
v -1.815390 1.725380 -0.925409
v -1.249240 1.844450 -1.253590
v -0.957331 -2.554950 -6.211340
v -1.454730 -1.044440 -4.926340
v -0.957333 0.013468 -5.281460
v -0.957331 -1.930310 -4.628560
v -0.459934 -1.044440 -4.926340
v 1.020810 0.013435 -5.281490
v 1.518210 -1.044480 -4.926370
v 1.020810 -2.554980 -6.211370
v 1.020810 -1.930350 -4.628590
v 0.523411 -1.044480 -4.926370
v 2.219030 -0.186540 -1.580450
v 2.850790 -0.550631 -2.038350
v 2.916420 -2.347510 -3.019090
v 3.184240 -2.297740 -2.187720
v 1.408230 -1.282700 -1.013330
v 2.049570 -2.532010 -1.427550
v 2.593500 -2.866310 -1.724600
v 2.240170 -2.225710 -0.953316
v 1.696290 -1.408010 -0.811207
v 3.002740 -0.590871 -1.308560
v 3.260930 -1.669650 -1.455740
v 1.867980 -0.799152 -0.864459
v 2.370640 -0.190293 -0.917711
v 2.715660 -2.126040 -1.169260
v 2.062660 -2.054460 -0.020348
v 1.754580 -1.290640 -0.005274
v 1.725430 -1.349330 -0.408241
v 2.325990 -0.421363 -0.394635
v 2.551500 -2.052860 -0.022529
v 2.238710 -0.735021 -0.018045
v 2.901510 -0.815728 -0.630798
v 2.649760 -0.983183 -0.012005
v 2.878930 -1.690330 0.003903
v 2.238700 -0.735022 -0.018045
v 2.582730 0.061758 -0.033235
v 2.044220 -0.821788 -0.032901
v 2.567260 -0.981830 -0.084739
v 2.339630 -0.645403 -0.484988
v 1.684280 -0.220737 -0.048947
v 1.879160 -1.161360 -0.020930
v 2.044060 -1.082440 -0.472145
v 3.241080 -0.511802 -0.014106
v 2.339530 -0.974278 -0.058672
v 2.629680 -1.463430 -0.037747
v 2.815420 -1.019450 -0.605720
v 0.637138 -2.082880 -4.493700
v 1.109110 -2.544030 -4.120460
v 0.637138 -3.373920 -5.183090
v 0.637138 -3.103850 -3.845880
v 0.165172 -2.544030 -4.120460
v -0.573646 -3.373920 -5.183100
v -1.045610 -2.544020 -4.120460
v -0.573646 -2.082870 -4.493700
v -0.573646 -3.103840 -3.845890
v -0.101679 -2.544020 -4.120460
v -2.219030 -0.186541 -1.580450
v -2.850790 -0.550631 -2.038350
v -3.184240 -2.297740 -2.187720
v -2.916420 -2.347510 -3.019090
v -1.408230 -1.282700 -1.013330
v -2.049570 -2.532010 -1.427550
v -2.593500 -2.866310 -1.724600
v -2.240170 -2.225710 -0.953316
v -1.696290 -1.408010 -0.811207
v -3.260930 -1.669650 -1.455740
v -3.002740 -0.590871 -1.308560
v -2.370640 -0.190293 -0.917711
v -1.867980 -0.799151 -0.864459
v -2.715660 -2.126040 -1.169260
v -1.725430 -1.349330 -0.408241
v -1.754580 -1.290640 -0.005274
v -2.062660 -2.054460 -0.020348
v -2.325980 -0.421363 -0.394635
v -2.238700 -0.735022 -0.018045
v -2.551500 -2.052860 -0.022529
v -2.901510 -0.815727 -0.630798
v -2.649760 -0.983183 -0.012005
v -2.878930 -1.690330 0.003903
v -2.238700 -0.735022 -0.018045
v -1.879160 -1.161360 -0.020930
v -1.684280 -0.220738 -0.048947
v -2.044060 -1.082440 -0.472145
v -2.629680 -1.463430 -0.037747
v -2.339530 -0.974278 -0.058672
v -3.241080 -0.511801 -0.014106
v -2.815420 -1.019450 -0.605720
v -2.567260 -0.981830 -0.084739
v -2.044210 -0.821788 -0.032901
v -2.582730 0.061758 -0.033235
v -2.339630 -0.645403 -0.484988
vt 0.000000 0.000000
vt 0.488263 0.812444
vt 0.384649 0.870811
vt 0.356014 0.961513
vt 0.553933 0.913047
vt 0.964625 0.319566
vt 1.000000 0.586378
vt 0.609951 0.661752
vt 0.404860 0.066540
vt 0.179836 0.197996
vt 0.828952 0.739465
vt 0.531380 0.801231
vt 0.966149 0.920262
vt 0.363398 0.641071
vt 0.134319 0.642046
vt 0.511231 0.845905
vt 0.000000 0.570947
vt 0.139201 0.316252
vt 0.171964 0.403757
vt 0.186947 0.323990
vt 0.529071 0.188113
vt 0.579823 0.000000
vt 0.849855 0.093606
vt 0.000000 0.479529
vt 0.500000 0.233805
vt 0.500000 0.000000
vt 0.236603 0.711084
vt 0.500000 1.000000
vt 0.500000 0.997030
vt 0.763397 0.711084
vt 1.000000 0.479529
vt 0.043386 0.932482
vt 0.000000 0.844203
vt 0.292275 1.000000
vt 0.325277 0.908323
vt 0.396288 0.846370
vt 0.287080 0.671462
vt 0.089611 0.642805
vt 0.264094 0.348074
vt 0.583453 0.422615
vt 0.824801 0.549803
vt 0.515306 0.730897
vt 0.287079 0.671462
vt 0.089610 0.642805
vt 0.734356 0.529999
vt 0.676281 0.369118
vt 0.929207 0.309150
vt 0.283239 0.607136
vt 0.570341 0.664745
vt 0.384382 0.786917
vt 0.132092 0.758905
vt 0.041912 0.840333
vt 0.214748 0.918615
vt 0.000000 0.960826
vt 0.122961 1.000000
vt 0.652109 0.502298
vt 0.813802 0.520017
vt 0.732311 0.604319
vt 0.878087 0.377078
vt 0.580025 0.422209
vt 0.466488 0.472373
vt 0.320020 0.448999
vt 0.542260 0.260642
vt 0.368115 0.267353
vt 0.520165 0.191104
vt 0.310809 0.174353
vt 0.338100 0.000000
vt 0.437686 0.097452
vt 0.235694 0.366005
vt 0.172466 0.482937
vt 0.100778 0.588958
vt 0.304482 0.565688
vt 0.460967 0.652474
vt 0.214272 0.650410
vt 0.035384 0.703244
vt 0.109674 0.910389
vt 0.280677 0.884883
vt 0.356013 0.961512
vt 0.488263 0.812445
vt 0.354902 1.000000
vt 0.615978 0.955456
vt 0.108945 0.935631
vt 0.000000 0.773870
vt 0.035989 0.039682
vt 0.060089 0.039682
vt 0.000000 0.730886
vt 0.523429 1.000000
vt 0.620090 0.806786
vt 0.884574 0.806786
vt 0.686302 0.436508
vt 1.000000 0.436508
vt 0.969286 0.039682
vt 0.638502 0.039682
vt 0.605040 0.000000
vt 0.686303 0.436508
vt 0.620091 0.806786
vt 0.605039 0.000000
vt 0.873457 0.000000
vt 0.714322 0.125722
vt 0.690325 0.833260
vt 0.000000 1.000000
vt 0.117402 0.388066
vt 0.098668 0.910572
vt 0.639946 0.358395
vt 0.843903 0.131092
vt 0.416093 0.032645
vt 0.664957 0.253666
vt 1.000000 0.366720
vt 0.929514 0.478552
vt 0.631893 0.235452
vt 0.212357 0.331328
vt 0.589812 0.188668
vt 0.315216 0.221561
vt 0.372725 0.005613
vt 0.373262 0.006118
vt 0.348686 0.271545
vt 0.100092 0.400085
vt 0.014697 0.519891
vt 0.350294 0.362876
vt 0.998740 0.213320
vt 0.921143 0.092247
vt 0.629226 0.002124
vt 0.815812 0.005080
vt 0.609519 0.095396
vt 0.768260 0.824166
vt 1.000000 0.563723
vt 0.500000 0.437393
vt 0.500000 0.901459
vt 0.000000 0.563723
vt 0.231740 0.824166
vt 0.500000 0.713167
vt 1.000000 0.490278
vt 0.000000 0.490278
vt 0.500000 0.177713
vt 0.265679 0.288376
vt 0.734321 0.288376
vt 0.847457 0.490245
vt 0.712536 0.483352
vt 0.759228 0.891400
vt 0.500000 0.414944
vt 0.500000 0.855603
vt 0.240772 0.891400
vt 0.287464 0.483352
vt 0.152543 0.490246
vt 0.100860 0.502500
vt 0.899140 0.502500
vt 1.000000 1.000000
vt 0.905894 0.150109
vt 0.328174 0.055536
vt 0.332090 0.000000
vt 0.799999 0.252243
vt 0.388881 0.476395
vt 0.080421 0.300825
vt 0.098389 0.407478
vt 0.000000 0.289908
vt 0.000919 0.378648
vt 0.010248 0.370992
vt 0.120680 0.401073
vt 0.204645 0.660037
vt 0.234437 0.668577
vt 0.134178 0.751960
vt 0.150809 0.757324
vt 0.178735 0.819026
vt 0.165473 0.821525
vt 0.264605 0.837153
vt 0.292901 0.829692
vt 0.475557 0.870462
vt 0.465726 0.897255
vt 0.744102 0.800757
vt 0.710828 0.825902
vt 0.652795 0.944233
vt 0.751250 0.936239
vt 0.680031 0.997775
vt 0.707878 1.000000
vt 0.675021 0.933590
vt 0.877950 0.534907
vt 0.835367 0.806826
vt 1.000000 0.517943
vt 0.872386 0.793626
vt 0.798472 0.904508
vt 0.102003 0.279154
vt 0.005008 0.275599
vt 0.218317 1.000000
vt 0.092727 0.444379
vt 0.229454 0.956861
vt 0.000000 0.069995
vt 0.760486 0.965278
vt 0.408961 0.000000
vt 0.750463 0.127997
vt 1.000000 0.940803
vt 0.773466 0.915002
vt 0.470243 0.435649
vt 0.499998 0.412500
vt 0.000000 0.188133
vt 1.000000 0.188133
vt 0.499999 0.412499
vt 1.000000 0.205336
vt 0.499998 1.000000
vt 0.499998 0.484453
vt 0.499998 0.000000
vt 0.000000 0.205336
vt 0.500001 0.484453
vt 0.500001 1.000000
vt 0.500001 0.000000
vt 1.826550 0.148678
vt 0.568470 1.176740
vt 2.084330 1.884220
vt -1.854220 0.310322
vt -1.499970 -0.331364
vt 0.166349 1.033680
vt 1.488020 1.041330
vt -0.702395 -0.793591
vt -0.122787 -1.015730
vt 0.500000 0.389693
vt 0.137175 0.193836
vt 0.500000 -0.024040
vt 0.496899 0.690734
vt 0.841268 0.193836
vt 0.896868 0.480811
vt 0.969907 0.411448
vt 1.144060 0.377799
vt 1.051740 0.485175
vt 0.827454 0.744938
vt 0.992199 0.650462
vt 0.983360 0.807146
vt 0.726903 0.893271
vt 0.496899 0.917203
vt 0.496899 0.967382
vt 0.252319 0.893271
vt -0.032002 0.936444
vt -0.011330 0.807146
vt 0.145484 0.744938
vt 0.496899 0.817592
vt 0.071732 0.480810
vt -0.089707 0.485175
vt -0.137904 0.380640
vt -0.005872 0.411448
vt -0.025079 0.650462
vt 1.008250 0.936444
vt 0.237250 0.453000
vt 0.173750 0.258000
vt 0.215750 1.023000
vt 0.256750 -0.328000
vt 0.220750 -0.336000
vt 0.053750 0.133000
vt 0.094750 1.484000
vt -0.011750 0.281000
vt -0.011750 1.547000
vt 0.874931 0.882243
vt 0.495018 0.516223
vt 1.040230 0.046081
vt 0.685877 1.084840
vt 0.484602 0.978638
vt 0.304159 1.084840
vt 0.110188 0.882243
vt -0.049049 0.046081
vt 0.496923 0.046081
vt 0.788959 0.833995
vt 0.783886 0.714434
vt 0.797480 0.835281
vt 0.757230 0.833342
vt 0.243931 0.835281
vt 0.257524 0.714434
vt 0.252452 0.833995
vt 0.284181 0.833342
vt 0.940478 -0.015310
vt 0.943048 -0.024941
vt 0.853581 -0.025004
vt 0.902660 0.059537
vt 0.885892 -0.027782
vt 0.793782 -0.022003
vt 0.826158 -0.027242
vt 0.853555 0.057135
vt 0.950848 -0.024098
vt 1.052425 -0.028519
vt 0.902643 -0.020185
vt 0.981706 0.082114
vt 0.201760 -0.027242
vt 0.234137 -0.022003
vt 0.142027 -0.027782
vt 0.174364 0.057135
vt 0.125275 -0.020185
vt -0.024506 -0.028519
vt 0.077071 -0.024098
vt 0.046212 0.082114
vt 0.174339 -0.025004
vt 0.084871 -0.024941
vt 0.087441 -0.015310
vt 0.125259 0.059537
vt 0.507047 0.004331
vt 0.499235 0.299497
vt 0.189402 0.085389
vt 0.837037 0.085389
vt 1.035350 0.290562
vt 0.499235 0.381745
vt -0.030318 0.290562
vt 0.213190 0.111619
vt 0.253414 0.963738
vt 0.082363 0.759230
vt 0.682734 0.511112
vt 0.795924 -0.044273
vt 0.935593 0.262439
vt 0.925522 0.474820
vt 0.872833 0.752402
vt 0.828918 0.968791
vt 0.640725 1.052610
vt 0.372841 1.246330
vt 0.315914 0.998460
vt 0.399710 1.152900
vt 0.270837 1.145160
vt 0.184310 1.020150
vt 0.063266 0.793953
vt 0.964245 0.941796
vt 0.890194 0.762819
vt 0.990348 0.852744
vt 0.842807 1.000040
vt 0.966843 0.265911
vt 1.112710 0.308781
vt 0.965452 0.422737
vt 1.111980 0.181653
vt 0.274875 0.932988
vt 0.059088 0.939713
vt 0.034245 0.871322
vt 0.698980 0.932988
vt 0.490661 0.986804
vt 0.907298 0.939713
vt 0.830698 0.980546
vt 0.150625 0.980546
vt 0.947078 0.871322
vt 0.475309 -0.244663
vt 0.377661 0.911607
vt 0.053681 0.390517
vt 0.554410 0.911607
vt 0.916019 0.463434
vt 0.300110 0.080355
vt 0.202005 0.156177
vt 0.240918 0.099613
vt 0.314161 0.134882
vt 0.341197 0.207291
vt 0.735495 0.156177
vt 0.637390 0.080355
vt 0.696582 0.099613
vt 0.623339 0.134882
vt 0.596303 0.207291
vt 0.468750 0.084739
vt 0.468750 0.043608
vt 0.354972 -0.209086
vt 0.474139 -0.533895
vt 0.588227 -0.208155
vt 0.541515 -0.155853
vt 0.474517 -0.396126
vt 0.405432 -0.154784
vt 0.476684 0.018770
vt 0.467247 1.615250
vt 0.995259 0.020751
vt -0.016121 0.015914
vt 0.478045 -0.908895
vt 0.489994 1.186130
vt 0.491292 0.304952
vt 1.001130 0.033543
vt -0.010880 0.042762
vt 0.489857 -0.395751
vt -0.057842 0.053234
vt 0.472443 0.048054
vt 0.473836 1.347790
vt 0.478611 -0.662740
vt 1.017760 0.057848
vt -0.273224 0.093081
vt -0.231693 0.567010
vt -0.124875 0.291350
vt -0.052366 0.307478
vt 0.389550 0.871210
vt -0.256617 1.121770
vt 0.568514 1.068040
vt 0.823999 0.873222
vt 0.886742 0.730530
vt 0.938504 0.498755
vt 0.595088 0.565341
vt 0.191685 0.085926
vt 0.571562 0.366853
vt 0.122469 0.323110
vt 0.604113 0.139386
vt 0.611168 -0.090229
vt 1.344490 0.094902
vt 1.211290 -0.310501
vt 1.398940 -0.331141
vt 1.431040 -0.006760
vt 1.811680 0.095411
vt 1.514830 0.273023
vt 0.527208 -0.113169
vt 0.844914 -0.250822
vt 0.716340 -0.229746
vt -0.419265 0.270415
vt -0.262485 -0.225690
vt -0.170295 0.029992
vt -0.089986 0.073004
vt 0.321372 0.796957
vt 0.577445 0.572583
vt 1.020200 0.631239
vt 0.856702 0.847372
vt 0.718853 0.969086
vt 0.326072 1.072840
vt -0.478871 1.017860
vt 0.990310 0.784081
vt 0.550369 -0.085643
vt 0.992014 0.098695
vt 0.660868 1.148730
vt 0.001591 0.859573
vt 0.063652 0.096529
usemtl mat_0
s 1
f 54/1 31/1 11/1
f 51/1 6/1 31/1
f 115/2 123/3 122/4
f 120/5 115/2 122/4
f 230/1 233/1 236/1
f 231/1 217/1 219/1
f 248/6 241/7 242/8
f 259/9 247/10 253/10
f 263/1 266/1 276/1
f 288/8 287/7 294/6
f 298/10 292/10 305/9
f 5/11 6/12 4/13
f 5/11 30/14 6/12
f 29/15 6/12 30/14
f 29/15 31/16 6/12
f 32/17 31/16 29/15
f 32/17 33/15 31/16
f 24/18 33/15 32/17
f 24/18 26/19 33/15
f 25/20 26/19 24/18
f 24/18 21/21 25/20
f 3/22 21/21 24/18
f 3/22 20/23 21/21
f 19/19 29/15 30/14
f 19/19 1/18 29/15
f 17/20 1/18 19/19
f 2/20 1/21 17/18
f 3/22 1/18 2/21
f 2/21 15/23 3/22
f 29/15 1/18 32/17
f 33/15 11/12 31/16
f 33/15 35/14 11/12
f 26/19 35/14 33/15
f 9/11 11/12 35/14
f 9/11 10/11 11/12
f 24/24 36/25 3/26
f 24/24 38/27 36/25
f 32/28 38/27 24/24
f 32/28 39/29 38/27
f 37/30 39/29 32/28
f 32/28 1/31 37/30
f 37/26 1/30 36/31
f 36/26 40/25 37/30
f 1/31 3/26 36/26
f 38/27 40/25 36/25
f 52/32 51/33 31/32
f 52/32 49/34 51/33
f 50/35 51/33 49/34
f 50/35 66/36 51/33
f 46/37 51/33 66/36
f 46/37 12/38 51/33
f 16/39 12/38 46/37
f 46/37 47/40 16/39
f 55/41 47/40 46/37
f 46/37 67/42 55/41
f 66/36 67/42 46/37
f 4/38 51/33 12/38
f 4/38 6/38 51/33
f 54/33 52/34 31/32
f 54/33 49/34 52/34
f 53/35 49/34 54/33
f 54/33 63/36 53/35
f 59/43 63/36 54/33
f 59/43 62/42 63/36
f 58/41 62/42 59/43
f 59/43 56/40 58/41
f 7/39 56/40 59/43
f 59/43 8/44 7/39
f 54/33 8/44 59/43
f 54/33 10/33 8/44
f 11/33 10/33 54/33
f 78/45 58/46 71/47
f 78/45 62/48 58/46
f 77/49 62/48 78/45
f 77/49 76/50 62/48
f 63/51 62/48 76/50
f 76/50 53/52 63/51
f 70/53 53/52 76/50
f 70/53 49/54 53/52
f 69/55 49/54 70/53
f 69/55 68/53 49/54
f 50/52 49/54 68/53
f 68/53 73/50 50/52
f 66/51 50/52 73/50
f 73/50 67/48 66/51
f 72/49 67/48 73/50
f 72/49 75/45 67/48
f 55/46 67/48 75/45
f 75/45 79/47 55/46
f 82/56 86/57 85/58
f 82/56 84/59 86/57
f 83/60 84/59 82/56
f 82/56 117/61 83/60
f 105/62 83/60 117/61
f 105/62 111/63 83/60
f 104/64 111/63 105/62
f 104/64 113/65 111/63
f 71/66 113/65 104/64
f 71/66 74/67 113/65
f 126/68 113/65 74/67
f 74/67 116/65 126/68
f 79/66 116/65 74/67
f 79/66 110/64 116/65
f 75/69 110/64 79/66
f 75/69 100/62 110/64
f 72/70 100/62 75/69
f 72/70 73/71 100/62
f 81/72 100/62 73/71
f 81/72 96/61 100/62
f 114/73 96/61 81/72
f 81/72 123/3 114/73
f 115/2 114/73 123/3
f 73/71 80/74 81/72
f 73/71 68/75 80/74
f 102/76 80/74 68/75
f 102/76 124/77 80/74
f 122/4 124/77 102/76
f 122/4 123/3 124/77
f 104/64 78/69 71/66
f 104/64 105/62 78/69
f 77/70 78/69 105/62
f 105/62 76/71 77/70
f 106/72 76/71 105/62
f 106/72 97/74 76/71
f 70/75 76/71 97/74
f 97/74 99/76 70/75
f 98/77 99/76 97/74
f 98/77 108/78 99/76
f 112/3 108/78 98/77
f 112/3 93/79 108/78
f 94/73 93/79 112/3
f 112/3 106/72 94/73
f 117/61 94/73 106/72
f 106/72 105/62 117/61
f 107/5 108/78 93/79
f 107/5 118/80 108/78
f 119/81 118/80 107/5
f 119/81 120/5 118/80
f 122/4 118/80 120/5
f 122/4 102/76 118/80
f 101/82 118/80 102/76
f 101/82 99/76 118/80
f 69/83 99/76 101/82
f 69/83 70/75 99/76
f 99/76 108/78 118/80
f 102/76 69/83 101/82
f 102/76 68/75 69/83
f 110/64 125/63 116/65
f 110/64 100/62 125/63
f 88/60 125/63 100/62
f 100/62 96/61 88/60
f 89/56 88/60 96/61
f 89/56 87/59 88/60
f 90/57 87/59 89/56
f 89/56 91/58 90/57
f 231/84 230/85 217/84
f 231/84 233/84 230/85
f 235/86 217/85 230/84
f 235/86 229/86 217/85
f 228/87 229/86 235/86
f 228/87 226/88 229/86
f 227/89 226/88 228/87
f 227/89 224/90 226/88
f 225/91 224/90 227/89
f 225/91 223/92 224/90
f 238/93 223/92 225/91
f 238/93 236/94 223/92
f 230/85 236/94 238/93
f 238/93 239/95 230/85
f 225/91 239/95 238/93
f 225/91 227/89 239/95
f 240/96 239/95 227/89
f 240/96 235/86 239/95
f 228/87 235/86 240/96
f 240/96 227/89 228/87
f 235/86 230/85 239/95
f 224/90 229/86 226/88
f 224/90 217/85 229/86
f 218/93 217/85 224/90
f 218/93 219/97 217/85
f 221/98 219/97 218/93
f 218/93 223/92 221/98
f 224/90 223/92 218/93
f 236/94 221/98 223/92
f 247/10 246/99 242/99
f 247/10 251/99 246/99
f 246/8 248/8 242/8
f 246/8 251/8 248/8
f 250/100 244/101 243/100
f 250/100 249/102 244/101
f 253/102 249/102 250/100
f 249/101 245/103 244/101
f 249/101 247/10 245/103
f 253/101 247/10 249/101
f 242/8 245/103 247/10
f 241/7 250/104 243/100
f 241/7 248/7 250/104
f 255/6 250/104 248/7
f 250/102 252/9 253/10
f 250/102 254/100 252/9
f 251/99 255/6 248/6
f 251/99 252/105 255/6
f 259/105 252/105 251/99
f 252/105 254/106 255/6
f 278/85 276/84 266/84
f 278/85 279/84 276/84
f 266/85 281/86 278/84
f 266/85 275/86 281/86
f 270/90 275/86 266/85
f 270/90 273/88 275/86
f 272/89 273/88 270/90
f 272/89 274/87 273/88
f 284/96 274/87 272/89
f 284/96 281/86 274/87
f 283/95 281/86 284/96
f 283/95 278/85 281/86
f 282/93 278/85 283/95
f 282/93 279/1 278/85
f 285/1 279/1 282/93
f 274/87 275/86 273/88
f 274/87 281/86 275/86
f 272/89 283/95 284/96
f 272/89 271/91 283/95
f 270/90 271/91 272/89
f 270/90 269/92 271/91
f 265/93 269/92 270/90
f 265/93 267/98 269/92
f 263/97 267/98 265/93
f 265/93 266/85 263/97
f 270/90 266/85 265/93
f 271/91 282/93 283/95
f 271/91 269/92 282/93
f 267/98 282/93 269/92
f 267/98 285/94 282/93
f 293/99 292/10 288/99
f 293/99 297/99 292/10
f 294/8 293/8 288/8
f 294/8 297/8 293/8
f 289/101 296/100 290/100
f 289/101 295/102 296/100
f 298/102 296/100 295/102
f 291/103 295/101 289/101
f 291/103 292/10 295/101
f 288/8 292/10 291/103
f 292/10 298/101 295/101
f 296/104 287/7 290/100
f 296/104 294/7 287/7
f 301/6 294/7 296/104
f 299/9 296/102 298/10
f 299/9 300/100 296/102
f 301/6 297/99 294/6
f 301/6 299/105 297/99
f 300/106 299/105 301/6
f 305/105 297/99 299/105
f 15/107 319/108 27/109
f 15/107 323/110 319/108
f 324/111 323/110 15/107
f 324/111 327/112 323/110
f 326/113 327/112 324/111
f 326/113 333/114 327/112
f 337/115 333/114 326/113
f 326/113 332/116 337/115
f 325/117 332/116 326/113
f 326/113 324/111 325/117
f 17/118 325/117 324/111
f 324/111 2/119 17/118
f 15/107 2/119 324/111
f 330/112 323/110 327/112
f 330/112 319/108 323/110
f 331/120 319/108 330/112
f 336/121 334/122 338/123
f 336/121 335/124 334/122
f 330/120 335/124 336/121
f 330/120 327/112 335/124
f 333/114 335/124 327/112
f 333/114 334/122 335/124
f 336/121 331/120 330/120
f 364/108 20/107 22/109
f 364/108 368/110 20/107
f 376/112 368/110 364/108
f 376/112 372/112 368/110
f 369/111 368/110 372/112
f 369/111 20/107 368/110
f 21/119 20/107 369/111
f 369/111 25/118 21/119
f 370/117 25/118 369/111
f 369/111 371/113 370/117
f 372/112 371/113 369/111
f 372/112 380/114 371/113
f 378/124 380/114 372/112
f 378/124 379/122 380/114
f 381/121 379/122 378/124
f 381/121 382/123 379/122
f 364/108 375/120 376/112
f 371/113 377/116 370/117
f 371/113 383/115 377/116
f 380/114 383/115 371/113
f 376/120 378/124 372/112
f 376/120 381/121 378/124
f 375/120 381/121 376/120
f 42/125 37/126 41/127
f 42/125 43/28 37/126
f 39/128 37/126 43/28
f 43/28 38/129 39/128
f 44/130 38/129 43/28
f 44/130 41/127 38/129
f 40/26 38/129 41/127
f 41/127 37/126 40/26
f 45/28 43/131 42/132
f 45/28 44/133 43/131
f 41/26 44/133 45/28
f 45/28 42/132 41/26
f 126/26 135/134 113/135
f 126/26 116/136 135/134
f 141/137 135/134 116/136
f 141/137 143/138 135/134
f 144/139 143/138 141/137
f 144/139 139/140 143/138
f 137/141 139/140 144/139
f 137/141 136/142 139/140
f 140/143 139/140 136/142
f 140/143 135/134 139/140
f 142/144 135/134 140/143
f 142/144 113/135 135/134
f 111/145 113/135 142/144
f 142/144 83/101 111/145
f 136/142 83/101 142/144
f 142/144 140/143 136/142
f 143/138 139/140 135/134
f 125/146 141/137 116/136
f 125/146 88/147 141/137
f 144/139 141/137 88/147
f 81/148 145/149 146/150
f 81/148 80/151 145/149
f 147/152 145/149 80/151
f 147/152 166/153 145/149
f 163/154 166/153 147/152
f 163/154 173/155 166/153
f 171/156 173/155 163/154
f 171/156 172/157 173/155
f 168/158 172/157 171/156
f 171/156 163/154 168/158
f 162/159 168/158 163/154
f 162/159 169/160 168/158
f 165/161 169/160 162/159
f 165/161 175/162 169/160
f 174/163 175/162 165/161
f 165/161 164/164 174/163
f 161/165 164/164 165/161
f 161/165 174/163 164/164
f 170/166 174/163 161/165
f 161/165 151/167 170/166
f 148/168 151/167 161/165
f 148/168 150/169 151/167
f 149/170 150/169 148/168
f 149/170 157/171 150/169
f 153/172 157/171 149/170
f 153/172 156/173 157/171
f 155/174 156/173 153/172
f 155/174 157/171 156/173
f 158/175 157/171 155/174
f 158/175 150/169 157/171
f 147/152 162/159 163/154
f 147/152 148/168 162/159
f 124/176 148/168 147/152
f 124/176 149/170 148/168
f 153/172 149/170 124/176
f 124/176 159/177 153/172
f 123/178 159/177 124/176
f 123/178 160/179 159/177
f 153/172 159/177 160/179
f 160/179 154/180 153/172
f 155/174 153/172 154/180
f 147/152 80/151 124/176
f 162/159 161/165 165/161
f 162/159 148/168 161/165
f 166/153 146/150 145/149
f 166/153 167/181 146/150
f 176/182 167/181 166/153
f 166/153 173/155 176/182
f 172/157 176/182 173/155
f 185/150 186/149 106/148
f 185/150 206/153 186/149
f 208/181 206/153 185/150
f 208/181 216/182 206/153
f 213/155 206/153 216/182
f 213/155 202/154 206/153
f 211/156 202/154 213/155
f 211/156 207/158 202/154
f 212/157 207/158 211/156
f 211/156 213/155 212/157
f 216/182 212/157 213/155
f 186/149 97/151 106/148
f 186/149 187/152 97/151
f 206/153 187/152 186/149
f 206/153 202/154 187/152
f 203/159 187/152 202/154
f 203/159 190/168 187/152
f 201/165 190/168 203/159
f 201/165 191/167 190/168
f 209/166 191/167 201/165
f 201/165 215/163 209/166
f 205/164 215/163 201/165
f 205/164 204/161 215/163
f 201/165 204/161 205/164
f 201/165 203/159 204/161
f 210/160 204/161 203/159
f 210/160 214/162 204/161
f 215/163 204/161 214/162
f 207/158 203/159 202/154
f 207/158 210/160 203/159
f 188/169 190/168 191/167
f 188/169 189/170 190/168
f 197/171 189/170 188/169
f 197/171 195/172 189/170
f 196/173 195/172 197/171
f 196/173 193/174 195/172
f 197/171 193/174 196/173
f 197/171 198/175 193/174
f 188/169 198/175 197/171
f 194/180 195/172 193/174
f 194/180 200/179 195/172
f 199/177 195/172 200/179
f 199/177 98/176 195/172
f 112/178 98/176 199/177
f 199/177 200/179 112/178
f 98/176 189/170 195/172
f 98/176 190/168 189/170
f 187/152 190/168 98/176
f 98/176 97/151 187/152
f 232/183 241/184 234/185
f 232/183 242/186 241/184
f 220/187 242/186 232/183
f 220/187 245/188 242/186
f 244/189 245/188 220/187
f 220/187 222/190 244/189
f 237/191 244/189 222/190
f 237/191 243/192 244/189
f 234/185 243/192 237/191
f 234/185 241/184 243/192
f 280/185 287/184 277/183
f 280/185 290/192 287/184
f 286/191 290/192 280/185
f 286/191 289/189 290/192
f 268/190 289/189 286/191
f 268/190 264/187 289/189
f 291/188 289/189 264/187
f 264/187 288/186 291/188
f 277/183 288/186 264/187
f 277/183 287/184 288/186
f 311/193 309/28 310/194
f 311/193 313/195 309/28
f 312/26 309/28 313/195
f 312/26 310/194 309/28
f 315/195 316/28 314/196
f 315/195 317/26 316/28
f 318/194 316/28 317/26
f 318/194 314/196 316/28
f 355/197 356/198 354/199
f 355/197 357/200 356/198
f 358/201 356/198 357/200
f 358/201 354/199 356/198
f 361/202 359/203 360/201
f 361/202 363/197 359/203
f 362/204 359/203 363/197
f 362/204 360/201 359/203
usemtl mat_1
f 9/205 8/206 10/207
f 9/205 7/208 8/206
f 34/209 7/208 9/205
f 12/210 5/211 4/211
f 12/210 16/212 5/211
f 28/213 5/211 16/212
usemtl mat_2
f 14/214 20/215 3/216
f 14/214 13/217 20/215
f 15/218 13/217 14/214
f 15/218 18/219 13/217
f 27/220 18/219 15/218
f 27/220 28/221 18/219
f 16/222 18/219 28/221
f 16/222 48/223 18/219
f 47/224 48/223 16/222
f 47/224 55/225 48/223
f 64/226 48/223 55/225
f 64/226 61/227 48/223
f 74/228 61/227 64/226
f 74/228 65/229 61/227
f 71/230 65/229 74/228
f 71/230 58/231 65/229
f 57/232 65/229 58/231
f 57/232 61/227 65/229
f 60/233 61/227 57/232
f 60/233 48/223 61/227
f 13/217 48/223 60/233
f 13/217 18/219 48/223
f 15/218 14/214 3/216
f 57/232 13/217 60/233
f 57/232 23/234 13/217
f 7/235 23/234 57/232
f 7/235 34/236 23/234
f 22/237 23/234 34/236
f 22/237 20/215 23/234
f 13/217 23/234 20/215
f 56/238 57/232 58/231
f 56/238 7/235 57/232
f 64/226 79/239 74/228
f 64/226 55/225 79/239
usemtl mat_3
f 94/240 92/241 93/242
f 94/240 117/243 92/241
f 82/244 92/241 117/243
f 82/244 85/245 92/241
f 107/246 92/241 85/245
f 107/246 93/242 92/241
f 121/247 107/246 85/245
f 121/247 119/248 107/246
f 120/246 119/248 121/247
f 121/247 91/245 120/246
f 95/241 120/246 91/245
f 95/241 115/242 120/246
f 114/240 115/242 95/241
f 95/241 96/243 114/240
f 89/244 96/243 95/241
f 95/241 91/245 89/244
usemtl mat_4
f 87/249 103/250 88/251
f 87/249 181/252 103/250
f 184/253 103/250 181/252
f 184/253 177/254 103/250
f 84/255 103/250 177/254
f 84/255 83/256 103/250
f 109/257 103/250 83/256
f 109/257 88/251 103/250
usemtl mat_5
f 128/258 129/259 127/260
f 128/258 130/261 129/259
f 127/260 129/259 130/261
f 133/262 131/263 132/264
f 133/262 134/265 131/263
f 132/264 131/263 134/265
f 345/266 343/267 344/268
f 345/266 346/269 343/267
f 344/268 343/267 346/269
f 342/270 347/271 348/272
f 342/270 349/273 347/271
f 348/272 347/271 349/273
f 352/274 350/275 351/276
f 352/274 353/277 350/275
f 351/276 350/275 353/277
f 388/278 389/279 387/280
f 388/278 390/281 389/279
f 387/280 389/279 390/281
f 392/282 393/283 391/284
f 392/282 394/285 393/283
f 391/284 393/283 394/285
f 396/286 397/287 395/288
f 396/286 398/289 397/287
f 395/288 397/287 398/289
usemtl mat_6
f 137/290 138/291 136/292
f 137/290 144/293 138/291
f 88/294 138/291 144/293
f 88/294 109/295 138/291
f 83/296 138/291 109/295
f 83/296 136/292 138/291
usemtl mat_7
f 81/297 150/298 123/299
f 81/297 152/300 150/298
f 146/301 152/300 81/297
f 146/301 167/302 152/300
f 168/303 152/300 167/302
f 168/303 169/304 152/300
f 170/305 152/300 169/304
f 170/305 151/306 152/300
f 150/298 152/300 151/306
f 155/307 150/308 158/309
f 155/307 154/310 150/308
f 160/311 150/308 154/310
f 160/311 123/312 150/308
f 174/313 169/314 175/315
f 174/313 170/316 169/314
f 167/317 172/318 168/319
f 167/317 176/320 172/318
f 188/298 106/297 112/299
f 188/298 192/300 106/297
f 191/306 192/300 188/298
f 191/306 209/305 192/300
f 210/304 192/300 209/305
f 210/304 207/303 192/300
f 208/302 192/300 207/303
f 208/302 185/301 192/300
f 106/297 192/300 185/301
f 188/308 193/307 198/309
f 188/308 194/310 193/307
f 200/311 194/310 188/308
f 188/308 112/312 200/311
f 210/314 215/313 214/315
f 210/314 209/316 215/313
f 212/318 208/317 207/319
f 212/318 216/320 208/317
usemtl mat_8
f 179/321 182/322 177/323
f 179/321 180/324 121/325
f 183/326 91/327 121/325
f 180/324 183/326 121/325
f 85/328 182/322 179/321
f 121/325 85/328 179/321
f 181/329 183/326 180/324
f 178/330 179/331 177/332
f 178/330 180/333 179/331
f 181/334 180/333 178/330
f 177/335 86/336 84/337
f 177/335 182/338 86/336
f 85/339 86/336 182/338
f 90/340 181/341 87/342
f 90/340 183/343 181/341
f 91/344 183/343 90/340
f 184/345 178/346 177/335
f 184/345 181/341 178/346
usemtl mat_9
f 254/347 260/348 255/349
f 259/350 262/351 252/352
f 299/352 307/351 305/350
f 301/349 308/348 300/347
f 256/353 250/354 255/355
f 256/353 254/356 250/354
f 260/357 254/356 256/353
f 256/353 255/355 260/357
f 247/358 257/359 251/360
f 247/358 259/361 257/359
f 261/362 257/359 259/361
f 261/362 251/360 257/359
f 259/361 251/360 261/362
f 252/363 258/364 253/365
f 252/363 262/366 258/364
f 259/367 258/364 262/366
f 259/367 253/365 258/364
f 302/353 301/355 296/354
f 302/353 308/357 301/355
f 300/356 308/357 302/353
f 302/353 296/354 300/356
f 297/360 303/359 292/358
f 297/360 306/362 303/359
f 305/361 306/362 297/360
f 305/361 303/359 306/362
f 292/358 303/359 305/361
f 298/365 304/364 299/363
f 298/365 305/367 304/364
f 307/366 304/364 305/367
f 307/366 299/363 304/364
usemtl mat_10
f 319/368 28/369 27/370
f 319/368 320/371 28/369
f 321/372 28/369 320/371
f 321/372 5/373 28/369
f 30/374 5/373 321/372
f 321/372 19/375 30/374
f 17/376 19/375 321/372
f 321/372 325/377 17/376
f 322/378 325/377 321/372
f 321/372 320/371 322/378
f 331/379 320/380 319/381
f 331/379 328/382 320/380
f 339/383 328/382 331/379
f 339/383 329/384 328/382
f 341/385 329/384 339/383
f 341/385 337/386 329/384
f 332/387 329/384 337/386
f 332/387 325/388 329/384
f 322/389 329/384 325/388
f 322/389 320/380 329/384
f 328/382 329/384 320/380
f 336/390 339/383 331/379
f 336/390 340/391 339/383
f 338/392 340/391 336/390
f 339/383 340/391 341/385
f 34/393 364/394 22/395
f 34/393 365/396 364/394
f 367/397 365/396 34/393
f 367/397 366/398 365/396
f 370/399 366/398 367/397
f 367/397 25/400 370/399
f 26/401 25/400 367/397
f 367/397 35/402 26/401
f 9/403 35/402 367/397
f 367/397 34/393 9/403
f 365/380 375/379 364/381
f 365/380 374/382 375/379
f 373/384 374/382 365/380
f 373/384 384/383 374/382
f 386/385 384/383 373/384
f 386/385 385/391 384/383
f 381/390 384/383 385/391
f 381/390 375/379 384/383
f 374/382 384/383 375/379
f 382/392 381/390 385/391
f 366/389 373/384 365/380
f 366/389 370/388 373/384
f 377/387 373/384 370/388
f 377/387 383/386 373/384
f 386/385 373/384 383/386
usemtl mat_11
f 340/404 337/405 341/406
f 340/404 338/407 337/405
f 334/408 337/405 338/407
f 334/408 333/409 337/405
f 383/405 385/404 386/406
f 383/405 382/407 385/404
f 379/408 382/407 383/405
f 383/405 380/409 379/408
