xof 0303txt 0032

template AnimTicksPerSecond {
  <9E415A43-7BA6-4a73-8743-B73D47E88476>
  DWORD AnimTicksPerSecond;
}

template XSkinMeshHeader {
  <3cf169ce-ff7c-44ab-93c0-f78f62d172e2>
  WORD nMaxSkinWeightsPerVertex;
  WORD nMaxSkinWeightsPerFace;
  WORD nBones;
}

template SkinWeights {
  <6f0d123b-bad2-4167-a0d0-80224f25fabb>
  STRING transformNodeName;
  DWORD nWeights;
  array DWORD vertexIndices[nWeights];
  array float weights[nWeights];
  Matrix4x4 matrixOffset;
}

Frame Root {
  FrameTransformMatrix {
     1.000000, 0.000000, 0.000000, 0.000000,
     0.000000, 0.000000, 1.000000, 0.000000,
     0.000000, 1.000000,-0.000000, 0.000000,
     0.000000, 0.000000, 0.000000, 1.000000;;
  }
  Frame happinas_mat_0 {
    FrameTransformMatrix {
       1.000000, 0.000000, 0.000000, 0.000000,
       0.000000, 1.000000, 0.000000, 0.000000,
       0.000000, 0.000000, 1.000000, 0.000000,
       0.000000, 0.000000, 0.000000, 1.000000;;
    }
    Mesh { //Mesh Mesh
      168;
      -1.164240;-1.073860; 1.568010;,
      -1.164240;-1.073860; 0.000000;,
      -0.400000;-0.300000; 1.800000;,
      -0.329117; 0.104657; 0.538199;,
      -0.400000;-0.300000; 1.800000;,
      -1.164240;-1.073860; 0.000000;,
       0.400000;-0.300000; 1.800000;,
      -0.400000;-0.300000; 1.800000;,
      -0.329117; 0.104657; 0.538199;,
      -0.329117; 0.104657; 0.538199;,
       0.329118; 0.104657; 0.538199;,
       0.400000;-0.300000; 1.800000;,
      -0.329117; 0.104657; 0.538199;,
       0.000000; 0.250000; 0.000000;,
       0.329118; 0.104657; 0.538199;,
       0.698880;-1.499980;-0.994736;,
       0.000000;-1.500050;-1.431540;,
      -0.698880;-1.499980;-0.994736;,
      -0.698880;-1.499980;-0.994736;,
      -1.048320;-1.499980; 0.097274;,
       0.698880;-1.499980;-0.994736;,
      -1.048320;-1.499980; 0.097274;,
       1.048320;-1.499980; 0.097267;,
       0.698880;-1.499980;-0.994736;,
       0.698880;-1.499980;-0.994736;,
       1.048320;-1.499980; 0.097267;,
       0.776160;-1.073860;-1.225010;,
       1.048320;-1.499980; 0.097267;,
       1.164240;-1.073860; 0.000000;,
       0.776160;-1.073860;-1.225010;,
       1.048330;-1.499980; 1.495020;,
       1.048320;-1.499980; 0.097267;,
      -1.048320;-1.499980; 1.495020;,
       1.048320;-1.499980; 0.097267;,
      -1.048320;-1.499980; 0.097274;,
      -1.048320;-1.499980; 1.495020;,
      -1.048320;-1.499980; 1.495020;,
      -1.048320;-1.499980; 0.097274;,
      -1.164240;-1.073860; 1.568010;,
      -1.048320;-1.499980; 0.097274;,
      -1.164240;-1.073860; 0.000000;,
      -1.164240;-1.073860; 1.568010;,
      -0.424947;-0.674940; 2.532840;,
      -0.369100;-1.073980; 2.978020;,
      -0.854042;-1.073860; 2.432250;,
       0.358550;-1.073980; 2.978020;,
       0.424947;-0.674940; 2.532840;,
       0.854042;-1.073860; 2.432250;,
      -1.048320;-1.499980; 1.495020;,
      -1.164240;-1.073860; 1.568010;,
      -0.769008;-1.499980; 2.255950;,
      -1.164240;-1.073860; 1.568010;,
      -0.854042;-1.073860; 2.432250;,
      -0.769008;-1.499980; 2.255950;,
      -0.769008;-1.499980; 2.255950;,
      -0.854042;-1.073860; 2.432250;,
      -0.327600;-1.500100; 2.827260;,
      -0.854042;-1.073860; 2.432250;,
      -0.369100;-1.073980; 2.978020;,
      -0.327600;-1.500100; 2.827260;,
      -0.327600;-1.500100; 2.827260;,
      -0.369100;-1.073980; 2.978020;,
       0.327601;-1.500100; 2.827260;,
      -0.369100;-1.073980; 2.978020;,
       0.358550;-1.073980; 2.978020;,
       0.327601;-1.500100; 2.827260;,
       0.327601;-1.500100; 2.827260;,
       0.358550;-1.073980; 2.978020;,
       0.769026;-1.499980; 2.255950;,
       0.358550;-1.073980; 2.978020;,
       0.854042;-1.073860; 2.432250;,
       0.769026;-1.499980; 2.255950;,
      -0.776160;-1.073860;-1.225010;,
      -1.164240;-1.073860; 0.000000;,
      -1.048320;-1.499980; 0.097274;,
      -1.048320;-1.499980; 0.097274;,
      -0.698880;-1.499980;-0.994736;,
      -0.776160;-1.073860;-1.225010;,
      -0.776160;-1.073860;-1.225010;,
      -0.698880;-1.499980;-0.994736;,
       0.000000;-1.073930;-1.715010;,
      -0.698880;-1.499980;-0.994736;,
       0.000000;-1.500050;-1.431540;,
       0.000000;-1.073930;-1.715010;,
       0.000000;-1.073930;-1.715010;,
       0.000000;-1.500050;-1.431540;,
       0.776160;-1.073860;-1.225010;,
       0.000000;-1.500050;-1.431540;,
       0.698880;-1.499980;-0.994736;,
       0.776160;-1.073860;-1.225010;,
       0.400000;-0.300000; 1.800000;,
       0.424947;-0.674940; 2.532840;,
      -0.400000;-0.300000; 1.800000;,
       0.424947;-0.674940; 2.532840;,
      -0.424947;-0.674940; 2.532840;,
      -0.400000;-0.300000; 1.800000;,
      -1.164240;-1.073860; 1.568010;,
      -0.400000;-0.300000; 1.800000;,
      -0.424947;-0.674940; 2.532840;,
      -0.424947;-0.674940; 2.532840;,
      -0.854042;-1.073860; 2.432250;,
      -1.164240;-1.073860; 1.568010;,
       0.854042;-1.073860; 2.432250;,
       0.424947;-0.674940; 2.532840;,
       1.164240;-1.073860; 1.568010;,
       0.424947;-0.674940; 2.532840;,
       0.400000;-0.300000; 1.800000;,
       1.164240;-1.073860; 1.568010;,
       1.164240;-1.073860; 1.568010;,
       0.400000;-0.300000; 1.800000;,
       1.164240;-1.073860; 0.000000;,
       0.400000;-0.300000; 1.800000;,
       0.329118; 0.104657; 0.538199;,
       1.164240;-1.073860; 0.000000;,
       1.164240;-1.073860; 0.000000;,
       0.329118; 0.104657; 0.538199;,
      -0.001722;-0.057817;-1.074640;,
       0.329118; 0.104657; 0.538199;,
       0.000000; 0.250000; 0.000000;,
      -0.001722;-0.057817;-1.074640;,
      -0.001722;-0.057817;-1.074640;,
       0.000000; 0.250000; 0.000000;,
      -1.164240;-1.073860; 0.000000;,
       0.000000; 0.250000; 0.000000;,
      -0.329117; 0.104657; 0.538199;,
      -1.164240;-1.073860; 0.000000;,
      -0.424947;-0.674940; 2.532840;,
       0.424947;-0.674940; 2.532840;,
       0.358550;-1.073980; 2.978020;,
      -0.424947;-0.674940; 2.532840;,
       0.358550;-1.073980; 2.978020;,
      -0.369100;-1.073980; 2.978020;,
      -0.327600;-1.500100; 2.827260;,
       0.327601;-1.500100; 2.827260;,
      -0.769008;-1.499980; 2.255950;,
       0.327601;-1.500100; 2.827260;,
       0.769026;-1.499980; 2.255950;,
      -0.769008;-1.499980; 2.255950;,
      -0.769008;-1.499980; 2.255950;,
       0.769026;-1.499980; 2.255950;,
      -1.048320;-1.499980; 1.495020;,
       0.769026;-1.499980; 2.255950;,
       1.048330;-1.499980; 1.495020;,
      -1.048320;-1.499980; 1.495020;,
       0.769026;-1.499980; 2.255950;,
       0.854042;-1.073860; 2.432250;,
       1.048330;-1.499980; 1.495020;,
       0.854042;-1.073860; 2.432250;,
       1.164240;-1.073860; 1.568010;,
       1.048330;-1.499980; 1.495020;,
       1.048330;-1.499980; 1.495020;,
       1.164240;-1.073860; 1.568010;,
       1.048320;-1.499980; 0.097267;,
       1.164240;-1.073860; 1.568010;,
       1.164240;-1.073860; 0.000000;,
       1.048320;-1.499980; 0.097267;,
      -0.001722;-0.057817;-1.074640;,
      -1.164240;-1.073860; 0.000000;,
      -0.776160;-1.073860;-1.225010;,
      -0.776160;-1.073860;-1.225010;,
       0.000000;-1.073930;-1.715010;,
      -0.001722;-0.057817;-1.074640;,
      -0.001722;-0.057817;-1.074640;,
       0.000000;-1.073930;-1.715010;,
       0.776160;-1.073860;-1.225010;,
       0.776160;-1.073860;-1.225010;,
       1.164240;-1.073860; 0.000000;,
      -0.001722;-0.057817;-1.074640;;
      56;
      3;0;1;2;,
      3;3;4;5;,
      3;6;7;8;,
      3;9;10;11;,
      3;12;13;14;,
      3;15;16;17;,
      3;18;19;20;,
      3;21;22;23;,
      3;24;25;26;,
      3;27;28;29;,
      3;30;31;32;,
      3;33;34;35;,
      3;36;37;38;,
      3;39;40;41;,
      3;42;43;44;,
      3;45;46;47;,
      3;48;49;50;,
      3;51;52;53;,
      3;54;55;56;,
      3;57;58;59;,
      3;60;61;62;,
      3;63;64;65;,
      3;66;67;68;,
      3;69;70;71;,
      3;72;73;74;,
      3;75;76;77;,
      3;78;79;80;,
      3;81;82;83;,
      3;84;85;86;,
      3;87;88;89;,
      3;90;91;92;,
      3;93;94;95;,
      3;96;97;98;,
      3;99;100;101;,
      3;102;103;104;,
      3;105;106;107;,
      3;108;109;110;,
      3;111;112;113;,
      3;114;115;116;,
      3;117;118;119;,
      3;120;121;122;,
      3;123;124;125;,
      3;126;127;128;,
      3;129;130;131;,
      3;132;133;134;,
      3;135;136;137;,
      3;138;139;140;,
      3;141;142;143;,
      3;144;145;146;,
      3;147;148;149;,
      3;150;151;152;,
      3;153;154;155;,
      3;156;157;158;,
      3;159;160;161;,
      3;162;163;164;,
      3;165;166;167;;
      MeshNormals { //Mesh Normals
        168;
         0.961394;-0.219123;-0.166356;,
         0.971343;-0.182684; 0.151982;,
         0.411939;-0.857540;-0.308054;,
         0.498795;-0.861385;-0.095889;,
         0.411939;-0.857540;-0.308054;,
         0.971343;-0.182684; 0.151982;,
        -0.411939;-0.857540;-0.308054;,
         0.411939;-0.857540;-0.308054;,
         0.498795;-0.861385;-0.095889;,
         0.498795;-0.861385;-0.095889;,
        -0.495499;-0.861141;-0.113315;,
        -0.411939;-0.857540;-0.308054;,
         0.498795;-0.861385;-0.095889;,
         0.039979;-0.984222; 0.172308;,
        -0.495499;-0.861141;-0.113315;,
        -0.512742; 0.786645; 0.343822;,
        -0.001221; 0.813166; 0.582018;,
         0.513047; 0.786828; 0.342998;,
         0.513047; 0.786828; 0.342998;,
         0.625935; 0.775109; 0.085635;,
        -0.512742; 0.786645; 0.343822;,
         0.625935; 0.775109; 0.085635;,
        -0.625935; 0.775109; 0.085635;,
        -0.512742; 0.786645; 0.343822;,
        -0.512742; 0.786645; 0.343822;,
        -0.625935; 0.775109; 0.085635;,
        -0.786218;-0.073702; 0.613514;,
        -0.625935; 0.775109; 0.085635;,
        -0.971984;-0.179479; 0.151555;,
        -0.786218;-0.073702; 0.613514;,
        -0.629322; 0.770470;-0.101505;,
        -0.625935; 0.775109; 0.085635;,
         0.629627; 0.769982;-0.103153;,
        -0.625935; 0.775109; 0.085635;,
         0.625935; 0.775109; 0.085635;,
         0.629627; 0.769982;-0.103153;,
         0.629627; 0.769982;-0.103153;,
         0.625935; 0.775109; 0.085635;,
         0.961394;-0.219123;-0.166356;,
         0.625935; 0.775109; 0.085635;,
         0.971343;-0.182684; 0.151982;,
         0.961394;-0.219123;-0.166356;,
         0.369915;-0.770257;-0.519456;,
         0.365001;-0.193335;-0.910672;,
         0.860042;-0.166082;-0.482376;,
        -0.368725;-0.187750;-0.910337;,
        -0.370983;-0.768456;-0.521317;,
        -0.852596;-0.153264;-0.499557;,
         0.629627; 0.769982;-0.103153;,
         0.961394;-0.219123;-0.166356;,
         0.540635; 0.793542;-0.279183;,
         0.961394;-0.219123;-0.166356;,
         0.860042;-0.166082;-0.482376;,
         0.540635; 0.793542;-0.279183;,
         0.540635; 0.793542;-0.279183;,
         0.860042;-0.166082;-0.482376;,
         0.287240; 0.751671;-0.593646;,
         0.860042;-0.166082;-0.482376;,
         0.365001;-0.193335;-0.910672;,
         0.287240; 0.751671;-0.593646;,
         0.287240; 0.751671;-0.593646;,
         0.365001;-0.193335;-0.910672;,
        -0.312449; 0.741386;-0.593890;,
         0.365001;-0.193335;-0.910672;,
        -0.368725;-0.187750;-0.910337;,
        -0.312449; 0.741386;-0.593890;,
        -0.312449; 0.741386;-0.593890;,
        -0.368725;-0.187750;-0.910337;,
        -0.536821; 0.790521;-0.294717;,
        -0.368725;-0.187750;-0.910337;,
        -0.852596;-0.153264;-0.499557;,
        -0.536821; 0.790521;-0.294717;,
         0.786645;-0.073611; 0.612964;,
         0.971343;-0.182684; 0.151982;,
         0.625935; 0.775109; 0.085635;,
         0.625935; 0.775109; 0.085635;,
         0.513047; 0.786828; 0.342998;,
         0.786645;-0.073611; 0.612964;,
         0.786645;-0.073611; 0.612964;,
         0.513047; 0.786828; 0.342998;,
        -0.000732; 0.010041; 0.999939;,
         0.513047; 0.786828; 0.342998;,
        -0.001221; 0.813166; 0.582018;,
        -0.000732; 0.010041; 0.999939;,
        -0.000732; 0.010041; 0.999939;,
        -0.001221; 0.813166; 0.582018;,
        -0.786218;-0.073702; 0.613514;,
        -0.001221; 0.813166; 0.582018;,
        -0.512742; 0.786645; 0.343822;,
        -0.786218;-0.073702; 0.613514;,
        -0.411939;-0.857540;-0.308054;,
        -0.370983;-0.768456;-0.521317;,
         0.411939;-0.857540;-0.308054;,
        -0.370983;-0.768456;-0.521317;,
         0.369915;-0.770257;-0.519456;,
         0.411939;-0.857540;-0.308054;,
         0.961394;-0.219123;-0.166356;,
         0.411939;-0.857540;-0.308054;,
         0.369915;-0.770257;-0.519456;,
         0.369915;-0.770257;-0.519456;,
         0.860042;-0.166082;-0.482376;,
         0.961394;-0.219123;-0.166356;,
        -0.852596;-0.153264;-0.499557;,
        -0.370983;-0.768456;-0.521317;,
        -0.961394;-0.220222;-0.164922;,
        -0.370983;-0.768456;-0.521317;,
        -0.411939;-0.857540;-0.308054;,
        -0.961394;-0.220222;-0.164922;,
        -0.961394;-0.220222;-0.164922;,
        -0.411939;-0.857540;-0.308054;,
        -0.971984;-0.179479; 0.151555;,
        -0.411939;-0.857540;-0.308054;,
        -0.495499;-0.861141;-0.113315;,
        -0.971984;-0.179479; 0.151555;,
        -0.971984;-0.179479; 0.151555;,
        -0.495499;-0.861141;-0.113315;,
         0.004059;-0.849483; 0.527543;,
        -0.495499;-0.861141;-0.113315;,
         0.039979;-0.984222; 0.172308;,
         0.004059;-0.849483; 0.527543;,
         0.004059;-0.849483; 0.527543;,
         0.039979;-0.984222; 0.172308;,
         0.971343;-0.182684; 0.151982;,
         0.039979;-0.984222; 0.172308;,
         0.498795;-0.861385;-0.095889;,
         0.971343;-0.182684; 0.151982;,
         0.369915;-0.770257;-0.519456;,
        -0.370983;-0.768456;-0.521317;,
        -0.368725;-0.187750;-0.910337;,
         0.369915;-0.770257;-0.519456;,
        -0.368725;-0.187750;-0.910337;,
         0.365001;-0.193335;-0.910672;,
         0.287240; 0.751671;-0.593646;,
        -0.312449; 0.741386;-0.593890;,
         0.540635; 0.793542;-0.279183;,
        -0.312449; 0.741386;-0.593890;,
        -0.536821; 0.790521;-0.294717;,
         0.540635; 0.793542;-0.279183;,
         0.540635; 0.793542;-0.279183;,
        -0.536821; 0.790521;-0.294717;,
         0.629627; 0.769982;-0.103153;,
        -0.536821; 0.790521;-0.294717;,
        -0.629322; 0.770470;-0.101505;,
         0.629627; 0.769982;-0.103153;,
        -0.536821; 0.790521;-0.294717;,
        -0.852596;-0.153264;-0.499557;,
        -0.629322; 0.770470;-0.101505;,
        -0.852596;-0.153264;-0.499557;,
        -0.961394;-0.220222;-0.164922;,
        -0.629322; 0.770470;-0.101505;,
        -0.629322; 0.770470;-0.101505;,
        -0.961394;-0.220222;-0.164922;,
        -0.625935; 0.775109; 0.085635;,
        -0.961394;-0.220222;-0.164922;,
        -0.971984;-0.179479; 0.151555;,
        -0.625935; 0.775109; 0.085635;,
         0.004059;-0.849483; 0.527543;,
         0.971343;-0.182684; 0.151982;,
         0.786645;-0.073611; 0.612964;,
         0.786645;-0.073611; 0.612964;,
        -0.000732; 0.010041; 0.999939;,
         0.004059;-0.849483; 0.527543;,
         0.004059;-0.849483; 0.527543;,
        -0.000732; 0.010041; 0.999939;,
        -0.786218;-0.073702; 0.613514;,
        -0.786218;-0.073702; 0.613514;,
        -0.971984;-0.179479; 0.151555;,
         0.004059;-0.849483; 0.527543;;
        56;
        3;0;1;2;,
        3;3;4;5;,
        3;6;7;8;,
        3;9;10;11;,
        3;12;13;14;,
        3;15;16;17;,
        3;18;19;20;,
        3;21;22;23;,
        3;24;25;26;,
        3;27;28;29;,
        3;30;31;32;,
        3;33;34;35;,
        3;36;37;38;,
        3;39;40;41;,
        3;42;43;44;,
        3;45;46;47;,
        3;48;49;50;,
        3;51;52;53;,
        3;54;55;56;,
        3;57;58;59;,
        3;60;61;62;,
        3;63;64;65;,
        3;66;67;68;,
        3;69;70;71;,
        3;72;73;74;,
        3;75;76;77;,
        3;78;79;80;,
        3;81;82;83;,
        3;84;85;86;,
        3;87;88;89;,
        3;90;91;92;,
        3;93;94;95;,
        3;96;97;98;,
        3;99;100;101;,
        3;102;103;104;,
        3;105;106;107;,
        3;108;109;110;,
        3;111;112;113;,
        3;114;115;116;,
        3;117;118;119;,
        3;120;121;122;,
        3;123;124;125;,
        3;126;127;128;,
        3;129;130;131;,
        3;132;133;134;,
        3;135;136;137;,
        3;138;139;140;,
        3;141;142;143;,
        3;144;145;146;,
        3;147;148;149;,
        3;150;151;152;,
        3;153;154;155;,
        3;156;157;158;,
        3;159;160;161;,
        3;162;163;164;,
        3;165;166;167;;
      } //End of Mesh Normals
      MeshMaterialList { //Mesh Material List
        1;
        56;
        0,
        0,
        0,
        0,
        0,
        0,
        0,
        0,
        0,
        0,
        0,
        0,
        0,
        0,
        0,
        0,
        0,
        0,
        0,
        0,
        0,
        0,
        0,
        0,
        0,
        0,
        0,
        0,
        0,
        0,
        0,
        0,
        0,
        0,
        0,
        0,
        0,
        0,
        0,
        0,
        0,
        0,
        0,
        0,
        0,
        0,
        0,
        0,
        0,
        0,
        0,
        0,
        0,
        0,
        0,
        0;;
        Material mat_0 {
           0.640000; 0.640000; 0.640000; 1.000000;;
           92.156863;
           0.250000; 0.250000; 0.250000;;
           0.000000; 0.000000; 0.000000;;
          TextureFilename {"Textures/happinas_1_0.tga";}
        }
      } //End of Mesh Material List
      MeshTextureCoords { //Mesh UV Coordinates
        168;
         0.500000; 0.218750;,
         0.500000; 0.218750;,
         0.500000; 0.218750;,
         0.500000; 0.218750;,
         0.500000; 0.218750;,
         0.500000; 0.218750;,
         0.500000; 0.218750;,
         0.500000; 0.218750;,
         0.500000; 0.218750;,
         0.500000; 0.218750;,
         0.500000; 0.218750;,
         0.500000; 0.218750;,
         0.500000; 0.218750;,
         0.500000; 0.218750;,
         0.500000; 0.218750;,
         0.500000; 0.218750;,
         0.500000; 0.218750;,
         0.500000; 0.218750;,
         0.500000; 0.218750;,
         0.500000; 0.218750;,
         0.500000; 0.218750;,
         0.500000; 0.218750;,
         0.500000; 0.218750;,
         0.500000; 0.218750;,
         0.500000; 0.218750;,
         0.500000; 0.218750;,
         0.500000; 0.218750;,
         0.500000; 0.218750;,
         0.500000; 0.218750;,
         0.500000; 0.218750;,
         0.500000; 0.218750;,
         0.500000; 0.218750;,
         0.500000; 0.218750;,
         0.500000; 0.218750;,
         0.500000; 0.218750;,
         0.500000; 0.218750;,
         0.500000; 0.218750;,
         0.500000; 0.218750;,
         0.500000; 0.218750;,
         0.500000; 0.218750;,
         0.500000; 0.218750;,
         0.500000; 0.218750;,
         0.500000; 0.218750;,
         0.500000; 0.218750;,
         0.500000; 0.218750;,
         0.500000; 0.218750;,
         0.500000; 0.218750;,
         0.500000; 0.218750;,
         0.500000; 0.218750;,
         0.500000; 0.218750;,
         0.500000; 0.218750;,
         0.500000; 0.218750;,
         0.500000; 0.218750;,
         0.500000; 0.218750;,
         0.500000; 0.218750;,
         0.500000; 0.218750;,
         0.500000; 0.218750;,
         0.500000; 0.218750;,
         0.500000; 0.218750;,
         0.500000; 0.218750;,
         0.500000; 0.218750;,
         0.500000; 0.218750;,
         0.500000; 0.218750;,
         0.500000; 0.218750;,
         0.500000; 0.218750;,
         0.500000; 0.218750;,
         0.500000; 0.218750;,
         0.500000; 0.218750;,
         0.500000; 0.218750;,
         0.500000; 0.218750;,
         0.500000; 0.218750;,
         0.500000; 0.218750;,
         0.500000; 0.218750;,
         0.500000; 0.218750;,
         0.500000; 0.218750;,
         0.500000; 0.218750;,
         0.500000; 0.218750;,
         0.500000; 0.218750;,
         0.500000; 0.218750;,
         0.500000; 0.218750;,
         0.500000; 0.218750;,
         0.500000; 0.218750;,
         0.500000; 0.218750;,
         0.500000; 0.218750;,
         0.500000; 0.218750;,
         0.500000; 0.218750;,
         0.500000; 0.218750;,
         0.500000; 0.218750;,
         0.500000; 0.218750;,
         0.500000; 0.218750;,
         0.500000; 0.218750;,
         0.500000; 0.218750;,
         0.500000; 0.218750;,
         0.500000; 0.218750;,
         0.500000; 0.218750;,
         0.500000; 0.218750;,
         0.500000; 0.218750;,
         0.500000; 0.218750;,
         0.500000; 0.218750;,
         0.500000; 0.218750;,
         0.500000; 0.218750;,
         0.500000; 0.218750;,
         0.500000; 0.531250;,
         0.500000; 0.531250;,
         0.500000; 0.531250;,
         0.500000; 0.531250;,
         0.500000; 0.531250;,
         0.500000; 0.531250;,
         0.500000; 0.531250;,
         0.500000; 0.531250;,
         0.500000; 0.218750;,
         0.500000; 0.531250;,
         0.500000; 0.218750;,
         0.500000; 0.218750;,
         0.500000; 0.218750;,
         0.500000; 0.218750;,
         0.500000; 0.218750;,
         0.500000; 0.218750;,
         0.500000; 0.218750;,
         0.500000; 0.218750;,
         0.500000; 0.218750;,
         0.500000; 0.218750;,
         0.500000; 0.218750;,
         0.500000; 0.218750;,
         0.500000; 0.218750;,
         0.500000; 0.218750;,
         0.500000; 0.218750;,
         0.500000; 0.218750;,
         0.500000; 0.218750;,
         0.500000; 0.218750;,
         0.500000; 0.218750;,
         0.500000; 0.218750;,
         0.500000; 0.531250;,
         0.500000; 0.531250;,
         0.500000; 0.531250;,
         0.500000; 0.531250;,
         0.500000; 0.531250;,
         0.500000; 0.531250;,
         0.500000; 0.531250;,
         0.500000; 0.531250;,
         0.500000; 0.531250;,
         0.500000; 0.531250;,
         0.500000; 0.531250;,
         0.500000; 0.531250;,
         0.500000; 0.531250;,
         0.500000; 0.531250;,
         0.500000; 0.531250;,
         0.500000; 0.531250;,
         0.500000; 0.531250;,
         0.500000; 0.531250;,
         0.500000; 0.531250;,
         0.500000; 0.531250;,
         0.500000; 0.531250;,
         0.500000; 0.531250;,
         0.500000; 0.531250;,
         0.500000; 0.531250;,
         0.500000; 0.218750;,
         0.500000; 0.218750;,
         0.500000; 0.218750;,
         0.500000; 0.218750;,
         0.500000; 0.218750;,
         0.500000; 0.218750;,
         0.500000; 0.218750;,
         0.500000; 0.218750;,
         0.500000; 0.218750;,
         0.500000; 0.218750;,
         0.500000; 0.218750;,
         0.500000; 0.218750;;
      } //End of Mesh UV Coordinates
    } //End of Mesh Mesh
  } //End of happinas_mat_0
} //End of Root Frame
