# Blender v2.66 (sub 1) OBJ File: 'BR_Blissey.blend'
# www.blender.org
mtllib BR_Blissey.mtl
o happinas
v -1.164240 0.000000 1.073860
v -1.164240 1.568010 1.073860
v -0.400000 1.800000 0.300000
v -0.329117 0.538199 -0.104657
v 0.329118 0.538199 -0.104657
v 0.000000 0.000000 -0.250000
v -0.001722 -1.074640 0.057817
v -0.776160 -1.225010 1.073860
v 0.776160 -1.225010 1.073860
v 0.000000 -1.715010 1.073930
v -0.698880 -0.994736 1.499980
v 0.000000 -1.431540 1.500050
v 0.698880 -0.994736 1.499980
v -1.048320 0.097274 1.499980
v 1.048320 0.097267 1.499980
v -1.048320 1.495020 1.499980
v 1.048330 1.495020 1.499980
v -0.854042 2.432250 1.073860
v -0.369100 2.978020 1.073980
v -0.424947 2.532840 0.674940
v 0.854042 2.432250 1.073860
v 0.424947 2.532840 0.674940
v 0.358550 2.978020 1.073980
v -0.769008 2.255950 1.499980
v -0.327600 2.827260 1.500100
v 1.164240 0.000000 1.073860
v 0.769026 2.255950 1.499980
v 0.327601 2.827260 1.500100
v 0.400000 1.800000 0.300000
v 1.164240 1.568010 1.073860
vt 0.500000 0.781250
vt 0.500000 0.468750
usemtl mat_0
s 1
f 3/1 1/1 2/1
f 4/1 1/1 3/1
f 29/1 4/1 3/1
f 29/1 5/1 4/1
f 5/1 6/1 4/1
f 11/1 12/1 13/1
f 13/1 14/1 11/1
f 13/1 15/1 14/1
f 9/1 15/1 13/1
f 9/1 26/1 15/1
f 16/1 15/1 17/1
f 16/1 14/1 15/1
f 2/1 14/1 16/1
f 2/1 1/1 14/1
f 18/1 19/1 20/1
f 21/1 22/1 23/1
f 24/1 2/1 16/1
f 24/1 18/1 2/1
f 25/1 18/1 24/1
f 25/1 19/1 18/1
f 28/1 19/1 25/1
f 28/1 23/1 19/1
f 27/1 23/1 28/1
f 27/1 21/1 23/1
f 14/1 1/1 8/1
f 8/1 11/1 14/1
f 10/1 11/1 8/1
f 10/1 12/1 11/1
f 9/1 12/1 10/1
f 9/1 13/1 12/1
f 3/1 22/1 29/1
f 3/1 20/1 22/1
f 2/1 20/1 3/1
f 2/1 18/1 20/1
f 30/2 22/2 21/2
f 30/2 29/2 22/2
f 26/1 29/2 30/2
f 26/1 5/1 29/2
f 7/1 5/1 26/1
f 7/1 6/1 5/1
f 1/1 6/1 7/1
f 1/1 4/1 6/1
f 23/1 22/1 20/1
f 19/1 23/1 20/1
f 24/2 28/2 25/2
f 24/2 27/2 28/2
f 16/2 27/2 24/2
f 16/2 17/2 27/2
f 17/2 21/2 27/2
f 17/2 30/2 21/2
f 15/2 30/2 17/2
f 15/2 26/2 30/2
f 8/1 1/1 7/1
f 7/1 10/1 8/1
f 9/1 10/1 7/1
f 7/1 26/1 9/1
