# Blender v2.66 (sub 1) OBJ File: 'BR_Granbulu.blend'
# www.blender.org
mtllib BR_Granbulu.mtl
o granbulu
v 1.774451 0.345635 -13.248900
v 1.774451 1.377303 -13.176900
v 1.972251 1.149682 -12.700000
v -2.226870 0.023876 -8.978030
v -2.550759 1.168203 -8.610030
v -3.029879 1.231573 -9.435920
v -2.582700 0.077401 -9.626450
v -3.217089 1.118783 -10.617400
v 0.761125 -2.118278 -10.594700
v 2.158210 -1.445518 -10.333200
v 1.984890 -1.373408 -9.501040
v -1.230149 2.266523 -13.114900
v 0.007843 2.646223 -13.088399
v 0.007842 1.578993 -13.569100
v 2.780660 0.169857 -10.799500
v 2.598381 0.077400 -9.626450
v -1.230119 0.513653 -13.612600
v -1.758769 0.345635 -13.248900
v -1.758769 1.377303 -13.176900
v 1.245801 0.513653 -13.612600
v 1.245841 2.266523 -13.114899
v 1.579041 2.821182 -12.338499
v 1.785581 3.029122 -11.612599
v 2.332901 1.678172 -11.841799
v 0.007843 3.238113 -12.309399
v -1.563349 2.821183 -12.338499
v -1.230150 -0.889395 -13.335000
v -1.527009 -0.692458 -12.828500
v -2.142530 -1.445517 -10.333200
v -1.770100 -1.380237 -11.951800
v -0.614979 -2.086557 -11.655101
v 1.785790 -1.380238 -11.951800
v 0.630663 -2.086557 -11.655100
v 0.536089 -1.746777 -12.722200
v 1.906281 0.322730 -12.922000
v 1.641711 -0.626894 -12.659700
v 2.831621 2.454142 -10.312599
v 2.652491 3.085542 -10.118399
v 0.007843 3.140672 -10.535499
v -1.947049 3.570743 -11.089799
v -1.769889 3.029123 -11.612599
v -2.687449 2.030313 -11.208700
v 0.007843 4.062862 -11.055399
v 0.007843 3.483293 -11.580899
v 1.962741 3.570742 -11.089799
v 2.703131 2.030312 -11.208699
v 2.235322 3.682502 -10.211799
v -2.636809 3.085543 -10.118399
v -2.219639 3.682503 -10.211799
v -0.572984 4.353733 -10.398399
v 0.588673 4.353733 -10.398399
v -1.154718 4.158223 -10.179799
v 0.441516 -0.959806 -13.586300
v -0.425832 -0.959806 -13.586300
v -0.343120 0.253084 -13.837500
v 0.358805 0.253084 -13.837500
v 1.245840 -0.889395 -13.335000
v -1.890599 0.322731 -12.922000
v -2.764980 0.169859 -10.799500
v -2.022569 1.073793 -12.541000
v 3.045571 1.231571 -9.435920
v 2.566441 1.168201 -8.610030
v 2.242550 0.023875 -8.978030
v 3.232781 1.118782 -10.617400
v -1.992969 1.141442 -8.285820
v -1.969210 -1.373407 -9.501040
v 1.008451 1.519902 -8.104480
v -0.992765 1.519902 -8.104480
v 0.007843 1.868322 -7.996630
v -2.317219 1.678173 -11.841800
v 2.891331 2.273232 -10.242499
v 0.844770 3.634702 -10.355699
v 1.262751 3.634702 -10.355699
v 1.053761 3.712172 -9.712519
v 1.170412 4.158232 -10.179799
v -1.500130 -1.134817 -12.643400
v 1.515810 -1.134817 -12.643400
v 1.542691 -0.692458 -12.828500
v 2.038251 1.073792 -12.541000
v 1.053762 3.995802 -10.330499
v -1.626029 -0.626894 -12.659700
v -1.038069 3.712173 -9.712519
v -1.247059 3.634703 -10.355699
v -0.829084 3.634703 -10.355699
v -1.038068 3.995803 -10.330499
v 0.007843 3.828783 -11.443399
v 0.231967 3.479683 -11.536499
v 0.007843 3.555883 -11.568199
v -0.068135 3.945853 -11.153899
v 0.083822 3.945853 -11.153899
v -0.216282 3.479683 -11.536499
v 0.456092 3.662743 -11.376899
v -0.440406 3.662743 -11.376899
v -2.815929 2.454143 -10.312600
v -2.875639 2.273233 -10.242500
v -0.684726 -1.939958 -9.635800
v 0.700410 -1.939958 -9.635800
v -0.745441 -2.118277 -10.594701
v -0.520406 -1.746777 -12.722200
v -1.956559 1.149683 -12.700000
v -0.999190 -1.286198 -8.724290
v -1.428450 0.017145 -8.350740
v 1.438960 0.017144 -8.350740
v 1.009710 -1.286198 -8.724290
v 1.009711 1.048052 -7.939119
v -0.999188 1.048052 -7.939120
v 0.005260 1.553352 -7.794060
v 0.005258 -1.719458 -8.869350
v -2.673940 -0.049942 -5.183740
v -1.889019 1.909582 -5.183740
v -1.746210 0.729119 -6.664550
v 1.899530 -1.729509 -5.183741
v 2.684460 -0.049945 -5.183740
v -1.816450 0.363089 -7.633140
v -1.455589 1.479252 -6.652090
v 1.826970 0.363087 -7.633140
v 1.826970 -0.329510 -7.633130
v -2.357100 -0.032572 -5.725360
v -1.746210 -0.712812 -6.664550
v 1.756730 -0.712815 -6.664550
v 2.367620 -0.032575 -5.725360
v 0.005258 -2.425489 -5.183741
v 0.005259 -2.018208 -6.652091
v 1.466110 -1.431239 -6.652091
v 1.756730 0.729116 -6.664549
v -1.889020 -1.729508 -5.183741
v -1.455590 -1.431228 -6.652091
v -1.816450 -0.329507 -7.633140
v 1.899541 1.909581 -5.183740
v 1.466111 1.479251 -6.652090
v 0.005261 2.721571 -5.183740
v 0.005261 2.099342 -6.652090
v 2.140711 1.625042 -8.843130
v -3.078349 2.484093 -11.487300
v 3.285561 2.704232 -11.171999
v 3.094031 2.484092 -11.487299
v -2.557819 3.093733 -9.081259
v -3.269879 2.704233 -11.172000
v 2.573511 3.093731 -9.081259
v -3.100909 2.997363 -10.082599
v 3.116601 2.997361 -10.082599
v 1.973941 3.419332 -8.916209
v -1.958259 3.419333 -8.916209
v -0.975732 3.382742 -8.753439
v 0.991417 3.382732 -8.753439
v 0.007843 3.449332 -8.596329
v 0.007843 5.394982 -10.726199
v 0.007843 5.221842 -9.965259
v 1.096442 5.080142 -9.853549
v -1.080748 5.080142 -9.853549
v 0.949705 4.675542 -9.238359
v 0.007843 4.706062 -9.144739
v 1.891562 4.380562 -9.339269
v -0.934018 4.675552 -9.238359
v -1.875878 4.380563 -9.339269
v 0.007844 3.113722 -10.318099
v 2.792841 3.637412 -10.690299
v 2.879021 2.866102 -10.940799
v 1.923922 4.903722 -10.063599
v 1.966892 5.088742 -10.606099
v 1.201462 5.287462 -10.831199
v -1.185778 5.287463 -10.831199
v -1.951208 5.088743 -10.606099
v -1.908238 4.903723 -10.063599
v -2.777148 3.637413 -10.690299
v -2.863329 2.866103 -10.940799
v -2.329348 4.166343 -10.823299
v -1.613748 4.354283 -10.693299
v -2.646669 3.682113 -9.957539
v 0.007843 4.814522 -10.763299
v 2.345032 4.166342 -10.823299
v 2.662351 3.682112 -9.957539
v 3.033100 -1.618528 -11.369400
v 3.521931 0.359334 -13.257800
v 3.563371 1.404522 -12.539299
v 3.521471 1.480312 -12.704199
v 3.441301 0.380380 -13.595700
v 3.344720 -0.851731 -12.810000
v 3.518661 1.919992 -11.298499
v 3.270561 -0.917428 -12.988600
v 4.814101 0.367061 -13.347100
v 4.753831 2.164412 -10.934599
v 4.872661 1.726052 -12.544899
v 4.881741 1.801832 -12.703699
v 4.801321 0.389762 -13.674800
v 4.610011 -1.151628 -13.093600
v 4.633050 -1.085908 -12.923700
v 4.326170 -1.846379 -10.998600
v -3.017420 -1.618527 -11.369401
v -3.254869 -0.917426 -12.988600
v -3.547679 1.404524 -12.539300
v -3.506639 0.357680 -13.257100
v -3.422429 0.382155 -13.595700
v -3.505779 1.480314 -12.704200
v -3.502969 1.919993 -11.298500
v -3.329030 -0.851729 -12.810000
v -4.798409 0.367064 -13.347100
v -4.866049 1.801834 -12.703700
v -4.856969 1.726054 -12.544900
v -4.738139 2.164424 -10.934600
v -4.785629 0.389764 -13.674800
v -4.310480 -1.846376 -10.998601
v -4.594319 -1.151626 -13.093601
v -4.617360 -1.085906 -12.923700
v 1.629432 4.354282 -10.693299
v -0.397132 5.254103 -11.284999
v -0.587799 5.033363 -11.331499
v 0.603485 5.033362 -11.331499
v 0.007843 5.161243 -11.486099
v 0.412817 5.254102 -11.284999
v -1.187489 3.002013 -11.090799
v 1.203171 3.002012 -11.090799
v 0.007843 3.820902 -10.842699
v -1.187488 3.820863 -10.973799
v 0.007843 3.852383 -11.160199
v 1.203171 3.820862 -10.973799
v 0.007843 4.410203 -10.742999
v -0.888655 4.410163 -10.874099
v 0.904342 4.410152 -10.874099
v 0.007843 4.441682 -11.060499
v 0.306676 4.704803 -10.824299
v -0.290990 4.704803 -10.824299
v 2.065892 5.154532 -11.401899
v 2.094362 5.078823 -12.201499
v 1.748982 4.941952 -12.315499
v 1.528052 4.989342 -11.576799
v 2.415352 4.480232 -11.494899
v 1.961822 4.599662 -12.235499
v 2.346082 4.652602 -12.170399
v 2.227112 4.689982 -12.876799
v 2.038092 4.956372 -12.896299
v 1.864142 4.815282 -12.969099
v 1.892662 4.605503 -14.058199
v -2.050218 5.154533 -11.401899
v -1.512378 4.989343 -11.576799
v -1.733318 4.941953 -12.315499
v -2.078688 5.078824 -12.201499
v -2.399678 4.480223 -11.494899
v -2.330418 4.652603 -12.170399
v -1.946158 4.599663 -12.235499
v -2.022408 4.956373 -12.896299
v -2.211428 4.689983 -12.876799
v -1.848448 4.815283 -12.969099
v -1.876968 4.605504 -14.058199
v 2.024010 -1.877510 -3.756510
v 3.025230 -0.081092 -3.756510
v 3.126390 -0.091745 -3.379140
v -1.009660 -2.377699 -2.126611
v -2.081690 -1.961209 -3.258700
v 0.005258 -2.693009 -3.018291
v 1.020180 -2.377700 -2.126611
v 0.594643 -2.519449 -2.247051
v -2.013490 -1.877499 -3.756510
v 2.092210 -1.961210 -3.258700
v 0.005261 2.873521 -3.756509
v -2.013489 2.220961 -3.756510
v -2.060469 2.214401 -3.285079
v 0.556926 2.447901 -2.071680
v 2.070991 2.214400 -3.285079
v 0.005258 -1.939940 -1.423921
v -0.210893 -1.811319 -1.368011
v 0.221410 -1.811320 -1.368010
v -3.115870 -0.091742 -3.379150
v 2.024011 2.220960 -3.756509
v -0.546404 2.447901 -2.071680
v -3.014710 -0.081088 -3.756510
v -0.584128 -2.519449 -2.247051
v 0.205415 0.275983 -1.249930
v 0.205416 1.656150 -1.348670
v -0.194896 1.656150 -1.348670
v -0.194897 0.275983 -1.249930
v 0.005258 -2.547389 -3.756510
v -2.599190 0.019712 -7.489630
v -2.459929 1.069382 -6.911220
v -2.794680 -0.322308 -6.343820
v -3.475100 0.330672 -5.133930
v -3.777009 0.878932 -5.997910
v -2.809609 1.361372 -6.245870
v -2.427870 0.744696 -5.502340
v -2.863569 1.432162 -6.483560
v -2.675479 1.869832 -6.578430
v -2.064769 1.831072 -5.716929
v -2.782609 2.237892 -5.070169
v -3.020249 1.616792 -4.990790
v -3.386369 2.270492 -5.929649
v -1.433579 2.093972 -5.778729
v -2.645229 2.008232 -7.073450
v -1.823319 3.169482 -5.405230
v -1.203999 2.273452 -6.057030
v -2.380339 2.163082 -7.312389
v -3.108979 3.050062 -6.733019
v -1.298789 3.152542 -6.246310
v -2.231569 3.030772 -7.225399
v 2.541221 1.012931 -6.850160
v 2.614920 -0.004716 -7.494150
v 2.800640 -0.428237 -6.374230
v 3.528100 0.108203 -5.134780
v 3.853261 0.691419 -5.966849
v 2.912951 1.242471 -6.172410
v 2.503100 0.603133 -5.463809
v 2.200391 1.715061 -5.688739
v 2.805051 1.774931 -6.553309
v 2.967101 1.321421 -6.490079
v 3.147251 1.395790 -4.990409
v 2.946961 2.033911 -5.025370
v 3.544331 2.087930 -5.888239
v 2.818781 2.127421 -7.017829
v 1.575841 1.806211 -5.791600
v 1.337211 2.026401 -6.030240
v 1.858291 2.792411 -5.162499
v 3.178711 3.094891 -6.425529
v 2.546351 2.311581 -7.225450
v 2.317821 3.119211 -6.946029
v 1.356291 2.930091 -6.006229
v 0.299567 -3.337749 -2.349891
v 0.005258 -3.250720 -1.909931
v 0.005258 -3.415249 -2.834741
v -0.289051 -3.337749 -2.349891
v 0.005257 -4.072470 -2.541901
v 1.139900 -0.716665 -0.427800
v 1.365381 1.653450 -1.189810
v 2.467250 -1.476610 -0.969417
v 3.554920 -0.008458 -2.272100
v 3.723140 0.529397 -1.434750
v 2.266251 2.468960 -2.618759
v 2.506291 2.222880 -1.411019
v 2.632640 -0.559782 -0.139099
v 1.547460 1.492990 -0.460734
v 2.620681 1.560730 -0.833486
v 3.347560 0.966546 -0.550836
v 1.526070 -0.224728 -0.092482
v 1.643220 1.765340 -0.014481
v 1.568700 -0.270569 -0.014480
v 2.705490 -0.587091 -0.005245
v 3.519210 1.368839 -0.005245
v 2.979141 3.399909 -0.571202
v 1.708821 3.261830 -0.580439
v 1.735711 3.298440 -0.014481
v 3.031651 3.438329 -0.117951
v 3.915721 2.815149 -0.571202
v 3.986991 2.845779 -0.005245
v -1.127660 0.260638 -0.931600
v -3.555310 -0.436622 -1.640740
v -3.518650 -0.167893 -2.612940
v -2.363340 -2.058139 -2.970310
v -2.148469 1.817131 -1.163550
v -0.941112 -1.879399 -2.210031
v -2.254290 0.745127 -0.518253
v -3.196790 -0.526020 -0.005248
v -2.383061 -2.481949 -0.005247
v -1.246271 -2.165430 -0.014481
v -1.320790 -0.129528 -0.014481
v -2.709219 1.543471 -0.117954
v -1.413280 1.403571 -0.014481
v -1.386390 1.366971 -0.580439
v -2.656709 1.505051 -0.571204
v -3.664560 0.950920 -0.005249
v -3.593290 0.920287 -0.571206
v -1.221980 -0.418419 -0.567532
v -3.045660 -0.800311 -0.799813
v -2.371181 -2.058599 -1.785761
v -1.250580 -1.809779 -1.639890
v -2.328340 -0.156608 -0.619800
vt -0.028457 1.060460
vt 0.956609 0.970961
vt 0.752238 1.054200
vt -0.038608 0.974246
vt -0.055071 0.834408
vt 1.077240 0.891100
vt 1.223660 0.835377
vt -0.048397 0.891102
vt 0.048235 0.989669
vt 0.046462 0.990857
vt 0.054490 0.989669
vt 0.043151 0.979615
vt 0.038246 0.981318
vt 0.048235 0.979615
vt 0.048235 0.981282
vt 0.058224 0.981318
vt 0.053320 0.979615
vt 0.048235 0.983237
vt 0.059100 0.983642
vt 0.037370 0.983642
vt 0.039252 0.986859
vt 0.053291 0.979635
vt 0.055491 0.979615
vt 0.059012 0.979942
vt 0.048235 0.979542
vt 0.043180 0.979635
vt 0.038126 0.979942
vt 0.040980 0.979615
vt 0.041980 0.989669
vt 1.405100 1.058250
vt 1.798220 0.925999
vt 2.136850 0.832716
vt 0.058113 0.985835
vt 0.061598 0.983762
vt 0.061853 0.985858
vt 0.059490 0.984111
vt 0.054109 0.984111
vt 0.051170 0.984571
vt 0.048235 0.985835
vt 0.045301 0.984571
vt 0.038358 0.985835
vt 0.042361 0.984111
vt 0.036981 0.984111
vt 0.034873 0.983762
vt 0.034617 0.985858
vt 0.033666 0.984267
vt 0.062804 0.984267
vt 0.058161 0.988692
vt 0.057161 0.989669
vt 0.059983 0.987064
vt 0.054490 0.990413
vt 0.048235 0.990474
vt 0.041980 0.990413
vt 0.050009 0.990857
vt 0.055990 0.988692
vt 0.057218 0.986859
vt 0.039309 0.989669
vt 0.040480 0.988692
vt 0.048235 0.986988
vt 0.062245 0.984790
vt 0.061324 0.982200
vt 0.064530 0.984560
vt 0.063584 0.982234
vt 0.059526 0.980907
vt 0.061163 0.980589
vt 0.058494 0.988367
vt 0.057827 0.989018
vt 0.056490 0.988367
vt 0.035146 0.982200
vt 0.034225 0.984790
vt 0.031941 0.984560
vt 0.036488 0.987064
vt 0.037976 0.988367
vt 0.038643 0.989018
vt 0.039980 0.988367
vt 0.032887 0.982234
vt 0.036944 0.980907
vt 0.035308 0.980589
vt 0.000000 0.857143
vt 0.922000 0.382000
vt 0.500000 0.427000
vt 0.954000 0.195000
vt 0.855359 0.603036
vt 0.685369 0.752657
vt 0.592507 0.808921
vt 0.407074 0.808921
vt 0.314212 0.752657
vt 0.144222 0.603036
vt 0.077630 0.382257
vt 0.046380 0.194757
vt 0.040000 0.162000
vt 0.960077 0.162479
vt 0.502828 0.994863
vt 0.498359 0.541715
vt 0.852542 0.976983
vt 0.155611 0.980968
vt -0.195851 0.720957
vt 0.378314 -0.000081
vt 0.614573 -0.001431
vt 1.198010 0.712987
vt 0.943435 0.880736
vt 1.000000 0.646827
vt 0.998347 0.588843
vt 0.927766 1.000000
vt 0.844119 0.724130
vt 0.826063 0.785733
vt 0.500000 0.319000
vt 0.317919 0.341434
vt 0.409138 0.426728
vt 0.500000 0.271531
vt 0.590862 0.426728
vt 0.500000 0.444919
vt 0.682080 0.341434
vt 0.000000 0.585726
vt 0.772422 0.007259
vt 0.112719 0.200221
vt 0.794614 0.726483
vt 0.840608 0.999999
vt 0.107464 0.770440
vt 0.199180 0.528921
vt 0.925575 0.614355
vt 1.000000 0.000000
vt 0.366412 0.151416
vt 0.229785 0.459020
vt 0.953754 0.544451
vt 0.896159 0.856220
vt 0.168593 0.626664
vt 0.045914 0.511462
vt 0.838393 0.652218
vt 0.161568 0.831829
vt 0.236773 0.573220
vt 0.086141 0.662611
vt 0.000000 0.127625
vt 0.705101 0.018100
vt 0.028977 0.724214
vt 0.089034 0.951092
vt 0.199978 0.631204
vt 0.297157 0.121604
vt 0.965506 0.000000
vt 0.655076 1.590930
vt 0.677860 2.373830
vt 0.096467 1.230090
vt 1.235620 2.941480
vt 1.177350 1.397990
vt 1.113840 1.834400
vt 0.603020 0.882751
vt 0.889384 3.775040
vt 0.419360 3.218350
vt 0.500000 -0.513376
vt 0.652638 -0.871070
vt 0.650039 -0.526876
vt 0.500000 -0.769484
vt 0.349960 -0.526876
vt 0.347362 -0.871070
vt 0.075163 0.447405
vt 0.143473 0.626572
vt 0.252634 0.684438
vt 0.500000 0.838847
vt 0.682080 0.916927
vt 0.747366 0.684438
vt 0.317919 0.916927
vt 0.856527 0.626572
vt 0.924837 0.447405
vt 0.318359 0.418660
vt 0.363770 0.593750
vt 0.636230 0.593750
vt 0.681641 0.418660
vt 0.500000 0.418660
vt 0.500000 0.593750
vt 1.000000 0.083023
vt 0.939862 0.165445
vt 0.940000 0.165000
vt 0.088847 -0.689067
vt 0.029217 -0.692737
vt 0.060138 -0.634241
vt 0.008052 -0.939765
vt 0.000000 -0.700178
vt 0.036610 -0.927576
vt 0.025775 -0.593867
vt 0.108621 -0.594719
vt 0.095068 -0.416173
vt 0.212647 -0.247660
vt 0.207711 -0.090238
vt 0.333940 -0.139205
vt 0.317919 -0.033056
vt 0.500000 0.031250
vt 0.500000 -0.055897
vt 0.500000 -0.229974
vt 0.666060 -0.139205
vt 0.787352 -0.247660
vt 0.792289 -0.090238
vt 0.682080 -0.033056
vt 0.798843 -0.027120
vt 0.813945 0.011151
vt 0.856527 -0.265340
vt 0.867254 -0.164718
vt 0.747366 -0.219047
vt 0.798071 -0.113499
vt 0.731900 -0.027953
vt 0.765603 -0.020896
vt 0.818288 0.012314
vt 0.809705 -0.001888
vt 0.856687 -0.101203
vt 0.838539 -0.072836
vt 0.787520 -0.064268
vt 0.783169 -0.037292
vt 0.904932 -0.416173
vt 0.891379 -0.594719
vt 0.799919 -0.512940
vt 0.825358 -0.968750
vt 0.200081 -0.512940
vt 0.194786 -0.968750
vt 0.109698 -0.956784
vt 0.890301 -0.956784
vt 0.963390 -0.927575
vt 0.974225 -0.593867
vt 0.924837 -0.408673
vt 1.000000 -0.700178
vt 0.991948 -0.939765
vt 0.970783 -0.692737
vt 0.911153 -0.689067
vt 0.939862 -0.634241
vt 0.201156 -0.027119
vt 0.143473 -0.265340
vt 0.075163 -0.408673
vt 0.953749 0.197000
vt 0.499999 0.423000
vt 0.938281 0.447000
vt 0.953749 0.165000
vt 0.046392 0.165445
vt 0.046392 0.196695
vt 0.061718 0.447000
vt 0.244903 0.684438
vt 0.755095 0.684438
vt 0.318359 0.176413
vt 0.681641 0.176413
vt 0.545410 0.681295
vt 0.454590 0.681295
vt 0.375150 0.176881
vt 0.500000 0.202171
vt 0.500000 0.449107
vt 0.182717 0.278415
vt 0.624850 0.176881
vt 0.817283 0.278415
vt 0.539609 0.290044
vt 0.579321 0.278415
vt 0.500000 0.240293
vt 0.420679 0.278415
vt 0.460391 0.290044
vt 0.500000 0.365627
vt 0.500000 0.344872
vt 0.664730 0.118237
vt 0.771688 0.449107
vt 0.906434 0.449107
vt 0.971030 0.278415
vt 0.972917 0.136230
vt 0.812446 0.136230
vt 0.901512 0.064000
vt 0.807334 0.078781
vt 0.675242 0.065044
vt 0.807334 0.064000
vt 0.000000 0.000000
vt 0.228312 0.449107
vt 0.500000 0.278415
vt 0.028970 0.278415
vt 0.093566 0.449107
vt 0.500000 0.311757
vt 0.871737 0.063577
vt 0.780075 0.063577
vt 0.762799 0.063577
vt 0.919032 0.063577
vt 0.499897 0.063577
vt 0.236994 0.063577
vt 0.219718 0.063577
vt 0.128056 0.063577
vt 0.080761 0.063577
vt 0.702644 0.063577
vt 0.297149 0.063577
vt 1.000000 0.395004
vt 1.000000 0.974017
vt 0.853640 0.931399
vt 0.838706 0.395004
vt 0.161294 0.395004
vt 0.146360 0.931399
vt 0.000000 0.974017
vt 0.000000 0.395004
vt 0.500000 0.454131
vt 0.394627 0.098435
vt 0.500000 0.098435
vt 0.399596 0.454131
vt 0.500000 0.731832
vt 0.409360 0.774617
vt 0.600404 0.454131
vt 0.605373 0.098435
vt 0.590640 0.774617
vt 0.343810 0.063577
vt 0.270633 0.063577
vt 0.391231 0.063577
vt 0.275529 0.063577
vt 0.256814 0.063577
vt 0.172030 0.063577
vt 0.742980 0.063577
vt 0.827764 0.063577
vt 0.655984 0.063577
vt 0.729160 0.063577
vt 0.724265 0.063577
vt 0.608562 0.063577
vt 0.348643 0.457149
vt 0.321891 0.684367
vt 0.307123 0.865535
vt 0.266645 0.684367
vt 0.232615 0.398680
vt 0.733355 0.684366
vt 0.767385 0.398680
vt 0.692877 0.865535
vt 0.678109 0.684367
vt 0.651357 0.457149
vt 1.166280 0.030612
vt 0.572096 0.474715
vt 0.631827 0.016540
vt 0.603000 0.695000
vt 0.103912 0.006240
vt 0.962986 0.350062
vt 0.016741 0.590114
vt 0.975247 0.574567
vt 0.032489 0.353566
vt 0.855541 0.005078
vt 0.123270 -0.011494
vt 1.000000 0.444680
vt 0.000000 0.434390
vt 0.518992 0.940044
vt 0.651084 0.939000
vt 0.522527 0.876044
vt 0.547556 0.876044
vt 0.543525 0.940044
vt 0.745262 0.939000
vt 0.833882 0.939000
vt 0.843750 0.875000
vt 0.753359 0.875000
vt 0.129571 0.933648
vt 0.819021 0.956780
vt 0.936000 0.112000
vt 0.068000 0.143000
vt 0.657283 0.875000
vt 0.514000 -0.002000
vt 0.067000 0.178000
vt 0.512000 0.032000
vt 0.912000 0.145000
vt 0.929072 0.984632
vt 0.511802 0.978183
vt 0.088455 0.984631
vt 0.505714 0.993443
vt 0.495000 0.683000
vt 0.121000 0.935000
vt 0.795000 0.951000
vt -0.145751 0.180301
vt -0.157447 0.866462
vt 0.905496 1.041130
vt 0.863022 -0.072967
vt -0.184682 0.131376
vt -0.172845 0.827170
vt 0.848051 1.083990
vt 0.891035 -0.045743
usemtl mat_0
s 1
f 13/1 22/2 21/3
f 13/1 25/4 22/2
f 12/3 25/4 13/1
f 12/3 26/2 25/4
f 43/5 41/6 40/7
f 43/5 44/8 41/6
f 45/7 44/8 43/5
f 45/7 23/6 44/8
f 54/9 55/9 56/10
f 53/11 54/9 56/10
f 101/12 66/13 96/13
f 108/14 101/12 96/13
f 11/15 104/16 108/17
f 97/15 11/15 108/17
f 9/18 97/18 96/19
f 98/20 9/18 96/19
f 98/18 31/18 33/21
f 9/19 98/18 33/21
f 67/22 103/23 133/24
f 67/22 105/17 103/23
f 69/25 105/17 67/22
f 69/25 107/14 105/17
f 68/26 107/14 69/25
f 68/26 106/12 107/14
f 65/27 106/12 68/26
f 65/27 102/28 106/12
f 25/4 23/6 22/2
f 25/4 44/8 23/6
f 26/2 44/8 25/4
f 26/2 41/6 44/8
f 96/13 97/15 108/15
f 99/11 33/9 31/11
f 99/11 34/9 33/9
f 54/29 34/9 99/11
f 54/29 53/9 34/9
f 11/19 9/18 10/18
f 11/19 97/19 9/18
f 19/30 26/2 12/3
f 19/30 70/31 26/2
f 41/6 26/2 70/31
f 70/31 42/32 41/6
f 40/7 41/6 42/32
f 31/21 29/18 30/20
f 31/21 98/18 29/18
f 22/2 2/30 21/3
f 22/2 24/31 2/30
f 23/6 24/31 22/2
f 23/6 46/32 24/31
f 45/7 46/32 23/6
f 34/11 32/11 33/11
f 34/11 77/9 32/11
f 57/9 77/9 34/11
f 34/11 53/9 57/9
f 45/33 38/34 46/35
f 45/33 47/36 38/34
f 75/37 47/36 45/33
f 45/33 51/38 75/37
f 43/39 51/38 45/33
f 43/39 50/40 51/38
f 40/41 50/40 43/39
f 40/41 52/42 50/40
f 49/43 52/42 40/41
f 40/41 48/44 49/43
f 42/45 48/44 40/41
f 42/45 94/46 48/44
f 95/46 94/46 42/45
f 46/47 37/34 71/34
f 46/47 38/34 37/34
f 3/48 2/49 24/50
f 3/48 1/49 2/49
f 2/51 1/49 20/49
f 20/51 21/11 2/49
f 14/52 21/11 20/51
f 14/52 13/9 21/11
f 12/29 13/9 14/52
f 14/52 17/53 12/29
f 55/10 17/53 14/52
f 14/52 56/54 55/10
f 20/51 56/54 14/52
f 20/51 53/11 56/54
f 57/11 53/11 20/51
f 20/51 1/49 57/11
f 57/55 1/11 78/49
f 78/55 77/56 57/11
f 32/56 77/56 78/55
f 17/53 19/57 12/29
f 17/53 18/57 19/57
f 27/29 18/57 17/53
f 27/29 28/58 18/57
f 76/29 28/58 27/29
f 76/29 30/21 28/58
f 17/53 54/9 27/29
f 17/53 55/29 54/9
f 99/29 27/29 54/29
f 99/29 76/21 27/29
f 30/21 76/21 99/29
f 99/29 31/9 30/21
f 33/59 10/19 9/19
f 33/59 32/56 10/19
f 15/60 10/19 32/56
f 15/60 16/61 10/19
f 64/62 16/61 15/60
f 64/62 61/63 16/61
f 63/64 16/61 61/63
f 63/64 11/16 16/61
f 104/17 11/16 63/64
f 63/64 103/23 104/17
f 133/24 103/23 63/64
f 63/64 62/65 133/24
f 61/63 62/65 63/64
f 16/61 11/16 10/19
f 15/60 46/35 64/62
f 15/60 24/50 46/35
f 79/66 24/50 15/60
f 15/60 35/67 79/66
f 36/68 35/67 15/60
f 15/60 32/56 36/68
f 66/13 98/20 96/18
f 66/13 29/20 98/20
f 7/69 29/20 66/13
f 7/69 59/70 29/20
f 8/71 59/70 7/69
f 8/71 42/45 59/70
f 70/72 59/70 42/45
f 70/72 60/73 59/70
f 58/74 59/70 60/73
f 58/74 81/75 59/70
f 30/21 59/70 81/75
f 30/21 29/20 59/70
f 7/69 6/76 8/71
f 7/69 4/77 6/76
f 66/13 4/77 7/69
f 66/13 101/12 4/77
f 102/28 4/77 101/12
f 102/28 65/27 4/77
f 5/78 4/77 65/27
f 5/78 6/76 4/77
f 100/79 19/79 18/79
f 100/79 70/79 19/79
usemtl mat_1
f 38/80 39/81 37/82
f 38/80 47/83 39/81
f 75/84 39/81 47/83
f 75/84 51/85 39/81
f 50/86 39/81 51/85
f 50/86 52/87 39/81
f 49/88 39/81 52/87
f 49/88 48/89 39/81
f 94/90 39/81 48/89
f 94/90 95/91 39/81
f 71/92 39/81 95/91
f 71/92 37/82 39/81
usemtl mat_2
f 80/23 74/28 72/63
usemtl mat_3
f 88/93 86/94 87/95
f 88/93 91/96 86/94
f 93/97 86/94 91/96
f 93/97 89/98 86/94
f 90/99 86/94 89/98
f 90/99 92/100 86/94
f 87/95 86/94 92/100
usemtl mat_4
f 181/101 184/102 183/103
f 181/101 185/104 184/102
f 187/105 185/104 181/101
f 187/105 186/106 185/104
f 201/104 199/103 198/102
f 201/104 197/101 199/103
f 203/106 197/101 201/104
f 203/106 204/105 197/101
f 206/107 162/108 147/107
f 206/107 207/109 162/108
f 170/110 162/108 207/109
f 207/109 208/111 170/110
f 209/112 208/111 207/109
f 209/112 210/107 208/111
f 206/109 210/107 209/112
f 206/109 147/107 210/107
f 209/112 207/109 206/109
f 208/111 161/113 170/110
f 208/111 210/111 161/113
f 147/107 161/113 210/111
f 78/114 173/115 32/116
f 78/114 180/117 173/115
f 177/118 180/117 78/114
f 78/114 1/119 177/118
f 177/120 1/118 3/119
f 3/120 176/121 177/118
f 179/122 176/121 3/120
f 3/120 24/123 179/122
f 79/124 179/122 24/123
f 79/124 175/125 179/122
f 174/126 175/125 79/124
f 79/124 35/127 174/126
f 36/128 174/126 35/127
f 36/128 178/129 174/126
f 173/115 178/129 36/128
f 36/128 32/116 173/115
f 174/130 181/101 175/131
f 174/130 178/132 181/101
f 187/105 181/101 178/132
f 178/132 173/133 187/105
f 188/134 187/105 173/133
f 188/134 186/106 187/105
f 173/133 186/106 188/134
f 173/133 180/135 186/106
f 185/104 186/106 180/135
f 180/135 177/136 185/104
f 176/137 185/104 177/136
f 176/137 184/102 185/104
f 179/138 184/102 176/137
f 179/138 182/139 184/102
f 183/103 182/139 179/138
f 183/103 184/102 182/139
f 183/103 175/131 181/101
f 183/103 179/138 175/131
f 190/117 28/114 189/115
f 190/117 193/118 28/114
f 18/119 28/114 193/118
f 193/118 100/120 18/119
f 194/121 100/120 193/118
f 194/121 195/122 100/120
f 70/123 100/120 195/122
f 195/122 60/124 70/123
f 191/125 60/124 195/122
f 191/125 192/126 60/124
f 58/127 60/124 192/126
f 192/126 81/128 58/127
f 196/129 81/128 192/126
f 196/129 189/115 81/128
f 30/116 81/128 189/115
f 189/115 28/114 30/116
f 191/131 197/101 192/130
f 191/131 199/103 197/101
f 195/138 199/103 191/131
f 195/138 200/139 199/103
f 198/102 200/139 195/138
f 198/102 199/103 200/139
f 194/137 198/102 195/138
f 194/137 201/104 198/102
f 193/136 201/104 194/137
f 193/136 190/135 201/104
f 203/106 201/104 190/135
f 190/135 189/133 203/106
f 202/134 203/106 189/133
f 202/134 204/105 203/106
f 189/133 204/105 202/134
f 189/133 196/132 204/105
f 197/101 204/105 196/132
f 196/132 192/130 197/101
f 278/140 274/141 277/142
f 278/140 111/143 274/141
f 279/144 111/143 278/140
f 279/144 118/145 111/143
f 276/146 118/145 279/144
f 276/146 119/143 118/145
f 275/141 119/143 276/146
f 275/141 128/147 119/143
f 273/148 128/147 275/141
f 273/148 114/147 128/147
f 274/141 114/147 273/148
f 274/141 111/143 114/147
f 273/148 277/142 274/141
f 273/148 275/141 277/142
f 276/146 277/142 275/141
f 298/142 294/141 299/140
f 298/142 295/148 294/141
f 296/141 295/148 298/142
f 296/141 117/147 295/148
f 120/143 117/147 296/141
f 296/141 297/146 120/143
f 298/142 297/146 296/141
f 116/147 295/148 117/147
f 116/147 294/141 295/148
f 125/143 294/141 116/147
f 125/143 299/140 294/141
f 300/144 299/140 125/143
f 125/143 121/145 300/144
f 297/146 300/144 121/145
f 121/145 120/143 297/146
usemtl mat_5
f 146/149 67/150 145/151
f 146/149 69/152 67/150
f 144/153 69/152 146/149
f 144/153 68/154 69/152
f 165/155 167/156 168/157
f 170/158 161/159 205/160
f 170/158 168/157 162/161
f 205/160 171/162 157/163
f 213/164 218/165 214/164
f 213/164 217/166 218/165
f 216/167 217/166 213/164
f 216/167 219/166 217/166
f 215/168 219/166 216/167
f 215/168 220/169 219/166
f 214/164 220/169 215/168
f 214/164 218/165 220/169
f 135/170 158/171 157/171
f 135/170 71/172 158/171
f 166/155 138/155 165/155
f 166/155 95/155 138/155
f 42/173 134/174 95/175
f 42/173 8/176 134/174
f 138/177 134/174 8/176
f 138/177 95/175 134/174
f 6/178 138/177 8/176
f 6/178 140/179 138/177
f 137/180 140/179 6/178
f 137/180 169/181 140/179
f 155/182 169/181 137/180
f 155/182 164/183 169/181
f 150/184 164/183 155/182
f 150/184 162/185 164/183
f 147/186 162/185 150/184
f 150/184 148/187 147/186
f 152/188 148/187 150/184
f 152/188 149/189 148/187
f 151/188 149/189 152/188
f 151/188 153/190 149/189
f 159/191 149/189 153/190
f 159/191 161/192 149/189
f 160/193 161/192 159/191
f 160/193 223/194 161/192
f 171/195 223/194 160/193
f 171/195 227/196 223/194
f 205/197 227/196 171/195
f 205/197 228/198 227/196
f 226/199 228/198 205/197
f 226/199 225/200 228/198
f 224/201 225/200 226/199
f 224/201 231/202 225/200
f 229/203 231/202 224/201
f 229/203 230/204 231/202
f 228/198 230/204 229/203
f 228/198 233/205 230/204
f 232/206 233/205 228/198
f 232/206 231/202 233/205
f 225/200 231/202 232/206
f 232/206 228/198 225/200
f 230/204 233/205 231/202
f 149/189 147/186 148/187
f 149/189 161/192 147/186
f 159/191 171/195 160/193
f 159/191 172/207 171/195
f 153/190 172/207 159/191
f 153/190 139/208 172/207
f 142/209 139/208 153/190
f 142/209 133/210 139/208
f 67/150 133/210 142/209
f 142/209 145/151 67/150
f 153/190 145/151 142/209
f 153/190 151/190 145/151
f 152/188 145/151 151/190
f 152/188 146/149 145/151
f 144/153 146/149 152/188
f 152/188 154/188 144/153
f 155/182 144/153 154/188
f 155/182 143/211 144/153
f 137/180 143/211 155/182
f 137/180 65/212 143/211
f 5/213 65/212 137/180
f 137/180 6/178 5/213
f 229/203 227/196 228/198
f 229/203 224/201 227/196
f 223/194 227/196 224/201
f 224/201 226/199 223/194
f 161/192 223/194 226/199
f 226/199 205/197 161/192
f 62/214 139/208 133/210
f 62/214 61/215 139/208
f 141/216 139/208 61/215
f 141/216 172/207 139/208
f 157/217 172/207 141/216
f 157/217 171/195 172/207
f 68/154 143/211 65/212
f 68/154 144/153 143/211
f 150/184 154/182 152/188
f 150/184 155/182 154/182
f 141/216 135/218 157/217
f 141/216 61/215 135/218
f 64/219 135/218 61/215
f 64/219 136/220 135/218
f 46/221 136/220 64/219
f 46/221 71/222 136/220
f 135/218 136/220 71/222
f 163/223 164/183 162/185
f 163/223 167/224 164/183
f 169/181 164/183 167/224
f 167/224 165/225 169/181
f 140/179 169/181 165/225
f 165/225 138/177 140/179
f 158/226 156/227 157/228
f 158/226 71/229 156/227
f 95/230 156/227 71/229
f 95/230 166/231 156/227
f 165/232 156/227 166/231
f 165/232 168/233 156/227
f 170/158 156/227 168/233
f 170/158 205/234 156/227
f 157/228 156/227 205/234
f 215/168 211/235 214/164
f 215/168 212/236 211/235
f 216/167 212/236 215/168
f 216/167 213/167 212/236
f 211/235 212/236 213/167
f 213/167 214/164 211/235
f 220/169 221/237 219/166
f 220/169 222/238 221/237
f 218/165 222/238 220/169
f 218/165 217/165 222/238
f 221/237 222/238 217/165
f 217/165 219/166 221/237
f 163/193 234/194 167/195
f 163/193 162/192 234/194
f 235/199 234/194 162/192
f 235/199 237/201 234/194
f 236/200 237/201 235/199
f 236/200 241/202 237/201
f 243/206 241/202 236/200
f 243/206 244/205 241/202
f 240/198 244/205 243/206
f 240/198 242/204 244/205
f 239/203 242/204 240/198
f 239/203 241/202 242/204
f 237/201 241/202 239/203
f 239/203 238/196 237/201
f 240/198 238/196 239/203
f 240/198 168/197 238/196
f 235/199 168/197 240/198
f 235/199 162/192 168/197
f 241/202 244/205 242/204
f 238/196 234/194 237/201
f 238/196 167/195 234/194
f 168/197 167/195 238/196
f 240/198 236/200 235/199
f 240/198 243/206 236/200
usemtl mat_6
f 261/239 260/240 262/240
f 255/241 265/242 258/242
f 269/243 270/240 271/240
f 268/240 269/243 271/240
f 268/243 271/240 261/240
f 262/240 268/243 261/240
f 265/240 270/240 269/239
f 258/244 265/240 269/239
f 260/240 315/245 252/246
f 260/240 316/247 315/245
f 267/248 316/247 260/240
f 267/248 318/249 316/247
f 250/250 318/249 267/248
f 250/250 317/251 318/249
f 252/246 317/251 250/250
f 252/246 315/245 317/251
f 269/240 321/243 326/252
f 262/240 320/240 268/243
f 271/240 270/243 342/243
f 248/244 345/253 249/253
f 271/243 347/240 261/240
f 342/252 347/243 271/240
f 247/254 245/244 246/253
f 247/254 254/244 245/244
f 323/255 254/244 247/254
f 323/255 322/244 254/244
f 324/256 322/244 323/255
f 323/255 325/244 324/256
f 326/257 324/256 325/244
f 326/257 330/258 324/256
f 329/259 330/258 326/257
f 326/257 328/260 329/259
f 321/252 328/260 326/257
f 327/261 324/256 330/258
f 327/261 322/262 324/256
f 250/250 251/244 252/246
f 250/250 254/253 251/244
f 245/253 254/253 250/250
f 250/250 272/241 245/253
f 253/263 272/241 250/250
f 250/250 249/248 253/263
f 248/248 249/248 250/250
f 250/250 267/248 248/248
f 254/253 322/253 251/244
f 257/263 255/263 256/241
f 257/263 265/263 255/263
f 259/264 255/264 258/244
f 259/264 264/244 255/264
f 248/239 260/240 261/240
f 248/239 267/239 260/240
f 263/265 253/266 249/263
f 263/265 266/265 253/266
f 256/263 263/266 257/242
f 256/263 266/266 263/266
f 264/253 247/255 246/255
f 264/253 259/253 247/255
f 323/255 247/255 259/253
f 259/253 325/253 323/255
f 251/246 260/243 252/246
f 251/246 262/243 260/243
f 322/246 262/243 251/246
f 322/246 320/244 262/243
f 321/252 268/243 320/243
f 321/252 269/243 268/243
f 258/244 325/244 259/244
f 258/244 326/257 325/244
f 269/240 326/257 258/244
f 327/257 320/260 322/262
f 327/257 331/261 320/260
f 320/262 328/260 321/260
f 320/262 331/252 328/260
f 345/246 261/243 347/244
f 345/246 248/246 261/243
f 348/257 342/252 270/243
f 348/257 359/260 342/252
f 363/259 359/260 348/257
f 348/257 360/258 363/259
f 343/256 360/258 348/257
f 348/257 346/244 343/256
f 265/244 346/244 348/257
f 265/244 257/244 346/244
f 270/240 265/244 348/257
f 344/255 343/256 346/244
f 344/255 345/244 343/256
f 249/244 345/244 344/255
f 344/255 263/254 249/244
f 359/260 347/262 342/252
f 359/260 362/260 347/262
f 344/255 257/253 263/255
f 344/255 346/253 257/253
f 343/261 361/261 360/258
f 343/261 345/262 361/261
f 347/262 361/260 345/261
f 347/262 362/252 361/260
f 319/267 316/247 318/249
f 319/267 315/245 316/247
f 317/251 315/245 319/267
f 319/267 318/249 317/251
usemtl mat_7
f 113/268 245/269 112/270
f 113/268 246/271 245/269
f 129/270 246/271 113/268
f 129/270 264/269 246/271
f 131/272 264/269 129/270
f 131/272 255/272 264/269
f 110/273 255/272 131/272
f 110/273 256/274 255/272
f 109/275 256/274 110/273
f 109/275 266/276 256/274
f 126/273 266/276 109/275
f 126/273 253/274 266/276
f 122/272 253/274 126/273
f 122/272 272/272 253/274
f 112/272 272/272 122/272
f 112/272 245/269 272/272
f 122/272 124/277 112/270
f 122/272 123/272 124/277
f 126/273 123/272 122/272
f 126/273 127/278 123/272
f 123/279 108/280 104/281
f 124/282 123/279 104/281
f 127/283 101/284 108/285
f 123/286 127/283 108/285
f 132/287 110/288 131/289
f 132/287 115/290 110/288
f 107/291 115/290 132/287
f 107/291 106/292 115/290
f 130/293 131/289 129/294
f 130/293 132/287 131/289
f 105/295 132/287 130/293
f 105/295 107/291 132/287
f 111/296 109/297 110/298
f 111/296 118/299 109/297
f 119/300 109/275 118/301
f 119/300 126/273 109/275
f 127/278 126/273 119/300
f 113/268 120/302 121/303
f 113/268 112/270 120/302
f 124/277 120/302 112/270
f 125/304 113/305 121/306
f 125/304 129/307 113/305
f 115/290 111/308 110/288
f 115/290 114/309 111/308
f 106/292 114/309 115/290
f 106/292 102/310 114/309
f 128/311 114/309 102/310
f 102/310 101/284 128/311
f 127/283 128/311 101/284
f 127/283 119/312 128/311
f 124/282 117/313 120/314
f 124/282 104/281 117/313
f 103/315 117/313 104/281
f 103/315 116/316 117/313
f 105/295 116/316 103/315
f 105/295 130/293 116/316
f 125/317 116/316 130/293
f 130/293 129/294 125/317
usemtl mat_8
f 282/318 280/319 281/320
f 282/318 279/144 280/319
f 284/321 279/144 282/318
f 284/321 276/146 279/144
f 277/142 276/146 284/321
f 284/321 285/322 277/142
f 283/320 285/322 284/321
f 284/321 282/318 283/320
f 280/319 285/322 281/320
f 280/319 277/142 285/322
f 278/140 277/142 280/319
f 280/319 279/144 278/140
f 302/320 303/319 301/318
f 302/320 306/322 303/319
f 298/142 303/319 306/322
f 298/142 299/140 303/319
f 300/144 303/319 299/140
f 300/144 301/318 303/319
f 304/321 301/318 300/144
f 304/321 305/320 301/318
f 306/322 305/320 304/321
f 304/321 298/142 306/322
f 297/146 298/142 304/321
f 304/321 300/144 297/146
usemtl mat_9
f 290/323 286/324 287/325
f 290/323 289/326 286/324
f 293/327 289/326 290/323
f 293/327 292/328 289/326
f 291/329 292/328 293/327
f 291/329 288/330 292/328
f 309/326 307/325 308/324
f 309/326 312/323 307/325
f 314/328 312/323 309/326
f 314/328 313/327 312/323
f 310/330 313/327 314/328
f 310/330 311/329 313/327
f 327/331 334/332 333/332
f 331/333 327/331 333/332
f 332/333 338/334 337/335
f 328/331 332/333 337/335
f 330/336 340/337 341/338
f 335/339 330/336 341/338
f 332/340 335/341 341/342
f 338/343 332/340 341/342
f 350/333 361/344 362/344
f 351/331 350/333 362/344
f 354/334 352/333 359/331
f 355/335 354/334 359/331
f 358/337 360/336 349/339
f 357/338 358/337 349/339
f 349/341 352/340 354/343
f 357/342 349/341 354/343
f 339/345 337/346 338/343
f 339/345 336/347 337/346
f 341/342 336/347 339/345
f 341/342 340/348 336/347
f 341/342 339/345 338/343
f 356/347 354/343 355/346
f 356/347 353/345 354/343
f 358/348 353/345 356/347
f 358/348 357/342 353/345
f 354/343 353/345 357/342
f 290/323 291/329 293/327
f 290/323 287/325 291/329
f 285/349 291/329 287/325
f 285/349 283/350 291/329
f 288/330 291/329 283/350
f 283/350 282/351 288/330
f 286/324 288/330 282/351
f 286/324 289/326 288/330
f 292/328 288/330 289/326
f 281/352 286/324 282/351
f 281/352 287/325 286/324
f 285/349 287/325 281/352
f 311/329 312/323 313/327
f 311/329 307/325 312/323
f 306/349 307/325 311/329
f 306/349 302/352 307/325
f 308/324 307/325 302/352
f 302/352 301/351 308/324
f 310/330 308/324 301/351
f 310/330 309/326 308/324
f 314/328 309/326 310/330
f 305/350 310/330 301/351
f 305/350 311/329 310/330
f 306/349 311/329 305/350
f 328/333 333/331 332/331
f 328/333 331/331 333/331
f 334/339 330/332 335/336
f 334/339 327/344 330/332
f 337/346 329/353 328/354
f 337/346 336/347 329/353
f 340/348 329/353 336/347
f 340/348 330/355 329/353
f 351/333 359/333 352/333
f 351/333 362/333 359/333
f 360/339 350/332 349/344
f 360/339 361/336 350/332
f 363/353 355/346 359/354
f 363/353 356/347 355/346
f 358/348 356/347 363/353
f 363/353 360/355 358/348
usemtl mat_10
f 333/356 334/357 335/358
f 332/359 333/356 335/358
f 350/360 351/361 352/362
f 349/363 350/360 352/362
