# Blender v2.68 (sub 0) OBJ File: 'Salamence.blend'
# www.blender.org
mtllib Salamence.mtl
o polygon1_mat1
v 5.513776 9.559357 -9.214935
v 4.399172 8.661545 -8.278235
v 3.833512 7.881248 -9.795929
v 4.780791 9.221581 -6.915711
v 7.228064 11.458458 -6.531910
v 4.962196 9.632149 -5.376320
v 4.755306 9.777199 -3.342078
v 8.579790 15.340851 6.057681
v 7.224604 14.243866 6.375009
v 7.289836 14.626640 8.150705
v 6.981126 13.776131 4.833683
v 8.754313 14.954727 2.338008
v 6.529881 13.145653 3.433306
v 5.575663 12.060318 1.981577
v 5.441888 9.634834 -9.228155
v 6.697705 10.498123 -10.273232
v 4.841813 8.686157 -11.002823
v 8.324128 12.185440 -9.124423
v 7.009552 11.700294 -6.577421
v 9.474799 13.485825 -7.732658
v 10.414223 14.707260 -5.757375
v 8.645805 15.267654 6.070479
v 9.924313 16.431931 5.761300
v 8.691111 15.743607 7.998436
v 10.832088 16.797638 3.338755
v 8.972832 14.712891 2.383520
v 11.264111 16.776413 1.159168
v 11.254207 16.308090 -1.283543
v 4.841813 8.686157 -11.002823
v 2.895035 6.873938 -11.269019
v 6.697705 10.498123 -10.273232
v 8.324128 12.185440 -9.124423
v 3.710131 8.017586 -9.820257
v 2.895035 6.873938 -11.269019
v 4.263776 8.811348 -8.306480
v 4.606069 9.414902 -6.952143
v 7.407712 14.496147 8.174701
v 7.146272 14.744283 10.097144
v 7.360010 14.094131 6.403255
v 7.155850 13.582848 4.870119
v 8.691111 15.743607 7.998436
v 7.146272 14.744283 10.097144
v 9.924313 16.431931 5.761300
v 10.832088 16.797638 3.338755
v 11.254207 16.308090 -1.283543
v 11.264111 16.776413 1.159168
v 8.092974 13.612335 -2.269838
v 11.082973 15.708549 -3.643867
v 10.414223 14.707260 -5.757375
v 9.474799 13.485825 -7.732658
v 8.429396 13.240028 -2.199772
v 11.082973 15.708549 -3.643867
v 5.062012 11.136864 -0.740580
v 4.491924 10.069893 -3.397464
v 5.376050 10.787819 -0.674608
v 5.839050 11.767685 2.036964
v 4.748168 9.868996 -5.420890
v 6.743917 12.908813 3.477888
v -4.449210 0.518008 4.678820
v -4.766304 1.498998 4.243308
v -4.272965 1.197716 4.500335
v -6.030360 1.972899 4.173040
v -6.237170 0.792084 4.444970
v -6.979710 1.293739 5.959700
v -7.040064 0.642663 6.080355
v -6.911557 0.722268 6.228489
v -7.180166 -0.008412 6.140893
v -6.791065 -0.008412 6.497456
v -4.215410 0.792085 6.466730
v -5.856229 -0.008412 7.418303
v -4.458020 -0.008412 6.548029
v -5.741850 0.642663 7.351668
v -5.730190 1.293739 7.209210
v -5.932095 0.722268 7.161422
v -6.415305 0.722268 6.705110
v -6.244547 -0.008412 7.027631
v -6.304413 -0.008412 6.991987
v -4.449210 0.518008 4.678820
v -4.710549 -0.008412 4.953619
v -3.950170 1.972899 6.253240
v -5.487589 2.120729 6.793241
v -3.830680 2.456270 6.108750
v -5.178370 3.225808 6.694520
v -7.410656 0.499884 6.621197
v -6.911557 0.722268 6.228489
v -6.923757 0.351833 5.955307
v -6.593616 0.351833 6.396051
v -7.909755 -0.007400 7.013904
v -6.505124 0.061002 6.299439
v -6.845261 0.061002 5.812077
v -6.909397 0.499884 7.232800
v -6.415305 0.722268 6.705110
v -6.581129 0.480173 6.473403
v -6.168447 0.480173 6.835617
v -7.403489 -0.007400 7.760490
v -6.078788 0.061002 6.828150
v -6.589755 0.061002 6.379671
v -6.273197 0.499884 7.712123
v -5.932095 0.722268 7.161422
v -6.164485 0.351833 6.811169
v -5.693997 0.351833 7.195688
v -6.614300 -0.007400 8.262823
v -5.628891 0.061002 7.093062
v -6.085132 0.061002 6.732026
v -4.907226 2.085198 3.790863
v -5.893400 2.456270 3.824566
v -6.481250 3.224426 5.391640
v -5.419024 4.776465 4.376914
v -6.304950 -0.008412 4.701090
v -4.710549 -0.008412 4.953619
v -6.734962 2.120729 5.660914
v -3.671600 2.160937 5.304083
v -4.047091 1.630457 5.167535
v -4.272965 1.197716 4.500335
v -6.719930 -0.008412 6.581500
v -4.047091 1.630457 5.167535
v -4.096720 1.877424 4.321850
v -3.671600 2.160937 5.304083
v -4.272965 1.197716 4.500335
v -4.889210 3.851618 3.035311
v -4.766304 1.498998 4.243308
v -4.907226 2.085198 3.790863
v -4.710549 -0.008412 4.953619
v -7.180166 -0.008412 6.140893
v -6.304950 -0.008412 4.701090
v -4.458020 -0.008412 6.548029
v -5.856229 -0.008412 7.418303
v -6.244547 -0.008412 7.027631
v -6.304413 -0.008412 6.991987
v -6.719930 -0.008412 6.581500
v -6.791065 -0.008412 6.497456
v -5.040227 5.776960 4.074919
v -4.085910 5.146970 5.470740
v -3.728680 5.600098 5.409300
v -3.152560 3.830649 5.146920
v -4.476344 3.002116 3.244824
v -4.748710 3.829015 2.633597
v -4.476344 3.002116 3.244824
v -3.548209 2.580057 3.877634
v -3.548209 2.580057 3.877634
v -3.747183 2.290349 3.072772
v -3.218502 3.622218 4.935372
v -3.548209 2.580057 3.877634
v -2.775796 3.352149 5.205118
v -3.218502 3.622218 4.935372
v -1.307009 2.813913 6.141102
v -1.042331 3.193242 6.487372
v 3.747183 2.290349 3.072772
v 3.814748 1.866078 2.028388
v 3.953512 2.137365 2.019937
v 3.645124 1.979377 3.172083
v 3.548209 2.580057 3.877634
v 3.428628 2.266599 4.045851
v 2.775796 3.352149 5.205118
v 2.790875 3.034869 5.378702
v 1.307009 2.813913 6.141102
v 1.507926 2.637331 6.066700
v 1.409425 2.583222 5.893676
v 1.629845 1.997814 5.021015
v -1.409425 2.583222 5.893676
v -0.989281 2.833130 6.525680
v -1.307009 2.813913 6.141102
v -1.237432 2.342138 6.007111
v -1.629845 1.997814 5.021015
v -1.467170 1.765612 5.081755
v -1.798727 1.653773 3.536919
v -1.642078 1.338499 3.595341
v -1.873405 1.411573 2.086585
v -1.723006 1.104135 2.091582
v -1.042331 3.193242 6.487372
v 0.000000 2.816756 6.826328
v 0.000000 2.232979 6.251861
v 0.989281 2.833130 6.525680
v 1.237432 2.342138 6.007111
v 1.409425 2.583222 5.893676
v 1.629845 1.997814 5.021015
v -3.814748 1.866078 2.028388
v -3.747183 2.290349 3.072772
v -3.953512 2.137365 2.019937
v -3.645124 1.979377 3.172083
v -2.116155 1.317471 2.076116
v -2.015303 1.538319 3.553500
v -1.873405 1.411573 2.086585
v -1.798727 1.653773 3.536919
v -3.548209 2.580057 3.877634
v -3.428628 2.266599 4.045851
v -1.861350 1.888321 4.950121
v -1.629845 1.997814 5.021015
v 0.000000 0.960008 2.119905
v 0.000000 1.188219 3.733375
v 1.642078 1.338499 3.595341
v 1.467170 1.765612 5.081755
v 1.798727 1.653773 3.536919
v 4.766500 5.272631 2.026150
v 5.040227 5.776960 4.074919
v 4.748710 3.829015 2.633597
v 4.450448 6.464512 3.811960
v 3.516200 7.116988 2.045660
v 2.021990 7.846223 5.999390
v 0.000000 8.671983 5.612560
v -2.775796 3.352149 5.205118
v -2.790875 3.034869 5.378702
v -1.507926 2.637331 6.066700
v -1.307009 2.813913 6.141102
v -1.409425 2.583222 5.893676
v 0.000000 1.682216 5.405354
v 4.889210 3.851618 3.035311
v 5.419024 4.776465 4.376914
v 4.476344 3.002116 3.244824
v 3.548209 2.580057 3.877634
v -4.766500 5.272631 2.026150
v -4.450448 6.464512 3.811960
v -2.021990 7.846223 5.999390
v 1.861350 1.888321 4.950121
v 1.798727 1.653773 3.536919
v 2.116155 1.317471 2.076116
v 2.015303 1.538319 3.553500
v 2.775796 3.352149 5.205118
v 3.152560 3.830649 5.146920
v 3.728680 5.600098 5.409300
v 3.218502 3.622218 4.935372
v 3.548209 2.580057 3.877634
v -3.953512 2.137365 2.019937
v -4.851420 3.766323 2.008960
v -3.516200 7.116988 2.045660
v 0.000000 8.306892 2.106660
v 1.873405 1.411573 2.086585
v 1.873405 1.411573 2.086585
v 1.723006 1.104135 2.091582
v 3.747183 2.290349 3.072772
v 3.953512 2.137365 2.019937
v 4.851420 3.766323 2.008960
v 1.307009 2.813913 6.141102
v 1.042331 3.193242 6.487372
v -1.114802 7.773979 3.075440
v -1.394631 7.928932 3.026479
v -1.398621 7.774223 3.074580
v -1.112142 7.928589 3.027710
v 1.307009 2.813913 6.141102
v 1.042331 3.193242 6.487372
v 0.000000 3.181342 6.838820
v 4.907226 2.085198 3.790863
v 5.893400 2.456270 3.824566
v 6.481250 3.224426 5.391640
v 4.085910 5.146970 5.470740
v 5.178370 3.225808 6.694520
v 3.830680 2.456270 6.108750
v 3.671600 2.160937 5.304083
v 4.096720 1.877424 4.321850
v 4.476344 3.002116 3.244824
v 4.907226 2.085198 3.790863
v 3.548209 2.580057 3.877634
v 3.218502 3.622218 4.935372
v 6.030360 1.972899 4.173040
v 3.671600 2.160937 5.304083
v 4.458020 -0.008412 6.548030
v 4.449210 0.518008 4.678820
v 4.710549 -0.008412 4.953620
v 4.215410 0.792085 6.466730
v 5.856230 -0.008412 7.418302
v 5.741850 0.642663 7.351667
v 5.932096 0.722268 7.161422
v 5.730190 1.293739 7.209210
v 6.415305 0.722268 6.705110
v 6.979710 1.293739 5.959700
v 6.911557 0.722268 6.228489
v 7.040065 0.642663 6.080355
v 7.180166 -0.008412 6.140893
v 6.237170 0.792084 4.444970
v 4.766304 1.498998 4.243308
v 4.449210 0.518008 4.678820
v 6.304951 -0.008412 4.701089
v 5.487589 2.120729 6.793241
v 6.734962 2.120729 5.660914
v 6.273197 0.499884 7.712122
v 5.932096 0.722268 7.161422
v 5.693997 0.351833 7.195688
v 6.164485 0.351833 6.811168
v 6.614300 -0.007400 8.262822
v 6.085133 0.061002 6.732026
v 5.628892 0.061002 7.093062
v 6.244548 -0.008412 7.027631
v 6.304413 -0.008412 6.991986
v 6.719929 -0.008412 6.581500
v 4.047091 1.630457 5.167535
v 4.272965 1.197716 4.500335
v 3.950170 1.972899 6.253240
v 6.923758 0.351833 5.955306
v 7.909756 -0.007400 7.013903
v 6.845262 0.061002 5.812076
v 7.410656 0.499884 6.621196
v 6.911557 0.722268 6.228489
v 6.593617 0.351833 6.396050
v 7.403490 -0.007400 7.760489
v 6.168447 0.480173 6.835616
v 6.078789 0.061002 6.828150
v 6.909398 0.499884 7.232800
v 6.581129 0.480173 6.473403
v 6.415305 0.722268 6.705110
v 6.791066 -0.008412 6.497456
v 4.047091 1.630457 5.167535
v 4.272965 1.197716 4.500335
v 4.766304 1.498998 4.243308
v 7.180166 -0.008412 6.140893
v 4.710549 -0.008412 4.953620
v 6.304951 -0.008412 4.701089
v 6.791066 -0.008412 6.497456
v 6.719929 -0.008412 6.581500
v 6.304413 -0.008412 6.991986
v 6.244548 -0.008412 7.027631
v 5.856230 -0.008412 7.418302
v 6.505125 0.061002 6.299438
v 6.589755 0.061002 6.379670
v 4.272965 1.197716 4.500335
v 4.710549 -0.008412 4.953620
v 4.458020 -0.008412 6.548030
v 0.000000 4.333980 -29.528999
v 0.302489 3.885142 -25.600096
v 0.000000 3.760192 -26.136866
v 0.658439 4.199461 -24.448900
v 0.262118 4.456864 -28.705889
v 0.000000 4.988018 -24.445000
v 0.000000 4.549828 -29.261078
v -0.262117 4.456864 -28.705889
v -0.658439 4.199461 -24.448900
v -0.302489 3.885142 -25.600096
v -0.438959 3.711478 -24.446198
v 0.438959 3.711478 -24.446198
v 0.748378 3.264959 -19.798367
v 1.122567 4.128654 -19.796900
v 1.541211 4.215957 -15.116100
v 0.000000 5.453906 -15.108600
v 1.946988 4.435984 -10.460300
v 0.000000 5.741806 -10.444000
v -1.122567 4.128654 -19.796900
v -0.748378 3.264959 -19.798367
v -1.541211 4.215957 -15.116100
v -1.027474 2.959469 -15.114799
v -1.297992 2.619673 -10.459034
v 0.000000 5.227205 -19.791599
v 0.438959 3.711478 -24.446198
v 0.000000 3.473298 -24.440800
v 0.302489 3.885142 -25.600096
v 0.000000 2.966260 -19.801300
v 0.748378 3.264959 -19.798367
v 1.027474 2.959469 -15.114799
v -1.946988 4.435984 -10.460300
v 0.000000 3.760192 -26.136866
v -0.302489 3.885142 -25.600096
v -0.438959 3.711478 -24.446198
v -0.748378 3.264959 -19.798367
v -1.027474 2.959469 -15.114799
v 0.000000 2.588600 -15.112200
v 0.000000 2.255110 -10.456500
v -1.297992 2.619673 -10.459034
v 1.297992 2.619673 -10.459034
v 1.297992 2.619673 -10.459034
v 1.027474 2.959469 -15.114799
v 1.249190 9.935691 14.378392
v 1.364034 10.499466 13.291181
v 1.136251 9.952504 14.381411
v 1.266982 9.877623 14.345980
v 0.970539 9.611712 14.981163
v 1.009062 9.557178 14.964225
v 0.683944 9.374090 15.330444
v 0.858726 9.297491 14.894581
v 0.396272 9.127115 15.298689
v 0.485418 9.057637 14.838726
v 0.000000 8.997165 14.812083
v 0.000000 8.994502 14.346448
v -0.485418 9.057637 14.838726
v -0.543589 9.101804 14.352398
v -0.858726 9.297491 14.894581
v -1.076518 9.472816 14.378240
v -1.009062 9.557178 14.964225
v -1.267037 9.877623 14.345980
v -0.970539 9.611712 14.981163
v -1.249190 9.935691 14.378392
v -0.884620 9.647969 14.953197
v -1.136251 9.952504 14.381411
v -1.364034 10.499466 13.291181
v -1.466055 10.135453 12.657204
v -1.203667 9.601003 13.700858
v -1.168277 9.720498 12.566077
v -0.653808 9.230499 13.580047
v -0.893149 9.428939 12.549530
v 0.000000 9.252690 12.563680
v 0.000000 9.616543 11.701572
v 0.893149 9.428939 12.549530
v 1.086318 9.793198 11.687339
v 1.168277 9.720498 12.566077
v 1.466055 10.135453 12.657204
v 1.203667 9.601003 13.700858
v 1.076518 9.472816 14.378240
v 0.884620 9.647969 14.953197
v 0.670934 9.429679 15.354548
v 0.418088 9.307288 15.597107
v 0.419297 9.245749 15.576829
v 0.000000 9.200821 15.677899
v 0.000000 9.080027 15.357845
v -0.419297 9.245749 15.576829
v -0.396272 9.127162 15.298690
v -0.683944 9.374090 15.330444
v 1.364770 11.191057 12.024207
v 0.969482 9.802619 14.393081
v 1.364034 10.499466 13.291181
v 1.199498 10.387718 13.093445
v 0.000000 11.344357 11.884267
v 0.000000 10.303805 14.449916
v -1.199498 10.387718 13.093445
v -0.543973 10.256724 14.433652
v -0.879701 9.983301 14.452614
v -0.414519 9.842441 15.041025
v -0.525271 9.721868 15.021753
v -0.343607 9.591824 15.114821
v -0.529180 9.467366 14.684093
v -0.318595 9.421066 14.828676
v 0.000000 9.408981 14.873197
v 0.000000 9.590440 15.152137
v 0.318595 9.421066 14.828676
v 0.343607 9.591824 15.114821
v 0.529180 9.467366 14.684093
v 0.525271 9.721868 15.021753
v 0.879701 9.983301 14.452614
v 0.414519 9.842441 15.041025
v 0.543973 10.256724 14.433652
v 0.000000 9.866131 15.062750
v 0.408208 9.278827 14.968121
v 0.548731 9.642280 15.313373
v 0.578249 9.338988 15.039438
v 0.505707 9.632737 15.320222
v 0.280220 9.228077 15.095417
v 0.460899 9.622406 15.356197
v 0.322455 9.243629 15.293474
v 0.458386 9.621337 15.385427
v 0.493230 9.309088 15.362874
v 0.511580 9.602665 15.405063
v 0.621567 9.353639 15.236130
v 0.557619 9.613219 15.369007
v -0.578249 9.338988 15.039438
v -0.548731 9.642280 15.313373
v -0.408208 9.278827 14.968121
v -0.557619 9.613219 15.369007
v -0.621567 9.353639 15.236130
v -0.511580 9.602665 15.405063
v -0.493230 9.309088 15.362874
v -0.458386 9.621337 15.385427
v -0.322455 9.243629 15.293474
v -0.460899 9.622406 15.356197
v -0.280220 9.228077 15.095417
v -0.505707 9.632737 15.320222
v 0.000000 9.065967 13.549763
v 0.653808 9.230499 13.580047
v -0.884620 9.647969 14.953197
v -0.969482 9.802619 14.393081
v -1.136251 9.952504 14.381411
v -0.529180 9.467366 14.684093
v -0.595825 9.456684 15.319088
v -0.318595 9.421066 14.828676
v -0.367419 9.357919 15.528308
v 0.000000 9.408981 14.873197
v 0.595825 9.456684 15.319088
v 0.367419 9.357919 15.528308
v 0.000000 9.266621 15.693088
v 0.000000 9.322154 15.595518
v -0.367419 9.357919 15.528308
v 0.318595 9.421066 14.828676
v 0.595825 9.456684 15.319088
v 0.529180 9.467366 14.684093
v 0.367419 9.357919 15.528308
v 0.000000 9.322154 15.595518
v 0.884620 9.647969 14.953197
v 1.136251 9.952504 14.381411
v -1.364770 11.191057 12.024207
v -1.364034 10.499466 13.291181
v 0.543589 9.101804 14.352398
v -0.418088 9.307288 15.597107
v -0.595825 9.456684 15.319088
v -0.670934 9.429679 15.354548
v -1.466055 10.135453 12.657204
v -1.694534 10.137876 11.767781
v -1.086318 9.793198 11.687339
v -1.900860 10.349805 12.174781
v -1.364034 10.499466 13.291181
v 0.498572 9.763094 15.416199
v -0.498572 9.763094 15.416199
v -0.969482 9.802619 14.393081
v 0.969482 9.802619 14.393081
v -1.086318 9.793198 11.687339
v 1.694534 10.137876 11.767781
v 1.466055 10.135453 12.657204
v 1.086318 9.793198 11.687339
v 1.900860 10.349805 12.174781
v 1.364034 10.499466 13.291181
v 3.877420 14.214808 10.636308
v 1.469909 11.972661 10.838417
v 1.480132 12.035980 11.892204
v 3.876125 14.215816 10.548487
v 3.957278 14.282001 10.602574
v 3.892188 14.193728 10.524278
v 3.893493 14.197515 10.624191
v 1.796282 11.344592 10.553939
v 1.906927 11.464816 11.974257
v 5.276471 11.455407 10.395280
v 1.807659 10.903335 13.479361
v 5.258554 11.388443 10.542957
v 1.933585 10.746009 13.455062
v 5.281082 11.365958 10.358742
v 2.093487 10.997141 11.529970
v 4.074234 8.803185 10.447956
v 4.082006 8.796504 10.344450
v 4.128258 8.706926 10.415357
v 4.057124 8.772837 10.351830
v 4.030643 8.756028 10.419986
v 1.836823 10.392886 11.218465
v 1.900860 10.349805 12.174781
v -1.796282 11.344592 10.553939
v -5.281082 11.365958 10.358742
v -5.291449 11.438219 10.232390
v -2.093487 10.997141 11.529970
v -4.074234 8.803185 10.447956
v -1.933585 10.746009 13.455062
v -4.033080 8.789907 10.599365
v -1.364034 10.499466 13.291181
v -4.018384 8.775774 10.602579
v -1.900860 10.349805 12.174781
v -4.018758 8.760336 10.535695
v -4.030643 8.756028 10.419986
v -4.128258 8.706926 10.415357
v -4.057124 8.772837 10.351830
v -4.082006 8.796504 10.344450
v -1.885462 10.729494 10.601380
v 0.000000 12.188164 12.880326
v 0.478898 11.631621 13.977180
v 0.520098 12.079150 12.885453
v 0.000000 11.703814 13.982574
v -0.478898 11.631621 13.977180
v 0.000000 11.077439 15.147644
v -0.617204 10.867571 14.880114
v -0.408994 10.547731 15.690081
v -0.981887 10.513395 15.091151
v -0.997003 10.289908 15.303762
v -1.440155 10.661321 14.268081
v -1.459554 10.542999 14.384281
v -1.933585 10.746009 13.455062
v -1.434693 10.236130 14.652327
v -1.364034 10.499466 13.291181
v -1.274270 10.172996 14.621017
v -0.609880 10.123705 15.456288
v -0.599023 9.812064 15.378081
v -0.678029 10.072687 15.568749
v -0.594425 9.828354 15.363920
v -0.478124 10.123899 15.456295
v -0.547678 9.828216 15.363556
v -0.416674 10.072925 15.568768
v -0.524574 9.802227 15.399627
v -0.481828 10.021187 15.681333
v -0.529171 9.785932 15.413976
v -0.612746 10.021127 15.681217
v -0.575712 9.786022 15.414310
v -1.836823 10.392886 11.218465
v -1.459929 9.965441 10.748855
v -1.452440 10.378039 10.112892
v -1.211268 9.344150 10.545063
v -1.092299 9.540530 8.904936
v -1.302390 8.748113 9.587934
v -1.395156 8.683224 7.434138
v -1.452563 7.633848 8.156931
v -1.860470 5.762146 6.918984
v 0.678029 10.072687 15.568749
v 0.599023 9.812064 15.378081
v 0.609880 10.123705 15.456288
v 0.575712 9.786022 15.414310
v 0.612746 10.021127 15.681217
v 0.529171 9.785932 15.413976
v 0.481828 10.021187 15.681333
v 0.524574 9.802227 15.399627
v 0.416674 10.072925 15.568768
v 0.547678 9.828216 15.363556
v 0.478124 10.123899 15.456295
v 0.594425 9.828354 15.363920
v 1.048684 11.332689 14.181293
v 0.617204 10.867571 14.880114
v 1.449222 11.558710 13.298181
v 0.747402 11.200678 14.743191
v 1.018009 11.598172 14.199204
v 0.725802 11.811651 14.106441
v 0.824597 12.368010 12.989284
v 0.520098 12.079150 12.885453
v 0.906368 12.622112 11.813839
v 0.579541 12.277764 11.784741
v 0.867329 12.452718 10.857984
v 0.553935 12.155180 10.876337
v 0.580621 11.869135 10.224744
v 0.617204 10.867571 14.880114
v 0.408994 10.547731 15.690081
v 0.981887 10.513395 15.091151
v 0.997003 10.289908 15.303762
v 1.440155 10.661321 14.268081
v 1.459554 10.542999 14.384281
v 1.933585 10.746009 13.455062
v 1.434693 10.236130 14.652327
v 1.364034 10.499466 13.291181
v 1.274270 10.172996 14.621017
v 1.633247 11.066895 13.463712
v 1.807659 10.903335 13.479361
v 1.645268 11.512529 13.197234
v 3.894798 14.201299 10.724104
v 3.878716 14.213798 10.724129
v 1.449222 11.558710 13.298181
v 1.836823 10.392886 11.218465
v 1.459929 9.965441 10.748855
v 1.211268 9.344150 10.545063
v 1.009390 9.261900 10.626185
v 1.302390 8.748113 9.587934
v 1.006967 8.530608 9.761889
v 1.452563 7.633848 8.156931
v 1.028144 7.142437 8.434245
v 0.948913 6.146799 7.808546
v -0.478898 11.631621 13.977180
v -0.574104 10.936177 14.887773
v -0.617204 10.867571 14.880114
v -0.583831 11.292663 14.735127
v -0.725802 11.811651 14.106441
v -0.747402 11.200678 14.743191
v -1.018009 11.598172 14.199204
v -1.048684 11.332689 14.181293
v -1.302699 12.066340 13.150208
v -1.444435 11.817243 13.233933
v -1.480132 12.035980 11.892204
v -1.449222 11.558710 13.298181
v 4.033080 8.789907 10.599365
v 1.364034 10.499466 13.291181
v 4.018384 8.775774 10.602579
v 4.018758 8.760336 10.535695
v 1.469909 11.972661 10.838417
v 1.201485 12.135773 10.947334
v 1.480132 12.035980 11.892204
v 0.580621 11.869135 10.224744
v 1.326655 11.363848 10.110047
v 0.788917 10.839953 9.336929
v 1.452440 10.378039 10.112892
v 1.092299 9.540530 8.904936
v -1.906927 11.464816 11.974257
v -3.893493 14.197515 10.624191
v -5.276471 11.455407 10.395280
v -5.419027 11.433089 10.311675
v -5.258554 11.388443 10.542957
v -1.807659 10.903335 13.479361
v 0.000000 10.318513 8.334210
v 0.000000 11.133105 9.110649
v -0.788917 10.839953 9.336929
v -0.580621 11.869135 10.224744
v -1.326655 11.363848 10.110047
v -1.469909 11.972661 10.838417
v -1.796282 11.344592 10.553939
v -0.593193 9.874068 15.771207
v -0.602677 9.931029 15.787672
v -0.957382 9.990509 15.333764
v -0.331124 9.817920 16.049437
v 0.000000 9.874758 15.803243
v 0.000000 9.780993 16.234520
v 0.331124 9.817920 16.049437
v 0.339981 9.877109 16.058996
v 0.602677 9.931029 15.787672
v -3.877420 14.214808 10.636308
v -1.645268 11.512529 13.197234
v -1.480132 12.035980 11.892204
v -3.878716 14.213798 10.724129
v -3.957278 14.282001 10.602574
v -3.894798 14.201299 10.724104
v -0.520098 12.079150 12.885453
v -0.824597 12.368010 12.989284
v -0.906368 12.622112 11.813839
v -1.369493 12.410030 11.863962
v -1.201485 12.135773 10.947334
v 0.000000 10.171968 16.164822
v 0.000000 10.550503 15.789800
v -0.376714 10.198812 16.004379
v -0.998107 10.047998 15.362110
v -1.469909 11.972661 10.838417
v -3.876125 14.215816 10.548487
v -3.892188 14.193728 10.524278
v 1.395156 8.683224 7.434138
v 0.000000 9.319323 6.995380
v 1.860470 5.762146 6.918984
v 0.618402 5.311086 7.592284
v -1.006967 8.530608 9.761889
v 0.000000 9.000476 10.954630
v -1.009390 9.261900 10.626185
v 0.000000 8.134387 10.073437
v -1.028144 7.142437 8.434245
v 0.000000 6.562808 8.675930
v -0.948913 6.146799 7.808546
v -0.618402 5.311086 7.592284
v 1.201485 12.135773 10.947334
v 1.369493 12.410030 11.863962
v 1.302699 12.066340 13.150208
v -1.885462 10.729494 10.601380
v 0.478898 11.631621 13.977180
v 0.583840 11.292663 14.735127
v 0.574104 10.936177 14.887773
v -1.274270 10.172996 14.621017
v -0.957382 9.990509 15.333764
v 0.000000 10.207260 15.335702
v -0.593193 9.874068 15.771207
v 0.000000 9.874758 15.803243
v 0.998107 10.047998 15.362110
v 0.957382 9.990509 15.333764
v 0.593193 9.874068 15.771207
v 0.376714 10.198812 16.004379
v 0.339981 9.877109 16.058996
v 0.602677 9.931029 15.787672
v 0.000000 9.841434 16.247381
v 0.000000 10.171968 16.164822
v -0.376714 10.198812 16.004379
v 1.444435 11.817243 13.233933
v 1.480132 12.035980 11.892204
v 0.000000 11.978312 10.181281
v 0.553935 12.155180 10.876337
v 0.000000 12.257232 10.804681
v -0.553935 12.155180 10.876337
v -0.579541 12.277764 11.784741
v 0.579541 12.277764 11.784741
v 0.000000 12.336928 11.791142
v -0.520098 12.079150 12.885453
v 0.000000 4.039603 7.281220
v 0.000000 3.181342 6.838820
v -1.633247 11.066895 13.463712
v -1.807659 10.903335 13.479361
v -1.449222 11.558710 13.298181
v 1.422544 10.849588 13.966256
v 1.807659 10.903335 13.479361
v 5.291449 11.438219 10.232390
v 5.419027 11.433089 10.311675
v -1.422544 10.849588 13.966256
v -1.633247 11.066895 13.463712
v -1.807659 10.903335 13.479361
v -0.579541 12.277764 11.784741
v -0.867329 12.452718 10.857984
v -0.553935 12.155180 10.876337
v -0.580621 11.869135 10.224744
v 0.376714 10.198812 16.004379
v 0.593193 9.874068 15.771207
v 0.957382 9.990509 15.333764
v 1.885462 10.729494 10.601380
v 1.885462 10.729494 10.601380
v -1.028144 7.142437 8.434245
v -1.006967 8.530608 9.761889
v -0.948913 6.146799 7.808546
v 1.006967 8.530608 9.761889
v 1.028144 7.142437 8.434245
v 1.086318 9.793198 11.687339
v 0.000000 9.616543 11.701572
v 1.009390 9.261900 10.626185
v 0.570687 9.715663 15.308270
v -0.570687 9.715663 15.308270
v 1.274270 10.172996 14.621017
v 1.796282 11.344592 10.553939
v -0.339981 9.877109 16.058996
v -0.602677 9.931029 15.787672
v 0.000000 11.344357 11.884267
v 0.000000 9.841434 16.247381
v -0.339981 9.877109 16.058996
v -1.201485 12.135773 10.947334
v -1.480132 12.035980 11.892204
v 0.000000 5.053459 7.672214
v -0.618402 5.311086 7.592284
v -1.836823 10.392886 11.218465
v -1.086318 9.793198 11.687339
v -1.009390 9.261900 10.626185
v 0.000000 5.053459 7.672214
v 0.618402 5.311086 7.592284
v 0.948913 6.146799 7.808546
v 1.633247 11.066895 13.463712
v -5.441888 9.634834 -9.228155
v -4.263776 8.811348 -8.306480
v -3.710131 8.017586 -9.820257
v -4.606069 9.414902 -6.952143
v -7.009552 11.700294 -6.577421
v -4.748168 9.868996 -5.420890
v -4.491924 10.069893 -3.397464
v -8.645805 15.267654 6.070479
v -7.360010 14.094131 6.403255
v -7.407712 14.496147 8.174701
v -7.155850 13.582848 4.870119
v -8.972832 14.712891 2.383520
v -6.743917 12.908813 3.477888
v -5.839050 11.767685 2.036964
v -5.513776 9.559357 -9.214935
v -6.697705 10.498123 -10.273232
v -4.841813 8.686157 -11.002823
v -8.324128 12.185440 -9.124423
v -7.228064 11.458458 -6.531910
v -9.474799 13.485825 -7.732658
v -10.414223 14.707260 -5.757375
v -8.579790 15.340851 6.057681
v -9.924313 16.431931 5.761300
v -8.691111 15.743607 7.998436
v -10.832088 16.797638 3.338755
v -8.754313 14.954727 2.338008
v -11.264111 16.776413 1.159168
v -11.254207 16.308090 -1.283543
v -3.833512 7.881248 -9.795929
v -2.895035 6.873938 -11.269019
v -4.399172 8.661545 -8.278235
v -4.780791 9.221581 -6.915711
v -4.841813 8.686157 -11.002823
v -2.895035 6.873938 -11.269019
v -6.697705 10.498123 -10.273232
v -8.324128 12.185440 -9.124423
v -8.691111 15.743607 7.998436
v -7.146272 14.744283 10.097144
v -9.924313 16.431931 5.761300
v -10.832088 16.797638 3.338755
v -7.289836 14.626640 8.150705
v -7.146272 14.744283 10.097144
v -7.224604 14.243866 6.375009
v -6.981126 13.776131 4.833683
v -11.254207 16.308090 -1.283543
v -11.264111 16.776413 1.159168
v -8.429396 13.240028 -2.199772
v -11.082973 15.708549 -3.643867
v -10.414223 14.707260 -5.757375
v -9.474799 13.485825 -7.732658
v -8.092974 13.612335 -2.269838
v -11.082973 15.708549 -3.643867
v -5.376050 10.787819 -0.674608
v -4.755306 9.777199 -3.342078
v -5.062012 11.136864 -0.740580
v -5.575663 12.060318 1.981577
v -4.962196 9.632149 -5.376320
v -6.529881 13.145653 3.433306
v 4.645999 1.043393 -4.142912
v 4.900625 0.508453 -3.210125
v 4.731647 0.837633 -3.224864
v 5.116530 0.468389 -5.205680
v 4.347249 1.708022 -5.177960
v 6.911350 1.113403 -5.303780
v 6.450859 2.218746 -5.179154
v 7.617590 1.545168 -3.605920
v 7.231810 2.391668 -3.488890
v 6.275390 1.171295 -2.310810
v 5.877240 2.028964 -2.267960
v 5.382724 1.851306 -2.596754
v -7.190290 -0.000659 -5.271020
v -5.116530 0.468389 -5.205680
v -5.352990 -0.000663 -5.133590
v -6.911350 1.113403 -5.303780
v -7.678769 0.671421 -3.527449
v -7.617590 1.545168 -3.605920
v -7.328127 0.661930 -3.158212
v -6.275390 1.171295 -2.310810
v -6.892234 0.623051 -2.719717
v -6.564037 0.518980 -2.439266
v -6.733539 -0.000660 -2.541759
v -5.227730 -0.000660 -3.306139
v 5.227730 -0.000660 -3.306141
v 4.900625 0.508453 -3.210125
v 6.564037 0.518980 -2.439268
v 6.733540 -0.000660 -2.541760
v 6.892234 0.623050 -2.719718
v 7.070462 -0.000660 -2.879088
v 7.328126 0.661929 -3.158212
v 7.137846 -0.000660 -2.946554
v 7.542154 -0.000660 -3.351347
v -4.347249 1.708022 -5.177960
v -6.450859 2.218746 -5.179154
v -7.231810 2.391668 -3.488890
v -5.877240 2.028964 -2.267960
v -5.382724 1.851306 -2.596754
v -7.542153 -0.000660 -3.351346
v -7.609538 -0.000660 -3.418812
v -7.137846 -0.000660 -2.946553
v -7.070462 -0.000660 -2.879087
v 7.678770 0.671420 -3.527450
v 7.609538 -0.000660 -3.418812
v -6.553346 0.426592 -2.802699
v -7.548490 -0.007401 -1.813400
v -6.370470 0.061001 -2.979200
v -7.220362 0.473911 -2.266559
v -6.892234 0.623051 -2.719717
v -7.007515 0.429502 -3.096075
v -6.993793 0.446032 -3.077259
v -8.183017 -0.007401 -2.208586
v -6.846187 0.061001 -3.163245
v -7.729725 0.493351 -2.667526
v -7.328127 0.661930 -3.158212
v -7.326563 0.446033 -3.410424
v -7.289004 0.447869 -3.403234
v -8.575085 -0.007400 -2.880657
v -7.135644 0.061001 -3.591887
v -8.060452 0.519725 -3.060572
v -7.678769 0.671421 -3.527449
v -7.534886 0.450778 -3.920320
v 7.729726 0.493350 -2.667527
v 7.326562 0.446032 -3.410424
v 7.328126 0.661929 -3.158212
v 8.183018 -0.007401 -2.208586
v 6.993794 0.446032 -3.077260
v 6.846188 0.061001 -3.163246
v 7.548491 -0.007401 -1.813401
v 6.553347 0.426592 -2.802700
v 6.370470 0.061001 -2.979200
v 7.220363 0.473910 -2.266559
v 7.007516 0.429501 -3.096076
v 6.892234 0.623050 -2.719718
v 7.534885 0.450777 -3.920320
v 8.575086 -0.007401 -2.880657
v 7.422785 0.061001 -4.359905
v 8.060452 0.519724 -3.060572
v 7.678770 0.671420 -3.527450
v 7.289003 0.447868 -3.403234
v 4.393691 1.495991 -3.254343
v 5.304399 1.258199 -2.772475
v 5.382724 1.851306 -2.596754
v 4.731647 0.837633 -3.224864
v 4.645999 1.043393 -4.142912
v -4.900625 0.508453 -3.210125
v -4.645999 1.043393 -4.142912
v -4.731647 0.837633 -3.224864
v -5.352990 -0.000663 -5.133590
v 5.304399 1.258199 -2.772475
v 4.731647 0.837633 -3.224864
v -5.304399 1.258199 -2.772475
v -4.900625 0.508453 -3.210125
v 5.352990 -0.000663 -5.133590
v 5.227730 -0.000660 -3.306141
v 7.946460 -0.000660 -3.756140
v 7.190290 -0.000660 -5.271020
v 5.352990 -0.000663 -5.133590
v -5.352990 -0.000663 -5.133590
v -7.946460 -0.000659 -3.756140
v -7.190290 -0.000659 -5.271020
v -5.227730 -0.000660 -3.306139
v -6.733539 -0.000660 -2.541759
v -7.070462 -0.000660 -2.879087
v -7.137846 -0.000660 -2.946553
v -7.542153 -0.000660 -3.351346
v 7.946460 -0.000660 -3.756140
v 5.352990 -0.000663 -5.133590
v 7.190290 -0.000660 -5.271020
v 7.609538 -0.000660 -3.418812
v 7.542154 -0.000660 -3.351347
v 7.137846 -0.000660 -2.946554
v 7.070462 -0.000660 -2.879088
v 6.733540 -0.000660 -2.541760
v -5.304399 1.258199 -2.772475
v -4.393691 1.495991 -3.254343
v -5.382724 1.851306 -2.596754
v -4.731647 0.837633 -3.224864
v -6.850460 0.061001 -3.266920
v -4.645999 1.043393 -4.142912
v -4.362729 1.637345 -4.536755
v -7.241657 0.061001 -3.559186
v -4.362729 1.637345 -4.536755
v -7.422785 0.061002 -4.359905
v 7.241658 0.061001 -3.559186
v -7.946460 -0.000659 -3.756140
v 6.850460 0.061001 -3.266921
v 7.135645 0.061001 -3.591887
v 4.362729 1.637345 -4.536755
v 4.362729 1.637345 -4.536755
v -5.227730 -0.000660 -3.306139
v -4.731647 0.837633 -3.224864
v -7.609538 -0.000660 -3.418812
v 5.227730 -0.000660 -3.306141
v 4.969770 3.327827 -2.484990
v 4.753890 3.612322 -2.123320
v 3.646557 2.033793 -2.005082
v 4.754550 4.231472 -2.899570
v 6.777526 3.250264 -3.557961
v 5.082954 4.641023 -3.817329
v 6.076744 3.183561 -5.464405
v 4.685315 4.265971 -5.570516
v 2.657007 2.437125 -5.194311
v 3.028881 2.319782 -4.527876
v 4.770246 3.120706 -2.603326
v 3.772627 2.085096 -3.195006
v 1.553791 1.879665 -5.584389
v 1.736315 1.430820 -2.049070
v 1.345305 2.060562 -5.734572
v 1.951695 1.316706 -2.043518
v 2.534428 2.228528 -5.119702
v 3.465093 1.825932 -2.010969
v 2.655207 2.434644 -5.194311
v 3.650313 2.043790 -2.005531
v 3.603855 4.511527 -5.697776
v 4.335640 5.071614 -3.753060
v 3.080900 5.390474 -5.065090
v 3.507610 6.155041 -2.718120
v 0.000000 7.145567 -2.986690
v 4.720970 4.936227 -2.348010
v -1.521594 1.112314 -2.051420
v 0.000000 1.698901 -5.848955
v 0.000000 1.000460 -2.062100
v -1.183365 1.773275 -5.822331
v -1.736315 1.430820 -2.049070
v -1.345305 2.060562 -5.734572
v 4.770246 3.120706 -2.603326
v 3.772627 2.085096 -3.195006
v 3.028881 2.319782 -4.527876
v -4.335640 5.071614 -3.753060
v -3.080900 5.390474 -5.065090
v -3.603855 4.511527 -5.697776
v -3.507610 6.155041 -2.718120
v 3.646557 2.033793 -2.005082
v 3.772627 2.085096 -3.195006
v 0.000000 6.053800 -5.323270
v 1.736315 1.430820 -2.049070
v 1.183365 1.773275 -5.822331
v 1.345305 2.060562 -5.734572
v 1.521594 1.112314 -2.051420
v -1.736315 1.430820 -2.049070
v -1.553791 1.879665 -5.584389
v -1.345305 2.060562 -5.734572
v -1.951695 1.316706 -2.043518
v -2.534428 2.228528 -5.119702
v -3.465093 1.825932 -2.010969
v -2.655207 2.434644 -5.194311
v -3.650313 2.043790 -2.005531
v 1.563622 2.122909 -5.644528
v -2.506776 2.748549 -5.981510
v -1.535649 2.210719 -6.062598
v -2.088941 4.368128 -6.350970
v 2.088941 4.368128 -6.350970
v -3.646557 2.033793 -2.005082
v -4.770246 3.120706 -2.603326
v -3.772627 2.085096 -3.195006
v -4.969770 3.327827 -2.484990
v -4.753890 3.612322 -2.123320
v -4.754550 4.231472 -2.899570
v -4.720970 4.936227 -2.348010
v -2.657007 2.437125 -5.194311
v -1.563922 2.123322 -5.644528
v -3.936577 2.008684 0.000004
v -3.781485 1.757204 0.000004
v -2.123927 1.192124 0.000000
v -1.894565 1.281980 0.000000
v 3.708980 6.798783 0.000002
v 0.000000 7.904108 0.000002
v -3.708980 6.798783 0.000002
v -5.082954 4.641023 -3.817329
v -6.777527 3.250263 -3.557961
v -6.076744 3.183561 -5.464405
v 1.673819 0.962725 0.005426
v 1.894565 1.281980 0.000000
v 0.000000 0.832239 0.036362
v 1.535649 2.210719 -6.062598
v 1.229563 2.103153 -6.078815
v 1.563922 2.123322 -5.644528
v 1.345305 2.060562 -5.734572
v 1.229563 2.103144 -6.078820
v 0.000000 1.924730 -6.082146
v -3.028881 2.319782 -4.527876
v -3.646557 2.033793 -2.005082
v -3.772627 2.085096 -3.195006
v 2.506776 2.748549 -5.981510
v 1.535649 2.210719 -6.062598
v 1.563922 2.123322 -5.644528
v -4.685315 4.265971 -5.570516
v 4.947990 3.630804 0.000004
v 3.936577 2.008684 0.000004
v -4.947990 3.630804 0.000004
v -3.936577 2.008684 0.000004
v -1.673819 0.962725 0.005426
v -1.894565 1.281980 0.000000
v -1.229563 2.103144 -6.078820
v -1.563622 2.122909 -5.644528
v 0.000000 1.926820 -6.082146
v -1.229563 2.103153 -6.078815
v -1.535649 2.210719 -6.062598
v -4.885820 5.141742 0.000002
v 3.936577 2.008684 0.000004
v 3.781485 1.757204 0.000004
v 4.885820 5.141742 0.000002
v -4.770246 3.120706 -2.603326
v -3.772627 2.085096 -3.195006
v -1.563922 2.123322 -5.644528
v -1.345305 2.060562 -5.734572
v 2.123927 1.192124 0.000000
v 1.894565 1.281980 0.000000
v -3.028881 2.319782 -4.527876
v 1.394631 7.928932 3.026479
v 1.114802 7.773979 3.075440
v 1.398621 7.774223 3.074580
v 1.112142 7.928589 3.027710
v 3.587841 9.695457 1.902534
v 3.304816 10.008438 1.844246
v -1.114351 7.586258 1.537112
v -1.112142 7.928589 3.027710
v -1.114802 7.773979 3.075440
v -1.112928 7.747093 1.498493
v -1.113900 7.398529 -0.001216
v -1.113710 7.565605 -0.030725
v 1.112142 7.928589 3.027710
v 1.114351 7.586258 1.537112
v 1.114802 7.773979 3.075440
v 1.112928 7.747093 1.498493
v 3.304816 10.008438 1.844246
v 2.993484 9.441086 0.303461
v -1.398013 7.586502 1.536252
v -1.396210 7.565948 -0.031959
v -1.397410 7.398773 -0.002076
v -1.395418 7.747444 1.497260
v -1.398621 7.774223 3.074580
v -1.394631 7.928932 3.026479
v -2.965198 8.560722 -1.179026
v -3.276522 9.128090 0.361755
v -3.587841 9.695457 1.902534
v -2.993484 9.441086 0.303461
v -2.682157 8.873726 -1.237324
v -3.304816 10.008438 1.844246
v 1.396210 7.565948 -0.031959
v 2.682157 8.873726 -1.237324
v 2.965198 8.560722 -1.179026
v 1.113710 7.565605 -0.030725
v 1.397410 7.398773 -0.002076
v 1.113900 7.398529 -0.001216
v 1.113710 7.565605 -0.030725
v 2.682157 8.873726 -1.237324
v 1.113900 7.398529 -0.001216
v 1.394631 7.928932 3.026479
v 3.276522 9.128090 0.361755
v 3.587841 9.695457 1.902534
v 1.395418 7.747444 1.497260
v 1.398621 7.774223 3.074580
v 1.398013 7.586502 1.536252
v 2.965198 8.560722 -1.179026
v 1.396210 7.565948 -0.031959
v 1.397410 7.398773 -0.002076
v -1.397410 7.398773 -0.002076
v -1.113710 7.565605 -0.030725
v -1.113900 7.398529 -0.001216
v -1.396210 7.565948 -0.031959
v -2.682157 8.873726 -1.237324
v -2.965198 8.560722 -1.179026
v -3.587841 9.695457 1.902534
v -3.304816 10.008438 1.844246
v -6.529881 13.145653 3.433306
v -6.743917 12.908813 3.477888
v -5.575663 12.060318 1.981577
v -7.155850 13.582848 4.870119
v -6.981126 13.776131 4.833683
v -7.360010 14.094131 6.403255
v -7.224604 14.243866 6.375009
v -7.305260 14.521233 8.171676
v -7.289836 14.626640 8.150705
v -7.146272 14.744283 10.097144
v 4.491924 10.069893 -3.397464
v 3.914848 9.275528 -1.942819
v 3.640301 9.578087 -1.998571
v 4.755306 9.777199 -3.342078
v 4.748168 9.868996 -5.420890
v 4.962196 9.632149 -5.376320
v 4.606069 9.414902 -6.952143
v 4.780791 9.221581 -6.915711
v 4.399172 8.661545 -8.278235
v -4.755306 9.777199 -3.342078
v -4.491924 10.069893 -3.397464
v -3.914848 9.275528 -1.942819
v -4.748168 9.868996 -5.420890
v -4.962196 9.632149 -5.376320
v -4.606069 9.414902 -6.952143
v -4.780791 9.221581 -6.915711
v -4.399172 8.661545 -8.278235
v -3.914848 9.275528 -1.942819
v -4.286280 9.950806 -0.140014
v -4.669441 10.646683 1.718556
v -3.640301 9.578087 -1.998571
v -4.011710 10.253052 -0.196316
v -4.263776 8.811348 -8.306480
v -3.736976 7.921410 -9.766725
v -3.833512 7.881248 -9.795929
v -2.895035 6.873938 -11.269019
v 3.914848 9.275528 -1.942819
v 4.286280 9.950806 -0.140014
v 3.640301 9.578087 -1.998571
v 4.011710 10.253052 -0.196316
v 4.394848 10.948608 1.661704
v 4.263776 8.811348 -8.306480
v 3.736976 7.921410 -9.766725
v 3.710131 8.017586 -9.820257
v 2.895035 6.873938 -11.269019
v 7.360010 14.094131 6.403255
v 7.224604 14.243866 6.375009
v 6.981126 13.776131 4.833683
v 7.305260 14.521233 8.171676
v 7.407712 14.496147 8.174701
v 7.146272 14.744283 10.097144
v -3.640301 9.578087 -1.998571
v -4.394848 10.948608 1.661704
v -4.669441 10.646683 1.718556
v -4.394848 10.948608 1.661704
v -5.839050 11.767685 2.036964
v 4.669441 10.646683 1.718556
v 4.394848 10.948608 1.661704
v 5.575663 12.060318 1.981577
v -3.710131 8.017586 -9.820257
v -7.407712 14.496147 8.174701
v 4.669441 10.646683 1.718556
v 3.833512 7.881248 -9.795929
v 5.839050 11.767685 2.036964
v 6.743917 12.908813 3.477888
v 6.529881 13.145653 3.433306
v 7.155850 13.582848 4.870119
v 7.289836 14.626640 8.150705
vt 0.221802 0.525482
vt 0.202667 0.492096
vt 0.167786 0.513214
vt 0.230164 0.471313
vt 0.301147 0.497620
vt 0.254486 0.444366
vt 0.274567 0.402649
vt 0.505676 0.277557
vt 0.473846 0.253052
vt 0.498535 0.220123
vt 0.447784 0.279144
vt 0.464325 0.351227
vt 0.417877 0.299683
vt 0.373749 0.314301
vt 0.221710 0.525177
vt 0.241272 0.562164
vt 0.181274 0.550446
vt 0.300537 0.562744
vt 0.300995 0.496826
vt 0.349945 0.552124
vt 0.401184 0.527496
vt 0.505707 0.277832
vt 0.537476 0.301544
vt 0.533020 0.241974
vt 0.530762 0.360168
vt 0.464508 0.352020
vt 0.514191 0.407593
vt 0.482178 0.453949
vt 0.124756 0.528656
vt 0.167694 0.512726
vt 0.202576 0.491608
vt 0.230042 0.470673
vt 0.498627 0.220551
vt 0.518219 0.180725
vt 0.473938 0.253540
vt 0.447937 0.279785
vt 0.388214 0.430176
vt 0.446869 0.496521
vt 0.388458 0.431396
vt 0.325165 0.359192
vt 0.274384 0.401703
vt 0.325378 0.360321
vt 0.373932 0.315247
vt 0.254333 0.443604
vt 0.418060 0.300476
vt 0.853180 0.601990
vt 0.830719 0.591400
vt 0.844452 0.588501
vt 0.804199 0.605621
vt 0.821747 0.626160
vt 0.794708 0.649994
vt 0.813660 0.660400
vt 0.805176 0.665253
vt 0.832214 0.676056
vt 0.817474 0.687927
vt 0.742737 0.694336
vt 0.785004 0.714935
vt 0.753662 0.707855
vt 0.777618 0.691437
vt 0.769409 0.672791
vt 0.785187 0.687897
vt 0.795227 0.678894
vt 0.801636 0.702606
vt 0.802673 0.701233
vt 0.713959 0.718658
vt 0.725098 0.726715
vt 0.726807 0.674744
vt 0.756897 0.658600
vt 0.719604 0.666962
vt 0.740692 0.642548
vt 0.825775 0.045837
vt 0.812775 0.007721
vt 0.860809 0.007080
vt 0.838776 0.083954
vt 0.908844 0.006409
vt 0.816864 0.582275
vt 0.797913 0.593506
vt 0.767822 0.618225
vt 0.737823 0.577423
vt 0.833496 0.639954
vt 0.859192 0.615051
vt 0.783630 0.635437
vt 0.706512 0.678192
vt 0.710632 0.691986
vt 0.703369 0.707733
vt 0.816986 0.688843
vt 0.336517 0.265167
vt 0.382080 0.236145
vt 0.314301 0.233490
vt 0.380798 0.280640
vt 0.783569 0.547150
vt 0.415283 0.270325
vt 0.442871 0.237183
vt 0.865448 0.765900
vt 0.794525 0.728882
vt 0.818115 0.773407
vt 0.872955 0.718567
vt 0.828400 0.694977
vt 0.819000 0.704407
vt 0.817108 0.706268
vt 0.805817 0.717560
vt 0.803925 0.719452
vt 0.713409 0.554291
vt 0.692474 0.604980
vt 0.673248 0.598297
vt 0.687439 0.647247
vt 0.799530 0.555939
vt 0.790680 0.532501
vt 0.454681 0.170349
vt 0.384552 0.175476
vt 0.837433 0.547028
vt 0.847412 0.532196
vt 0.300903 0.141022
vt 0.696411 0.676086
vt 0.685364 0.663330
vt 0.688354 0.652344
vt 0.660339 0.698486
vt 0.646088 0.696960
vt 0.424011 0.737610
vt 0.473907 0.747406
vt 0.473602 0.734009
vt 0.423035 0.752563
vt 0.382904 0.740509
vt 0.382477 0.757111
vt 0.304169 0.754547
vt 0.311157 0.769043
vt 0.269745 0.830627
vt 0.281677 0.828064
vt 0.286835 0.835144
vt 0.334961 0.837219
vt 0.803589 0.950256
vt 0.830475 0.925079
vt 0.819977 0.945404
vt 0.798706 0.936707
vt 0.751068 0.960114
vt 0.748535 0.946960
vt 0.676849 0.971741
vt 0.675476 0.955536
vt 0.605072 0.975037
vt 0.603577 0.959351
vt 0.845764 0.931732
vt 0.837708 0.877991
vt 0.803650 0.877991
vt 0.471283 0.826569
vt 0.405365 0.827087
vt 0.469849 0.838043
vt 0.404175 0.837982
vt 0.341736 0.827545
vt 0.602966 0.877991
vt 0.679932 0.877991
vt 0.748840 0.494019
vt 0.690338 0.536926
vt 0.675476 0.469788
vt 0.581573 0.573273
vt 0.522034 0.536346
vt 0.759796 0.877991
vt 0.859741 0.510742
vt 0.800171 0.510956
vt 0.560089 0.432190
vt 0.259888 0.230560
vt 0.265594 0.235077
vt 0.263947 0.233704
vt 0.261566 0.231934
vt 0.850739 0.877991
vt 0.026733 0.023438
vt 0.139709 0.024109
vt 0.124359 0.014862
vt 0.171936 0.039093
vt 0.050140 0.031464
vt 0.166809 0.068939
vt 0.032928 0.034790
vt 0.173126 0.023315
vt 0.312988 0.024200
vt 0.311066 0.052429
vt 0.452362 0.070129
vt 0.416656 0.126099
vt 0.595123 0.090912
vt 0.539551 0.155792
vt 0.455200 0.028931
vt 0.597778 0.031494
vt 0.302765 0.098938
vt 0.937073 0.455139
vt 0.967163 0.456116
vt 0.944733 0.422577
vt 0.967163 0.585449
vt 0.918488 0.584747
vt 0.901184 0.715027
vt 0.967163 0.408478
vt 0.967163 0.715881
vt 0.967163 0.845306
vt 0.885712 0.844452
vt 0.324982 0.713684
vt 0.289642 0.741699
vt 0.328705 0.715424
vt 0.323090 0.712189
vt 0.344635 0.694916
vt 0.342590 0.693604
vt 0.353790 0.679779
vt 0.338135 0.683624
vt 0.351868 0.666321
vt 0.335876 0.666962
vt 0.336212 0.653198
vt 0.319702 0.651398
vt 0.319214 0.667999
vt 0.321075 0.690094
vt 0.347443 0.696777
vt 0.266693 0.731232
vt 0.299072 0.699280
vt 0.262146 0.709198
vt 0.293640 0.672119
vt 0.259491 0.678253
vt 0.257507 0.655823
vt 0.226593 0.662079
vt 0.231628 0.700989
vt 0.355621 0.681030
vt 0.363251 0.671295
vt 0.361542 0.669861
vt 0.367523 0.660339
vt 0.355865 0.656708
vt 0.031647 0.819153
vt 0.078186 0.789398
vt 0.109222 0.823395
vt 0.038086 0.797546
vt 0.012238 0.816010
vt 0.005798 0.760040
vt 0.016937 0.762970
vt 0.033905 0.767151
vt 0.016785 0.750427
vt 0.023468 0.746796
vt 0.016968 0.738495
vt 0.028656 0.743866
vt 0.019165 0.732635
vt 0.007599 0.732605
vt 0.006012 0.737427
vt 0.006317 0.750580
vt 0.855103 0.003113
vt 0.837830 0.062256
vt 0.815033 0.003082
vt 0.846558 0.065094
vt 0.906128 0.006348
vt 0.854309 0.063385
vt 0.902588 0.009552
vt 0.853302 0.058777
vt 0.848022 0.009521
vt 0.844574 0.055939
vt 0.811493 0.006287
vt 0.836823 0.057678
vt 0.291687 0.651337
vt 0.069580 0.711761
vt 0.087463 0.753601
vt 0.036530 0.738617
vt 0.052429 0.689880
vt 0.020355 0.722504
vt 0.037018 0.674438
vt 0.009583 0.714905
vt 0.359406 0.682648
vt 0.365967 0.673065
vt 0.369324 0.661835
vt 0.371552 0.664978
vt 0.021790 0.670471
vt 0.474396 0.701263
vt 0.453979 0.694275
vt 0.475769 0.696716
vt 0.446259 0.702118
vt 0.458435 0.706299
vt 0.843231 0.076050
vt 0.042480 0.768158
vt 0.174011 0.796967
vt 0.197632 0.961884
vt 0.142670 0.967712
vt 0.181488 0.794861
vt 0.176666 0.789581
vt 0.084076 0.985443
vt 0.167267 0.799103
vt 0.087036 0.981842
vt 0.175659 0.796448
vt 0.155792 0.967377
vt 0.127136 0.969360
vt 0.288788 0.602539
vt 0.220123 0.631317
vt 0.287811 0.630676
vt 0.221649 0.602905
vt 0.138367 0.601501
vt 0.143280 0.641846
vt 0.092010 0.620728
vt 0.118561 0.662262
vt 0.099640 0.663300
vt 0.161957 0.705627
vt 0.151886 0.706360
vt 0.202118 0.744232
vt 0.134094 0.712067
vt 0.196136 0.761444
vt 0.131744 0.715057
vt 0.450348 0.679962
vt 0.466125 0.671021
vt 0.460266 0.651489
vt 0.483795 0.670380
vt 0.495514 0.626343
vt 0.506744 0.652893
vt 0.536743 0.601410
vt 0.551697 0.633423
vt 0.611450 0.636078
vt 0.142609 0.137573
vt 0.140961 0.093018
vt 0.133362 0.179047
vt 0.148499 0.119385
vt 0.154327 0.139740
vt 0.171021 0.139038
vt 0.181458 0.190369
vt 0.196472 0.188477
vt 0.186218 0.241241
vt 0.201202 0.240967
vt 0.184570 0.279449
vt 0.195374 0.282745
vt 0.182739 0.311859
vt 0.143829 0.971649
vt 0.487244 0.674622
vt 0.510132 0.662140
vt 0.557434 0.650055
vt 0.582489 0.654694
vt 0.182922 0.134796
vt 0.144714 0.098969
vt 0.152191 0.110901
vt 0.156250 0.186981
vt 0.143951 0.183197
vt 0.150146 0.240723
vt 0.410248 0.654175
vt 0.403015 0.650726
vt 0.385895 0.671631
vt 0.411835 0.627014
vt 0.432922 0.639984
vt 0.455994 0.622375
vt 0.477051 0.590942
vt 0.449646 0.596497
vt 0.430176 0.657593
vt 0.056183 0.646606
vt 0.059357 0.644196
vt 0.082489 0.672821
vt 0.041595 0.628448
vt 0.021637 0.645538
vt 0.023254 0.615967
vt 0.045074 0.625793
vt 0.165466 0.238495
vt 0.162384 0.280365
vt 0.055878 0.601807
vt 0.087494 0.599976
vt 0.063660 0.621246
vt 0.085968 0.670013
vt 0.505859 0.569031
vt 0.592255 0.668152
vt 0.104431 0.265472
vt 0.021820 0.186462
vt 0.107666 0.189697
vt 0.021820 0.267670
vt 0.106354 0.392883
vt 0.021820 0.410431
vt 0.099030 0.472351
vt 0.069946 0.521576
vt 0.445129 0.664307
vt 0.093719 0.908264
vt 0.056580 0.938751
vt 0.012238 0.933594
vt 0.045654 0.969025
vt 0.012238 0.970764
vt 0.276672 0.180267
vt 0.219879 0.172272
vt 0.233856 0.228485
vt 0.212494 0.112305
vt 0.271912 0.115265
vt 0.407074 0.600250
vt 0.385925 0.628784
vt 0.384552 0.600403
vt 0.345886 0.631317
vt 0.343597 0.601624
vt 0.608398 0.701691
vt 0.627106 0.715851
vt 0.183685 0.707947
vt 0.203156 0.734283
vt 0.215607 0.725342
vt 0.101898 0.113953
vt 0.021820 0.134705
vt 0.012238 0.816284
vt 0.025970 0.612213
vt 0.589203 0.686646
vt 0.021820 0.538605
vt 0.906006 0.127502
vt 0.924530 0.101013
vt 0.913696 0.100952
vt 0.925995 0.159729
vt 0.879578 0.156921
vt 0.931732 0.207672
vt 0.901672 0.221008
vt 0.940033 0.256775
vt 0.912628 0.271820
vt 0.934418 0.318024
vt 0.908569 0.321228
vt 0.907440 0.337982
vt 0.961029 0.197479
vt 0.942688 0.159058
vt 0.968109 0.260590
vt 0.966705 0.285034
vt 0.960968 0.305817
vt 0.960114 0.331482
vt 0.991272 0.330078
vt 0.963470 0.363251
vt 0.945496 0.367950
vt 0.992767 0.306030
vt 0.993866 0.301544
vt 0.993774 0.282532
vt 0.993622 0.278290
vt 0.848969 0.069305
vt 0.830872 0.038513
vt 0.185089 0.409851
vt 0.207581 0.450745
vt 0.185364 0.464569
vt 0.216766 0.417114
vt 0.217834 0.378418
vt 0.941437 0.158264
vt 0.925018 0.347687
vt 0.934784 0.371063
vt 0.942078 0.104675
vt 0.992096 0.247925
vt 0.980652 0.077301
vt 0.917023 0.043488
vt 0.935577 0.080658
vt 0.983734 0.032440
vt 0.946777 0.013702
vt 0.938507 0.021973
vt 0.936859 0.023621
vt 0.926941 0.033539
vt 0.925293 0.035217
vt 0.196686 0.354248
vt 0.886200 0.138214
vt 0.860504 0.329865
vt 0.848846 0.347595
vt 0.901459 0.393188
vt 0.827545 0.312256
vt 0.888794 0.273376
vt 0.823120 0.273193
vt 0.873016 0.223480
vt 0.823822 0.213409
vt 0.828827 0.131317
vt 0.847961 0.119446
vt 0.869141 0.332123
vt 0.903900 0.362061
vt 0.811371 0.844269
vt 0.655273 0.846466
vt 0.819977 0.854370
vt 0.654114 0.835724
vt 0.793243 0.799072
vt 0.653107 0.765137
vt 0.798828 0.789459
vt 0.654388 0.752502
vt 0.792053 0.191956
vt 0.796387 0.278687
vt 0.755676 0.219391
vt 0.739868 0.312378
vt 0.619354 0.269012
vt 0.795441 0.333069
vt 0.408813 0.948242
vt 0.240448 0.877991
vt 0.407410 0.877991
vt 0.239716 0.931152
vt 0.406342 0.965637
vt 0.238312 0.946442
vt 0.125793 0.462006
vt 0.148834 0.400116
vt 0.135773 0.335144
vt 0.899719 0.063477
vt 0.886261 0.095703
vt 0.627655 0.222626
vt 0.821777 0.842346
vt 0.803406 0.124725
vt 0.799866 0.074738
vt 0.743378 0.141693
vt 0.812469 0.077179
vt 0.564697 0.738739
vt 0.564117 0.751801
vt 0.563324 0.829376
vt 0.563202 0.840332
vt 0.706970 0.406860
vt 0.583099 0.366577
vt 0.504578 0.956329
vt 0.503906 0.974335
vt 0.504761 0.877991
vt 0.872559 0.966827
vt 0.892181 0.966644
vt 0.871948 0.978668
vt 0.885834 0.976349
vt 0.222168 0.937622
vt 0.226257 0.877991
vt 0.836853 0.439240
vt 0.892944 0.447540
vt 0.967163 0.966919
vt 0.775757 0.426056
vt 0.310699 0.286713
vt 0.310486 0.285675
vt 0.241333 0.260132
vt 0.243225 0.261353
vt 0.222809 0.289703
vt 0.224884 0.290802
vt 0.282043 0.310699
vt 0.245422 0.263275
vt 0.228912 0.293945
vt 0.226868 0.292877
vt 0.247253 0.264526
vt 0.253815 0.336792
vt 0.282257 0.311737
vt 0.253601 0.335754
vt 0.497467 0.219574
vt 0.269775 0.364410
vt 0.269562 0.363403
vt 0.303314 0.335236
vt 0.337891 0.305145
vt 0.303070 0.334229
vt 0.167267 0.511688
vt 0.337646 0.304138
usemtl mat1
s 1
f 1/1 2/2 3/3
f 1/1 4/4 2/2
f 4/4 1/1 5/5
f 5/5 6/6 4/4
f 7/7 6/6 5/5
f 8/8 9/9 10/10
f 8/8 11/11 9/9
f 12/12 11/11 8/8
f 12/12 13/13 11/11
f 14/14 13/13 12/12
f 15/15 16/16 17/17
f 15/15 18/18 16/16
f 19/19 18/18 15/15
f 19/19 20/20 18/18
f 21/21 20/20 19/19
f 22/22 23/23 24/24
f 22/22 25/25 23/23
f 26/26 25/25 22/22
f 26/26 27/27 25/25
f 28/28 27/27 26/26
f 29/17 3/3 30/29
f 29/17 1/1 3/3
f 31/16 1/1 29/17
f 32/18 1/1 31/16
f 33/30 17/17 34/29
f 33/30 15/15 17/17
f 35/31 15/15 33/30
f 35/31 36/32 15/15
f 37/33 24/24 38/34
f 37/33 22/22 24/24
f 39/35 22/22 37/33
f 39/35 40/36 22/22
f 41/24 10/10 42/34
f 41/24 8/8 10/10
f 43/23 8/8 41/24
f 43/23 44/25 8/8
f 45/28 12/12 46/27
f 45/28 47/37 12/12
f 48/38 47/37 45/28
f 48/38 21/21 47/37
f 49/21 5/5 50/20
f 49/21 51/39 5/5
f 52/38 51/39 49/21
f 52/38 28/28 51/39
f 47/37 14/14 12/12
f 47/37 53/40 14/14
f 54/41 53/40 47/37
f 51/39 7/7 5/5
f 51/39 55/42 7/7
f 56/43 55/42 51/39
f 19/19 47/37 21/21
f 19/19 54/41 47/37
f 57/44 54/41 19/19
f 26/26 51/39 28/28
f 26/26 56/43 51/39
f 58/45 56/43 26/26
f 44/25 12/12 8/8
f 44/25 46/27 12/12
f 5/5 1/1 32/18
f 32/18 50/20 5/5
f 19/19 36/32 57/44
f 19/19 15/15 36/32
f 26/26 40/36 58/45
f 26/26 22/22 40/36
f 59/46 60/47 61/48
f 59/46 62/49 60/47
f 63/50 62/49 59/46
f 63/50 64/51 62/49
f 65/52 64/51 63/50
f 65/52 66/53 64/51
f 67/54 66/53 65/52
f 67/54 68/55 66/53
f 69/56 70/57 71/58
f 69/56 72/59 70/57
f 73/60 72/59 69/56
f 73/60 74/61 72/59
f 75/62 74/61 73/60
f 75/62 76/63 74/61
f 77/64 76/63 75/62
f 78/65 71/58 79/66
f 78/65 69/56 71/58
f 80/67 69/56 78/65
f 80/67 81/68 69/56
f 82/69 81/68 80/67
f 82/69 83/70 81/68
f 84/71 85/72 86/73
f 84/71 87/73 85/72
f 88/74 87/73 84/71
f 88/74 89/75 87/73
f 90/75 89/75 88/74
f 91/71 92/72 93/73
f 91/71 94/73 92/72
f 95/74 94/73 91/71
f 95/74 96/75 94/73
f 97/75 96/75 95/74
f 98/71 99/72 100/73
f 98/71 101/73 99/72
f 102/74 101/73 98/71
f 102/74 103/75 101/73
f 104/75 103/75 102/74
f 62/49 105/76 60/47
f 62/49 106/77 105/76
f 107/78 106/77 62/49
f 107/78 108/79 106/77
f 109/80 59/46 110/81
f 109/80 63/50 59/46
f 67/54 63/50 109/80
f 67/54 65/52 63/50
f 73/60 64/51 75/62
f 73/60 111/82 64/51
f 81/68 111/82 73/60
f 81/68 83/70 111/82
f 80/67 112/83 82/69
f 80/67 113/84 112/83
f 78/65 113/84 80/67
f 78/65 114/85 113/84
f 75/62 115/86 77/64
f 75/62 66/53 115/86
f 64/51 66/53 75/62
f 70/57 74/61 76/63
f 70/57 72/59 74/61
f 116/87 117/88 118/89
f 116/87 119/90 117/88
f 106/77 120/91 105/76
f 106/77 108/79 120/91
f 117/88 121/92 122/93
f 117/88 119/90 121/92
f 107/78 111/82 83/70
f 107/78 62/49 111/82
f 123/94 124/95 125/96
f 123/94 126/97 124/95
f 127/98 124/95 126/97
f 127/98 128/99 124/95
f 129/100 124/95 128/99
f 129/100 130/101 124/95
f 86/73 88/74 84/71
f 86/73 90/75 88/74
f 93/73 95/74 91/71
f 93/73 97/75 95/74
f 100/73 102/74 98/71
f 100/73 104/75 102/74
f 66/53 68/55 115/86
f 111/82 62/49 64/51
f 81/68 73/60 69/56
f 130/101 131/102 124/95
f 108/79 132/103 120/91
f 108/79 133/104 132/103
f 107/78 133/104 108/79
f 107/78 83/70 133/104
f 133/104 134/105 132/103
f 133/104 135/106 134/105
f 83/70 135/106 133/104
f 83/70 82/69 135/106
f 120/91 136/107 105/76
f 120/91 137/108 136/107
f 132/103 137/108 120/91
f 138/109 117/88 122/93
f 138/109 139/110 117/88
f 140/111 137/108 141/112
f 140/111 136/107 137/108
f 117/88 142/113 118/89
f 117/88 139/110 142/113
f 143/114 144/115 145/116
f 143/114 146/117 144/115
f 82/69 145/116 135/106
f 82/69 112/83 145/116
f 147/118 144/115 146/117
f 148/119 149/120 150/121
f 148/119 151/122 149/120
f 152/123 151/122 148/119
f 152/123 153/124 151/122
f 154/125 153/124 152/123
f 154/125 155/126 153/124
f 156/127 155/126 154/125
f 156/127 157/128 155/126
f 158/129 157/128 156/127
f 158/129 159/130 157/128
f 160/131 161/132 162/133
f 160/131 163/134 161/132
f 164/135 163/134 160/131
f 164/135 165/136 163/134
f 166/137 165/136 164/135
f 166/137 167/138 165/136
f 168/139 167/138 166/137
f 168/139 169/140 167/138
f 161/132 170/141 162/133
f 161/132 171/142 170/141
f 172/143 171/142 161/132
f 172/143 173/132 171/142
f 174/134 173/132 172/143
f 174/134 175/131 173/132
f 176/135 175/131 174/134
f 177/120 178/119 179/121
f 177/120 180/122 178/119
f 181/144 180/122 177/120
f 181/144 182/145 180/122
f 183/146 182/145 181/144
f 183/146 184/147 182/145
f 180/122 185/123 178/119
f 180/122 186/124 185/123
f 182/145 186/124 180/122
f 182/145 187/148 186/124
f 184/147 187/148 182/145
f 184/147 188/130 187/148
f 189/149 167/138 169/140
f 189/149 190/150 167/138
f 191/138 190/150 189/149
f 191/138 192/136 190/150
f 193/137 192/136 191/138
f 193/137 176/135 192/136
f 194/151 195/103 196/108
f 194/151 197/152 195/103
f 198/153 197/152 194/151
f 198/153 199/154 197/152
f 200/155 199/154 198/153
f 186/124 201/125 185/123
f 186/124 202/126 201/125
f 203/128 202/126 186/124
f 203/128 204/127 202/126
f 205/129 204/127 203/128
f 190/150 165/136 167/138
f 190/150 206/156 165/136
f 192/136 206/156 190/150
f 192/136 172/143 206/156
f 174/134 172/143 192/136
f 207/91 195/103 208/79
f 207/91 196/108 195/103
f 209/107 196/108 207/91
f 209/107 210/111 196/108
f 132/103 211/151 137/108
f 132/103 212/152 211/151
f 134/105 212/152 132/103
f 134/105 213/154 212/152
f 157/128 153/124 155/126
f 157/128 214/148 153/124
f 159/130 214/148 157/128
f 159/130 215/147 214/148
f 151/122 216/144 149/120
f 151/122 217/145 216/144
f 153/124 217/145 151/122
f 153/124 214/148 217/145
f 218/115 219/106 220/105
f 218/115 221/116 219/106
f 222/114 221/116 218/115
f 137/108 223/157 141/112
f 137/108 224/158 223/157
f 211/151 224/158 137/108
f 200/155 225/153 213/154
f 200/155 226/159 225/153
f 198/153 226/159 200/155
f 217/145 227/146 216/144
f 217/145 215/147 227/146
f 214/148 215/147 217/145
f 191/138 228/139 193/137
f 191/138 229/140 228/139
f 189/149 229/140 191/138
f 230/112 196/108 210/111
f 230/112 231/157 196/108
f 232/158 196/108 231/157
f 232/158 194/151 196/108
f 197/152 220/105 195/103
f 197/152 199/154 220/105
f 212/152 225/153 211/151
f 212/152 213/154 225/153
f 144/115 135/106 145/116
f 144/115 134/105 135/106
f 233/117 218/115 234/118
f 233/117 222/114 218/115
f 235/160 236/161 237/162
f 235/160 238/163 236/161
f 187/148 203/128 186/124
f 187/148 188/130 203/128
f 163/134 172/143 161/132
f 163/134 165/136 172/143
f 239/133 173/132 175/131
f 239/133 240/141 173/132
f 240/141 171/142 173/132
f 240/141 241/164 171/142
f 201/125 202/126 204/127
f 205/129 203/128 188/130
f 206/156 172/143 165/136
f 192/136 176/135 174/134
f 241/164 170/141 171/142
f 207/91 242/76 209/107
f 207/91 243/77 242/76
f 208/79 243/77 207/91
f 208/79 244/78 243/77
f 245/104 244/78 208/79
f 245/104 246/70 244/78
f 219/106 246/70 245/104
f 219/106 247/69 246/70
f 221/116 247/69 219/106
f 221/116 248/83 247/69
f 249/88 250/109 251/93
f 249/88 252/110 250/109
f 253/113 252/110 249/88
f 245/104 220/105 219/106
f 245/104 195/103 220/105
f 208/79 195/103 245/104
f 254/49 242/76 243/77
f 253/113 249/88 255/89
f 256/58 257/65 258/66
f 256/58 259/56 257/65
f 260/57 259/56 256/58
f 260/57 261/59 259/56
f 262/61 261/59 260/57
f 262/61 263/60 261/59
f 264/62 263/60 262/61
f 264/62 265/51 263/60
f 266/53 265/51 264/62
f 266/53 267/52 265/51
f 268/54 267/52 266/53
f 268/54 269/50 267/52
f 254/49 270/47 242/76
f 254/49 271/46 270/47
f 269/50 271/46 254/49
f 269/50 272/80 271/46
f 268/54 272/80 269/50
f 263/60 259/56 261/59
f 263/60 273/68 259/56
f 274/82 273/68 263/60
f 274/82 246/70 273/68
f 244/78 246/70 274/82
f 275/71 276/72 277/73
f 275/71 278/73 276/72
f 279/74 278/73 275/71
f 279/74 280/75 278/73
f 281/75 280/75 279/74
f 282/63 262/61 260/57
f 282/63 264/62 262/61
f 283/64 264/62 282/63
f 283/64 284/86 264/62
f 257/65 285/84 286/85
f 257/65 287/67 285/84
f 259/56 287/67 257/65
f 259/56 273/68 287/67
f 287/67 248/83 285/84
f 287/67 247/69 248/83
f 273/68 247/69 287/67
f 273/68 246/70 247/69
f 288/73 289/74 290/75
f 288/73 291/71 289/74
f 292/72 291/71 288/73
f 292/72 293/73 291/71
f 294/74 295/73 296/75
f 294/74 297/71 295/73
f 298/73 297/71 294/74
f 298/73 299/72 297/71
f 266/53 300/55 268/54
f 266/53 284/86 300/55
f 264/62 284/86 266/53
f 249/88 301/87 255/89
f 249/88 302/90 301/87
f 303/92 302/90 249/88
f 269/50 265/51 267/52
f 269/50 254/49 265/51
f 265/51 274/82 263/60
f 265/51 254/49 274/82
f 244/78 254/49 243/77
f 244/78 274/82 254/49
f 304/95 305/94 306/96
f 304/95 307/102 305/94
f 308/101 305/94 307/102
f 308/101 309/100 305/94
f 310/99 305/94 309/100
f 310/99 311/98 305/94
f 277/73 279/74 275/71
f 277/73 281/75 279/74
f 293/73 289/74 291/71
f 293/73 312/75 289/74
f 294/74 313/75 298/73
f 294/74 296/75 313/75
f 271/46 314/48 270/47
f 272/80 315/81 271/46
f 249/88 251/93 303/92
f 311/98 316/97 305/94
f 312/75 290/75 289/74
f 299/72 295/73 297/71
f 317/165 318/166 319/167
f 317/165 320/168 318/166
f 321/169 320/168 317/165
f 321/169 322/170 320/168
f 323/171 322/170 321/169
f 323/171 324/169 322/170
f 317/165 324/169 323/171
f 317/165 325/168 324/169
f 326/166 325/168 317/165
f 326/166 327/172 325/168
f 320/168 328/172 318/166
f 320/168 329/173 328/172
f 330/174 329/173 320/168
f 330/174 331/175 329/173
f 332/176 331/175 330/174
f 332/176 333/177 331/175
f 334/178 333/177 332/176
f 325/168 322/170 324/169
f 325/168 335/174 322/170
f 336/173 335/174 325/168
f 336/173 337/175 335/174
f 338/179 337/175 336/173
f 338/179 339/180 337/175
f 322/170 330/174 320/168
f 322/170 340/181 330/174
f 335/174 340/181 322/170
f 335/174 332/176 340/181
f 341/182 342/183 343/184
f 341/182 344/185 342/183
f 345/186 344/185 341/182
f 345/186 346/187 344/185
f 332/176 347/177 334/178
f 332/176 337/175 347/177
f 335/174 337/175 332/176
f 342/183 348/188 343/184
f 342/183 349/184 348/188
f 350/182 349/184 342/183
f 344/185 350/182 342/183
f 344/185 351/186 350/182
f 352/187 351/186 344/185
f 353/189 354/190 355/191
f 353/189 356/191 354/190
f 346/187 356/191 353/189
f 357/180 331/175 333/177
f 357/180 358/179 331/175
f 352/187 353/189 355/191
f 352/187 344/185 353/189
f 326/166 317/165 319/167
f 317/165 323/171 321/169
f 339/180 347/177 337/175
f 331/175 358/179 329/173
f 330/174 340/181 332/176
f 325/168 327/172 336/173
f 346/187 353/189 344/185
f 359/192 360/193 361/194
f 359/192 362/195 360/193
f 363/196 362/195 359/192
f 363/196 364/197 362/195
f 365/198 364/197 363/196
f 365/198 366/199 364/197
f 367/200 366/199 365/198
f 367/200 368/201 366/199
f 369/202 368/201 367/200
f 369/202 370/203 368/201
f 371/201 370/203 369/202
f 371/201 372/204 370/203
f 373/199 372/204 371/201
f 373/199 374/205 372/204
f 375/197 374/205 373/199
f 375/197 376/195 374/205
f 377/196 376/195 375/197
f 377/196 378/192 376/195
f 379/206 378/192 377/196
f 379/206 380/194 378/192
f 381/193 378/192 380/194
f 381/193 376/195 378/192
f 382/207 376/195 381/193
f 382/207 383/208 376/195
f 384/209 383/208 382/207
f 384/209 385/210 383/208
f 386/211 385/210 384/209
f 386/211 387/212 385/210
f 388/213 387/212 386/211
f 388/213 389/211 387/212
f 390/214 389/211 388/213
f 390/214 391/209 389/211
f 392/207 391/209 390/214
f 392/207 393/208 391/209
f 362/195 393/208 392/207
f 362/195 394/205 393/208
f 364/197 394/205 362/195
f 364/197 366/199 394/205
f 395/206 359/192 361/194
f 395/206 363/196 359/192
f 396/215 363/196 395/206
f 396/215 365/198 363/196
f 397/216 365/198 396/215
f 397/216 398/217 365/198
f 399/218 398/217 397/216
f 399/218 400/219 398/217
f 401/217 400/219 399/218
f 401/217 402/200 400/219
f 403/198 402/200 401/217
f 403/198 373/199 402/200
f 375/197 373/199 403/198
f 404/220 405/221 406/222
f 404/220 407/223 405/221
f 408/224 407/223 404/220
f 408/224 409/225 407/223
f 410/223 409/225 408/224
f 410/223 411/226 409/225
f 412/227 411/226 410/223
f 412/227 413/228 411/226
f 414/229 413/228 412/227
f 414/229 415/230 413/228
f 416/231 415/230 414/229
f 416/231 417/232 415/230
f 418/233 415/230 417/232
f 418/233 419/234 415/230
f 420/232 419/234 418/233
f 420/232 421/230 419/234
f 422/231 421/230 420/232
f 422/231 423/229 421/230
f 424/227 423/229 422/231
f 424/227 425/228 423/229
f 426/226 425/228 424/227
f 426/226 427/235 425/228
f 409/225 427/235 426/226
f 409/225 411/226 427/235
f 428/236 429/237 430/238
f 428/236 431/239 429/237
f 432/240 431/239 428/236
f 432/240 433/241 431/239
f 434/242 433/241 432/240
f 434/242 435/243 433/241
f 436/244 435/243 434/242
f 436/244 437/245 435/243
f 438/246 437/245 436/244
f 438/246 439/247 437/245
f 430/238 439/247 438/246
f 430/238 429/237 439/247
f 440/238 441/237 442/236
f 440/238 443/247 441/237
f 444/246 443/247 440/238
f 444/246 445/245 443/247
f 446/244 445/245 444/246
f 446/244 447/243 445/245
f 448/242 447/243 446/244
f 448/242 449/241 447/243
f 450/240 449/241 448/242
f 450/240 451/239 449/241
f 442/236 451/239 450/240
f 442/236 441/237 451/239
f 383/208 374/205 376/195
f 383/208 372/204 374/205
f 385/210 372/204 383/208
f 385/210 452/248 372/204
f 387/212 452/248 385/210
f 387/212 453/210 452/248
f 389/211 453/210 387/212
f 389/211 391/209 453/210
f 454/249 455/221 456/250
f 454/249 457/251 455/221
f 458/252 457/251 454/249
f 458/252 459/253 457/251
f 460/254 459/253 458/252
f 460/254 461/255 459/253
f 462/256 396/215 395/206
f 462/256 397/216 396/215
f 463/257 397/216 462/256
f 463/257 464/258 397/216
f 465/259 464/258 463/257
f 465/259 466/257 464/258
f 467/253 468/252 469/251
f 467/253 470/254 468/252
f 461/255 470/254 467/253
f 461/255 471/260 470/254
f 460/254 471/260 461/255
f 472/249 469/251 468/252
f 472/249 405/221 469/251
f 473/250 405/221 472/249
f 473/250 406/222 405/221
f 474/220 410/223 408/224
f 474/220 455/221 410/223
f 475/222 455/221 474/220
f 475/222 456/250 455/221
f 393/208 453/210 391/209
f 393/208 476/204 453/210
f 394/205 476/204 393/208
f 394/205 366/199 476/204
f 464/258 399/218 397/216
f 464/258 477/216 399/218
f 466/257 477/216 464/258
f 466/257 478/256 477/216
f 403/198 377/196 375/197
f 403/198 479/215 377/196
f 477/216 479/215 403/198
f 477/216 478/256 479/215
f 480/261 481/262 482/263
f 480/261 483/264 481/262
f 484/265 483/264 480/261
f 419/234 413/228 415/230
f 419/234 427/235 413/228
f 425/228 427/235 419/234
f 485/266 429/237 431/239
f 485/266 439/247 429/237
f 437/245 439/247 485/266
f 485/266 435/243 437/245
f 485/266 433/241 435/243
f 431/239 433/241 485/266
f 486/266 451/239 441/237
f 486/266 449/241 451/239
f 447/243 449/241 486/266
f 371/201 402/200 373/199
f 371/201 369/202 402/200
f 400/219 369/202 367/200
f 400/219 402/200 369/202
f 487/267 412/227 410/223
f 487/267 416/231 412/227
f 421/230 425/228 419/234
f 421/230 423/229 425/228
f 426/226 407/223 409/225
f 426/226 424/227 407/223
f 479/215 379/206 377/196
f 479/215 478/256 379/206
f 477/216 401/217 399/218
f 477/216 403/198 401/217
f 476/204 452/248 453/210
f 476/204 370/203 452/248
f 424/227 488/267 407/223
f 424/227 422/231 488/267
f 386/211 489/214 388/213
f 386/211 384/209 489/214
f 368/201 476/204 366/199
f 368/201 370/203 476/204
f 490/262 491/261 492/263
f 490/262 493/264 491/261
f 398/217 367/200 365/198
f 398/217 400/219 367/200
f 443/247 486/266 441/237
f 443/247 445/245 486/266
f 493/264 494/265 491/261
f 427/235 411/226 413/228
f 416/231 414/229 412/227
f 392/207 360/193 362/195
f 382/207 489/214 384/209
f 370/203 372/204 452/248
f 447/243 486/266 445/245
f 495/268 496/269 497/270
f 495/268 498/271 496/269
f 499/272 498/271 495/268
f 499/272 500/271 498/271
f 501/268 500/271 499/272
f 501/268 502/269 500/271
f 503/270 502/269 501/268
f 503/270 504/268 502/269
f 505/273 504/268 503/270
f 505/273 506/274 504/268
f 507/275 506/274 505/273
f 507/275 508/276 506/274
f 509/270 508/276 507/275
f 509/270 502/269 508/276
f 510/268 502/269 509/270
f 510/268 511/271 502/269
f 512/272 511/271 510/268
f 512/272 513/271 511/271
f 514/268 513/271 512/272
f 514/268 515/277 513/271
f 516/278 515/277 514/268
f 517/269 518/276 519/271
f 517/269 520/270 518/276
f 521/268 520/270 517/269
f 521/268 522/275 520/270
f 523/274 522/275 521/268
f 523/274 524/275 522/275
f 525/274 524/275 523/274
f 525/274 526/278 524/275
f 527/274 526/278 525/274
f 527/274 528/268 526/278
f 529/272 528/268 527/274
f 529/272 530/271 528/268
f 531/271 530/271 529/272
f 531/271 532/269 530/271
f 517/269 532/269 531/271
f 533/279 534/280 535/281
f 533/279 536/282 534/280
f 537/280 536/282 533/279
f 537/280 538/283 536/282
f 539/284 538/283 537/280
f 539/284 540/285 538/283
f 541/286 540/285 539/284
f 541/286 542/287 540/285
f 543/288 542/287 541/286
f 543/288 544/289 542/287
f 545/290 544/289 543/288
f 545/290 546/291 544/289
f 547/292 546/291 545/290
f 547/292 548/293 546/291
f 549/236 550/237 551/238
f 549/236 552/239 550/237
f 553/240 552/239 549/236
f 553/240 554/241 552/239
f 555/242 554/241 553/240
f 555/242 556/243 554/241
f 557/244 556/243 555/242
f 557/244 558/245 556/243
f 559/246 558/245 557/244
f 559/246 560/247 558/245
f 551/238 560/247 559/246
f 551/238 550/237 560/247
f 561/294 481/262 483/264
f 561/294 562/295 481/262
f 563/296 562/295 561/294
f 563/296 564/297 562/295
f 565/298 564/297 563/296
f 565/298 566/299 564/297
f 567/300 566/299 565/298
f 567/300 568/301 566/299
f 213/154 568/301 567/300
f 213/154 569/302 568/301
f 134/105 569/302 213/154
f 134/105 144/115 569/302
f 570/238 571/237 572/236
f 570/238 573/247 571/237
f 574/246 573/247 570/238
f 574/246 575/245 573/247
f 576/244 575/245 574/246
f 576/244 577/243 575/245
f 578/242 577/243 576/244
f 578/242 579/241 577/243
f 580/240 579/241 578/242
f 580/240 581/239 579/241
f 572/236 581/239 580/240
f 572/236 571/237 581/239
f 582/303 583/304 584/305
f 582/303 585/306 583/304
f 586/307 585/306 582/303
f 586/307 587/308 585/306
f 588/309 587/308 586/307
f 588/309 589/310 587/308
f 590/311 589/310 588/309
f 590/311 591/312 589/310
f 592/313 591/312 590/311
f 592/313 593/314 591/312
f 594/315 593/314 592/313
f 538/283 534/280 536/282
f 538/283 595/284 534/280
f 596/285 595/284 538/283
f 596/285 597/286 595/284
f 598/287 597/286 596/285
f 598/287 599/288 597/286
f 600/289 599/288 598/287
f 600/289 601/290 599/288
f 602/291 601/290 600/289
f 602/291 603/292 601/290
f 604/293 603/292 602/291
f 503/270 605/275 606/275
f 503/270 607/275 605/275
f 501/268 607/275 503/270
f 501/268 608/274 607/275
f 499/272 608/274 501/268
f 499/272 609/274 608/274
f 495/268 609/274 499/272
f 495/268 607/275 609/274
f 497/270 607/275 495/268
f 497/270 610/316 607/275
f 490/262 611/294 493/264
f 490/262 612/295 611/294
f 492/263 612/295 490/262
f 492/263 613/297 612/295
f 614/317 613/297 492/263
f 614/317 615/299 613/297
f 616/318 615/299 614/317
f 616/318 617/301 615/299
f 618/319 617/301 616/318
f 618/319 619/320 617/301
f 620/321 621/322 622/304
f 620/321 623/323 621/322
f 624/308 623/323 620/321
f 624/308 625/306 623/323
f 626/307 625/306 624/308
f 626/307 627/303 625/306
f 628/324 627/303 626/307
f 628/324 629/325 627/303
f 630/326 629/325 628/324
f 630/326 631/305 629/325
f 507/275 510/268 509/270
f 507/275 632/274 510/268
f 633/275 632/274 507/275
f 633/275 634/274 632/274
f 516/278 634/274 633/275
f 516/278 635/274 634/274
f 514/268 635/274 516/278
f 514/268 512/272 635/274
f 636/327 637/328 638/329
f 636/327 639/330 637/328
f 640/331 639/330 636/327
f 640/331 641/332 639/330
f 642/296 641/332 640/331
f 642/296 643/298 641/332
f 613/297 643/298 642/296
f 613/297 615/299 643/298
f 517/269 644/270 645/268
f 517/269 646/268 644/270
f 519/271 646/268 517/269
f 519/271 647/272 646/268
f 518/276 647/272 519/271
f 518/276 648/274 647/272
f 522/275 648/274 518/276
f 522/275 649/273 648/274
f 650/333 641/332 643/298
f 650/333 651/334 641/332
f 652/332 651/334 650/333
f 652/332 653/330 651/334
f 654/331 653/330 652/332
f 654/331 655/327 653/330
f 656/335 655/327 654/331
f 657/336 658/337 659/338
f 657/336 660/339 658/337
f 661/340 660/339 657/336
f 661/340 662/341 660/339
f 663/339 662/341 661/340
f 663/339 664/342 662/341
f 665/337 664/342 663/339
f 666/268 667/275 668/270
f 666/268 669/274 667/275
f 670/272 669/274 666/268
f 670/272 671/274 669/274
f 645/268 671/274 670/272
f 645/268 667/275 671/274
f 644/270 667/275 645/268
f 672/310 624/308 620/321
f 672/310 673/309 624/308
f 674/311 673/309 672/310
f 674/311 628/324 673/309
f 675/343 628/324 674/311
f 675/343 630/326 628/324
f 676/344 630/326 675/343
f 540/285 677/345 678/346
f 540/285 679/347 677/345
f 542/287 679/347 540/285
f 542/287 658/337 679/347
f 680/348 658/337 542/287
f 680/348 659/338 658/337
f 681/269 666/268 668/270
f 681/269 682/271 666/268
f 517/269 682/271 681/269
f 517/269 683/271 682/271
f 645/268 683/271 517/269
f 645/268 670/272 683/271
f 684/300 200/155 685/349
f 684/300 199/154 200/155
f 617/301 199/154 684/300
f 617/301 686/302 199/154
f 619/320 686/302 617/301
f 619/320 687/350 686/302
f 688/351 689/352 690/353
f 688/351 691/354 689/352
f 692/355 691/354 688/351
f 692/355 693/356 691/354
f 694/357 693/356 692/355
f 694/357 695/358 693/356
f 592/313 696/344 594/315
f 592/313 697/343 696/344
f 590/311 697/343 592/313
f 590/311 698/324 697/343
f 588/309 698/324 590/311
f 588/309 586/307 698/324
f 654/331 699/359 656/335
f 654/331 563/296 699/359
f 652/332 563/296 654/331
f 652/332 565/298 563/296
f 650/333 565/298 652/332
f 650/333 567/300 565/298
f 567/300 200/155 213/154
f 567/300 685/349 200/155
f 650/333 685/349 567/300
f 650/333 684/300 685/349
f 643/298 684/300 650/333
f 643/298 615/299 684/300
f 700/321 587/308 589/310
f 700/321 701/323 587/308
f 702/322 701/323 700/321
f 702/322 585/306 701/323
f 583/304 585/306 702/322
f 474/220 703/360 475/222
f 474/220 704/361 703/360
f 705/362 704/361 474/220
f 705/362 706/363 704/361
f 707/364 706/363 705/362
f 598/287 602/291 600/289
f 598/287 708/348 602/291
f 665/337 708/348 598/287
f 665/337 709/338 708/348
f 710/336 709/338 665/337
f 711/365 712/366 713/367
f 711/365 714/368 712/366
f 715/369 714/368 711/365
f 715/369 716/365 714/368
f 582/303 698/324 586/307
f 582/303 717/325 698/324
f 584/305 717/325 582/303
f 584/305 718/326 717/325
f 719/370 720/371 639/330
f 719/370 721/372 720/371
f 722/371 721/372 719/370
f 722/371 723/373 721/372
f 721/372 724/373 720/371
f 721/372 725/374 724/373
f 723/373 725/374 721/372
f 723/373 726/281 725/374
f 147/118 569/302 144/115
f 147/118 727/375 569/302
f 728/376 727/375 147/118
f 728/376 234/118 727/375
f 729/275 644/270 730/275
f 729/275 667/275 644/270
f 731/316 667/275 729/275
f 731/316 668/270 667/275
f 651/334 639/330 641/332
f 651/334 719/370 639/330
f 653/330 719/370 651/334
f 653/330 722/371 719/370
f 725/374 535/281 724/373
f 725/374 533/279 535/281
f 726/281 533/279 725/374
f 726/281 537/280 533/279
f 599/288 595/284 597/286
f 599/288 732/377 595/284
f 601/290 732/377 599/288
f 601/290 733/378 732/377
f 734/271 508/276 502/269
f 734/271 735/272 508/276
f 504/268 735/272 734/271
f 504/268 506/274 735/272
f 539/284 543/288 541/286
f 539/284 736/377 543/288
f 737/379 736/377 539/284
f 737/379 738/378 736/377
f 739/312 674/311 672/310
f 739/312 740/313 674/311
f 741/314 740/313 739/312
f 741/314 742/315 740/313
f 596/285 677/345 743/347
f 596/285 678/346 677/345
f 538/283 678/346 596/285
f 538/283 540/285 678/346
f 546/291 542/287 544/289
f 546/291 680/348 542/287
f 548/293 680/348 546/291
f 548/293 659/338 680/348
f 705/362 744/363 707/364
f 705/362 745/361 744/363
f 404/220 745/361 705/362
f 746/269 513/271 515/277
f 746/269 511/271 513/271
f 502/269 511/271 746/269
f 740/313 675/343 674/311
f 740/313 676/344 675/343
f 742/315 676/344 740/313
f 642/296 612/295 613/297
f 642/296 611/294 612/295
f 747/359 611/294 642/296
f 686/302 220/105 199/154
f 686/302 218/115 220/105
f 234/118 218/115 686/302
f 625/306 621/322 623/323
f 625/306 622/304 621/322
f 627/303 622/304 625/306
f 568/301 748/319 749/318
f 568/301 750/320 748/319
f 569/302 750/320 568/301
f 529/272 523/274 521/268
f 529/272 525/274 523/274
f 527/274 525/274 529/272
f 646/268 649/273 644/270
f 646/268 648/274 649/273
f 647/272 648/274 646/268
f 691/354 751/351 689/352
f 691/354 752/355 751/351
f 693/356 752/355 691/354
f 689/352 753/380 754/381
f 689/352 755/353 753/380
f 751/351 755/353 689/352
f 756/266 581/239 571/237
f 756/266 579/241 581/239
f 577/243 579/241 756/266
f 757/266 550/237 552/239
f 757/266 560/247 550/237
f 558/245 560/247 757/266
f 757/266 556/243 558/245
f 757/266 554/241 556/243
f 552/239 554/241 757/266
f 632/274 512/272 510/268
f 632/274 634/274 512/272
f 758/360 404/220 406/222
f 758/360 745/361 404/220
f 736/377 545/290 543/288
f 736/377 738/378 545/290
f 631/305 627/303 629/325
f 631/305 622/304 627/303
f 759/335 640/331 636/327
f 759/335 747/359 640/331
f 716/365 760/366 714/368
f 716/365 761/367 760/366
f 762/382 705/362 474/220
f 762/382 404/220 705/362
f 662/341 763/383 764/342
f 662/341 664/342 763/383
f 673/309 626/307 624/308
f 673/309 628/324 626/307
f 765/328 655/327 766/329
f 765/328 653/330 655/327
f 686/302 727/375 234/118
f 686/302 687/350 727/375
f 708/348 604/293 602/291
f 708/348 709/338 604/293
f 767/384 727/375 687/350
f 767/384 768/350 727/375
f 531/271 521/268 517/269
f 531/271 529/272 521/268
f 768/350 569/302 727/375
f 768/350 750/320 569/302
f 502/269 498/271 500/271
f 502/269 496/269 498/271
f 710/336 663/339 661/340
f 710/336 665/337 663/339
f 528/268 769/277 526/278
f 528/268 530/271 769/277
f 660/339 764/342 658/337
f 660/339 662/341 764/342
f 770/380 689/352 754/381
f 770/380 690/353 689/352
f 564/297 771/317 482/263
f 564/297 566/299 771/317
f 772/385 693/356 695/358
f 772/385 773/358 693/356
f 774/357 693/356 773/358
f 774/357 752/355 693/356
f 682/271 670/272 666/268
f 682/271 683/271 670/272
f 598/287 743/347 665/337
f 598/287 596/285 743/347
f 775/379 732/377 733/378
f 775/379 595/284 732/377
f 573/247 756/266 571/237
f 573/247 575/245 756/266
f 562/295 482/263 481/262
f 562/295 564/297 482/263
f 566/299 749/318 771/317
f 566/299 568/301 749/318
f 697/343 718/326 696/344
f 697/343 698/324 718/326
f 512/272 634/274 635/274
f 607/275 610/316 605/275
f 747/359 642/296 640/331
f 608/274 609/274 607/275
f 561/294 699/359 563/296
f 617/301 684/300 615/299
f 700/321 583/304 702/322
f 587/308 701/323 585/306
f 698/324 717/325 718/326
f 734/271 502/269 504/268
f 506/274 508/276 735/272
f 522/275 518/276 520/270
f 667/275 669/274 671/274
f 530/271 532/269 769/277
f 577/243 756/266 575/245
f 776/15 777/31 778/30
f 776/15 779/32 777/31
f 780/19 779/32 776/15
f 780/19 781/44 779/32
f 782/41 781/44 780/19
f 783/22 784/35 785/33
f 783/22 786/36 784/35
f 787/26 786/36 783/22
f 787/26 788/45 786/36
f 789/43 788/45 787/26
f 790/1 791/16 792/17
f 790/1 793/18 791/16
f 794/5 793/18 790/1
f 794/5 795/20 793/18
f 796/21 795/20 794/5
f 797/8 798/23 799/24
f 797/8 800/25 798/23
f 801/12 800/25 797/8
f 801/12 802/27 800/25
f 803/28 802/27 801/12
f 804/3 792/17 805/29
f 804/3 790/1 792/17
f 806/2 790/1 804/3
f 806/2 807/4 790/1
f 808/17 778/30 809/29
f 808/17 776/15 778/30
f 810/16 776/15 808/17
f 810/16 811/18 776/15
f 812/24 785/33 813/34
f 812/24 783/22 785/33
f 814/23 783/22 812/24
f 814/23 815/25 783/22
f 816/10 799/24 817/34
f 816/10 797/8 799/24
f 818/9 797/8 816/10
f 818/9 819/11 797/8
f 820/28 787/26 821/27
f 820/28 822/39 787/26
f 823/38 822/39 820/28
f 823/38 796/21 822/39
f 824/21 780/19 825/20
f 824/21 826/37 780/19
f 827/38 826/37 824/21
f 827/38 803/28 826/37
f 822/39 789/43 787/26
f 822/39 828/42 789/43
f 829/7 828/42 822/39
f 826/37 782/41 780/19
f 826/37 830/40 782/41
f 831/14 830/40 826/37
f 794/5 822/39 796/21
f 794/5 829/7 822/39
f 832/6 829/7 794/5
f 801/12 826/37 803/28
f 801/12 831/14 826/37
f 833/13 831/14 801/12
f 815/25 787/26 783/22
f 815/25 821/27 787/26
f 811/18 780/19 776/15
f 811/18 825/20 780/19
f 794/5 807/4 832/6
f 794/5 790/1 807/4
f 801/12 819/11 833/13
f 801/12 797/8 819/11
f 834/386 835/387 836/388
f 834/386 837/389 835/387
f 838/390 837/389 834/386
f 838/390 839/391 837/389
f 840/392 839/391 838/390
f 840/392 841/393 839/391
f 842/394 841/393 840/392
f 842/394 843/395 841/393
f 844/396 843/395 842/394
f 844/396 845/397 843/395
f 846/398 847/389 848/399
f 846/398 849/391 847/389
f 850/400 849/391 846/398
f 850/400 851/393 849/391
f 852/401 851/393 850/400
f 852/401 853/395 851/393
f 854/402 853/395 852/401
f 854/402 855/403 853/395
f 856/404 855/403 854/402
f 856/404 857/405 855/403
f 858/405 843/395 859/406
f 858/405 860/403 843/395
f 861/404 860/403 858/405
f 861/404 862/402 860/403
f 863/407 862/402 861/404
f 863/407 864/401 862/402
f 865/408 864/401 863/407
f 865/408 866/409 864/401
f 849/391 867/390 847/389
f 849/391 868/392 867/390
f 851/393 868/392 849/391
f 851/393 869/394 868/392
f 853/395 869/394 851/393
f 853/395 870/396 869/394
f 871/397 870/396 853/395
f 872/409 850/400 873/410
f 872/409 852/401 850/400
f 874/408 852/401 872/409
f 874/408 875/407 852/401
f 864/401 841/393 843/395
f 864/401 876/400 841/393
f 866/409 876/400 864/401
f 866/409 877/410 876/400
f 878/73 879/411 880/75
f 878/73 881/412 879/411
f 882/72 881/412 878/73
f 882/72 883/73 881/412
f 884/73 885/411 886/75
f 884/73 887/412 885/411
f 888/72 887/412 884/73
f 888/72 889/73 887/412
f 890/73 891/411 892/75
f 890/73 893/412 891/411
f 894/72 893/412 890/73
f 894/72 895/73 893/412
f 896/412 897/73 898/72
f 896/412 899/411 897/73
f 900/73 899/411 896/412
f 900/73 901/75 899/411
f 902/411 903/73 904/75
f 902/411 905/412 903/73
f 906/73 905/412 902/411
f 906/73 907/72 905/412
f 908/73 909/411 910/75
f 908/73 911/412 909/411
f 912/72 911/412 908/73
f 912/72 913/73 911/412
f 914/413 915/414 916/415
f 914/413 917/416 915/414
f 918/417 917/416 914/413
f 919/387 920/386 921/388
f 919/387 847/389 920/386
f 922/418 847/389 919/387
f 923/419 843/395 845/397
f 923/419 859/406 843/395
f 924/420 859/406 923/419
f 853/395 925/419 871/397
f 853/395 926/406 925/419
f 927/418 835/387 837/389
f 927/418 928/421 835/387
f 862/402 843/395 860/403
f 862/402 864/401 843/395
f 929/422 876/400 877/410
f 929/422 930/398 876/400
f 876/400 839/391 841/393
f 876/400 930/398 839/391
f 930/398 837/389 839/391
f 930/398 931/399 837/389
f 932/423 933/424 934/425
f 932/423 935/426 933/424
f 936/427 933/424 935/426
f 936/427 937/428 933/424
f 938/429 933/424 937/428
f 938/429 939/430 933/424
f 940/424 941/423 942/425
f 940/424 943/431 941/423
f 944/430 941/423 943/431
f 944/430 945/429 941/423
f 946/428 941/423 945/429
f 946/428 947/427 941/423
f 948/414 949/413 950/415
f 948/414 951/416 949/413
f 883/73 879/411 881/412
f 883/73 952/75 879/411
f 949/413 953/417 954/432
f 949/413 951/416 953/417
f 889/73 885/411 887/412
f 889/73 955/75 885/411
f 920/386 867/390 956/433
f 920/386 847/389 867/390
f 895/73 891/411 893/412
f 895/73 957/75 891/411
f 854/402 875/407 856/404
f 854/402 852/401 875/407
f 958/75 899/411 901/75
f 958/75 897/73 899/411
f 959/422 850/400 846/398
f 959/422 873/410 850/400
f 902/411 960/75 906/73
f 902/411 904/75 960/75
f 857/405 853/395 855/403
f 857/405 926/406 853/395
f 913/73 909/411 911/412
f 913/73 961/75 909/411
f 962/432 918/417 914/413
f 838/390 834/386 963/433
f 919/387 964/421 922/418
f 965/420 925/419 926/406
f 939/430 966/431 933/424
f 947/427 967/426 941/423
f 880/75 879/411 952/75
f 886/75 885/411 955/75
f 892/75 891/411 957/75
f 898/72 900/73 896/412
f 905/412 907/72 903/73
f 961/75 910/75 909/411
f 968/434 969/435 970/436
f 968/434 971/437 969/435
f 972/438 971/437 968/434
f 972/438 973/439 971/437
f 974/440 973/439 972/438
f 974/440 975/441 973/439
f 838/390 975/441 974/440
f 838/390 976/442 975/441
f 963/433 976/442 838/390
f 963/433 977/443 976/442
f 978/444 970/436 979/445
f 978/444 968/434 970/436
f 844/396 968/434 978/444
f 844/396 972/438 968/434
f 842/394 972/438 844/396
f 842/394 840/392 972/438
f 980/446 981/447 982/448
f 980/446 983/449 981/447
f 984/450 983/449 980/446
f 984/450 985/451 983/449
f 986/452 985/451 984/450
f 986/452 987/453 985/451
f 988/454 975/441 976/442
f 988/454 989/455 975/441
f 990/456 989/455 988/454
f 990/456 991/457 989/455
f 992/458 991/457 990/456
f 971/437 993/459 969/435
f 971/437 989/455 993/459
f 973/439 989/455 971/437
f 973/439 975/441 989/455
f 994/460 995/461 996/462
f 994/460 997/463 995/461
f 998/464 997/463 994/460
f 998/464 999/465 997/463
f 1000/466 914/413 916/415
f 1000/466 1001/467 914/413
f 914/413 1002/468 962/432
f 914/413 1001/467 1002/468
f 1003/455 1004/456 1005/454
f 1003/455 1006/457 1004/456
f 1007/469 977/443 1008/470
f 1007/469 976/442 977/443
f 974/440 840/392 838/390
f 974/440 972/438 840/392
f 1009/471 992/458 990/456
f 1009/471 1004/456 992/458
f 1010/464 1011/463 1012/465
f 1010/464 1013/460 1011/463
f 1013/460 995/461 1011/463
f 1013/460 996/462 995/461
f 1014/447 1015/446 1016/448
f 1014/447 1017/449 1015/446
f 1017/449 1018/450 1015/446
f 1017/449 1019/451 1018/450
f 1019/451 1020/452 1018/450
f 1019/451 1021/453 1020/452
f 984/450 1022/472 986/452
f 984/450 980/446 1022/472
f 978/444 845/397 844/396
f 1006/457 992/458 1004/456
f 1023/473 339/180 1024/474
f 1023/473 347/177 339/180
f 1025/475 347/177 1023/473
f 1025/475 334/178 347/177
f 1009/471 334/178 1025/475
f 1009/471 1026/475 334/178
f 990/456 1026/475 1009/471
f 990/456 988/454 1026/475
f 1027/436 1028/444 1029/445
f 1027/436 1030/434 1028/444
f 1031/435 1030/434 1027/436
f 1031/435 1032/437 1030/434
f 1033/459 1032/437 1031/435
f 1033/459 1003/455 1032/437
f 1006/457 1003/455 1033/459
f 1034/442 1024/474 1035/476
f 1034/442 1023/473 1024/474
f 1005/454 1023/473 1034/442
f 1005/454 1025/475 1023/473
f 1004/456 1025/475 1005/454
f 1004/456 1009/471 1025/475
f 1019/451 1036/477 1021/453
f 1019/451 1037/478 1036/477
f 1017/449 1037/478 1019/451
f 1017/449 1038/479 1037/478
f 1014/447 1038/479 1017/449
f 1014/447 1039/480 1038/479
f 991/457 993/459 989/455
f 991/457 1040/481 993/459
f 992/458 1040/481 991/457
f 992/458 1041/482 1040/481
f 1042/481 1041/482 992/458
f 1043/439 1032/437 1003/455
f 1043/439 1044/438 1032/437
f 1045/440 1044/438 1043/439
f 1045/440 868/392 1044/438
f 867/390 868/392 1045/440
f 1046/483 1010/464 1047/484
f 1046/483 1013/460 1010/464
f 1048/485 1013/460 1046/483
f 1048/485 996/462 1013/460
f 994/460 996/462 1048/485
f 1049/486 354/190 356/191
f 1049/486 1050/487 354/190
f 1051/488 1050/487 1049/486
f 1051/488 1052/489 1050/487
f 1011/463 1053/490 1012/465
f 1011/463 1054/491 1053/490
f 995/461 1054/491 1011/463
f 995/461 997/463 1054/491
f 1055/443 1056/469 1057/470
f 1055/443 1034/442 1056/469
f 956/433 1034/442 1055/443
f 956/433 867/390 1034/442
f 1058/473 357/180 333/177
f 1058/473 1059/474 357/180
f 976/442 1059/474 1058/473
f 976/442 1060/476 1059/474
f 1026/475 333/177 334/178
f 1026/475 1058/473 333/177
f 988/454 1058/473 1026/475
f 988/454 976/442 1058/473
f 1044/438 1030/434 1032/437
f 1044/438 870/396 1030/434
f 869/394 870/396 1044/438
f 1061/441 1045/440 1043/439
f 1061/441 867/390 1045/440
f 1034/442 867/390 1061/441
f 1062/492 969/435 993/459
f 1062/492 970/436 969/435
f 1063/493 970/436 1062/492
f 1064/492 1027/436 1065/493
f 1064/492 1031/435 1027/436
f 1033/459 1031/435 1064/492
f 1066/483 994/460 1048/485
f 1066/483 998/464 994/460
f 1067/484 998/464 1066/483
f 1068/490 997/463 999/465
f 1068/490 1054/491 997/463
f 1015/446 1069/472 1016/448
f 1015/446 1018/450 1069/472
f 1070/494 354/190 1050/487
f 1070/494 1071/487 354/190
f 354/190 1072/486 355/191
f 354/190 1071/487 1072/486
f 1073/495 1033/459 1064/492
f 1073/495 1042/481 1033/459
f 1074/477 985/451 987/453
f 1074/477 1075/478 985/451
f 1076/495 993/459 1040/481
f 1076/495 1062/492 993/459
f 1077/466 949/413 1078/467
f 1077/466 950/415 949/413
f 1071/487 1079/488 1072/486
f 1071/487 1080/489 1079/488
f 1028/444 870/396 871/397
f 1028/444 1030/434 870/396
f 1081/479 981/447 983/449
f 1081/479 1082/480 981/447
f 1083/468 949/413 954/432
f 1083/468 1078/467 949/413
f 1075/478 983/449 985/451
f 1075/478 1081/479 983/449
f 1042/481 1006/457 1033/459
f 1042/481 992/458 1006/457
f 1003/455 1061/441 1043/439
f 1003/455 1005/454 1061/441
f 1022/472 980/446 982/448
f 1020/452 1069/472 1018/450
f 868/392 869/394 1044/438
f 1061/441 1005/454 1034/442
f 1037/478 179/121 1036/477
f 1037/478 177/120 179/121
f 1038/479 177/120 1037/478
f 1038/479 181/144 177/120
f 1039/480 181/144 1038/479
f 1039/480 183/146 181/144
f 1084/161 1085/160 1086/162
f 1084/161 1087/163 1085/160
f 1088/496 1087/163 1084/161
f 1088/496 1089/497 1087/163
f 1090/498 1091/163 1092/160
f 1090/498 1093/499 1091/163
f 1094/500 1093/499 1090/498
f 1094/500 1095/501 1093/499
f 1096/163 1097/498 1098/160
f 1096/163 1099/499 1097/498
f 1100/497 1099/499 1096/163
f 1100/497 1101/502 1099/499
f 1046/483 189/149 1048/485
f 1046/483 229/140 189/149
f 1047/484 229/140 1046/483
f 1047/484 228/139 229/140
f 1102/503 1103/504 1104/505
f 1102/503 1105/506 1103/504
f 1106/162 1105/506 1102/503
f 1106/162 1107/161 1105/506
f 1105/506 1108/507 1103/504
f 1105/506 1109/508 1108/507
f 1107/161 1109/508 1105/506
f 1107/161 1110/496 1109/508
f 1111/502 1095/501 1112/509
f 1111/502 1093/499 1095/501
f 1113/497 1093/499 1111/502
f 1113/497 1091/163 1093/499
f 1114/504 1115/509 1116/507
f 1114/504 1117/501 1115/509
f 1118/505 1117/501 1114/504
f 1118/505 1119/500 1117/501
f 1120/501 1101/502 1121/509
f 1120/501 1099/499 1101/502
f 1122/500 1099/499 1120/501
f 1122/500 1097/498 1099/499
f 1123/161 1124/508 1125/496
f 1123/161 1126/506 1124/508
f 1127/162 1126/506 1123/161
f 1127/162 1128/503 1126/506
f 1126/506 1129/507 1124/508
f 1126/506 1130/504 1129/507
f 1128/503 1130/504 1126/506
f 1128/503 1131/505 1130/504
f 1041/482 198/153 1040/481
f 1041/482 226/159 198/153
f 225/153 226/159 1041/482
f 1132/505 1133/501 1134/500
f 1132/505 1135/504 1133/501
f 1063/493 232/158 231/157
f 1063/493 1062/492 232/158
f 1062/492 194/151 232/158
f 1062/492 1076/495 194/151
f 1076/495 198/153 194/151
f 1076/495 1040/481 198/153
f 150/121 1075/478 1074/477
f 150/121 149/120 1075/478
f 1082/480 216/144 227/146
f 1082/480 1081/479 216/144
f 1042/481 225/153 1041/482
f 1042/481 1073/495 225/153
f 1067/484 169/140 168/139
f 1067/484 1066/483 169/140
f 1066/483 189/149 169/140
f 1066/483 1048/485 189/149
f 149/120 1081/479 1075/478
f 149/120 216/144 1081/479
f 1073/495 211/151 225/153
f 1073/495 1064/492 211/151
f 1064/492 224/158 211/151
f 1064/492 1065/493 224/158
f 1136/509 1135/504 1137/507
f 1136/509 1133/501 1135/504
f 238/163 1138/496 236/161
f 238/163 1139/497 1138/496
f 1065/493 223/157 224/158
f 1140/13 1141/45 1142/14
f 1140/13 1143/36 1141/45
f 1144/11 1143/36 1140/13
f 1144/11 1145/35 1143/36
f 1146/9 1145/35 1144/11
f 1146/9 1147/510 1145/35
f 1148/10 1147/510 1146/9
f 1148/10 1149/34 1147/510
f 1150/41 1151/511 1152/512
f 1150/41 1153/7 1151/511
f 1154/44 1153/7 1150/41
f 1154/44 1155/6 1153/7
f 1156/32 1155/6 1154/44
f 1156/32 1157/4 1155/6
f 1158/2 1157/4 1156/32
f 1159/7 1160/41 1161/511
f 1159/7 1162/44 1160/41
f 1163/6 1162/44 1159/7
f 1163/6 1164/32 1162/44
f 1165/4 1164/32 1163/6
f 1165/4 1166/2 1164/32
f 1109/508 1167/511 1108/507
f 1109/508 1168/513 1167/511
f 1169/514 1168/513 1109/508
f 1169/514 789/43 1168/513
f 1170/512 1111/502 1112/509
f 1170/512 1171/515 1111/502
f 782/41 1171/515 1170/512
f 782/41 830/40 1171/515
f 1166/2 1172/31 1164/32
f 1166/2 1173/516 1172/31
f 1174/3 1173/516 1166/2
f 1174/3 1175/29 1173/516
f 1176/511 1124/508 1129/507
f 1176/511 1177/513 1124/508
f 7/7 1177/513 1176/511
f 7/7 55/42 1177/513
f 1101/502 1178/512 1121/509
f 1101/502 1179/515 1178/512
f 1100/497 1179/515 1101/502
f 1100/497 1180/517 1179/515
f 1181/31 1158/2 1156/32
f 1181/31 1182/516 1158/2
f 1183/30 1182/516 1181/31
f 1183/30 1184/29 1182/516
f 1185/35 1186/9 1187/11
f 1185/35 1188/510 1186/9
f 1189/33 1188/510 1185/35
f 1189/33 1190/34 1188/510
f 1161/511 1136/509 1137/507
f 1161/511 1191/512 1136/509
f 1160/41 1191/512 1161/511
f 1171/515 1113/497 1111/502
f 1171/515 1192/517 1113/497
f 831/14 1192/517 1171/515
f 1142/14 1193/514 1194/517
f 1142/14 1195/43 1193/514
f 1141/45 1195/43 1142/14
f 1179/515 54/41 1178/512
f 1179/515 53/40 54/41
f 14/14 53/40 1179/515
f 1196/514 1089/497 1088/496
f 1196/514 1197/517 1089/497
f 1198/14 1197/517 1196/514
f 828/42 1168/513 789/43
f 828/42 829/7 1168/513
f 1199/30 1173/516 1175/29
f 1199/30 1172/31 1173/516
f 1139/497 1193/514 1138/496
f 1139/497 1194/517 1193/514
f 1200/33 1147/510 1149/34
f 1200/33 1145/35 1147/510
f 56/43 1177/513 55/42
f 56/43 1201/514 1177/513
f 1124/508 1201/514 1125/496
f 1124/508 1177/513 1201/514
f 1115/509 1151/511 1116/507
f 1115/509 1152/512 1151/511
f 1182/516 1202/3 1158/2
f 1182/516 1184/29 1202/3
f 1203/43 1198/14 1196/514
f 1203/43 1204/45 1198/14
f 1204/45 1205/13 1198/14
f 1204/45 1206/36 1205/13
f 1206/36 1187/11 1205/13
f 1206/36 1185/35 1187/11
f 1207/10 1188/510 1190/34
f 1207/10 1186/9 1188/510
f 1110/496 1169/514 1109/508
f 829/7 1167/511 1168/513
f 830/40 831/14 1171/515
f 1179/515 1180/517 14/14
o polygon0_mat2
v 1.633247 11.066895 13.463712
v 1.449222 11.558710 13.298181
v 0.617204 10.867571 14.880114
v -1.633247 11.066895 13.463712
v -0.617204 10.867571 14.880114
v -1.449222 11.558710 13.298181
vt -0.125305 0.756775
vt -0.071472 0.983765
vt -0.958069 0.761536
usemtl mat2
s 1
f 1208/518 1209/519 1210/520
f 1211/518 1212/520 1213/519
