xof 0303txt 0032

template AnimTicksPerSecond {
  <9E415A43-7BA6-4a73-8743-B73D47E88476>
  DWORD AnimTicksPerSecond;
}

template XSkinMeshHeader {
  <3cf169ce-ff7c-44ab-93c0-f78f62d172e2>
  WORD nMaxSkinWeightsPerVertex;
  WORD nMaxSkinWeightsPerFace;
  WORD nBones;
}

template SkinWeights {
  <6f0d123b-bad2-4167-a0d0-80224f25fabb>
  STRING transformNodeName;
  DWORD nWeights;
  array DWORD vertexIndices[nWeights];
  array float weights[nWeights];
  Matrix4x4 matrixOffset;
}

Frame Root {
  FrameTransformMatrix {
     1.000000, 0.000000, 0.000000, 0.000000,
     0.000000, 0.000000, 1.000000, 0.000000,
     0.000000, 1.000000,-0.000000, 0.000000,
     0.000000, 0.000000, 0.000000, 1.000000;;
  }
  Frame nendoll_mat_0 {
    FrameTransformMatrix {
       1.000000, 0.000000, 0.000000, 0.000000,
       0.000000, 1.000000, 0.000000, 0.000000,
       0.000000, 0.000000, 1.000000, 0.000000,
       0.000000, 0.000000, 0.000000, 1.000000;;
    }
    Mesh { //Mesh Mesh
      156;
       5.484040; 3.937280; 0.100965;,
       6.535520; 3.937280;-0.005121;,
       5.484040; 3.518466;-0.261738;,
       6.535520; 3.937280;-0.005121;,
       6.535520; 3.640965;-0.261740;,
       5.484040; 3.518466;-0.261738;,
       5.484040; 3.937280;-0.624441;,
       5.484040; 3.518466;-0.261738;,
       6.535520; 3.640965;-0.261740;,
       6.535520; 3.640965;-0.261740;,
       6.535520; 3.937280;-0.518355;,
       5.484040; 3.937280;-0.624441;,
       4.433897; 5.423070;-0.261738;,
       3.505799; 5.377000;-0.261738;,
       4.433897; 4.680174;-1.548468;,
       3.505799; 5.377000;-0.261738;,
       3.505799; 4.657139;-1.508568;,
       4.433897; 4.680174;-1.548468;,
       4.433897; 4.680174;-1.548468;,
       3.505799; 4.657139;-1.508568;,
       4.433897; 3.194386;-1.548468;,
       3.505799; 4.657139;-1.508568;,
       3.505799; 3.217420;-1.508568;,
       4.433897; 3.194386;-1.548468;,
       6.535520; 3.937280;-0.005121;,
       5.484040; 3.937280; 0.100965;,
       6.535520; 4.233596;-0.261736;,
       5.484040; 3.937280; 0.100965;,
       5.484040; 4.356094;-0.261738;,
       6.535520; 4.233596;-0.261736;,
       6.535520; 4.233596;-0.261736;,
       5.484040; 4.356094;-0.261738;,
       6.535520; 3.937280;-0.518355;,
       5.484040; 4.356094;-0.261738;,
       5.484040; 3.937280;-0.624441;,
       6.535520; 3.937280;-0.518355;,
       3.505799; 5.377000;-0.261738;,
       4.433897; 5.423070;-0.261738;,
       3.505799; 4.657139; 0.985092;,
       4.433897; 5.423070;-0.261738;,
       4.433896; 4.680174; 1.024992;,
       3.505799; 4.657139; 0.985092;,
       3.505799; 4.657139; 0.985092;,
       4.433896; 4.680174; 1.024992;,
       3.505799; 3.217421; 0.985092;,
       4.433896; 4.680174; 1.024992;,
       4.433896; 3.194386; 1.024992;,
       3.505799; 3.217421; 0.985092;,
       3.505799; 3.217421; 0.985092;,
       4.433896; 3.194386; 1.024992;,
       3.505799; 2.497560;-0.261738;,
       4.433896; 3.194386; 1.024992;,
       4.433897; 2.451490;-0.261738;,
       3.505799; 2.497560;-0.261738;,
       3.505799; 2.497560;-0.261738;,
       4.433897; 2.451490;-0.261738;,
       4.433897; 3.194386;-1.548468;,
       3.505799; 2.497560;-0.261738;,
       4.433897; 3.194386;-1.548468;,
       3.505799; 3.217420;-1.508568;,
       3.505799; 3.217420;-1.508568;,
       3.505799; 4.657139;-1.508568;,
       2.818040; 4.431910;-1.118463;,
       3.505799; 3.217420;-1.508568;,
       2.818040; 4.431910;-1.118463;,
       2.818040; 3.442650;-1.118463;,
       3.505799; 4.657139; 0.985092;,
       3.505799; 3.217421; 0.985092;,
       2.818040; 3.442650; 0.594987;,
       3.505799; 4.657139; 0.985092;,
       2.818040; 3.442650; 0.594987;,
       2.818040; 4.431910; 0.594987;,
       5.036960; 2.785430;-0.261738;,
       5.484040; 3.518466;-0.261738;,
       5.036960; 3.361355;-1.259270;,
       5.036960; 3.361355;-1.259270;,
       5.484040; 3.518466;-0.261738;,
       5.484040; 3.937280;-0.624441;,
       3.505799; 2.497560;-0.261738;,
       2.818040; 2.948020;-0.261738;,
       3.505799; 3.217421; 0.985092;,
       2.818040; 2.948020;-0.261738;,
       2.818040; 3.442650; 0.594987;,
       3.505799; 3.217421; 0.985092;,
       2.818040; 3.442650; 0.594987;,
       2.818040; 2.948020;-0.261738;,
       2.484300; 3.937280;-0.261738;,
       2.484300; 3.937280;-0.261738;,
       2.818040; 4.431910; 0.594987;,
       2.818040; 3.442650; 0.594987;,
       2.818040; 3.442650;-1.118463;,
       2.818040; 2.948020;-0.261738;,
       3.505799; 3.217420;-1.508568;,
       2.818040; 2.948020;-0.261738;,
       3.505799; 2.497560;-0.261738;,
       3.505799; 3.217420;-1.508568;,
       5.036960; 3.361355;-1.259270;,
       5.484040; 3.937280;-0.624441;,
       5.036960; 4.513205;-1.259270;,
       5.484040; 3.937280;-0.624441;,
       5.484040; 4.356094;-0.261738;,
       5.036960; 4.513205;-1.259270;,
       5.036960; 4.513205;-1.259270;,
       5.484040; 4.356094;-0.261738;,
       5.036960; 5.089130;-0.261738;,
       5.484040; 4.356094;-0.261738;,
       5.036960; 4.513205; 0.735794;,
       5.036960; 5.089130;-0.261738;,
       5.036960; 4.513205; 0.735794;,
       5.484040; 4.356094;-0.261738;,
       5.484040; 3.937280; 0.100965;,
       5.484040; 3.937280; 0.100965;,
       5.036960; 3.361355; 0.735794;,
       5.036960; 4.513205; 0.735794;,
       5.036960; 3.361355; 0.735794;,
       5.484040; 3.937280; 0.100965;,
       5.484040; 3.518466;-0.261738;,
       5.036960; 3.361355; 0.735794;,
       5.484040; 3.518466;-0.261738;,
       5.036960; 2.785430;-0.261738;,
       2.818040; 2.948020;-0.261738;,
       2.818040; 3.442650;-1.118463;,
       2.484300; 3.937280;-0.261738;,
       2.818040; 3.442650;-1.118463;,
       2.818040; 4.431910;-1.118463;,
       2.484300; 3.937280;-0.261738;,
       6.535520; 4.233596;-0.261736;,
       6.535520; 3.937280;-0.518355;,
       6.614910; 3.937280;-0.261738;,
       6.614910; 3.937280;-0.261738;,
       6.535520; 3.937280;-0.005121;,
       6.535520; 4.233596;-0.261736;,
       6.535520; 3.937280;-0.005121;,
       6.614910; 3.937280;-0.261738;,
       6.535520; 3.640965;-0.261740;,
       6.614910; 3.937280;-0.261738;,
       6.535520; 3.937280;-0.518355;,
       6.535520; 3.640965;-0.261740;,
       2.484300; 3.937280;-0.261738;,
       2.818040; 4.926540;-0.261738;,
       2.818040; 4.431910; 0.594987;,
       2.818040; 4.926540;-0.261738;,
       3.505799; 4.657139; 0.985092;,
       2.818040; 4.431910; 0.594987;,
       3.505799; 4.657139; 0.985092;,
       2.818040; 4.926540;-0.261738;,
       3.505799; 5.377000;-0.261738;,
       2.818040; 4.926540;-0.261738;,
       3.505799; 4.657139;-1.508568;,
       3.505799; 5.377000;-0.261738;,
       3.505799; 4.657139;-1.508568;,
       2.818040; 4.926540;-0.261738;,
       2.818040; 4.431910;-1.118463;,
       2.818040; 4.926540;-0.261738;,
       2.484300; 3.937280;-0.261738;,
       2.818040; 4.431910;-1.118463;;
      52;
      3;0;1;2;,
      3;3;4;5;,
      3;6;7;8;,
      3;9;10;11;,
      3;12;13;14;,
      3;15;16;17;,
      3;18;19;20;,
      3;21;22;23;,
      3;24;25;26;,
      3;27;28;29;,
      3;30;31;32;,
      3;33;34;35;,
      3;36;37;38;,
      3;39;40;41;,
      3;42;43;44;,
      3;45;46;47;,
      3;48;49;50;,
      3;51;52;53;,
      3;54;55;56;,
      3;57;58;59;,
      3;60;61;62;,
      3;63;64;65;,
      3;66;67;68;,
      3;69;70;71;,
      3;72;73;74;,
      3;75;76;77;,
      3;78;79;80;,
      3;81;82;83;,
      3;84;85;86;,
      3;87;88;89;,
      3;90;91;92;,
      3;93;94;95;,
      3;96;97;98;,
      3;99;100;101;,
      3;102;103;104;,
      3;105;106;107;,
      3;108;109;110;,
      3;111;112;113;,
      3;114;115;116;,
      3;117;118;119;,
      3;120;121;122;,
      3;123;124;125;,
      3;126;127;128;,
      3;129;130;131;,
      3;132;133;134;,
      3;135;136;137;,
      3;138;139;140;,
      3;141;142;143;,
      3;144;145;146;,
      3;147;148;149;,
      3;150;151;152;,
      3;153;154;155;;
      MeshNormals { //Mesh Normals
        156;
        -0.701285;-0.000000;-0.712851;,
        -0.538804;-0.000000;-0.842402;,
        -0.734947; 0.678091;-0.000000;,
        -0.538804;-0.000000;-0.842402;,
        -0.543779; 0.839198;-0.000000;,
        -0.734947; 0.678091;-0.000000;,
        -0.701285;-0.000000; 0.712851;,
        -0.734947; 0.678091;-0.000000;,
        -0.543779; 0.839198;-0.000000;,
        -0.543779; 0.839198;-0.000000;,
        -0.538804;-0.000000; 0.842402;,
        -0.701285;-0.000000; 0.712851;,
         0.049562;-0.998749;-0.000000;,
         0.287393;-0.957793;-0.000000;,
         0.049562;-0.499374; 0.864956;,
         0.287393;-0.957793;-0.000000;,
         0.287393;-0.478896; 0.829463;,
         0.049562;-0.499374; 0.864956;,
         0.049562;-0.499374; 0.864956;,
         0.287393;-0.478896; 0.829463;,
         0.049562; 0.499374; 0.864956;,
         0.287393;-0.478896; 0.829463;,
         0.287393; 0.478896; 0.829463;,
         0.049562; 0.499374; 0.864956;,
        -0.538804;-0.000000;-0.842402;,
        -0.701285;-0.000000;-0.712851;,
        -0.543779;-0.839198;-0.000000;,
        -0.701285;-0.000000;-0.712851;,
        -0.734947;-0.678091;-0.000000;,
        -0.543779;-0.839198;-0.000000;,
        -0.543779;-0.839198;-0.000000;,
        -0.734947;-0.678091;-0.000000;,
        -0.538804;-0.000000; 0.842402;,
        -0.734947;-0.678091;-0.000000;,
        -0.701285;-0.000000; 0.712851;,
        -0.538804;-0.000000; 0.842402;,
         0.287393;-0.957793;-0.000000;,
         0.049562;-0.998749;-0.000000;,
         0.287393;-0.478896;-0.829463;,
         0.049562;-0.998749;-0.000000;,
         0.049562;-0.499374;-0.864956;,
         0.287393;-0.478896;-0.829463;,
         0.287393;-0.478896;-0.829463;,
         0.049562;-0.499374;-0.864956;,
         0.287393; 0.478896;-0.829463;,
         0.049562;-0.499374;-0.864956;,
         0.049562; 0.499374;-0.864956;,
         0.287393; 0.478896;-0.829463;,
         0.287393; 0.478896;-0.829463;,
         0.049562; 0.499374;-0.864956;,
         0.287393; 0.957793;-0.000000;,
         0.049562; 0.499374;-0.864956;,
         0.049562; 0.998749;-0.000000;,
         0.287393; 0.957793;-0.000000;,
         0.287393; 0.957793;-0.000000;,
         0.049562; 0.998749;-0.000000;,
         0.049562; 0.499374; 0.864956;,
         0.287393; 0.957793;-0.000000;,
         0.049562; 0.499374; 0.864956;,
         0.287393; 0.478896; 0.829463;,
         0.287393; 0.478896; 0.829463;,
         0.287393;-0.478896; 0.829463;,
         0.741966;-0.335185; 0.580584;,
         0.287393; 0.478896; 0.829463;,
         0.741966;-0.335185; 0.580584;,
         0.741966; 0.335185; 0.580584;,
         0.287393;-0.478896;-0.829463;,
         0.287393; 0.478896;-0.829463;,
         0.741966; 0.335185;-0.580584;,
         0.287393;-0.478896;-0.829463;,
         0.741966; 0.335185;-0.580584;,
         0.741966;-0.335185;-0.580584;,
        -0.853725; 0.520676;-0.000000;,
        -0.734947; 0.678091;-0.000000;,
        -0.862941; 0.253395; 0.437147;,
        -0.862941; 0.253395; 0.437147;,
        -0.734947; 0.678091;-0.000000;,
        -0.701285;-0.000000; 0.712851;,
         0.287393; 0.957793;-0.000000;,
         0.741966; 0.670400;-0.000000;,
         0.287393; 0.478896;-0.829463;,
         0.741966; 0.670400;-0.000000;,
         0.741966; 0.335185;-0.580584;,
         0.287393; 0.478896;-0.829463;,
         0.741966; 0.335185;-0.580584;,
         0.741966; 0.670400;-0.000000;,
         0.999969;-0.000000;-0.000000;,
         0.999969;-0.000000;-0.000000;,
         0.741966;-0.335185;-0.580584;,
         0.741966; 0.335185;-0.580584;,
         0.741966; 0.335185; 0.580584;,
         0.741966; 0.670400;-0.000000;,
         0.287393; 0.478896; 0.829463;,
         0.741966; 0.670400;-0.000000;,
         0.287393; 0.957793;-0.000000;,
         0.287393; 0.478896; 0.829463;,
        -0.862941; 0.253395; 0.437147;,
        -0.701285;-0.000000; 0.712851;,
        -0.862941;-0.253395; 0.437147;,
        -0.701285;-0.000000; 0.712851;,
        -0.734947;-0.678091;-0.000000;,
        -0.862941;-0.253395; 0.437147;,
        -0.862941;-0.253395; 0.437147;,
        -0.734947;-0.678091;-0.000000;,
        -0.853725;-0.520676;-0.000000;,
        -0.734947;-0.678091;-0.000000;,
        -0.862941;-0.253395;-0.437147;,
        -0.853725;-0.520676;-0.000000;,
        -0.862941;-0.253395;-0.437147;,
        -0.734947;-0.678091;-0.000000;,
        -0.701285;-0.000000;-0.712851;,
        -0.701285;-0.000000;-0.712851;,
        -0.862941; 0.253395;-0.437147;,
        -0.862941;-0.253395;-0.437147;,
        -0.862941; 0.253395;-0.437147;,
        -0.701285;-0.000000;-0.712851;,
        -0.734947; 0.678091;-0.000000;,
        -0.862941; 0.253395;-0.437147;,
        -0.734947; 0.678091;-0.000000;,
        -0.853725; 0.520676;-0.000000;,
         0.741966; 0.670400;-0.000000;,
         0.741966; 0.335185; 0.580584;,
         0.999969;-0.000000;-0.000000;,
         0.741966; 0.335185; 0.580584;,
         0.741966;-0.335185; 0.580584;,
         0.999969;-0.000000;-0.000000;,
        -0.543779;-0.839198;-0.000000;,
        -0.538804;-0.000000; 0.842402;,
        -1.000000;-0.000000;-0.000000;,
        -1.000000;-0.000000;-0.000000;,
        -0.538804;-0.000000;-0.842402;,
        -0.543779;-0.839198;-0.000000;,
        -0.538804;-0.000000;-0.842402;,
        -1.000000;-0.000000;-0.000000;,
        -0.543779; 0.839198;-0.000000;,
        -1.000000;-0.000000;-0.000000;,
        -0.538804;-0.000000; 0.842402;,
        -0.543779; 0.839198;-0.000000;,
         0.999969;-0.000000;-0.000000;,
         0.741966;-0.670400;-0.000000;,
         0.741966;-0.335185;-0.580584;,
         0.741966;-0.670400;-0.000000;,
         0.287393;-0.478896;-0.829463;,
         0.741966;-0.335185;-0.580584;,
         0.287393;-0.478896;-0.829463;,
         0.741966;-0.670400;-0.000000;,
         0.287393;-0.957793;-0.000000;,
         0.741966;-0.670400;-0.000000;,
         0.287393;-0.478896; 0.829463;,
         0.287393;-0.957793;-0.000000;,
         0.287393;-0.478896; 0.829463;,
         0.741966;-0.670400;-0.000000;,
         0.741966;-0.335185; 0.580584;,
         0.741966;-0.670400;-0.000000;,
         0.999969;-0.000000;-0.000000;,
         0.741966;-0.335185; 0.580584;;
        52;
        3;0;1;2;,
        3;3;4;5;,
        3;6;7;8;,
        3;9;10;11;,
        3;12;13;14;,
        3;15;16;17;,
        3;18;19;20;,
        3;21;22;23;,
        3;24;25;26;,
        3;27;28;29;,
        3;30;31;32;,
        3;33;34;35;,
        3;36;37;38;,
        3;39;40;41;,
        3;42;43;44;,
        3;45;46;47;,
        3;48;49;50;,
        3;51;52;53;,
        3;54;55;56;,
        3;57;58;59;,
        3;60;61;62;,
        3;63;64;65;,
        3;66;67;68;,
        3;69;70;71;,
        3;72;73;74;,
        3;75;76;77;,
        3;78;79;80;,
        3;81;82;83;,
        3;84;85;86;,
        3;87;88;89;,
        3;90;91;92;,
        3;93;94;95;,
        3;96;97;98;,
        3;99;100;101;,
        3;102;103;104;,
        3;105;106;107;,
        3;108;109;110;,
        3;111;112;113;,
        3;114;115;116;,
        3;117;118;119;,
        3;120;121;122;,
        3;123;124;125;,
        3;126;127;128;,
        3;129;130;131;,
        3;132;133;134;,
        3;135;136;137;,
        3;138;139;140;,
        3;141;142;143;,
        3;144;145;146;,
        3;147;148;149;,
        3;150;151;152;,
        3;153;154;155;;
      } //End of Mesh Normals
      MeshMaterialList { //Mesh Material List
        1;
        52;
        0,
        0,
        0,
        0,
        0,
        0,
        0,
        0,
        0,
        0,
        0,
        0,
        0,
        0,
        0,
        0,
        0,
        0,
        0,
        0,
        0,
        0,
        0,
        0,
        0,
        0,
        0,
        0,
        0,
        0,
        0,
        0,
        0,
        0,
        0,
        0,
        0,
        0,
        0,
        0,
        0,
        0,
        0,
        0,
        0,
        0,
        0,
        0,
        0,
        0,
        0,
        0;;
        Material mat_0 {
           0.640000; 0.640000; 0.640000; 1.000000;;
           92.156863;
           0.250000; 0.250000; 0.250000;;
           0.000000; 0.000000; 0.000000;;
          TextureFilename {"Textures/nendoll_1_0.tga";}
        }
      } //End of Mesh Material List
      MeshTextureCoords { //Mesh UV Coordinates
        156;
         9.000000; 0.646437;,
         9.000000; 0.877285;,
        12.000000; 0.597636;,
         9.000000; 0.877285;,
        12.000000; 0.858560;,
        12.000000; 0.597636;,
        15.000000; 0.646437;,
        12.000000; 0.597636;,
        12.000000; 0.858560;,
        12.000000; 0.858560;,
        15.000000; 0.877285;,
        15.000000; 0.646437;,
         6.000000;-0.574220;,
         6.000000;-1.099040;,
         4.000000;-0.574220;,
         6.000000;-1.099040;,
         4.000000;-1.099040;,
         4.000000;-0.574220;,
         4.000000;-0.574220;,
         4.000000;-1.099040;,
         2.000000;-0.574220;,
         4.000000;-1.099040;,
         2.000000;-1.099040;,
         2.000000;-0.574220;,
         9.000000; 0.877285;,
         9.000000; 0.646437;,
         6.000010; 0.858559;,
         9.000000; 0.646437;,
         6.000000; 0.597635;,
         6.000010; 0.858559;,
         6.000010; 0.858559;,
         6.000000; 0.597635;,
         3.000000; 0.877285;,
         6.000000; 0.597635;,
         3.000000; 0.646437;,
         3.000000; 0.877285;,
         6.000000;-1.099040;,
         6.000000;-0.574220;,
         8.000000;-1.099040;,
         6.000000;-0.574220;,
         8.000000;-0.574220;,
         8.000000;-1.099040;,
         8.000000;-1.099040;,
         8.000000;-0.574220;,
        10.000000;-1.099040;,
         8.000000;-0.574220;,
        10.000000;-0.574220;,
        10.000000;-1.099040;,
        10.000000;-1.099040;,
        10.000000;-0.574220;,
        12.000000;-1.099040;,
        10.000000;-0.574220;,
        12.000000;-0.574220;,
        12.000000;-1.099040;,
        12.000000;-1.099040;,
        12.000000;-0.574220;,
        14.000000;-0.574220;,
        12.000000;-1.099040;,
        14.000000;-0.574220;,
        14.000000;-1.099040;,
         2.000000;-1.099040;,
         4.000000;-1.099040;,
         4.000000;-1.504340;,
         2.000000;-1.099040;,
         4.000000;-1.504340;,
         2.000000;-1.504340;,
         8.000000;-1.099040;,
        10.000000;-1.099040;,
        10.000000;-1.504340;,
         8.000000;-1.099040;,
        10.000000;-1.504340;,
         8.000000;-1.504340;,
        12.000000;-0.117780;,
        12.000000; 0.597636;,
        14.000000;-0.117780;,
        14.000000;-0.117780;,
        12.000000; 0.597636;,
        15.000000; 0.646437;,
        12.000000;-1.099040;,
        12.000000;-1.504340;,
        10.000000;-1.099040;,
        12.000000;-1.504340;,
        10.000000;-1.504340;,
        10.000000;-1.099040;,
        10.000000;-1.504340;,
        12.000000;-1.504340;,
        12.000000;-2.000000;,
        12.000000;-2.000000;,
         8.000000;-1.504340;,
        10.000000;-1.504340;,
         2.000000;-1.504340;,
         0.000000;-1.504340;,
         2.000000;-1.099040;,
         0.000000;-1.504340;,
         0.000000;-1.099040;,
         2.000000;-1.099040;,
         2.000000;-0.117780;,
         3.000000; 0.646437;,
         4.000000;-0.117780;,
         3.000000; 0.646437;,
         6.000000; 0.597635;,
         4.000000;-0.117780;,
         4.000000;-0.117780;,
         6.000000; 0.597635;,
         6.000000;-0.117780;,
         6.000000; 0.597635;,
         8.000000;-0.117780;,
         6.000000;-0.117780;,
         8.000000;-0.117780;,
         6.000000; 0.597635;,
         9.000000; 0.646437;,
         9.000000; 0.646437;,
        10.000000;-0.117780;,
         8.000000;-0.117780;,
        10.000000;-0.117780;,
         9.000000; 0.646437;,
        12.000000; 0.597636;,
        10.000000;-0.117780;,
        12.000000; 0.597636;,
        12.000000;-0.117780;,
        12.000000;-1.504340;,
        14.000000;-1.504340;,
        12.000000;-2.000000;,
        14.000000;-1.504340;,
        16.000000;-1.504340;,
        12.000000;-2.000000;,
         3.000000; 0.877285;,
         4.039330; 1.000000;,
         6.000010; 0.858559;,
         4.039330; 1.000000;,
         9.000000; 0.877285;,
         6.000010; 0.858559;,
         9.000000; 0.877285;,
         4.039330; 1.000000;,
         0.000014; 0.858560;,
         4.039330; 1.000000;,
         3.000000; 0.877285;,
         0.000014; 0.858560;,
        12.000000;-2.000000;,
         6.000000;-1.504340;,
         8.000000;-1.504340;,
         6.000000;-1.504340;,
         8.000000;-1.099040;,
         8.000000;-1.504340;,
         8.000000;-1.099040;,
         6.000000;-1.504340;,
         6.000000;-1.099040;,
         6.000000;-1.504340;,
         4.000000;-1.099040;,
         6.000000;-1.099040;,
         4.000000;-1.099040;,
         6.000000;-1.504340;,
         4.000000;-1.504340;,
         6.000000;-1.504340;,
        12.000000;-2.000000;,
         4.000000;-1.504340;;
      } //End of Mesh UV Coordinates
    } //End of Mesh Mesh
  } //End of nendoll_mat_0
  Frame nendoll_mat_1 {
    FrameTransformMatrix {
       1.000000, 0.000000, 0.000000, 0.000000,
       0.000000, 1.000000, 0.000000, 0.000000,
       0.000000, 0.000000, 1.000000, 0.000000,
       0.000000, 0.000000, 0.000000, 1.000000;;
    }
    Mesh { //Mesh Mesh
      36;
       4.433896; 3.194386; 1.024992;,
       5.036960; 3.361355; 0.735794;,
       4.433897; 2.451490;-0.261738;,
       5.036960; 3.361355; 0.735794;,
       5.036960; 2.785430;-0.261738;,
       4.433897; 2.451490;-0.261738;,
       4.433897; 3.194386;-1.548468;,
       4.433897; 2.451490;-0.261738;,
       5.036960; 2.785430;-0.261738;,
       5.036960; 2.785430;-0.261738;,
       5.036960; 3.361355;-1.259270;,
       4.433897; 3.194386;-1.548468;,
       4.433897; 3.194386;-1.548468;,
       5.036960; 3.361355;-1.259270;,
       4.433897; 4.680174;-1.548468;,
       5.036960; 3.361355;-1.259270;,
       5.036960; 4.513205;-1.259270;,
       4.433897; 4.680174;-1.548468;,
       4.433897; 4.680174;-1.548468;,
       5.036960; 4.513205;-1.259270;,
       4.433897; 5.423070;-0.261738;,
       5.036960; 4.513205;-1.259270;,
       5.036960; 5.089130;-0.261738;,
       4.433897; 5.423070;-0.261738;,
       4.433897; 5.423070;-0.261738;,
       5.036960; 5.089130;-0.261738;,
       4.433896; 4.680174; 1.024992;,
       5.036960; 5.089130;-0.261738;,
       5.036960; 4.513205; 0.735794;,
       4.433896; 4.680174; 1.024992;,
       4.433896; 4.680174; 1.024992;,
       5.036960; 4.513205; 0.735794;,
       4.433896; 3.194386; 1.024992;,
       5.036960; 4.513205; 0.735794;,
       5.036960; 3.361355; 0.735794;,
       4.433896; 3.194386; 1.024992;;
      12;
      3;0;1;2;,
      3;3;4;5;,
      3;6;7;8;,
      3;9;10;11;,
      3;12;13;14;,
      3;15;16;17;,
      3;18;19;20;,
      3;21;22;23;,
      3;24;25;26;,
      3;27;28;29;,
      3;30;31;32;,
      3;33;34;35;;
      MeshNormals { //Mesh Normals
        36;
        -0.484420; 0.437391;-0.757622;,
        -0.484420; 0.437391;-0.757622;,
        -0.484420; 0.874813;-0.000000;,
        -0.484420; 0.437391;-0.757622;,
        -0.484420; 0.874813;-0.000000;,
        -0.484420; 0.874813;-0.000000;,
        -0.484420; 0.437391; 0.757622;,
        -0.484420; 0.874813;-0.000000;,
        -0.484420; 0.874813;-0.000000;,
        -0.484420; 0.874813;-0.000000;,
        -0.484420; 0.437391; 0.757622;,
        -0.484420; 0.437391; 0.757622;,
        -0.484420; 0.437391; 0.757622;,
        -0.484420; 0.437391; 0.757622;,
        -0.484420;-0.437391; 0.757622;,
        -0.484420; 0.437391; 0.757622;,
        -0.484420;-0.437391; 0.757622;,
        -0.484420;-0.437391; 0.757622;,
        -0.484420;-0.437391; 0.757622;,
        -0.484420;-0.437391; 0.757622;,
        -0.484420;-0.874813;-0.000000;,
        -0.484420;-0.437391; 0.757622;,
        -0.484420;-0.874813;-0.000000;,
        -0.484420;-0.874813;-0.000000;,
        -0.484420;-0.874813;-0.000000;,
        -0.484420;-0.874813;-0.000000;,
        -0.484420;-0.437391;-0.757622;,
        -0.484420;-0.874813;-0.000000;,
        -0.484420;-0.437391;-0.757622;,
        -0.484420;-0.437391;-0.757622;,
        -0.484420;-0.437391;-0.757622;,
        -0.484420;-0.437391;-0.757622;,
        -0.484420; 0.437391;-0.757622;,
        -0.484420;-0.437391;-0.757622;,
        -0.484420; 0.437391;-0.757622;,
        -0.484420; 0.437391;-0.757622;;
        12;
        3;0;1;2;,
        3;3;4;5;,
        3;6;7;8;,
        3;9;10;11;,
        3;12;13;14;,
        3;15;16;17;,
        3;18;19;20;,
        3;21;22;23;,
        3;24;25;26;,
        3;27;28;29;,
        3;30;31;32;,
        3;33;34;35;;
      } //End of Mesh Normals
      MeshMaterialList { //Mesh Material List
        1;
        12;
        0,
        0,
        0,
        0,
        0,
        0,
        0,
        0,
        0,
        0,
        0,
        0;;
        Material mat_1 {
           0.640000; 0.640000; 0.640000; 1.000000;;
           92.156863;
           0.250000; 0.250000; 0.250000;;
           0.000000; 0.000000; 0.000000;;
          TextureFilename {"Textures/nendoll_1_2.tga";}
        }
      } //End of Mesh Material List
      MeshTextureCoords { //Mesh UV Coordinates
        36;
         1.166670; 0.185170;,
         1.166670; 1.036299;,
         1.000000; 0.185170;,
         1.166670; 1.036299;,
         1.000000; 1.036299;,
         1.000000; 0.185170;,
         0.833333; 0.185170;,
         1.000000; 0.185170;,
         1.000000; 1.036299;,
         1.000000; 1.036299;,
         0.833333; 1.036299;,
         0.833333; 0.185170;,
         0.833333; 0.185170;,
         0.833333; 1.036299;,
         0.666667; 0.185170;,
         0.833333; 1.036299;,
         0.666667; 1.036299;,
         0.666667; 0.185170;,
         0.666667; 0.185170;,
         0.666667; 1.036299;,
         0.500000; 0.185170;,
         0.666667; 1.036299;,
         0.500000; 1.036299;,
         0.500000; 0.185170;,
         0.500000; 0.185170;,
         0.500000; 1.036299;,
         0.333333; 0.185170;,
         0.500000; 1.036299;,
         0.333333; 1.036299;,
         0.333333; 0.185170;,
         0.333333; 0.185170;,
         0.333333; 1.036299;,
         0.166667; 0.185170;,
         0.333333; 1.036299;,
         0.166667; 1.036299;,
         0.166667; 0.185170;;
      } //End of Mesh UV Coordinates
    } //End of Mesh Mesh
  } //End of nendoll_mat_1
} //End of Root Frame
