xof 0303txt 0032

template AnimTicksPerSecond {
  <9E415A43-7BA6-4a73-8743-B73D47E88476>
  DWORD AnimTicksPerSecond;
}

template XSkinMeshHeader {
  <3cf169ce-ff7c-44ab-93c0-f78f62d172e2>
  WORD nMaxSkinWeightsPerVertex;
  WORD nMaxSkinWeightsPerFace;
  WORD nBones;
}

template SkinWeights {
  <6f0d123b-bad2-4167-a0d0-80224f25fabb>
  STRING transformNodeName;
  DWORD nWeights;
  array DWORD vertexIndices[nWeights];
  array float weights[nWeights];
  Matrix4x4 matrixOffset;
}

Frame Root {
  FrameTransformMatrix {
     1.000000, 0.000000, 0.000000, 0.000000,
     0.000000, 0.000000, 1.000000, 0.000000,
     0.000000, 1.000000,-0.000000, 0.000000,
     0.000000, 0.000000, 0.000000, 1.000000;;
  }
  Frame bursyamo_mat_0 {
    FrameTransformMatrix {
       1.000000, 0.000000, 0.000000, 0.000000,
       0.000000, 1.000000, 0.000000, 0.000000,
       0.000000, 0.000000, 1.000000, 0.000000,
       0.000000, 0.000000, 0.000000, 1.000000;;
    }
    Mesh { //Mesh Mesh
      39;
      -2.284950;-0.441413; 2.032200;,
      -0.366021;-0.248676; 0.075361;,
      -5.252150; 0.954939; 2.120800;,
      -0.366021;-0.248676; 0.075361;,
      -3.686300; 1.797280; 1.728360;,
      -5.252150; 0.954939; 2.120800;,
      -3.686300; 1.797280; 1.728360;,
      -0.366021;-0.248676; 0.075361;,
      -0.242740; 0.297629;-0.258890;,
      -3.686300; 1.797280; 1.728360;,
      -0.242740; 0.297629;-0.258890;,
      -6.354430; 6.876000; 2.666670;,
      -6.354430; 6.876000; 2.666670;,
      -0.242740; 0.297629;-0.258890;,
      -2.102750; 3.897970; 1.179200;,
      -2.102750; 3.897970; 1.179200;,
      -0.242740; 0.297629;-0.258890;,
      -1.308260; 6.291720; 0.746173;,
      -1.308260; 6.291720; 0.746173;,
      -0.242740; 0.297629;-0.258890;,
       0.329824; 0.223254;-0.070995;,
       0.329824; 0.223254;-0.070995;,
       0.052399; 4.351230; 1.449940;,
      -1.308260; 6.291720; 0.746173;,
       0.052399; 4.351230; 1.449940;,
       0.329824; 0.223254;-0.070995;,
       2.690920; 7.353090; 3.205000;,
       0.329824; 0.223254;-0.070995;,
       2.092310; 1.993900; 2.663960;,
       2.690920; 7.353090; 3.205000;,
       2.092310; 1.993900; 2.663960;,
       0.329824; 0.223254;-0.070995;,
       0.278940;-0.272202; 0.254524;,
       0.278940;-0.272202; 0.254524;,
       4.270380; 0.994512; 5.473540;,
       2.092310; 1.993900; 2.663960;,
       4.270380; 0.994512; 5.473540;,
       0.278940;-0.272202; 0.254524;,
       0.961917;-1.024420; 2.383030;;
      13;
      3;0;1;2;,
      3;3;4;5;,
      3;6;7;8;,
      3;9;10;11;,
      3;12;13;14;,
      3;15;16;17;,
      3;18;19;20;,
      3;21;22;23;,
      3;24;25;26;,
      3;27;28;29;,
      3;30;31;32;,
      3;33;34;35;,
      3;36;37;38;;
      MeshNormals { //Mesh Normals
        39;
         0.389203; 0.797876; 0.460250;,
         0.535905; 0.385418; 0.751122;,
         0.418744; 0.191473; 0.887661;,
         0.535905; 0.385418; 0.751122;,
         0.457289;-0.012909; 0.889187;,
         0.418744; 0.191473; 0.887661;,
         0.457289;-0.012909; 0.889187;,
         0.535905; 0.385418; 0.751122;,
         0.187780; 0.015351; 0.982086;,
         0.457289;-0.012909; 0.889187;,
         0.187780; 0.015351; 0.982086;,
         0.379498;-0.058046; 0.923338;,
         0.379498;-0.058046; 0.923338;,
         0.187780; 0.015351; 0.982086;,
         0.323923;-0.201819; 0.924284;,
         0.323923;-0.201819; 0.924284;,
         0.187780; 0.015351; 0.982086;,
        -0.092380;-0.206214; 0.974120;,
        -0.092380;-0.206214; 0.974120;,
         0.187780; 0.015351; 0.982086;,
        -0.715140; 0.019105; 0.698691;,
        -0.715140; 0.019105; 0.698691;,
        -0.482986;-0.331095; 0.810602;,
        -0.092380;-0.206214; 0.974120;,
        -0.482986;-0.331095; 0.810602;,
        -0.715140; 0.019105; 0.698691;,
        -0.587390;-0.169103; 0.791406;,
        -0.715140; 0.019105; 0.698691;,
        -0.827601; 0.025025; 0.560747;,
        -0.587390;-0.169103; 0.791406;,
        -0.827601; 0.025025; 0.560747;,
        -0.715140; 0.019105; 0.698691;,
        -0.842982; 0.323222; 0.429945;,
        -0.842982; 0.323222; 0.429945;,
        -0.800958; 0.202429; 0.563433;,
        -0.827601; 0.025025; 0.560747;,
        -0.800958; 0.202429; 0.563433;,
        -0.842982; 0.323222; 0.429945;,
        -0.726279; 0.540849; 0.424177;;
        13;
        3;0;1;2;,
        3;3;4;5;,
        3;6;7;8;,
        3;9;10;11;,
        3;12;13;14;,
        3;15;16;17;,
        3;18;19;20;,
        3;21;22;23;,
        3;24;25;26;,
        3;27;28;29;,
        3;30;31;32;,
        3;33;34;35;,
        3;36;37;38;;
      } //End of Mesh Normals
      MeshMaterialList { //Mesh Material List
        1;
        13;
        0,
        0,
        0,
        0,
        0,
        0,
        0,
        0,
        0,
        0,
        0,
        0,
        0;;
        Material mat_0 {
           0.640000; 0.640000; 0.640000; 1.000000;;
           92.156863;
           0.250000; 0.250000; 0.250000;;
           0.000000; 0.000000; 0.000000;;
          TextureFilename {"Textures/bursyamo_1_0.tga";}
        }
      } //End of Mesh Material List
      MeshTextureCoords { //Mesh UV Coordinates
        39;
        -0.010417;-0.775000;,
         0.006944; 0.925000;,
         0.011111;-0.005000;,
         0.006944; 0.925000;,
         0.027778; 0.000000;,
         0.011111;-0.005000;,
         0.027778; 0.000000;,
         0.006944; 0.925000;,
         0.072932; 1.007976;,
         0.072932; 1.007976;,
         0.046528; 0.025000;,
         0.027778; 0.000000;,
         0.046528; 0.025000;,
         0.072932; 1.007976;,
         0.065972; 0.010000;,
         0.072932; 1.007976;,
         0.086111; 0.015000;,
         0.065972; 0.010000;,
         0.086111; 0.015000;,
         0.072932; 1.007976;,
         0.096666; 1.007976;,
         0.096666; 1.007976;,
         0.111111; 0.020000;,
         0.086111; 0.015000;,
         0.111111; 0.020000;,
         0.096666; 1.007976;,
         0.133333; 0.010000;,
         0.096666; 1.007976;,
         0.150694; 0.030000;,
         0.133333; 0.010000;,
         0.150694; 0.030000;,
         0.096666; 1.007976;,
         0.154861; 0.860000;,
         0.154861; 0.860000;,
         0.167361; 0.040000;,
         0.150694; 0.030000;,
         0.167361; 0.040000;,
         0.154861; 0.860000;,
         0.202778;-0.790000;;
      } //End of Mesh UV Coordinates
    } //End of Mesh Mesh
  } //End of bursyamo_mat_0
} //End of Root Frame
