# Blender v2.66 (sub 1) OBJ File: 'BR_Weepinbell.blend'
# www.blender.org
mtllib BR_Weepinbell.mtl
o utsudon
v 0.728655 0.728655 -3.364800
v 1.030470 0.000000 -3.364800
v 0.000000 0.000000 -3.600000
v 1.181690 1.181690 -2.705790
v 1.671160 0.000000 -2.705790
v 1.473550 1.473550 -1.753490
v 2.083910 0.000000 -1.753490
v 0.000000 1.030470 -3.364800
v 1.473550 -1.473550 -1.753490
v 1.181690 -1.181690 -2.705790
v 0.728655 -0.728655 -3.364800
v 0.000000 1.671160 -2.705790
v 0.000000 2.083910 -1.753490
v -0.728655 0.728655 -3.364800
v -1.181690 1.181690 -2.705790
v 0.000000 -2.083910 -1.753490
v 0.000000 -1.671160 -2.705790
v 0.000000 -1.030470 -3.364800
v -1.473550 1.473550 -1.753490
v -1.030470 0.000000 -3.364800
v -1.671160 0.000000 -2.705790
v -2.083910 0.000000 -1.753490
v -1.473550 -1.473550 -1.753490
v -1.181690 -1.181690 -2.705790
v -0.728655 -0.728655 -3.364800
v 0.484920 0.744151 -3.762840
v 0.685781 0.261076 -3.805100
v 0.000000 0.283772 -4.064510
v 0.635488 0.846304 -3.202880
v 0.898715 0.213235 -3.258270
v -0.635488 -0.419835 -3.313660
v -0.898715 0.213235 -3.258270
v -0.685781 0.261076 -3.805100
v -0.484920 -0.221998 -3.847360
v 0.000000 0.944247 -3.745330
v 0.635488 -0.419835 -3.313660
v 0.484920 -0.221998 -3.847360
v 0.000000 1.108530 -3.179940
v 0.000000 -0.422095 -3.864870
v -0.484920 0.744151 -3.762840
v -0.635488 0.846304 -3.202880
v 0.000000 -0.682061 -3.336600
v -0.257607 0.339804 -3.744610
v 0.000000 0.526254 -3.728300
v 0.000000 0.580901 -4.352910
v -0.257607 0.394450 -4.369220
v 0.257607 0.339804 -3.744610
v 0.159210 0.038121 -3.771000
v 0.159210 0.092768 -4.395620
v 0.257607 0.394450 -4.369220
v -0.159210 0.038121 -3.771000
v -0.159210 0.092768 -4.395620
v 0.000000 0.605517 -5.026860
v -0.234188 0.442620 -5.041110
v 0.144736 0.179046 -5.064170
v 0.234188 0.442620 -5.041110
v -0.144736 0.179046 -5.064170
v 0.000000 0.613320 -5.798300
v -0.187351 0.491353 -5.808970
v 0.115789 0.294007 -5.826230
v 0.187351 0.491353 -5.808970
v -0.115789 0.294007 -5.826230
v 0.000000 0.653953 -6.567680
v -0.159248 0.550281 -6.576750
v 0.098421 0.382537 -6.591430
v 0.159248 0.550281 -6.576750
v -0.098421 0.382537 -6.591430
v 0.000000 0.691056 -7.337380
v -0.127398 0.608119 -7.344630
v 0.078736 0.473923 -7.356370
v 0.127398 0.608119 -7.344630
v -0.078736 0.473923 -7.356370
v 1.502280 2.256270 0.295938
v 1.550960 2.236600 0.100000
v 1.212790 2.445710 0.100000
v 1.663850 1.992970 0.439374
v 1.748160 1.958910 0.100000
v 1.560260 1.493830 0.100000
v 1.475950 1.527890 -0.239374
v 1.654210 1.726370 -0.291875
v 1.751570 1.687030 0.100000
v 1.663850 1.992970 -0.239374
v 1.502280 2.256270 -0.095937
v 1.654210 1.726370 0.491875
v 1.475950 1.527890 0.439374
v 1.245600 1.620960 -0.487813
v 1.388230 1.833830 -0.578747
v 1.433500 2.086040 -0.487813
v 1.369290 2.310000 -0.239374
v 1.369290 2.310000 0.439374
v 1.433500 2.086040 0.687813
v 0.930937 1.748090 -0.578747
v 1.024890 1.980630 -0.683750
v 1.118840 2.213170 -0.578747
v 1.187620 2.383400 -0.291875
v 1.388230 1.833830 0.778747
v 1.245600 1.620960 0.687812
v 0.616276 1.875230 -0.487812
v 0.661549 2.127430 -0.578747
v 0.804178 2.340300 -0.487813
v 1.005950 2.456800 -0.239374
v 1.187620 2.383400 0.491875
v 1.118840 2.213170 0.778747
v 0.385927 1.968290 -0.239374
v 0.395566 2.234890 -0.291875
v 0.573830 2.433370 -0.239374
v 0.872955 2.510530 -0.095937
v 1.024890 1.980630 0.883750
v 0.930938 1.748090 0.778747
v 0.301614 2.002360 0.100000
v 0.298209 2.274230 0.100000
v 0.489516 2.467430 0.100000
v 0.824277 2.530200 0.100000
v 1.005950 2.456800 0.439374
v 0.804178 2.340300 0.687813
v 0.385927 1.968290 0.439374
v 0.395566 2.234890 0.491875
v 0.573830 2.433370 0.439374
v 0.872955 2.510530 0.295938
v 0.661549 2.127430 0.778747
v 0.616276 1.875230 0.687813
v -1.988240 0.058223 0.185501
v -3.365090 0.158803 -1.188760
v -3.259380 0.662929 -0.681341
v -4.192160 0.853119 -0.777150
v -4.325440 0.111398 -1.468280
v -3.259380 -0.441126 -0.419578
v -4.192160 -0.670966 -0.428014
v -3.060100 -0.531426 0.658292
v -3.951270 -0.726387 0.909411
v -3.060100 0.572629 0.396529
v -3.951270 0.797699 0.560274
v -2.937750 -0.034838 1.266140
v -3.799180 0.010404 1.586080
v -5.392070 0.062962 -1.419970
v -5.231580 0.792517 -0.664161
v -4.951650 0.789671 0.380769
v -4.770620 0.056641 1.468990
v -4.951650 -0.672706 0.755879
v -5.231580 -0.669859 -0.289053
v -5.879140 -0.368662 0.562236
v -5.709160 0.069343 1.127540
v -6.114130 -0.378387 -0.140662
v -6.114130 0.529768 -0.471588
v -6.263560 0.044023 -1.022430
v -5.879140 0.540620 0.231310
v -7.135050 0.027712 -0.242911
v -6.996670 0.311689 0.106172
v -6.806620 0.332112 0.605833
v -6.647710 0.080082 1.134580
v -6.806620 -0.206101 0.794899
v -6.996670 -0.226524 0.295237
v -7.778020 0.006067 1.675470
v 3.259380 0.662930 -0.681339
v 3.365090 0.158803 -1.188760
v 1.988240 0.058223 0.185503
v 4.192150 0.853120 -0.777148
v 5.231580 0.792519 -0.664159
v 5.392070 0.062962 -1.419970
v 4.325430 0.111399 -1.468280
v 5.231580 -0.669859 -0.289050
v 4.192150 -0.670966 -0.428012
v 3.259380 -0.441125 -0.419576
v 4.951650 -0.672705 0.755882
v 3.951270 -0.726386 0.909413
v 3.060090 0.572630 0.396531
v 3.951270 0.797700 0.560277
v 4.951650 0.789672 0.380772
v 3.060090 -0.531426 0.658294
v 4.770620 0.056642 1.468990
v 3.799180 0.010405 1.586080
v 2.937750 -0.034837 1.266140
v 5.879140 -0.368663 0.562237
v 6.806620 -0.206102 0.794900
v 6.647710 0.080082 1.134580
v 5.709160 0.069343 1.127540
v 6.114130 -0.378388 -0.140661
v 6.996670 -0.226525 0.295238
v 6.114130 0.529767 -0.471589
v 6.996670 0.311688 0.106171
v 7.135050 0.027711 -0.242911
v 6.263560 0.044022 -1.022430
v 6.806620 0.332111 0.605832
v 5.879140 0.540619 0.231310
v 7.777960 0.006065 1.675470
v -1.595410 1.595410 -1.000000
v 0.000000 2.256250 -1.000000
v 2.256250 0.000000 -1.000000
v 1.595410 -1.595410 -1.000000
v 1.595410 1.595410 -1.000000
v -2.256250 0.000000 -1.000000
v 0.000000 -2.256250 -1.000000
v -1.595410 -1.595410 -1.000000
v -1.767770 1.767770 -0.200000
v 0.000000 2.500000 -0.200000
v 2.500000 0.000000 -0.200000
v 1.767770 -1.767770 -0.200000
v 1.767770 1.767770 -0.200000
v -2.500000 0.000000 -0.200000
v 0.000000 -2.500000 -0.200000
v -1.767770 -1.767770 -0.200000
v -1.767770 1.767770 0.700000
v 0.000000 2.500000 0.700000
v 2.500000 0.000000 0.700000
v 1.767770 -1.767770 0.700000
v 1.767770 1.767770 0.700000
v -2.500000 0.000000 0.700000
v 0.000000 -2.500000 0.700000
v -1.767770 -1.767770 0.700000
v -1.767770 1.767770 1.700000
v 0.000000 2.500000 1.700000
v 2.500000 0.000000 1.700000
v 1.767770 -1.767770 1.700000
v 1.767770 1.767770 1.700000
v -2.500000 0.000000 1.700000
v 0.000000 -2.500000 1.700000
v -1.767770 -1.767770 1.700000
v 1.767770 -1.767770 2.800000
v 2.500000 0.000000 2.800000
v 0.000000 0.000000 2.800000
v 1.767770 1.767770 2.800000
v 0.000000 -2.500000 2.800000
v -1.767770 -1.767770 2.800000
v 0.000000 2.500000 2.800000
v -2.500000 0.000000 2.800000
v -1.767770 1.767770 2.800000
v 2.897780 0.388228 2.950000
v 2.897780 -0.388229 2.950000
v 2.564060 -0.343519 2.474470
v 2.564060 0.343518 2.474470
v 2.024090 -0.271177 2.656110
v 2.024090 0.271176 2.656110
v 2.024090 -0.271177 3.243890
v 2.024090 0.271176 3.243890
v 2.564060 -0.343519 3.425530
v 2.564060 0.343518 3.425530
v -2.564060 -0.343519 3.425530
v -2.564060 0.343519 3.425530
v -2.897780 0.388228 2.950000
v -2.897780 -0.388229 2.950000
v -2.024090 -0.271177 3.243890
v -2.024090 0.271176 3.243890
v -2.024090 -0.271177 2.656110
v -2.024090 0.271176 2.656110
v -2.564060 -0.343519 2.474470
v -2.564060 0.343519 2.474470
v 1.481740 1.481740 2.656110
v 1.877020 1.877020 2.474470
v 1.481740 1.481740 3.243890
v 1.877020 1.877020 3.425530
v 2.121320 2.121320 2.950000
v -1.877020 1.877020 3.425530
v -2.121320 2.121320 2.950000
v -1.481740 1.481740 3.243890
v -1.481740 1.481740 2.656110
v -1.877020 1.877020 2.474470
v 0.687037 2.564060 2.474470
v 0.776457 2.897780 2.950000
v 0.542353 2.024090 2.656110
v 0.542353 2.024090 3.243890
v 0.687037 2.564060 3.425530
v -0.776457 2.897780 2.950000
v -0.687037 2.564060 2.474470
v -0.542353 2.024090 2.656110
v -0.542353 2.024090 3.243890
v -0.687037 2.564060 3.425530
v 0.000000 2.897780 2.950000
v 0.000000 2.564060 2.474470
v 0.000000 2.024090 2.656110
v 0.000000 2.024090 3.243890
v 0.000000 2.564060 3.425530
v 2.121320 -2.121320 2.950000
v 1.877020 -1.877020 2.474470
v -1.481740 -1.481740 3.243890
v -1.481740 -1.481740 2.656110
v 1.481740 -1.481740 3.243890
v 1.877020 -1.877020 3.425530
v -1.877020 -1.877020 3.425530
v -2.121320 -2.121320 2.950000
v -1.877020 -1.877020 2.474470
v 1.481740 -1.481740 2.656110
v -0.542353 -2.024090 3.243890
v -0.542353 -2.024090 2.656110
v -0.687037 -2.564060 3.425530
v -0.776457 -2.897780 2.950000
v -0.687037 -2.564060 2.474470
v 0.776457 -2.897780 2.950000
v 0.687037 -2.564060 2.474470
v 0.542353 -2.024090 2.656110
v 0.542353 -2.024090 3.243890
v 0.687037 -2.564060 3.425530
v -0.799282 2.540300 0.295938
v -0.750603 2.559960 0.100000
v -1.139120 2.475470 0.100000
v -0.500156 2.463130 0.439374
v -0.415843 2.497200 0.100000
v -0.227940 2.032120 0.100000
v -0.312254 1.998060 -0.239374
v -0.321892 2.264660 -0.291875
v -0.224535 2.303990 0.100000
v -0.500156 2.463130 -0.239374
v -0.799282 2.540300 -0.095937
v -0.321892 2.264660 0.491875
v -0.312254 1.998060 0.439374
v -0.542603 1.904990 -0.487813
v -0.587875 2.157190 -0.578747
v -0.730505 2.370070 -0.487813
v -0.932274 2.486560 -0.239374
v -0.932274 2.486560 0.439374
v -0.730505 2.370070 0.687813
v -0.857264 1.777860 -0.578747
v -0.951215 2.010400 -0.683750
v -1.045170 2.242940 -0.578747
v -1.113940 2.413160 -0.291875
v -0.587875 2.157190 0.778747
v -0.542603 1.904990 0.687812
v -1.171930 1.650730 -0.487812
v -1.314560 1.863600 -0.578747
v -1.359830 2.115800 -0.487813
v -1.295610 2.339760 -0.239374
v -1.113940 2.413160 0.491875
v -1.045170 2.242930 0.778747
v -1.402270 1.557660 -0.239374
v -1.580540 1.756130 -0.291875
v -1.590180 2.022740 -0.239374
v -1.428610 2.286030 -0.095937
v -0.951215 2.010400 0.883750
v -0.857264 1.777860 0.778747
v -1.486590 1.523600 0.100000
v -1.677900 1.716800 0.100000
v -1.674490 1.988670 0.100000
v -1.477280 2.266360 0.100000
v -1.295610 2.339760 0.439374
v -1.359830 2.115800 0.687813
v -1.402270 1.557660 0.439374
v -1.580540 1.756130 0.491875
v -1.590180 2.022740 0.439374
v -1.428610 2.286030 0.295938
v -1.314560 1.863600 0.778747
v -1.171930 1.650730 0.687813
vt 0.783528 0.515729
vt 0.747246 0.872625
vt 0.674829 0.872625
vt 0.900969 0.515729
vt 0.853553 0.000000
vt 1.000000 0.000000
vt 0.500000 0.515729
vt 0.500000 0.000000
vt 0.500000 0.872625
vt 0.252754 0.872625
vt 0.216472 0.515729
vt 0.325171 0.872625
vt 0.099031 0.515729
vt 0.146447 0.000000
vt 0.000000 0.000000
vt 0.146447 1.000000
vt 0.500000 1.000000
vt 0.000000 1.000000
vt 0.853553 1.000000
vt 1.000000 1.000000
vt 0.550000 1.090780
vt 1.258820 0.644662
vt 0.987073 1.090780
vt 0.550000 0.644662
vt 0.112928 1.090780
vt -0.158820 0.644662
vt 1.433880 0.000000
vt 0.550000 0.000000
vt -0.333883 0.000000
vt 0.769785 0.678249
vt 0.984375 -0.109375
vt 0.881534 0.678249
vt 0.822303 -0.109375
vt 0.500000 0.678249
vt 0.500000 -0.109375
vt 0.230215 0.678249
vt 0.169884 -0.109375
vt 0.118466 0.678249
vt 0.007813 -0.109375
vt 0.190983 1.000000
vt 0.190983 -0.000000
vt 0.809017 1.000000
vt 0.809017 -0.000000
vt 0.100000 1.000000
vt 0.252786 1.000000
vt 0.747214 1.000000
vt 0.900000 1.000000
vt 1.027510 0.864583
vt 1.388350 0.916667
vt 1.083330 0.916667
vt 1.291670 0.826456
vt 0.875000 0.826456
vt 1.027510 0.760417
vt 0.666667 0.812500
vt 0.666667 0.736245
vt 0.458333 0.826456
vt 0.305823 0.760417
vt 0.305823 0.864583
vt 0.041666 0.826456
vt 0.250000 0.916667
vt -0.055021 0.916667
vt 0.305823 0.968750
vt 0.041666 1.006880
vt 0.458333 1.006880
vt 0.305823 1.072920
vt 0.666667 1.020830
vt 0.666667 1.097090
vt 0.875000 1.006880
vt 1.027510 1.072920
vt 1.027510 0.968750
vt 1.291670 1.006880
vt 1.388350 1.020830
vt 1.500000 0.916667
vt 1.388350 0.812500
vt 1.083330 0.736245
vt 0.666667 0.708333
vt 0.250000 0.736245
vt -0.055021 0.812500
vt -0.166667 0.916667
vt -0.055021 1.020830
vt 0.250000 1.097090
vt 0.666667 1.125000
vt 1.083330 1.097090
vt 0.305822 0.760417
vt 0.041667 0.826456
vt 0.305822 1.072920
vt 0.694177 0.864583
vt 1.055020 0.916667
vt 0.750000 0.916667
vt 0.958333 0.826456
vt 0.541666 0.826456
vt 0.694177 0.760417
vt 0.333333 0.812500
vt 0.333333 0.736245
vt 0.125000 0.826456
vt -0.027511 0.760417
vt -0.027511 0.864583
vt -0.291667 0.826456
vt -0.083334 0.916667
vt -0.388355 0.916667
vt -0.027511 0.968750
vt -0.291667 1.006880
vt 0.124999 1.006880
vt -0.027511 1.072920
vt 0.333333 1.020830
vt 0.333333 1.097090
vt 0.541666 1.006880
vt 0.694177 1.072920
vt 0.694177 0.968750
vt 0.958333 1.006880
vt 1.055020 1.020830
vt 1.166670 0.916667
vt 1.055020 0.812500
vt 0.750000 0.736245
vt 0.333333 0.708333
vt -0.083334 0.736245
vt -0.388355 0.812500
vt -0.500000 0.916667
vt -0.388355 1.020830
vt -0.083334 1.097090
vt 0.333333 1.125000
vt 0.750000 1.097090
vt -0.388354 0.916667
vt 0.666667 0.916667
vt 0.333333 0.916667
vt 0.595500 0.908486
vt 0.352520 0.773724
vt 0.626558 0.742356
vt 0.313364 1.000000
vt 0.626558 0.656655
vt 0.352520 0.659417
vt 0.685104 0.303760
vt 0.423289 0.221543
vt 0.721048 0.104748
vt 0.467972 0.000000
vt 0.685104 0.389461
vt 0.423289 0.335851
vt 0.047152 0.736732
vt 0.000000 0.984184
vt 0.129390 0.394621
vt 0.182575 0.038337
vt 0.129390 0.271810
vt 0.047152 0.613921
vt 0.531170 0.313869
vt 0.923435 0.246840
vt 0.603058 0.118191
vt 0.923435 0.376682
vt 0.531170 0.428418
vt 0.805044 0.738380
vt 0.431785 0.671723
vt 0.737164 1.000000
vt 0.368582 0.862393
vt 0.805044 0.608539
vt 0.431785 0.557174
vt 0.058525 0.471734
vt -0.000000 0.592567
vt 0.138906 0.298779
vt 0.206115 0.115757
vt 0.138905 0.233334
vt 0.058525 0.406290
vt 1.000000 0.984184
vt 0.647480 0.773724
vt 0.952848 0.736731
vt 0.686636 1.000000
vt 0.952848 0.613920
vt 0.647480 0.659416
vt 0.870610 0.271809
vt 0.576711 0.221542
vt 0.817425 0.038337
vt 0.532028 0.000000
vt 0.870610 0.394620
vt 0.576711 0.335850
vt 0.278953 0.104748
vt 0.314896 0.389460
vt 0.314896 0.303759
vt 0.373443 0.656654
vt 0.404500 0.908486
vt 0.373443 0.742356
vt 0.793885 0.115756
vt 0.468830 0.313869
vt 0.861095 0.233334
vt 0.396942 0.118191
vt 0.861095 0.298779
vt 0.468830 0.428418
vt 0.941475 0.471734
vt 0.568215 0.671723
vt 1.000000 0.592567
vt 0.631418 0.862393
vt 0.941475 0.406290
vt 0.568215 0.557174
vt 0.194955 0.738380
vt 0.262835 1.000000
vt 0.076565 0.376683
vt 0.076565 0.246840
vt 0.194955 0.608538
vt 1.000000 0.458552
vt 0.530412 1.000000
vt 0.663748 0.818882
vt 0.663748 0.720787
vt 0.846877 0.461542
vt 1.000000 0.285305
vt 0.846877 0.559638
vt 0.000000 0.458551
vt 0.336244 0.818882
vt 0.469576 1.000000
vt 0.153120 0.559639
vt 0.000000 0.285305
vt 0.153120 0.461543
vt 0.336244 0.720787
vt 0.994178 0.996411
vt 0.002232 0.995536
vt 0.468750 0.006696
vt 0.502894 0.984375
vt 1.000000 0.500000
vt 0.496094 0.500000
vt 0.993199 0.984375
vt 0.510126 0.793392
vt 0.993780 0.793392
vt 0.506220 0.159733
vt 0.997686 0.159733
vt 0.502894 0.000000
vt 0.997106 0.000000
vt 0.502895 0.000000
vt 0.502895 0.984375
vt 0.002882 1.003910
vt 0.489874 0.805111
vt 0.002251 0.793392
vt 0.497106 1.000000
vt 0.012493 0.496094
vt 0.503906 0.492188
vt -0.001024 0.003906
vt 0.501012 0.011719
vt 0.006157 0.163639
vt 0.493780 0.175358
vt 0.507038 0.492188
vt -0.001012 0.000000
vt 0.501024 0.007813
vt 0.000000 0.500000
vt 0.501024 1.000000
vt 0.002894 1.003910
vt 0.497749 0.797298
vt -0.001592 0.789486
vt 0.505562 0.163639
vt -0.005499 0.175358
vt 0.006230 0.503906
vt 0.485387 1.000000
vt -0.005096 0.988281
vt 0.472656 0.507813
vt 0.002716 0.007813
vt 0.485387 0.003906
vt 0.011381 0.190983
vt 0.482061 0.198795
vt 0.003568 0.785580
vt 0.482061 0.797298
vt 0.481659 0.996094
vt 0.470332 0.503906
vt -0.001012 0.996094
vt 0.476901 0.793392
vt -0.005499 0.789486
vt 0.476901 0.194889
vt 0.006220 0.190983
vt 0.485565 0.007813
vt -0.001012 0.003906
vt 0.942418 1.000000
vt 0.500000 0.500000
vt 0.849249 0.809017
vt 0.500000 0.809017
vt 0.849249 0.190983
vt 0.500000 0.190983
vt 0.942418 0.000000
vt 0.057582 0.000000
vt 0.150751 0.190983
vt 0.150751 0.809017
vt 0.057582 1.000000
vt 0.220233 1.000000
vt 0.606190 0.500000
vt 0.756612 1.000000
vt 0.576578 0.809017
vt 1.000000 0.809017
vt 0.576578 0.190983
vt 1.000000 0.190983
vt 0.220233 0.000000
vt 0.756612 0.000000
vt 0.220234 1.000000
vt 0.220234 0.000000
vt 0.484713 0.809017
vt 0.006220 0.194889
vt 0.512057 0.194889
vt 0.010126 0.812923
vt 0.493378 0.996094
vt 0.006801 0.996094
vt 0.505488 0.480469
vt 0.512909 0.003906
vt -0.008824 0.003906
vt -0.001190 0.976563
vt 0.503906 0.480469
vt 0.493199 1.000000
vt 0.003568 0.816830
vt 0.482061 0.812923
vt -0.000338 0.206608
vt 0.517217 0.194889
vt -0.005096 0.007813
vt 0.508824 0.003906
usemtl mat_0
s 1
f 2/1 1/2 4/3
f 4/1 5/4 2/2
f 6/5 5/4 4/1
f 6/5 7/6 5/4
f 10/1 7/6 9/5
f 10/1 5/4 7/6
f 11/3 5/4 10/1
f 11/3 2/2 5/4
f 17/7 9/5 16/8
f 17/7 10/1 9/5
f 18/9 10/1 17/7
f 18/9 11/3 10/1
f 20/10 15/11 14/12
f 20/10 21/13 15/11
f 25/12 21/13 20/10
f 25/12 24/11 21/13
f 18/9 24/11 25/12
f 18/9 17/7 24/11
f 21/13 19/14 15/11
f 21/13 22/15 19/14
f 24/11 22/15 21/13
f 24/11 23/14 22/15
f 17/7 23/14 24/11
f 17/7 16/8 23/14
f 19/16 187/8 13/17
f 19/16 186/14 187/8
f 22/18 186/14 19/16
f 22/18 191/15 186/14
f 23/16 191/15 22/18
f 23/16 193/14 191/15
f 16/17 193/14 23/16
f 16/17 192/8 193/14
f 9/19 192/8 16/17
f 9/19 189/5 192/8
f 7/20 189/5 9/19
f 7/20 188/6 189/5
f 6/19 188/6 7/20
f 6/19 190/5 188/6
f 13/17 190/5 6/19
f 13/17 187/8 190/5
f 186/16 195/8 187/17
f 186/16 194/14 195/8
f 191/18 194/14 186/16
f 191/18 199/15 194/14
f 193/16 199/15 191/18
f 193/16 201/14 199/15
f 192/17 201/14 193/16
f 192/17 200/8 201/14
f 189/19 200/8 192/17
f 189/19 197/5 200/8
f 188/20 197/5 189/19
f 188/20 196/6 197/5
f 190/19 196/6 188/20
f 190/19 198/5 196/6
f 187/17 198/5 190/19
f 187/17 195/8 198/5
f 194/16 203/8 195/17
f 194/16 202/14 203/8
f 199/18 202/14 194/16
f 199/18 207/15 202/14
f 201/16 207/15 199/18
f 201/16 209/14 207/15
f 200/17 209/14 201/16
f 200/17 208/8 209/14
f 197/19 208/8 200/17
f 197/19 205/5 208/8
f 196/20 205/5 197/19
f 196/20 204/6 205/5
f 198/19 204/6 196/20
f 198/19 206/5 204/6
f 195/17 206/5 198/19
f 195/17 203/8 206/5
f 202/16 211/8 203/17
f 202/16 210/14 211/8
f 207/18 210/14 202/16
f 207/18 215/15 210/14
f 209/16 215/15 207/18
f 209/16 217/14 215/15
f 208/17 217/14 209/16
f 208/17 216/8 217/14
f 205/19 216/8 208/17
f 205/19 213/5 216/8
f 204/20 213/5 205/19
f 204/20 212/6 213/5
f 206/19 212/6 204/20
f 206/19 214/5 212/6
f 203/17 214/5 206/19
f 203/17 211/8 214/5
f 212/20 218/5 213/19
f 212/20 219/6 218/5
f 214/19 219/6 212/20
f 214/19 221/5 219/6
f 211/17 221/5 214/19
f 211/17 224/8 221/5
f 210/16 224/8 211/17
f 210/16 226/14 224/8
f 215/18 226/14 210/16
f 215/18 225/15 226/14
f 217/16 225/15 215/18
f 217/16 223/14 225/15
f 216/17 223/14 217/16
f 216/17 222/8 223/14
f 213/19 222/8 216/17
f 213/19 218/5 222/8
f 3/2 1/17 2/3
f 2/2 11/3 3/17
f 18/9 3/17 11/3
f 18/9 25/12 3/17
f 20/10 3/17 25/12
f 20/10 14/12 3/17
f 8/9 3/17 14/12
f 8/9 1/3 3/17
usemtl mat_1
f 4/21 1/22 8/23
f 8/21 12/24 4/22
f 14/25 12/24 8/21
f 14/25 15/26 12/24
f 12/24 6/27 4/22
f 12/24 13/28 6/27
f 15/26 13/28 12/24
f 15/26 19/29 13/28
usemtl mat_2
f 26/30 30/31 27/32
f 26/30 29/33 30/31
f 35/34 29/33 26/30
f 35/34 38/35 29/33
f 40/36 38/35 35/34
f 40/36 41/37 38/35
f 33/38 41/37 40/36
f 33/38 32/39 41/37
f 34/36 32/39 33/38
f 34/36 31/37 32/39
f 39/34 31/37 34/36
f 39/34 42/35 31/37
f 37/30 42/35 39/34
f 37/30 36/33 42/35
f 27/32 36/33 37/30
f 27/32 30/31 36/33
f 27/32 28/17 26/30
f 27/32 37/30 28/17
f 39/34 28/17 37/30
f 39/34 34/36 28/17
f 33/38 28/17 34/36
f 33/38 40/36 28/17
f 35/34 28/17 40/36
f 35/34 26/30 28/17
usemtl mat_3
f 46/18 44/8 45/17
f 46/18 43/15 44/8
f 52/40 43/15 46/18
f 52/40 51/41 43/15
f 49/42 51/41 52/40
f 49/42 48/43 51/41
f 50/20 48/43 49/42
f 50/20 47/6 48/43
f 45/17 47/6 50/20
f 45/17 44/8 47/6
f 54/18 45/8 53/17
f 54/18 46/15 45/8
f 57/40 46/15 54/18
f 57/40 52/41 46/15
f 55/42 52/41 57/40
f 55/42 49/43 52/41
f 56/20 49/43 55/42
f 56/20 50/6 49/43
f 53/17 50/6 56/20
f 53/17 45/8 50/6
f 59/44 53/8 58/17
f 59/44 54/15 53/8
f 62/45 54/15 59/44
f 62/45 57/41 54/15
f 60/46 57/41 62/45
f 60/46 55/43 57/41
f 61/47 55/43 60/46
f 61/47 56/6 55/43
f 58/17 56/6 61/47
f 58/17 53/8 56/6
f 64/44 58/8 63/17
f 64/44 59/15 58/8
f 67/45 59/15 64/44
f 67/45 62/41 59/15
f 65/46 62/41 67/45
f 65/46 60/43 62/41
f 66/47 60/43 65/46
f 66/47 61/6 60/43
f 63/17 61/6 66/47
f 63/17 58/8 61/6
f 69/44 63/8 68/17
f 69/44 64/15 63/8
f 72/45 64/15 69/44
f 72/45 67/41 64/15
f 70/46 67/41 72/45
f 70/46 65/43 67/41
f 71/47 65/43 70/46
f 71/47 66/6 65/43
f 68/17 66/6 71/47
f 68/17 63/8 66/6
f 72/15 71/15 70/15
f 72/15 68/15 71/15
f 69/15 68/15 72/15
usemtl mat_4
f 73/48 77/49 74/50
f 73/48 76/51 77/49
f 90/52 76/51 73/48
f 90/52 91/53 76/51
f 102/54 91/53 90/52
f 102/54 103/55 91/53
f 114/56 103/55 102/54
f 114/56 115/57 103/55
f 119/58 115/57 114/56
f 119/58 118/59 115/57
f 113/60 118/59 119/58
f 113/60 112/61 118/59
f 107/62 112/61 113/60
f 107/62 106/63 112/61
f 101/64 106/63 107/62
f 101/64 100/65 106/63
f 95/66 100/65 101/64
f 95/66 94/67 100/65
f 89/68 94/67 95/66
f 89/68 88/69 94/67
f 83/70 88/69 89/68
f 83/70 82/71 88/69
f 74/50 82/71 83/70
f 74/50 77/49 82/71
f 80/72 78/49 79/71
f 80/72 81/73 78/49
f 82/71 81/73 80/72
f 82/71 77/49 81/73
f 76/51 81/73 77/49
f 76/51 84/74 81/73
f 91/53 84/74 76/51
f 91/53 96/75 84/74
f 103/55 96/75 91/53
f 103/55 108/76 96/75
f 115/57 108/76 103/55
f 115/57 120/77 108/76
f 118/59 120/77 115/57
f 118/59 117/78 120/77
f 112/61 117/78 118/59
f 112/61 111/79 117/78
f 106/63 111/79 112/61
f 106/63 105/80 111/79
f 100/65 105/80 106/63
f 100/65 99/81 105/80
f 94/67 99/81 100/65
f 94/67 93/82 99/81
f 88/69 93/82 94/67
f 88/69 87/83 93/82
f 82/71 87/83 88/69
f 82/71 80/72 87/83
f 84/74 78/49 81/73
f 84/74 85/51 78/49
f 96/75 85/51 84/74
f 96/75 97/53 85/51
f 108/76 97/53 96/75
f 108/76 109/55 97/53
f 120/77 109/55 108/76
f 120/77 121/84 109/55
f 117/78 121/84 120/77
f 117/78 116/85 121/84
f 111/79 116/85 117/78
f 111/79 110/61 116/85
f 105/80 110/61 111/79
f 105/80 104/63 110/61
f 99/81 104/63 105/80
f 99/81 98/86 104/63
f 93/82 98/86 99/81
f 93/82 92/67 98/86
f 87/83 92/67 93/82
f 87/83 86/69 92/67
f 80/72 86/69 87/83
f 80/72 79/71 86/69
f 292/87 296/88 293/89
f 292/87 295/90 296/88
f 309/91 295/90 292/87
f 309/91 310/92 295/90
f 321/93 310/92 309/91
f 321/93 322/94 310/92
f 333/95 322/94 321/93
f 333/95 334/96 322/94
f 338/97 334/96 333/95
f 338/97 337/98 334/96
f 332/99 337/98 338/97
f 332/99 331/100 337/98
f 326/101 331/100 332/99
f 326/101 325/102 331/100
f 320/103 325/102 326/101
f 320/103 319/104 325/102
f 314/105 319/104 320/103
f 314/105 313/106 319/104
f 308/107 313/106 314/105
f 308/107 307/108 313/106
f 302/109 307/108 308/107
f 302/109 301/110 307/108
f 293/89 301/110 302/109
f 293/89 296/88 301/110
f 299/111 297/88 298/110
f 299/111 300/112 297/88
f 301/110 300/112 299/111
f 301/110 296/88 300/112
f 295/90 300/112 296/88
f 295/90 303/113 300/112
f 310/92 303/113 295/90
f 310/92 315/114 303/113
f 322/94 315/114 310/92
f 322/94 327/115 315/114
f 334/96 327/115 322/94
f 334/96 339/116 327/115
f 337/98 339/116 334/96
f 337/98 336/117 339/116
f 331/100 336/117 337/98
f 331/100 330/118 336/117
f 325/102 330/118 331/100
f 325/102 324/119 330/118
f 319/104 324/119 325/102
f 319/104 318/120 324/119
f 313/106 318/120 319/104
f 313/106 312/121 318/120
f 307/108 312/121 313/106
f 307/108 306/122 312/121
f 301/110 306/122 307/108
f 301/110 299/111 306/122
f 303/113 297/88 300/112
f 303/113 304/90 297/88
f 315/114 304/90 303/113
f 315/114 316/92 304/90
f 327/115 316/92 315/114
f 327/115 328/94 316/92
f 339/116 328/94 327/115
f 339/116 340/96 328/94
f 336/117 340/96 339/116
f 336/117 335/98 340/96
f 330/118 335/98 336/117
f 330/118 329/123 335/98
f 324/119 329/123 330/118
f 324/119 323/102 329/123
f 318/120 323/102 324/119
f 318/120 317/104 323/102
f 312/121 317/104 318/120
f 312/121 311/106 317/104
f 306/122 311/106 312/121
f 306/122 305/108 311/106
f 299/111 305/108 306/122
f 299/111 298/110 305/108
f 74/50 75/124 73/48
f 74/50 83/70 75/124
f 89/68 75/124 83/70
f 89/68 95/66 75/124
f 101/64 75/124 95/66
f 101/64 107/62 75/124
f 113/60 75/124 107/62
f 113/60 119/58 75/124
f 114/56 75/124 119/58
f 114/56 102/54 75/124
f 90/52 75/124 102/54
f 90/52 73/48 75/124
f 293/89 294/125 292/87
f 293/89 302/109 294/125
f 308/107 294/125 302/109
f 308/107 314/105 294/125
f 320/103 294/125 314/105
f 320/103 326/101 294/125
f 332/99 294/125 326/101
f 332/99 338/97 294/125
f 333/95 294/125 338/97
f 333/95 321/93 294/125
f 309/91 294/125 321/93
f 309/91 292/87 294/125
usemtl mat_5
f 123/126 125/127 124/128
f 123/126 126/129 125/127
f 127/130 126/129 123/126
f 127/130 128/131 126/129
f 129/132 128/131 127/130
f 129/132 130/133 128/131
f 133/134 130/133 129/132
f 133/134 134/135 130/133
f 131/136 134/135 133/134
f 131/136 132/137 134/135
f 124/128 132/137 131/136
f 124/128 125/127 132/137
f 136/138 126/129 135/139
f 136/138 125/127 126/129
f 137/140 125/127 136/138
f 137/140 132/137 125/127
f 138/141 132/137 137/140
f 138/141 134/135 132/137
f 139/142 134/135 138/141
f 139/142 130/133 134/135
f 140/143 130/133 139/142
f 140/143 128/131 130/133
f 135/139 128/131 140/143
f 135/139 126/129 128/131
f 138/6 141/144 139/145
f 138/6 142/146 141/144
f 137/147 142/146 138/6
f 137/147 146/148 142/146
f 136/149 146/148 137/147
f 136/149 144/150 146/148
f 135/151 144/150 136/149
f 135/151 145/152 144/150
f 140/153 145/152 135/151
f 140/153 143/154 145/152
f 139/145 143/154 140/153
f 139/145 141/144 143/154
f 148/155 145/152 147/156
f 148/155 144/150 145/152
f 149/157 144/150 148/155
f 149/157 146/148 144/150
f 150/158 146/148 149/157
f 150/158 142/146 146/148
f 151/159 142/146 150/158
f 151/159 141/144 142/146
f 152/160 141/144 151/159
f 152/160 143/154 141/144
f 147/156 143/154 152/160
f 147/156 145/152 143/154
f 159/161 157/162 158/163
f 159/161 160/164 157/162
f 161/165 160/164 159/161
f 161/165 162/166 160/164
f 164/167 162/166 161/165
f 164/167 165/168 162/166
f 170/169 165/168 164/167
f 170/169 171/170 165/168
f 168/171 171/170 170/169
f 168/171 167/172 171/170
f 158/163 167/172 168/171
f 158/163 157/162 167/172
f 172/173 167/172 166/174
f 172/173 171/170 167/172
f 169/175 171/170 172/173
f 169/175 165/168 171/170
f 163/176 165/168 169/175
f 163/176 162/166 165/168
f 155/177 162/166 163/176
f 155/177 160/164 162/166
f 154/178 160/164 155/177
f 154/178 157/162 160/164
f 166/174 157/162 154/178
f 166/174 167/172 157/162
f 175/179 173/180 174/181
f 175/179 176/182 173/180
f 183/183 176/182 175/179
f 183/183 184/184 176/182
f 180/185 184/184 183/183
f 180/185 179/186 184/184
f 181/187 179/186 180/185
f 181/187 182/188 179/186
f 178/189 182/188 181/187
f 178/189 177/190 182/188
f 174/181 177/190 178/189
f 174/181 173/180 177/190
f 158/191 182/188 159/192
f 158/191 179/186 182/188
f 168/193 179/186 158/191
f 168/193 184/184 179/186
f 170/15 184/184 168/193
f 170/15 176/182 184/184
f 164/194 176/182 170/15
f 164/194 173/180 176/182
f 161/195 173/180 164/194
f 161/195 177/190 173/180
f 159/192 177/190 161/195
f 159/192 182/188 177/190
f 124/128 122/196 123/126
f 124/128 131/136 122/196
f 133/134 122/196 131/136
f 133/134 129/132 122/196
f 127/130 122/196 129/132
f 127/130 123/126 122/196
f 147/197 153/15 148/198
f 147/197 152/199 153/15
f 151/200 153/15 152/199
f 151/200 150/201 153/15
f 149/202 153/15 150/201
f 149/202 148/198 153/15
f 155/177 156/203 154/178
f 155/177 163/176 156/203
f 169/175 156/203 163/176
f 169/175 172/173 156/203
f 166/174 156/203 172/173
f 166/174 154/178 156/203
f 180/204 185/6 181/205
f 180/204 183/206 185/6
f 175/207 185/6 183/206
f 175/207 174/208 185/6
f 178/209 185/6 174/208
f 178/209 181/205 185/6
usemtl mat_6
f 218/210 219/211 220/212
f 222/210 218/211 220/212
f 219/210 221/211 220/212
f 223/210 222/211 220/212
f 225/210 223/211 220/212
f 221/210 224/211 220/212
f 226/210 225/211 220/212
f 224/210 226/211 220/212
usemtl mat_7
f 229/213 227/214 228/215
f 229/213 230/216 227/214
f 231/217 230/216 229/213
f 231/217 232/218 230/216
f 233/219 232/218 231/217
f 233/219 234/220 232/218
f 235/221 234/220 233/219
f 235/221 236/222 234/220
f 228/215 236/222 235/221
f 228/215 227/214 236/222
f 239/214 237/223 238/222
f 239/214 240/215 237/223
f 246/216 240/215 239/214
f 246/216 245/224 240/215
f 244/218 245/224 246/216
f 244/218 243/217 245/224
f 242/220 243/217 244/218
f 242/220 241/219 243/217
f 238/222 241/219 242/220
f 238/222 237/223 241/219
f 248/225 232/226 247/227
f 248/225 230/228 232/226
f 251/229 230/228 248/225
f 251/229 227/230 230/228
f 250/231 227/230 251/229
f 250/231 236/232 227/230
f 249/233 236/232 250/231
f 249/233 234/234 236/232
f 247/227 234/234 249/233
f 247/227 232/226 234/234
f 253/235 238/236 252/237
f 253/235 239/238 238/236
f 256/239 239/238 253/235
f 256/239 246/240 239/238
f 255/241 246/240 256/239
f 255/241 244/242 246/240
f 254/243 244/242 255/241
f 254/243 242/244 244/242
f 252/237 242/244 254/243
f 252/237 238/236 242/244
f 258/245 248/246 257/247
f 258/245 251/248 248/246
f 261/249 251/248 258/245
f 261/249 250/250 251/248
f 260/251 250/250 261/249
f 260/251 249/252 250/250
f 259/253 249/252 260/251
f 259/253 247/254 249/252
f 257/247 247/254 259/253
f 257/247 248/246 247/254
f 263/255 253/238 262/256
f 263/255 256/257 253/238
f 264/258 256/257 263/255
f 264/258 255/259 256/257
f 265/260 255/259 264/258
f 265/260 254/261 255/259
f 266/262 254/261 265/260
f 266/262 252/263 254/261
f 262/256 252/263 266/262
f 262/256 253/238 252/263
f 257/264 267/265 258/214
f 257/264 268/17 267/265
f 259/266 268/17 257/264
f 259/266 269/267 268/17
f 260/268 269/267 259/266
f 260/268 270/269 269/267
f 261/270 270/269 260/268
f 261/270 271/8 270/269
f 258/214 271/8 261/270
f 258/214 267/265 271/8
f 266/271 267/265 262/238
f 266/271 271/8 267/265
f 265/272 271/8 266/271
f 265/272 270/269 271/8
f 264/273 270/269 265/272
f 264/273 269/267 270/269
f 263/274 269/267 264/273
f 263/274 268/17 269/267
f 262/238 268/17 263/274
f 262/238 267/265 268/17
f 273/275 228/276 272/238
f 273/275 229/277 228/276
f 281/278 229/277 273/275
f 281/278 231/279 229/277
f 276/280 231/279 281/278
f 276/280 233/281 231/279
f 277/282 233/281 276/280
f 277/282 235/283 233/281
f 272/238 235/283 277/282
f 272/238 228/276 235/283
f 275/278 241/281 274/280
f 275/278 243/279 241/281
f 280/284 243/279 275/278
f 280/284 245/277 243/279
f 279/238 245/277 280/284
f 279/238 240/276 245/277
f 278/285 240/276 279/238
f 278/285 237/283 240/276
f 274/280 237/283 278/285
f 274/280 241/281 237/283
f 283/286 274/287 282/288
f 283/286 275/289 274/287
f 286/290 275/289 283/286
f 286/290 280/291 275/289
f 285/292 280/291 286/290
f 285/292 279/238 280/291
f 284/293 279/238 285/292
f 284/293 278/294 279/238
f 282/288 278/294 284/293
f 282/288 274/287 278/294
f 288/295 272/296 287/245
f 288/295 273/297 272/296
f 289/298 273/297 288/295
f 289/298 281/299 273/297
f 290/300 281/299 289/298
f 290/300 276/301 281/299
f 291/302 276/301 290/300
f 291/302 277/303 276/301
f 287/245 277/303 291/302
f 287/245 272/296 277/303
f 290/268 284/271 291/270
f 290/268 282/272 284/271
f 289/266 282/272 290/268
f 289/266 283/273 282/272
f 288/264 283/273 289/266
f 288/264 286/274 283/273
f 287/214 286/274 288/264
f 287/214 285/238 286/274
f 291/270 285/238 287/214
f 291/270 284/271 285/238
