# Blender v2.66 (sub 1) OBJ File: 'BR_Unown-Shiny40.blend'
# www.blender.org
mtllib BR_Unown-Shiny40.mtl
o unknown_s
v 0.386632 -0.354441 -3.264610
v 0.456058 -0.354441 -3.097000
v 0.000032 -0.383552 -3.006290
v 0.714376 -0.271538 -3.483600
v 0.842658 -0.271538 -3.173900
v 0.933368 -0.144535 -3.619630
v 1.100980 -0.144535 -3.214980
v 0.969857 -0.001110 -3.644010
v 1.144020 -0.001110 -3.223540
v 0.933368 0.142315 -3.619630
v 1.100980 0.142315 -3.214980
v 0.840349 0.228937 -3.557470
v 0.678659 0.250654 -3.449430
v 0.800527 0.250654 -3.155220
v 0.991253 0.228937 -3.193160
v -0.840285 0.228937 -3.557470
v -0.561450 0.228937 -3.836310
v -0.623604 0.142315 -3.929330
v -0.778454 0.142315 -3.774480
v -0.197135 0.228937 -3.987210
v -0.218960 0.142315 -4.096940
v 0.258350 -0.354441 -3.392890
v 0.477341 -0.271538 -3.720630
v 0.623667 -0.144535 -3.929330
v 0.648049 -0.001110 -3.965820
v 0.623667 0.142315 -3.929330
v 0.561513 0.228937 -3.836310
v 0.453476 0.250654 -3.674620
v 0.197198 0.228937 -3.987210
v 0.219023 0.142315 -4.096940
v -0.778454 -0.144535 -3.774480
v -0.623604 -0.144535 -3.929330
v -0.477278 -0.271538 -3.720630
v -0.714313 -0.271538 -3.483600
v 0.090741 -0.354441 -3.462320
v 0.167640 -0.271538 -3.848920
v 0.219023 -0.144535 -4.096940
v 0.227585 -0.001110 -4.139980
v 0.159260 0.250654 -3.796490
v -1.017110 -0.144535 -3.417300
v -0.933304 -0.144535 -3.619630
v -0.090678 -0.354441 -3.462320
v -0.167577 -0.271538 -3.848920
v -0.218960 -0.144535 -4.096940
v -0.227522 -0.001110 -4.139980
v -0.159197 0.250654 -3.796490
v 0.678659 0.220706 -3.449430
v 0.678659 0.220706 -3.449430
v 0.800527 0.220706 -3.155220
v 0.800527 0.220706 -3.155220
v -0.258287 -0.354441 -3.392890
v -0.647985 -0.001110 -3.965820
v -0.453413 0.250654 -3.674620
v -1.017110 0.142315 -3.417300
v -1.100910 0.142315 -3.214980
v -0.991190 0.228937 -3.193160
v 0.778517 -0.144535 -2.217510
v 0.623667 -0.144535 -2.062660
v 0.477342 -0.271538 -2.291950
v 0.714376 -0.271538 -2.528980
v -0.386569 -0.354441 -3.264610
v -0.678595 0.250654 -3.449430
v 0.840349 0.228937 -2.434510
v 0.561514 0.228937 -2.155670
v 0.623667 0.142315 -2.062660
v 0.778517 0.142315 -2.217510
v 0.808954 -0.001110 -2.187070
v 0.648049 -0.001110 -2.026170
v -0.455995 -0.354441 -3.097000
v -0.842595 -0.271538 -3.173900
v -1.100910 -0.144535 -3.214980
v -1.143960 -0.001110 -3.223540
v -1.056880 -0.001110 -3.433780
v -0.800464 0.250654 -3.155220
v 1.017170 -0.144535 -2.574680
v 0.933368 -0.144535 -2.372360
v -0.455995 -0.354441 -2.915580
v -0.842595 -0.271538 -2.838680
v -1.100910 -0.144535 -2.777000
v -1.143960 -0.001110 -2.768440
v -1.100910 0.142315 -2.777000
v -0.991189 0.228937 -2.798820
v -0.800464 0.250654 -2.836760
v 0.453476 0.220706 -3.674620
v 0.453476 0.220706 -3.674620
v 0.159260 0.220706 -3.796490
v 0.159260 0.220706 -3.796490
v -0.386569 -0.354441 -2.747970
v -0.714313 -0.271538 -2.528980
v -0.933304 -0.144535 -2.372360
v -0.969794 -0.001110 -2.347970
v -0.933304 0.142315 -2.372360
v -0.840285 0.228937 -2.434510
v -0.678595 0.250654 -2.542550
v 1.017170 0.142315 -2.574680
v 1.100980 0.142315 -2.777000
v 0.991253 0.228937 -2.798830
v -0.258286 -0.354441 -2.619690
v -0.477278 -0.271538 -2.291950
v -0.623603 -0.144535 -2.062650
v -0.647985 -0.001110 -2.026160
v -0.623603 0.142315 -2.062650
v -0.561450 0.228937 -2.155670
v -0.453412 0.250654 -2.317360
v -0.808890 -0.001110 -3.804910
v -0.090677 -0.354441 -2.550260
v -0.167577 -0.271538 -2.163660
v -0.218959 -0.144535 -1.895050
v -0.227521 -0.001110 -1.852000
v -0.218959 0.142315 -1.895050
v -0.197134 0.228937 -2.004770
v -0.159196 0.250654 -2.195500
v 1.144020 -0.001110 -2.768440
v 1.100980 -0.144535 -2.777000
v 0.090741 -0.354441 -2.550260
v 0.167641 -0.271538 -2.163660
v 0.219024 -0.144535 -1.895050
v 0.227585 -0.001110 -1.852000
v 0.219024 0.142315 -1.895050
v 0.197198 0.228937 -2.004770
v 0.159260 0.250654 -2.195500
v 0.933368 0.142315 -2.372360
v 0.258350 -0.354441 -2.619690
v 0.453476 0.250654 -2.317360
v 0.386632 -0.354441 -2.747970
v -0.159197 0.220706 -3.796490
v -0.159197 0.220706 -3.796490
v -0.453413 0.220706 -3.674620
v -0.453413 0.220706 -3.674620
v 0.678659 0.250654 -2.542550
v 0.456058 -0.354441 -2.915580
v 0.842658 -0.271538 -2.838680
v 1.056940 -0.001110 -2.558210
v 0.800527 0.250654 -2.836760
v -0.933304 0.142315 -3.619630
v 0.800527 0.220706 -2.836760
v 0.800527 0.220706 -2.836760
v 0.678659 0.220706 -2.542550
v 0.678659 0.220706 -2.542550
v 0.453476 0.220706 -2.317360
v 0.453476 0.220706 -2.317360
v 0.159260 0.220706 -2.195500
v 0.159260 0.220706 -2.195500
v -0.159196 0.220706 -2.195500
v -0.159196 0.220706 -2.195500
v -0.453412 0.220706 -2.317360
v -0.453412 0.220706 -2.317360
v -0.678595 0.220706 -2.542550
v -0.678595 0.220706 -2.542550
v -0.800464 0.220706 -2.836760
v -0.800464 0.220706 -2.836760
v -0.800464 0.220706 -3.155220
v -0.800464 0.220706 -3.155220
v -0.678595 0.220706 -3.449430
v -0.678595 0.220706 -3.449430
v 0.552827 0.377731 -2.873550
v 0.552827 0.377731 -3.093460
v 0.000032 0.476782 -2.983510
v -0.552763 0.377731 -2.873550
v -0.552763 0.377731 -3.093460
v 0.468669 0.377731 -2.670370
v 0.313165 0.377731 -2.514870
v 0.468669 0.377731 -3.296640
v 0.109990 0.377731 -2.430710
v -0.109926 0.377731 -2.430710
v -0.313101 0.377731 -2.514870
v 0.313165 0.377731 -3.452140
v 0.109990 0.377731 -3.536300
v -0.468605 0.377731 -2.670370
v -0.468605 0.377731 -3.296640
v -0.313101 0.377731 -3.452140
v -0.109926 0.377731 -3.536300
v -0.083236 0.161456 -5.033820
v -0.177062 -0.001110 -5.034160
v -0.180036 -0.001110 -4.950770
v -0.085392 0.162788 -4.950470
v -0.083235 -0.163676 -5.033820
v -0.085392 -0.165007 -4.950470
v -0.165649 -0.001110 -4.868770
v -0.078343 -0.152332 -4.867600
v 0.096195 -0.152343 -4.865220
v 0.183520 -0.001110 -4.864010
v 0.096195 0.150124 -4.865220
v -0.078343 0.150112 -4.867600
v 0.103786 -0.165004 -4.949870
v 0.198426 -0.001110 -4.949560
v 0.103786 0.162785 -4.949870
v 0.104507 -0.163728 -5.033130
v 0.198422 -0.001110 -5.032780
v 0.104507 0.161508 -5.033130
v 0.089714 -0.142060 -5.132990
v 0.171090 -0.001110 -5.132870
v 0.052842 -0.082195 -5.211220
v 0.099657 -0.001110 -5.211150
v 0.006063 -0.001110 -5.236190
v -0.073043 -0.142060 -5.133220
v -0.040791 -0.082195 -5.211350
v -0.154419 -0.001110 -5.133340
v -0.087602 -0.001110 -5.211420
v -0.073044 0.139840 -5.133220
v -0.040791 0.079975 -5.211350
v 0.089714 0.139841 -5.132990
v 0.052842 0.079975 -5.211220
v -1.375580 -0.152485 -3.814210
v -1.218620 -0.155735 -3.906790
v -1.136980 -0.153169 -3.861070
v -1.234820 -0.152359 -3.718050
v -1.375580 0.150265 -3.814210
v -1.218620 0.153515 -3.906790
v -1.442970 -0.001110 -3.755060
v -1.109920 -0.001110 -3.972770
v -1.085940 -0.001110 -3.933560
v -1.136980 0.150948 -3.861070
v -1.234820 0.150139 -3.718050
v -1.283260 -0.001110 -3.645440
v -1.443770 0.152184 -3.936750
v -1.534060 -0.001110 -3.922960
v -1.443770 -0.154404 -3.936750
v -1.396080 0.150139 -4.073420
v -1.477650 -0.001110 -4.107960
v -1.396080 -0.152359 -4.073420
v -1.222610 0.153211 -4.007270
v -1.222610 -0.155431 -4.007270
v -1.286530 -0.001110 -4.323340
v -1.225390 -0.152356 -4.261060
v -1.103100 -0.153045 -4.137860
v -1.040390 -0.001110 -4.075430
v -1.103100 0.150825 -4.137860
v -1.225390 0.150136 -4.261060
v -0.971686 -0.001110 -4.529710
v -0.928698 -0.152420 -4.453630
v -0.842831 -0.152435 -4.301630
v -0.799841 -0.001110 -4.225510
v -0.842831 0.150215 -4.301630
v -0.928698 0.150200 -4.453630
v -0.601204 -0.001110 -4.641770
v -0.584362 -0.152425 -4.556010
v -0.550718 -0.152425 -4.384700
v -0.533876 -0.001110 -4.298940
v -0.550718 0.150206 -4.384700
v -0.584362 0.150205 -4.556010
v -0.250685 -0.001110 -4.698080
v -0.242448 -0.152357 -4.611240
v -0.226528 -0.152371 -4.437250
v -0.218882 -0.001110 -4.350300
v -0.226528 0.150151 -4.437250
v -0.242448 0.150138 -4.611240
v -0.167507 -0.001110 -4.733800
v -0.115770 -0.152351 -4.661740
v 0.026509 -0.152844 -4.493910
v 0.097805 -0.001110 -4.422370
v 0.026509 0.150624 -4.493910
v -0.115770 0.150131 -4.661740
v -0.159030 -0.001110 -4.757360
v -0.077153 -0.153356 -4.695760
v 0.098783 -0.153136 -4.556110
v 0.186378 -0.001110 -4.504330
v 0.098783 0.150917 -4.556110
v -0.077153 0.151137 -4.695760
v -1.059580 0.151583 -3.603930
v -1.112780 -0.001110 -3.532520
v -1.059580 -0.153804 -3.603930
v -0.966705 -0.153743 -3.743570
v -0.921402 -0.001110 -3.820180
v -0.966705 0.151523 -3.743570
v 0.089259 0.161455 -0.657589
v 0.183084 -0.001111 -0.657210
v 0.186088 -0.001110 -0.730991
v 0.091445 0.162787 -0.731325
v 0.089258 -0.163676 -0.657589
v 0.091445 -0.165007 -0.731325
v 0.186152 -0.001110 -0.868273
v 0.098846 -0.152332 -0.869483
v -0.075691 -0.152344 -0.871932
v -0.163016 -0.001110 -0.873178
v -0.075691 0.150124 -0.871932
v 0.098846 0.150112 -0.869483
v -0.097733 -0.165005 -0.732006
v -0.192373 -0.001110 -0.732352
v -0.097733 0.162785 -0.732006
v -0.098484 -0.163728 -0.658356
v -0.192399 -0.001110 -0.658744
v -0.098484 0.161508 -0.658356
v -0.086130 -0.142061 -0.572919
v -0.167506 -0.001110 -0.573065
v -0.051690 -0.082196 -0.504287
v -0.098505 -0.001110 -0.504371
v -0.004921 -0.001110 -0.479293
v 0.076627 -0.142061 -0.572619
v 0.041943 -0.082196 -0.504117
v 0.158003 -0.001111 -0.572469
v 0.088754 -0.001111 -0.504032
v 0.076628 0.139840 -0.572619
v 0.041943 0.079975 -0.504117
v -0.086130 0.139840 -0.572919
v -0.051690 0.079975 -0.504287
v 1.375310 -0.152485 -2.177210
v 1.218310 -0.155735 -2.084700
v 1.443440 0.152184 -2.054640
v 1.375310 0.150265 -2.177210
v 1.218310 0.153514 -2.084700
v 1.533740 -0.001110 -2.068390
v 1.442720 -0.001110 -2.236330
v 1.443440 -0.154405 -2.054640
v 1.395700 0.150139 -1.917990
v 1.477250 -0.001110 -1.883420
v 1.395700 -0.152359 -1.917990
v 1.222260 0.153211 -1.984210
v 1.109580 -0.001110 -2.018750
v 1.222260 -0.155432 -1.984210
v 1.136690 -0.153169 -2.130450
v 1.234580 -0.152359 -2.273430
v 1.085610 -0.001110 -2.057980
v 1.136690 0.150948 -2.130450
v 1.234580 0.150138 -2.273430
v 1.283050 -0.001110 -2.346010
v 1.283650 -0.001110 -1.665710
v 1.222530 -0.152356 -1.728010
v 1.100300 -0.153045 -1.851260
v 1.037600 -0.001110 -1.913720
v 1.100300 0.150825 -1.851260
v 1.222530 0.150136 -1.728010
v 0.995514 -0.001110 -1.416110
v 0.945604 -0.152420 -1.487850
v 0.845907 -0.152435 -1.631150
v 0.795993 -0.001110 -1.702920
v 0.845907 0.150215 -1.631150
v 0.945604 0.150200 -1.487850
v 0.672553 -0.001110 -1.223820
v 0.634105 -0.152425 -1.302300
v 0.557301 -0.152426 -1.459090
v 0.518854 -0.001110 -1.537570
v 0.557301 0.150205 -1.459090
v 0.634105 0.150205 -1.302300
v 0.314602 -0.001110 -1.084800
v 0.289813 -0.152358 -1.168430
v 0.240718 -0.152371 -1.336110
v 0.216486 -0.001110 -1.419970
v 0.240718 0.150151 -1.336110
v 0.289813 0.150137 -1.168430
v 0.207980 -0.001110 -1.038310
v 0.148804 -0.152351 -1.104410
v -0.010674 -0.152844 -1.255990
v -0.089240 -0.001110 -1.319450
v -0.010674 0.150624 -1.255990
v 0.148804 0.150131 -1.104410
v 0.181533 -0.001110 -0.995062
v 0.093632 -0.153356 -1.060990
v -0.074756 -0.153136 -1.192380
v -0.161169 -0.001110 -1.243690
v -0.074756 0.150916 -1.192380
v 0.093632 0.151136 -1.060990
v 1.059400 0.151583 -2.387620
v 1.112620 -0.001110 -2.459000
v 1.059400 -0.153804 -2.387620
v 0.966462 -0.153743 -2.248010
v 0.921127 -0.001110 -2.171430
v 0.966462 0.151523 -2.248010
vt 0.000000 0.000000
vt 0.932109 0.915194
vt 0.984071 0.877594
vt 0.932109 0.880518
vt 0.984071 0.915560
vt 0.866442 0.947230
vt 0.923613 0.952380
vt 0.745106 0.971749
vt 0.783049 0.980092
vt 0.586572 0.985019
vt 0.596287 0.992011
vt 0.414977 0.985019
vt 0.403711 0.992011
vt 0.256444 0.971749
vt 0.216949 0.980092
vt 0.135107 0.947230
vt 0.076385 0.952380
vt 0.069441 0.915194
vt 0.015927 0.915560
vt 0.069440 0.880518
vt 0.015927 0.877594
vt 0.135107 0.848482
vt 0.076384 0.840774
vt 0.256444 0.823963
vt 0.216949 0.813062
vt 0.414977 0.810693
vt 0.403711 0.801143
vt 0.586572 0.810693
vt 0.596287 0.801143
vt 0.745106 0.823963
vt 0.783049 0.813062
vt 0.866442 0.848482
vt 0.923613 0.840774
vt 0.499999 0.898114
usemtl mat_0
s 1
f 2/1 1/1 4/1
f 4/1 5/1 2/1
f 6/1 5/1 4/1
f 6/1 7/1 5/1
f 8/1 7/1 6/1
f 8/1 9/1 7/1
f 10/1 9/1 8/1
f 10/1 11/1 9/1
f 12/1 11/1 10/1
f 12/1 15/1 11/1
f 13/1 15/1 12/1
f 13/1 14/1 15/1
f 47/1 14/1 13/1
f 47/1 49/1 14/1
f 18/1 16/1 17/1
f 18/1 19/1 16/1
f 52/1 19/1 18/1
f 52/1 105/1 19/1
f 32/1 105/1 52/1
f 32/1 31/1 105/1
f 33/1 31/1 32/1
f 33/1 34/1 31/1
f 51/1 34/1 33/1
f 51/1 61/1 34/1
f 17/1 21/1 18/1
f 17/1 20/1 21/1
f 53/1 20/1 17/1
f 53/1 46/1 20/1
f 128/1 46/1 53/1
f 128/1 126/1 46/1
f 23/1 1/1 22/1
f 4/1 1/1 23/1
f 24/1 4/1 23/1
f 24/1 6/1 4/1
f 25/1 6/1 24/1
f 25/1 8/1 6/1
f 26/1 8/1 25/1
f 26/1 10/1 8/1
f 27/1 10/1 26/1
f 27/1 12/1 10/1
f 28/1 12/1 27/1
f 28/1 13/1 12/1
f 84/1 13/1 28/1
f 84/1 47/1 13/1
f 20/1 30/1 21/1
f 20/1 29/1 30/1
f 46/1 29/1 20/1
f 46/1 39/1 29/1
f 126/1 39/1 46/1
f 126/1 86/1 39/1
f 36/1 22/1 35/1
f 36/1 23/1 22/1
f 37/1 23/1 36/1
f 37/1 24/1 23/1
f 38/1 24/1 37/1
f 38/1 25/1 24/1
f 30/1 25/1 38/1
f 30/1 26/1 25/1
f 29/1 26/1 30/1
f 29/1 27/1 26/1
f 39/1 27/1 29/1
f 39/1 28/1 27/1
f 86/1 28/1 39/1
f 86/1 84/1 28/1
f 43/1 35/1 42/1
f 43/1 36/1 35/1
f 44/1 36/1 43/1
f 44/1 37/1 36/1
f 45/1 37/1 44/1
f 45/1 38/1 37/1
f 21/1 38/1 45/1
f 21/1 30/1 38/1
f 33/1 42/1 51/1
f 33/1 43/1 42/1
f 32/1 43/1 33/1
f 32/1 44/1 43/1
f 52/1 44/1 32/1
f 52/1 45/1 44/1
f 18/1 45/1 52/1
f 18/1 21/1 45/1
f 56/1 54/1 55/1
f 56/1 16/1 54/1
f 74/1 16/1 56/1
f 74/1 62/1 16/1
f 152/1 62/1 74/1
f 152/1 154/1 62/1
f 59/1 57/1 58/1
f 59/1 60/1 57/1
f 123/1 60/1 59/1
f 123/1 125/1 60/1
f 62/1 17/1 16/1
f 62/1 53/1 17/1
f 154/1 53/1 62/1
f 154/1 128/1 53/1
f 65/1 63/1 64/1
f 65/1 66/1 63/1
f 68/1 66/1 65/1
f 68/1 67/1 66/1
f 58/1 67/1 68/1
f 58/1 57/1 67/1
f 61/1 40/1 34/1
f 61/1 71/1 40/1
f 69/1 71/1 61/1
f 69/1 70/1 71/1
f 72/1 40/1 71/1
f 72/1 73/1 40/1
f 55/1 73/1 72/1
f 55/1 54/1 73/1
f 78/1 69/1 77/1
f 78/1 70/1 69/1
f 79/1 70/1 78/1
f 79/1 71/1 70/1
f 80/1 71/1 79/1
f 80/1 72/1 71/1
f 81/1 72/1 80/1
f 81/1 55/1 72/1
f 82/1 55/1 81/1
f 82/1 56/1 55/1
f 83/1 56/1 82/1
f 83/1 74/1 56/1
f 150/1 74/1 83/1
f 150/1 152/1 74/1
f 89/1 77/1 88/1
f 89/1 78/1 77/1
f 90/1 78/1 89/1
f 90/1 79/1 78/1
f 91/1 79/1 90/1
f 91/1 80/1 79/1
f 92/1 80/1 91/1
f 92/1 81/1 80/1
f 93/1 81/1 92/1
f 93/1 82/1 81/1
f 94/1 82/1 93/1
f 94/1 83/1 82/1
f 148/1 83/1 94/1
f 148/1 150/1 83/1
f 97/1 95/1 96/1
f 97/1 63/1 95/1
f 134/1 63/1 97/1
f 134/1 130/1 63/1
f 136/1 130/1 134/1
f 136/1 138/1 130/1
f 99/1 88/1 98/1
f 99/1 89/1 88/1
f 100/1 89/1 99/1
f 100/1 90/1 89/1
f 101/1 90/1 100/1
f 101/1 91/1 90/1
f 102/1 91/1 101/1
f 102/1 92/1 91/1
f 103/1 92/1 102/1
f 103/1 93/1 92/1
f 104/1 93/1 103/1
f 104/1 94/1 93/1
f 146/1 94/1 104/1
f 146/1 148/1 94/1
f 107/1 98/1 106/1
f 107/1 99/1 98/1
f 108/1 99/1 107/1
f 108/1 100/1 99/1
f 109/1 100/1 108/1
f 109/1 101/1 100/1
f 110/1 101/1 109/1
f 110/1 102/1 101/1
f 111/1 102/1 110/1
f 111/1 103/1 102/1
f 112/1 103/1 111/1
f 112/1 104/1 103/1
f 144/1 104/1 112/1
f 144/1 146/1 104/1
f 114/1 9/1 113/1
f 114/1 7/1 9/1
f 132/1 7/1 114/1
f 132/1 5/1 7/1
f 131/1 5/1 132/1
f 131/1 2/1 5/1
f 116/1 106/1 115/1
f 116/1 107/1 106/1
f 117/1 107/1 116/1
f 117/1 108/1 107/1
f 118/1 108/1 117/1
f 118/1 109/1 108/1
f 119/1 109/1 118/1
f 119/1 110/1 109/1
f 120/1 110/1 119/1
f 120/1 111/1 110/1
f 121/1 111/1 120/1
f 121/1 112/1 111/1
f 142/1 112/1 121/1
f 142/1 144/1 112/1
f 11/1 113/1 9/1
f 11/1 96/1 113/1
f 15/1 96/1 11/1
f 15/1 97/1 96/1
f 14/1 97/1 15/1
f 14/1 134/1 97/1
f 49/1 134/1 14/1
f 49/1 136/1 134/1
f 59/1 115/1 123/1
f 59/1 116/1 115/1
f 58/1 116/1 59/1
f 58/1 117/1 116/1
f 68/1 117/1 58/1
f 68/1 118/1 117/1
f 65/1 118/1 68/1
f 65/1 119/1 118/1
f 64/1 119/1 65/1
f 64/1 120/1 119/1
f 124/1 120/1 64/1
f 124/1 121/1 120/1
f 140/1 121/1 124/1
f 140/1 142/1 121/1
f 130/1 64/1 63/1
f 130/1 124/1 64/1
f 138/1 124/1 130/1
f 138/1 140/1 124/1
f 132/1 125/1 131/1
f 132/1 60/1 125/1
f 114/1 60/1 132/1
f 114/1 75/1 60/1
f 113/1 75/1 114/1
f 113/1 133/1 75/1
f 96/1 133/1 113/1
f 96/1 95/1 133/1
f 175/1 173/1 174/1
f 175/1 176/1 173/1
f 179/1 176/1 175/1
f 179/1 184/1 176/1
f 254/1 184/1 179/1
f 254/1 259/1 184/1
f 248/1 259/1 254/1
f 248/1 253/1 259/1
f 242/1 253/1 248/1
f 242/1 247/1 253/1
f 236/1 247/1 242/1
f 236/1 241/1 247/1
f 230/1 241/1 236/1
f 230/1 235/1 241/1
f 224/1 235/1 230/1
f 224/1 229/1 235/1
f 220/1 229/1 224/1
f 220/1 219/1 229/1
f 217/1 219/1 220/1
f 217/1 216/1 219/1
f 210/1 216/1 217/1
f 210/1 208/1 216/1
f 215/1 208/1 210/1
f 215/1 214/1 208/1
f 261/1 214/1 215/1
f 261/1 260/1 214/1
f 73/1 260/1 261/1
f 73/1 54/1 260/1
f 206/1 204/1 205/1
f 206/1 207/1 204/1
f 263/1 207/1 206/1
f 263/1 262/1 207/1
f 178/1 174/1 177/1
f 178/1 175/1 174/1
f 180/1 175/1 178/1
f 180/1 179/1 175/1
f 255/1 179/1 180/1
f 255/1 254/1 179/1
f 249/1 254/1 255/1
f 249/1 248/1 254/1
f 243/1 248/1 249/1
f 243/1 242/1 248/1
f 237/1 242/1 243/1
f 237/1 236/1 242/1
f 231/1 236/1 237/1
f 231/1 230/1 236/1
f 225/1 230/1 231/1
f 225/1 224/1 230/1
f 221/1 224/1 225/1
f 221/1 220/1 224/1
f 218/1 220/1 221/1
f 218/1 217/1 220/1
f 204/1 217/1 218/1
f 204/1 210/1 217/1
f 207/1 210/1 204/1
f 207/1 215/1 210/1
f 262/1 215/1 207/1
f 262/1 261/1 215/1
f 40/1 261/1 262/1
f 40/1 73/1 261/1
f 232/1 225/1 231/1
f 232/1 226/1 225/1
f 233/1 226/1 232/1
f 233/1 227/1 226/1
f 234/1 227/1 233/1
f 234/1 228/1 227/1
f 235/1 228/1 234/1
f 235/1 229/1 228/1
f 238/1 231/1 237/1
f 238/1 232/1 231/1
f 239/1 232/1 238/1
f 239/1 233/1 232/1
f 240/1 233/1 239/1
f 240/1 234/1 233/1
f 241/1 234/1 240/1
f 241/1 235/1 234/1
f 244/1 237/1 243/1
f 244/1 238/1 237/1
f 245/1 238/1 244/1
f 245/1 239/1 238/1
f 246/1 239/1 245/1
f 246/1 240/1 239/1
f 247/1 240/1 246/1
f 247/1 241/1 240/1
f 250/1 243/1 249/1
f 250/1 244/1 243/1
f 251/1 244/1 250/1
f 251/1 245/1 244/1
f 252/1 245/1 251/1
f 252/1 246/1 245/1
f 253/1 246/1 252/1
f 253/1 247/1 246/1
f 256/1 249/1 255/1
f 256/1 250/1 249/1
f 257/1 250/1 256/1
f 257/1 251/1 250/1
f 258/1 251/1 257/1
f 258/1 252/1 251/1
f 259/1 252/1 258/1
f 259/1 253/1 252/1
f 181/1 255/1 180/1
f 181/1 256/1 255/1
f 182/1 256/1 181/1
f 182/1 257/1 256/1
f 183/1 257/1 182/1
f 183/1 258/1 257/1
f 184/1 258/1 183/1
f 184/1 259/1 258/1
f 185/1 180/1 178/1
f 185/1 181/1 180/1
f 186/1 181/1 185/1
f 186/1 182/1 181/1
f 187/1 182/1 186/1
f 187/1 183/1 182/1
f 176/1 183/1 187/1
f 176/1 184/1 183/1
f 177/1 185/1 178/1
f 177/1 188/1 185/1
f 196/1 188/1 177/1
f 196/1 191/1 188/1
f 197/1 191/1 196/1
f 197/1 193/1 191/1
f 188/1 186/1 185/1
f 188/1 189/1 186/1
f 191/1 189/1 188/1
f 191/1 192/1 189/1
f 193/1 192/1 191/1
f 193/1 194/1 192/1
f 189/1 187/1 186/1
f 189/1 190/1 187/1
f 192/1 190/1 189/1
f 192/1 202/1 190/1
f 194/1 202/1 192/1
f 194/1 203/1 202/1
f 190/1 176/1 187/1
f 190/1 173/1 176/1
f 202/1 173/1 190/1
f 202/1 200/1 173/1
f 203/1 200/1 202/1
f 203/1 201/1 200/1
f 263/1 105/1 31/1
f 263/1 264/1 105/1
f 206/1 264/1 263/1
f 206/1 212/1 264/1
f 205/1 212/1 206/1
f 205/1 211/1 212/1
f 264/1 19/1 105/1
f 264/1 265/1 19/1
f 212/1 265/1 264/1
f 212/1 213/1 265/1
f 211/1 213/1 212/1
f 211/1 209/1 213/1
f 174/1 196/1 177/1
f 174/1 198/1 196/1
f 173/1 198/1 174/1
f 173/1 200/1 198/1
f 198/1 197/1 196/1
f 198/1 199/1 197/1
f 200/1 199/1 198/1
f 200/1 201/1 199/1
f 228/1 211/1 227/1
f 228/1 222/1 211/1
f 229/1 222/1 228/1
f 229/1 219/1 222/1
f 213/1 260/1 265/1
f 213/1 214/1 260/1
f 209/1 214/1 213/1
f 209/1 208/1 214/1
f 226/1 221/1 225/1
f 226/1 223/1 221/1
f 227/1 223/1 226/1
f 227/1 211/1 223/1
f 268/1 266/1 267/1
f 268/1 269/1 266/1
f 272/1 269/1 268/1
f 272/1 277/1 269/1
f 347/1 277/1 272/1
f 347/1 352/1 277/1
f 341/1 352/1 347/1
f 341/1 346/1 352/1
f 335/1 346/1 341/1
f 335/1 340/1 346/1
f 329/1 340/1 335/1
f 329/1 334/1 340/1
f 323/1 334/1 329/1
f 323/1 328/1 334/1
f 317/1 328/1 323/1
f 317/1 322/1 328/1
f 306/1 322/1 317/1
f 306/1 305/1 322/1
f 302/1 305/1 306/1
f 302/1 299/1 305/1
f 303/1 299/1 302/1
f 303/1 300/1 299/1
f 316/1 300/1 303/1
f 316/1 315/1 300/1
f 354/1 315/1 316/1
f 354/1 353/1 315/1
f 133/1 353/1 354/1
f 133/1 95/1 353/1
f 311/1 297/1 298/1
f 311/1 312/1 297/1
f 356/1 312/1 311/1
f 356/1 355/1 312/1
f 271/1 267/1 270/1
f 271/1 268/1 267/1
f 273/1 268/1 271/1
f 273/1 272/1 268/1
f 348/1 272/1 273/1
f 348/1 347/1 272/1
f 342/1 347/1 348/1
f 342/1 341/1 347/1
f 336/1 341/1 342/1
f 336/1 335/1 341/1
f 330/1 335/1 336/1
f 330/1 329/1 335/1
f 324/1 329/1 330/1
f 324/1 323/1 329/1
f 318/1 323/1 324/1
f 318/1 317/1 323/1
f 307/1 317/1 318/1
f 307/1 306/1 317/1
f 304/1 306/1 307/1
f 304/1 302/1 306/1
f 297/1 302/1 304/1
f 297/1 303/1 302/1
f 312/1 303/1 297/1
f 312/1 316/1 303/1
f 355/1 316/1 312/1
f 355/1 354/1 316/1
f 75/1 354/1 355/1
f 75/1 133/1 354/1
f 325/1 318/1 324/1
f 325/1 319/1 318/1
f 326/1 319/1 325/1
f 326/1 320/1 319/1
f 327/1 320/1 326/1
f 327/1 321/1 320/1
f 328/1 321/1 327/1
f 328/1 322/1 321/1
f 331/1 324/1 330/1
f 331/1 325/1 324/1
f 332/1 325/1 331/1
f 332/1 326/1 325/1
f 333/1 326/1 332/1
f 333/1 327/1 326/1
f 334/1 327/1 333/1
f 334/1 328/1 327/1
f 337/1 330/1 336/1
f 337/1 331/1 330/1
f 338/1 331/1 337/1
f 338/1 332/1 331/1
f 339/1 332/1 338/1
f 339/1 333/1 332/1
f 340/1 333/1 339/1
f 340/1 334/1 333/1
f 343/1 336/1 342/1
f 343/1 337/1 336/1
f 344/1 337/1 343/1
f 344/1 338/1 337/1
f 345/1 338/1 344/1
f 345/1 339/1 338/1
f 346/1 339/1 345/1
f 346/1 340/1 339/1
f 349/1 342/1 348/1
f 349/1 343/1 342/1
f 350/1 343/1 349/1
f 350/1 344/1 343/1
f 351/1 344/1 350/1
f 351/1 345/1 344/1
f 352/1 345/1 351/1
f 352/1 346/1 345/1
f 274/1 348/1 273/1
f 274/1 349/1 348/1
f 275/1 349/1 274/1
f 275/1 350/1 349/1
f 276/1 350/1 275/1
f 276/1 351/1 350/1
f 277/1 351/1 276/1
f 277/1 352/1 351/1
f 278/1 273/1 271/1
f 278/1 274/1 273/1
f 279/1 274/1 278/1
f 279/1 275/1 274/1
f 280/1 275/1 279/1
f 280/1 276/1 275/1
f 269/1 276/1 280/1
f 269/1 277/1 276/1
f 270/1 278/1 271/1
f 270/1 281/1 278/1
f 289/1 281/1 270/1
f 289/1 284/1 281/1
f 290/1 284/1 289/1
f 290/1 286/1 284/1
f 281/1 279/1 278/1
f 281/1 282/1 279/1
f 284/1 282/1 281/1
f 284/1 285/1 282/1
f 286/1 285/1 284/1
f 286/1 287/1 285/1
f 282/1 280/1 279/1
f 282/1 283/1 280/1
f 285/1 283/1 282/1
f 285/1 295/1 283/1
f 287/1 295/1 285/1
f 287/1 296/1 295/1
f 283/1 269/1 280/1
f 283/1 266/1 269/1
f 295/1 266/1 283/1
f 295/1 293/1 266/1
f 296/1 293/1 295/1
f 296/1 294/1 293/1
f 356/1 67/1 57/1
f 356/1 357/1 67/1
f 311/1 357/1 356/1
f 311/1 313/1 357/1
f 298/1 313/1 311/1
f 298/1 309/1 313/1
f 357/1 66/1 67/1
f 357/1 358/1 66/1
f 313/1 358/1 357/1
f 313/1 314/1 358/1
f 309/1 314/1 313/1
f 309/1 301/1 314/1
f 267/1 289/1 270/1
f 267/1 291/1 289/1
f 266/1 291/1 267/1
f 266/1 293/1 291/1
f 291/1 290/1 289/1
f 291/1 292/1 290/1
f 293/1 292/1 291/1
f 293/1 294/1 292/1
f 321/1 309/1 320/1
f 321/1 308/1 309/1
f 322/1 308/1 321/1
f 322/1 305/1 308/1
f 314/1 353/1 358/1
f 314/1 315/1 353/1
f 301/1 315/1 314/1
f 301/1 300/1 315/1
f 319/1 307/1 318/1
f 319/1 310/1 307/1
f 320/1 310/1 319/1
f 320/1 309/1 310/1
f 209/1 216/1 208/1
f 209/1 222/1 216/1
f 211/1 222/1 209/1
f 222/1 219/1 216/1
f 218/1 205/1 204/1
f 218/1 223/1 205/1
f 221/1 223/1 218/1
f 223/1 211/1 205/1
f 301/1 299/1 300/1
f 301/1 308/1 299/1
f 309/1 308/1 301/1
f 308/1 305/1 299/1
f 304/1 298/1 297/1
f 304/1 310/1 298/1
f 307/1 310/1 304/1
f 310/1 309/1 298/1
f 3/1 1/1 2/1
f 2/1 131/1 3/1
f 125/1 3/1 131/1
f 125/1 123/1 3/1
f 115/1 3/1 123/1
f 115/1 106/1 3/1
f 98/1 3/1 106/1
f 98/1 88/1 3/1
f 77/1 3/1 88/1
f 77/1 69/1 3/1
f 61/1 3/1 69/1
f 61/1 51/1 3/1
f 42/1 3/1 51/1
f 42/1 35/1 3/1
f 22/1 3/1 35/1
f 22/1 1/1 3/1
f 41/1 34/1 40/1
f 41/1 31/1 34/1
f 263/1 31/1 41/1
f 41/1 262/1 263/1
f 40/1 262/1 41/1
f 76/1 60/1 75/1
f 76/1 57/1 60/1
f 356/1 57/1 76/1
f 76/1 355/1 356/1
f 75/1 355/1 76/1
f 122/1 95/1 63/1
f 122/1 353/1 95/1
f 358/1 353/1 122/1
f 122/1 66/1 358/1
f 63/1 66/1 122/1
f 135/1 54/1 16/1
f 135/1 260/1 54/1
f 265/1 260/1 135/1
f 135/1 19/1 265/1
f 16/1 19/1 135/1
f 193/1 195/1 194/1
f 193/1 197/1 195/1
f 199/1 195/1 197/1
f 199/1 201/1 195/1
f 203/1 195/1 201/1
f 203/1 194/1 195/1
f 286/1 288/1 287/1
f 286/1 290/1 288/1
f 292/1 288/1 290/1
f 292/1 294/1 288/1
f 296/1 288/1 294/1
f 296/1 287/1 288/1
usemtl mat_1
f 156/2 50/3 157/4
f 156/2 137/5 50/3
f 161/6 137/5 156/2
f 161/6 139/7 137/5
f 162/8 139/7 161/6
f 162/8 141/9 139/7
f 164/10 141/9 162/8
f 164/10 143/11 141/9
f 165/12 143/11 164/10
f 165/12 145/13 143/11
f 166/14 145/13 165/12
f 166/14 147/15 145/13
f 169/16 147/15 166/14
f 169/16 149/17 147/15
f 159/18 149/17 169/16
f 159/18 151/19 149/17
f 160/20 151/19 159/18
f 160/20 153/21 151/19
f 170/22 153/21 160/20
f 170/22 155/23 153/21
f 171/24 155/23 170/22
f 171/24 129/25 155/23
f 172/26 129/25 171/24
f 172/26 127/27 129/25
f 168/28 127/27 172/26
f 168/28 87/29 127/27
f 167/30 87/29 168/28
f 167/30 85/31 87/29
f 163/32 85/31 167/30
f 163/32 48/33 85/31
f 157/4 48/33 163/32
f 157/4 50/3 48/33
f 168/28 158/34 163/32
f 167/30 168/28 163/32
f 158/34 157/4 163/32
f 158/34 156/2 157/4
f 161/6 156/2 158/34
f 158/34 162/8 161/6
f 164/10 162/8 158/34
f 158/34 165/12 164/10
f 166/14 165/12 158/34
f 158/34 169/16 166/14
f 159/18 169/16 158/34
f 158/34 160/20 159/18
f 170/22 160/20 158/34
f 158/34 171/24 170/22
f 172/26 171/24 158/34
f 158/34 168/28 172/26
