# Blender v2.66 (sub 1) OBJ File: 'BR_Unown-Shiny36.blend'
# www.blender.org
mtllib BR_Unown-Shiny36.mtl
o unknown_q
v 0.435592 -0.350441 -2.279483
v 0.468299 -0.350441 -2.101036
v 0.003391 -0.379552 -2.108042
v 0.801993 -0.267538 -2.424820
v 0.862428 -0.267538 -2.095096
v 1.044652 -0.140535 -2.511857
v 1.123620 -0.140535 -2.081053
v 1.085447 0.002890 -2.528046
v 1.167498 0.002890 -2.080390
v 1.044652 0.146315 -2.511857
v 1.123620 0.146315 -2.081053
v 0.940662 0.232937 -2.470610
v 0.759900 0.254654 -2.398906
v 0.817316 0.254654 -2.085673
v 1.011755 0.232937 -2.082735
v -0.594885 -0.267538 -2.724629
v -0.780461 -0.140535 -2.903577
v -0.412661 -0.140535 -3.141389
v -0.313387 -0.267538 -2.906640
v -0.811020 0.002890 -2.935081
v -0.428843 0.002890 -3.182184
v 0.337086 -0.350441 -2.431827
v 0.619976 -0.267538 -2.706314
v 0.806838 -0.140535 -2.879651
v 0.838334 0.002890 -2.910212
v 0.806838 0.146315 -2.879651
v 0.726550 0.232937 -2.801755
v 0.586987 0.254654 -2.666337
v -0.780461 0.146315 -2.903577
v -0.412661 0.146315 -3.141389
v 1.071996 0.002890 -1.635424
v 1.031711 -0.140535 -1.652825
v 0.187776 -0.350441 -2.534874
v 0.344091 -0.267538 -2.896728
v 0.446376 -0.140535 -3.128443
v 0.463782 0.002890 -3.168738
v 0.446376 0.146315 -3.128443
v 0.402012 0.232937 -3.025746
v 0.324895 0.254654 -2.847224
v 1.031711 0.146315 -1.652825
v 0.010397 -0.350441 -2.572944
v 0.016337 -0.267538 -2.967073
v 0.018146 -0.140535 -3.220353
v 0.018808 0.002890 -3.264242
v 0.018146 0.146315 -3.220353
v 0.016460 0.232937 -3.108496
v 0.013529 0.254654 -2.914052
v 0.929005 0.232937 -1.697185
v 0.705010 0.232937 -1.372654
v 0.782914 0.146315 -1.292358
v 0.373870 0.232937 -1.158536
v 0.415119 0.146315 -1.054545
v -0.168048 -0.350441 -2.540242
v -0.371409 0.232937 -3.037407
v -0.299708 0.254654 -2.856646
v -0.014000 0.232937 -1.087447
v -0.015687 0.146315 -0.975585
v -0.399552 0.232937 -1.170197
v -0.443918 0.146315 -1.067495
v -0.320393 -0.350441 -2.441739
v -0.702550 0.232937 -2.823290
v -0.567132 0.254654 -2.683725
v -0.724090 0.232937 -1.394189
v -0.804379 0.146315 -1.316283
v -0.938202 0.232937 -1.725333
v -1.042189 0.146315 -1.684076
v -0.423446 -0.350441 -2.292429
v -0.785300 -0.267538 -2.448745
v -1.029242 -0.140535 -2.543117
v -1.069537 0.002890 -2.560521
v -1.029242 0.146315 -2.543117
v -0.926546 0.232937 -2.498749
v -0.748027 0.254654 -2.421640
v -1.009296 0.232937 -2.113199
v -1.121152 0.146315 -2.114889
v -0.461517 -0.350441 -2.115049
v -0.855646 -0.267538 -2.120989
v -1.121152 -0.140535 -2.114889
v -1.165042 0.002890 -2.115544
v -0.814856 0.254654 -2.110271
v -0.428809 -0.350441 -1.936602
v -0.795210 -0.267538 -1.791265
v -1.042189 -0.140535 -1.684076
v -1.082993 0.002890 -1.667899
v -0.757442 0.254654 -1.797028
v -0.330302 -0.350441 -1.784258
v -0.613196 -0.267538 -1.509761
v -0.804379 -0.140535 -1.316283
v -0.835876 0.002890 -1.285722
v -0.584527 0.254654 -1.529607
v -0.180996 -0.350441 -1.681202
v -0.337310 -0.267538 -1.319347
v -0.443918 -0.140535 -1.067495
v -0.461322 0.002890 -1.027207
v -0.322436 0.254654 -1.348710
v 0.759900 0.224706 -2.398906
v 0.759900 0.224706 -2.398906
v 0.817316 0.224706 -2.085673
v 0.817316 0.224706 -2.085673
v 0.586987 0.224706 -2.666337
v 0.586987 0.224706 -2.666337
v -0.003616 -0.350441 -1.643131
v -0.009556 -0.267538 -1.249002
v -0.015687 -0.140535 -0.975585
v -0.016348 0.002890 -0.931703
v -0.011071 0.254654 -1.281882
v 0.324895 0.224706 -2.847224
v 0.324895 0.224706 -2.847224
v 0.013529 0.224706 -2.914052
v 0.013529 0.224706 -2.914052
v 0.174830 -0.350441 -1.675843
v 0.320168 -0.267538 -1.309435
v 0.415119 -0.140535 -1.054545
v 0.431301 0.002890 -1.013751
v 0.302168 0.254654 -1.339298
v -0.299708 0.224706 -2.856646
v -0.299708 0.224706 -2.856646
v -0.567132 0.224706 -2.683725
v -0.567132 0.224706 -2.683725
v 0.327175 -0.350441 -1.774347
v 0.601667 -0.267538 -1.491456
v 0.782914 -0.140535 -1.292358
v 0.569590 0.254654 -1.512209
v 0.569590 0.224706 -1.512209
v 0.569590 0.224706 -1.512209
v 0.302168 0.224706 -1.339298
v 0.302168 0.224706 -1.339298
v 0.750487 0.254654 -1.774304
v 0.750487 0.224706 -1.774304
v 0.750487 0.224706 -1.774304
v -0.748027 0.224706 -2.421640
v -0.748027 0.224706 -2.421640
v -0.814856 0.224706 -2.110271
v -0.814856 0.224706 -2.110271
v 0.430228 -0.350441 -1.923656
v 0.792083 -0.267538 -1.767340
v 0.813476 0.002890 -1.260864
v -0.757442 0.224706 -1.797028
v -0.757442 0.224706 -1.797028
v -0.584527 0.224706 -1.529607
v -0.584527 0.224706 -1.529607
v -0.322436 0.224706 -1.348710
v -0.322436 0.224706 -1.348710
v -0.011071 0.224706 -1.281882
v -0.011071 0.224706 -1.281882
v 0.516023 0.381731 -1.862255
v 0.562171 0.381731 -2.077268
v -0.001391 0.480782 -2.085760
v -0.564950 0.381731 -2.094261
v -0.518802 0.381731 -2.309275
v 0.391102 0.381731 -1.681259
v 0.206429 0.381731 -1.561854
v 0.522523 0.381731 -2.293585
v -0.009884 0.381731 -1.522204
v -0.224903 0.381731 -1.568353
v -0.405893 0.381731 -1.693275
v 0.403114 0.381731 -2.478254
v 0.222123 0.381731 -2.603177
v -0.525303 0.381731 -1.877945
v -0.393881 0.381731 -2.490270
v -0.209208 0.381731 -2.609676
v 0.007104 0.381731 -2.649326
v 1.891233 -0.084172 -0.265942
v 1.882830 0.000001 -0.313808
v 1.925132 0.000001 -0.222552
v 1.814868 -0.146270 -0.288938
v 1.800268 0.000001 -0.372114
v 1.814868 0.146272 -0.288938
v 1.707272 0.000001 -0.382146
v 1.724120 0.168754 -0.286184
v 1.891233 0.084175 -0.265942
v 1.724120 -0.168751 -0.286184
v 1.844079 0.146273 -0.122581
v 1.757815 0.168754 -0.094259
v 1.908038 0.084175 -0.170211
v 1.858679 0.000002 -0.039404
v 1.774662 0.000002 0.001703
v 1.916440 0.000001 -0.122345
v 1.908038 -0.084172 -0.170211
v 1.844079 -0.146269 -0.122581
v 1.757815 -0.168751 -0.094259
v 0.687104 -0.150007 -0.879317
v 0.834086 -0.149937 -0.973797
v 0.908152 0.002890 -1.019717
v 0.834086 0.155716 -0.973797
v 0.687104 0.155786 -0.879317
v 0.614483 0.002890 -0.830957
v 0.778335 -0.149656 -0.735166
v 0.704701 0.002890 -0.687664
v 0.925574 -0.149607 -0.830170
v 0.778335 0.155435 -0.735166
v 0.925574 0.155387 -0.830170
v 0.999134 0.002890 -0.877641
v 0.595873 -0.150358 -1.023472
v 0.742592 -0.150266 -1.117425
v 0.817177 0.002890 -1.161801
v 0.742592 0.156045 -1.117425
v 0.595873 0.156138 -1.023472
v 0.524267 0.002890 -0.974252
v 1.666840 0.152899 -0.254332
v 1.692643 0.000001 -0.340718
v 1.617435 -0.151730 -0.088905
v 1.592373 0.000001 -0.004965
v 1.617435 0.151731 -0.088905
v 1.666840 -0.152898 -0.254332
v 1.601308 -0.153357 -0.388699
v 1.435219 -0.153346 -0.440066
v 1.353142 0.000000 -0.468708
v 1.435219 0.153346 -0.440066
v 1.601308 0.153357 -0.388699
v 1.685381 0.000000 -0.365832
v 1.315128 0.152897 -0.351876
v 1.203606 0.151729 -0.220073
v 1.147023 0.000000 -0.153200
v 1.203606 -0.151730 -0.220073
v 1.315128 -0.152897 -0.351876
v 1.373358 0.000000 -0.420703
v 1.073097 0.151933 -0.331754
v 1.199466 0.152797 -0.450343
v 1.264723 0.000000 -0.511597
v 1.199466 -0.152797 -0.450343
v 1.073097 -0.151933 -0.331754
v 1.009214 0.000000 -0.271805
v 1.591414 -0.084172 -0.830287
v 1.544847 0.000002 -0.844199
v 1.645383 0.000001 -0.841184
v 1.536675 -0.146270 -0.772292
v 1.455753 0.000001 -0.796452
v 1.536675 0.146272 -0.772292
v 1.404639 0.000001 -0.716457
v 1.498071 0.168863 -0.688590
v 1.591414 0.084175 -0.830287
v 1.498071 -0.168860 -0.688590
v 1.698515 0.146273 -0.723954
v 1.684919 0.168857 -0.632874
v 1.684542 0.084175 -0.802475
v 1.779425 0.000002 -0.699787
v 1.778344 0.000002 -0.605016
v 1.731109 0.000001 -0.788563
v 1.684542 -0.084172 -0.802475
v 1.698515 -0.146269 -0.723954
v 1.684919 -0.168854 -0.632874
v 1.623287 -0.152516 -0.459605
v 1.456315 -0.152510 -0.510336
v 1.373317 0.000001 -0.537164
v 1.456315 0.152512 -0.510336
v 1.623287 0.152518 -0.459605
v 1.707267 0.000001 -0.435636
v 1.393501 0.000001 -0.605616
v 1.477411 0.151678 -0.580606
v 1.729152 0.000002 -0.505440
v 1.645256 -0.151676 -0.530512
v 1.645256 0.151679 -0.530512
v 1.477411 -0.151675 -0.580606
v 0.866264 0.155231 -0.599246
v 0.792675 0.002890 -0.551683
v 0.866255 -0.149452 -0.599249
v 1.012879 -0.149707 -0.694031
v 1.012879 0.155487 -0.694031
v 1.086938 0.002890 -0.741920
v 0.954180 0.155027 -0.463330
v 0.880648 0.002890 -0.415702
v 1.100175 0.155587 -0.557893
v 1.174743 0.002890 -0.606202
v 1.100175 -0.149807 -0.557893
v 0.954180 -0.149248 -0.463330
vt 0.000000 0.000000
vt 0.921526 0.915325
vt 0.972221 0.877435
vt 0.921526 0.880382
vt 0.972221 0.915694
vt 0.857461 0.947609
vt 0.913238 0.952799
vt 0.739084 0.972318
vt 0.776102 0.980726
vt 0.584418 0.985691
vt 0.593895 0.992737
vt 0.417007 0.985691
vt 0.406016 0.992737
vt 0.262341 0.972318
vt 0.223809 0.980726
vt 0.143964 0.947609
vt 0.086673 0.952799
vt 0.079899 0.915325
vt 0.027690 0.915694
vt 0.079898 0.880382
vt 0.027690 0.877435
vt 0.143964 0.848098
vt 0.086673 0.840330
vt 0.262341 0.823389
vt 0.223809 0.812403
vt 0.417007 0.810016
vt 0.406016 0.800392
vt 0.584417 0.810016
vt 0.593895 0.800392
vt 0.739084 0.823389
vt 0.776102 0.812403
vt 0.857461 0.848098
vt 0.913238 0.840330
vt 0.499956 0.898113
usemtl mat_0
s 1
f 2/1 1/1 4/1
f 4/1 5/1 2/1
f 6/1 5/1 4/1
f 6/1 7/1 5/1
f 8/1 7/1 6/1
f 8/1 9/1 7/1
f 10/1 9/1 8/1
f 10/1 11/1 9/1
f 12/1 11/1 10/1
f 12/1 15/1 11/1
f 13/1 15/1 12/1
f 13/1 14/1 15/1
f 96/1 14/1 13/1
f 96/1 98/1 14/1
f 18/1 16/1 17/1
f 18/1 19/1 16/1
f 43/1 19/1 18/1
f 43/1 42/1 19/1
f 35/1 42/1 43/1
f 35/1 34/1 42/1
f 24/1 34/1 35/1
f 24/1 23/1 34/1
f 6/1 23/1 24/1
f 6/1 4/1 23/1
f 17/1 21/1 18/1
f 17/1 20/1 21/1
f 69/1 20/1 17/1
f 69/1 70/1 20/1
f 78/1 70/1 69/1
f 78/1 79/1 70/1
f 83/1 79/1 78/1
f 83/1 84/1 79/1
f 88/1 84/1 83/1
f 88/1 89/1 84/1
f 93/1 89/1 88/1
f 93/1 94/1 89/1
f 104/1 94/1 93/1
f 104/1 105/1 94/1
f 113/1 105/1 104/1
f 113/1 114/1 105/1
f 194/1 114/1 113/1
f 194/1 199/1 114/1
f 182/1 199/1 194/1
f 182/1 187/1 199/1
f 188/1 187/1 182/1
f 188/1 189/1 187/1
f 257/1 189/1 188/1
f 257/1 256/1 189/1
f 266/1 256/1 257/1
f 266/1 262/1 256/1
f 222/1 262/1 266/1
f 222/1 223/1 262/1
f 215/1 223/1 222/1
f 215/1 214/1 223/1
f 202/1 214/1 215/1
f 202/1 203/1 214/1
f 181/1 203/1 202/1
f 181/1 177/1 203/1
f 180/1 177/1 181/1
f 180/1 176/1 177/1
f 179/1 176/1 180/1
f 179/1 178/1 176/1
f 4/1 1/1 22/1
f 22/1 23/1 4/1
f 33/1 23/1 22/1
f 33/1 34/1 23/1
f 41/1 34/1 33/1
f 41/1 42/1 34/1
f 53/1 42/1 41/1
f 53/1 19/1 42/1
f 60/1 19/1 53/1
f 60/1 16/1 19/1
f 67/1 16/1 60/1
f 67/1 68/1 16/1
f 76/1 68/1 67/1
f 76/1 77/1 68/1
f 81/1 77/1 76/1
f 81/1 82/1 77/1
f 86/1 82/1 81/1
f 86/1 87/1 82/1
f 91/1 87/1 86/1
f 91/1 92/1 87/1
f 102/1 92/1 91/1
f 102/1 103/1 92/1
f 111/1 103/1 102/1
f 111/1 112/1 103/1
f 120/1 112/1 111/1
f 120/1 121/1 112/1
f 135/1 121/1 120/1
f 135/1 136/1 121/1
f 2/1 136/1 135/1
f 2/1 5/1 136/1
f 25/1 6/1 24/1
f 25/1 8/1 6/1
f 26/1 8/1 25/1
f 26/1 10/1 8/1
f 27/1 10/1 26/1
f 27/1 12/1 10/1
f 28/1 12/1 27/1
f 28/1 13/1 12/1
f 100/1 13/1 28/1
f 100/1 96/1 13/1
f 20/1 30/1 21/1
f 20/1 29/1 30/1
f 70/1 29/1 20/1
f 70/1 71/1 29/1
f 79/1 71/1 70/1
f 79/1 75/1 71/1
f 84/1 75/1 79/1
f 84/1 66/1 75/1
f 89/1 66/1 84/1
f 89/1 64/1 66/1
f 94/1 64/1 89/1
f 94/1 59/1 64/1
f 105/1 59/1 94/1
f 105/1 57/1 59/1
f 114/1 57/1 105/1
f 114/1 52/1 57/1
f 199/1 52/1 114/1
f 199/1 198/1 52/1
f 187/1 198/1 199/1
f 187/1 186/1 198/1
f 189/1 186/1 187/1
f 189/1 191/1 186/1
f 256/1 191/1 189/1
f 256/1 255/1 191/1
f 262/1 255/1 256/1
f 262/1 261/1 255/1
f 223/1 261/1 262/1
f 223/1 218/1 261/1
f 214/1 218/1 223/1
f 214/1 213/1 218/1
f 203/1 213/1 214/1
f 203/1 204/1 213/1
f 177/1 204/1 203/1
f 177/1 174/1 204/1
f 176/1 174/1 177/1
f 176/1 173/1 174/1
f 178/1 173/1 176/1
f 178/1 175/1 173/1
f 32/1 9/1 31/1
f 32/1 7/1 9/1
f 136/1 7/1 32/1
f 136/1 5/1 7/1
f 36/1 24/1 35/1
f 36/1 25/1 24/1
f 37/1 25/1 36/1
f 37/1 26/1 25/1
f 38/1 26/1 37/1
f 38/1 27/1 26/1
f 39/1 27/1 38/1
f 39/1 28/1 27/1
f 107/1 28/1 39/1
f 107/1 100/1 28/1
f 11/1 31/1 9/1
f 11/1 40/1 31/1
f 15/1 40/1 11/1
f 15/1 48/1 40/1
f 14/1 48/1 15/1
f 14/1 128/1 48/1
f 98/1 128/1 14/1
f 98/1 129/1 128/1
f 44/1 35/1 43/1
f 44/1 36/1 35/1
f 45/1 36/1 44/1
f 45/1 37/1 36/1
f 46/1 37/1 45/1
f 46/1 38/1 37/1
f 47/1 38/1 46/1
f 47/1 39/1 38/1
f 109/1 39/1 47/1
f 109/1 107/1 39/1
f 50/1 48/1 49/1
f 50/1 40/1 48/1
f 137/1 40/1 50/1
f 137/1 31/1 40/1
f 122/1 31/1 137/1
f 122/1 32/1 31/1
f 121/1 32/1 122/1
f 121/1 136/1 32/1
f 49/1 52/1 50/1
f 49/1 51/1 52/1
f 123/1 51/1 49/1
f 123/1 115/1 51/1
f 124/1 115/1 123/1
f 124/1 126/1 115/1
f 21/1 43/1 18/1
f 21/1 44/1 43/1
f 30/1 44/1 21/1
f 30/1 45/1 44/1
f 54/1 45/1 30/1
f 54/1 46/1 45/1
f 55/1 46/1 54/1
f 55/1 47/1 46/1
f 116/1 47/1 55/1
f 116/1 109/1 47/1
f 51/1 57/1 52/1
f 51/1 56/1 57/1
f 115/1 56/1 51/1
f 115/1 106/1 56/1
f 126/1 106/1 115/1
f 126/1 144/1 106/1
f 56/1 59/1 57/1
f 56/1 58/1 59/1
f 106/1 58/1 56/1
f 106/1 95/1 58/1
f 144/1 95/1 106/1
f 144/1 142/1 95/1
f 54/1 62/1 55/1
f 54/1 61/1 62/1
f 30/1 61/1 54/1
f 30/1 29/1 61/1
f 58/1 64/1 59/1
f 58/1 63/1 64/1
f 95/1 63/1 58/1
f 95/1 90/1 63/1
f 142/1 90/1 95/1
f 142/1 140/1 90/1
f 63/1 66/1 64/1
f 63/1 65/1 66/1
f 90/1 65/1 63/1
f 90/1 85/1 65/1
f 140/1 85/1 90/1
f 140/1 138/1 85/1
f 68/1 17/1 16/1
f 68/1 69/1 17/1
f 77/1 69/1 68/1
f 77/1 78/1 69/1
f 82/1 78/1 77/1
f 82/1 83/1 78/1
f 87/1 83/1 82/1
f 87/1 88/1 83/1
f 92/1 88/1 87/1
f 92/1 93/1 88/1
f 103/1 93/1 92/1
f 103/1 104/1 93/1
f 112/1 104/1 103/1
f 112/1 113/1 104/1
f 121/1 113/1 112/1
f 121/1 122/1 113/1
f 61/1 73/1 62/1
f 61/1 72/1 73/1
f 29/1 72/1 61/1
f 29/1 71/1 72/1
f 65/1 75/1 66/1
f 65/1 74/1 75/1
f 85/1 74/1 65/1
f 85/1 80/1 74/1
f 138/1 80/1 85/1
f 138/1 133/1 80/1
f 74/1 71/1 75/1
f 74/1 72/1 71/1
f 80/1 72/1 74/1
f 80/1 73/1 72/1
f 133/1 73/1 80/1
f 133/1 131/1 73/1
f 62/1 116/1 55/1
f 62/1 118/1 116/1
f 73/1 118/1 62/1
f 73/1 131/1 118/1
f 123/1 129/1 124/1
f 123/1 128/1 129/1
f 49/1 128/1 123/1
f 49/1 48/1 128/1
f 166/1 164/1 163/1
f 166/1 167/1 164/1
f 172/1 167/1 166/1
f 172/1 169/1 167/1
f 205/1 169/1 172/1
f 205/1 201/1 169/1
f 206/1 201/1 205/1
f 206/1 211/1 201/1
f 243/1 211/1 206/1
f 243/1 248/1 211/1
f 252/1 248/1 243/1
f 252/1 251/1 248/1
f 242/1 251/1 252/1
f 242/1 238/1 251/1
f 241/1 238/1 242/1
f 241/1 237/1 238/1
f 240/1 237/1 241/1
f 240/1 239/1 237/1
f 169/1 168/1 167/1
f 169/1 170/1 168/1
f 201/1 170/1 169/1
f 201/1 200/1 170/1
f 211/1 200/1 201/1
f 211/1 210/1 200/1
f 248/1 210/1 211/1
f 248/1 247/1 210/1
f 251/1 247/1 248/1
f 251/1 253/1 247/1
f 238/1 253/1 251/1
f 238/1 235/1 253/1
f 237/1 235/1 238/1
f 237/1 234/1 235/1
f 239/1 234/1 237/1
f 239/1 236/1 234/1
f 168/1 164/1 167/1
f 168/1 171/1 164/1
f 173/1 171/1 168/1
f 173/1 175/1 171/1
f 170/1 173/1 168/1
f 170/1 174/1 173/1
f 200/1 174/1 170/1
f 200/1 204/1 174/1
f 212/1 204/1 200/1
f 212/1 213/1 204/1
f 219/1 213/1 212/1
f 219/1 218/1 213/1
f 263/1 218/1 219/1
f 263/1 261/1 218/1
f 259/1 261/1 263/1
f 259/1 255/1 261/1
f 192/1 255/1 259/1
f 192/1 191/1 255/1
f 185/1 191/1 192/1
f 185/1 186/1 191/1
f 197/1 186/1 185/1
f 197/1 198/1 186/1
f 50/1 198/1 197/1
f 50/1 52/1 198/1
f 180/1 163/1 179/1
f 180/1 166/1 163/1
f 181/1 166/1 180/1
f 181/1 172/1 166/1
f 202/1 172/1 181/1
f 202/1 205/1 172/1
f 215/1 205/1 202/1
f 215/1 216/1 205/1
f 222/1 216/1 215/1
f 222/1 221/1 216/1
f 266/1 221/1 222/1
f 266/1 265/1 221/1
f 257/1 265/1 266/1
f 257/1 258/1 265/1
f 188/1 258/1 257/1
f 188/1 190/1 258/1
f 182/1 190/1 188/1
f 182/1 183/1 190/1
f 194/1 183/1 182/1
f 194/1 195/1 183/1
f 113/1 195/1 194/1
f 113/1 122/1 195/1
f 196/1 183/1 195/1
f 196/1 184/1 183/1
f 197/1 184/1 196/1
f 197/1 185/1 184/1
f 196/1 50/1 197/1
f 196/1 137/1 50/1
f 195/1 137/1 196/1
f 195/1 122/1 137/1
f 217/1 219/1 212/1
f 217/1 220/1 219/1
f 216/1 220/1 217/1
f 216/1 221/1 220/1
f 227/1 225/1 224/1
f 227/1 228/1 225/1
f 233/1 228/1 227/1
f 233/1 230/1 228/1
f 254/1 230/1 233/1
f 254/1 249/1 230/1
f 244/1 249/1 254/1
f 244/1 245/1 249/1
f 207/1 245/1 244/1
f 207/1 208/1 245/1
f 216/1 208/1 207/1
f 216/1 217/1 208/1
f 230/1 229/1 228/1
f 230/1 231/1 229/1
f 249/1 231/1 230/1
f 249/1 250/1 231/1
f 245/1 250/1 249/1
f 245/1 246/1 250/1
f 208/1 246/1 245/1
f 208/1 209/1 246/1
f 217/1 209/1 208/1
f 217/1 212/1 209/1
f 229/1 225/1 228/1
f 229/1 232/1 225/1
f 234/1 232/1 229/1
f 234/1 236/1 232/1
f 231/1 234/1 229/1
f 231/1 235/1 234/1
f 250/1 235/1 231/1
f 250/1 253/1 235/1
f 246/1 253/1 250/1
f 246/1 247/1 253/1
f 209/1 247/1 246/1
f 209/1 210/1 247/1
f 212/1 210/1 209/1
f 212/1 200/1 210/1
f 241/1 224/1 240/1
f 241/1 227/1 224/1
f 242/1 227/1 241/1
f 242/1 233/1 227/1
f 252/1 233/1 242/1
f 252/1 254/1 233/1
f 243/1 254/1 252/1
f 243/1 244/1 254/1
f 206/1 244/1 243/1
f 206/1 207/1 244/1
f 205/1 207/1 206/1
f 205/1 216/1 207/1
f 193/1 185/1 192/1
f 193/1 184/1 185/1
f 190/1 184/1 193/1
f 190/1 183/1 184/1
f 259/1 193/1 192/1
f 259/1 260/1 193/1
f 263/1 260/1 259/1
f 263/1 264/1 260/1
f 219/1 264/1 263/1
f 219/1 220/1 264/1
f 260/1 190/1 193/1
f 260/1 258/1 190/1
f 264/1 258/1 260/1
f 264/1 265/1 258/1
f 220/1 265/1 264/1
f 220/1 221/1 265/1
f 3/1 1/1 2/1
f 2/1 135/1 3/1
f 120/1 3/1 135/1
f 120/1 111/1 3/1
f 102/1 3/1 111/1
f 102/1 91/1 3/1
f 86/1 3/1 91/1
f 86/1 81/1 3/1
f 76/1 3/1 81/1
f 76/1 67/1 3/1
f 60/1 3/1 67/1
f 60/1 53/1 3/1
f 41/1 3/1 53/1
f 41/1 33/1 3/1
f 22/1 3/1 33/1
f 22/1 1/1 3/1
f 164/1 165/1 163/1
f 164/1 171/1 165/1
f 175/1 165/1 171/1
f 175/1 178/1 165/1
f 179/1 165/1 178/1
f 179/1 163/1 165/1
f 225/1 226/1 224/1
f 225/1 232/1 226/1
f 236/1 226/1 232/1
f 236/1 239/1 226/1
f 240/1 226/1 239/1
f 240/1 224/1 226/1
usemtl mat_1
f 146/2 99/3 147/4
f 146/2 130/5 99/3
f 151/6 130/5 146/2
f 151/6 125/7 130/5
f 152/8 125/7 151/6
f 152/8 127/9 125/7
f 154/10 127/9 152/8
f 154/10 145/11 127/9
f 155/12 145/11 154/10
f 155/12 143/13 145/11
f 156/14 143/13 155/12
f 156/14 141/15 143/13
f 159/16 141/15 156/14
f 159/16 139/17 141/15
f 149/18 139/17 159/16
f 149/18 134/19 139/17
f 150/20 134/19 149/18
f 150/20 132/21 134/19
f 160/22 132/21 150/20
f 160/22 119/23 132/21
f 161/24 119/23 160/22
f 161/24 117/25 119/23
f 162/26 117/25 161/24
f 162/26 110/27 117/25
f 158/28 110/27 162/26
f 158/28 108/29 110/27
f 157/30 108/29 158/28
f 157/30 101/31 108/29
f 153/32 101/31 157/30
f 153/32 97/33 101/31
f 147/4 97/33 153/32
f 147/4 99/3 97/33
f 158/28 148/34 153/32
f 157/30 158/28 153/32
f 148/34 147/4 153/32
f 148/34 146/2 147/4
f 151/6 146/2 148/34
f 148/34 152/8 151/6
f 154/10 152/8 148/34
f 148/34 155/12 154/10
f 156/14 155/12 148/34
f 148/34 159/16 156/14
f 149/18 159/16 148/34
f 148/34 150/20 149/18
f 160/22 150/20 148/34
f 148/34 161/24 160/22
f 162/26 161/24 148/34
f 148/34 158/28 162/26
