# Blender v2.66 (sub 1) OBJ File: 'BR_Unown-Shiny48.blend'
# www.blender.org
mtllib BR_Unown-Shiny48.mtl
o unknown_w
v 0.386600 -0.350441 -2.912750
v 0.456026 -0.350441 -2.745140
v 0.000000 -0.379552 -2.654430
v 0.714344 -0.267538 -3.131740
v 0.842627 -0.267538 -2.822040
v 0.933336 -0.140535 -3.267760
v 0.975238 -0.140535 -3.166600
v 1.100940 -0.140535 -2.863120
v 0.855911 -0.140535 -3.345190
v 0.840317 0.232937 -3.205610
v 0.678627 0.254654 -3.097570
v 0.800495 0.254654 -2.803360
v 0.991221 0.232937 -2.841290
v -0.714344 -0.267538 -3.131740
v -0.933336 -0.140535 -3.267760
v -0.855911 -0.140535 -3.345190
v -0.808922 0.002890 -3.453050
v -0.648017 0.002890 -3.613950
v -0.623635 -0.140535 -3.577460
v 0.258318 -0.350441 -3.041030
v 0.477310 -0.267538 -3.368770
v 0.623635 -0.140535 -3.577460
v 0.648017 0.002890 -3.613950
v 0.808922 0.002890 -3.453050
v 0.623635 0.146315 -3.577460
v 0.855911 0.146315 -3.345190
v 0.561482 0.232937 -3.484450
v 0.453444 0.254654 -3.322760
v -0.855911 0.146315 -3.345190
v -0.623635 0.146315 -3.577460
v 1.143990 0.002890 -2.871680
v 1.143990 0.002890 -2.416580
v 1.100940 -0.140535 -2.425140
v 0.090709 -0.350441 -3.110450
v 0.167609 -0.267538 -3.497050
v 0.218991 -0.140535 -3.745070
v 0.227553 0.002890 -3.788120
v 0.218991 0.146315 -3.745070
v 0.197166 0.232937 -3.635350
v 0.159228 0.254654 -3.444620
v 1.100940 0.146315 -2.863120
v 1.100940 0.146315 -2.425140
v -0.090709 -0.350441 -3.110450
v -0.167609 -0.267538 -3.497050
v -0.218992 -0.140535 -3.745070
v 0.975238 0.146315 -3.166600
v -0.197166 0.232937 -3.635350
v -0.159228 0.254654 -3.444620
v 0.840317 0.232937 -2.082650
v 0.933336 0.146315 -2.020490
v 0.991221 0.232937 -2.446960
v 0.561482 0.232937 -1.803810
v 0.623636 0.146315 -1.710790
v -0.258318 -0.350441 -3.041030
v -0.477310 -0.267538 -3.368770
v -0.227553 0.002890 -3.788120
v -0.218992 0.146315 -3.745070
v -0.561482 0.232937 -3.484450
v -0.453444 0.254654 -3.322760
v 0.197167 0.232937 -1.652910
v 0.218992 0.146315 -1.543180
v -0.197166 0.232937 -1.652910
v -0.218991 0.146315 -1.543180
v -0.386600 -0.350441 -2.912750
v 0.933336 0.146315 -3.267760
v -0.840317 0.232937 -3.205610
v -0.678627 0.254654 -3.097570
v -0.561481 0.232937 -1.803810
v -0.623635 0.146315 -1.710790
v -0.840317 0.232937 -2.082650
v -0.933336 0.146315 -2.020490
v -0.456026 -0.350441 -2.745140
v -0.842627 -0.267538 -2.822040
v -1.100940 -0.140535 -2.863120
v -0.975238 -0.140535 -3.166600
v -1.143990 0.002890 -2.871680
v -1.056910 0.002890 -3.081910
v -1.100940 0.146315 -2.863120
v -0.975238 0.146315 -3.166600
v -0.991221 0.232937 -2.841290
v -0.800495 0.254654 -2.803360
v -0.991221 0.232937 -2.446960
v -1.100940 0.146315 -2.425140
v -0.456026 -0.350441 -2.563720
v -0.842627 -0.267538 -2.486820
v -1.100940 -0.140535 -2.425140
v -1.143990 0.002890 -2.416570
v -0.800495 0.254654 -2.484900
v -0.933336 0.146315 -3.267760
v -0.386600 -0.350441 -2.396110
v -0.714344 -0.267538 -2.177120
v -0.933336 -0.140535 -2.020490
v -0.969826 0.002890 -1.996110
v -0.678627 0.254654 -2.190680
v -0.258318 -0.350441 -2.267830
v -0.477309 -0.267538 -1.940080
v -0.623635 -0.140535 -1.710790
v -0.648017 0.002890 -1.674300
v -0.453444 0.254654 -1.965500
v -0.090709 -0.350441 -2.198400
v -0.167608 -0.267538 -1.811800
v -0.218991 -0.140535 -1.543180
v -0.227553 0.002890 -1.500140
v -0.159228 0.254654 -1.843630
v 0.678627 0.224706 -3.097570
v 0.678627 0.224706 -3.097570
v 0.800495 0.224706 -2.803360
v 0.800495 0.224706 -2.803360
v 0.453444 0.224706 -3.322760
v 0.453444 0.224706 -3.322760
v 0.090710 -0.350441 -2.198400
v 0.167609 -0.267538 -1.811800
v 0.218992 -0.140535 -1.543180
v 0.227554 0.002890 -1.500140
v 0.159229 0.254654 -1.843630
v 0.159228 0.224706 -3.444620
v 0.159228 0.224706 -3.444620
v -0.159228 0.224706 -3.444620
v -0.159228 0.224706 -3.444620
v 0.258318 -0.350441 -2.267830
v 0.477310 -0.267538 -1.940080
v 0.623636 -0.140535 -1.710790
v 0.648017 0.002890 -1.674300
v 0.453444 0.254654 -1.965500
v -0.453444 0.224706 -3.322760
v -0.453444 0.224706 -3.322760
v -0.678627 0.224706 -3.097570
v -0.678627 0.224706 -3.097570
v 0.386600 -0.350441 -2.396110
v 0.714344 -0.267538 -2.177120
v 0.933336 -0.140535 -2.020490
v 0.969827 0.002890 -1.996110
v 0.678627 0.254654 -2.190680
v -0.800495 0.224706 -2.803360
v -0.800495 0.224706 -2.803360
v -0.800495 0.224706 -2.484900
v -0.800495 0.224706 -2.484900
v 0.456026 -0.350441 -2.563720
v 0.842627 -0.267538 -2.486820
v 0.800495 0.254654 -2.484900
v -0.678627 0.224706 -2.190680
v -0.678627 0.224706 -2.190680
v -0.453444 0.224706 -1.965500
v -0.453444 0.224706 -1.965500
v -0.159228 0.224706 -1.843630
v -0.159228 0.224706 -1.843630
v 0.159229 0.224706 -1.843630
v 0.159229 0.224706 -1.843630
v 0.453444 0.224706 -1.965500
v 0.453444 0.224706 -1.965500
v 0.800495 0.224706 -2.484900
v 0.800495 0.224706 -2.484900
v 0.678627 0.224706 -2.190680
v 0.678627 0.224706 -2.190680
v 1.056910 0.002890 -3.081910
v 0.552795 0.381731 -2.521690
v 0.552795 0.381731 -2.741600
v 0.000000 0.480782 -2.631640
v -0.552795 0.381731 -2.521680
v -0.552795 0.381731 -2.741600
v 0.468637 0.381731 -2.318510
v 0.313133 0.381731 -2.163010
v 0.468637 0.381731 -2.944780
v 0.109958 0.381731 -2.078850
v -0.109957 0.381731 -2.078850
v -0.313133 0.381731 -2.163010
v 0.313133 0.381731 -3.100280
v 0.109958 0.381731 -3.184440
v -0.468637 0.381731 -2.318510
v -0.468637 0.381731 -2.944780
v -0.313133 0.381731 -3.100280
v -0.109958 0.381731 -3.184440
v -0.048598 -0.081282 -4.870830
v -0.097195 0.002892 -4.870830
v 0.000000 0.002892 -4.896720
v -0.084450 -0.143380 -4.799600
v -0.168899 0.002892 -4.799600
v -0.084450 0.149163 -4.799600
v -0.194859 0.002892 -4.709740
v -0.097430 0.171644 -4.709740
v -0.048598 0.087065 -4.870830
v -0.097429 -0.165861 -4.709740
v 0.084449 0.149163 -4.799600
v 0.097429 0.171644 -4.709740
v 0.048597 0.087065 -4.870830
v 0.168899 0.002892 -4.799600
v 0.194858 0.002892 -4.709740
v 0.097195 0.002892 -4.870830
v 0.048597 -0.081282 -4.870830
v 0.084449 -0.143379 -4.799600
v 0.097429 -0.165861 -4.709740
v -0.175203 0.002892 -4.617090
v -0.087602 0.154622 -4.617090
v 0.175203 0.002892 -4.617090
v 0.087601 -0.148839 -4.617090
v 0.087601 0.154622 -4.617090
v -0.087602 -0.148839 -4.617090
v -0.087111 -0.149904 -4.092200
v -0.174053 0.002890 -4.094770
v -0.087111 0.155684 -4.092200
v 0.087339 0.155752 -4.091280
v 0.174387 0.002890 -4.092940
v 0.087339 -0.149971 -4.091280
v -0.086948 -0.150259 -3.870360
v -0.173670 0.002890 -3.873780
v -0.086948 0.156039 -3.870360
v 0.087252 0.156128 -3.869140
v 0.174115 0.002890 -3.871340
v 0.087252 -0.150349 -3.869140
v 0.087514 -0.149216 -4.465260
v 0.174931 0.002891 -4.465810
v -0.087438 0.154976 -4.465570
v -0.174820 0.002891 -4.466420
v 0.087514 0.154999 -4.465260
v -0.087438 -0.149194 -4.465570
v 1.121250 0.000000 -3.180590
v 1.070520 0.153149 -3.251010
v 0.973362 0.153239 -3.395610
v 0.927256 0.000000 -3.469260
v 0.973362 -0.153239 -3.395610
v 1.070520 -0.153149 -3.251010
v 1.303150 0.000000 -3.272950
v 1.262290 0.152496 -3.350360
v 1.180410 0.152544 -3.505290
v 1.139430 0.000000 -3.582740
v 1.180410 -0.152544 -3.505290
v 1.262290 -0.152496 -3.350360
v 1.599420 0.000000 -3.611940
v 1.525130 -0.151729 -3.658340
v 1.376510 -0.151729 -3.751130
v 1.302190 0.000000 -3.797520
v 1.376510 0.151730 -3.751130
v 1.525130 0.151729 -3.658340
v 1.577930 -0.151730 -3.835550
v 1.662360 0.000001 -3.812170
v 1.409080 -0.151730 -3.882300
v 1.324660 0.000001 -3.905670
v 1.409080 0.151731 -3.882300
v 1.577930 0.151731 -3.835550
v 1.412260 -0.152114 -3.483630
v 1.471450 0.000000 -3.419090
v 1.293800 -0.152138 -3.612740
v 1.234550 0.000000 -3.677270
v 1.293800 0.152138 -3.612740
v 1.412260 0.152114 -3.483630
v 1.449650 -0.084172 -4.112250
v 1.401060 0.000002 -4.113220
v 1.498760 0.000002 -4.137150
v 1.412370 -0.146269 -4.041750
v 1.327940 0.000002 -4.043440
v 1.412370 0.146273 -4.041750
v 1.300180 0.000002 -3.954120
v 1.397590 0.168754 -3.952170
v 1.449650 0.084175 -4.112250
v 1.397590 -0.168751 -3.952170
v 1.581240 0.146273 -4.038350
v 1.592410 0.168754 -3.948250
v 1.546820 0.084175 -4.110290
v 1.665670 0.000002 -4.036650
v 1.689820 0.000002 -3.946290
v 1.595410 0.000002 -4.109310
v 1.546820 -0.084172 -4.110290
v 1.581240 -0.146269 -4.038350
v 1.592410 -0.168751 -3.948250
v -1.070520 0.153149 -3.251010
v -1.121250 0.000000 -3.180590
v -0.973362 0.153239 -3.395600
v -0.927256 0.000000 -3.469260
v -0.973362 -0.153239 -3.395600
v -1.070520 -0.153149 -3.251010
v -1.262400 0.152496 -3.349400
v -1.302950 0.000000 -3.271820
v -1.181130 0.152544 -3.504660
v -1.140460 0.000000 -3.582270
v -1.181130 -0.152544 -3.504660
v -1.262400 -0.152496 -3.349400
v -1.654820 0.000001 -3.823120
v -1.569440 -0.151730 -3.842760
v -1.398700 -0.151730 -3.882040
v -1.313330 0.000001 -3.901680
v -1.398700 0.151731 -3.882040
v -1.569440 0.151731 -3.842760
v -1.522980 -0.151729 -3.660840
v -1.597740 0.000000 -3.615180
v -1.373440 -0.151729 -3.752140
v -1.298660 0.000000 -3.797770
v -1.373440 0.151730 -3.752140
v -1.522980 0.151729 -3.660840
v -1.471950 0.000000 -3.421290
v -1.412000 -0.152114 -3.485120
v -1.291990 -0.152138 -3.612800
v -1.231970 0.000000 -3.676620
v -1.291990 0.152138 -3.612800
v -1.412000 0.152114 -3.485120
v -1.483230 0.000002 -4.140670
v -1.386090 0.000002 -4.114600
v -1.434680 -0.084172 -4.114690
v -1.314520 0.000002 -4.043220
v -1.398970 -0.146269 -4.043380
v -1.386160 0.168754 -3.953500
v -1.288730 0.000002 -3.953320
v -1.398970 0.146273 -4.043380
v -1.434680 0.084175 -4.114690
v -1.386160 -0.168751 -3.953500
v -1.581010 0.168754 -3.953870
v -1.567860 0.146273 -4.043700
v -1.531880 0.084175 -4.114870
v -1.678440 0.000002 -3.954050
v -1.652310 0.000002 -4.043860
v -1.580480 0.000002 -4.114960
v -1.531880 -0.084172 -4.114870
v -1.581010 -0.168751 -3.953870
v -1.567860 -0.146269 -4.043700
v 0.087427 0.155375 -4.278270
v -0.087275 0.155330 -4.278880
v -0.174437 0.002891 -4.280590
v -0.087275 -0.149549 -4.278880
v 0.087427 -0.149594 -4.278270
v 0.174659 0.002891 -4.279380
vt 0.000000 0.000000
vt 0.932109 0.915114
vt 0.984071 0.877691
vt 0.932109 0.880601
vt 0.984071 0.915478
vt 0.866442 0.946999
vt 0.923613 0.952125
vt 0.745106 0.971404
vt 0.783049 0.979707
vt 0.586572 0.984611
vt 0.596287 0.991571
vt 0.414977 0.984611
vt 0.403711 0.991571
vt 0.256444 0.971404
vt 0.216949 0.979707
vt 0.135107 0.947000
vt 0.076385 0.952125
vt 0.069441 0.915114
vt 0.015927 0.915479
vt 0.069440 0.880601
vt 0.015927 0.877691
vt 0.135107 0.848716
vt 0.076384 0.841044
vt 0.256444 0.824312
vt 0.216949 0.813462
vt 0.414977 0.811104
vt 0.403711 0.801599
vt 0.586572 0.811104
vt 0.596287 0.801599
vt 0.745106 0.824312
vt 0.783049 0.813462
vt 0.866442 0.848716
vt 0.923613 0.841044
vt 0.499999 0.898114
usemtl mat_0
s 1
f 2/1 1/1 4/1
f 4/1 5/1 2/1
f 7/1 5/1 4/1
f 7/1 8/1 5/1
f 155/1 8/1 7/1
f 155/1 31/1 8/1
f 46/1 31/1 155/1
f 46/1 41/1 31/1
f 10/1 41/1 46/1
f 10/1 13/1 41/1
f 11/1 13/1 10/1
f 11/1 12/1 13/1
f 105/1 12/1 11/1
f 105/1 107/1 12/1
f 19/1 17/1 18/1
f 19/1 16/1 17/1
f 55/1 16/1 19/1
f 55/1 14/1 16/1
f 54/1 14/1 55/1
f 54/1 64/1 14/1
f 21/1 1/1 20/1
f 4/1 1/1 21/1
f 22/1 4/1 21/1
f 22/1 9/1 4/1
f 23/1 9/1 22/1
f 23/1 24/1 9/1
f 25/1 24/1 23/1
f 25/1 26/1 24/1
f 27/1 26/1 25/1
f 27/1 10/1 26/1
f 28/1 10/1 27/1
f 28/1 11/1 10/1
f 109/1 11/1 28/1
f 109/1 105/1 11/1
f 17/1 30/1 18/1
f 17/1 29/1 30/1
f 268/1 29/1 17/1
f 268/1 267/1 29/1
f 274/1 267/1 268/1
f 274/1 273/1 267/1
f 292/1 273/1 274/1
f 292/1 293/1 273/1
f 286/1 293/1 292/1
f 286/1 287/1 293/1
f 280/1 287/1 286/1
f 280/1 281/1 287/1
f 301/1 281/1 280/1
f 301/1 300/1 281/1
f 298/1 300/1 301/1
f 298/1 302/1 300/1
f 296/1 302/1 298/1
f 296/1 303/1 302/1
f 33/1 31/1 32/1
f 33/1 8/1 31/1
f 139/1 8/1 33/1
f 139/1 5/1 8/1
f 138/1 5/1 139/1
f 138/1 2/1 5/1
f 35/1 20/1 34/1
f 35/1 21/1 20/1
f 36/1 21/1 35/1
f 36/1 22/1 21/1
f 37/1 22/1 36/1
f 37/1 23/1 22/1
f 38/1 23/1 37/1
f 38/1 25/1 23/1
f 39/1 25/1 38/1
f 39/1 27/1 25/1
f 40/1 27/1 39/1
f 40/1 28/1 27/1
f 116/1 28/1 40/1
f 116/1 109/1 28/1
f 41/1 32/1 31/1
f 41/1 42/1 32/1
f 13/1 42/1 41/1
f 13/1 51/1 42/1
f 12/1 51/1 13/1
f 12/1 140/1 51/1
f 107/1 140/1 12/1
f 107/1 151/1 140/1
f 44/1 34/1 43/1
f 44/1 35/1 34/1
f 45/1 35/1 44/1
f 45/1 36/1 35/1
f 204/1 36/1 45/1
f 204/1 209/1 36/1
f 198/1 209/1 204/1
f 198/1 203/1 209/1
f 317/1 203/1 198/1
f 317/1 318/1 203/1
f 215/1 318/1 317/1
f 215/1 210/1 318/1
f 197/1 210/1 215/1
f 197/1 195/1 210/1
f 182/1 195/1 197/1
f 182/1 191/1 195/1
f 176/1 191/1 182/1
f 176/1 190/1 191/1
f 173/1 190/1 176/1
f 173/1 189/1 190/1
f 39/1 48/1 40/1
f 39/1 47/1 48/1
f 38/1 47/1 39/1
f 38/1 57/1 47/1
f 207/1 57/1 38/1
f 207/1 206/1 57/1
f 201/1 206/1 207/1
f 201/1 200/1 206/1
f 314/1 200/1 201/1
f 314/1 315/1 200/1
f 214/1 315/1 314/1
f 214/1 212/1 315/1
f 196/1 212/1 214/1
f 196/1 193/1 212/1
f 184/1 193/1 196/1
f 184/1 180/1 193/1
f 183/1 180/1 184/1
f 183/1 178/1 180/1
f 185/1 178/1 183/1
f 185/1 181/1 178/1
f 51/1 50/1 42/1
f 51/1 49/1 50/1
f 140/1 49/1 51/1
f 140/1 133/1 49/1
f 151/1 133/1 140/1
f 151/1 153/1 133/1
f 49/1 53/1 50/1
f 49/1 52/1 53/1
f 133/1 52/1 49/1
f 133/1 124/1 52/1
f 153/1 124/1 133/1
f 153/1 149/1 124/1
f 55/1 43/1 54/1
f 55/1 44/1 43/1
f 19/1 44/1 55/1
f 19/1 45/1 44/1
f 18/1 45/1 19/1
f 18/1 56/1 45/1
f 30/1 56/1 18/1
f 30/1 57/1 56/1
f 58/1 57/1 30/1
f 58/1 47/1 57/1
f 59/1 47/1 58/1
f 59/1 48/1 47/1
f 125/1 48/1 59/1
f 125/1 118/1 48/1
f 52/1 61/1 53/1
f 52/1 60/1 61/1
f 124/1 60/1 52/1
f 124/1 115/1 60/1
f 149/1 115/1 124/1
f 149/1 147/1 115/1
f 60/1 63/1 61/1
f 60/1 62/1 63/1
f 115/1 62/1 60/1
f 115/1 104/1 62/1
f 147/1 104/1 115/1
f 147/1 145/1 104/1
f 58/1 67/1 59/1
f 58/1 66/1 67/1
f 30/1 66/1 58/1
f 30/1 29/1 66/1
f 62/1 69/1 63/1
f 62/1 68/1 69/1
f 104/1 68/1 62/1
f 104/1 99/1 68/1
f 145/1 99/1 104/1
f 145/1 143/1 99/1
f 68/1 71/1 69/1
f 68/1 70/1 71/1
f 99/1 70/1 68/1
f 99/1 94/1 70/1
f 143/1 94/1 99/1
f 143/1 141/1 94/1
f 73/1 64/1 72/1
f 73/1 14/1 64/1
f 74/1 14/1 73/1
f 74/1 75/1 14/1
f 76/1 75/1 74/1
f 76/1 77/1 75/1
f 78/1 77/1 76/1
f 78/1 79/1 77/1
f 80/1 79/1 78/1
f 80/1 66/1 79/1
f 81/1 66/1 80/1
f 81/1 67/1 66/1
f 134/1 67/1 81/1
f 134/1 127/1 67/1
f 70/1 83/1 71/1
f 70/1 82/1 83/1
f 94/1 82/1 70/1
f 94/1 88/1 82/1
f 141/1 88/1 94/1
f 141/1 136/1 88/1
f 82/1 78/1 83/1
f 82/1 80/1 78/1
f 88/1 80/1 82/1
f 88/1 81/1 80/1
f 136/1 81/1 88/1
f 136/1 134/1 81/1
f 85/1 72/1 84/1
f 85/1 73/1 72/1
f 86/1 73/1 85/1
f 86/1 74/1 73/1
f 87/1 74/1 86/1
f 87/1 76/1 74/1
f 83/1 76/1 87/1
f 83/1 78/1 76/1
f 91/1 84/1 90/1
f 91/1 85/1 84/1
f 92/1 85/1 91/1
f 92/1 86/1 85/1
f 93/1 86/1 92/1
f 93/1 87/1 86/1
f 71/1 87/1 93/1
f 71/1 83/1 87/1
f 96/1 90/1 95/1
f 96/1 91/1 90/1
f 97/1 91/1 96/1
f 97/1 92/1 91/1
f 98/1 92/1 97/1
f 98/1 93/1 92/1
f 69/1 93/1 98/1
f 69/1 71/1 93/1
f 101/1 95/1 100/1
f 101/1 96/1 95/1
f 102/1 96/1 101/1
f 102/1 97/1 96/1
f 103/1 97/1 102/1
f 103/1 98/1 97/1
f 63/1 98/1 103/1
f 63/1 69/1 98/1
f 112/1 100/1 111/1
f 112/1 101/1 100/1
f 113/1 101/1 112/1
f 113/1 102/1 101/1
f 114/1 102/1 113/1
f 114/1 103/1 102/1
f 61/1 103/1 114/1
f 61/1 63/1 103/1
f 48/1 118/1 116/1
f 40/1 48/1 116/1
f 121/1 111/1 120/1
f 121/1 112/1 111/1
f 122/1 112/1 121/1
f 122/1 113/1 112/1
f 123/1 113/1 122/1
f 123/1 114/1 113/1
f 53/1 114/1 123/1
f 53/1 61/1 114/1
f 67/1 127/1 125/1
f 59/1 67/1 125/1
f 130/1 120/1 129/1
f 130/1 121/1 120/1
f 131/1 121/1 130/1
f 131/1 122/1 121/1
f 132/1 122/1 131/1
f 132/1 123/1 122/1
f 50/1 123/1 132/1
f 50/1 53/1 123/1
f 139/1 129/1 138/1
f 139/1 130/1 129/1
f 33/1 130/1 139/1
f 33/1 131/1 130/1
f 32/1 131/1 33/1
f 32/1 132/1 131/1
f 42/1 132/1 32/1
f 42/1 50/1 132/1
f 176/1 174/1 173/1
f 176/1 177/1 174/1
f 182/1 177/1 176/1
f 182/1 179/1 177/1
f 197/1 179/1 182/1
f 197/1 192/1 179/1
f 215/1 192/1 197/1
f 215/1 213/1 192/1
f 317/1 213/1 215/1
f 317/1 316/1 213/1
f 198/1 316/1 317/1
f 198/1 199/1 316/1
f 204/1 199/1 198/1
f 204/1 205/1 199/1
f 45/1 205/1 204/1
f 45/1 56/1 205/1
f 179/1 178/1 177/1
f 179/1 180/1 178/1
f 192/1 180/1 179/1
f 192/1 193/1 180/1
f 213/1 193/1 192/1
f 213/1 212/1 193/1
f 316/1 212/1 213/1
f 316/1 315/1 212/1
f 199/1 315/1 316/1
f 199/1 200/1 315/1
f 205/1 200/1 199/1
f 205/1 206/1 200/1
f 56/1 206/1 205/1
f 56/1 57/1 206/1
f 174/1 177/1 178/1
f 181/1 174/1 178/1
f 184/1 186/1 183/1
f 184/1 187/1 186/1
f 196/1 187/1 184/1
f 196/1 194/1 187/1
f 214/1 194/1 196/1
f 214/1 211/1 194/1
f 314/1 211/1 214/1
f 314/1 319/1 211/1
f 201/1 319/1 314/1
f 201/1 202/1 319/1
f 207/1 202/1 201/1
f 207/1 208/1 202/1
f 38/1 208/1 207/1
f 38/1 37/1 208/1
f 186/1 185/1 183/1
f 186/1 188/1 185/1
f 190/1 188/1 186/1
f 190/1 189/1 188/1
f 187/1 190/1 186/1
f 187/1 191/1 190/1
f 194/1 191/1 187/1
f 194/1 195/1 191/1
f 211/1 195/1 194/1
f 211/1 210/1 195/1
f 319/1 210/1 211/1
f 319/1 318/1 210/1
f 202/1 318/1 319/1
f 202/1 203/1 318/1
f 208/1 203/1 202/1
f 208/1 209/1 203/1
f 37/1 209/1 208/1
f 37/1 36/1 209/1
f 223/1 216/1 222/1
f 223/1 217/1 216/1
f 224/1 217/1 223/1
f 224/1 218/1 217/1
f 225/1 218/1 224/1
f 225/1 219/1 218/1
f 226/1 219/1 225/1
f 226/1 220/1 219/1
f 227/1 220/1 226/1
f 227/1 221/1 220/1
f 222/1 221/1 227/1
f 222/1 216/1 221/1
f 234/1 228/1 229/1
f 234/1 235/1 228/1
f 264/1 235/1 234/1
f 264/1 260/1 235/1
f 263/1 260/1 264/1
f 263/1 259/1 260/1
f 262/1 259/1 263/1
f 262/1 261/1 259/1
f 236/1 229/1 230/1
f 236/1 234/1 229/1
f 255/1 234/1 236/1
f 255/1 264/1 234/1
f 249/1 264/1 255/1
f 249/1 263/1 264/1
f 246/1 263/1 249/1
f 246/1 262/1 263/1
f 237/1 230/1 231/1
f 237/1 236/1 230/1
f 252/1 236/1 237/1
f 252/1 255/1 236/1
f 250/1 255/1 252/1
f 250/1 249/1 255/1
f 247/1 249/1 250/1
f 247/1 246/1 249/1
f 238/1 231/1 232/1
f 238/1 237/1 231/1
f 253/1 237/1 238/1
f 253/1 252/1 237/1
f 251/1 252/1 253/1
f 251/1 250/1 252/1
f 254/1 250/1 251/1
f 254/1 247/1 250/1
f 239/1 232/1 233/1
f 239/1 238/1 232/1
f 257/1 238/1 239/1
f 257/1 253/1 238/1
f 256/1 253/1 257/1
f 256/1 251/1 253/1
f 258/1 251/1 256/1
f 258/1 254/1 251/1
f 235/1 233/1 228/1
f 235/1 239/1 233/1
f 260/1 239/1 235/1
f 260/1 257/1 239/1
f 259/1 257/1 260/1
f 259/1 256/1 257/1
f 261/1 256/1 259/1
f 261/1 258/1 256/1
f 228/1 240/1 229/1
f 228/1 241/1 240/1
f 233/1 241/1 228/1
f 233/1 245/1 241/1
f 232/1 245/1 233/1
f 232/1 244/1 245/1
f 231/1 244/1 232/1
f 231/1 243/1 244/1
f 230/1 243/1 231/1
f 230/1 242/1 243/1
f 229/1 242/1 230/1
f 229/1 240/1 242/1
f 241/1 227/1 240/1
f 241/1 222/1 227/1
f 245/1 222/1 241/1
f 245/1 223/1 222/1
f 244/1 223/1 245/1
f 244/1 224/1 223/1
f 243/1 224/1 244/1
f 243/1 225/1 224/1
f 242/1 225/1 243/1
f 242/1 226/1 225/1
f 240/1 226/1 242/1
f 240/1 227/1 226/1
f 155/1 217/1 46/1
f 155/1 216/1 217/1
f 7/1 216/1 155/1
f 7/1 221/1 216/1
f 24/1 220/1 9/1
f 24/1 219/1 220/1
f 26/1 219/1 24/1
f 26/1 218/1 219/1
f 272/1 265/1 271/1
f 272/1 266/1 265/1
f 276/1 266/1 272/1
f 276/1 270/1 266/1
f 275/1 270/1 276/1
f 275/1 269/1 270/1
f 274/1 269/1 275/1
f 274/1 268/1 269/1
f 273/1 265/1 267/1
f 273/1 271/1 265/1
f 293/1 271/1 273/1
f 293/1 294/1 271/1
f 287/1 294/1 293/1
f 287/1 288/1 294/1
f 281/1 288/1 287/1
f 281/1 282/1 288/1
f 300/1 282/1 281/1
f 300/1 305/1 282/1
f 302/1 305/1 300/1
f 302/1 306/1 305/1
f 303/1 306/1 302/1
f 303/1 307/1 306/1
f 283/1 277/1 278/1
f 283/1 284/1 277/1
f 290/1 284/1 283/1
f 290/1 289/1 284/1
f 276/1 289/1 290/1
f 276/1 272/1 289/1
f 285/1 278/1 279/1
f 285/1 283/1 278/1
f 291/1 283/1 285/1
f 291/1 290/1 283/1
f 275/1 290/1 291/1
f 275/1 276/1 290/1
f 286/1 279/1 280/1
f 286/1 285/1 279/1
f 292/1 285/1 286/1
f 292/1 291/1 285/1
f 274/1 291/1 292/1
f 274/1 275/1 291/1
f 284/1 282/1 277/1
f 284/1 288/1 282/1
f 289/1 288/1 284/1
f 289/1 294/1 288/1
f 272/1 294/1 289/1
f 272/1 271/1 294/1
f 298/1 297/1 296/1
f 298/1 299/1 297/1
f 301/1 299/1 298/1
f 301/1 304/1 299/1
f 280/1 304/1 301/1
f 280/1 279/1 304/1
f 306/1 308/1 305/1
f 306/1 309/1 308/1
f 307/1 309/1 306/1
f 307/1 310/1 309/1
f 309/1 312/1 308/1
f 309/1 313/1 312/1
f 310/1 313/1 309/1
f 310/1 311/1 313/1
f 299/1 311/1 297/1
f 299/1 313/1 311/1
f 304/1 313/1 299/1
f 304/1 312/1 313/1
f 279/1 312/1 304/1
f 279/1 278/1 312/1
f 277/1 312/1 278/1
f 277/1 308/1 312/1
f 282/1 308/1 277/1
f 282/1 305/1 308/1
f 266/1 79/1 265/1
f 266/1 77/1 79/1
f 270/1 77/1 266/1
f 270/1 75/1 77/1
f 268/1 17/1 16/1
f 269/1 268/1 16/1
f 3/1 1/1 2/1
f 2/1 138/1 3/1
f 129/1 3/1 138/1
f 129/1 120/1 3/1
f 111/1 3/1 120/1
f 111/1 100/1 3/1
f 95/1 3/1 100/1
f 95/1 90/1 3/1
f 84/1 3/1 90/1
f 84/1 72/1 3/1
f 64/1 3/1 72/1
f 64/1 54/1 3/1
f 43/1 3/1 54/1
f 43/1 34/1 3/1
f 20/1 3/1 34/1
f 20/1 1/1 3/1
f 6/1 7/1 4/1
f 6/1 221/1 7/1
f 220/1 221/1 6/1
f 6/1 9/1 220/1
f 4/1 9/1 6/1
f 15/1 16/1 14/1
f 15/1 269/1 16/1
f 270/1 269/1 15/1
f 15/1 75/1 270/1
f 14/1 75/1 15/1
f 65/1 10/1 46/1
f 65/1 26/1 10/1
f 218/1 26/1 65/1
f 65/1 217/1 218/1
f 46/1 217/1 65/1
f 89/1 79/1 66/1
f 89/1 265/1 79/1
f 267/1 265/1 89/1
f 89/1 29/1 267/1
f 66/1 29/1 89/1
f 174/1 175/1 173/1
f 174/1 181/1 175/1
f 185/1 175/1 181/1
f 185/1 188/1 175/1
f 189/1 175/1 188/1
f 189/1 173/1 175/1
f 247/1 248/1 246/1
f 247/1 254/1 248/1
f 258/1 248/1 254/1
f 258/1 261/1 248/1
f 262/1 248/1 261/1
f 262/1 246/1 248/1
f 297/1 295/1 296/1
f 297/1 311/1 295/1
f 310/1 295/1 311/1
f 310/1 307/1 295/1
f 303/1 295/1 307/1
f 303/1 296/1 295/1
usemtl mat_1
f 156/2 108/3 157/4
f 156/2 152/5 108/3
f 161/6 152/5 156/2
f 161/6 154/7 152/5
f 162/8 154/7 161/6
f 162/8 150/9 154/7
f 164/10 150/9 162/8
f 164/10 148/11 150/9
f 165/12 148/11 164/10
f 165/12 146/13 148/11
f 166/14 146/13 165/12
f 166/14 144/15 146/13
f 169/16 144/15 166/14
f 169/16 142/17 144/15
f 159/18 142/17 169/16
f 159/18 137/19 142/17
f 160/20 137/19 159/18
f 160/20 135/21 137/19
f 170/22 135/21 160/20
f 170/22 128/23 135/21
f 171/24 128/23 170/22
f 171/24 126/25 128/23
f 172/26 126/25 171/24
f 172/26 119/27 126/25
f 168/28 119/27 172/26
f 168/28 117/29 119/27
f 167/30 117/29 168/28
f 167/30 110/31 117/29
f 163/32 110/31 167/30
f 163/32 106/33 110/31
f 157/4 106/33 163/32
f 157/4 108/3 106/33
f 168/28 158/34 163/32
f 167/30 168/28 163/32
f 158/34 157/4 163/32
f 158/34 156/2 157/4
f 161/6 156/2 158/34
f 158/34 162/8 161/6
f 164/10 162/8 158/34
f 158/34 165/12 164/10
f 166/14 165/12 158/34
f 158/34 169/16 166/14
f 159/18 169/16 158/34
f 158/34 160/20 159/18
f 170/22 160/20 158/34
f 158/34 171/24 170/22
f 172/26 171/24 158/34
f 158/34 168/28 172/26
