# Blender v2.66 (sub 1) OBJ File: 'BR_Unown-Shiny50.blend'
# www.blender.org
mtllib BR_Unown-Shiny50.mtl
o unknown_x
v 0.386600 -0.354441 -2.132620
v 0.456026 -0.354441 -1.965010
v 0.000000 -0.383552 -1.874300
v 0.714344 -0.271538 -2.351610
v 0.842627 -0.271538 -2.041910
v 0.933336 -0.144535 -2.487630
v 1.100940 -0.144535 -2.082990
v 0.969826 -0.001110 -2.512020
v 1.143990 -0.001110 -2.091550
v 0.933336 0.142315 -2.487630
v 1.100940 0.142315 -2.082990
v 0.840317 0.228937 -2.425480
v 0.678627 0.250654 -2.317440
v 0.800495 0.250654 -2.023230
v 0.991221 0.228937 -2.061170
v -0.714344 -0.271538 -2.351610
v -0.933336 -0.144535 -2.487630
v -0.623635 -0.144535 -2.797330
v -0.477310 -0.271538 -2.588640
v 0.453444 0.250654 -1.185370
v 0.678627 0.250654 -1.410560
v 0.678627 0.220706 -1.410560
v 0.678627 0.220706 -1.410560
v 0.453444 0.220706 -1.185370
v 0.453444 0.220706 -1.185370
v 0.258318 -0.354441 -2.260900
v 0.477310 -0.271538 -2.588640
v 0.623635 -0.144535 -2.797330
v 0.800495 0.250654 -1.704770
v 0.800495 0.220706 -1.704770
v 0.800495 0.220706 -1.704770
v 0.800495 0.220706 -2.023230
v 0.800495 0.220706 -2.023230
v 0.561482 0.228937 -2.704320
v 0.453444 0.250654 -2.542630
v 0.159229 0.250654 -1.063500
v 0.159229 0.220706 -1.063500
v 0.159229 0.220706 -1.063500
v 1.143990 -0.001110 -1.636450
v 1.100940 -0.144535 -1.645010
v 0.090709 -0.354441 -2.330320
v 0.167609 -0.271538 -2.716930
v 0.218991 -0.144535 -2.964940
v 0.227553 -0.001110 -3.007990
v 0.648017 -0.001110 -2.833830
v 0.218991 0.142315 -2.964940
v 0.623635 0.142315 -2.797330
v 0.197166 0.228937 -2.855220
v 0.159228 0.250654 -2.664490
v 1.100940 0.142315 -1.645010
v -0.090709 -0.354441 -2.330320
v -0.167609 -0.271538 -2.716930
v -0.218992 -0.144535 -2.964940
v -0.227554 -0.001110 -3.007990
v -0.218992 0.142315 -2.964940
v -0.197166 0.228937 -2.855220
v -0.159228 0.250654 -2.664490
v 0.840317 0.228937 -1.302520
v 0.933336 0.142315 -1.240360
v 0.991221 0.228937 -1.666830
v 0.561482 0.228937 -1.023680
v 0.623635 0.142315 -0.930663
v -0.258318 -0.354441 -2.260900
v -0.648017 -0.001110 -2.833820
v -0.623635 0.142315 -2.797330
v -0.561482 0.228937 -2.704320
v -0.453444 0.250654 -2.542630
v 0.197167 0.228937 -0.872778
v 0.218992 0.142315 -0.763055
v -0.197166 0.228937 -0.872778
v -0.218991 0.142315 -0.763054
v -0.386600 -0.354441 -2.132620
v -0.840317 0.228937 -2.425480
v -0.678627 0.250654 -2.317440
v -0.561481 0.228937 -1.023680
v -0.623635 0.142315 -0.930663
v -0.840317 0.228937 -1.302520
v -0.933336 0.142315 -1.240360
v -0.456026 -0.354441 -1.965010
v -0.842627 -0.271538 -2.041910
v -1.100940 -0.144535 -2.082990
v -1.143990 -0.001110 -2.091550
v -0.969826 -0.001110 -2.512020
v -1.100940 0.142315 -2.082990
v -0.933336 0.142315 -2.487630
v -0.991221 0.228937 -2.061160
v -0.800495 0.250654 -2.023230
v -0.991221 0.228937 -1.666830
v -1.100940 0.142315 -1.645010
v -0.456026 -0.354441 -1.783590
v -0.842627 -0.271538 -1.706690
v -1.100940 -0.144535 -1.645010
v -1.143990 -0.001110 -1.636450
v -0.800495 0.250654 -1.704770
v -0.386600 -0.354441 -1.615980
v -0.714344 -0.271538 -1.396990
v -0.933336 -0.144535 -1.240360
v -0.969826 -0.001110 -1.215980
v -0.678627 0.250654 -1.410550
v -0.258318 -0.354441 -1.487700
v -0.477309 -0.271538 -1.159950
v -0.623635 -0.144535 -0.930663
v -0.159228 0.250654 -1.063500
v -0.159228 0.220706 -1.063500
v -0.159228 0.220706 -1.063500
v -0.453444 0.250654 -1.185370
v -0.090709 -0.354441 -1.418270
v -0.167608 -0.271538 -1.031670
v -0.218991 -0.144535 -0.763054
v -0.227553 -0.001110 -0.720011
v -0.648017 -0.001110 -0.894173
v 0.678627 0.220706 -2.317440
v 0.678627 0.220706 -2.317440
v 0.453444 0.220706 -2.542630
v 0.453444 0.220706 -2.542630
v 0.090710 -0.354441 -1.418270
v 0.167609 -0.271538 -1.031670
v 0.218992 -0.144535 -0.763055
v 0.227554 -0.001110 -0.720011
v 0.159228 0.220706 -2.664490
v 0.159228 0.220706 -2.664490
v -0.159228 0.220706 -2.664490
v -0.159228 0.220706 -2.664490
v 0.258318 -0.354441 -1.487700
v 0.477310 -0.271538 -1.159950
v 0.623635 -0.144535 -0.930663
v 0.648018 -0.001110 -0.894173
v -0.453444 0.220706 -2.542630
v -0.453444 0.220706 -2.542630
v -0.678627 0.220706 -2.317440
v -0.678627 0.220706 -2.317440
v 0.386600 -0.354441 -1.615980
v 0.714344 -0.271538 -1.396990
v 0.933336 -0.144535 -1.240360
v -0.453444 0.220706 -1.185370
v -0.453444 0.220706 -1.185370
v -0.800495 0.220706 -2.023230
v -0.800495 0.220706 -2.023230
v -0.800495 0.220706 -1.704770
v -0.800495 0.220706 -1.704770
v 0.456026 -0.354441 -1.783590
v 0.842627 -0.271538 -1.706690
v 0.969826 -0.001110 -1.215980
v -0.678627 0.220706 -1.410550
v -0.678627 0.220706 -1.410550
v 0.552795 0.377731 -1.741560
v 0.552795 0.377731 -1.961470
v 0.000000 0.476782 -1.851510
v -0.552795 0.377731 -1.741560
v -0.552795 0.377731 -1.961470
v 0.468637 0.377731 -1.538380
v 0.313133 0.377731 -1.382880
v 0.468637 0.377731 -2.164650
v 0.109958 0.377731 -1.298720
v -0.109957 0.377731 -1.298720
v -0.313133 0.377731 -1.382880
v 0.313133 0.377731 -2.320150
v 0.109958 0.377731 -2.404310
v -0.468637 0.377731 -1.538380
v -0.468637 0.377731 -2.164650
v -0.313133 0.377731 -2.320150
v -0.109958 0.377731 -2.404310
v 1.871730 -0.085282 -2.727830
v 1.884530 -0.001108 -2.774710
v 1.880160 -0.001108 -2.679030
v 1.812450 -0.147380 -2.785430
v 1.834700 -0.001108 -2.866890
v 1.812450 0.145163 -2.785430
v 1.754860 -0.001108 -2.911370
v 1.729190 0.167644 -2.817380
v 1.871730 0.083065 -2.727830
v 1.729190 -0.169861 -2.817380
v 1.767960 0.145163 -2.622500
v 1.677850 0.167644 -2.629410
v 1.846120 0.083065 -2.634070
v 1.745710 -0.001108 -2.541030
v 1.652180 -0.001108 -2.535420
v 1.833320 -0.001108 -2.587190
v 1.846120 -0.085282 -2.634070
v 1.767960 -0.147379 -2.622500
v 1.677850 -0.169861 -2.629410
v 0.992469 -0.153594 -2.695360
v 0.918387 -0.153549 -2.853580
v 0.882700 -0.001110 -2.933120
v 0.918387 0.151330 -2.853580
v 0.992469 0.151375 -2.695360
v 1.030730 -0.001110 -2.616960
v 0.927910 -0.154349 -2.668520
v 0.805593 -0.154259 -2.792550
v 0.990890 -0.001110 -2.608650
v 0.927910 0.152128 -2.668520
v 0.805593 0.152039 -2.792550
v 0.746693 -0.001110 -2.856300
v 1.432440 0.150621 -2.893980
v 1.455520 -0.001109 -2.978480
v 1.386280 -0.152840 -2.724960
v 1.363200 -0.001109 -2.640460
v 1.386280 0.150621 -2.724960
v 1.432440 -0.152840 -2.893980
v 1.155670 -0.001109 -2.997400
v 1.161740 -0.153195 -2.910230
v 1.161740 0.150975 -2.910230
v 1.175320 0.150998 -2.735800
v 1.182800 -0.001109 -2.648700
v 1.175320 -0.153217 -2.735800
v -0.605845 -0.085282 -0.052500
v -0.561725 -0.001109 -0.072874
v -0.639114 -0.001109 -0.008625
v -0.603161 -0.147380 -0.132205
v -0.526491 -0.001109 -0.167608
v -0.603160 0.145162 -0.132205
v -0.540595 -0.001109 -0.260073
v -0.629048 0.167644 -0.219227
v -0.605845 0.083065 -0.052500
v -0.629048 -0.169861 -0.219227
v -0.756501 0.145162 -0.061396
v -0.805956 0.167644 -0.137536
v -0.694086 0.083065 -0.011753
v -0.833170 -0.001109 -0.025992
v -0.894410 -0.001109 -0.096690
v -0.738207 -0.001109 0.008621
v -0.694086 -0.085282 -0.011753
v -0.756501 -0.147380 -0.061396
v -0.805956 -0.169861 -0.137536
v -0.979466 -0.153594 -0.928591
v -0.809643 -0.153549 -0.887593
v -0.725240 -0.001110 -0.865768
v -0.809642 0.151330 -0.887593
v -0.979466 0.151375 -0.928591
v -1.064590 -0.001110 -0.947695
v -0.927911 -0.154349 -1.059480
v -0.805594 -0.154259 -0.935443
v -0.990890 -0.001110 -1.119350
v -0.927911 0.152128 -1.059480
v -0.805594 0.152038 -0.935443
v -0.746694 -0.001110 -0.871699
v -0.760849 0.150621 -0.494698
v -0.681317 -0.001109 -0.531424
v -0.919912 -0.152840 -0.421247
v -0.999443 -0.001109 -0.384521
v -0.919912 0.150621 -0.421247
v -0.760849 -0.152840 -0.494698
v -0.740246 -0.001110 -0.699481
v -0.827413 -0.153195 -0.693299
v -0.827413 0.150975 -0.693299
v -1.001820 0.150998 -0.679516
v -1.088910 -0.001110 -0.671929
v -1.001820 -0.153217 -0.679516
v -1.884330 -0.001108 -2.674790
v -1.884930 -0.001108 -2.769800
v -1.871470 -0.085282 -2.723100
v -1.836340 -0.001108 -2.862670
v -1.812950 -0.147380 -2.781520
v -1.730200 0.167644 -2.818880
v -1.757180 -0.001109 -2.912500
v -1.812950 0.145163 -2.781520
v -1.871470 0.083065 -2.723100
v -1.730200 -0.169861 -2.818880
v -1.676240 0.167644 -2.631640
v -1.766180 0.145163 -2.619230
v -1.844560 0.083065 -2.629710
v -1.649260 -0.001108 -2.538020
v -1.742790 -0.001108 -2.538080
v -1.831100 -0.001108 -2.583010
v -1.844560 -0.085282 -2.629710
v -1.676240 -0.169861 -2.631640
v -1.766180 -0.147379 -2.619230
v -0.918622 -0.153549 -2.852640
v -0.995227 -0.153594 -2.695620
v -1.034740 -0.001110 -2.617850
v -0.995226 0.151375 -2.695620
v -0.918622 0.151330 -2.852640
v -0.881667 -0.001110 -2.931600
v -0.805593 -0.154259 -2.792550
v -0.927910 -0.154349 -2.668520
v -0.990890 -0.001110 -2.608650
v -0.927910 0.152128 -2.668520
v -0.805593 0.152039 -2.792550
v -0.746693 -0.001110 -2.856300
v -1.458270 -0.001109 -2.973650
v -1.434010 0.150621 -2.889470
v -1.361230 -0.001109 -2.636950
v -1.385490 -0.152840 -2.721120
v -1.385490 0.150621 -2.721120
v -1.434010 -0.152840 -2.889470
v -1.155400 -0.153195 -2.915540
v -1.146710 -0.001110 -3.002490
v -1.155400 0.150975 -2.915540
v -1.174200 0.150998 -2.741600
v -1.184290 -0.001109 -2.654770
v -1.174200 -0.153217 -2.741600
v 0.634163 -0.001109 -0.008100
v 0.557160 -0.001109 -0.072811
v 0.601158 -0.085282 -0.052173
v 0.522497 -0.001109 -0.167756
v 0.598952 -0.147380 -0.131892
v 0.625361 0.167644 -0.218757
v 0.537155 -0.001109 -0.260133
v 0.598952 0.145162 -0.131892
v 0.601158 0.083065 -0.052173
v 0.625361 -0.169861 -0.218757
v 0.801776 0.167644 -0.136006
v 0.751864 0.145162 -0.060165
v 0.689154 0.083065 -0.010897
v 0.889982 -0.001109 -0.094631
v 0.828320 -0.001109 -0.024302
v 0.733150 -0.001109 0.009740
v 0.689154 -0.085282 -0.010897
v 0.801776 -0.169861 -0.136006
v 0.751865 -0.147380 -0.060165
v 0.811149 -0.153549 -0.886136
v 0.981295 -0.153594 -0.925773
v 0.726574 -0.001110 -0.864986
v 1.066570 -0.001110 -0.944196
v 0.981295 0.151375 -0.925773
v 0.811149 0.151330 -0.886136
v 0.805594 -0.154259 -0.935443
v 0.927911 -0.154349 -1.059480
v 0.990890 -0.001110 -1.119350
v 0.927911 0.152128 -1.059480
v 0.805594 0.152038 -0.935443
v 0.746694 -0.001110 -0.871699
v 0.687305 -0.001109 -0.526672
v 0.766615 0.150621 -0.489470
v 1.004540 -0.001109 -0.377864
v 0.925233 -0.152840 -0.415066
v 0.925233 0.150621 -0.415066
v 0.766615 -0.152840 -0.489470
v 0.827228 -0.153195 -0.693660
v 0.740086 -0.001110 -0.700191
v 0.827228 0.150975 -0.693661
v 1.001580 0.150998 -0.679181
v 1.088640 -0.001110 -0.671245
v 1.001580 -0.153217 -0.679181
vt 0.000000 0.000000
vt 0.931295 0.915364
vt 0.983160 0.877388
vt 0.931295 0.880341
vt 0.983160 0.915734
vt 0.865751 0.947721
vt 0.922815 0.952923
vt 0.744642 0.972486
vt 0.782515 0.980913
vt 0.586407 0.985889
vt 0.596103 0.992952
vt 0.415133 0.985889
vt 0.403888 0.992952
vt 0.256897 0.972486
vt 0.217477 0.980913
vt 0.135789 0.947721
vt 0.077176 0.952923
vt 0.070245 0.915364
vt 0.016832 0.915734
vt 0.070245 0.880341
vt 0.016832 0.877388
vt 0.135788 0.847984
vt 0.077176 0.840199
vt 0.256897 0.823219
vt 0.217476 0.812209
vt 0.415133 0.809816
vt 0.403888 0.800170
vt 0.586406 0.809816
vt 0.596103 0.800170
vt 0.744642 0.823219
vt 0.782515 0.812209
vt 0.865751 0.847984
vt 0.922815 0.840199
vt 0.499996 0.898113
usemtl mat_0
s 1
f 2/1 1/1 4/1
f 4/1 5/1 2/1
f 6/1 5/1 4/1
f 6/1 7/1 5/1
f 8/1 7/1 6/1
f 8/1 9/1 7/1
f 10/1 9/1 8/1
f 10/1 11/1 9/1
f 12/1 11/1 10/1
f 12/1 15/1 11/1
f 13/1 15/1 12/1
f 13/1 14/1 15/1
f 112/1 14/1 13/1
f 112/1 32/1 14/1
f 18/1 16/1 17/1
f 18/1 19/1 16/1
f 53/1 19/1 18/1
f 53/1 52/1 19/1
f 43/1 52/1 53/1
f 43/1 42/1 52/1
f 28/1 42/1 43/1
f 28/1 27/1 42/1
f 6/1 27/1 28/1
f 6/1 4/1 27/1
f 24/1 21/1 22/1
f 24/1 20/1 21/1
f 37/1 20/1 24/1
f 37/1 36/1 20/1
f 104/1 36/1 37/1
f 104/1 103/1 36/1
f 135/1 103/1 104/1
f 135/1 106/1 103/1
f 144/1 106/1 135/1
f 144/1 99/1 106/1
f 139/1 99/1 144/1
f 139/1 94/1 99/1
f 137/1 94/1 139/1
f 137/1 87/1 94/1
f 130/1 87/1 137/1
f 130/1 74/1 87/1
f 128/1 74/1 130/1
f 128/1 67/1 74/1
f 122/1 67/1 128/1
f 122/1 57/1 67/1
f 120/1 57/1 122/1
f 120/1 49/1 57/1
f 114/1 49/1 120/1
f 114/1 35/1 49/1
f 112/1 35/1 114/1
f 112/1 13/1 35/1
f 4/1 1/1 26/1
f 26/1 27/1 4/1
f 41/1 27/1 26/1
f 41/1 42/1 27/1
f 51/1 42/1 41/1
f 51/1 52/1 42/1
f 63/1 52/1 51/1
f 63/1 19/1 52/1
f 72/1 19/1 63/1
f 72/1 16/1 19/1
f 79/1 16/1 72/1
f 79/1 80/1 16/1
f 90/1 80/1 79/1
f 90/1 91/1 80/1
f 95/1 91/1 90/1
f 95/1 96/1 91/1
f 100/1 96/1 95/1
f 100/1 101/1 96/1
f 107/1 101/1 100/1
f 107/1 108/1 101/1
f 116/1 108/1 107/1
f 116/1 117/1 108/1
f 124/1 117/1 116/1
f 124/1 125/1 117/1
f 132/1 125/1 124/1
f 132/1 133/1 125/1
f 141/1 133/1 132/1
f 141/1 142/1 133/1
f 2/1 142/1 141/1
f 2/1 5/1 142/1
f 21/1 30/1 22/1
f 21/1 29/1 30/1
f 58/1 29/1 21/1
f 58/1 60/1 29/1
f 59/1 60/1 58/1
f 59/1 50/1 60/1
f 143/1 50/1 59/1
f 143/1 39/1 50/1
f 134/1 39/1 143/1
f 134/1 40/1 39/1
f 133/1 40/1 134/1
f 133/1 142/1 40/1
f 29/1 32/1 30/1
f 29/1 14/1 32/1
f 60/1 14/1 29/1
f 60/1 15/1 14/1
f 50/1 15/1 60/1
f 50/1 11/1 15/1
f 39/1 11/1 50/1
f 39/1 9/1 11/1
f 40/1 9/1 39/1
f 40/1 7/1 9/1
f 142/1 7/1 40/1
f 142/1 5/1 7/1
f 12/1 35/1 13/1
f 12/1 34/1 35/1
f 10/1 34/1 12/1
f 10/1 47/1 34/1
f 191/1 47/1 10/1
f 191/1 192/1 47/1
f 186/1 192/1 191/1
f 186/1 185/1 192/1
f 203/1 185/1 186/1
f 203/1 202/1 185/1
f 198/1 202/1 203/1
f 198/1 194/1 202/1
f 174/1 194/1 198/1
f 174/1 170/1 194/1
f 173/1 170/1 174/1
f 173/1 168/1 170/1
f 175/1 168/1 173/1
f 175/1 171/1 168/1
f 44/1 28/1 43/1
f 44/1 45/1 28/1
f 46/1 45/1 44/1
f 46/1 47/1 45/1
f 48/1 47/1 46/1
f 48/1 34/1 47/1
f 49/1 34/1 48/1
f 49/1 35/1 34/1
f 54/1 43/1 53/1
f 54/1 44/1 43/1
f 55/1 44/1 54/1
f 55/1 46/1 44/1
f 56/1 46/1 55/1
f 56/1 48/1 46/1
f 57/1 48/1 56/1
f 57/1 49/1 48/1
f 58/1 62/1 59/1
f 58/1 61/1 62/1
f 21/1 61/1 58/1
f 21/1 20/1 61/1
f 64/1 53/1 18/1
f 64/1 54/1 53/1
f 65/1 54/1 64/1
f 65/1 55/1 54/1
f 66/1 55/1 65/1
f 66/1 56/1 55/1
f 67/1 56/1 66/1
f 67/1 57/1 56/1
f 61/1 69/1 62/1
f 61/1 68/1 69/1
f 20/1 68/1 61/1
f 20/1 36/1 68/1
f 68/1 71/1 69/1
f 68/1 70/1 71/1
f 36/1 70/1 68/1
f 36/1 103/1 70/1
f 66/1 74/1 67/1
f 66/1 73/1 74/1
f 65/1 73/1 66/1
f 65/1 85/1 73/1
f 278/1 85/1 65/1
f 278/1 277/1 85/1
f 272/1 277/1 278/1
f 272/1 271/1 277/1
f 288/1 271/1 272/1
f 288/1 289/1 271/1
f 281/1 289/1 288/1
f 281/1 284/1 289/1
f 254/1 284/1 281/1
f 254/1 259/1 284/1
f 256/1 259/1 254/1
f 256/1 260/1 259/1
f 257/1 260/1 256/1
f 257/1 261/1 260/1
f 70/1 76/1 71/1
f 70/1 75/1 76/1
f 103/1 75/1 70/1
f 103/1 106/1 75/1
f 75/1 78/1 76/1
f 75/1 77/1 78/1
f 106/1 77/1 75/1
f 106/1 99/1 77/1
f 81/1 16/1 80/1
f 81/1 17/1 16/1
f 82/1 17/1 81/1
f 82/1 83/1 17/1
f 84/1 83/1 82/1
f 84/1 85/1 83/1
f 86/1 85/1 84/1
f 86/1 73/1 85/1
f 87/1 73/1 86/1
f 87/1 74/1 73/1
f 77/1 89/1 78/1
f 77/1 88/1 89/1
f 99/1 88/1 77/1
f 99/1 94/1 88/1
f 88/1 84/1 89/1
f 88/1 86/1 84/1
f 94/1 86/1 88/1
f 94/1 87/1 86/1
f 92/1 80/1 91/1
f 92/1 81/1 80/1
f 93/1 81/1 92/1
f 93/1 82/1 81/1
f 89/1 82/1 93/1
f 89/1 84/1 82/1
f 97/1 91/1 96/1
f 97/1 92/1 91/1
f 98/1 92/1 97/1
f 98/1 93/1 92/1
f 78/1 93/1 98/1
f 78/1 89/1 93/1
f 102/1 96/1 101/1
f 102/1 97/1 96/1
f 232/1 97/1 102/1
f 232/1 231/1 97/1
f 226/1 231/1 232/1
f 226/1 225/1 231/1
f 244/1 225/1 226/1
f 244/1 248/1 225/1
f 242/1 248/1 244/1
f 242/1 239/1 248/1
f 215/1 239/1 242/1
f 215/1 224/1 239/1
f 209/1 224/1 215/1
f 209/1 223/1 224/1
f 206/1 223/1 209/1
f 206/1 222/1 223/1
f 109/1 101/1 108/1
f 109/1 102/1 101/1
f 110/1 102/1 109/1
f 110/1 111/1 102/1
f 71/1 111/1 110/1
f 71/1 76/1 111/1
f 118/1 108/1 117/1
f 118/1 109/1 108/1
f 119/1 109/1 118/1
f 119/1 110/1 109/1
f 69/1 110/1 119/1
f 69/1 71/1 110/1
f 126/1 117/1 125/1
f 126/1 118/1 117/1
f 127/1 118/1 126/1
f 127/1 119/1 118/1
f 62/1 119/1 127/1
f 62/1 69/1 119/1
f 134/1 125/1 133/1
f 134/1 126/1 125/1
f 318/1 126/1 134/1
f 318/1 317/1 126/1
f 312/1 317/1 318/1
f 312/1 311/1 317/1
f 334/1 311/1 312/1
f 334/1 329/1 311/1
f 326/1 329/1 334/1
f 326/1 328/1 329/1
f 309/1 328/1 326/1
f 309/1 301/1 328/1
f 310/1 301/1 309/1
f 310/1 296/1 301/1
f 308/1 296/1 310/1
f 308/1 294/1 296/1
f 166/1 164/1 163/1
f 166/1 167/1 164/1
f 172/1 167/1 166/1
f 172/1 169/1 167/1
f 199/1 169/1 172/1
f 199/1 195/1 169/1
f 201/1 195/1 199/1
f 201/1 200/1 195/1
f 183/1 200/1 201/1
f 183/1 184/1 200/1
f 189/1 184/1 183/1
f 189/1 193/1 184/1
f 28/1 193/1 189/1
f 28/1 45/1 193/1
f 169/1 168/1 167/1
f 169/1 170/1 168/1
f 195/1 170/1 169/1
f 195/1 194/1 170/1
f 200/1 194/1 195/1
f 200/1 202/1 194/1
f 184/1 202/1 200/1
f 184/1 185/1 202/1
f 193/1 185/1 184/1
f 193/1 192/1 185/1
f 45/1 192/1 193/1
f 45/1 47/1 192/1
f 164/1 167/1 168/1
f 171/1 164/1 168/1
f 174/1 176/1 173/1
f 174/1 177/1 176/1
f 198/1 177/1 174/1
f 198/1 197/1 177/1
f 203/1 197/1 198/1
f 203/1 204/1 197/1
f 186/1 204/1 203/1
f 186/1 187/1 204/1
f 191/1 187/1 186/1
f 191/1 190/1 187/1
f 10/1 190/1 191/1
f 10/1 8/1 190/1
f 176/1 175/1 173/1
f 176/1 178/1 175/1
f 180/1 178/1 176/1
f 180/1 179/1 178/1
f 166/1 179/1 180/1
f 166/1 163/1 179/1
f 177/1 180/1 176/1
f 177/1 181/1 180/1
f 197/1 181/1 177/1
f 197/1 196/1 181/1
f 204/1 196/1 197/1
f 204/1 205/1 196/1
f 187/1 205/1 204/1
f 187/1 182/1 205/1
f 190/1 182/1 187/1
f 190/1 188/1 182/1
f 8/1 188/1 190/1
f 8/1 6/1 188/1
f 181/1 166/1 180/1
f 181/1 172/1 166/1
f 196/1 172/1 181/1
f 196/1 199/1 172/1
f 205/1 199/1 196/1
f 205/1 201/1 199/1
f 182/1 201/1 205/1
f 182/1 183/1 201/1
f 188/1 183/1 182/1
f 188/1 189/1 183/1
f 6/1 189/1 188/1
f 6/1 28/1 189/1
f 209/1 207/1 206/1
f 209/1 210/1 207/1
f 215/1 210/1 209/1
f 215/1 212/1 210/1
f 242/1 212/1 215/1
f 242/1 238/1 212/1
f 244/1 238/1 242/1
f 244/1 243/1 238/1
f 226/1 243/1 244/1
f 226/1 227/1 243/1
f 232/1 227/1 226/1
f 232/1 236/1 227/1
f 102/1 236/1 232/1
f 102/1 111/1 236/1
f 212/1 211/1 210/1
f 212/1 213/1 211/1
f 238/1 213/1 212/1
f 238/1 237/1 213/1
f 243/1 237/1 238/1
f 243/1 245/1 237/1
f 227/1 245/1 243/1
f 227/1 228/1 245/1
f 236/1 228/1 227/1
f 236/1 235/1 228/1
f 111/1 235/1 236/1
f 111/1 76/1 235/1
f 211/1 207/1 210/1
f 211/1 214/1 207/1
f 216/1 214/1 211/1
f 216/1 218/1 214/1
f 219/1 218/1 216/1
f 219/1 221/1 218/1
f 223/1 221/1 219/1
f 223/1 222/1 221/1
f 213/1 216/1 211/1
f 213/1 217/1 216/1
f 237/1 217/1 213/1
f 237/1 241/1 217/1
f 245/1 241/1 237/1
f 245/1 246/1 241/1
f 228/1 246/1 245/1
f 228/1 229/1 246/1
f 235/1 229/1 228/1
f 235/1 234/1 229/1
f 76/1 234/1 235/1
f 76/1 78/1 234/1
f 217/1 219/1 216/1
f 217/1 220/1 219/1
f 241/1 220/1 217/1
f 241/1 240/1 220/1
f 246/1 240/1 241/1
f 246/1 247/1 240/1
f 229/1 247/1 246/1
f 229/1 230/1 247/1
f 234/1 230/1 229/1
f 234/1 233/1 230/1
f 78/1 233/1 234/1
f 78/1 98/1 233/1
f 220/1 223/1 219/1
f 220/1 224/1 223/1
f 240/1 224/1 220/1
f 240/1 239/1 224/1
f 247/1 239/1 240/1
f 247/1 248/1 239/1
f 230/1 248/1 247/1
f 230/1 225/1 248/1
f 233/1 225/1 230/1
f 233/1 231/1 225/1
f 98/1 231/1 233/1
f 98/1 97/1 231/1
f 250/1 253/1 251/1
f 250/1 252/1 253/1
f 257/1 252/1 250/1
f 257/1 256/1 252/1
f 254/1 252/1 256/1
f 254/1 255/1 252/1
f 281/1 255/1 254/1
f 281/1 280/1 255/1
f 288/1 280/1 281/1
f 288/1 287/1 280/1
f 272/1 287/1 288/1
f 272/1 273/1 287/1
f 278/1 273/1 272/1
f 278/1 279/1 273/1
f 65/1 279/1 278/1
f 65/1 64/1 279/1
f 255/1 253/1 252/1
f 255/1 258/1 253/1
f 280/1 258/1 255/1
f 280/1 285/1 258/1
f 287/1 285/1 280/1
f 287/1 286/1 285/1
f 273/1 286/1 287/1
f 273/1 268/1 286/1
f 279/1 268/1 273/1
f 279/1 274/1 268/1
f 64/1 274/1 279/1
f 64/1 18/1 274/1
f 260/1 262/1 259/1
f 260/1 263/1 262/1
f 261/1 263/1 260/1
f 261/1 264/1 263/1
f 263/1 266/1 262/1
f 263/1 267/1 266/1
f 264/1 267/1 263/1
f 264/1 265/1 267/1
f 253/1 265/1 251/1
f 253/1 267/1 265/1
f 258/1 267/1 253/1
f 258/1 266/1 267/1
f 285/1 266/1 258/1
f 285/1 283/1 266/1
f 286/1 283/1 285/1
f 286/1 291/1 283/1
f 268/1 291/1 286/1
f 268/1 269/1 291/1
f 274/1 269/1 268/1
f 274/1 275/1 269/1
f 18/1 275/1 274/1
f 18/1 17/1 275/1
f 283/1 262/1 266/1
f 283/1 282/1 262/1
f 291/1 282/1 283/1
f 291/1 290/1 282/1
f 269/1 290/1 291/1
f 269/1 270/1 290/1
f 275/1 270/1 269/1
f 275/1 276/1 270/1
f 17/1 276/1 275/1
f 17/1 83/1 276/1
f 282/1 259/1 262/1
f 282/1 284/1 259/1
f 290/1 284/1 282/1
f 290/1 289/1 284/1
f 270/1 289/1 290/1
f 270/1 271/1 289/1
f 276/1 271/1 270/1
f 276/1 277/1 271/1
f 83/1 277/1 276/1
f 83/1 85/1 277/1
f 293/1 296/1 294/1
f 293/1 295/1 296/1
f 300/1 295/1 293/1
f 300/1 299/1 295/1
f 304/1 299/1 300/1
f 304/1 303/1 299/1
f 307/1 303/1 304/1
f 307/1 306/1 303/1
f 308/1 306/1 307/1
f 308/1 310/1 306/1
f 299/1 298/1 295/1
f 299/1 297/1 298/1
f 303/1 297/1 299/1
f 303/1 302/1 297/1
f 306/1 302/1 303/1
f 306/1 305/1 302/1
f 310/1 305/1 306/1
f 310/1 309/1 305/1
f 298/1 296/1 295/1
f 298/1 301/1 296/1
f 323/1 301/1 298/1
f 323/1 328/1 301/1
f 330/1 328/1 323/1
f 330/1 329/1 328/1
f 313/1 329/1 330/1
f 313/1 311/1 329/1
f 322/1 311/1 313/1
f 322/1 317/1 311/1
f 127/1 317/1 322/1
f 127/1 126/1 317/1
f 297/1 323/1 298/1
f 297/1 324/1 323/1
f 302/1 324/1 297/1
f 302/1 327/1 324/1
f 305/1 327/1 302/1
f 305/1 325/1 327/1
f 309/1 325/1 305/1
f 309/1 326/1 325/1
f 324/1 330/1 323/1
f 324/1 331/1 330/1
f 327/1 331/1 324/1
f 327/1 332/1 331/1
f 325/1 332/1 327/1
f 325/1 333/1 332/1
f 326/1 333/1 325/1
f 326/1 334/1 333/1
f 319/1 134/1 143/1
f 319/1 318/1 134/1
f 314/1 318/1 319/1
f 314/1 312/1 318/1
f 333/1 312/1 314/1
f 333/1 334/1 312/1
f 320/1 143/1 59/1
f 320/1 319/1 143/1
f 315/1 319/1 320/1
f 315/1 314/1 319/1
f 332/1 314/1 315/1
f 332/1 333/1 314/1
f 321/1 59/1 62/1
f 321/1 320/1 59/1
f 316/1 320/1 321/1
f 316/1 315/1 320/1
f 331/1 315/1 316/1
f 331/1 332/1 315/1
f 322/1 62/1 127/1
f 322/1 321/1 62/1
f 313/1 321/1 322/1
f 313/1 316/1 321/1
f 330/1 316/1 313/1
f 330/1 331/1 316/1
f 3/1 1/1 2/1
f 2/1 141/1 3/1
f 132/1 3/1 141/1
f 132/1 124/1 3/1
f 116/1 3/1 124/1
f 116/1 107/1 3/1
f 100/1 3/1 107/1
f 100/1 95/1 3/1
f 90/1 3/1 95/1
f 90/1 79/1 3/1
f 72/1 3/1 79/1
f 72/1 63/1 3/1
f 51/1 3/1 63/1
f 51/1 41/1 3/1
f 26/1 3/1 41/1
f 26/1 1/1 3/1
f 164/1 165/1 163/1
f 164/1 171/1 165/1
f 175/1 165/1 171/1
f 175/1 178/1 165/1
f 179/1 165/1 178/1
f 179/1 163/1 165/1
f 207/1 208/1 206/1
f 207/1 214/1 208/1
f 218/1 208/1 214/1
f 218/1 221/1 208/1
f 222/1 208/1 221/1
f 222/1 206/1 208/1
f 251/1 249/1 250/1
f 251/1 265/1 249/1
f 264/1 249/1 265/1
f 264/1 261/1 249/1
f 257/1 249/1 261/1
f 257/1 250/1 249/1
f 294/1 292/1 293/1
f 294/1 308/1 292/1
f 307/1 292/1 308/1
f 307/1 304/1 292/1
f 300/1 292/1 304/1
f 300/1 293/1 292/1
usemtl mat_1
f 146/2 33/3 147/4
f 146/2 31/5 33/3
f 151/6 31/5 146/2
f 151/6 23/7 31/5
f 152/8 23/7 151/6
f 152/8 25/9 23/7
f 154/10 25/9 152/8
f 154/10 38/11 25/9
f 155/12 38/11 154/10
f 155/12 105/13 38/11
f 156/14 105/13 155/12
f 156/14 136/15 105/13
f 159/16 136/15 156/14
f 159/16 145/17 136/15
f 149/18 145/17 159/16
f 149/18 140/19 145/17
f 150/20 140/19 149/18
f 150/20 138/21 140/19
f 160/22 138/21 150/20
f 160/22 131/23 138/21
f 161/24 131/23 160/22
f 161/24 129/25 131/23
f 162/26 129/25 161/24
f 162/26 123/27 129/25
f 158/28 123/27 162/26
f 158/28 121/29 123/27
f 157/30 121/29 158/28
f 157/30 115/31 121/29
f 153/32 115/31 157/30
f 153/32 113/33 115/31
f 147/4 113/33 153/32
f 147/4 33/3 113/33
f 158/28 148/34 153/32
f 157/30 158/28 153/32
f 148/34 147/4 153/32
f 148/34 146/2 147/4
f 151/6 146/2 148/34
f 148/34 152/8 151/6
f 154/10 152/8 148/34
f 148/34 155/12 154/10
f 156/14 155/12 148/34
f 148/34 159/16 156/14
f 149/18 159/16 148/34
f 148/34 150/20 149/18
f 160/22 150/20 148/34
f 148/34 161/24 160/22
f 162/26 161/24 148/34
f 148/34 158/28 162/26
