# Blender v2.66 (sub 1) OBJ File: 'BR_Unown-Shiny12.blend'
# www.blender.org
mtllib BR_Unown-Shiny12.mtl
o unknown_f
v 0.339558 -0.353331 -3.267083
v 0.440678 -0.353331 -3.116463
v 0.011500 -0.382442 -2.937593
v 0.617672 -0.270427 -3.546413
v 0.804517 -0.270428 -3.268103
v 0.805533 -0.143425 -3.722963
v 1.049658 -0.143425 -3.359323
v 0.836497 0.000000 -3.754063
v 1.122855 0.005686 -3.353963
v 0.805533 0.143425 -3.722963
v 1.049658 0.143425 -3.359323
v 0.726600 0.230047 -3.643683
v 0.589395 0.251764 -3.505883
v 0.766898 0.251764 -3.241483
v 0.946395 0.230047 -3.316293
v 1.093788 -0.143425 -2.715073
v 1.051534 -0.143425 -2.500193
v 0.805953 -0.270428 -2.610553
v 0.870632 -0.270428 -2.939473
v 1.024169 0.230047 -2.929703
v 0.948084 0.230047 -2.542783
v 1.051534 0.143425 -2.500193
v 1.093788 0.143425 -2.715073
v 0.188494 -0.353331 -3.367543
v 0.338542 -0.270427 -3.732043
v 0.440833 -0.143425 -3.965493
v 0.457539 0.000000 -4.006083
v 0.440833 0.143425 -3.965493
v 0.398247 0.230047 -3.862043
v 0.324222 0.251764 -3.682223
v 1.136023 0.000000 -2.706763
v 1.092117 0.000000 -2.483483
v 0.010485 -0.353330 -3.402553
v 0.009624 -0.270427 -3.796723
v 0.011080 -0.143425 -4.050003
v 0.010985 0.000000 -4.093893
v 0.011080 0.143425 -4.050003
v 0.011325 0.230047 -3.938133
v 0.011749 0.251764 -3.743673
v -0.782954 -0.270427 -3.264633
v -1.024474 -0.143425 -3.354793
v -0.781934 -0.143425 -3.719493
v -0.597325 -0.270427 -3.543763
v -0.167370 -0.353330 -3.366773
v -0.319009 -0.270427 -3.730613
v -0.418299 -0.143425 -3.963623
v -0.435183 0.000000 -4.004133
v -0.418299 0.143425 -3.963623
v -0.375262 0.230047 -3.860363
v -0.300452 0.251764 -3.680863
v -1.065054 0.000001 -3.371503
v -0.813034 0.000001 -3.750463
v -1.024474 0.143425 -3.354793
v -0.781934 0.143425 -3.719493
v -0.317994 -0.353330 -3.265653
v -0.702654 0.230047 -3.640563
v -0.564852 0.251764 -3.503363
v 0.015314 0.251764 -2.111323
v 0.327515 0.251764 -2.174133
v 0.330946 0.227502 -2.170953
v 0.330946 0.227502 -2.170953
v 0.015314 0.221816 -2.111323
v 0.015314 0.221816 -2.111323
v 0.591915 0.251764 -2.351633
v 0.591915 0.221816 -2.351633
v 0.591915 0.221816 -2.351633
v -0.418455 -0.353330 -3.114583
v -0.921024 0.230047 -3.312213
v -0.741194 0.251764 -3.238183
v 1.136042 0.143425 -2.929943
v 0.729721 0.230047 -2.214423
v 0.809000 0.143425 -2.135493
v -0.453459 -0.353330 -2.936573
v -0.847634 -0.270427 -2.935713
v -1.108984 -0.143425 -2.925043
v -1.152864 0.000000 -2.924943
v -1.108984 0.143425 -2.925043
v -0.997104 0.230047 -2.925283
v -0.802644 0.251764 -2.925713
v 0.402325 0.230047 -1.994633
v 0.015739 0.230047 -1.916853
v -0.417678 -0.353330 -2.758723
v -0.781514 -0.270427 -2.607083
v -1.022594 -0.143425 -2.495663
v -1.063104 0.000000 -2.478783
v -1.022594 0.143425 -2.495663
v -0.919334 0.230047 -2.538703
v -0.739834 0.251764 -2.613513
v -0.371184 0.230047 -1.992943
v -0.413770 0.143425 -1.889493
v -0.699534 0.230047 -2.211303
v -0.778474 0.143425 -2.132023
v -0.316558 -0.353331 -2.608103
v -0.594672 -0.270427 -2.328763
v -0.778474 -0.143425 -2.132023
v -0.809434 0.000000 -2.100923
v -0.562332 0.251764 -2.349113
v -0.165494 -0.353331 -2.507633
v -0.315542 -0.270428 -2.143143
v -0.413770 -0.143425 -1.889493
v -0.430476 0.000000 -1.848913
v -0.297159 0.251764 -2.172763
v 0.012515 -0.353331 -2.472633
v 0.013376 -0.270428 -2.078463
v 0.190370 -0.353331 -2.508413
v 0.344711 -0.264742 -2.141053
v -0.297159 0.221816 -2.172763
v -0.297159 0.221816 -2.172763
v -0.562332 0.221816 -2.349113
v -0.562332 0.221816 -2.349113
v 0.340994 -0.353331 -2.609533
v 0.627526 -0.264742 -2.321013
v 0.809000 -0.143425 -2.135493
v 0.840100 0.000000 -2.104533
v 0.589395 0.221816 -3.505883
v 0.589395 0.221816 -3.505883
v 0.766898 0.221816 -3.241483
v 0.766898 0.221816 -3.241483
v 0.324222 0.221817 -3.682223
v 0.324222 0.221817 -3.682223
v 0.441455 -0.353331 -2.760603
v 0.768261 0.251764 -2.616803
v 0.011749 0.221817 -3.743673
v 0.011749 0.221817 -3.743673
v -0.300452 0.221817 -3.680863
v -0.300452 0.221817 -3.680863
v 0.476459 -0.353331 -2.938603
v 1.136042 -0.143425 -2.929943
v 0.768261 0.221816 -2.616803
v 0.768261 0.221816 -2.616803
v 0.829707 0.251764 -2.929273
v 0.829707 0.221816 -2.929273
v 0.829707 0.221816 -2.929273
v -0.564852 0.221817 -3.503363
v -0.564852 0.221817 -3.503363
v -0.741194 0.221817 -3.238183
v -0.741194 0.221817 -3.238183
v -0.802644 0.221817 -2.925713
v -0.802644 0.221817 -2.925713
v -0.739834 0.221817 -2.613513
v -0.739834 0.221817 -2.613513
v 0.601182 0.384527 -2.906903
v 0.563110 0.384527 -3.123493
v 0.037699 0.483578 -2.919493
v -0.487712 0.384527 -2.715493
v -0.525784 0.384527 -2.932093
v 0.553470 0.384527 -2.692223
v 0.427235 0.384527 -2.512143
v 0.445049 0.384527 -3.309033
v 0.241698 0.384527 -2.394083
v 0.025104 0.384527 -2.356013
v -0.189573 0.384527 -2.403723
v 0.264971 0.384527 -3.435263
v 0.050295 0.384527 -3.482983
v -0.369650 0.384527 -2.529963
v -0.478071 0.384527 -3.146763
v -0.351837 0.384527 -3.326843
v -0.166300 0.384527 -3.444903
v 0.445362 0.143425 -1.891373
v 0.015982 0.143425 -1.804983
v 0.015982 -0.143425 -1.804983
v 0.016078 0.000000 -1.761093
v 0.445362 -0.143425 -1.891373
v 0.462245 0.000000 -1.850863
v 0.426316 0.000000 -1.756253
v 0.340616 -0.153155 -1.742513
v 0.340616 0.153154 -1.742513
v 0.169602 0.153244 -1.709353
v 0.084877 0.000000 -1.690053
v 0.169602 -0.153244 -1.709353
v 0.210060 -0.146232 -1.495373
v 0.122147 0.005310 -1.494903
v 0.209419 0.157221 -1.495453
v 0.384634 0.157590 -1.496513
v 0.472545 0.006050 -1.497023
v 0.385275 -0.145860 -1.496433
v 0.215396 -0.148885 -0.979721
v 0.390571 -0.148838 -0.976568
v 0.127768 0.002822 -0.981301
v 0.215315 0.154576 -0.979727
v 0.390489 0.154623 -0.976573
v 0.478117 0.002916 -0.974995
v 0.037142 0.002193 -0.660804
v 0.087217 0.155578 -0.567334
v 0.088302 -0.150721 -0.567144
v 0.276329 0.156379 -0.521215
v 0.377346 0.003450 -0.576961
v 0.277415 -0.150126 -0.521025
v 0.076194 -0.151585 -0.428758
v 0.115394 0.002708 -0.273445
v 0.218641 0.157043 -0.395267
v 0.075102 0.156527 -0.428949
v 0.219732 -0.151042 -0.395076
v -0.130869 0.001299 -0.361303
v -0.117756 -0.152458 -0.444005
v -0.081214 0.000864 -0.677625
v -0.096441 0.154375 -0.588792
v -0.094094 -0.152403 -0.588001
v -0.120106 0.154810 -0.444797
v -0.242396 0.000746 -0.299354
v -0.270162 -0.151044 -0.382238
v -0.270830 0.152366 -0.382324
v -0.326515 0.152233 -0.548448
v -0.353746 0.000407 -0.631555
v -0.325847 -0.151251 -0.548362
v -0.496396 0.164246 -0.425419
v -0.366622 0.164524 -0.280064
v -0.365470 -0.172979 -0.280447
v -0.495244 -0.173257 -0.425802
v -0.560707 -0.004644 -0.498288
v -0.301158 -0.004088 -0.207578
v -0.441221 -0.150813 -0.230257
v -0.553706 -0.151054 -0.356248
v -0.518449 -0.089002 -0.209487
v -0.583182 -0.089140 -0.281990
v -0.570413 -0.004984 -0.228404
v -0.486371 -0.004760 -0.173140
v -0.385477 -0.004422 -0.167096
v -0.519023 0.079344 -0.209296
v -0.442220 0.141728 -0.229925
v -0.583756 0.079205 -0.281799
v -0.554704 0.141487 -0.355916
v -0.610450 -0.004904 -0.419078
v -0.615834 -0.005037 -0.318146
v 0.331033 -0.150126 -0.285090
v 0.284823 0.003341 -0.220278
v 0.425565 0.157129 -0.418615
v 0.490682 0.003907 -0.483886
v 0.426652 -0.149690 -0.418425
v 0.329945 0.157051 -0.285281
v 0.444579 -0.147479 -0.175786
v 0.393996 0.004063 -0.104061
v 0.443408 0.155888 -0.176004
v 0.543304 0.156219 -0.320026
v 0.593698 0.004627 -0.391984
v 0.544475 -0.147246 -0.319808
v 0.610891 0.173367 -0.091001
v 0.657094 0.173287 -0.280297
v 0.656064 -0.164306 -0.280246
v 0.609860 -0.164048 -0.090950
v 0.679691 0.004405 -0.374997
v 0.587282 0.004745 0.003596
v 0.740582 -0.142033 -0.245898
v 0.699907 -0.141884 -0.081972
v 0.801279 -0.080113 -0.193955
v 0.777872 -0.080027 -0.099622
v 0.766425 0.004189 -0.052467
v 0.814957 0.004027 -0.140568
v 0.680017 0.004461 -0.000029
v 0.778387 0.088319 -0.099647
v 0.700801 0.150657 -0.082015
v 0.801793 0.088234 -0.193980
v 0.741476 0.150508 -0.245942
v 0.761369 0.004163 -0.327885
v 0.813240 0.004017 -0.241136
v 1.278947 -0.081282 -1.285473
v 1.278947 0.002891 -1.334073
v 1.304836 0.002891 -1.236873
v 1.207711 -0.143380 -1.321323
v 1.207711 0.002891 -1.405773
v 1.207711 0.149162 -1.321323
v 1.117852 0.002891 -1.431733
v 1.117852 0.171644 -1.334303
v 1.278947 0.087065 -1.285473
v 1.117852 -0.165861 -1.334303
v 1.207711 0.149162 -1.152423
v 1.117852 0.171644 -1.139443
v 1.278947 0.087065 -1.188283
v 1.207711 0.002891 -1.067973
v 1.117852 0.002891 -1.042017
v 1.278947 0.002891 -1.139683
v 1.278947 -0.081282 -1.188283
v 1.207711 -0.143380 -1.152423
v 1.117852 -0.165861 -1.139443
v 0.733584 -0.149769 -1.149923
v 0.734170 -0.149717 -1.323703
v 0.736523 0.002890 -1.410863
v 0.734170 0.155497 -1.323703
v 0.733584 0.155550 -1.149923
v 0.735369 0.002890 -1.062713
v 0.524847 -0.150699 -1.150583
v 0.526019 -0.150594 -1.322933
v 0.530724 0.002890 -1.409653
v 0.526019 0.156373 -1.322933
v 0.524847 0.156479 -1.150583
v 0.528416 0.002890 -1.063753
v 0.991607 0.002891 -1.412083
v 0.991607 0.154622 -1.324473
v 0.991607 0.002891 -1.061673
v 0.991607 -0.148839 -1.149273
v 0.991607 0.154622 -1.149273
v 0.991607 -0.148839 -1.324473
v 1.849096 -0.151747 -2.940373
v 1.807866 -0.000003 -3.031483
v 1.639686 -0.151736 -3.356913
v 1.678606 0.000000 -3.278423
v 1.639686 0.151736 -3.356913
v 1.561836 0.151725 -3.513873
v 1.522916 0.000000 -3.592343
v 1.561836 -0.151725 -3.513873
v 1.919466 -0.151785 -2.780693
v 1.849316 0.152289 -2.940193
v 1.960436 -0.000009 -2.687783
v 1.919696 0.152326 -2.780473
v 1.250371 -0.154124 -2.987633
v 1.269944 0.000000 -3.083093
v 1.233601 -0.154295 -3.145943
v 1.198838 -0.152980 -3.314563
v 1.259319 -0.154275 -2.834363
v 1.250371 0.154124 -2.987633
v 1.254356 0.000000 -2.734543
v 1.259319 0.154275 -2.834363
v 1.233601 0.154295 -3.145943
v 1.198838 0.152980 -3.314563
v 1.183545 0.000000 -3.400133
v 2.275226 -0.151840 -3.604153
v 2.251086 0.000001 -3.503113
v 2.275226 0.151843 -3.604153
v 2.335206 0.151851 -3.818793
v 2.341456 0.000000 -3.915453
v 2.335206 -0.151848 -3.818793
v 2.139196 -0.151944 -2.884573
v 2.117856 0.000000 -2.979163
v 2.175536 -0.151989 -2.718833
v 2.200526 -0.000003 -2.628153
v 2.175546 0.151991 -2.718833
v 2.139206 0.151946 -2.884573
v 2.145296 0.000001 -2.992113
v 2.210526 -0.151943 -2.913903
v 2.315406 -0.152143 -2.787283
v 2.381056 0.000001 -2.690653
v 2.315406 0.152145 -2.787283
v 2.210526 0.151946 -2.913903
v 2.297766 0.000001 -3.510813
v 2.355036 0.152102 -3.591033
v 2.540096 0.152524 -3.829673
v 2.604536 0.000000 -3.930503
v 2.540096 -0.152522 -3.829673
v 2.355036 -0.152099 -3.591033
v 2.311786 0.000001 -3.493563
v 2.394586 0.151953 -3.542113
v 2.595756 0.152394 -3.685723
v 2.716086 0.000000 -3.752123
v 2.595756 -0.152392 -3.685723
v 2.394586 -0.151951 -3.542113
v 2.312996 0.000001 -3.468143
v 2.408286 0.159647 -3.457103
v 2.571096 0.160027 -3.477813
v 2.711356 0.000001 -3.492383
v 2.573006 -0.152290 -3.475503
v 2.409666 -0.151910 -3.459513
v 2.176286 0.000001 -3.015333
v 2.263136 0.151953 -2.977083
v 2.411266 0.152176 -2.907143
v 2.505606 0.000001 -2.860783
v 2.411266 -0.152174 -2.907143
v 2.263136 -0.151950 -2.977083
vt 0.000000 0.000000
vt 0.931844 0.915340
vt 0.983740 0.876938
vt 0.931844 0.879925
vt 0.983740 0.915714
vt 0.866262 0.948060
vt 0.923360 0.953320
vt 0.745081 0.973102
vt 0.782976 0.981623
vt 0.586751 0.986655
vt 0.596453 0.993797
vt 0.415375 0.986655
vt 0.404124 0.993797
vt 0.257045 0.973102
vt 0.217601 0.981623
vt 0.135865 0.948060
vt 0.077217 0.953320
vt 0.070282 0.915340
vt 0.016837 0.915714
vt 0.070282 0.879925
vt 0.016837 0.876938
vt 0.135864 0.847205
vt 0.077217 0.839332
vt 0.257045 0.822163
vt 0.217601 0.811029
vt 0.415375 0.808610
vt 0.404124 0.798855
vt 0.586751 0.808610
vt 0.596453 0.798855
vt 0.745081 0.822162
vt 0.782975 0.811029
vt 0.866261 0.847205
vt 0.923360 0.839332
vt 0.500288 0.897895
usemtl mat_0
s 1
f 2/1 1/1 4/1
f 4/1 5/1 2/1
f 6/1 5/1 4/1
f 6/1 7/1 5/1
f 8/1 7/1 6/1
f 8/1 9/1 7/1
f 10/1 9/1 8/1
f 10/1 11/1 9/1
f 12/1 11/1 10/1
f 12/1 15/1 11/1
f 13/1 15/1 12/1
f 13/1 14/1 15/1
f 115/1 14/1 13/1
f 115/1 117/1 14/1
f 18/1 16/1 17/1
f 18/1 19/1 16/1
f 121/1 19/1 18/1
f 121/1 127/1 19/1
f 22/1 20/1 21/1
f 22/1 23/1 20/1
f 32/1 23/1 22/1
f 32/1 31/1 23/1
f 17/1 31/1 32/1
f 17/1 16/1 31/1
f 25/1 1/1 24/1
f 4/1 1/1 25/1
f 26/1 4/1 25/1
f 26/1 6/1 4/1
f 27/1 6/1 26/1
f 27/1 8/1 6/1
f 28/1 8/1 27/1
f 28/1 10/1 8/1
f 29/1 10/1 28/1
f 29/1 12/1 10/1
f 30/1 12/1 29/1
f 30/1 13/1 12/1
f 119/1 13/1 30/1
f 119/1 115/1 13/1
f 34/1 24/1 33/1
f 34/1 25/1 24/1
f 35/1 25/1 34/1
f 35/1 26/1 25/1
f 36/1 26/1 35/1
f 36/1 27/1 26/1
f 37/1 27/1 36/1
f 37/1 28/1 27/1
f 38/1 28/1 37/1
f 38/1 29/1 28/1
f 39/1 29/1 38/1
f 39/1 30/1 29/1
f 123/1 30/1 39/1
f 123/1 119/1 30/1
f 42/1 40/1 41/1
f 42/1 43/1 40/1
f 46/1 43/1 42/1
f 46/1 45/1 43/1
f 35/1 45/1 46/1
f 35/1 34/1 45/1
f 44/1 34/1 33/1
f 44/1 45/1 34/1
f 55/1 45/1 44/1
f 55/1 43/1 45/1
f 67/1 43/1 55/1
f 67/1 40/1 43/1
f 73/1 40/1 67/1
f 73/1 74/1 40/1
f 82/1 74/1 73/1
f 82/1 83/1 74/1
f 93/1 83/1 82/1
f 93/1 94/1 83/1
f 98/1 94/1 93/1
f 98/1 99/1 94/1
f 103/1 99/1 98/1
f 103/1 104/1 99/1
f 105/1 104/1 103/1
f 105/1 106/1 104/1
f 111/1 106/1 105/1
f 111/1 112/1 106/1
f 121/1 112/1 111/1
f 121/1 18/1 112/1
f 47/1 35/1 46/1
f 47/1 36/1 35/1
f 48/1 36/1 47/1
f 48/1 37/1 36/1
f 49/1 37/1 48/1
f 49/1 38/1 37/1
f 50/1 38/1 49/1
f 50/1 39/1 38/1
f 125/1 39/1 50/1
f 125/1 123/1 39/1
f 41/1 52/1 42/1
f 41/1 51/1 52/1
f 75/1 51/1 41/1
f 75/1 76/1 51/1
f 84/1 76/1 75/1
f 84/1 85/1 76/1
f 95/1 85/1 84/1
f 95/1 96/1 85/1
f 100/1 96/1 95/1
f 100/1 101/1 96/1
f 161/1 101/1 100/1
f 161/1 162/1 101/1
f 170/1 162/1 161/1
f 170/1 169/1 162/1
f 171/1 169/1 170/1
f 171/1 172/1 169/1
f 177/1 172/1 171/1
f 177/1 179/1 172/1
f 185/1 179/1 177/1
f 185/1 183/1 179/1
f 198/1 183/1 185/1
f 198/1 196/1 183/1
f 205/1 196/1 198/1
f 205/1 204/1 196/1
f 209/1 204/1 205/1
f 209/1 210/1 204/1
f 213/1 210/1 209/1
f 213/1 223/1 210/1
f 215/1 223/1 213/1
f 215/1 224/1 223/1
f 51/1 54/1 52/1
f 51/1 53/1 54/1
f 76/1 53/1 51/1
f 76/1 77/1 53/1
f 85/1 77/1 76/1
f 85/1 86/1 77/1
f 96/1 86/1 85/1
f 96/1 92/1 86/1
f 101/1 92/1 96/1
f 101/1 90/1 92/1
f 162/1 90/1 101/1
f 162/1 160/1 90/1
f 169/1 160/1 162/1
f 169/1 168/1 160/1
f 172/1 168/1 169/1
f 172/1 173/1 168/1
f 179/1 173/1 172/1
f 179/1 180/1 173/1
f 183/1 180/1 179/1
f 183/1 184/1 180/1
f 196/1 184/1 183/1
f 196/1 197/1 184/1
f 204/1 197/1 196/1
f 204/1 203/1 197/1
f 210/1 203/1 204/1
f 210/1 206/1 203/1
f 223/1 206/1 210/1
f 223/1 222/1 206/1
f 224/1 222/1 223/1
f 224/1 221/1 222/1
f 52/1 46/1 42/1
f 52/1 47/1 46/1
f 54/1 47/1 52/1
f 54/1 48/1 47/1
f 56/1 48/1 54/1
f 56/1 49/1 48/1
f 57/1 49/1 56/1
f 57/1 50/1 49/1
f 134/1 50/1 57/1
f 134/1 125/1 50/1
f 62/1 59/1 60/1
f 62/1 58/1 59/1
f 107/1 58/1 62/1
f 107/1 102/1 58/1
f 109/1 102/1 107/1
f 109/1 97/1 102/1
f 140/1 97/1 109/1
f 140/1 88/1 97/1
f 138/1 88/1 140/1
f 138/1 79/1 88/1
f 136/1 79/1 138/1
f 136/1 69/1 79/1
f 134/1 69/1 136/1
f 134/1 57/1 69/1
f 59/1 65/1 60/1
f 59/1 64/1 65/1
f 80/1 64/1 59/1
f 80/1 71/1 64/1
f 159/1 71/1 80/1
f 159/1 72/1 71/1
f 164/1 72/1 159/1
f 164/1 114/1 72/1
f 163/1 114/1 164/1
f 163/1 113/1 114/1
f 106/1 113/1 163/1
f 106/1 112/1 113/1
f 56/1 69/1 57/1
f 56/1 68/1 69/1
f 54/1 68/1 56/1
f 54/1 53/1 68/1
f 21/1 72/1 22/1
f 21/1 71/1 72/1
f 122/1 71/1 21/1
f 122/1 64/1 71/1
f 129/1 64/1 122/1
f 129/1 65/1 64/1
f 74/1 41/1 40/1
f 74/1 75/1 41/1
f 83/1 75/1 74/1
f 83/1 84/1 75/1
f 94/1 84/1 83/1
f 94/1 95/1 84/1
f 99/1 95/1 94/1
f 99/1 100/1 95/1
f 104/1 100/1 99/1
f 104/1 161/1 100/1
f 106/1 161/1 104/1
f 106/1 163/1 161/1
f 68/1 79/1 69/1
f 68/1 78/1 79/1
f 53/1 78/1 68/1
f 53/1 77/1 78/1
f 80/1 160/1 159/1
f 80/1 81/1 160/1
f 59/1 81/1 80/1
f 59/1 58/1 81/1
f 78/1 88/1 79/1
f 78/1 87/1 88/1
f 77/1 87/1 78/1
f 77/1 86/1 87/1
f 81/1 90/1 160/1
f 81/1 89/1 90/1
f 58/1 89/1 81/1
f 58/1 102/1 89/1
f 89/1 92/1 90/1
f 89/1 91/1 92/1
f 102/1 91/1 89/1
f 102/1 97/1 91/1
f 87/1 97/1 88/1
f 87/1 91/1 97/1
f 86/1 91/1 87/1
f 86/1 92/1 91/1
f 17/1 112/1 18/1
f 17/1 113/1 112/1
f 32/1 113/1 17/1
f 32/1 114/1 113/1
f 22/1 114/1 32/1
f 22/1 72/1 114/1
f 122/1 132/1 129/1
f 122/1 131/1 132/1
f 21/1 131/1 122/1
f 21/1 20/1 131/1
f 5/1 127/1 2/1
f 5/1 19/1 127/1
f 7/1 19/1 5/1
f 7/1 128/1 19/1
f 308/1 128/1 7/1
f 308/1 307/1 128/1
f 300/1 307/1 308/1
f 300/1 295/1 307/1
f 321/1 295/1 300/1
f 321/1 316/1 295/1
f 338/1 316/1 321/1
f 338/1 339/1 316/1
f 344/1 339/1 338/1
f 344/1 345/1 339/1
f 350/1 345/1 344/1
f 350/1 351/1 345/1
f 356/1 351/1 350/1
f 356/1 357/1 351/1
f 330/1 357/1 356/1
f 330/1 329/1 357/1
f 324/1 329/1 330/1
f 324/1 322/1 329/1
f 301/1 322/1 324/1
f 301/1 293/1 322/1
f 309/1 293/1 301/1
f 309/1 305/1 293/1
f 15/1 70/1 11/1
f 15/1 20/1 70/1
f 14/1 20/1 15/1
f 14/1 131/1 20/1
f 117/1 131/1 14/1
f 117/1 132/1 131/1
f 164/1 166/1 163/1
f 164/1 165/1 166/1
f 159/1 165/1 164/1
f 159/1 167/1 165/1
f 160/1 167/1 159/1
f 160/1 168/1 167/1
f 166/1 161/1 163/1
f 166/1 170/1 161/1
f 176/1 170/1 166/1
f 176/1 171/1 170/1
f 178/1 171/1 176/1
f 178/1 177/1 171/1
f 188/1 177/1 178/1
f 188/1 185/1 177/1
f 193/1 185/1 188/1
f 193/1 189/1 185/1
f 173/1 167/1 168/1
f 173/1 174/1 167/1
f 180/1 174/1 173/1
f 180/1 181/1 174/1
f 184/1 181/1 180/1
f 184/1 186/1 181/1
f 192/1 186/1 184/1
f 192/1 191/1 186/1
f 174/1 165/1 167/1
f 174/1 175/1 165/1
f 284/1 175/1 174/1
f 284/1 283/1 175/1
f 278/1 283/1 284/1
f 278/1 277/1 283/1
f 288/1 277/1 278/1
f 288/1 287/1 277/1
f 263/1 287/1 288/1
f 263/1 262/1 287/1
f 261/1 262/1 263/1
f 261/1 260/1 262/1
f 264/1 260/1 261/1
f 264/1 257/1 260/1
f 175/1 166/1 165/1
f 175/1 176/1 166/1
f 283/1 176/1 175/1
f 283/1 282/1 176/1
f 277/1 282/1 283/1
f 277/1 276/1 282/1
f 287/1 276/1 277/1
f 287/1 292/1 276/1
f 262/1 292/1 287/1
f 262/1 265/1 292/1
f 260/1 265/1 262/1
f 260/1 259/1 265/1
f 257/1 259/1 260/1
f 257/1 256/1 259/1
f 187/1 181/1 186/1
f 187/1 182/1 181/1
f 188/1 182/1 187/1
f 188/1 178/1 182/1
f 194/1 189/1 190/1
f 194/1 195/1 189/1
f 200/1 195/1 194/1
f 200/1 201/1 195/1
f 211/1 201/1 200/1
f 211/1 208/1 201/1
f 218/1 208/1 211/1
f 218/1 212/1 208/1
f 217/1 212/1 218/1
f 217/1 214/1 212/1
f 190/1 191/1 192/1
f 195/1 185/1 189/1
f 195/1 198/1 185/1
f 201/1 198/1 195/1
f 201/1 205/1 198/1
f 208/1 205/1 201/1
f 208/1 209/1 205/1
f 212/1 209/1 208/1
f 212/1 213/1 209/1
f 214/1 213/1 212/1
f 214/1 215/1 213/1
f 197/1 192/1 184/1
f 197/1 199/1 192/1
f 203/1 199/1 197/1
f 203/1 202/1 199/1
f 206/1 202/1 203/1
f 206/1 207/1 202/1
f 222/1 207/1 206/1
f 222/1 220/1 207/1
f 221/1 220/1 222/1
f 221/1 219/1 220/1
f 202/1 194/1 199/1
f 202/1 200/1 194/1
f 207/1 200/1 202/1
f 207/1 211/1 200/1
f 220/1 211/1 207/1
f 220/1 218/1 211/1
f 219/1 218/1 220/1
f 219/1 217/1 218/1
f 193/1 190/1 189/1
f 193/1 226/1 190/1
f 193/1 225/1 226/1
f 188/1 225/1 193/1
f 188/1 229/1 225/1
f 187/1 229/1 188/1
f 187/1 228/1 229/1
f 186/1 228/1 187/1
f 186/1 227/1 228/1
f 191/1 227/1 186/1
f 191/1 230/1 227/1
f 190/1 230/1 191/1
f 190/1 226/1 230/1
f 192/1 199/1 194/1
f 190/1 192/1 194/1
f 225/1 232/1 226/1
f 225/1 231/1 232/1
f 229/1 231/1 225/1
f 229/1 236/1 231/1
f 228/1 236/1 229/1
f 228/1 235/1 236/1
f 227/1 235/1 228/1
f 227/1 234/1 235/1
f 230/1 234/1 227/1
f 230/1 233/1 234/1
f 226/1 233/1 230/1
f 226/1 232/1 233/1
f 233/1 238/1 234/1
f 233/1 237/1 238/1
f 232/1 237/1 233/1
f 232/1 242/1 237/1
f 231/1 242/1 232/1
f 231/1 240/1 242/1
f 236/1 240/1 231/1
f 236/1 239/1 240/1
f 235/1 239/1 236/1
f 235/1 241/1 239/1
f 234/1 241/1 235/1
f 234/1 238/1 241/1
f 239/1 244/1 240/1
f 239/1 243/1 244/1
f 241/1 243/1 239/1
f 241/1 254/1 243/1
f 238/1 254/1 241/1
f 238/1 253/1 254/1
f 237/1 253/1 238/1
f 237/1 251/1 253/1
f 242/1 251/1 237/1
f 242/1 249/1 251/1
f 240/1 249/1 242/1
f 240/1 244/1 249/1
f 243/1 246/1 244/1
f 243/1 245/1 246/1
f 254/1 245/1 243/1
f 254/1 255/1 245/1
f 253/1 255/1 254/1
f 253/1 252/1 255/1
f 251/1 252/1 253/1
f 251/1 250/1 252/1
f 249/1 250/1 251/1
f 249/1 247/1 250/1
f 244/1 247/1 249/1
f 244/1 246/1 247/1
f 263/1 266/1 261/1
f 263/1 267/1 266/1
f 288/1 267/1 263/1
f 288/1 291/1 267/1
f 278/1 291/1 288/1
f 278/1 279/1 291/1
f 284/1 279/1 278/1
f 284/1 285/1 279/1
f 174/1 285/1 284/1
f 174/1 181/1 285/1
f 266/1 264/1 261/1
f 266/1 268/1 264/1
f 269/1 268/1 266/1
f 269/1 271/1 268/1
f 273/1 271/1 269/1
f 273/1 272/1 271/1
f 259/1 272/1 273/1
f 259/1 256/1 272/1
f 267/1 269/1 266/1
f 267/1 270/1 269/1
f 291/1 270/1 267/1
f 291/1 289/1 270/1
f 279/1 289/1 291/1
f 279/1 280/1 289/1
f 285/1 280/1 279/1
f 285/1 286/1 280/1
f 181/1 286/1 285/1
f 181/1 182/1 286/1
f 270/1 273/1 269/1
f 270/1 274/1 273/1
f 289/1 274/1 270/1
f 289/1 290/1 274/1
f 280/1 290/1 289/1
f 280/1 275/1 290/1
f 286/1 275/1 280/1
f 286/1 281/1 275/1
f 182/1 281/1 286/1
f 182/1 178/1 281/1
f 274/1 259/1 273/1
f 274/1 265/1 259/1
f 290/1 265/1 274/1
f 290/1 292/1 265/1
f 275/1 292/1 290/1
f 275/1 276/1 292/1
f 281/1 276/1 275/1
f 281/1 282/1 276/1
f 178/1 282/1 281/1
f 178/1 176/1 282/1
f 306/1 293/1 305/1
f 306/1 294/1 293/1
f 310/1 294/1 306/1
f 310/1 302/1 294/1
f 312/1 302/1 310/1
f 312/1 304/1 302/1
f 311/1 304/1 312/1
f 311/1 303/1 304/1
f 309/1 303/1 311/1
f 309/1 301/1 303/1
f 317/1 295/1 316/1
f 317/1 296/1 295/1
f 318/1 296/1 317/1
f 318/1 297/1 296/1
f 319/1 297/1 318/1
f 319/1 298/1 297/1
f 320/1 298/1 319/1
f 320/1 299/1 298/1
f 321/1 299/1 320/1
f 321/1 300/1 299/1
f 31/1 312/1 23/1
f 31/1 311/1 312/1
f 16/1 311/1 31/1
f 16/1 309/1 311/1
f 322/1 328/1 329/1
f 322/1 323/1 328/1
f 293/1 323/1 322/1
f 293/1 294/1 323/1
f 325/1 330/1 331/1
f 325/1 324/1 330/1
f 303/1 324/1 325/1
f 303/1 301/1 324/1
f 326/1 331/1 332/1
f 326/1 325/1 331/1
f 304/1 325/1 326/1
f 304/1 303/1 325/1
f 327/1 332/1 333/1
f 327/1 326/1 332/1
f 302/1 326/1 327/1
f 302/1 304/1 326/1
f 323/1 333/1 328/1
f 323/1 327/1 333/1
f 294/1 327/1 323/1
f 294/1 302/1 327/1
f 313/1 11/1 70/1
f 313/1 314/1 11/1
f 297/1 314/1 313/1
f 297/1 298/1 314/1
f 314/1 9/1 11/1
f 314/1 315/1 9/1
f 298/1 315/1 314/1
f 298/1 299/1 315/1
f 315/1 7/1 9/1
f 315/1 308/1 7/1
f 299/1 308/1 315/1
f 299/1 300/1 308/1
f 334/1 318/1 317/1
f 334/1 335/1 318/1
f 340/1 335/1 334/1
f 340/1 341/1 335/1
f 346/1 341/1 340/1
f 346/1 347/1 341/1
f 352/1 347/1 346/1
f 352/1 353/1 347/1
f 328/1 353/1 352/1
f 328/1 333/1 353/1
f 335/1 319/1 318/1
f 335/1 336/1 319/1
f 341/1 336/1 335/1
f 341/1 342/1 336/1
f 347/1 342/1 341/1
f 347/1 348/1 342/1
f 353/1 348/1 347/1
f 353/1 354/1 348/1
f 333/1 354/1 353/1
f 333/1 332/1 354/1
f 336/1 320/1 319/1
f 336/1 337/1 320/1
f 342/1 337/1 336/1
f 342/1 343/1 337/1
f 348/1 343/1 342/1
f 348/1 349/1 343/1
f 354/1 349/1 348/1
f 354/1 355/1 349/1
f 332/1 355/1 354/1
f 332/1 331/1 355/1
f 337/1 321/1 320/1
f 337/1 338/1 321/1
f 343/1 338/1 337/1
f 343/1 344/1 338/1
f 349/1 344/1 343/1
f 349/1 350/1 344/1
f 355/1 350/1 349/1
f 355/1 356/1 350/1
f 331/1 356/1 355/1
f 331/1 330/1 356/1
f 339/1 317/1 316/1
f 339/1 334/1 317/1
f 345/1 334/1 339/1
f 345/1 340/1 334/1
f 351/1 340/1 345/1
f 351/1 346/1 340/1
f 357/1 346/1 351/1
f 357/1 352/1 346/1
f 329/1 352/1 357/1
f 329/1 328/1 352/1
f 306/1 297/1 313/1
f 306/1 296/1 297/1
f 307/1 296/1 306/1
f 307/1 295/1 296/1
f 23/1 70/1 20/1
f 23/1 312/1 70/1
f 310/1 70/1 312/1
f 310/1 313/1 70/1
f 306/1 313/1 310/1
f 128/1 16/1 19/1
f 128/1 309/1 16/1
f 305/1 309/1 128/1
f 128/1 307/1 305/1
f 306/1 305/1 307/1
f 3/1 1/1 2/1
f 2/1 127/1 3/1
f 121/1 3/1 127/1
f 121/1 111/1 3/1
f 105/1 3/1 111/1
f 105/1 103/1 3/1
f 98/1 3/1 103/1
f 98/1 93/1 3/1
f 82/1 3/1 93/1
f 82/1 73/1 3/1
f 67/1 3/1 73/1
f 67/1 55/1 3/1
f 44/1 3/1 55/1
f 44/1 33/1 3/1
f 24/1 3/1 33/1
f 24/1 1/1 3/1
f 217/1 216/1 214/1
f 217/1 219/1 216/1
f 221/1 216/1 219/1
f 221/1 224/1 216/1
f 215/1 216/1 224/1
f 215/1 214/1 216/1
f 246/1 248/1 247/1
f 246/1 245/1 248/1
f 255/1 248/1 245/1
f 255/1 252/1 248/1
f 250/1 248/1 252/1
f 250/1 247/1 248/1
f 257/1 258/1 256/1
f 257/1 264/1 258/1
f 268/1 258/1 264/1
f 268/1 271/1 258/1
f 272/1 258/1 271/1
f 272/1 256/1 258/1
usemtl mat_1
f 142/2 118/3 143/4
f 142/2 133/5 118/3
f 147/6 133/5 142/2
f 147/6 130/7 133/5
f 148/8 130/7 147/6
f 148/8 66/9 130/7
f 150/10 66/9 148/8
f 150/10 61/11 66/9
f 151/12 61/11 150/10
f 151/12 63/13 61/11
f 152/14 63/13 151/12
f 152/14 108/15 63/13
f 155/16 108/15 152/14
f 155/16 110/17 108/15
f 145/18 110/17 155/16
f 145/18 141/19 110/17
f 146/20 141/19 145/18
f 146/20 139/21 141/19
f 156/22 139/21 146/20
f 156/22 137/23 139/21
f 157/24 137/23 156/22
f 157/24 135/25 137/23
f 158/26 135/25 157/24
f 158/26 126/27 135/25
f 154/28 126/27 158/26
f 154/28 124/29 126/27
f 153/30 124/29 154/28
f 153/30 120/31 124/29
f 149/32 120/31 153/30
f 149/32 116/33 120/31
f 143/4 116/33 149/32
f 143/4 118/3 116/33
f 154/28 144/34 149/32
f 153/30 154/28 149/32
f 144/34 143/4 149/32
f 144/34 142/2 143/4
f 147/6 142/2 144/34
f 144/34 148/8 147/6
f 150/10 148/8 144/34
f 144/34 151/12 150/10
f 152/14 151/12 144/34
f 144/34 155/16 152/14
f 145/18 155/16 144/34
f 144/34 146/20 145/18
f 156/22 146/20 144/34
f 144/34 157/24 156/22
f 158/26 157/24 144/34
f 144/34 154/28 158/26
