# Blender v2.66 (sub 1) OBJ File: 'BR_Unown-Shiny11.blend'
# www.blender.org
mtllib BR_Unown-Shiny11.mtl
o unknown_e
v 0.386600 -0.354441 -2.996620
v 0.456026 -0.354441 -2.829010
v 0.000000 -0.383552 -2.738300
v 0.714344 -0.271538 -3.215610
v 0.842627 -0.271538 -2.905910
v 0.933336 -0.144535 -3.351630
v 1.100940 -0.144535 -2.946990
v 0.969826 -0.001110 -3.376010
v 1.143990 -0.001110 -2.955550
v 0.933336 0.142315 -3.351630
v 1.100940 0.142315 -2.946990
v 0.840317 0.228937 -3.289480
v 0.678627 0.250654 -3.181440
v 0.800495 0.250654 -2.887230
v 0.991221 0.228937 -2.925160
v 0.218992 0.142315 -1.627050
v 0.197167 0.228937 -1.736780
v -0.197166 0.228937 -1.736780
v -0.218991 0.142315 -1.627050
v -0.714344 -0.271538 -3.215610
v -0.933336 -0.144535 -3.351630
v -0.623635 -0.144535 -3.661330
v -0.477310 -0.271538 -3.452640
v 0.258318 -0.354441 -3.124900
v 0.477310 -0.271538 -3.452640
v 0.623635 -0.144535 -3.661330
v 0.648017 -0.001110 -3.697820
v 0.623635 0.142315 -3.661330
v 0.561482 0.228937 -3.568310
v 0.453444 0.250654 -3.406620
v -0.969826 -0.001110 -3.376010
v -0.648017 -0.001110 -3.697820
v -0.933336 0.142315 -3.351630
v -0.623635 0.142315 -3.661330
v 0.090709 -0.354441 -3.194320
v 0.167609 -0.271538 -3.580920
v 0.218991 -0.144535 -3.828940
v 0.227553 -0.001110 -3.871990
v 0.218991 0.142315 -3.828940
v 0.197166 0.228937 -3.719220
v 0.159228 0.250654 -3.528490
v 0.453444 0.250654 -2.049370
v 0.678627 0.250654 -2.274550
v 0.678627 0.220706 -2.274550
v 0.678627 0.220706 -2.274550
v 0.453444 0.220706 -2.049370
v 0.453444 0.220706 -2.049370
v -0.090709 -0.354441 -3.194320
v -0.167609 -0.271538 -3.580920
v -0.218992 -0.144535 -3.828940
v 0.800495 0.250654 -2.568770
v 0.800495 0.220706 -2.568770
v 0.800495 0.220706 -2.568770
v 0.800495 0.220706 -2.887230
v 0.800495 0.220706 -2.887230
v -0.197166 0.228937 -3.719220
v -0.159228 0.250654 -3.528490
v 0.159229 0.250654 -1.927500
v 0.159229 0.220706 -1.927500
v 0.159229 0.220706 -1.927500
v 0.840317 0.228937 -2.166520
v 0.933336 0.142315 -2.104360
v 1.100940 0.142315 -2.509010
v 0.991221 0.228937 -2.530830
v -0.258318 -0.354441 -3.124900
v -0.227553 -0.001110 -3.871990
v -0.218992 0.142315 -3.828940
v -0.561482 0.228937 -3.568310
v -0.453444 0.250654 -3.406620
v 0.561482 0.228937 -1.887680
v 0.623636 0.142315 -1.794660
v -0.386600 -0.354441 -2.996620
v -0.840317 0.228937 -3.289480
v -0.678627 0.250654 -3.181440
v -0.561481 0.228937 -1.887680
v -0.623635 0.142315 -1.794660
v -0.840317 0.228937 -2.166520
v -0.933336 0.142315 -2.104360
v -0.456026 -0.354441 -2.829010
v -0.842627 -0.271538 -2.905910
v -1.100940 -0.144535 -2.946990
v -1.143990 -0.001110 -2.955550
v -1.100940 0.142315 -2.946990
v -0.991221 0.228937 -2.925160
v -0.800495 0.250654 -2.887230
v -0.991221 0.228937 -2.530830
v -1.100940 0.142315 -2.509010
v -0.456026 -0.354441 -2.647590
v -0.842627 -0.271538 -2.570690
v -1.100940 -0.144535 -2.509010
v -0.159228 0.250654 -1.927500
v -0.159228 0.220706 -1.927500
v -0.159228 0.220706 -1.927500
v -0.800495 0.250654 -2.568770
v -0.386600 -0.354441 -2.479980
v -0.714344 -0.271538 -2.260990
v -0.933336 -0.144535 -2.104360
v -0.969826 -0.001110 -2.079980
v -1.143990 -0.001110 -2.500440
v -0.678627 0.250654 -2.274550
v -0.258318 -0.354441 -2.351700
v -0.477309 -0.271538 -2.023950
v -0.623635 -0.144535 -1.794660
v -0.648017 -0.001110 -1.758170
v -0.453444 0.250654 -2.049370
v -0.090709 -0.354441 -2.282270
v -0.167608 -0.271538 -1.895670
v -0.218991 -0.144535 -1.627050
v -0.227553 -0.001110 -1.584010
v 0.678627 0.220706 -3.181440
v 0.678627 0.220706 -3.181440
v 0.453444 0.220706 -3.406620
v 0.453444 0.220706 -3.406620
v 0.090710 -0.354441 -2.282270
v 0.167609 -0.271538 -1.895670
v 0.218992 -0.144535 -1.627050
v -0.453444 0.220706 -2.049370
v -0.453444 0.220706 -2.049370
v 0.159228 0.220706 -3.528490
v 0.159228 0.220706 -3.528490
v -0.159228 0.220706 -3.528490
v -0.159228 0.220706 -3.528490
v 0.258318 -0.354441 -2.351700
v 0.477310 -0.271538 -2.023950
v 0.623636 -0.144535 -1.794660
v 0.648017 -0.001110 -1.758170
v 0.227554 -0.001110 -1.584010
v -0.453444 0.220706 -3.406620
v -0.453444 0.220706 -3.406620
v -0.678627 0.220706 -3.181440
v -0.678627 0.220706 -3.181440
v 0.386601 -0.354441 -2.479980
v 0.714344 -0.271538 -2.260990
v 0.933336 -0.144535 -2.104360
v 0.969827 -0.001110 -2.079980
v -0.800495 0.220706 -2.887230
v -0.800495 0.220706 -2.887230
v -0.800495 0.220706 -2.568770
v -0.800495 0.220706 -2.568770
v 0.456026 -0.354441 -2.647590
v 0.842627 -0.271538 -2.570690
v 1.100940 -0.144535 -2.509010
v 1.143990 -0.001110 -2.500440
v -0.678627 0.220706 -2.274550
v -0.678627 0.220706 -2.274550
v 0.552795 0.377731 -2.605560
v 0.552795 0.377731 -2.825470
v 0.000000 0.476782 -2.715510
v -0.552795 0.377731 -2.605550
v -0.552795 0.377731 -2.825470
v 0.468637 0.377731 -2.402380
v 0.313133 0.377731 -2.246880
v 0.468637 0.377731 -3.028650
v 0.109958 0.377731 -2.162720
v -0.109957 0.377731 -2.162720
v -0.313133 0.377731 -2.246880
v 0.313133 0.377731 -3.184150
v 0.109958 0.377731 -3.268310
v -0.468636 0.377731 -2.402380
v -0.468637 0.377731 -3.028650
v -0.313133 0.377731 -3.184150
v -0.109958 0.377731 -3.268310
v 1.787650 -0.085282 -2.776600
v 1.787650 -0.001108 -2.825190
v 1.813540 -0.001108 -2.728000
v 1.716420 -0.147380 -2.812450
v 1.716420 -0.001108 -2.896900
v 1.716420 0.145163 -2.812450
v 1.626560 -0.001108 -2.922860
v 1.626560 0.167644 -2.825430
v 1.787650 0.083065 -2.776600
v 1.626560 -0.169861 -2.825430
v 1.716420 0.145163 -2.643550
v 1.626560 0.167644 -2.630570
v 1.787650 0.083065 -2.679400
v 1.716420 -0.001108 -2.559100
v 1.626560 -0.001108 -2.533140
v 1.787650 -0.001108 -2.630800
v 1.787650 -0.085282 -2.679400
v 1.716420 -0.147379 -2.643550
v 1.626560 -0.169861 -2.630570
v 1.356180 -0.152835 -2.815610
v 1.356190 -0.152836 -2.640390
v 1.356140 -0.001110 -2.903200
v 1.356180 0.150615 -2.815610
v 1.356190 0.150616 -2.640390
v 1.356160 -0.001110 -2.552790
v 1.225020 -0.154348 -2.640750
v 1.226240 -0.154259 -2.814940
v 1.229660 -0.001110 -2.901670
v 1.226240 0.152039 -2.814940
v 1.225020 0.152128 -2.640750
v 1.227220 -0.001110 -2.553890
v 1.500310 -0.001108 -2.903200
v 1.500310 0.150622 -2.815600
v 1.500310 -0.001108 -2.552790
v 1.500310 -0.152839 -2.640400
v 1.500310 0.150622 -2.640400
v 1.500310 -0.152839 -2.815600
v 1.424500 -0.085282 -4.763310
v 1.424560 -0.001108 -4.811910
v 1.450330 -0.001108 -4.714680
v 1.353310 -0.147379 -4.799250
v 1.353410 -0.001108 -4.883700
v 1.353310 0.145162 -4.799250
v 1.263580 -0.001108 -4.909770
v 1.263470 0.167644 -4.812340
v 1.424500 0.083065 -4.763310
v 1.263470 -0.169861 -4.812340
v 1.353110 0.145163 -4.630350
v 1.263230 0.167644 -4.617480
v 1.424390 0.083065 -4.666120
v 1.353010 -0.001108 -4.545900
v 1.263120 -0.001108 -4.520050
v 1.424330 -0.001108 -4.617520
v 1.424390 -0.085282 -4.666120
v 1.353110 -0.147379 -4.630350
v 1.263230 -0.169861 -4.617480
v 0.122412 -0.153633 -4.222970
v -0.052236 -0.153472 -4.225460
v -0.139085 -0.001110 -4.228100
v -0.052236 0.151252 -4.225460
v 0.122412 0.151413 -4.222970
v 0.209762 -0.001110 -4.223340
v 0.087290 -0.154478 -3.952360
v -0.086854 -0.154149 -3.954800
v -0.173170 -0.001110 -3.958670
v -0.086854 0.151929 -3.954800
v 0.087290 0.152258 -3.952360
v 0.174553 -0.001110 -3.954130
v 1.137310 -0.001108 -4.890260
v 1.137210 0.150622 -4.802660
v 1.136900 -0.001108 -4.539860
v 1.137000 -0.152839 -4.627460
v 1.137000 0.150622 -4.627460
v 1.137210 -0.152839 -4.802660
v 0.105704 -0.152902 -4.635350
v 0.030814 -0.001110 -4.680990
v 0.105704 0.150683 -4.635350
v 0.255280 0.150712 -4.544760
v 0.330449 -0.001110 -4.499560
v 0.255280 -0.152932 -4.544760
v -0.002241 -0.152794 -4.459170
v -0.085976 -0.001110 -4.484190
v -0.002241 0.150574 -4.459170
v 0.165693 0.150568 -4.409340
v 0.249586 -0.001110 -4.384680
v 0.165693 -0.152788 -4.409340
v 0.915278 -0.001109 -4.539940
v 0.914962 0.150615 -4.627510
v 0.914962 -0.152832 -4.627510
v 0.914244 -0.152837 -4.802670
v 0.913846 -0.001109 -4.890240
v 0.914244 0.150620 -4.802670
v 0.411653 -0.001109 -4.530620
v 0.371670 0.150716 -4.608750
v 0.291905 0.150685 -4.764410
v 0.251886 -0.001109 -4.842460
v 0.291906 -0.152904 -4.764410
v 0.371671 -0.152935 -4.608750
v 0.519272 -0.001109 -4.540030
v 0.518539 0.150607 -4.627560
v 0.516900 0.150618 -4.802680
v 0.516002 -0.001109 -4.890210
v 0.516900 -0.152835 -4.802680
v 0.518539 -0.152825 -4.627560
v 0.721592 -0.152836 -4.802680
v 0.720944 -0.001109 -4.890220
v 0.722771 -0.152829 -4.627540
v 0.723295 -0.001109 -4.539990
v 0.722771 0.150611 -4.627540
v 0.721592 0.150619 -4.802680
v -1.787650 -0.085282 -2.679400
v -1.787650 -0.001109 -2.630800
v -1.813540 -0.001109 -2.728000
v -1.716420 -0.147380 -2.643550
v -1.716420 -0.001109 -2.559100
v -1.716420 0.145162 -2.643550
v -1.626560 -0.001109 -2.533140
v -1.626560 0.167644 -2.630570
v -1.787650 0.083065 -2.679400
v -1.626560 -0.169861 -2.630570
v -1.716420 0.145162 -2.812450
v -1.626560 0.167644 -2.825430
v -1.787650 0.083065 -2.776600
v -1.716420 -0.001109 -2.896900
v -1.626560 -0.001109 -2.922860
v -1.787650 -0.001109 -2.825190
v -1.787650 -0.085282 -2.776600
v -1.716420 -0.147380 -2.812450
v -1.626560 -0.169861 -2.825430
v -1.356180 -0.152835 -2.640390
v -1.356190 -0.152836 -2.815610
v -1.356140 -0.001110 -2.552790
v -1.356180 0.150615 -2.640390
v -1.356190 0.150616 -2.815610
v -1.356160 -0.001110 -2.903200
v -1.225020 -0.154348 -2.815250
v -1.226240 -0.154260 -2.641060
v -1.229660 -0.001110 -2.554330
v -1.226240 0.152039 -2.641060
v -1.225020 0.152128 -2.815250
v -1.227220 -0.001110 -2.902110
v -1.500310 -0.001109 -2.552790
v -1.500310 0.150622 -2.640400
v -1.500310 -0.001109 -2.903200
v -1.500310 -0.152839 -2.815600
v -1.500310 0.150622 -2.815600
v -1.500310 -0.152839 -2.640400
v 1.424510 0.083062 -0.692683
v 1.424560 -0.001112 -0.644085
v 1.450330 -0.001112 -0.741311
v 1.353310 0.145159 -0.656745
v 1.353410 -0.001112 -0.572296
v 1.353310 -0.147383 -0.656744
v 1.263590 -0.001112 -0.546228
v 1.263470 -0.169864 -0.643657
v 1.424510 -0.085285 -0.692683
v 1.263470 0.167641 -0.643657
v 1.353110 -0.147383 -0.825644
v 1.263230 -0.169864 -0.838515
v 1.424390 -0.085285 -0.789878
v 1.353010 -0.001112 -0.910093
v 1.263120 -0.001112 -0.935944
v 1.424330 -0.001112 -0.838475
v 1.424390 0.083062 -0.789878
v 1.353110 0.145159 -0.825645
v 1.263230 0.167641 -0.838515
v 0.122412 0.151413 -1.233020
v -0.052235 0.151251 -1.230540
v -0.139084 -0.001110 -1.227890
v -0.052235 -0.153472 -1.230540
v 0.122412 -0.153633 -1.233020
v 0.209763 -0.001110 -1.232660
v 0.087290 0.152258 -1.503640
v -0.086853 0.151929 -1.501190
v -0.173169 -0.001110 -1.497330
v -0.086853 -0.154150 -1.501190
v 0.087290 -0.154479 -1.503640
v 0.174554 -0.001110 -1.501860
v 1.137310 -0.001112 -0.565731
v 1.137210 -0.152842 -0.653334
v 1.136910 -0.001112 -0.916138
v 1.137010 0.150619 -0.828536
v 1.137010 -0.152842 -0.828536
v 1.137210 0.150619 -0.653334
v 0.105705 0.150682 -0.820644
v 0.030815 -0.001111 -0.775008
v 0.105705 -0.152903 -0.820644
v 0.255281 -0.152933 -0.911237
v 0.330450 -0.001111 -0.956432
v 0.255281 0.150711 -0.911237
v -0.002240 0.150574 -0.996829
v -0.085975 -0.001110 -0.971810
v -0.002240 -0.152794 -0.996829
v 0.165694 -0.152788 -1.046660
v 0.249586 -0.001110 -1.071320
v 0.165694 0.150568 -1.046660
v 0.915279 -0.001112 -0.916052
v 0.914963 -0.152835 -0.828486
v 0.914963 0.150612 -0.828486
v 0.914245 0.150617 -0.653324
v 0.913847 -0.001112 -0.565759
v 0.914245 -0.152840 -0.653324
v 0.411653 -0.001111 -0.925375
v 0.371671 -0.152937 -0.847248
v 0.291907 -0.152906 -0.691582
v 0.251887 -0.001111 -0.613535
v 0.291907 0.150684 -0.691582
v 0.371672 0.150714 -0.847248
v 0.519273 -0.001112 -0.915967
v 0.518540 -0.152828 -0.828435
v 0.516901 -0.152838 -0.653315
v 0.516003 -0.001111 -0.565788
v 0.516901 0.150615 -0.653315
v 0.518540 0.150605 -0.828435
v 0.721593 0.150616 -0.653320
v 0.720945 -0.001112 -0.565774
v 0.722772 0.150608 -0.828460
v 0.723296 -0.001112 -0.916010
v 0.722772 -0.152831 -0.828460
v 0.721593 -0.152839 -0.653319
vt 0.000000 0.000000
vt 0.932116 0.918686
vt 0.984079 0.880013
vt 0.932116 0.883020
vt 0.984079 0.919062
vt 0.866450 0.951636
vt 0.923621 0.956934
vt 0.745113 0.976856
vt 0.783057 0.985437
vt 0.586580 0.990504
vt 0.596295 0.997696
vt 0.414985 0.990504
vt 0.403719 0.997696
vt 0.256452 0.976856
vt 0.216957 0.985437
vt 0.135115 0.951636
vt 0.076392 0.956934
vt 0.069448 0.918686
vt 0.015934 0.919063
vt 0.069448 0.883020
vt 0.015934 0.880013
vt 0.135115 0.850070
vt 0.076392 0.842142
vt 0.256451 0.824851
vt 0.216956 0.813638
vt 0.414985 0.811202
vt 0.403719 0.801379
vt 0.586580 0.811202
vt 0.596295 0.801379
vt 0.745113 0.824850
vt 0.783057 0.813638
vt 0.866450 0.850070
vt 0.923621 0.842142
vt 0.500007 0.901118
usemtl mat_0
s 1
f 2/1 1/1 4/1
f 4/1 5/1 2/1
f 6/1 5/1 4/1
f 6/1 7/1 5/1
f 8/1 7/1 6/1
f 8/1 9/1 7/1
f 10/1 9/1 8/1
f 10/1 11/1 9/1
f 12/1 11/1 10/1
f 12/1 15/1 11/1
f 13/1 15/1 12/1
f 13/1 14/1 15/1
f 110/1 14/1 13/1
f 110/1 54/1 14/1
f 18/1 16/1 17/1
f 18/1 19/1 16/1
f 75/1 19/1 18/1
f 75/1 76/1 19/1
f 77/1 76/1 75/1
f 77/1 78/1 76/1
f 86/1 78/1 77/1
f 86/1 87/1 78/1
f 84/1 87/1 86/1
f 84/1 83/1 87/1
f 73/1 83/1 84/1
f 73/1 33/1 83/1
f 68/1 33/1 73/1
f 68/1 34/1 33/1
f 56/1 34/1 68/1
f 56/1 67/1 34/1
f 40/1 67/1 56/1
f 40/1 39/1 67/1
f 29/1 39/1 40/1
f 29/1 28/1 39/1
f 12/1 28/1 29/1
f 12/1 10/1 28/1
f 22/1 20/1 21/1
f 22/1 23/1 20/1
f 50/1 23/1 22/1
f 50/1 49/1 23/1
f 37/1 49/1 50/1
f 37/1 36/1 49/1
f 26/1 36/1 37/1
f 26/1 25/1 36/1
f 6/1 25/1 26/1
f 6/1 4/1 25/1
f 4/1 1/1 24/1
f 24/1 25/1 4/1
f 35/1 25/1 24/1
f 35/1 36/1 25/1
f 48/1 36/1 35/1
f 48/1 49/1 36/1
f 65/1 49/1 48/1
f 65/1 23/1 49/1
f 72/1 23/1 65/1
f 72/1 20/1 23/1
f 79/1 20/1 72/1
f 79/1 80/1 20/1
f 88/1 80/1 79/1
f 88/1 89/1 80/1
f 95/1 89/1 88/1
f 95/1 96/1 89/1
f 101/1 96/1 95/1
f 101/1 102/1 96/1
f 106/1 102/1 101/1
f 106/1 107/1 102/1
f 114/1 107/1 106/1
f 114/1 115/1 107/1
f 123/1 115/1 114/1
f 123/1 124/1 115/1
f 132/1 124/1 123/1
f 132/1 133/1 124/1
f 140/1 133/1 132/1
f 140/1 141/1 133/1
f 2/1 141/1 140/1
f 2/1 5/1 141/1
f 27/1 6/1 26/1
f 27/1 8/1 6/1
f 28/1 8/1 27/1
f 28/1 10/1 8/1
f 29/1 13/1 12/1
f 29/1 30/1 13/1
f 40/1 30/1 29/1
f 40/1 41/1 30/1
f 56/1 41/1 40/1
f 56/1 57/1 41/1
f 68/1 57/1 56/1
f 68/1 69/1 57/1
f 73/1 69/1 68/1
f 73/1 74/1 69/1
f 84/1 74/1 73/1
f 84/1 85/1 74/1
f 86/1 85/1 84/1
f 86/1 94/1 85/1
f 77/1 94/1 86/1
f 77/1 100/1 94/1
f 75/1 100/1 77/1
f 75/1 105/1 100/1
f 18/1 105/1 75/1
f 18/1 91/1 105/1
f 17/1 91/1 18/1
f 17/1 58/1 91/1
f 70/1 58/1 17/1
f 70/1 42/1 58/1
f 61/1 42/1 70/1
f 61/1 43/1 42/1
f 64/1 43/1 61/1
f 64/1 51/1 43/1
f 15/1 51/1 64/1
f 15/1 14/1 51/1
f 21/1 32/1 22/1
f 21/1 31/1 32/1
f 81/1 31/1 21/1
f 81/1 82/1 31/1
f 298/1 82/1 81/1
f 298/1 303/1 82/1
f 293/1 303/1 298/1
f 293/1 297/1 303/1
f 307/1 297/1 293/1
f 307/1 306/1 297/1
f 291/1 306/1 307/1
f 291/1 287/1 306/1
f 290/1 287/1 291/1
f 290/1 286/1 287/1
f 289/1 286/1 290/1
f 289/1 288/1 286/1
f 31/1 34/1 32/1
f 31/1 33/1 34/1
f 82/1 33/1 31/1
f 82/1 83/1 33/1
f 303/1 83/1 82/1
f 303/1 302/1 83/1
f 297/1 302/1 303/1
f 297/1 296/1 302/1
f 306/1 296/1 297/1
f 306/1 308/1 296/1
f 287/1 308/1 306/1
f 287/1 284/1 308/1
f 286/1 284/1 287/1
f 286/1 283/1 284/1
f 288/1 283/1 286/1
f 288/1 285/1 283/1
f 38/1 26/1 37/1
f 38/1 27/1 26/1
f 39/1 27/1 38/1
f 39/1 28/1 27/1
f 46/1 43/1 44/1
f 46/1 42/1 43/1
f 59/1 42/1 46/1
f 59/1 58/1 42/1
f 92/1 58/1 59/1
f 92/1 91/1 58/1
f 117/1 91/1 92/1
f 117/1 105/1 91/1
f 144/1 105/1 117/1
f 144/1 100/1 105/1
f 138/1 100/1 144/1
f 138/1 94/1 100/1
f 136/1 94/1 138/1
f 136/1 85/1 94/1
f 130/1 85/1 136/1
f 130/1 74/1 85/1
f 128/1 74/1 130/1
f 128/1 69/1 74/1
f 121/1 69/1 128/1
f 121/1 57/1 69/1
f 119/1 57/1 121/1
f 119/1 41/1 57/1
f 112/1 41/1 119/1
f 112/1 30/1 41/1
f 110/1 30/1 112/1
f 110/1 13/1 30/1
f 51/1 44/1 43/1
f 51/1 52/1 44/1
f 14/1 52/1 51/1
f 14/1 54/1 52/1
f 63/1 61/1 62/1
f 63/1 64/1 61/1
f 11/1 64/1 63/1
f 11/1 15/1 64/1
f 32/1 50/1 22/1
f 32/1 66/1 50/1
f 34/1 66/1 32/1
f 34/1 67/1 66/1
f 70/1 62/1 61/1
f 70/1 71/1 62/1
f 17/1 71/1 70/1
f 17/1 16/1 71/1
f 80/1 21/1 20/1
f 80/1 81/1 21/1
f 89/1 81/1 80/1
f 89/1 90/1 81/1
f 96/1 90/1 89/1
f 96/1 97/1 90/1
f 102/1 97/1 96/1
f 102/1 103/1 97/1
f 107/1 103/1 102/1
f 107/1 108/1 103/1
f 115/1 108/1 107/1
f 115/1 116/1 108/1
f 124/1 116/1 115/1
f 124/1 125/1 116/1
f 133/1 125/1 124/1
f 133/1 134/1 125/1
f 141/1 134/1 133/1
f 141/1 142/1 134/1
f 5/1 142/1 141/1
f 5/1 7/1 142/1
f 98/1 90/1 97/1
f 98/1 99/1 90/1
f 78/1 99/1 98/1
f 78/1 87/1 99/1
f 104/1 97/1 103/1
f 104/1 98/1 97/1
f 76/1 98/1 104/1
f 76/1 78/1 98/1
f 109/1 103/1 108/1
f 109/1 104/1 103/1
f 19/1 104/1 109/1
f 19/1 76/1 104/1
f 126/1 116/1 125/1
f 126/1 127/1 116/1
f 71/1 127/1 126/1
f 71/1 16/1 127/1
f 135/1 125/1 134/1
f 135/1 126/1 125/1
f 62/1 126/1 135/1
f 62/1 71/1 126/1
f 143/1 134/1 142/1
f 143/1 135/1 134/1
f 63/1 135/1 143/1
f 63/1 62/1 135/1
f 166/1 164/1 163/1
f 166/1 167/1 164/1
f 172/1 167/1 166/1
f 172/1 169/1 167/1
f 199/1 169/1 172/1
f 199/1 194/1 169/1
f 182/1 194/1 199/1
f 182/1 184/1 194/1
f 189/1 184/1 182/1
f 189/1 190/1 184/1
f 7/1 190/1 189/1
f 7/1 9/1 190/1
f 169/1 168/1 167/1
f 169/1 170/1 168/1
f 194/1 170/1 169/1
f 194/1 195/1 170/1
f 184/1 195/1 194/1
f 184/1 185/1 195/1
f 190/1 185/1 184/1
f 190/1 191/1 185/1
f 9/1 191/1 190/1
f 9/1 11/1 191/1
f 168/1 164/1 167/1
f 168/1 171/1 164/1
f 173/1 171/1 168/1
f 173/1 175/1 171/1
f 176/1 175/1 173/1
f 176/1 178/1 175/1
f 180/1 178/1 176/1
f 180/1 179/1 178/1
f 166/1 179/1 180/1
f 166/1 163/1 179/1
f 170/1 173/1 168/1
f 170/1 174/1 173/1
f 195/1 174/1 170/1
f 195/1 198/1 174/1
f 185/1 198/1 195/1
f 185/1 186/1 198/1
f 191/1 186/1 185/1
f 191/1 192/1 186/1
f 11/1 192/1 191/1
f 11/1 63/1 192/1
f 174/1 176/1 173/1
f 174/1 177/1 176/1
f 198/1 177/1 174/1
f 198/1 196/1 177/1
f 186/1 196/1 198/1
f 186/1 187/1 196/1
f 192/1 187/1 186/1
f 192/1 193/1 187/1
f 63/1 193/1 192/1
f 63/1 143/1 193/1
f 177/1 180/1 176/1
f 177/1 181/1 180/1
f 196/1 181/1 177/1
f 196/1 197/1 181/1
f 187/1 197/1 196/1
f 187/1 183/1 197/1
f 193/1 183/1 187/1
f 193/1 188/1 183/1
f 143/1 188/1 193/1
f 143/1 142/1 188/1
f 181/1 166/1 180/1
f 181/1 172/1 166/1
f 197/1 172/1 181/1
f 197/1 199/1 172/1
f 183/1 199/1 197/1
f 183/1 182/1 199/1
f 188/1 182/1 183/1
f 188/1 189/1 182/1
f 142/1 189/1 188/1
f 142/1 7/1 189/1
f 203/1 201/1 200/1
f 203/1 204/1 201/1
f 209/1 204/1 203/1
f 209/1 206/1 204/1
f 236/1 206/1 209/1
f 236/1 231/1 206/1
f 252/1 231/1 236/1
f 252/1 253/1 231/1
f 267/1 253/1 252/1
f 267/1 268/1 253/1
f 265/1 268/1 267/1
f 265/1 264/1 268/1
f 259/1 264/1 265/1
f 259/1 258/1 264/1
f 237/1 258/1 259/1
f 237/1 238/1 258/1
f 243/1 238/1 237/1
f 243/1 244/1 238/1
f 220/1 244/1 243/1
f 220/1 221/1 244/1
f 226/1 221/1 220/1
f 226/1 227/1 221/1
f 50/1 227/1 226/1
f 50/1 66/1 227/1
f 206/1 205/1 204/1
f 206/1 207/1 205/1
f 231/1 207/1 206/1
f 231/1 232/1 207/1
f 253/1 232/1 231/1
f 253/1 254/1 232/1
f 268/1 254/1 253/1
f 268/1 272/1 254/1
f 264/1 272/1 268/1
f 264/1 263/1 272/1
f 258/1 263/1 264/1
f 258/1 257/1 263/1
f 238/1 257/1 258/1
f 238/1 239/1 257/1
f 244/1 239/1 238/1
f 244/1 245/1 239/1
f 221/1 245/1 244/1
f 221/1 222/1 245/1
f 227/1 222/1 221/1
f 227/1 228/1 222/1
f 66/1 228/1 227/1
f 66/1 67/1 228/1
f 205/1 201/1 204/1
f 205/1 208/1 201/1
f 210/1 208/1 205/1
f 210/1 212/1 208/1
f 213/1 212/1 210/1
f 213/1 215/1 212/1
f 217/1 215/1 213/1
f 217/1 216/1 215/1
f 203/1 216/1 217/1
f 203/1 200/1 216/1
f 207/1 210/1 205/1
f 207/1 211/1 210/1
f 232/1 211/1 207/1
f 232/1 235/1 211/1
f 254/1 235/1 232/1
f 254/1 250/1 235/1
f 272/1 250/1 254/1
f 272/1 271/1 250/1
f 263/1 271/1 272/1
f 263/1 262/1 271/1
f 257/1 262/1 263/1
f 257/1 256/1 262/1
f 239/1 256/1 257/1
f 239/1 240/1 256/1
f 245/1 240/1 239/1
f 245/1 246/1 240/1
f 222/1 246/1 245/1
f 222/1 223/1 246/1
f 228/1 223/1 222/1
f 228/1 229/1 223/1
f 67/1 229/1 228/1
f 67/1 39/1 229/1
f 211/1 213/1 210/1
f 211/1 214/1 213/1
f 235/1 214/1 211/1
f 235/1 233/1 214/1
f 250/1 233/1 235/1
f 250/1 249/1 233/1
f 271/1 249/1 250/1
f 271/1 270/1 249/1
f 262/1 270/1 271/1
f 262/1 261/1 270/1
f 256/1 261/1 262/1
f 256/1 255/1 261/1
f 240/1 255/1 256/1
f 240/1 241/1 255/1
f 246/1 241/1 240/1
f 246/1 247/1 241/1
f 223/1 247/1 246/1
f 223/1 224/1 247/1
f 229/1 224/1 223/1
f 229/1 230/1 224/1
f 39/1 230/1 229/1
f 39/1 38/1 230/1
f 214/1 217/1 213/1
f 214/1 218/1 217/1
f 233/1 218/1 214/1
f 233/1 234/1 218/1
f 249/1 234/1 233/1
f 249/1 251/1 234/1
f 270/1 251/1 249/1
f 270/1 269/1 251/1
f 261/1 269/1 270/1
f 261/1 266/1 269/1
f 255/1 266/1 261/1
f 255/1 260/1 266/1
f 241/1 260/1 255/1
f 241/1 242/1 260/1
f 247/1 242/1 241/1
f 247/1 248/1 242/1
f 224/1 248/1 247/1
f 224/1 219/1 248/1
f 230/1 219/1 224/1
f 230/1 225/1 219/1
f 38/1 225/1 230/1
f 38/1 37/1 225/1
f 218/1 203/1 217/1
f 218/1 209/1 203/1
f 234/1 209/1 218/1
f 234/1 236/1 209/1
f 251/1 236/1 234/1
f 251/1 252/1 236/1
f 269/1 252/1 251/1
f 269/1 267/1 252/1
f 266/1 267/1 269/1
f 266/1 265/1 267/1
f 260/1 265/1 266/1
f 260/1 259/1 265/1
f 242/1 259/1 260/1
f 242/1 237/1 259/1
f 248/1 237/1 242/1
f 248/1 243/1 237/1
f 219/1 243/1 248/1
f 219/1 220/1 243/1
f 225/1 220/1 219/1
f 225/1 226/1 220/1
f 37/1 226/1 225/1
f 37/1 50/1 226/1
f 276/1 274/1 273/1
f 276/1 277/1 274/1
f 282/1 277/1 276/1
f 282/1 279/1 277/1
f 309/1 279/1 282/1
f 309/1 304/1 279/1
f 292/1 304/1 309/1
f 292/1 294/1 304/1
f 299/1 294/1 292/1
f 299/1 300/1 294/1
f 90/1 300/1 299/1
f 90/1 99/1 300/1
f 279/1 278/1 277/1
f 279/1 280/1 278/1
f 304/1 280/1 279/1
f 304/1 305/1 280/1
f 294/1 305/1 304/1
f 294/1 295/1 305/1
f 300/1 295/1 294/1
f 300/1 301/1 295/1
f 99/1 301/1 300/1
f 99/1 87/1 301/1
f 278/1 274/1 277/1
f 278/1 281/1 274/1
f 283/1 281/1 278/1
f 283/1 285/1 281/1
f 280/1 283/1 278/1
f 280/1 284/1 283/1
f 305/1 284/1 280/1
f 305/1 308/1 284/1
f 295/1 308/1 305/1
f 295/1 296/1 308/1
f 301/1 296/1 295/1
f 301/1 302/1 296/1
f 87/1 302/1 301/1
f 87/1 83/1 302/1
f 290/1 273/1 289/1
f 290/1 276/1 273/1
f 291/1 276/1 290/1
f 291/1 282/1 276/1
f 307/1 282/1 291/1
f 307/1 309/1 282/1
f 293/1 309/1 307/1
f 293/1 292/1 309/1
f 298/1 292/1 293/1
f 298/1 299/1 292/1
f 81/1 299/1 298/1
f 81/1 90/1 299/1
f 313/1 311/1 310/1
f 313/1 314/1 311/1
f 319/1 314/1 313/1
f 319/1 316/1 314/1
f 346/1 316/1 319/1
f 346/1 341/1 316/1
f 362/1 341/1 346/1
f 362/1 363/1 341/1
f 377/1 363/1 362/1
f 377/1 378/1 363/1
f 375/1 378/1 377/1
f 375/1 374/1 378/1
f 369/1 374/1 375/1
f 369/1 368/1 374/1
f 347/1 368/1 369/1
f 347/1 348/1 368/1
f 353/1 348/1 347/1
f 353/1 354/1 348/1
f 330/1 354/1 353/1
f 330/1 331/1 354/1
f 336/1 331/1 330/1
f 336/1 337/1 331/1
f 19/1 337/1 336/1
f 19/1 109/1 337/1
f 316/1 315/1 314/1
f 316/1 317/1 315/1
f 341/1 317/1 316/1
f 341/1 342/1 317/1
f 363/1 342/1 341/1
f 363/1 364/1 342/1
f 378/1 364/1 363/1
f 378/1 382/1 364/1
f 374/1 382/1 378/1
f 374/1 373/1 382/1
f 368/1 373/1 374/1
f 368/1 367/1 373/1
f 348/1 367/1 368/1
f 348/1 349/1 367/1
f 354/1 349/1 348/1
f 354/1 355/1 349/1
f 331/1 355/1 354/1
f 331/1 332/1 355/1
f 337/1 332/1 331/1
f 337/1 338/1 332/1
f 109/1 338/1 337/1
f 109/1 108/1 338/1
f 315/1 311/1 314/1
f 315/1 318/1 311/1
f 320/1 318/1 315/1
f 320/1 322/1 318/1
f 323/1 322/1 320/1
f 323/1 325/1 322/1
f 327/1 325/1 323/1
f 327/1 326/1 325/1
f 313/1 326/1 327/1
f 313/1 310/1 326/1
f 317/1 320/1 315/1
f 317/1 321/1 320/1
f 342/1 321/1 317/1
f 342/1 345/1 321/1
f 364/1 345/1 342/1
f 364/1 360/1 345/1
f 382/1 360/1 364/1
f 382/1 381/1 360/1
f 373/1 381/1 382/1
f 373/1 372/1 381/1
f 367/1 372/1 373/1
f 367/1 366/1 372/1
f 349/1 366/1 367/1
f 349/1 350/1 366/1
f 355/1 350/1 349/1
f 355/1 356/1 350/1
f 332/1 356/1 355/1
f 332/1 333/1 356/1
f 338/1 333/1 332/1
f 338/1 339/1 333/1
f 108/1 339/1 338/1
f 108/1 116/1 339/1
f 321/1 323/1 320/1
f 321/1 324/1 323/1
f 345/1 324/1 321/1
f 345/1 343/1 324/1
f 360/1 343/1 345/1
f 360/1 359/1 343/1
f 381/1 359/1 360/1
f 381/1 380/1 359/1
f 372/1 380/1 381/1
f 372/1 371/1 380/1
f 366/1 371/1 372/1
f 366/1 365/1 371/1
f 350/1 365/1 366/1
f 350/1 351/1 365/1
f 356/1 351/1 350/1
f 356/1 357/1 351/1
f 333/1 357/1 356/1
f 333/1 334/1 357/1
f 339/1 334/1 333/1
f 339/1 340/1 334/1
f 116/1 340/1 339/1
f 116/1 127/1 340/1
f 324/1 327/1 323/1
f 324/1 328/1 327/1
f 343/1 328/1 324/1
f 343/1 344/1 328/1
f 359/1 344/1 343/1
f 359/1 361/1 344/1
f 380/1 361/1 359/1
f 380/1 379/1 361/1
f 371/1 379/1 380/1
f 371/1 376/1 379/1
f 365/1 376/1 371/1
f 365/1 370/1 376/1
f 351/1 370/1 365/1
f 351/1 352/1 370/1
f 357/1 352/1 351/1
f 357/1 358/1 352/1
f 334/1 358/1 357/1
f 334/1 329/1 358/1
f 340/1 329/1 334/1
f 340/1 335/1 329/1
f 127/1 335/1 340/1
f 127/1 16/1 335/1
f 328/1 313/1 327/1
f 328/1 319/1 313/1
f 344/1 319/1 328/1
f 344/1 346/1 319/1
f 361/1 346/1 344/1
f 361/1 362/1 346/1
f 379/1 362/1 361/1
f 379/1 377/1 362/1
f 376/1 377/1 379/1
f 376/1 375/1 377/1
f 370/1 375/1 376/1
f 370/1 369/1 375/1
f 352/1 369/1 370/1
f 352/1 347/1 369/1
f 358/1 347/1 352/1
f 358/1 353/1 347/1
f 329/1 353/1 358/1
f 329/1 330/1 353/1
f 335/1 330/1 329/1
f 335/1 336/1 330/1
f 16/1 336/1 335/1
f 16/1 19/1 336/1
f 3/1 1/1 2/1
f 2/1 140/1 3/1
f 132/1 3/1 140/1
f 132/1 123/1 3/1
f 114/1 3/1 123/1
f 114/1 106/1 3/1
f 101/1 3/1 106/1
f 101/1 95/1 3/1
f 88/1 3/1 95/1
f 88/1 79/1 3/1
f 72/1 3/1 79/1
f 72/1 65/1 3/1
f 48/1 3/1 65/1
f 48/1 35/1 3/1
f 24/1 3/1 35/1
f 24/1 1/1 3/1
f 164/1 165/1 163/1
f 164/1 171/1 165/1
f 175/1 165/1 171/1
f 175/1 178/1 165/1
f 179/1 165/1 178/1
f 179/1 163/1 165/1
f 201/1 202/1 200/1
f 201/1 208/1 202/1
f 212/1 202/1 208/1
f 212/1 215/1 202/1
f 216/1 202/1 215/1
f 216/1 200/1 202/1
f 274/1 275/1 273/1
f 274/1 281/1 275/1
f 285/1 275/1 281/1
f 285/1 288/1 275/1
f 289/1 275/1 288/1
f 289/1 273/1 275/1
f 311/1 312/1 310/1
f 311/1 318/1 312/1
f 322/1 312/1 318/1
f 322/1 325/1 312/1
f 326/1 312/1 325/1
f 326/1 310/1 312/1
usemtl mat_1
f 146/2 55/3 147/4
f 146/2 53/5 55/3
f 151/6 53/5 146/2
f 151/6 45/7 53/5
f 152/8 45/7 151/6
f 152/8 47/9 45/7
f 154/10 47/9 152/8
f 154/10 60/11 47/9
f 155/12 60/11 154/10
f 155/12 93/13 60/11
f 156/14 93/13 155/12
f 156/14 118/15 93/13
f 159/16 118/15 156/14
f 159/16 145/17 118/15
f 149/18 145/17 159/16
f 149/18 139/19 145/17
f 150/20 139/19 149/18
f 150/20 137/21 139/19
f 160/22 137/21 150/20
f 160/22 131/23 137/21
f 161/24 131/23 160/22
f 161/24 129/25 131/23
f 162/26 129/25 161/24
f 162/26 122/27 129/25
f 158/28 122/27 162/26
f 158/28 120/29 122/27
f 157/30 120/29 158/28
f 157/30 113/31 120/29
f 153/32 113/31 157/30
f 153/32 111/33 113/31
f 147/4 111/33 153/32
f 147/4 55/3 111/33
f 158/28 148/34 153/32
f 157/30 158/28 153/32
f 148/34 147/4 153/32
f 148/34 146/2 147/4
f 151/6 146/2 148/34
f 148/34 152/8 151/6
f 154/10 152/8 148/34
f 148/34 155/12 154/10
f 156/14 155/12 148/34
f 148/34 159/16 156/14
f 149/18 159/16 148/34
f 148/34 150/20 149/18
f 160/22 150/20 148/34
f 148/34 161/24 160/22
f 162/26 161/24 148/34
f 148/34 158/28 162/26
