# Blender v2.66 (sub 1) OBJ File: 'BR_Altaria.blend'
# www.blender.org
mtllib BR_Altaria.mtl
o tyltalis
v -0.266729 -3.807608 -2.476220
v -0.249896 -2.542686 -2.719440
v 0.300696 -2.537180 -2.719440
v 0.342823 -3.801512 -2.476220
v -0.795173 -3.650924 -2.381260
v -0.535806 -2.412689 -2.624100
v -0.002150 -2.525988 -2.698660
v -0.204371 -3.776353 -2.463800
v 0.279852 -3.771510 -2.463800
v 0.052666 -2.525440 -2.698660
v 0.583950 -2.401491 -2.624100
v 0.868027 -3.634292 -2.381260
v 0.384949 -5.065844 -2.232990
v -0.283562 -5.072529 -2.232990
v -0.406593 -5.026717 -2.228940
v -1.054542 -4.889160 -2.138420
v 1.152108 -4.867092 -2.138420
v 0.507038 -5.017581 -2.228940
v 0.836541 -3.458658 -10.342200
v 1.391789 -3.355020 -10.342200
v 1.642155 -4.696334 -10.665100
v 1.086903 -4.799971 -10.665100
v 0.609469 -2.242138 -9.669800
v 1.164713 -2.138500 -9.669800
v 0.353441 -0.870485 -9.639450
v 0.908686 -0.766846 -9.639450
v 0.106419 0.452920 -10.058200
v 0.661664 0.556559 -10.058200
v 0.409686 1.906512 -10.035300
v -0.145559 1.802875 -10.035300
v -0.304695 2.655446 -8.947970
v 0.250548 2.759083 -8.947970
v -0.990693 -4.820747 -10.665100
v -1.547906 -4.728235 -10.665100
v -1.324415 -3.382183 -10.342200
v -0.767206 -3.474696 -10.342200
v -1.121713 -2.161365 -9.669800
v -0.564509 -2.253878 -9.669800
v -0.893168 -0.784865 -9.639450
v -0.335963 -0.877380 -9.639450
v -0.672662 0.543216 -10.058200
v -0.115456 0.450701 -10.058200
v -0.305676 2.753521 -8.947970
v 0.251529 2.661008 -8.947970
v 0.109475 1.805425 -10.035300
v -0.447731 1.897938 -10.035300
v -1.383516 -3.380384 -2.573550
v -0.901022 -2.210611 -2.803260
v -0.352692 -2.424198 -2.812740
v -0.781719 -3.614798 -2.583940
v -1.255906 -4.930726 -2.331070
v -1.916784 -4.673291 -2.319650
v -1.797835 -6.434639 -2.042070
v -2.526248 -6.150899 -2.029490
v 0.853854 -3.598442 -2.583940
v 0.401102 -2.416660 -2.812740
v 0.945051 -2.192149 -2.803260
v 1.450842 -3.352039 -2.573550
v 2.009860 -4.634024 -2.319650
v 1.354263 -4.904623 -2.331070
v 2.648753 -6.099148 -2.029490
v 1.926159 -6.397398 -2.042070
v 0.902981 3.707015 -8.100300
v 0.557810 3.958846 -8.003680
v 0.570671 3.895151 -7.663770
v -0.648455 3.882960 -7.663770
v -0.636870 3.946899 -8.003680
v -0.976936 3.688215 -8.100300
v -0.040831 4.082956 -7.990830
v 0.521142 3.873565 -8.435590
v -0.598505 3.862368 -8.435590
v 0.373399 3.961882 -7.716400
v -0.452558 3.953622 -7.716400
v 0.672308 3.669157 -7.289120
v -0.033206 3.322954 -7.105980
v 0.705405 2.970012 -7.207630
v 0.885781 3.359086 -7.357680
v -0.745552 3.654977 -7.289120
v -0.764661 2.955311 -7.207630
v -0.038528 3.857828 -7.303850
v 0.914435 2.564952 -7.457390
v -0.952782 3.340699 -7.357680
v -0.965547 2.546152 -7.457390
v -0.039178 3.917694 -7.503890
v 1.056350 3.455316 -7.712440
v 0.912928 3.101704 -8.509430
v 1.090019 3.007571 -7.805440
v -0.974777 3.082827 -8.509430
v -1.125241 3.433500 -7.712440
v -0.955590 3.722230 -7.805970
v 0.743303 3.647625 -8.486630
v 0.880959 3.740597 -7.805970
v -0.816103 3.632031 -8.486630
v 0.498647 3.931343 -7.497390
v -0.577170 3.920584 -7.497390
v -0.040724 4.072237 -7.787900
v 0.456669 3.451239 -8.769960
v -0.035497 3.549533 -8.877990
v -0.525598 3.441416 -8.769960
v 0.657436 3.916800 -7.639000
v 0.957698 3.779886 -7.754510
v -0.039660 3.965812 -8.408540
v -0.673401 2.593856 -8.883130
v -1.033099 3.759977 -7.754510
v -0.601667 3.849916 -7.375550
v -0.735637 3.902869 -7.639000
v -1.107688 3.292308 -7.554070
v -1.149949 2.985170 -7.805440
v -0.974070 3.783079 -7.486080
v -0.026524 2.652328 -9.077070
v -0.021122 2.112144 -8.852730
v -0.018540 1.853887 -8.532230
v -0.915169 2.539435 -8.532230
v -0.016833 1.683206 -7.958150
v -1.052193 2.538065 -7.898450
v -0.017489 1.748832 -7.457390
v 0.621391 2.606804 -8.883130
v 0.524552 3.861179 -7.375550
v 1.041625 3.313802 -7.554070
v 0.898219 3.801802 -7.486080
v 0.864200 2.557230 -8.532230
v 1.001225 2.558600 -7.898450
v 0.620329 2.581892 -7.027730
v -0.671839 2.568970 -7.027730
v -0.031720 3.171881 -6.938170
v -0.019440 1.943893 -7.057580
v -0.483098 2.217740 -7.057580
v 0.438649 2.226958 -7.057580
v -0.209036 4.306135 -7.406640
v 0.122877 4.309454 -7.406640
v 0.339717 4.188046 -7.440890
v -0.423405 4.180415 -7.440890
v -0.043204 4.320284 -7.537960
v -0.043808 4.380661 -7.343810
v 0.257543 4.186225 -7.432300
v -0.040730 4.078156 -7.319540
v -0.341106 4.180238 -7.432300
v -0.043110 4.316095 -7.403150
v -1.400800 -1.809088 -3.730360
v -1.797480 -1.813055 -2.897440
v -2.088848 -0.763702 -2.774420
v -1.629045 -0.934650 -3.707260
v -2.028210 0.315887 -2.892770
v -1.583180 0.061051 -3.767220
v -1.828486 1.287500 -3.133320
v -1.428552 0.966103 -3.907210
v -0.793505 -2.569173 -3.531820
v -1.122682 -2.572465 -2.995850
v -1.531240 2.083392 -3.654090
v -1.094998 1.757368 -4.251520
v 0.017950 -1.794900 -1.322920
v 0.025611 -2.560992 -1.956540
v 0.028955 -2.895425 -2.995850
v 0.025611 -2.560992 -3.830130
v 0.017950 -1.794900 -4.325620
v 0.009920 -0.991951 -4.402440
v 0.000805 -0.080537 -4.404010
v -0.007568 0.756780 -4.443430
v -0.015397 1.539633 -4.611300
v 1.647411 -0.901884 -3.707260
v 2.103703 -0.721774 -2.774420
v 1.833379 -1.776745 -2.897440
v 1.436699 -1.780712 -3.730360
v 1.581642 0.092700 -3.767220
v 2.021487 0.356385 -2.892770
v 1.408946 0.994479 -3.907210
v 1.802372 1.323810 -3.133320
v 1.173903 -2.549499 -2.995850
v 0.844727 -2.552791 -3.531820
v 1.059634 1.778915 -4.251520
v 1.489269 2.113598 -3.654090
v -1.101488 2.536332 -4.420760
v -0.789487 2.185194 -4.798590
v -0.019406 1.940513 -5.074560
v -0.031895 3.189360 -3.740570
v 0.745628 2.200546 -4.798590
v 1.050544 2.557853 -4.420760
v -0.659324 2.743984 -5.376240
v -0.510396 2.359174 -5.508410
v -0.032901 3.289995 -5.199410
v -0.021137 2.113564 -5.640580
v 0.463113 2.368910 -5.508410
v 0.604315 2.756621 -5.376240
v -0.567178 2.721604 -6.333720
v -0.032231 3.222969 -6.333720
v -0.021701 2.170022 -6.333720
v -0.439752 2.376451 -6.333720
v 0.512636 2.732403 -6.333720
v 0.392137 2.384770 -6.333720
v -0.372431 0.460218 -0.207173
v -0.271412 0.286581 0.000186
v -0.550730 0.576785 0.000186
v -0.538059 -0.422572 0.000186
v -1.234301 0.276952 0.000186
v -1.136773 0.452574 -0.207173
v -0.755779 0.574106 -0.207173
v -0.953522 -0.426726 0.000186
v -0.960840 0.572683 0.000186
v -0.082435 0.878437 0.000186
v -0.745332 -0.470565 -0.298447
v -0.593131 -0.096488 -0.414533
v -0.904983 -0.099606 -0.414533
v -1.435071 0.864910 0.000186
v -0.604728 -0.286377 -1.084570
v -0.889591 -0.289226 -1.084570
v -0.744074 -0.596332 -1.084570
v -0.745608 -0.442961 -2.119240
v -0.738726 -1.131064 0.000186
v -0.762889 1.285115 0.000186
v 0.265627 0.291952 0.000186
v 0.363153 0.467574 -0.207173
v 0.539085 0.587683 0.000186
v 0.546402 -0.411727 0.000186
v 1.127494 0.475218 -0.207173
v 1.228516 0.301581 0.000186
v 0.744146 0.589106 -0.207173
v 0.961866 -0.407572 0.000186
v 0.949194 0.591784 0.000186
v 0.064851 0.879910 0.000186
v 0.594942 -0.084607 -0.414533
v 0.754593 -0.455566 -0.298447
v 0.906794 -0.081488 -0.414533
v 1.417487 0.893436 0.000186
v 0.895196 -0.271378 -1.084570
v 0.610334 -0.274226 -1.084570
v 0.755851 -0.581333 -1.084570
v 0.754317 -0.427961 -2.119240
v 0.761199 -1.116064 0.000186
v 0.737036 1.300115 0.000186
vt 1.000000 0.500000
vt 0.000000 1.000000
vt 1.000000 1.000000
vt 0.000000 0.500000
vt 1.000000 0.000000
vt 0.000000 0.000000
vt 0.000000 0.703125
vt 1.000000 0.703125
vt 0.000000 0.375000
vt 1.000000 0.375000
vt 0.000000 0.073250
vt 1.000000 0.073250
vt 0.000000 0.036125
vt 1.000000 0.036125
vt 1.485090 0.985090
vt 0.694887 0.825572
vt 1.660080 0.886840
vt 0.610065 0.940579
vt 0.525244 1.055590
vt -0.868411 0.925386
vt -0.912825 1.019240
vt 0.125306 0.827805
vt 1.310110 1.083340
vt 0.125305 0.827805
vt -0.823997 0.831527
vt 0.015625 0.015625
vt 0.772341 0.786013
vt 0.500000 0.546665
vt 0.500000 0.833337
vt 0.738925 0.529634
vt 0.879307 0.678566
vt 0.814943 0.149519
vt 0.959162 0.444688
vt 0.932811 0.212328
vt 0.500000 -0.077323
vt 0.500000 -0.046782
vt 0.185057 0.149519
vt 0.500000 0.124506
vt 0.261075 0.529634
vt 0.227659 0.786013
vt 0.120693 0.678566
vt 0.040838 0.444688
vt 0.067189 0.212328
vt 0.271959 0.777517
vt 0.178741 0.487833
vt 0.000000 0.979000
vt 0.360272 0.180963
vt 0.500002 0.149962
vt 0.500002 -0.000000
vt 0.639731 0.180963
vt 0.728044 0.777520
vt 0.500000 0.664063
vt 0.821262 0.487834
vt 1.000000 0.979000
vt 0.031250 0.031250
vt 0.843750 0.485577
vt 0.500000 0.889500
vt 0.500000 -0.048000
vt 0.044000 0.871000
vt 0.500000 0.871500
vt 0.956000 0.871500
vt 0.500000 1.000000
vt 0.500000 0.000000
vt 0.153846 0.483173
usemtl mat_0
s 1
f 4/1 2/2 3/3
f 4/1 1/4 2/2
f 13/5 1/4 4/1
f 14/5 1/6 13/4
f 8/4 6/3 7/2
f 8/4 5/1 6/3
f 15/6 5/1 8/4
f 15/6 16/5 5/1
f 12/1 10/2 11/3
f 12/1 9/4 10/2
f 17/5 9/4 12/1
f 17/5 18/6 9/4
f 50/7 48/3 49/2
f 50/7 47/8 48/3
f 51/9 47/8 50/7
f 51/9 52/10 47/8
f 53/6 52/10 51/9
f 53/6 54/5 52/10
f 58/8 56/2 57/3
f 58/8 55/7 56/2
f 59/10 55/7 58/8
f 59/10 60/9 55/7
f 61/5 60/9 59/10
f 61/5 62/6 60/9
usemtl mat_1
f 19/11 21/3 22/2
f 19/11 20/12 21/3
f 23/13 20/12 19/11
f 23/13 24/14 20/12
f 25/6 24/14 23/13
f 25/6 26/5 24/14
f 27/13 26/5 25/6
f 27/13 28/14 26/5
f 30/11 28/14 27/13
f 30/11 29/12 28/14
f 31/2 29/12 30/11
f 31/2 32/3 29/12
f 35/12 33/2 34/3
f 35/12 36/11 33/2
f 37/14 36/11 35/12
f 37/14 38/13 36/11
f 39/5 38/13 37/14
f 39/5 40/6 38/13
f 41/14 40/6 39/5
f 41/14 42/13 40/6
f 46/12 42/13 41/14
f 46/12 45/11 42/13
f 43/3 45/11 46/12
f 43/3 44/2 45/11
usemtl mat_2
f 63/15 65/16 92/17
f 63/15 64/18 65/16
f 70/19 64/18 63/15
f 70/19 69/20 64/18
f 102/21 69/20 70/19
f 102/21 71/19 69/20
f 67/18 69/20 71/19
f 67/18 73/22 69/20
f 66/16 73/22 67/18
f 67/18 68/15 66/16
f 71/19 68/15 67/18
f 71/19 93/23 68/15
f 63/15 91/23 70/19
f 68/15 90/17 66/16
f 64/18 72/24 65/16
f 64/18 69/20 72/24
f 96/25 72/24 69/20
f 69/20 73/22 96/25
usemtl mat_3
f 66/26 95/26 73/26
f 125/26 79/26 124/26
f 125/26 75/26 79/26
f 123/26 75/26 125/26
f 123/26 76/26 75/26
f 141/26 139/26 140/26
f 141/26 142/26 139/26
f 143/26 142/26 141/26
f 143/26 144/26 142/26
f 145/26 144/26 143/26
f 145/26 146/26 144/26
f 149/26 146/26 145/26
f 149/26 150/26 146/26
f 172/26 150/26 149/26
f 172/26 173/26 150/26
f 178/26 173/26 172/26
f 178/26 179/26 173/26
f 184/26 179/26 178/26
f 184/26 187/26 179/26
f 124/26 187/26 184/26
f 124/26 127/26 187/26
f 139/26 148/26 140/26
f 139/26 147/26 148/26
f 155/26 147/26 139/26
f 155/26 154/26 147/26
f 163/26 154/26 155/26
f 163/26 169/26 154/26
f 162/26 169/26 163/26
f 162/26 168/26 169/26
f 151/26 168/26 162/26
f 151/26 152/26 168/26
f 140/26 152/26 151/26
f 140/26 148/26 152/26
f 184/26 125/26 124/26
f 184/26 185/26 125/26
f 178/26 185/26 184/26
f 178/26 180/26 185/26
f 172/26 180/26 178/26
f 172/26 175/26 180/26
f 186/26 127/26 126/26
f 186/26 187/26 127/26
f 181/26 187/26 186/26
f 181/26 179/26 187/26
f 174/26 179/26 181/26
f 174/26 173/26 179/26
f 159/26 173/26 174/26
f 159/26 150/26 173/26
f 158/26 150/26 159/26
f 158/26 146/26 150/26
f 157/26 146/26 158/26
f 157/26 144/26 146/26
f 156/26 144/26 157/26
f 156/26 142/26 144/26
f 155/26 142/26 156/26
f 155/26 139/26 142/26
f 72/26 94/26 65/26
f 175/26 172/26 149/26
f 113/26 115/26 108/26
f 88/26 113/26 108/26
f 122/26 121/26 86/26
f 87/26 122/26 86/26
f 154/26 148/26 147/26
f 154/26 153/26 148/26
f 169/26 153/26 154/26
f 169/26 168/26 153/26
f 163/26 161/26 162/26
f 163/26 160/26 161/26
f 155/26 160/26 163/26
f 155/26 156/26 160/26
f 160/26 165/26 161/26
f 160/26 164/26 165/26
f 156/26 164/26 160/26
f 156/26 157/26 164/26
f 164/26 167/26 165/26
f 164/26 166/26 167/26
f 157/26 166/26 164/26
f 157/26 158/26 166/26
f 166/26 171/26 167/26
f 166/26 170/26 171/26
f 158/26 170/26 166/26
f 158/26 159/26 170/26
f 170/26 177/26 171/26
f 170/26 176/26 177/26
f 159/26 176/26 170/26
f 159/26 174/26 176/26
f 176/26 183/26 177/26
f 176/26 182/26 183/26
f 174/26 182/26 176/26
f 174/26 181/26 182/26
f 185/26 123/26 125/26
f 185/26 188/26 123/26
f 180/26 188/26 185/26
f 180/26 183/26 188/26
f 175/26 183/26 180/26
f 175/26 177/26 183/26
f 128/26 186/26 126/26
f 128/26 189/26 186/26
f 123/26 189/26 128/26
f 123/26 188/26 189/26
f 182/26 188/26 183/26
f 182/26 189/26 188/26
f 181/26 189/26 182/26
f 181/26 186/26 189/26
f 171/26 177/26 175/26
f 68/26 89/26 90/26
f 68/26 88/26 89/26
f 93/26 88/26 68/26
f 108/26 89/26 88/26
f 108/26 107/26 89/26
f 83/26 107/26 108/26
f 83/26 82/26 107/26
f 79/26 82/26 83/26
f 79/26 78/26 82/26
f 75/26 78/26 79/26
f 75/26 80/26 78/26
f 74/26 80/26 75/26
f 74/26 118/26 80/26
f 94/26 80/26 118/26
f 76/26 74/26 75/26
f 76/26 77/26 74/26
f 81/26 77/26 76/26
f 81/26 119/26 77/26
f 87/26 119/26 81/26
f 87/26 85/26 119/26
f 86/26 85/26 87/26
f 86/26 63/26 85/26
f 91/26 63/26 86/26
f 63/26 92/26 85/26
f 123/26 81/26 76/26
f 123/26 128/26 81/26
f 116/26 81/26 128/26
f 116/26 114/26 81/26
f 83/26 114/26 116/26
f 83/26 115/26 114/26
f 108/26 115/26 83/26
f 80/26 105/26 78/26
f 80/26 95/26 105/26
f 83/26 124/26 79/26
f 83/26 127/26 124/26
f 116/26 127/26 83/26
f 116/26 126/26 127/26
f 128/26 126/26 116/26
f 113/26 114/26 115/26
f 113/26 112/26 114/26
f 121/26 114/26 112/26
f 121/26 122/26 114/26
f 81/26 114/26 122/26
f 122/26 87/26 81/26
f 153/26 152/26 148/26
f 153/26 168/26 152/26
f 70/27 98/28 102/29
f 70/27 97/30 98/28
f 91/31 97/30 70/27
f 91/31 117/32 97/30
f 86/33 117/32 91/31
f 86/33 121/34 117/32
f 112/35 117/32 121/34
f 112/35 111/36 117/32
f 103/37 111/36 112/35
f 103/37 110/38 111/36
f 99/39 110/38 103/37
f 99/39 98/28 110/38
f 71/40 98/28 99/39
f 71/40 102/29 98/28
f 110/38 117/32 111/36
f 110/38 97/30 117/32
f 98/28 97/30 110/38
f 99/39 93/41 71/40
f 99/39 103/37 93/41
f 88/42 93/41 103/37
f 103/37 113/43 88/42
f 112/35 113/43 103/37
usemtl mat_4
f 72/44 131/45 94/46
f 72/44 130/47 131/45
f 133/48 130/47 72/44
f 133/48 134/49 130/47
f 129/50 134/49 133/48
f 133/48 73/51 129/50
f 96/52 73/51 133/48
f 133/48 72/44 96/52
f 73/51 132/53 129/50
f 73/51 95/54 132/53
f 135/55 136/55 94/55
f 135/55 138/55 136/55
f 137/55 136/55 138/55
f 137/55 95/55 136/55
f 80/55 136/55 95/55
f 80/55 94/55 136/55
usemtl mat_5
f 65/16 101/23 92/55
f 66/56 65/16 92/55
usemtl mat_6
f 191/57 200/57 201/57
f 191/57 193/57 200/57
f 194/57 193/57 191/57
f 194/57 197/57 193/57
f 202/57 197/57 194/57
f 202/57 200/57 197/57
f 205/57 200/57 202/57
f 205/57 206/57 200/57
f 201/57 205/57 202/57
f 201/57 204/57 205/57
f 200/57 204/57 201/57
f 200/57 206/57 204/57
f 194/57 191/57 192/57
f 198/57 194/57 192/57
f 220/57 213/57 210/57
f 220/57 221/57 213/57
f 225/57 221/57 220/57
f 225/57 226/57 221/57
f 222/57 225/57 220/57
f 222/57 224/57 225/57
f 221/57 224/57 222/57
f 221/57 226/57 224/57
f 215/57 221/57 222/57
f 215/57 217/57 221/57
f 210/57 217/57 215/57
f 210/57 213/57 217/57
f 210/57 215/57 218/57
f 212/57 210/57 218/57
f 190/57 196/57 192/57
f 190/57 201/57 196/57
f 191/57 201/57 190/57
f 202/57 196/57 201/57
f 202/57 195/57 196/57
f 194/57 195/57 202/57
f 198/57 196/57 195/57
f 216/57 211/57 212/57
f 216/57 220/57 211/57
f 222/57 220/57 216/57
f 216/57 214/57 222/57
f 218/57 214/57 216/57
f 222/57 214/57 215/57
f 210/57 211/57 220/57
f 199/58 191/59 190/60
f 199/58 192/61 191/59
f 190/60 192/61 199/58
f 203/58 195/60 194/61
f 203/58 198/59 195/60
f 194/61 198/59 203/58
f 206/57 207/57 204/57
f 206/57 205/57 207/57
f 204/57 207/57 205/57
f 208/58 193/61 197/59
f 208/58 200/60 193/61
f 197/59 200/60 208/58
f 209/58 192/61 196/60
f 209/58 198/59 192/61
f 196/60 198/59 209/58
f 219/58 211/60 210/59
f 219/58 212/61 211/60
f 210/59 212/61 219/58
f 223/58 215/61 214/60
f 223/58 218/59 215/61
f 214/60 218/59 223/58
f 225/57 227/57 226/57
f 225/57 224/57 227/57
f 226/57 227/57 224/57
f 228/58 217/59 213/61
f 228/58 221/60 217/59
f 213/61 221/60 228/58
f 229/58 216/60 212/61
f 229/58 218/59 216/60
f 212/61 218/59 229/58
usemtl mat_7
f 129/50 130/47 134/49
f 129/50 84/62 130/47
f 132/53 84/62 129/50
f 132/53 95/54 84/62
f 137/56 84/62 95/54
f 137/56 138/63 84/62
f 135/64 84/62 138/63
f 135/64 94/46 84/62
f 131/45 84/62 94/46
f 131/45 130/47 84/62
