xof 0303txt 0032

template AnimTicksPerSecond {
  <9E415A43-7BA6-4a73-8743-B73D47E88476>
  DWORD AnimTicksPerSecond;
}

template XSkinMeshHeader {
  <3cf169ce-ff7c-44ab-93c0-f78f62d172e2>
  WORD nMaxSkinWeightsPerVertex;
  WORD nMaxSkinWeightsPerFace;
  WORD nBones;
}

template SkinWeights {
  <6f0d123b-bad2-4167-a0d0-80224f25fabb>
  STRING transformNodeName;
  DWORD nWeights;
  array DWORD vertexIndices[nWeights];
  array float weights[nWeights];
  Matrix4x4 matrixOffset;
}

Frame Root {
  FrameTransformMatrix {
     1.000000, 0.000000, 0.000000, 0.000000,
     0.000000, 0.000000, 1.000000, 0.000000,
     0.000000, 1.000000,-0.000000, 0.000000,
     0.000000, 0.000000, 0.000000, 1.000000;;
  }
  Frame shaymin_mat_0 {
    FrameTransformMatrix {
       1.000000, 0.000000, 0.000000, 0.000000,
       0.000000, 1.000000, 0.000000, 0.000000,
       0.000000, 0.000000, 1.000000, 0.000000,
       0.000000, 0.000000, 0.000000, 1.000000;;
    }
    Mesh { //Mesh Mesh
      144;
       0.629798; 1.508910;-1.106973;,
       0.575334; 1.434730;-1.212327;,
       0.739599; 1.400617;-1.138648;,
       0.575334; 1.434730;-1.212327;,
       0.664083; 1.324904;-1.231500;,
       0.739599; 1.400617;-1.138648;,
       0.664083; 1.324904;-1.231500;,
       0.575334; 1.434730;-1.212327;,
       0.548544; 1.273335;-1.289274;,
       0.575334; 1.434730;-1.212327;,
       0.462399; 1.272911;-1.305447;,
       0.548544; 1.273335;-1.289274;,
       0.462399; 1.272911;-1.305447;,
       0.575334; 1.434730;-1.212327;,
       0.144434; 1.410926;-1.242505;,
       0.575334; 1.434730;-1.212327;,
       0.423329; 1.559623;-1.108303;,
       0.144434; 1.410926;-1.242505;,
       0.423329; 1.559623;-1.108303;,
       0.575334; 1.434730;-1.212327;,
       0.516608; 1.558503;-1.093144;,
       0.575334; 1.434730;-1.212327;,
       0.629798; 1.508910;-1.106973;,
       0.516608; 1.558503;-1.093144;,
       0.530578; 1.105715;-1.426043;,
       0.396952; 1.138070;-1.463721;,
       0.487722; 0.981730;-1.493619;,
       0.396952; 1.138070;-1.463721;,
       0.353377; 1.019050;-1.523417;,
       0.487722; 0.981730;-1.493619;,
       0.353377; 1.019050;-1.523417;,
       0.396952; 1.138070;-1.463721;,
       0.244265; 1.077602;-1.509574;,
       0.396952; 1.138070;-1.463721;,
       0.179740; 1.133541;-1.451481;,
       0.244265; 1.077602;-1.509574;,
       0.179740; 1.133541;-1.451481;,
       0.396952; 1.138070;-1.463721;,
       0.144434; 1.410926;-1.242505;,
       0.396952; 1.138070;-1.463721;,
       0.462399; 1.272911;-1.305447;,
       0.144434; 1.410926;-1.242505;,
       0.462399; 1.272911;-1.305447;,
       0.396952; 1.138070;-1.463721;,
       0.519884; 1.191532;-1.365013;,
       0.396952; 1.138070;-1.463721;,
       0.530578; 1.105715;-1.426043;,
       0.519884; 1.191532;-1.365013;,
       0.046270; 1.032212;-1.575260;,
      -0.022810; 1.151130;-1.545304;,
      -0.104986; 1.000171;-1.608815;,
      -0.022810; 1.151130;-1.545304;,
      -0.152962; 1.123536;-1.552935;,
      -0.104986; 1.000171;-1.608815;,
      -0.152962; 1.123536;-1.552935;,
      -0.022810; 1.151130;-1.545304;,
      -0.157100; 1.221018;-1.500932;,
      -0.022810; 1.151130;-1.545304;,
      -0.124531; 1.296866;-1.428568;,
      -0.157100; 1.221018;-1.500932;,
      -0.124531; 1.296866;-1.428568;,
      -0.022810; 1.151130;-1.545304;,
       0.144434; 1.410926;-1.242505;,
      -0.022810; 1.151130;-1.545304;,
       0.179740; 1.133541;-1.451481;,
       0.144434; 1.410926;-1.242505;,
       0.179740; 1.133541;-1.451481;,
      -0.022810; 1.151130;-1.545304;,
       0.126337; 1.074640;-1.533359;,
      -0.022810; 1.151130;-1.545304;,
       0.046270; 1.032212;-1.575260;,
       0.126337; 1.074640;-1.533359;,
      -0.323100; 1.357677;-1.436033;,
      -0.260264; 1.473844;-1.393613;,
      -0.441891; 1.450493;-1.387160;,
      -0.260264; 1.473844;-1.393613;,
      -0.357355; 1.536669;-1.315095;,
      -0.441891; 1.450493;-1.387160;,
      -0.357355; 1.536669;-1.315095;,
      -0.260264; 1.473844;-1.393613;,
      -0.268670; 1.579354;-1.260982;,
      -0.260264; 1.473844;-1.393613;,
      -0.157877; 1.577533;-1.234519;,
      -0.268670; 1.579354;-1.260982;,
      -0.157877; 1.577533;-1.234519;,
      -0.260264; 1.473844;-1.393613;,
       0.144434; 1.410926;-1.242505;,
      -0.260264; 1.473844;-1.393613;,
      -0.124531; 1.296866;-1.428568;,
       0.144434; 1.410926;-1.242505;,
      -0.124531; 1.296866;-1.428568;,
      -0.260264; 1.473844;-1.393613;,
      -0.225381; 1.302506;-1.449100;,
      -0.260264; 1.473844;-1.393613;,
      -0.323100; 1.357677;-1.436033;,
      -0.225381; 1.302506;-1.449100;,
      -0.217387; 1.738756;-1.125702;,
      -0.085807; 1.757511;-1.124100;,
      -0.193939; 1.856387;-1.014071;,
      -0.085807; 1.757511;-1.124100;,
      -0.051412; 1.839938;-1.017180;,
      -0.193939; 1.856387;-1.014071;,
      -0.051412; 1.839938;-1.017180;,
      -0.085807; 1.757511;-1.124100;,
       0.071266; 1.791245;-1.034827;,
      -0.085807; 1.757511;-1.124100;,
       0.114069; 1.708563;-1.053344;,
       0.071266; 1.791245;-1.034827;,
       0.114069; 1.708563;-1.053344;,
      -0.085807; 1.757511;-1.124100;,
       0.144434; 1.410926;-1.242505;,
      -0.085807; 1.757511;-1.124100;,
      -0.157877; 1.577533;-1.234519;,
       0.144434; 1.410926;-1.242505;,
      -0.157877; 1.577533;-1.234519;,
      -0.085807; 1.757511;-1.124100;,
      -0.210710; 1.667661;-1.193802;,
      -0.085807; 1.757511;-1.124100;,
      -0.217387; 1.738756;-1.125702;,
      -0.210710; 1.667661;-1.193802;,
       0.247567; 1.825754;-0.962572;,
       0.333955; 1.744451;-1.042517;,
       0.398769; 1.837946;-0.898875;,
       0.333955; 1.744451;-1.042517;,
       0.468408; 1.721669;-0.989366;,
       0.398769; 1.837946;-0.898875;,
       0.468408; 1.721669;-0.989366;,
       0.333955; 1.744451;-1.042517;,
       0.464846; 1.639727;-1.047983;,
       0.333955; 1.744451;-1.042517;,
       0.423329; 1.559623;-1.108303;,
       0.464846; 1.639727;-1.047983;,
       0.423329; 1.559623;-1.108303;,
       0.333955; 1.744451;-1.042517;,
       0.144434; 1.410926;-1.242505;,
       0.333955; 1.744451;-1.042517;,
       0.114069; 1.708563;-1.053344;,
       0.144434; 1.410926;-1.242505;,
       0.114069; 1.708563;-1.053344;,
       0.333955; 1.744451;-1.042517;,
       0.164527; 1.779329;-1.004656;,
       0.333955; 1.744451;-1.042517;,
       0.247567; 1.825754;-0.962572;,
       0.164527; 1.779329;-1.004656;;
      48;
      3;0;1;2;,
      3;3;4;5;,
      3;6;7;8;,
      3;9;10;11;,
      3;12;13;14;,
      3;15;16;17;,
      3;18;19;20;,
      3;21;22;23;,
      3;24;25;26;,
      3;27;28;29;,
      3;30;31;32;,
      3;33;34;35;,
      3;36;37;38;,
      3;39;40;41;,
      3;42;43;44;,
      3;45;46;47;,
      3;48;49;50;,
      3;51;52;53;,
      3;54;55;56;,
      3;57;58;59;,
      3;60;61;62;,
      3;63;64;65;,
      3;66;67;68;,
      3;69;70;71;,
      3;72;73;74;,
      3;75;76;77;,
      3;78;79;80;,
      3;81;82;83;,
      3;84;85;86;,
      3;87;88;89;,
      3;90;91;92;,
      3;93;94;95;,
      3;96;97;98;,
      3;99;100;101;,
      3;102;103;104;,
      3;105;106;107;,
      3;108;109;110;,
      3;111;112;113;,
      3;114;115;116;,
      3;117;118;119;,
      3;120;121;122;,
      3;123;124;125;,
      3;126;127;128;,
      3;129;130;131;,
      3;132;133;134;,
      3;135;136;137;,
      3;138;139;140;,
      3;141;142;143;;
      MeshNormals { //Mesh Normals
        144;
        -0.328837;-0.683737; 0.651418;,
        -0.231147;-0.571429; 0.787378;,
        -0.433637;-0.555101; 0.709769;,
        -0.231147;-0.571429; 0.787378;,
        -0.359844;-0.434889; 0.825434;,
        -0.433637;-0.555101; 0.709769;,
        -0.359844;-0.434889; 0.825434;,
        -0.231147;-0.571429; 0.787378;,
        -0.202826;-0.393750; 0.896542;,
        -0.231147;-0.571429; 0.787378;,
        -0.143468;-0.584735; 0.798425;,
        -0.202826;-0.393750; 0.896542;,
        -0.143468;-0.584735; 0.798425;,
        -0.231147;-0.571429; 0.787378;,
        -0.190435;-0.573260; 0.796899;,
        -0.231147;-0.571429; 0.787378;,
        -0.152074;-0.561541; 0.813318;,
        -0.190435;-0.573260; 0.796899;,
        -0.152074;-0.561541; 0.813318;,
        -0.231147;-0.571429; 0.787378;,
        -0.160344;-0.723045; 0.671896;,
        -0.231147;-0.571429; 0.787378;,
        -0.328837;-0.683737; 0.651418;,
        -0.160344;-0.723045; 0.671896;,
        -0.343272;-0.472396; 0.811762;,
        -0.184118;-0.545518; 0.817591;,
        -0.313089;-0.350566; 0.882626;,
        -0.184118;-0.545518; 0.817591;,
        -0.201636;-0.379131; 0.903073;,
        -0.313089;-0.350566; 0.882626;,
        -0.201636;-0.379131; 0.903073;,
        -0.184118;-0.545518; 0.817591;,
        -0.001007;-0.602588; 0.798029;,
        -0.184118;-0.545518; 0.817591;,
        -0.162084;-0.628864; 0.760399;,
        -0.001007;-0.602588; 0.798029;,
        -0.162084;-0.628864; 0.760399;,
        -0.184118;-0.545518; 0.817591;,
        -0.190435;-0.573260; 0.796899;,
        -0.184118;-0.545518; 0.817591;,
        -0.143468;-0.584735; 0.798425;,
        -0.190435;-0.573260; 0.796899;,
        -0.143468;-0.584735; 0.798425;,
        -0.184118;-0.545518; 0.817591;,
        -0.289651;-0.642933; 0.709006;,
        -0.184118;-0.545518; 0.817591;,
        -0.343272;-0.472396; 0.811762;,
        -0.289651;-0.642933; 0.709006;,
        -0.207556;-0.350597; 0.913205;,
        -0.169591;-0.519333; 0.837550;,
        -0.056429;-0.360881; 0.930876;,
        -0.169591;-0.519333; 0.837550;,
         0.039491;-0.435102; 0.899472;,
        -0.056429;-0.360881; 0.930876;,
         0.039491;-0.435102; 0.899472;,
        -0.169591;-0.519333; 0.837550;,
        -0.048921;-0.600665; 0.797967;,
        -0.169591;-0.519333; 0.837550;,
        -0.243507;-0.553056; 0.796747;,
        -0.048921;-0.600665; 0.797967;,
        -0.243507;-0.553056; 0.796747;,
        -0.169591;-0.519333; 0.837550;,
        -0.190435;-0.573260; 0.796899;,
        -0.169591;-0.519333; 0.837550;,
        -0.162084;-0.628864; 0.760399;,
        -0.190435;-0.573260; 0.796899;,
        -0.162084;-0.628864; 0.760399;,
        -0.169591;-0.519333; 0.837550;,
        -0.339091;-0.541002; 0.769585;,
        -0.169591;-0.519333; 0.837550;,
        -0.207556;-0.350597; 0.913205;,
        -0.339091;-0.541002; 0.769585;,
         0.007721;-0.346660; 0.937925;,
        -0.119083;-0.576525; 0.808313;,
         0.100620;-0.554460; 0.826075;,
        -0.119083;-0.576525; 0.808313;,
         0.055422;-0.745048; 0.664663;,
         0.100620;-0.554460; 0.826075;,
         0.055422;-0.745048; 0.664663;,
        -0.119083;-0.576525; 0.808313;,
        -0.102359;-0.781610; 0.615284;,
        -0.119083;-0.576525; 0.808313;,
        -0.245613;-0.593005; 0.766808;,
        -0.102359;-0.781610; 0.615284;,
        -0.245613;-0.593005; 0.766808;,
        -0.119083;-0.576525; 0.808313;,
        -0.190435;-0.573260; 0.796899;,
        -0.119083;-0.576525; 0.808313;,
        -0.243507;-0.553056; 0.796747;,
        -0.190435;-0.573260; 0.796899;,
        -0.243507;-0.553056; 0.796747;,
        -0.119083;-0.576525; 0.808313;,
        -0.155889;-0.332896; 0.929960;,
        -0.119083;-0.576525; 0.808313;,
         0.007721;-0.346660; 0.937925;,
        -0.155889;-0.332896; 0.929960;,
         0.089480;-0.689291; 0.718925;,
        -0.151158;-0.625965; 0.765038;,
         0.003510;-0.742058; 0.670309;,
        -0.151158;-0.625965; 0.765038;,
        -0.141453;-0.761467; 0.632527;,
         0.003510;-0.742058; 0.670309;,
        -0.141453;-0.761467; 0.632527;,
        -0.151158;-0.625965; 0.765038;,
        -0.335368;-0.518998; 0.786218;,
        -0.151158;-0.625965; 0.765038;,
        -0.182684;-0.526261; 0.830439;,
        -0.335368;-0.518998; 0.786218;,
        -0.182684;-0.526261; 0.830439;,
        -0.151158;-0.625965; 0.765038;,
        -0.190435;-0.573260; 0.796899;,
        -0.151158;-0.625965; 0.765038;,
        -0.245613;-0.593005; 0.766808;,
        -0.190435;-0.573260; 0.796899;,
        -0.245613;-0.593005; 0.766808;,
        -0.151158;-0.625965; 0.765038;,
        -0.065920;-0.552751; 0.830714;,
        -0.151158;-0.625965; 0.765038;,
         0.089480;-0.689291; 0.718925;,
        -0.065920;-0.552751; 0.830714;,
        -0.073366;-0.737785; 0.671010;,
        -0.181616;-0.615192; 0.767144;,
        -0.277322;-0.743187; 0.608875;,
        -0.181616;-0.615192; 0.767144;,
        -0.378643;-0.609149; 0.696799;,
        -0.277322;-0.743187; 0.608875;,
        -0.378643;-0.609149; 0.696799;,
        -0.181616;-0.615192; 0.767144;,
        -0.351390;-0.481094; 0.803125;,
        -0.181616;-0.615192; 0.767144;,
        -0.152074;-0.561541; 0.813318;,
        -0.351390;-0.481094; 0.803125;,
        -0.152074;-0.561541; 0.813318;,
        -0.181616;-0.615192; 0.767144;,
        -0.190435;-0.573260; 0.796899;,
        -0.181616;-0.615192; 0.767144;,
        -0.182684;-0.526261; 0.830439;,
        -0.190435;-0.573260; 0.796899;,
        -0.182684;-0.526261; 0.830439;,
        -0.181616;-0.615192; 0.767144;,
         0.044465;-0.627644; 0.777184;,
        -0.181616;-0.615192; 0.767144;,
        -0.073366;-0.737785; 0.671010;,
         0.044465;-0.627644; 0.777184;;
        48;
        3;0;1;2;,
        3;3;4;5;,
        3;6;7;8;,
        3;9;10;11;,
        3;12;13;14;,
        3;15;16;17;,
        3;18;19;20;,
        3;21;22;23;,
        3;24;25;26;,
        3;27;28;29;,
        3;30;31;32;,
        3;33;34;35;,
        3;36;37;38;,
        3;39;40;41;,
        3;42;43;44;,
        3;45;46;47;,
        3;48;49;50;,
        3;51;52;53;,
        3;54;55;56;,
        3;57;58;59;,
        3;60;61;62;,
        3;63;64;65;,
        3;66;67;68;,
        3;69;70;71;,
        3;72;73;74;,
        3;75;76;77;,
        3;78;79;80;,
        3;81;82;83;,
        3;84;85;86;,
        3;87;88;89;,
        3;90;91;92;,
        3;93;94;95;,
        3;96;97;98;,
        3;99;100;101;,
        3;102;103;104;,
        3;105;106;107;,
        3;108;109;110;,
        3;111;112;113;,
        3;114;115;116;,
        3;117;118;119;,
        3;120;121;122;,
        3;123;124;125;,
        3;126;127;128;,
        3;129;130;131;,
        3;132;133;134;,
        3;135;136;137;,
        3;138;139;140;,
        3;141;142;143;;
      } //End of Mesh Normals
      MeshMaterialList { //Mesh Material List
        1;
        48;
        0,
        0,
        0,
        0,
        0,
        0,
        0,
        0,
        0,
        0,
        0,
        0,
        0,
        0,
        0,
        0,
        0,
        0,
        0,
        0,
        0,
        0,
        0,
        0,
        0,
        0,
        0,
        0,
        0,
        0,
        0,
        0,
        0,
        0,
        0,
        0,
        0,
        0,
        0,
        0,
        0,
        0,
        0,
        0,
        0,
        0,
        0,
        0;;
        Material mat_0 {
           0.640000; 0.640000; 0.640000; 1.000000;;
           92.156863;
           0.250000; 0.250000; 0.250000;;
           0.000000; 0.000000; 0.000000;;
          TextureFilename {"Textures/shaymin_0_0.tga";}
        }
      } //End of Mesh Material List
      MeshTextureCoords { //Mesh UV Coordinates
        144;
         0.107168; 0.951057;,
         0.121869; 0.941449;,
         0.121869; 0.966469;,
         0.121869; 0.941449;,
         0.135070; 0.953382;,
         0.121869; 0.966469;,
         0.135070; 0.953382;,
         0.121869; 0.941449;,
         0.139801; 0.935674;,
         0.121869; 0.941449;,
         0.142696; 0.924835;,
         0.139801; 0.935674;,
         0.142696; 0.924835;,
         0.121869; 0.941449;,
         0.121869; 0.880721;,
         0.121869; 0.941449;,
         0.101041; 0.924835;,
         0.121869; 0.880721;,
         0.101041; 0.924835;,
         0.121869; 0.941449;,
         0.103742; 0.936397;,
         0.121869; 0.941449;,
         0.107168; 0.951057;,
         0.103742; 0.936397;,
         0.175430; 0.928620;,
         0.174460; 0.911085;,
         0.196128; 0.923595;,
         0.174460; 0.911085;,
         0.191396; 0.905619;,
         0.196128; 0.923595;,
         0.191396; 0.905619;,
         0.174460; 0.911085;,
         0.180941; 0.895180;,
         0.174460; 0.911085;,
         0.170486; 0.884741;,
         0.180941; 0.895180;,
         0.170486; 0.884741;,
         0.174460; 0.911085;,
         0.121869; 0.880721;,
         0.174460; 0.911085;,
         0.149659; 0.920816;,
         0.121869; 0.880721;,
         0.149659; 0.920816;,
         0.174460; 0.911085;,
         0.164198; 0.925219;,
         0.174460; 0.911085;,
         0.175430; 0.928620;,
         0.164198; 0.925219;,
         0.190131; 0.858285;,
         0.174460; 0.850358;,
         0.196128; 0.837847;,
         0.174460; 0.850358;,
         0.178194; 0.832958;,
         0.196128; 0.837847;,
         0.178194; 0.832958;,
         0.174460; 0.850358;,
         0.163926; 0.836792;,
         0.174460; 0.850358;,
         0.149659; 0.840627;,
         0.163926; 0.836792;,
         0.149659; 0.840627;,
         0.174460; 0.850358;,
         0.121869; 0.880721;,
         0.174460; 0.850358;,
         0.170486; 0.876702;,
         0.121869; 0.880721;,
         0.170486; 0.876702;,
         0.174460; 0.850358;,
         0.181407; 0.866464;,
         0.174460; 0.850358;,
         0.190131; 0.858285;,
         0.181407; 0.866464;,
         0.136570; 0.810386;,
         0.121869; 0.819994;,
         0.121869; 0.794973;,
         0.121869; 0.819994;,
         0.108667; 0.808061;,
         0.121869; 0.794973;,
         0.108667; 0.808061;,
         0.121869; 0.819994;,
         0.104854; 0.822334;,
         0.121869; 0.819994;,
         0.101041; 0.836607;,
         0.104854; 0.822334;,
         0.101041; 0.836607;,
         0.121869; 0.819994;,
         0.121869; 0.880721;,
         0.121869; 0.819994;,
         0.142697; 0.836607;,
         0.121869; 0.880721;,
         0.142697; 0.836607;,
         0.121869; 0.819994;,
         0.139832; 0.824350;,
         0.121869; 0.819994;,
         0.136570; 0.810386;,
         0.139832; 0.824350;,
         0.068307; 0.832822;,
         0.069277; 0.850358;,
         0.047609; 0.837847;,
         0.069277; 0.850358;,
         0.052342; 0.855824;,
         0.047609; 0.837847;,
         0.052342; 0.855824;,
         0.069277; 0.850358;,
         0.064760; 0.868224;,
         0.069277; 0.850358;,
         0.073251; 0.876702;,
         0.064760; 0.868224;,
         0.073251; 0.876702;,
         0.069277; 0.850358;,
         0.121869; 0.880721;,
         0.069277; 0.850358;,
         0.094079; 0.840627;,
         0.121869; 0.880721;,
         0.094079; 0.840627;,
         0.069277; 0.850358;,
         0.081193; 0.836725;,
         0.069277; 0.850358;,
         0.068307; 0.832822;,
         0.081193; 0.836725;,
         0.053606; 0.903158;,
         0.069277; 0.911085;,
         0.047609; 0.923595;,
         0.069277; 0.911085;,
         0.065544; 0.928485;,
         0.047609; 0.923595;,
         0.065544; 0.928485;,
         0.069277; 0.911085;,
         0.079811; 0.924650;,
         0.069277; 0.911085;,
         0.094079; 0.920816;,
         0.079811; 0.924650;,
         0.094079; 0.920816;,
         0.069277; 0.911085;,
         0.121869; 0.880721;,
         0.069277; 0.911085;,
         0.073251; 0.884741;,
         0.121869; 0.880721;,
         0.073251; 0.884741;,
         0.069277; 0.911085;,
         0.063428; 0.893949;,
         0.069277; 0.911085;,
         0.053606; 0.903158;,
         0.063428; 0.893949;;
      } //End of Mesh UV Coordinates
    } //End of Mesh Mesh
  } //End of shaymin_mat_0
  Frame shaymin_mat_1 {
    FrameTransformMatrix {
       1.000000, 0.000000, 0.000000, 0.000000,
       0.000000, 1.000000, 0.000000, 0.000000,
       0.000000, 0.000000, 1.000000, 0.000000,
       0.000000, 0.000000, 0.000000, 1.000000;;
    }
    Mesh { //Mesh Mesh
      117;
       0.739599; 1.400617;-1.138648;,
       0.664083; 1.324904;-1.231500;,
       0.629798; 1.508910;-1.106973;,
       0.664083; 1.324904;-1.231500;,
       0.548544; 1.273335;-1.289274;,
       0.629798; 1.508910;-1.106973;,
       0.516608; 1.558503;-1.093144;,
       0.629798; 1.508910;-1.106973;,
       0.548544; 1.273335;-1.289274;,
       0.548544; 1.273335;-1.289274;,
       0.462399; 1.272911;-1.305447;,
       0.516608; 1.558503;-1.093144;,
       0.516608; 1.558503;-1.093144;,
       0.462399; 1.272911;-1.305447;,
       0.423329; 1.559623;-1.108303;,
       0.462399; 1.272911;-1.305447;,
       0.253993; 1.266591;-1.289441;,
       0.423329; 1.559623;-1.108303;,
       0.423329; 1.559623;-1.108303;,
       0.253993; 1.266591;-1.289441;,
       0.228861; 1.508496;-1.121408;,
       0.487722; 0.981730;-1.493619;,
       0.353377; 1.019050;-1.523417;,
       0.530578; 1.105715;-1.426043;,
       0.353377; 1.019050;-1.523417;,
       0.519884; 1.191532;-1.365013;,
       0.530578; 1.105715;-1.426043;,
       0.519884; 1.191532;-1.365013;,
       0.353377; 1.019050;-1.523417;,
       0.244265; 1.077602;-1.509574;,
       0.244265; 1.077602;-1.509574;,
       0.462399; 1.272911;-1.305447;,
       0.519884; 1.191532;-1.365013;,
       0.462399; 1.272911;-1.305447;,
       0.244265; 1.077602;-1.509574;,
       0.179740; 1.133541;-1.451481;,
       0.179740; 1.133541;-1.451481;,
       0.253993; 1.266591;-1.289441;,
       0.462399; 1.272911;-1.305447;,
      -0.104986; 1.000171;-1.608815;,
      -0.152962; 1.123536;-1.552935;,
       0.046270; 1.032212;-1.575260;,
      -0.152962; 1.123536;-1.552935;,
      -0.157100; 1.221018;-1.500932;,
       0.046270; 1.032212;-1.575260;,
       0.046270; 1.032212;-1.575260;,
      -0.157100; 1.221018;-1.500932;,
       0.126337; 1.074640;-1.533359;,
      -0.157100; 1.221018;-1.500932;,
      -0.124531; 1.296866;-1.428568;,
       0.126337; 1.074640;-1.533359;,
       0.126337; 1.074640;-1.533359;,
      -0.124531; 1.296866;-1.428568;,
       0.179740; 1.133541;-1.451481;,
      -0.124531; 1.296866;-1.428568;,
       0.253993; 1.266591;-1.289441;,
       0.179740; 1.133541;-1.451481;,
       0.253993; 1.266591;-1.289441;,
      -0.124531; 1.296866;-1.428568;,
      -0.009759; 1.395359;-1.254244;,
      -0.441891; 1.450493;-1.387160;,
      -0.357355; 1.536669;-1.315095;,
      -0.323100; 1.357677;-1.436033;,
      -0.357355; 1.536669;-1.315095;,
      -0.268670; 1.579354;-1.260982;,
      -0.323100; 1.357677;-1.436033;,
      -0.323100; 1.357677;-1.436033;,
      -0.268670; 1.579354;-1.260982;,
      -0.225381; 1.302506;-1.449100;,
      -0.268670; 1.579354;-1.260982;,
      -0.157877; 1.577533;-1.234519;,
      -0.225381; 1.302506;-1.449100;,
      -0.225381; 1.302506;-1.449100;,
      -0.157877; 1.577533;-1.234519;,
      -0.124531; 1.296866;-1.428568;,
      -0.157877; 1.577533;-1.234519;,
      -0.009759; 1.395359;-1.254244;,
      -0.124531; 1.296866;-1.428568;,
      -0.193939; 1.856387;-1.014071;,
      -0.051412; 1.839938;-1.017180;,
      -0.217387; 1.738756;-1.125702;,
      -0.051412; 1.839938;-1.017180;,
      -0.210710; 1.667661;-1.193802;,
      -0.217387; 1.738756;-1.125702;,
      -0.210710; 1.667661;-1.193802;,
      -0.051412; 1.839938;-1.017180;,
       0.071266; 1.791245;-1.034827;,
       0.071266; 1.791245;-1.034827;,
       0.114069; 1.708563;-1.053344;,
      -0.210710; 1.667661;-1.193802;,
      -0.210710; 1.667661;-1.193802;,
       0.114069; 1.708563;-1.053344;,
      -0.157877; 1.577533;-1.234519;,
       0.114069; 1.708563;-1.053344;,
      -0.009759; 1.395359;-1.254244;,
      -0.157877; 1.577533;-1.234519;,
      -0.009759; 1.395359;-1.254244;,
       0.114069; 1.708563;-1.053344;,
       0.228861; 1.508496;-1.121408;,
       0.398769; 1.837946;-0.898875;,
       0.468408; 1.721669;-0.989366;,
       0.247567; 1.825754;-0.962572;,
       0.468408; 1.721669;-0.989366;,
       0.464846; 1.639727;-1.047983;,
       0.247567; 1.825754;-0.962572;,
       0.247567; 1.825754;-0.962572;,
       0.464846; 1.639727;-1.047983;,
       0.164527; 1.779329;-1.004656;,
       0.464846; 1.639727;-1.047983;,
       0.423329; 1.559623;-1.108303;,
       0.164527; 1.779329;-1.004656;,
       0.164527; 1.779329;-1.004656;,
       0.423329; 1.559623;-1.108303;,
       0.228861; 1.508496;-1.121408;,
       0.228861; 1.508496;-1.121408;,
       0.114069; 1.708563;-1.053344;,
       0.164527; 1.779329;-1.004656;;
      39;
      3;0;1;2;,
      3;3;4;5;,
      3;6;7;8;,
      3;9;10;11;,
      3;12;13;14;,
      3;15;16;17;,
      3;18;19;20;,
      3;21;22;23;,
      3;24;25;26;,
      3;27;28;29;,
      3;30;31;32;,
      3;33;34;35;,
      3;36;37;38;,
      3;39;40;41;,
      3;42;43;44;,
      3;45;46;47;,
      3;48;49;50;,
      3;51;52;53;,
      3;54;55;56;,
      3;57;58;59;,
      3;60;61;62;,
      3;63;64;65;,
      3;66;67;68;,
      3;69;70;71;,
      3;72;73;74;,
      3;75;76;77;,
      3;78;79;80;,
      3;81;82;83;,
      3;84;85;86;,
      3;87;88;89;,
      3;90;91;92;,
      3;93;94;95;,
      3;96;97;98;,
      3;99;100;101;,
      3;102;103;104;,
      3;105;106;107;,
      3;108;109;110;,
      3;111;112;113;,
      3;114;115;116;;
      MeshNormals { //Mesh Normals
        117;
         0.346233; 0.569170;-0.745720;,
         0.203589; 0.574450;-0.792779;,
         0.198798; 0.573412;-0.794733;,
         0.203589; 0.574450;-0.792779;,
         0.148747; 0.572008;-0.806635;,
         0.198798; 0.573412;-0.794733;,
         0.144658; 0.572741;-0.806848;,
         0.198798; 0.573412;-0.794733;,
         0.148747; 0.572008;-0.806635;,
         0.148747; 0.572008;-0.806635;,
         0.043733; 0.627216;-0.777581;,
         0.144658; 0.572741;-0.806848;,
         0.144658; 0.572741;-0.806848;,
         0.043733; 0.627216;-0.777581;,
         0.041414; 0.532701;-0.845271;,
         0.043733; 0.627216;-0.777581;,
         0.041078; 0.700400;-0.712546;,
         0.041414; 0.532701;-0.845271;,
         0.041414; 0.532701;-0.845271;,
         0.041078; 0.700400;-0.712546;,
         0.055330; 0.473678;-0.878933;,
         0.298807; 0.374981;-0.877529;,
         0.218024; 0.514084;-0.829524;,
         0.189550; 0.536393;-0.822382;,
         0.218024; 0.514084;-0.829524;,
         0.144658; 0.616382;-0.774010;,
         0.189550; 0.536393;-0.822382;,
         0.144658; 0.616382;-0.774010;,
         0.218024; 0.514084;-0.829524;,
         0.092135; 0.653859;-0.750969;,
         0.092135; 0.653859;-0.750969;,
         0.043733; 0.627216;-0.777581;,
         0.144658; 0.616382;-0.774010;,
         0.043733; 0.627216;-0.777581;,
         0.092135; 0.653859;-0.750969;,
         0.172826; 0.706229;-0.686514;,
         0.172826; 0.706229;-0.686514;,
         0.041078; 0.700400;-0.712546;,
         0.043733; 0.627216;-0.777581;,
         0.103519; 0.443495;-0.890255;,
         0.113987; 0.463485;-0.878719;,
         0.146062; 0.490799;-0.858913;,
         0.113987; 0.463485;-0.878719;,
         0.195044; 0.568285;-0.799371;,
         0.146062; 0.490799;-0.858913;,
         0.146062; 0.490799;-0.858913;,
         0.195044; 0.568285;-0.799371;,
         0.246040; 0.605396;-0.756920;,
         0.195044; 0.568285;-0.799371;,
         0.291604; 0.624897;-0.724143;,
         0.246040; 0.605396;-0.756920;,
         0.246040; 0.605396;-0.756920;,
         0.291604; 0.624897;-0.724143;,
         0.172826; 0.706229;-0.686514;,
         0.291604; 0.624897;-0.724143;,
         0.041078; 0.700400;-0.712546;,
         0.172826; 0.706229;-0.686514;,
         0.041078; 0.700400;-0.712546;,
         0.291604; 0.624897;-0.724143;,
         0.393994; 0.571306;-0.719962;,
         0.111423; 0.570910;-0.813410;,
         0.179785; 0.574114;-0.798761;,
         0.190588; 0.572405;-0.797479;,
         0.179785; 0.574114;-0.798761;,
         0.203650; 0.572619;-0.794092;,
         0.190588; 0.572405;-0.797479;,
         0.190588; 0.572405;-0.797479;,
         0.203650; 0.572619;-0.794092;,
         0.203223; 0.572558;-0.794244;,
         0.203650; 0.572619;-0.794092;,
         0.322825; 0.507889;-0.798608;,
         0.203223; 0.572558;-0.794244;,
         0.203223; 0.572558;-0.794244;,
         0.322825; 0.507889;-0.798608;,
         0.291604; 0.624897;-0.724143;,
         0.322825; 0.507889;-0.798608;,
         0.393994; 0.571306;-0.719962;,
         0.291604; 0.624897;-0.724143;,
         0.062593; 0.680410;-0.730125;,
         0.112491; 0.657125;-0.745293;,
         0.051119; 0.690237;-0.721763;,
         0.112491; 0.657125;-0.745293;,
         0.212500; 0.573351;-0.791253;,
         0.051119; 0.690237;-0.721763;,
         0.212500; 0.573351;-0.791253;,
         0.112491; 0.657125;-0.745293;,
         0.262154; 0.479293;-0.837581;,
         0.262154; 0.479293;-0.837581;,
         0.284555; 0.418683;-0.862362;,
         0.212500; 0.573351;-0.791253;,
         0.212500; 0.573351;-0.791253;,
         0.284555; 0.418683;-0.862362;,
         0.322825; 0.507889;-0.798608;,
         0.284555; 0.418683;-0.862362;,
         0.393994; 0.571306;-0.719962;,
         0.322825; 0.507889;-0.798608;,
         0.393994; 0.571306;-0.719962;,
         0.284555; 0.418683;-0.862362;,
         0.055330; 0.473678;-0.878933;,
         0.236915; 0.681051;-0.692801;,
         0.188849; 0.600696;-0.776818;,
         0.160772; 0.577532;-0.800348;,
         0.188849; 0.600696;-0.776818;,
         0.146001; 0.553728;-0.819758;,
         0.160772; 0.577532;-0.800348;,
         0.160772; 0.577532;-0.800348;,
         0.146001; 0.553728;-0.819758;,
         0.122593; 0.477859;-0.869808;,
         0.146001; 0.553728;-0.819758;,
         0.041414; 0.532701;-0.845271;,
         0.122593; 0.477859;-0.869808;,
         0.122593; 0.477859;-0.869808;,
         0.041414; 0.532701;-0.845271;,
         0.055330; 0.473678;-0.878933;,
         0.055330; 0.473678;-0.878933;,
         0.284555; 0.418683;-0.862362;,
         0.122593; 0.477859;-0.869808;;
        39;
        3;0;1;2;,
        3;3;4;5;,
        3;6;7;8;,
        3;9;10;11;,
        3;12;13;14;,
        3;15;16;17;,
        3;18;19;20;,
        3;21;22;23;,
        3;24;25;26;,
        3;27;28;29;,
        3;30;31;32;,
        3;33;34;35;,
        3;36;37;38;,
        3;39;40;41;,
        3;42;43;44;,
        3;45;46;47;,
        3;48;49;50;,
        3;51;52;53;,
        3;54;55;56;,
        3;57;58;59;,
        3;60;61;62;,
        3;63;64;65;,
        3;66;67;68;,
        3;69;70;71;,
        3;72;73;74;,
        3;75;76;77;,
        3;78;79;80;,
        3;81;82;83;,
        3;84;85;86;,
        3;87;88;89;,
        3;90;91;92;,
        3;93;94;95;,
        3;96;97;98;,
        3;99;100;101;,
        3;102;103;104;,
        3;105;106;107;,
        3;108;109;110;,
        3;111;112;113;,
        3;114;115;116;;
      } //End of Mesh Normals
      MeshMaterialList { //Mesh Material List
        1;
        39;
        0,
        0,
        0,
        0,
        0,
        0,
        0,
        0,
        0,
        0,
        0,
        0,
        0,
        0,
        0,
        0,
        0,
        0,
        0,
        0,
        0,
        0,
        0,
        0,
        0,
        0,
        0,
        0,
        0,
        0,
        0,
        0,
        0,
        0,
        0,
        0,
        0,
        0,
        0;;
        Material mat_1 {
           0.640000; 0.640000; 0.640000; 1.000000;;
           92.156863;
           0.250000; 0.250000; 0.250000;;
           0.000000; 0.000000; 0.000000;;
          TextureFilename {"Textures/shaymin_0_0.tga";}
        }
      } //End of Mesh Material List
      MeshTextureCoords { //Mesh UV Coordinates
        117;
         0.121869; 0.966469;,
         0.135070; 0.953382;,
         0.107168; 0.951057;,
         0.135070; 0.953382;,
         0.139801; 0.935674;,
         0.107168; 0.951057;,
         0.103742; 0.936397;,
         0.107168; 0.951057;,
         0.139801; 0.935674;,
         0.139801; 0.935674;,
         0.142696; 0.924835;,
         0.103742; 0.936397;,
         0.103742; 0.936397;,
         0.142696; 0.924835;,
         0.101041; 0.924835;,
         0.142696; 0.924835;,
         0.142849; 0.892834;,
         0.101041; 0.924835;,
         0.101041; 0.924835;,
         0.142849; 0.892834;,
         0.100888; 0.892834;,
         0.196128; 0.923595;,
         0.191396; 0.905619;,
         0.175430; 0.928620;,
         0.191396; 0.905619;,
         0.164198; 0.925219;,
         0.175430; 0.928620;,
         0.164198; 0.925219;,
         0.191396; 0.905619;,
         0.180941; 0.895180;,
         0.180941; 0.895180;,
         0.149659; 0.920816;,
         0.164198; 0.925219;,
         0.149659; 0.920816;,
         0.180941; 0.895180;,
         0.170486; 0.884741;,
         0.170486; 0.884741;,
         0.142849; 0.892834;,
         0.149659; 0.920816;,
         0.196128; 0.837847;,
         0.178194; 0.832958;,
         0.190131; 0.858285;,
         0.178194; 0.832958;,
         0.163926; 0.836792;,
         0.190131; 0.858285;,
         0.190131; 0.858285;,
         0.163926; 0.836792;,
         0.181407; 0.866464;,
         0.163926; 0.836792;,
         0.149659; 0.840627;,
         0.181407; 0.866464;,
         0.181407; 0.866464;,
         0.149659; 0.840627;,
         0.170486; 0.876702;,
         0.149659; 0.840627;,
         0.142849; 0.892834;,
         0.170486; 0.876702;,
         0.142849; 0.892834;,
         0.149659; 0.840627;,
         0.121869; 0.856495;,
         0.121869; 0.794973;,
         0.108667; 0.808061;,
         0.136570; 0.810386;,
         0.108667; 0.808061;,
         0.104854; 0.822334;,
         0.136570; 0.810386;,
         0.136570; 0.810386;,
         0.104854; 0.822334;,
         0.139832; 0.824350;,
         0.104854; 0.822334;,
         0.101041; 0.836607;,
         0.139832; 0.824350;,
         0.139832; 0.824350;,
         0.101041; 0.836607;,
         0.142697; 0.836607;,
         0.101041; 0.836607;,
         0.121869; 0.856495;,
         0.142697; 0.836607;,
         0.047609; 0.837847;,
         0.052342; 0.855824;,
         0.068307; 0.832822;,
         0.052342; 0.855824;,
         0.081193; 0.836725;,
         0.068307; 0.832822;,
         0.081193; 0.836725;,
         0.052342; 0.855824;,
         0.064760; 0.868224;,
         0.064760; 0.868224;,
         0.073251; 0.876702;,
         0.081193; 0.836725;,
         0.081193; 0.836725;,
         0.073251; 0.876702;,
         0.094079; 0.840627;,
         0.073251; 0.876702;,
         0.121869; 0.856495;,
         0.094079; 0.840627;,
         0.121869; 0.856495;,
         0.073251; 0.876702;,
         0.100888; 0.892834;,
         0.047609; 0.923595;,
         0.065544; 0.928485;,
         0.053606; 0.903158;,
         0.065544; 0.928485;,
         0.079811; 0.924650;,
         0.053606; 0.903158;,
         0.053606; 0.903158;,
         0.079811; 0.924650;,
         0.063428; 0.893949;,
         0.079811; 0.924650;,
         0.094079; 0.920816;,
         0.063428; 0.893949;,
         0.063428; 0.893949;,
         0.094079; 0.920816;,
         0.100888; 0.892834;,
         0.100888; 0.892834;,
         0.073251; 0.884741;,
         0.063428; 0.893949;;
      } //End of Mesh UV Coordinates
    } //End of Mesh Mesh
  } //End of shaymin_mat_1
} //End of Root Frame
