{
  "images" : [
    {
      "idiom" : "universal",
      "filename" : "Bulbasaur-card.png"
    }
  ],
  "info" : {
    "version" : 1,
    "author" : "xcode"
  },
  "properties" : {
    "width" : 0.065000000000000002
  }
}