# Blender v2.66 (sub 1) OBJ File: 'BR_Wormadam-Shiny01.blend'
# www.blender.org
mtllib BR_Wormadam-Shiny01.mtl
o minomadam
v 0.007920 0.078201 -5.456551
v 0.131667 0.003314 -5.477423
v 0.130691 0.003314 -5.892200
v 0.086089 0.035614 -5.892199
v 0.086089 -0.028986 -5.892199
v 0.130725 -0.003824 -6.016595
v 0.041952 0.003314 -5.892199
v 0.007920 -0.071573 -5.456550
v -0.130962 0.003314 -5.456056
v 0.148785 0.004362 -5.408363
v -0.002410 0.004363 -5.417396
v -0.891694 1.210588 -2.896583
v -0.271965 1.202088 -3.032057
v -0.365487 0.716435 -3.429404
v -0.985216 0.724935 -3.293930
v -0.043714 1.401675 -2.413739
v 0.391556 1.335780 -2.757429
v 0.043714 1.194208 -3.170815
v -0.391556 1.260103 -2.827125
v 0.488841 1.264995 -2.902352
v 1.066836 1.023659 -3.003191
v 0.828223 0.637302 -3.446228
v 0.250228 0.878638 -3.345389
v -1.127870 -0.507814 -2.630651
v -1.127870 -0.507814 -2.630651
v -0.996440 -0.880824 -2.737104
v -0.592385 -1.165362 -2.648826
v -0.539846 -1.047370 -2.454808
v -1.117759 0.569865 -2.699348
v -0.977554 0.839742 -2.666880
v -1.085908 0.545108 -3.126523
v -1.085908 0.545108 -3.126523
v -0.627047 0.953549 -3.116228
v 0.000000 0.908014 -3.252031
v -0.716039 0.541426 -3.326227
v -0.362720 1.107173 -3.099977
v -1.191150 0.205967 -3.273208
v -0.863332 0.263128 -3.413289
v -0.863332 0.263128 -3.413289
v -1.156606 0.157248 -3.446282
v -1.156606 0.157248 -3.446282
v -0.845049 -0.401434 -3.482464
v -0.845049 -0.401434 -3.482464
v -1.091309 -0.289854 -3.383099
v -1.156358 -0.286488 -3.480870
v -1.156358 -0.286488 -3.480870
v 0.000000 0.557606 -3.415585
v -0.272044 -0.696556 -3.658208
v 0.000000 -0.712928 -3.690433
v -0.340359 -1.038394 -3.545769
v -0.708460 -0.777309 -3.500020
v -1.128886 0.309683 -2.691429
v -1.128886 0.309683 -2.691429
v -1.343077 0.406617 -3.157876
v -0.983898 -0.060877 -3.463097
v 0.000000 1.180354 -3.087949
v 0.000000 1.311163 -2.724184
v -0.401539 1.221419 -2.732336
v 0.000000 1.186070 -2.511905
v -0.393439 1.096686 -2.517443
v -0.403250 0.905503 -2.379022
v -0.939108 0.845180 -3.162875
v -0.370615 -0.358445 -3.621017
v -0.453438 0.343434 -3.438580
v -0.537943 0.005679 -3.502253
v -0.712225 1.073606 -2.779618
v -0.897825 0.600015 -2.459523
v -0.698636 0.948082 -2.550405
v -0.686486 0.762568 -2.388973
v -0.646051 -1.219849 -3.237408
v -1.358292 -0.095096 -3.035536
v -1.358292 -0.095096 -3.035536
v -1.358292 -0.095096 -3.035536
v 0.000000 -1.055904 -3.585996
v -0.352097 -1.341777 -3.246663
v 0.000000 -1.394827 -3.265375
v -0.364598 -1.408670 -2.876912
v 0.000000 -1.465619 -2.893565
v 0.000000 -1.190999 -2.424522
v -0.650731 -1.256973 -2.890550
v -0.903134 -0.925016 -2.924862
v 0.000000 -0.438097 -3.651445
v -1.233232 -0.658195 -2.906644
v -1.065378 -0.775783 -3.212507
v -1.065378 -0.775783 -3.212507
v -1.158320 -0.068038 -3.473236
v 0.000000 0.059754 -3.533515
v 1.127870 -0.507814 -2.630651
v 1.127870 -0.507814 -2.630651
v 0.996440 -0.880824 -2.737104
v 0.539846 -1.047370 -2.454808
v 0.592385 -1.165362 -2.648826
v 1.117759 0.569865 -2.699348
v 1.085908 0.545108 -3.126523
v 1.085908 0.545108 -3.126523
v 0.977554 0.839742 -2.666880
v 0.627047 0.953549 -3.116228
v 0.362720 1.107173 -3.099977
v 0.716039 0.541426 -3.326227
v 1.191150 0.205967 -3.273208
v 1.156607 0.157248 -3.446282
v 1.156607 0.157248 -3.446282
v 0.863332 0.263128 -3.413289
v 0.863332 0.263128 -3.413289
v 0.845049 -0.401434 -3.482464
v 0.845049 -0.401434 -3.482464
v 1.156358 -0.286488 -3.480870
v 1.156358 -0.286488 -3.480870
v 1.091309 -0.289854 -3.383099
v 0.272044 -0.696556 -3.658208
v 0.708460 -0.777309 -3.500019
v 0.340359 -1.038394 -3.545769
v 1.128886 0.309683 -2.691429
v 1.128886 0.309683 -2.691429
v 1.343077 0.406617 -3.157876
v 0.983898 -0.060877 -3.463097
v 0.401539 1.221419 -2.732336
v 0.403250 0.905503 -2.379022
v 0.393439 1.096686 -2.517443
v 0.939108 0.845180 -3.162875
v 0.370615 -0.358445 -3.621017
v 0.537943 0.005679 -3.502253
v 0.453438 0.343434 -3.438579
v 0.712225 1.073606 -2.779618
v 0.897825 0.600015 -2.459523
v 0.686486 0.762568 -2.388973
v 0.698636 0.948082 -2.550405
v 0.646051 -1.219849 -3.237408
v 1.358292 -0.095096 -3.035536
v 1.358292 -0.095096 -3.035536
v 1.358292 -0.095096 -3.035536
v 0.352097 -1.341777 -3.246663
v 0.364598 -1.408671 -2.876912
v 0.903133 -0.925016 -2.924862
v 0.650731 -1.256973 -2.890550
v 0.000000 -0.438097 -3.651445
v 1.233232 -0.658195 -2.906644
v 1.065378 -0.775783 -3.212507
v 1.065378 -0.775783 -3.212507
v 1.158320 -0.068038 -3.473236
v 0.045353 -0.225285 -3.881940
v 0.044380 -0.200787 -3.876426
v 0.043281 -0.176451 -3.882640
v 0.044508 -0.200945 -3.887213
v 2.089376 -0.214097 -3.880081
v 2.089376 -0.214097 -3.880081
v 0.141386 -0.201229 -4.010267
v 0.373904 -0.293005 -3.938513
v 0.439553 -0.327727 -4.028960
v 0.168127 -0.214485 -4.117496
v 0.419531 -0.331377 -4.256233
v 0.448025 -0.339005 -4.145889
v 0.442729 -0.352845 -4.146153
v 0.156449 -0.244999 -4.118080
v 0.427875 -0.358240 -4.029543
v 0.359187 -0.331459 -3.939250
v 0.126669 -0.239683 -4.011003
v 0.173462 -0.229868 -3.802671
v 0.245320 -0.251038 -4.200563
v 0.240023 -0.264878 -4.200829
v -0.141386 -0.201229 -4.010267
v -0.168127 -0.214485 -4.117496
v -0.439553 -0.327727 -4.028960
v -0.373904 -0.293005 -3.938514
v -0.419530 -0.331377 -4.256233
v -0.442729 -0.352845 -4.146153
v -0.448025 -0.339005 -4.145889
v -0.156449 -0.244999 -4.118080
v -0.126669 -0.239683 -4.011003
v -0.359187 -0.331459 -3.939250
v -0.427875 -0.358240 -4.029543
v -0.173462 -0.229868 -3.802671
v -0.245320 -0.251038 -4.200563
v -0.240023 -0.264878 -4.200829
v 0.000000 -0.590261 -3.301465
v -0.430776 -0.411827 -3.301465
v -0.397985 -0.379037 -3.586844
v 0.000000 -0.543888 -3.586844
v -0.609210 0.018949 -3.301465
v -0.562836 0.018949 -3.586844
v -0.501430 0.381487 -3.301465
v -0.463261 0.349755 -3.586844
v -0.163252 0.569697 -3.422925
v 0.000000 0.652844 -3.513345
v 0.000000 0.642557 -3.546707
v -0.304605 -0.285656 -3.811951
v 0.000000 -0.411827 -3.811951
v -0.430776 0.018949 -3.811950
v -0.354564 0.259388 -3.811950
v 0.000000 0.629804 -3.586844
v 0.000000 0.481187 -3.811950
v -0.164851 -0.145902 -3.962363
v 0.000000 -0.214186 -3.962363
v -0.233134 0.018949 -3.962362
v -0.191889 0.161547 -3.962362
v 0.000000 0.271530 -3.962362
v 0.000000 0.637310 -3.253456
v -0.379388 0.473859 -3.301466
v 0.397986 -0.379037 -3.586844
v 0.430777 -0.411827 -3.301465
v 0.562837 0.018949 -3.586844
v 0.609210 0.018949 -3.301466
v 0.463262 0.349755 -3.586844
v 0.501431 0.381487 -3.301466
v 0.163253 0.569697 -3.422924
v 0.304605 -0.285656 -3.811950
v 0.430777 0.018949 -3.811950
v 0.354565 0.259388 -3.811951
v 0.164851 -0.145902 -3.962362
v 0.233135 0.018949 -3.962362
v 0.191889 0.161547 -3.962362
v 0.379389 0.473859 -3.301465
v 0.000000 -0.508485 -3.048248
v -0.373383 -0.353824 -3.048249
v -0.528043 0.019559 -3.048249
v -0.434623 0.333795 -3.048249
v -0.328841 0.413860 -3.048249
v 0.373383 -0.353824 -3.048249
v 0.528044 0.019559 -3.048249
v 0.434624 0.333795 -3.048249
v 0.328842 0.413860 -3.048249
v 0.000000 0.555534 -3.048060
v 0.000000 1.138501 -3.111408
v -0.035394 1.079507 -3.145525
v 0.000000 1.079507 -3.124557
v 0.000000 0.862623 -3.367396
v -0.113229 0.826697 -3.303998
v 0.000000 1.079507 -3.175549
v 0.000000 0.790768 -3.216300
v 0.035395 1.079507 -3.145525
v 0.113229 0.826697 -3.303998
v -0.341656 -0.346641 -1.797314
v 0.000000 -0.490224 -1.797314
v 0.000000 0.490224 -1.797314
v -0.341656 0.346641 -1.797314
v -0.464587 0.000000 -1.797314
v 0.341656 -0.346641 -1.797314
v 0.341656 0.346641 -1.797314
v 0.464587 0.000000 -1.797314
v -1.716787 -0.060800 -2.359343
v -1.716787 -0.060800 -2.359343
v -1.190358 1.155087 -2.878886
v -1.190358 1.155087 -2.878886
v -1.031727 -0.052597 -3.612381
v -1.031727 -0.052597 -3.612381
v -1.591294 0.509424 -2.873337
v -1.591294 0.509424 -2.873337
v -0.960383 -1.223970 -3.520117
v -0.960383 -1.223970 -3.520117
v -1.353453 -0.867045 -2.547278
v -1.353453 -0.867045 -2.547278
v -0.896239 -0.848507 -2.241168
v -0.896239 -0.848507 -2.241168
v -1.588874 -0.678610 -3.064201
v -1.588874 -0.678610 -3.064201
v -1.267172 -0.711945 -3.440559
v -1.267172 -0.711945 -3.440559
v -1.587464 -0.076582 -3.373556
v -1.587464 -0.076582 -3.373556
v -1.325978 0.701424 -2.346582
v -1.325978 0.701424 -2.346582
v 1.716787 -0.060800 -2.359343
v 1.716787 -0.060800 -2.359343
v 1.190358 1.155087 -2.878886
v 1.190358 1.155087 -2.878886
v 1.031727 -0.052597 -3.612381
v 1.031727 -0.052597 -3.612381
v 1.591294 0.509424 -2.873337
v 1.591294 0.509424 -2.873337
v 0.960383 -1.223970 -3.520116
v 0.960383 -1.223970 -3.520116
v 1.353453 -0.867045 -2.547278
v 1.353453 -0.867045 -2.547278
v 0.896239 -0.848507 -2.241168
v 0.896239 -0.848507 -2.241168
v 1.588874 -0.678610 -3.064201
v 1.588874 -0.678610 -3.064201
v 1.267172 -0.711945 -3.440558
v 1.267172 -0.711945 -3.440558
v 1.587464 -0.076582 -3.373557
v 1.587464 -0.076582 -3.373557
v 1.325977 0.701424 -2.346582
v 1.325977 0.701424 -2.346582
v 0.000762 -0.256781 -1.392230
v 0.000762 -0.256781 -1.392230
v 0.000762 -0.256781 -1.392230
v 0.000762 -0.256781 -1.392230
v -0.343599 -0.266747 -1.160880
v -0.343599 -0.266747 -1.160880
v -0.224892 -0.197717 -1.392231
v -0.278517 -0.010990 -1.392231
v -0.278517 -0.010990 -1.392231
v -0.278517 -0.010990 -1.392231
v -0.278517 -0.010990 -1.392231
v -0.278517 -0.010990 -1.392231
v -0.216262 0.223409 -1.393275
v -0.371091 0.507106 -1.100726
v -0.371091 0.507106 -1.100726
v 0.000762 0.287561 -1.392231
v 0.000762 0.287561 -1.392231
v 0.000762 0.287561 -1.392231
v 0.000762 0.287561 -1.392231
v 0.000762 0.287561 -1.392231
v 0.000762 0.287561 -1.392231
v 0.000762 0.287561 -1.392231
v -0.179811 0.185847 -1.392231
v -0.179811 0.185847 -1.392231
v -0.205340 -0.126111 -1.392230
v -0.205340 -0.126111 -1.392230
v -0.205340 -0.126111 -1.392230
v -0.205340 -0.126111 -1.392230
v -0.205340 -0.126111 -1.392230
v 0.000762 -0.000230 -1.392230
v -0.219992 0.024280 -1.392231
v -0.219992 0.024280 -1.392231
v -0.219992 0.024280 -1.392231
v 0.000762 -0.203589 -1.392231
v 0.000762 -0.203589 -1.392231
v 0.198242 -0.203728 -1.392231
v 0.362409 -0.349850 -1.090408
v 0.362409 -0.349850 -1.090408
v 0.280041 -0.000230 -1.392231
v 0.280041 -0.000230 -1.392231
v 0.280041 -0.000230 -1.392231
v 0.280041 -0.000230 -1.392231
v 0.280041 -0.000230 -1.392231
v 0.217786 0.223409 -1.393274
v 0.312267 0.392691 -1.053260
v 0.312267 0.392691 -1.053260
v 0.181335 0.185847 -1.392231
v 0.181335 0.185847 -1.392231
v 0.181335 0.185847 -1.392231
v 0.177840 -0.000230 -1.392230
v 0.000762 0.213335 -1.392231
v 0.000762 0.213335 -1.392231
v 0.000762 0.213335 -1.392231
v 0.000762 0.213335 -1.392231
v 0.206863 -0.126111 -1.392231
v 0.206863 -0.126111 -1.392231
v 0.206863 -0.126111 -1.392231
v 0.206863 -0.126111 -1.392231
v 0.206863 -0.126111 -1.392231
v 0.427056 -0.041456 -1.155964
v 0.427056 -0.041456 -1.155964
v 0.000762 -0.499075 -1.117707
v 0.000762 -0.499075 -1.117707
v -0.122382 0.350398 -1.022375
v -0.122382 0.350398 -1.022375
v -0.460752 -0.020987 -1.132205
v -0.460752 -0.020987 -1.132205
v -0.045353 -0.225285 -3.881940
v -0.044508 -0.200945 -3.887213
v -0.043281 -0.176451 -3.882640
v -0.044380 -0.200787 -3.876426
v -2.089376 -0.214097 -3.880081
v -2.089376 -0.214097 -3.880081
v -0.003799 0.003314 -5.126678
v -0.002410 0.129324 -5.293896
v -0.002410 -0.163656 -5.155088
v -0.192609 0.004362 -5.011079
v -0.230153 0.004362 -5.084664
v -0.002410 0.172487 -5.155088
v 0.199306 0.004362 -5.184322
v 0.215095 0.004362 -5.315461
v -0.002410 -0.120492 -5.293896
v -0.171986 0.004362 -5.195049
v 1.581569 -0.470293 -3.884907
v 1.581569 -0.470293 -3.884907
v 1.602065 -0.211699 -3.899417
v 1.521449 -0.116706 -3.897672
v 1.521449 -0.116706 -3.897672
v 1.612224 0.025040 -3.883993
v 1.612224 0.025040 -3.883993
v 1.612224 0.025040 -3.883993
v 1.520770 -0.099373 -3.875828
v 1.520770 -0.099373 -3.875828
v 1.599321 -0.210522 -3.871983
v 1.498451 0.062512 -3.889972
v 1.498451 0.062512 -3.889972
v 1.498451 0.062512 -3.889972
v 1.253881 -0.203997 -3.865033
v 1.245900 -0.545427 -3.902645
v 1.245900 -0.545427 -3.902645
v 1.246299 0.135139 -3.886914
v 1.246299 0.135139 -3.886914
v 1.253990 -0.204755 -3.909210
v 0.568823 -0.203414 -3.879903
v 0.568761 -0.032341 -3.880188
v 0.568761 -0.032341 -3.880188
v 0.568818 -0.205515 -3.902926
v 0.568954 -0.373999 -3.898099
v 0.568954 -0.373999 -3.898099
v 0.851772 -0.203163 -3.868064
v 0.849141 0.078403 -3.875455
v 0.849141 0.078403 -3.875455
v 0.851870 -0.203832 -3.908738
v 0.849075 -0.491136 -3.898621
v 0.849075 -0.491136 -3.898621
v 0.336011 -0.212415 -3.878966
v 0.335635 -0.288115 -3.890677
v 0.335635 -0.288115 -3.890677
v 0.336027 -0.122888 -3.885611
v 0.336027 -0.122888 -3.885611
v 0.336027 -0.212688 -3.891829
v -0.002410 -0.083199 -4.979248
v -0.078859 0.004367 -4.944888
v -0.002410 0.091826 -4.979248
v 0.078860 0.004367 -5.011097
v 0.000000 -0.092604 -4.397470
v -0.096907 0.004303 -4.397470
v 0.000000 0.101210 -4.397470
v 0.096908 0.004303 -4.397470
v 0.060984 -0.042104 -3.992849
v 0.124128 0.018915 -3.988295
v 0.061559 0.080444 -3.992664
v 0.000000 0.139910 -3.989043
v 0.000000 -0.102009 -3.989047
v -0.060984 -0.042104 -3.992849
v -0.124127 0.018915 -3.988294
v -0.061558 0.080444 -3.992664
v -0.558383 -0.540544 -2.178701
v 0.000000 -0.769901 -2.178701
v 0.000000 0.734760 -2.178701
v -0.468944 0.477734 -2.178701
v -0.681718 0.241585 -2.209062
v -0.825114 -0.003415 -1.958005
v -0.825114 -0.003415 -1.958005
v -0.631924 -0.007941 -2.048802
v -0.681718 -0.269490 -2.209062
v -0.653739 -0.623975 -2.313492
v 0.000000 -0.926973 -2.291511
v -1.105321 -0.034827 -2.380731
v -0.942099 0.254954 -2.365320
v -1.107215 -0.037800 -2.097645
v -1.107215 -0.037800 -2.097645
v -0.866600 0.001565 -2.215134
v -0.902465 -0.399977 -2.329161
v 0.000000 0.998679 -2.376098
v -0.313154 0.722635 -2.283106
v -0.524269 0.639481 -2.283837
v -0.702369 0.444941 -2.284568
v 0.558383 -0.540545 -2.178701
v 0.468944 0.477734 -2.178701
v 0.681718 0.241585 -2.209062
v 0.631924 -0.007941 -2.048802
v 0.825114 -0.003415 -1.958005
v 0.825114 -0.003415 -1.958005
v 0.681718 -0.269490 -2.209062
v 0.653739 -0.623975 -2.313492
v 1.105321 -0.034827 -2.380731
v 0.942099 0.254954 -2.365320
v 0.866600 0.001565 -2.215134
v 1.107215 -0.037800 -2.097645
v 1.107215 -0.037800 -2.097645
v 0.902466 -0.399977 -2.329161
v 0.313154 0.722635 -2.283106
v 0.524269 0.639481 -2.283837
v 0.702369 0.444941 -2.284568
v -0.170357 -0.164383 -1.491084
v -0.235328 -0.000980 -1.491060
v -0.183387 0.175148 -1.491035
v -0.001619 0.238493 -1.491024
v -0.001619 -0.230792 -1.491093
v 0.232089 -0.000980 -1.491060
v 0.167119 -0.164383 -1.491084
v 0.180148 0.175148 -1.491034
v -1.581569 -0.470293 -3.884907
v -1.581569 -0.470293 -3.884907
v -1.602065 -0.211699 -3.899417
v -1.612224 0.025040 -3.883993
v -1.612224 0.025040 -3.883993
v -1.612224 0.025040 -3.883993
v -1.521449 -0.116706 -3.897672
v -1.521449 -0.116706 -3.897672
v -1.520770 -0.099373 -3.875828
v -1.520770 -0.099373 -3.875828
v -1.599321 -0.210522 -3.871983
v -1.498451 0.062512 -3.889972
v -1.498451 0.062512 -3.889972
v -1.498451 0.062512 -3.889972
v -1.245900 -0.545427 -3.902645
v -1.245900 -0.545427 -3.902645
v -1.253881 -0.203997 -3.865033
v -1.246299 0.135139 -3.886914
v -1.246299 0.135139 -3.886914
v -1.253990 -0.204755 -3.909210
v -0.568823 -0.203414 -3.879903
v -0.568761 -0.032341 -3.880188
v -0.568761 -0.032341 -3.880188
v -0.568818 -0.205515 -3.902926
v -0.568954 -0.373999 -3.898099
v -0.568954 -0.373999 -3.898099
v -0.849141 0.078403 -3.875455
v -0.849141 0.078403 -3.875455
v -0.851772 -0.203163 -3.868064
v -0.851870 -0.203832 -3.908738
v -0.849075 -0.491136 -3.898621
v -0.849075 -0.491136 -3.898621
v -0.335635 -0.288115 -3.890677
v -0.335635 -0.288115 -3.890677
v -0.336011 -0.212415 -3.878966
v -0.336027 -0.122888 -3.885611
v -0.336027 -0.122888 -3.885611
v -0.336027 -0.212688 -3.891829
vt 0.960533 0.897624
vt 0.801110 0.955857
vt 0.923128 0.955857
vt 0.801110 0.897624
vt 0.857291 0.855219
vt 0.801110 0.883233
vt 0.973669 0.823799
vt 0.931670 0.823799
vt 0.367048 0.756054
vt 0.339150 0.783951
vt 0.339150 0.756054
vt 0.367048 0.783951
vt 0.394946 0.756054
vt 0.394946 0.783951
vt 0.339150 0.728156
vt 0.339150 0.700258
vt 0.367048 0.700258
vt 0.367048 0.728156
vt 0.137246 0.333169
vt 0.148916 0.333169
vt 0.143081 0.333169
vt 0.140163 0.333169
vt 0.311252 0.783951
vt 0.311252 0.756054
vt 0.518229 0.128142
vt 0.518229 0.119728
vt 0.518229 0.123935
vt 0.542569 0.132594
vt 0.542569 0.123935
vt 0.567722 0.141908
vt 0.567722 0.123935
vt 0.595049 0.155339
vt 0.595059 0.123935
vt 0.633058 0.161479
vt 0.633058 0.123935
vt 0.665528 0.151337
vt 0.665528 0.123935
vt 0.712031 0.123935
vt 0.672478 0.098712
vt 0.665528 0.117673
vt 0.633058 0.086391
vt 0.595049 0.092530
vt 0.567722 0.105962
vt 0.542569 0.115276
vt 0.665528 0.115907
vt 0.661857 0.095561
vt 0.220725 0.179310
vt 0.206687 0.165273
vt 0.220725 0.165273
vt 0.206687 0.179310
vt 0.217085 0.182949
vt 0.210718 0.182949
vt 0.206687 0.193347
vt 0.220725 0.207385
vt 0.206687 0.207385
vt 0.220725 0.193347
vt 0.210718 0.189317
vt 0.217085 0.189317
vt 0.234760 0.165273
vt 0.234760 0.179310
vt 0.192649 0.179310
vt 0.192649 0.165273
vt 0.648171 0.738541
vt 0.647454 0.729121
vt 0.646058 0.737985
vt 0.650052 0.729121
vt 0.650285 0.739097
vt 0.652650 0.729121
vt 0.648171 0.743636
vt 0.653937 0.743985
vt 0.652160 0.745489
vt 0.648171 0.741388
vt 0.643561 0.742035
vt 0.642002 0.740248
vt 0.651656 0.712351
vt 0.653705 0.712112
vt 0.651675 0.712342
vt 0.650473 0.712112
vt 0.650068 0.712351
vt 0.650072 0.712342
vt 0.651496 0.634588
vt 0.668305 0.662312
vt 0.651496 0.662312
vt 0.669690 0.634588
vt 0.675268 0.662312
vt 0.677226 0.634588
vt 0.671062 0.662312
vt 0.672674 0.634588
vt 0.664361 0.684180
vt 0.651496 0.684180
vt 0.658459 0.698792
vt 0.651496 0.698792
vt 0.649677 0.712152
vt 0.669690 0.684180
vt 0.661343 0.698792
vt 0.666471 0.684180
vt 0.659601 0.698792
vt 0.649677 0.712151
vt 0.220655 0.126562
vt 0.246791 0.100293
vt 0.220353 0.124198
vt 0.246495 0.126457
vt 0.220113 0.126562
vt 0.247091 0.126437
vt 0.326241 0.105187
vt 0.362972 0.102077
vt 0.371119 0.069463
vt 0.078893 0.333169
vt 0.098344 0.303450
vt 0.067222 0.333169
vt 0.102234 0.303450
vt 0.117795 0.303450
vt 0.113905 0.303450
vt 0.125575 0.333169
vt 0.113904 0.303450
vt 0.108069 0.333169
vt 0.134328 0.333169
vt 0.131410 0.333169
vt 0.132869 0.333169
vt 0.128493 0.333169
vt 0.072483 0.333169
vt 0.084394 0.333169
vt 0.072338 0.333169
vt 0.102390 0.333169
vt 0.078893 0.303450
vt 0.090563 0.303450
vt 0.154752 0.333169
vt 0.160587 0.333169
vt 0.067222 0.303450
vt 0.073057 0.333169
vt 0.071347 0.333169
vt 0.072202 0.333169
vt 0.145999 0.333169
vt 0.126986 0.333169
vt 0.146178 0.333169
vt 0.148916 0.303450
vt 0.093561 0.303450
vt 0.801110 0.878610
vt 0.360996 0.163064
vt 0.140230 0.333169
vt 0.140193 0.333169
vt 0.070562 0.333169
vt 0.070140 0.333169
vt 0.089231 0.333169
vt 0.132442 0.333169
vt 0.071211 0.303450
vt 0.075265 0.303450
vt 0.144388 0.303450
vt 0.104337 0.303450
vt 0.088675 0.303450
vt 0.083784 0.303450
vt 0.125575 0.303450
vt 0.106735 0.303450
vt 0.095976 0.303450
vt 0.142069 0.303450
vt 0.352399 0.741405
vt 0.367048 0.672360
vt 0.353099 0.686309
vt 0.339150 0.672360
vt 0.214064 0.185971
vt 0.213706 0.214403
vt 0.220725 0.221421
vt 0.206687 0.221421
vt 0.648171 0.745636
vt 0.643008 0.739016
vt 0.653514 0.741862
vt 0.217726 0.126574
vt 0.148916 0.320720
vt 0.922134 0.125107
vt 0.922134 0.969375
vt 0.077866 0.969375
vt 0.077866 0.125107
usemtl mat_0
s 1
f 182/1 191/2 189/3
f 182/1 190/4 191/2
f 183/5 190/4 182/1
f 183/5 185/6 190/4
f 181/7 183/5 182/1
f 181/7 198/8 183/5
f 216/7 198/8 181/7
f 216/7 217/8 198/8
f 203/1 185/6 205/5
f 203/1 190/4 185/6
f 208/3 190/4 203/1
f 208/3 191/2 190/4
f 212/8 203/1 205/5
f 212/8 204/7 203/1
f 221/8 204/7 212/8
f 221/8 220/7 204/7
usemtl mat_1
f 4/9 2/10 3/11
f 4/9 1/12 2/10
f 7/13 1/12 4/9
f 9/13 1/14 7/12
f 5/15 8/16 9/17
f 7/18 5/15 9/17
f 64/19 65/20 38/21
f 35/22 64/19 38/21
f 103/21 122/20 123/19
f 99/22 103/21 123/19
f 8/23 5/24 3/11
f 2/10 8/23 3/11
f 141/25 143/26 144/27
f 141/25 142/27 143/26
f 400/28 142/27 141/25
f 400/28 399/29 142/27
f 392/30 399/29 400/28
f 392/30 387/31 399/29
f 398/32 387/31 392/30
f 398/32 393/33 387/31
f 382/34 393/33 398/32
f 382/34 381/35 393/33
f 368/36 381/35 382/34
f 368/36 377/37 381/35
f 367/36 369/37 145/38
f 369/37 372/39 145/38
f 369/37 370/40 372/39
f 386/35 370/40 369/37
f 386/35 385/41 370/40
f 396/33 385/41 386/35
f 396/33 395/42 385/41
f 390/31 395/42 396/33
f 390/31 389/43 395/42
f 404/29 389/43 390/31
f 404/29 403/44 389/43
f 144/27 403/44 404/29
f 144/27 143/26 403/44
f 375/45 146/38 373/39
f 375/45 377/37 146/38
f 384/41 377/37 375/45
f 384/41 381/35 377/37
f 394/42 381/35 384/41
f 394/42 393/33 381/35
f 388/43 393/33 394/42
f 388/43 387/31 393/33
f 402/44 387/31 388/43
f 402/44 399/29 387/31
f 143/26 399/29 402/44
f 143/26 142/27 399/29
f 377/37 368/36 146/38
f 384/41 375/45 378/46
f 379/46 370/40 385/41
f 383/34 369/37 367/36
f 383/34 386/35 369/37
f 397/32 386/35 383/34
f 397/32 396/33 386/35
f 391/30 396/33 397/32
f 391/30 390/31 396/33
f 401/28 390/31 391/30
f 401/28 404/29 390/31
f 141/25 404/29 401/28
f 141/25 144/27 404/29
f 149/47 147/48 148/49
f 149/47 150/50 147/48
f 152/51 150/50 149/47
f 152/51 159/52 150/50
f 154/53 156/54 157/55
f 154/53 155/56 156/54
f 160/57 155/56 154/53
f 160/57 153/58 155/56
f 156/59 155/60 149/47
f 148/49 156/59 149/47
f 147/48 150/50 154/61
f 157/62 147/48 154/61
f 159/52 160/57 154/53
f 150/50 159/52 154/53
f 152/51 149/47 155/56
f 153/58 152/51 155/56
f 162/50 164/49 161/48
f 162/50 163/47 164/49
f 173/52 163/47 162/50
f 173/52 167/51 163/47
f 171/56 169/55 170/54
f 171/56 168/53 169/55
f 166/58 168/53 171/56
f 166/58 174/57 168/53
f 163/47 171/60 170/59
f 164/49 163/47 170/59
f 168/61 162/50 161/48
f 169/62 168/61 161/48
f 168/53 174/57 173/52
f 162/50 168/53 173/52
f 171/56 163/47 167/51
f 166/58 171/56 167/51
f 405/63 410/64 406/65
f 405/63 409/66 410/64
f 408/67 409/66 405/63
f 408/67 412/68 409/66
f 407/63 412/68 408/67
f 407/63 411/66 412/68
f 406/65 411/66 407/63
f 406/65 410/64 411/66
f 358/69 364/70 10/71
f 358/69 362/72 364/70
f 366/73 362/72 358/69
f 366/73 361/74 362/72
f 365/69 361/74 366/73
f 365/69 359/72 361/74
f 10/71 359/72 365/69
f 10/71 364/70 359/72
f 412/68 413/75 409/66
f 412/68 414/76 413/75
f 411/66 414/76 412/68
f 411/66 415/77 414/76
f 419/78 409/66 418/79
f 419/78 410/64 409/66
f 420/80 410/64 419/78
f 420/80 411/66 410/64
f 175/81 177/82 178/83
f 175/81 176/84 177/82
f 213/81 176/84 175/81
f 213/81 214/84 176/84
f 176/84 180/85 177/82
f 176/84 179/86 180/85
f 214/84 179/86 176/84
f 214/84 215/86 179/86
f 179/86 182/87 180/85
f 179/86 181/88 182/87
f 215/86 181/88 179/86
f 215/86 216/88 181/88
f 186/89 178/83 177/82
f 186/89 187/90 178/83
f 192/91 187/90 186/89
f 192/91 193/92 187/90
f 418/79 193/92 192/91
f 418/79 417/93 193/92
f 188/94 177/82 180/85
f 188/94 186/89 177/82
f 194/95 186/89 188/94
f 194/95 192/91 186/89
f 419/78 192/91 194/95
f 419/78 418/79 192/91
f 189/96 180/85 182/87
f 189/96 188/94 180/85
f 195/97 188/94 189/96
f 195/97 194/95 188/94
f 420/80 194/95 195/97
f 420/80 419/78 194/95
f 196/92 189/96 191/90
f 196/92 195/97 189/96
f 416/98 195/97 196/92
f 416/98 420/80 195/97
f 228/99 227/100 224/101
f 228/99 226/102 227/100
f 230/101 226/102 228/99
f 230/101 231/100 226/102
f 225/103 231/100 230/101
f 225/103 229/104 231/100
f 224/101 229/104 225/103
f 224/101 227/100 229/104
f 197/105 227/100 183/106
f 197/105 229/104 227/100
f 205/106 229/104 197/105
f 205/106 231/100 229/104
f 200/84 178/83 199/82
f 200/84 175/81 178/83
f 218/84 175/81 200/84
f 218/84 213/81 175/81
f 202/86 199/82 201/85
f 202/86 200/84 199/82
f 219/86 200/84 202/86
f 219/86 218/84 200/84
f 204/88 201/85 203/87
f 204/88 202/86 201/85
f 220/88 202/86 204/88
f 220/88 219/86 202/86
f 187/90 199/82 178/83
f 187/90 206/89 199/82
f 193/92 206/89 187/90
f 193/92 209/91 206/89
f 417/93 209/91 193/92
f 417/93 413/75 209/91
f 206/89 201/85 199/82
f 206/89 207/94 201/85
f 209/91 207/94 206/89
f 209/91 210/95 207/94
f 413/75 210/95 209/91
f 413/75 414/76 210/95
f 207/94 203/87 201/85
f 207/94 208/96 203/87
f 210/95 208/96 207/94
f 210/95 211/97 208/96
f 414/76 211/97 210/95
f 414/76 415/77 211/97
f 211/97 191/90 208/96
f 211/97 196/92 191/90
f 415/77 196/92 211/97
f 415/77 416/98 196/92
f 212/107 205/106 197/105
f 198/107 197/105 183/106
f 197/105 221/107 212/107
f 197/105 222/105 221/107
f 198/107 222/105 197/105
f 198/107 217/107 222/105
f 422/108 232/109 421/110
f 422/108 233/111 232/109
f 442/110 233/111 422/108
f 442/110 237/109 233/111
f 234/112 424/19 235/113
f 234/112 423/114 424/19
f 238/113 423/114 234/112
f 238/113 443/19 423/114
f 239/115 443/19 238/113
f 239/115 444/21 443/19
f 431/108 421/110 430/110
f 431/108 422/108 421/110
f 449/110 422/108 431/108
f 449/110 442/110 422/108
f 455/116 442/110 449/110
f 455/116 448/116 442/110
f 33/117 34/114 35/22
f 33/117 36/118 34/114
f 66/117 36/118 33/117
f 66/117 58/118 36/118
f 68/117 58/118 66/117
f 68/117 60/118 58/118
f 69/117 60/118 68/117
f 69/117 61/118 60/118
f 440/119 61/118 69/117
f 440/119 439/120 61/118
f 424/19 439/120 440/119
f 424/19 423/114 439/120
f 48/110 50/121 51/122
f 48/110 49/108 50/121
f 63/110 49/108 48/110
f 63/110 82/123 49/108
f 65/20 82/123 63/110
f 65/20 87/124 82/123
f 236/115 424/19 425/21
f 236/115 235/113 424/19
f 460/125 235/113 236/115
f 460/125 461/126 235/113
f 291/125 461/126 460/125
f 291/125 296/126 461/126
f 232/109 429/127 421/128
f 232/109 236/115 429/127
f 459/129 236/115 232/109
f 459/129 460/125 236/115
f 290/129 460/125 459/129
f 290/129 291/125 460/125
f 57/114 36/118 58/118
f 57/114 56/114 36/118
f 117/118 56/114 57/114
f 117/118 98/118 56/114
f 124/117 98/118 117/118
f 124/117 97/117 98/118
f 438/114 60/118 61/118
f 438/114 59/114 60/118
f 118/118 59/114 438/114
f 118/118 119/118 59/114
f 126/117 119/118 118/118
f 126/117 127/117 119/118
f 63/110 48/110 51/122
f 42/116 63/110 51/122
f 425/21 424/19 441/19
f 433/21 425/21 441/19
f 430/110 421/110 429/116
f 437/116 430/110 429/116
f 74/108 75/130 50/121
f 74/108 76/108 75/130
f 112/121 76/108 74/108
f 112/121 132/130 76/108
f 76/108 77/130 75/130
f 76/108 78/108 77/130
f 132/130 78/108 76/108
f 132/130 133/130 78/108
f 79/108 430/110 28/131
f 79/108 431/108 430/110
f 91/131 431/108 79/108
f 91/131 449/110 431/108
f 441/19 424/19 440/119
f 27/132 77/130 79/108
f 28/131 27/132 79/108
f 86/20 43/116 46/120
f 86/20 55/20 43/116
f 41/133 55/20 86/20
f 41/133 39/21 55/20
f 59/114 58/118 60/118
f 59/114 57/114 58/118
f 119/118 57/114 59/114
f 119/118 117/118 57/114
f 127/117 117/118 119/118
f 127/117 124/117 117/118
f 125/22 124/117 127/117
f 125/22 96/19 124/117
f 440/119 69/117 67/22
f 441/19 440/119 67/22
f 73/20 45/120 44/134
f 73/20 259/20 45/120
f 37/135 259/20 73/20
f 37/135 40/133 259/20
f 68/117 66/117 30/19
f 67/22 68/117 30/19
f 67/22 69/117 68/117
f 98/118 97/117 99/22
f 34/114 98/118 99/22
f 49/108 111/122 112/121
f 49/108 110/110 111/122
f 136/123 110/110 49/108
f 136/123 121/110 110/110
f 87/124 121/110 136/123
f 87/124 122/20 121/110
f 239/115 442/128 448/127
f 239/115 237/109 442/128
f 464/125 237/109 239/115
f 464/125 465/129 237/109
f 322/125 465/129 464/125
f 322/125 319/129 465/129
f 111/122 110/110 121/110
f 105/116 111/122 121/110
f 457/119 423/114 443/19
f 457/119 456/120 423/114
f 126/117 456/120 457/119
f 126/117 118/118 456/120
f 458/19 443/19 444/21
f 451/21 458/19 444/21
f 458/19 457/119 443/19
f 79/108 133/130 92/132
f 91/131 79/108 92/132
f 116/20 108/120 106/116
f 116/20 140/20 108/120
f 104/21 140/20 116/20
f 104/21 102/133 140/20
f 125/22 126/117 457/119
f 458/19 125/22 457/119
f 281/20 109/134 107/120
f 281/20 131/20 109/134
f 101/133 131/20 281/20
f 101/133 100/135 131/20
f 125/22 127/117 126/117
f 462/111 235/113 461/126
f 462/111 234/112 235/113
f 466/126 234/112 462/111
f 466/126 238/113 234/112
f 464/125 238/113 466/126
f 464/125 239/115 238/113
f 233/111 459/129 232/109
f 233/111 463/136 459/129
f 237/109 463/136 233/111
f 237/109 465/129 463/136
f 299/111 461/126 296/126
f 299/111 462/111 461/126
f 327/126 462/111 299/111
f 327/126 466/126 462/111
f 322/125 466/126 327/126
f 322/125 464/125 466/126
f 463/136 290/129 459/129
f 463/136 284/136 290/129
f 465/129 284/136 463/136
f 465/129 319/129 284/136
f 294/125 302/111 307/137
f 354/27 352/27 353/26
f 354/27 351/25 352/27
f 501/29 351/25 354/27
f 501/29 499/28 351/25
f 487/31 499/28 501/29
f 487/31 492/30 499/28
f 495/33 492/30 487/31
f 495/33 498/32 492/30
f 483/35 498/32 495/33
f 483/35 481/34 498/32
f 477/37 481/34 483/35
f 477/37 468/36 481/34
f 467/36 355/38 469/37
f 473/40 355/38 470/39
f 473/40 469/37 355/38
f 485/41 469/37 473/40
f 485/41 486/35 469/37
f 494/42 486/35 485/41
f 494/42 496/33 486/35
f 489/43 496/33 494/42
f 489/43 490/31 496/33
f 503/44 490/31 489/43
f 503/44 504/29 490/31
f 353/26 504/29 503/44
f 353/26 352/27 504/29
f 477/37 471/39 356/38
f 477/37 475/45 471/39
f 483/35 475/45 477/37
f 483/35 484/41 475/45
f 495/33 484/41 483/35
f 495/33 493/42 484/41
f 487/31 493/42 495/33
f 487/31 488/43 493/42
f 501/29 488/43 487/31
f 501/29 502/44 488/43
f 354/27 502/44 501/29
f 354/27 353/26 502/44
f 477/37 356/38 468/36
f 484/41 478/46 475/45
f 479/46 485/41 473/40
f 486/35 467/36 469/37
f 486/35 482/34 467/36
f 496/33 482/34 486/35
f 496/33 497/32 482/34
f 490/31 497/32 496/33
f 490/31 491/30 497/32
f 504/29 491/30 490/31
f 504/29 500/28 491/30
f 352/27 500/28 504/29
f 352/27 351/25 500/28
f 371/40 376/45 374/39
f 371/40 380/46 376/45
f 411/66 416/98 415/77
f 411/66 420/80 416/98
f 417/93 409/66 413/75
f 417/93 418/79 409/66
f 184/138 185/6 183/5
f 184/138 205/5 185/6
f 227/100 184/139 183/106
f 227/100 226/102 184/139
f 231/100 184/139 226/102
f 231/100 205/106 184/139
f 37/135 38/21 40/133
f 37/135 54/21 38/21
f 73/20 54/21 37/135
f 73/20 246/21 54/21
f 32/22 54/21 246/21
f 32/22 35/22 54/21
f 62/19 35/22 32/22
f 62/19 33/117 35/22
f 243/19 33/117 62/19
f 62/19 32/22 243/19
f 38/21 54/21 35/22
f 42/116 44/134 45/120
f 42/116 257/116 44/134
f 51/122 257/116 42/116
f 55/20 244/20 43/116
f 55/20 39/21 244/20
f 56/114 34/114 36/118
f 56/114 98/118 34/114
f 439/120 438/114 61/118
f 439/120 423/114 438/114
f 456/120 438/114 423/114
f 456/120 118/118 438/114
f 67/22 433/21 441/19
f 67/22 52/21 433/21
f 260/140 52/21 67/22
f 67/22 30/19 260/140
f 33/117 30/19 66/117
f 33/117 242/19 30/19
f 31/22 30/19 242/19
f 31/22 29/141 30/19
f 53/21 29/141 31/22
f 53/21 261/140 29/141
f 30/19 29/141 261/140
f 247/21 53/21 31/22
f 247/21 71/20 53/21
f 241/20 53/21 71/20
f 71/20 25/116 241/20
f 250/116 25/116 71/20
f 250/116 26/110 25/116
f 81/110 26/110 250/116
f 81/110 27/132 26/110
f 80/142 27/132 81/110
f 80/142 77/130 27/132
f 70/143 77/130 80/142
f 70/143 75/130 77/130
f 50/121 75/130 70/143
f 70/143 248/110 50/121
f 81/110 248/110 70/143
f 81/110 85/144 248/110
f 83/116 85/144 81/110
f 83/116 254/116 85/144
f 72/20 254/116 83/116
f 83/116 251/116 72/20
f 81/110 251/116 83/116
f 70/143 80/142 81/110
f 28/131 26/110 27/132
f 28/131 253/110 26/110
f 25/116 26/110 253/110
f 49/108 74/108 50/121
f 49/108 112/121 74/108
f 78/108 79/108 77/130
f 78/108 133/130 79/108
f 430/110 252/110 28/131
f 430/110 24/116 252/110
f 437/116 24/116 430/110
f 437/116 432/20 24/116
f 435/20 432/20 437/116
f 435/20 433/21 432/20
f 52/21 432/20 433/21
f 52/21 240/20 432/20
f 24/116 432/20 240/20
f 42/116 65/20 63/110
f 42/116 245/20 65/20
f 38/21 65/20 245/20
f 249/110 51/122 50/121
f 249/110 84/144 51/122
f 256/116 51/122 84/144
f 84/144 44/134 256/116
f 255/116 44/134 84/144
f 255/116 73/20 44/134
f 86/20 258/20 41/133
f 86/20 46/120 258/20
f 64/19 87/124 65/20
f 64/19 47/145 87/124
f 35/22 47/145 64/19
f 35/22 34/114 47/145
f 99/22 47/145 34/114
f 99/22 123/19 47/145
f 87/124 47/145 123/19
f 123/19 122/20 87/124
f 103/21 100/135 101/133
f 103/21 115/21 100/135
f 99/22 115/21 103/21
f 99/22 95/22 115/21
f 120/19 95/22 99/22
f 120/19 265/19 95/22
f 97/117 265/19 120/19
f 120/19 99/22 97/117
f 268/21 115/21 95/22
f 268/21 131/20 115/21
f 100/135 115/21 131/20
f 109/134 105/116 107/120
f 109/134 279/116 105/116
f 111/122 105/116 279/116
f 266/20 116/20 106/116
f 266/20 104/21 116/20
f 451/21 125/22 458/19
f 451/21 113/21 125/22
f 450/20 113/21 451/21
f 450/20 262/20 113/21
f 88/116 262/20 450/20
f 450/20 455/116 88/116
f 454/20 455/116 450/20
f 450/20 451/21 454/20
f 449/110 88/116 455/116
f 449/110 274/110 88/116
f 91/131 274/110 449/110
f 282/140 125/22 113/21
f 282/140 96/19 125/22
f 96/19 97/117 124/117
f 96/19 264/19 97/117
f 94/22 264/19 96/19
f 96/19 93/141 94/22
f 283/140 93/141 96/19
f 283/140 114/21 93/141
f 94/22 93/141 114/21
f 114/21 269/21 94/22
f 129/20 269/21 114/21
f 114/21 263/20 129/20
f 89/116 129/20 263/20
f 89/116 272/116 129/20
f 90/110 272/116 89/116
f 90/110 134/110 272/116
f 92/132 134/110 90/110
f 92/132 135/142 134/110
f 133/130 135/142 92/132
f 133/130 128/143 135/142
f 132/130 128/143 133/130
f 132/130 112/121 128/143
f 270/110 128/143 112/121
f 270/110 134/110 128/143
f 139/144 134/110 270/110
f 139/144 137/116 134/110
f 276/116 137/116 139/144
f 276/116 130/20 137/116
f 273/116 137/116 130/20
f 273/116 134/110 137/116
f 128/143 134/110 135/142
f 90/110 91/131 92/132
f 90/110 275/110 91/131
f 89/116 275/110 90/110
f 122/20 105/116 121/110
f 122/20 267/20 105/116
f 103/21 267/20 122/20
f 111/122 271/110 112/121
f 111/122 138/144 271/110
f 278/116 138/144 111/122
f 278/116 109/134 138/144
f 277/116 138/144 109/134
f 109/134 131/20 277/116
f 280/20 140/20 102/133
f 280/20 108/120 140/20
f 288/146 290/129 284/136
f 288/146 291/125 290/129
f 296/126 297/126 299/111
f 296/126 291/125 297/126
f 306/137 298/126 292/125
f 306/137 300/111 298/126
f 308/147 289/146 285/136
f 308/147 293/125 289/146
f 319/129 320/146 284/136
f 319/129 322/125 320/146
f 328/126 327/126 299/111
f 328/126 322/125 327/126
f 329/126 330/137 323/125
f 329/126 301/111 330/137
f 321/146 338/147 286/136
f 321/146 324/125 338/147
f 345/148 287/136 340/147
f 345/148 311/147 287/136
f 303/111 347/149 331/137
f 303/111 315/150 347/149
f 349/151 295/125 310/147
f 349/151 304/111 295/125
f 350/151 314/150 305/111
f 350/151 309/147 314/150
f 313/152 314/150 309/147
f 313/152 334/153 314/150
f 333/154 334/153 313/152
f 313/152 339/147 333/154
f 317/155 339/147 313/152
f 313/152 309/147 317/155
f 343/150 333/154 339/147
f 343/150 336/153 333/154
f 346/148 318/155 312/147
f 346/148 341/147 318/155
f 332/137 335/153 325/125
f 332/137 348/149 335/153
f 316/150 335/153 348/149
f 326/125 344/150 342/147
f 326/125 337/153 344/150
f 476/45 474/40 472/39
f 476/45 480/46 474/40
f 5/15 6/156 3/11
f 5/15 7/18 6/156
f 4/9 6/156 7/18
f 4/9 3/11 6/156
f 1/157 357/158 2/159
f 1/157 9/17 357/158
f 8/16 357/158 9/17
f 8/16 2/159 357/158
f 151/160 152/51 153/58
f 151/160 159/52 152/51
f 160/57 159/52 151/160
f 151/160 153/58 160/57
f 158/161 156/54 148/162
f 158/161 157/55 156/54
f 147/163 157/55 158/161
f 158/161 148/162 147/163
f 167/51 165/160 166/58
f 167/51 173/52 165/160
f 174/57 165/160 173/52
f 174/57 166/58 165/160
f 170/54 172/161 164/162
f 170/54 169/55 172/161
f 161/163 172/161 169/55
f 161/163 164/162 172/161
f 11/164 358/69 10/71
f 11/164 366/73 358/69
f 365/69 366/73 11/164
f 11/164 10/71 365/69
f 360/165 361/74 359/72
f 360/165 362/72 361/74
f 407/63 362/72 360/165
f 407/63 363/166 362/72
f 408/67 363/166 407/63
f 408/67 405/63 363/166
f 359/72 363/166 405/63
f 359/72 364/70 363/166
f 362/72 363/166 364/70
f 405/63 360/165 359/72
f 405/63 406/65 360/165
f 407/63 360/165 406/65
f 225/103 223/167 224/101
f 225/103 230/101 223/167
f 228/99 223/167 230/101
f 228/99 224/101 223/167
f 426/20 428/168 425/21
f 426/20 429/127 428/168
f 236/115 428/168 429/127
f 236/115 425/21 428/168
f 434/20 436/20 433/21
f 434/20 437/116 436/20
f 429/116 436/20 437/116
f 429/116 427/20 436/20
f 425/21 436/20 427/20
f 425/21 433/21 436/20
f 445/168 446/20 444/21
f 445/168 448/127 446/20
f 239/115 448/127 445/168
f 445/168 444/21 239/115
f 452/20 453/20 451/21
f 452/20 455/116 453/20
f 448/116 455/116 452/20
f 452/20 447/20 448/116
f 444/21 447/20 452/20
f 452/20 451/21 444/21
usemtl mat_2
f 13/169 14/170 15/171
f 12/172 13/169 15/171
f 17/169 18/170 19/171
f 16/172 17/169 19/171
f 21/169 22/170 23/171
f 20/172 21/169 23/171
