xof 0303txt 0032

template AnimTicksPerSecond {
  <9E415A43-7BA6-4a73-8743-B73D47E88476>
  DWORD AnimTicksPerSecond;
}

template XSkinMeshHeader {
  <3cf169ce-ff7c-44ab-93c0-f78f62d172e2>
  WORD nMaxSkinWeightsPerVertex;
  WORD nMaxSkinWeightsPerFace;
  WORD nBones;
}

template SkinWeights {
  <6f0d123b-bad2-4167-a0d0-80224f25fabb>
  STRING transformNodeName;
  DWORD nWeights;
  array DWORD vertexIndices[nWeights];
  array float weights[nWeights];
  Matrix4x4 matrixOffset;
}

Frame Root {
  FrameTransformMatrix {
     1.000000, 0.000000, 0.000000, 0.000000,
     0.000000, 0.000000, 1.000000, 0.000000,
     0.000000, 1.000000,-0.000000, 0.000000,
     0.000000, 0.000000, 0.000000, 1.000000;;
  }
  Frame ziguzaguma_mat_1 {
    FrameTransformMatrix {
       1.000000, 0.000000, 0.000000, 0.000000,
       0.000000, 1.000000, 0.000000, 0.000000,
       0.000000, 0.000000, 1.000000, 0.000000,
       0.000000, 0.000000, 0.000000, 1.000000;;
    }
    Mesh { //Mesh Mesh
      108;
       2.692530; 4.522840; 0.989543;,
       1.871000; 4.521500; 0.553374;,
       2.833790; 3.593240; 0.750906;,
       1.871000; 4.521500; 0.553374;,
       1.970600; 3.591830; 0.292624;,
       2.833790; 3.593240; 0.750906;,
       2.603920; 2.864227; 1.757390;,
       2.833790; 3.593240; 0.750906;,
       1.970600; 3.591830; 0.292624;,
       1.970600; 3.591830; 0.292624;,
       1.270900; 2.862052; 1.049660;,
       2.603920; 2.864227; 1.757390;,
       2.603920; 2.864227; 1.757390;,
       1.270900; 2.862052; 1.049660;,
       2.151710; 3.045006; 2.670040;,
       1.270900; 2.862052; 1.049660;,
       0.767710; 3.045030; 1.938550;,
       2.151710; 3.045006; 2.670040;,
       1.322600; 4.625040; 1.352410;,
       1.871000; 4.521500; 0.553374;,
       2.692530; 4.522840; 0.989543;,
       1.322600; 4.625040; 1.352410;,
       2.692530; 4.522840; 0.989543;,
       2.324870; 4.626680; 1.884540;,
       2.261510; 3.656770; 3.062740;,
       2.911080; 3.742280; 1.993090;,
       2.603920; 2.864227; 1.757390;,
       2.261510; 3.656770; 3.062740;,
       2.603920; 2.864227; 1.757390;,
       2.151710; 3.045006; 2.670040;,
       0.767710; 3.045030; 1.938550;,
       1.270900; 2.862052; 1.049660;,
       0.906533; 3.739010; 0.928843;,
       0.767710; 3.045030; 1.938550;,
       0.906533; 3.739010; 0.928843;,
       0.388435; 3.656800; 2.072760;,
      -2.824410; 3.582670; 0.744046;,
      -1.957080; 3.601880; 0.294047;,
      -2.704180; 4.513190; 0.990480;,
      -1.957080; 3.601880; 0.294047;,
      -1.878710; 4.531470; 0.562193;,
      -2.704180; 4.513190; 0.990480;,
      -2.704180; 4.513190; 0.990480;,
      -1.878710; 4.531470; 0.562193;,
      -2.347150; 4.618000; 1.889650;,
      -1.878710; 4.531470; 0.562193;,
      -1.340070; 4.640300; 1.367140;,
      -2.347150; 4.618000; 1.889650;,
      -1.957080; 3.601880; 0.294047;,
      -2.824410; 3.582670; 0.744046;,
      -1.249980; 2.880916; 1.052650;,
      -2.824410; 3.582670; 0.744046;,
      -2.589390; 2.851254; 1.747590;,
      -1.249980; 2.880916; 1.052650;,
      -1.249980; 2.880916; 1.052650;,
      -2.589390; 2.851254; 1.747590;,
      -0.753843; 3.045047; 1.941000;,
      -2.589390; 2.851254; 1.747590;,
      -2.137840; 3.045087; 2.672490;,
      -0.753843; 3.045047; 1.941000;,
      -2.137840; 3.045087; 2.672490;,
      -2.589390; 2.851254; 1.747590;,
      -2.916400; 3.721260; 1.986440;,
      -2.137840; 3.045087; 2.672490;,
      -2.916400; 3.721260; 1.986440;,
      -2.247520; 3.656760; 3.065360;,
      -0.374447; 3.656710; 2.075380;,
      -0.902249; 3.765860; 0.941428;,
      -1.249980; 2.880916; 1.052650;,
      -0.374447; 3.656710; 2.075380;,
      -1.249980; 2.880916; 1.052650;,
      -0.753843; 3.045047; 1.941000;,
       2.603920; 2.864227; 1.757390;,
       2.911080; 3.742280; 1.993090;,
       2.833790; 3.593240; 0.750906;,
       2.911080; 3.742280; 1.993090;,
       2.692530; 4.522840; 0.989543;,
       2.833790; 3.593240; 0.750906;,
       2.692530; 4.522840; 0.989543;,
       2.911080; 3.742280; 1.993090;,
       2.324870; 4.626680; 1.884540;,
       1.322600; 4.625040; 1.352410;,
       0.906533; 3.739010; 0.928843;,
       1.871000; 4.521500; 0.553374;,
       0.906533; 3.739010; 0.928843;,
       1.970600; 3.591830; 0.292624;,
       1.871000; 4.521500; 0.553374;,
       1.970600; 3.591830; 0.292624;,
       0.906533; 3.739010; 0.928843;,
       1.270900; 2.862052; 1.049660;,
      -2.589390; 2.851254; 1.747590;,
      -2.824410; 3.582670; 0.744046;,
      -2.916400; 3.721260; 1.986440;,
      -2.824410; 3.582670; 0.744046;,
      -2.704180; 4.513190; 0.990480;,
      -2.916400; 3.721260; 1.986440;,
      -2.916400; 3.721260; 1.986440;,
      -2.704180; 4.513190; 0.990480;,
      -2.347150; 4.618000; 1.889650;,
      -1.340070; 4.640300; 1.367140;,
      -1.878710; 4.531470; 0.562193;,
      -0.902249; 3.765860; 0.941428;,
      -1.878710; 4.531470; 0.562193;,
      -1.957080; 3.601880; 0.294047;,
      -0.902249; 3.765860; 0.941428;,
      -0.902249; 3.765860; 0.941428;,
      -1.957080; 3.601880; 0.294047;,
      -1.249980; 2.880916; 1.052650;;
      36;
      3;0;1;2;,
      3;3;4;5;,
      3;6;7;8;,
      3;9;10;11;,
      3;12;13;14;,
      3;15;16;17;,
      3;18;19;20;,
      3;21;22;23;,
      3;24;25;26;,
      3;27;28;29;,
      3;30;31;32;,
      3;33;34;35;,
      3;36;37;38;,
      3;39;40;41;,
      3;42;43;44;,
      3;45;46;47;,
      3;48;49;50;,
      3;51;52;53;,
      3;54;55;56;,
      3;57;58;59;,
      3;60;61;62;,
      3;63;64;65;,
      3;66;67;68;,
      3;69;70;71;,
      3;72;73;74;,
      3;75;76;77;,
      3;78;79;80;,
      3;81;82;83;,
      3;84;85;86;,
      3;87;88;89;,
      3;90;91;92;,
      3;93;94;95;,
      3;96;97;98;,
      3;99;100;101;,
      3;102;103;104;,
      3;105;106;107;;
      MeshNormals { //Mesh Normals
        108;
        -0.647328;-0.688192; 0.327525;,
         0.085879;-0.690939; 0.717765;,
        -0.770989; 0.256966; 0.582659;,
         0.085879;-0.690939; 0.717765;,
        -0.045656; 0.253792; 0.966155;,
        -0.770989; 0.256966; 0.582659;,
        -0.555315; 0.831111;-0.029084;,
        -0.770989; 0.256966; 0.582659;,
        -0.045656; 0.253792; 0.966155;,
        -0.045656; 0.253792; 0.966155;,
         0.339427; 0.830836; 0.440992;,
        -0.555315; 0.831111;-0.029084;,
        -0.555315; 0.831111;-0.029084;,
         0.339427; 0.830836; 0.440992;,
        -0.484390; 0.780602;-0.394971;,
         0.339427; 0.830836; 0.440992;,
         0.608356; 0.769066; 0.195990;,
        -0.484390; 0.780602;-0.394971;,
         0.328471;-0.881314; 0.339640;,
         0.085879;-0.690939; 0.717765;,
        -0.647328;-0.688192; 0.327525;,
         0.328471;-0.881314; 0.339640;,
        -0.647328;-0.688192; 0.327525;,
        -0.458205;-0.884701;-0.085574;,
        -0.783715; 0.417982;-0.459365;,
        -0.971252; 0.106052;-0.213019;,
        -0.555315; 0.831111;-0.029084;,
        -0.783715; 0.417982;-0.459365;,
        -0.555315; 0.831111;-0.029084;,
        -0.484390; 0.780602;-0.394971;,
         0.608356; 0.769066; 0.195990;,
         0.339427; 0.830836; 0.440992;,
         0.724174; 0.105991; 0.681417;,
         0.608356; 0.769066; 0.195990;,
         0.724174; 0.105991; 0.681417;,
         0.815790; 0.418104; 0.399518;,
         0.760125; 0.268227; 0.591784;,
         0.031404; 0.247749; 0.968291;,
         0.657979;-0.677389; 0.328929;,
         0.031404; 0.247749; 0.968291;,
        -0.078677;-0.697653; 0.712088;,
         0.657979;-0.677389; 0.328929;,
         0.657979;-0.677389; 0.328929;,
        -0.078677;-0.697653; 0.712088;,
         0.476730;-0.874660;-0.087344;,
        -0.078677;-0.697653; 0.712088;,
        -0.313852;-0.890133; 0.330363;,
         0.476730;-0.874660;-0.087344;,
         0.031404; 0.247749; 0.968291;,
         0.760125; 0.268227; 0.591784;,
        -0.350230; 0.819361; 0.453810;,
         0.760125; 0.268227; 0.591784;,
         0.541887; 0.840052;-0.025025;,
        -0.350230; 0.819361; 0.453810;,
        -0.350230; 0.819361; 0.453810;,
         0.541887; 0.840052;-0.025025;,
        -0.603076; 0.775231; 0.187750;,
         0.541887; 0.840052;-0.025025;,
         0.492599; 0.774438;-0.396924;,
        -0.603076; 0.775231; 0.187750;,
         0.492599; 0.774438;-0.396924;,
         0.541887; 0.840052;-0.025025;,
         0.968352; 0.130253;-0.212775;,
         0.492599; 0.774438;-0.396924;,
         0.968352; 0.130253;-0.212775;,
         0.777642; 0.432478;-0.456252;,
        -0.823725; 0.400281; 0.401502;,
        -0.723533; 0.081149; 0.685476;,
        -0.350230; 0.819361; 0.453810;,
        -0.823725; 0.400281; 0.401502;,
        -0.350230; 0.819361; 0.453810;,
        -0.603076; 0.775231; 0.187750;,
        -0.555315; 0.831111;-0.029084;,
        -0.971252; 0.106052;-0.213019;,
        -0.770989; 0.256966; 0.582659;,
        -0.971252; 0.106052;-0.213019;,
        -0.647328;-0.688192; 0.327525;,
        -0.770989; 0.256966; 0.582659;,
        -0.647328;-0.688192; 0.327525;,
        -0.971252; 0.106052;-0.213019;,
        -0.458205;-0.884701;-0.085574;,
         0.328471;-0.881314; 0.339640;,
         0.724174; 0.105991; 0.681417;,
         0.085879;-0.690939; 0.717765;,
         0.724174; 0.105991; 0.681417;,
        -0.045656; 0.253792; 0.966155;,
         0.085879;-0.690939; 0.717765;,
        -0.045656; 0.253792; 0.966155;,
         0.724174; 0.105991; 0.681417;,
         0.339427; 0.830836; 0.440992;,
         0.541887; 0.840052;-0.025025;,
         0.760125; 0.268227; 0.591784;,
         0.968352; 0.130253;-0.212775;,
         0.760125; 0.268227; 0.591784;,
         0.657979;-0.677389; 0.328929;,
         0.968352; 0.130253;-0.212775;,
         0.968352; 0.130253;-0.212775;,
         0.657979;-0.677389; 0.328929;,
         0.476730;-0.874660;-0.087344;,
        -0.313852;-0.890133; 0.330363;,
        -0.078677;-0.697653; 0.712088;,
        -0.723533; 0.081149; 0.685476;,
        -0.078677;-0.697653; 0.712088;,
         0.031404; 0.247749; 0.968291;,
        -0.723533; 0.081149; 0.685476;,
        -0.723533; 0.081149; 0.685476;,
         0.031404; 0.247749; 0.968291;,
        -0.350230; 0.819361; 0.453810;;
        36;
        3;0;1;2;,
        3;3;4;5;,
        3;6;7;8;,
        3;9;10;11;,
        3;12;13;14;,
        3;15;16;17;,
        3;18;19;20;,
        3;21;22;23;,
        3;24;25;26;,
        3;27;28;29;,
        3;30;31;32;,
        3;33;34;35;,
        3;36;37;38;,
        3;39;40;41;,
        3;42;43;44;,
        3;45;46;47;,
        3;48;49;50;,
        3;51;52;53;,
        3;54;55;56;,
        3;57;58;59;,
        3;60;61;62;,
        3;63;64;65;,
        3;66;67;68;,
        3;69;70;71;,
        3;72;73;74;,
        3;75;76;77;,
        3;78;79;80;,
        3;81;82;83;,
        3;84;85;86;,
        3;87;88;89;,
        3;90;91;92;,
        3;93;94;95;,
        3;96;97;98;,
        3;99;100;101;,
        3;102;103;104;,
        3;105;106;107;;
      } //End of Mesh Normals
      MeshMaterialList { //Mesh Material List
        1;
        36;
        0,
        0,
        0,
        0,
        0,
        0,
        0,
        0,
        0,
        0,
        0,
        0,
        0,
        0,
        0,
        0,
        0,
        0,
        0,
        0,
        0,
        0,
        0,
        0,
        0,
        0,
        0,
        0,
        0,
        0,
        0,
        0,
        0,
        0,
        0,
        0;;
        Material mat_1 {
           0.640000; 0.640000; 0.640000; 1.000000;;
           92.156863;
           0.250000; 0.250000; 0.250000;;
           0.000000; 0.000000; 0.000000;;
          TextureFilename {"Textures/ziguzaguma_1_1.tga";}
        }
      } //End of Mesh Material List
      MeshTextureCoords { //Mesh UV Coordinates
        108;
         0.983789; 0.380982;,
         0.874381; 0.520748;,
         1.000000; 0.680775;,
         0.874381; 0.520748;,
         0.885044; 0.827626;,
         1.000000; 0.680775;,
         0.891347; 0.649998;,
         1.000000; 0.680775;,
         0.885044; 0.827626;,
         0.885044; 0.827626;,
         0.713821; 0.876782;,
         0.891347; 0.649998;,
         0.891347; 0.649998;,
         0.713821; 0.876782;,
         0.771266; 0.406670;,
         0.713821; 0.876782;,
         0.586819; 0.640735;,
         0.771266; 0.406670;,
         0.743296; 0.329234;,
         0.874381; 0.520748;,
         0.983789; 0.380982;,
         0.743296; 0.329234;,
         0.983789; 0.380982;,
         0.876774; 0.158720;,
         0.780515; 0.144828;,
         0.947060; 0.344726;,
         0.891347; 0.649998;,
         0.780515; 0.144828;,
         0.891347; 0.649998;,
         0.771266; 0.406670;,
         0.586819; 0.640735;,
         0.713821; 0.876782;,
         0.680104; 0.685754;,
         0.586819; 0.640735;,
         0.680104; 0.685754;,
         0.530886; 0.461606;,
         0.080685; 0.937926;,
         0.246926; 1.000000;,
         0.106554; 0.624372;,
         0.246926; 1.000000;,
         0.264772; 0.683451;,
         0.106554; 0.624372;,
         0.106554; 0.624372;,
         0.264772; 0.683451;,
         0.117094; 0.368499;,
         0.264772; 0.683451;,
         0.310120; 0.440576;,
         0.117094; 0.368499;,
         0.246926; 1.000000;,
         0.080685; 0.937926;,
         0.304413; 0.983587;,
         0.080685; 0.937926;,
         0.047688; 0.887725;,
         0.304413; 0.983587;,
         0.304413; 0.983587;,
         0.047688; 0.887725;,
         0.339428; 0.708106;,
         0.047688; 0.887725;,
         0.074073; 0.597642;,
         0.339428; 0.708106;,
         0.074073; 0.597642;,
         0.047688; 0.887725;,
         0.000000; 0.612199;,
         0.074073; 0.597642;,
         0.000000; 0.612199;,
         0.047643; 0.345585;,
         0.406770; 0.495085;,
         0.386054; 0.756353;,
         0.304413; 0.983587;,
         0.406770; 0.495085;,
         0.304413; 0.983587;,
         0.339428; 0.708106;,
         0.891347; 0.649998;,
         0.947060; 0.344726;,
         1.000000; 0.680775;,
         0.947060; 0.344726;,
         0.983789; 0.380982;,
         1.000000; 0.680775;,
         0.983789; 0.380982;,
         0.947060; 0.344726;,
         0.876774; 0.158720;,
         0.743296; 0.329234;,
         0.680104; 0.685754;,
         0.874381; 0.520748;,
         0.680104; 0.685754;,
         0.885044; 0.827626;,
         0.874381; 0.520748;,
         0.885044; 0.827626;,
         0.680104; 0.685754;,
         0.713821; 0.876782;,
         0.047688; 0.887725;,
         0.080685; 0.937926;,
         0.000000; 0.612199;,
         0.080685; 0.937926;,
         0.106554; 0.624372;,
         0.000000; 0.612199;,
         0.000000; 0.612199;,
         0.106554; 0.624372;,
         0.117094; 0.368499;,
         0.310120; 0.440576;,
         0.264772; 0.683451;,
         0.386054; 0.756353;,
         0.264772; 0.683451;,
         0.246926; 1.000000;,
         0.386054; 0.756353;,
         0.386054; 0.756353;,
         0.246926; 1.000000;,
         0.304413; 0.983587;;
      } //End of Mesh UV Coordinates
    } //End of Mesh Mesh
  } //End of ziguzaguma_mat_1
  Frame ziguzaguma_mat_0 {
    FrameTransformMatrix {
       1.000000, 0.000000, 0.000000, 0.000000,
       0.000000, 1.000000, 0.000000, 0.000000,
       0.000000, 0.000000, 1.000000, 0.000000,
       0.000000, 0.000000, 0.000000, 1.000000;;
    }
    Mesh { //Mesh Mesh
      84;
       0.382665; 3.780910; 3.223390;,
       1.314140; 3.780890; 3.715700;,
       0.138310; 2.965904; 3.819830;,
       1.314140; 3.780890; 3.715700;,
       0.960658; 2.965890; 4.254470;,
       0.138310; 2.965904; 3.819830;,
       0.767710; 3.045030; 1.938550;,
       0.138310; 2.965904; 3.819830;,
       0.960658; 2.965890; 4.254470;,
       0.960658; 2.965890; 4.254470;,
       2.151710; 3.045006; 2.670040;,
       0.767710; 3.045030; 1.938550;,
       1.314140; 3.780890; 3.715700;,
       2.324870; 4.626680; 1.884540;,
       2.911080; 3.742280; 1.993090;,
       1.314140; 3.780890; 3.715700;,
       2.911080; 3.742280; 1.993090;,
       2.261510; 3.656770; 3.062740;,
      -0.368673; 3.780480; 3.225990;,
      -1.340070; 4.640300; 1.367140;,
      -0.902249; 3.765860; 0.941428;,
      -0.368673; 3.780480; 3.225990;,
      -0.902249; 3.765860; 0.941428;,
      -0.374447; 3.656710; 2.075380;,
      -1.300150; 3.780510; 3.718310;,
      -2.247520; 3.656760; 3.065360;,
      -2.916400; 3.721260; 1.986440;,
      -1.300150; 3.780510; 3.718310;,
      -2.916400; 3.721260; 1.986440;,
      -2.347150; 4.618000; 1.889650;,
       0.382665; 3.780910; 3.223390;,
       0.388435; 3.656800; 2.072760;,
       0.906533; 3.739010; 0.928843;,
       0.382665; 3.780910; 3.223390;,
       0.906533; 3.739010; 0.928843;,
       1.322600; 4.625040; 1.352410;,
      -0.753843; 3.045047; 1.941000;,
      -2.137840; 3.045087; 2.672490;,
      -0.124455; 2.965259; 3.822250;,
      -2.137840; 3.045087; 2.672490;,
      -0.946803; 2.965282; 4.256890;,
      -0.124455; 2.965259; 3.822250;,
      -0.124455; 2.965259; 3.822250;,
      -0.946803; 2.965282; 4.256890;,
      -0.368673; 3.780480; 3.225990;,
      -0.946803; 2.965282; 4.256890;,
      -1.300150; 3.780510; 3.718310;,
      -0.368673; 3.780480; 3.225990;,
       0.382665; 3.780910; 3.223390;,
       0.138310; 2.965904; 3.819830;,
       0.388435; 3.656800; 2.072760;,
       0.388435; 3.656800; 2.072760;,
       0.138310; 2.965904; 3.819830;,
       0.767710; 3.045030; 1.938550;,
       2.151710; 3.045006; 2.670040;,
       0.960658; 2.965890; 4.254470;,
       2.261510; 3.656770; 3.062740;,
       0.960658; 2.965890; 4.254470;,
       1.314140; 3.780890; 3.715700;,
       2.261510; 3.656770; 3.062740;,
      -2.347150; 4.618000; 1.889650;,
      -1.340070; 4.640300; 1.367140;,
      -1.300150; 3.780510; 3.718310;,
      -1.340070; 4.640300; 1.367140;,
      -0.368673; 3.780480; 3.225990;,
      -1.300150; 3.780510; 3.718310;,
      -2.137840; 3.045087; 2.672490;,
      -2.247520; 3.656760; 3.065360;,
      -0.946803; 2.965282; 4.256890;,
      -2.247520; 3.656760; 3.065360;,
      -1.300150; 3.780510; 3.718310;,
      -0.946803; 2.965282; 4.256890;,
      -0.753843; 3.045047; 1.941000;,
      -0.124455; 2.965259; 3.822250;,
      -0.374447; 3.656710; 2.075380;,
      -0.124455; 2.965259; 3.822250;,
      -0.368673; 3.780480; 3.225990;,
      -0.374447; 3.656710; 2.075380;,
       2.324870; 4.626680; 1.884540;,
       1.314140; 3.780890; 3.715700;,
       1.322600; 4.625040; 1.352410;,
       1.314140; 3.780890; 3.715700;,
       0.382665; 3.780910; 3.223390;,
       1.322600; 4.625040; 1.352410;;
      28;
      3;0;1;2;,
      3;3;4;5;,
      3;6;7;8;,
      3;9;10;11;,
      3;12;13;14;,
      3;15;16;17;,
      3;18;19;20;,
      3;21;22;23;,
      3;24;25;26;,
      3;27;28;29;,
      3;30;31;32;,
      3;33;34;35;,
      3;36;37;38;,
      3;39;40;41;,
      3;42;43;44;,
      3;45;46;47;,
      3;48;49;50;,
      3;51;52;53;,
      3;54;55;56;,
      3;57;58;59;,
      3;60;61;62;,
      3;63;64;65;,
      3;66;67;68;,
      3;69;70;71;,
      3;72;73;74;,
      3;75;76;77;,
      3;78;79;80;,
      3;81;82;83;;
      MeshNormals { //Mesh Normals
        84;
         0.669759;-0.687704;-0.280068;,
        -0.145512;-0.688223;-0.710746;,
         0.764763; 0.400678;-0.504501;,
        -0.145512;-0.688223;-0.710746;,
        -0.015046; 0.400586;-0.916105;,
         0.764763; 0.400678;-0.504501;,
         0.453841; 0.870907; 0.188452;,
         0.764763; 0.400678;-0.504501;,
        -0.015046; 0.400586;-0.916105;,
        -0.015046; 0.400586;-0.916105;,
        -0.409497; 0.873165;-0.264229;,
         0.453841; 0.870907; 0.188452;,
        -0.145512;-0.688223;-0.710746;,
        -0.244057;-0.822047;-0.514420;,
        -0.606220;-0.575274;-0.549089;,
        -0.145512;-0.688223;-0.710746;,
        -0.606220;-0.575274;-0.549089;,
        -0.630116;-0.559160;-0.538713;,
        -0.670797;-0.686453;-0.280648;,
        -0.545915;-0.832453;-0.094577;,
        -0.787042;-0.587664; 0.187567;,
        -0.670797;-0.686453;-0.280648;,
        -0.787042;-0.587664; 0.187567;,
        -0.813196;-0.542009; 0.211890;,
         0.145665;-0.687094;-0.711783;,
         0.624989;-0.576922;-0.525834;,
         0.615528;-0.559191;-0.555315;,
         0.145665;-0.687094;-0.711783;,
         0.615528;-0.559191;-0.555315;,
         0.266213;-0.809564;-0.523179;,
         0.669759;-0.687704;-0.280068;,
         0.798029;-0.562670; 0.215674;,
         0.796808;-0.572741; 0.192358;,
         0.669759;-0.687704;-0.280068;,
         0.796808;-0.572741; 0.192358;,
         0.566332;-0.819666;-0.085788;,
        -0.453658; 0.870937; 0.188696;,
         0.409680; 0.873165;-0.263985;,
        -0.764702; 0.400952;-0.504410;,
         0.409680; 0.873165;-0.263985;,
         0.015107; 0.400861;-0.916013;,
        -0.764702; 0.400952;-0.504410;,
        -0.764702; 0.400952;-0.504410;,
         0.015107; 0.400861;-0.916013;,
        -0.670797;-0.686453;-0.280648;,
         0.015107; 0.400861;-0.916013;,
         0.145665;-0.687094;-0.711783;,
        -0.670797;-0.686453;-0.280648;,
         0.669759;-0.687704;-0.280068;,
         0.764763; 0.400678;-0.504501;,
         0.798029;-0.562670; 0.215674;,
         0.798029;-0.562670; 0.215674;,
         0.764763; 0.400678;-0.504501;,
         0.453841; 0.870907; 0.188452;,
        -0.409497; 0.873165;-0.264229;,
        -0.015046; 0.400586;-0.916105;,
        -0.630116;-0.559160;-0.538713;,
        -0.015046; 0.400586;-0.916105;,
        -0.145512;-0.688223;-0.710746;,
        -0.630116;-0.559160;-0.538713;,
         0.266213;-0.809564;-0.523179;,
        -0.545915;-0.832453;-0.094577;,
         0.145665;-0.687094;-0.711783;,
        -0.545915;-0.832453;-0.094577;,
        -0.670797;-0.686453;-0.280648;,
         0.145665;-0.687094;-0.711783;,
         0.409680; 0.873165;-0.263985;,
         0.624989;-0.576922;-0.525834;,
         0.015107; 0.400861;-0.916013;,
         0.624989;-0.576922;-0.525834;,
         0.145665;-0.687094;-0.711783;,
         0.015107; 0.400861;-0.916013;,
        -0.453658; 0.870937; 0.188696;,
        -0.764702; 0.400952;-0.504410;,
        -0.813196;-0.542009; 0.211890;,
        -0.764702; 0.400952;-0.504410;,
        -0.670797;-0.686453;-0.280648;,
        -0.813196;-0.542009; 0.211890;,
        -0.244057;-0.822047;-0.514420;,
        -0.145512;-0.688223;-0.710746;,
         0.566332;-0.819666;-0.085788;,
        -0.145512;-0.688223;-0.710746;,
         0.669759;-0.687704;-0.280068;,
         0.566332;-0.819666;-0.085788;;
        28;
        3;0;1;2;,
        3;3;4;5;,
        3;6;7;8;,
        3;9;10;11;,
        3;12;13;14;,
        3;15;16;17;,
        3;18;19;20;,
        3;21;22;23;,
        3;24;25;26;,
        3;27;28;29;,
        3;30;31;32;,
        3;33;34;35;,
        3;36;37;38;,
        3;39;40;41;,
        3;42;43;44;,
        3;45;46;47;,
        3;48;49;50;,
        3;51;52;53;,
        3;54;55;56;,
        3;57;58;59;,
        3;60;61;62;,
        3;63;64;65;,
        3;66;67;68;,
        3;69;70;71;,
        3;72;73;74;,
        3;75;76;77;,
        3;78;79;80;,
        3;81;82;83;;
      } //End of Mesh Normals
      MeshMaterialList { //Mesh Material List
        1;
        28;
        0,
        0,
        0,
        0,
        0,
        0,
        0,
        0,
        0,
        0,
        0,
        0,
        0,
        0,
        0,
        0,
        0,
        0,
        0,
        0,
        0,
        0,
        0,
        0,
        0,
        0,
        0,
        0;;
        Material mat_0 {
           0.640000; 0.640000; 0.640000; 1.000000;;
           92.156863;
           0.250000; 0.250000; 0.250000;;
           0.000000; 0.000000; 0.000000;;
          TextureFilename {"Textures/ziguzaguma_1_0.tga";}
        }
      } //End of Mesh Material List
      MeshTextureCoords { //Mesh UV Coordinates
        84;
         0.179669; 0.559718;,
         0.810221; 0.559718;,
         0.217185; 0.976191;,
         0.810221; 0.559718;,
         0.773866; 0.976191;,
         0.217185; 0.976191;,
         0.024097; 0.191161;,
         0.217185; 0.976191;,
         0.773866; 0.976191;,
         0.773866; 0.976191;,
         0.960980; 0.191161;,
         0.024097; 0.191161;,
         0.810221; 0.559718;,
         0.773901; 0.070730;,
         1.000000; 0.472226;,
         0.810221; 0.559718;,
         1.000000; 0.472226;,
         0.795183; 0.336556;,
         0.179669; 0.559718;,
         0.774166; 0.070794;,
         1.000000; 0.472418;,
         0.179669; 0.559718;,
         1.000000; 0.472418;,
         0.794991; 0.336778;,
         0.810221; 0.559718;,
         1.198790; 0.124548;,
         0.173096; 0.611999;,
         0.810221; 0.559718;,
         0.173096; 0.611999;,
         0.360714; 0.140584;,
         0.179669; 0.559718;,
        -0.210059; 0.124548;,
         0.172126; 0.611762;,
         0.179669; 0.559718;,
         0.172126; 0.611762;,
         0.359965; 0.140498;,
         0.024097; 0.191161;,
         0.960980; 0.191161;,
         0.217185; 0.976191;,
         0.960980; 0.191161;,
         0.773866; 0.976191;,
         0.217185; 0.976191;,
         0.217185; 0.976191;,
         0.773866; 0.976191;,
         0.179669; 0.559718;,
         0.773866; 0.976191;,
         0.810221; 0.559718;,
         0.179669; 0.559718;,
         0.179669; 0.559718;,
         0.217185; 0.976191;,
        -0.210059; 0.124548;,
        -0.210059; 0.124548;,
         0.217185; 0.976191;,
         0.024097; 0.191161;,
         0.960980; 0.191161;,
         0.773866; 0.976191;,
         1.198790; 0.124548;,
         0.773866; 0.976191;,
         0.810221; 0.559718;,
         1.198790; 0.124548;,
         0.360714; 0.140584;,
         0.774166; 0.070794;,
         0.810221; 0.559718;,
         0.774166; 0.070794;,
         0.179669; 0.559718;,
         0.810221; 0.559718;,
         0.960980; 0.191161;,
         1.198790; 0.124548;,
         0.773866; 0.976191;,
         1.198790; 0.124548;,
         0.810221; 0.559718;,
         0.773866; 0.976191;,
         0.024097; 0.191161;,
         0.217185; 0.976191;,
        -0.210059; 0.124548;,
         0.217185; 0.976191;,
         0.179669; 0.559718;,
        -0.210059; 0.124548;,
         0.773901; 0.070730;,
         0.810221; 0.559718;,
         0.359965; 0.140498;,
         0.810221; 0.559718;,
         0.179669; 0.559718;,
         0.359965; 0.140498;;
      } //End of Mesh UV Coordinates
    } //End of Mesh Mesh
  } //End of ziguzaguma_mat_0
} //End of Root Frame
