# Blender v2.66 (sub 1) OBJ File: 'BR_Shellder.blend'
# www.blender.org
mtllib BR_Shellder.mtl
o shellder
v 0.866758 -1.579998 -0.652132
v 0.910431 -1.500651 -0.601821
v 0.533489 -1.563962 -0.393432
v 0.630835 -1.232657 -0.899886
v 0.000000 -1.325817 -0.897390
v 0.304540 -1.207587 -0.889967
v 0.794497 -0.122969 -0.676006
v 1.818260 1.297395 -1.554939
v 1.785380 0.792436 -1.584203
v 1.609540 0.278139 -1.495937
v 1.898380 1.242520 -1.463651
v 1.859630 0.685428 -1.545000
v 1.743210 0.187914 -1.424514
v 1.757810 1.537243 -1.358924
v 1.819720 1.532886 -1.225554
v 1.808700 0.528960 -1.183470
v 1.534470 -0.142364 -0.986249
v 1.355450 -0.508979 -1.015797
v 1.496090 -0.422108 -1.283451
v 1.383120 -0.412999 -1.286048
v 0.779358 -0.554642 -0.795955
v 0.828310 -0.339072 -0.807960
v 0.915230 -0.897558 -1.112247
v 1.170410 -0.879502 -1.136513
v 0.716612 -1.150873 -0.838881
v 0.908915 1.836861 -1.218158
v 1.148150 1.699011 -1.238605
v 1.145130 1.664663 -1.359444
v 1.283620 1.683906 -1.230926
v 1.257540 1.645612 -1.363968
v 1.407410 1.684631 -1.206277
v 1.343830 1.643402 -1.349267
v 0.182715 -0.146840 -0.645736
v 0.123602 -0.096458 -0.618294
v 0.860078 1.826734 -1.316650
v 1.593070 1.632379 -1.288154
v 1.639420 1.652604 -1.155286
v 1.523260 0.778904 -0.759107
v 1.273400 -0.155234 -0.617378
v 1.417110 0.273336 -0.598185
v 0.831795 1.390782 -0.957249
v 0.525126 1.994754 -1.032420
v 0.781152 0.941080 -0.603335
v 0.000000 -0.035791 -0.595590
v 0.000001 2.027614 -1.078181
v 1.408650 0.740769 -0.625376
v 1.321030 0.377444 -0.528567
v 0.762952 0.402949 -0.158287
v 1.044280 0.486462 -0.305580
v 1.162040 0.864081 -0.372334
v 0.489968 1.018741 -0.488071
v 0.650111 -0.159501 -0.191815
v 1.059950 -0.616510 -0.632285
v 0.383818 -1.125978 -0.603285
v 0.464945 1.459124 -0.856660
v 0.482448 1.970998 -1.150571
v -1.781190 0.772025 -1.603383
v -1.859630 0.685429 -1.545000
v -1.898380 1.242520 -1.463651
v -1.383120 -0.412999 -1.286048
v -1.609540 0.278139 -1.495937
v -0.828310 -0.339072 -0.807960
v -1.496090 -0.422108 -1.283451
v -0.630835 -1.232657 -0.899886
v -0.304540 -1.207587 -0.889967
v -0.765188 -0.122968 -0.676006
v -1.743210 0.187915 -1.424514
v -1.818260 1.297395 -1.554939
v -1.755780 1.537243 -1.358924
v -1.819720 1.532886 -1.225554
v -1.808700 0.528960 -1.183470
v -1.534470 -0.142364 -0.986250
v -0.716613 -1.150873 -0.838881
v -1.170410 -0.879501 -1.136513
v -0.915230 -0.897557 -1.112247
v -1.355450 -0.508979 -1.015797
v -0.131433 -0.096458 -0.618294
v -0.182714 -0.146840 -0.645737
v -1.142970 1.664663 -1.359444
v -1.591570 1.628691 -1.292019
v -1.407410 1.684631 -1.206277
v -0.781152 0.941080 -0.603335
v -1.283620 1.683916 -1.230926
v -1.148150 1.699011 -1.238605
v -1.255470 1.645612 -1.363968
v -0.908914 1.836861 -1.218158
v -0.860077 1.826734 -1.316650
v -1.343830 1.643402 -1.349267
v -1.617190 1.651085 -1.160627
v -1.523260 0.778905 -0.759108
v -1.273400 -0.155234 -0.617378
v -1.417110 0.273336 -0.598185
v -0.617010 -0.635853 -0.410375
v -1.059950 -0.616510 -0.632285
v -1.660220 0.951738 -0.297295
v -1.484360 0.828251 -0.051786
v -1.534360 1.033928 -0.199335
v -1.408650 0.740769 -0.625377
v -1.044280 0.486462 -0.305580
v -1.162040 0.864082 -0.372334
v 0.000000 -0.137561 0.029296
v 0.000000 0.408736 -0.002092
v -0.762952 0.402949 -0.158287
v 0.000000 1.100605 -0.423406
v -0.489968 1.018741 -0.488071
v -0.650111 -0.159501 -0.191815
v -1.321030 0.377444 -0.528569
v -1.590790 0.745427 -0.143577
v 0.000000 -0.613949 -0.168600
v -0.383818 -1.125978 -0.603285
v -0.464945 1.459124 -0.856661
v -0.831795 1.390782 -0.957249
v -0.525126 1.994754 -1.032420
v -0.482448 1.970998 -1.150571
v 0.000001 1.558631 -0.791228
v 0.000001 2.062563 -0.946695
v 0.617009 -0.635853 -0.410375
v 1.660220 0.951738 -0.297295
v 1.590790 0.745427 -0.143577
v 1.534360 1.033928 -0.199335
v 1.484360 0.828251 -0.051786
v 0.278864 -1.191923 -0.662661
v -0.278864 -1.191923 -0.662661
v -0.866759 -1.579998 -0.652132
v -0.534869 -1.615672 -0.441796
v -0.533489 -1.563962 -0.393432
v 0.443190 -1.642630 -0.266999
v 0.477410 -1.583987 -0.208484
v -0.477411 -1.583987 -0.208484
v 0.534868 -1.615672 -0.441796
v -0.443190 -1.642630 -0.266999
v -0.331598 -1.396323 -0.474435
v -0.414523 -1.191830 -0.540050
v 0.414523 -1.191830 -0.540050
v -0.910432 -1.500651 -0.601821
v -0.414523 -1.334055 -0.388568
v 0.414523 -1.334055 -0.388568
v -0.779358 -0.554642 -0.795955
v 0.332063 -1.397077 -0.473442
v -0.367318 -0.993788 -1.921971
v -0.029887 -0.976090 -1.956633
v -0.030988 -1.412808 -1.165130
v 1.111990 1.676971 -2.506448
v 1.143580 1.037795 -2.757548
v 0.718384 1.072884 -3.055301
v 2.232590 -0.321000 -2.320448
v 2.361230 -0.130864 -2.395437
v 1.901310 0.235335 -1.988643
v 1.637310 0.344904 -2.336731
v 1.881400 0.343835 -1.886849
v 1.529450 -0.099129 -2.135340
v 1.438510 -0.111180 -2.111750
v -0.594384 1.744991 -2.793442
v -0.044619 1.860800 -2.959088
v -0.713268 1.072381 -3.054821
v 0.051281 1.860790 -2.959087
v 0.599809 1.745201 -2.793965
v 1.720460 -0.128131 -1.746506
v -0.041631 1.302956 -3.177620
v -1.713800 -0.128131 -1.746506
v -1.874740 0.343835 -1.886849
v -1.953440 0.232914 -1.986741
v -2.188770 -0.128851 -2.605148
v -2.354570 -0.130864 -2.395437
v -1.589910 -0.100188 -2.135289
v -2.069900 -0.330362 -2.502491
v -1.431840 -0.111180 -2.111750
v -0.031960 0.578670 -3.170232
v -0.714146 0.518945 -3.052963
v 1.119750 0.455377 -2.686504
v 0.044384 -0.167188 -2.799690
v 0.038622 0.578670 -3.170232
v 0.725212 0.517891 -3.051220
v -0.037721 -0.167188 -2.799690
v -0.719137 -0.968117 -1.708822
v -0.959846 -0.285475 -2.330062
v 0.651599 -0.269766 -2.693731
v 0.382063 -0.993567 -1.918748
v 0.036549 -0.976090 -1.956633
v -1.133280 0.532214 -2.500305
v -1.847140 0.436277 -1.591405
v -1.654370 -0.165796 -1.324220
v 0.003319 -0.186858 -2.388685
v 1.139950 0.532214 -2.500305
v -0.001798 1.890764 -2.756072
v 1.188020 1.053195 -2.676398
v 1.855100 1.359101 -2.075606
v -1.926740 0.393470 -1.759767
v -1.984170 0.876656 -1.909339
v -0.628017 -0.267446 -2.699003
v -1.090230 1.654989 -2.303964
v -1.077770 1.693523 -2.406984
v -1.155870 1.648983 -2.446514
v -0.554599 1.779483 -2.603668
v 0.966138 -0.285475 -2.330062
v 0.991618 -0.232640 -2.266057
v 1.108120 0.476962 -2.577042
v 1.188650 0.473442 -2.611967
v 1.020110 -0.281194 -2.296892
v 1.661030 -0.165796 -1.324220
v 1.310160 -0.722540 -1.044966
v 1.351590 -0.815506 -1.198716
v 1.741500 -0.241354 -1.486363
v 2.055830 -0.330362 -2.502491
v 2.195430 -0.128851 -2.605148
v 1.096890 1.654989 -2.303964
v 0.561573 1.778614 -2.601535
v 0.000760 1.874660 -2.873021
v 1.084440 1.693523 -2.406984
v 1.114110 1.060756 -2.621511
v 1.114110 1.060756 -2.621511
v 1.162530 1.648983 -2.446514
v 1.990830 0.876656 -1.909339
v 1.792350 1.433952 -1.938954
v 1.853710 0.436278 -1.591405
v 1.899520 0.895296 -1.740971
v 0.048293 1.302956 -3.177620
v 1.933400 0.393469 -1.759767
v -1.892940 0.895295 -1.740971
v -1.785690 1.433952 -1.938954
v -1.848440 1.359101 -2.075606
v -1.189700 1.050025 -2.679271
v -1.734840 -0.241355 -1.486363
v -1.654270 0.344904 -2.336731
v -2.225930 -0.321000 -2.320448
v -1.120340 1.062642 -2.623563
v -1.101460 0.476962 -2.577042
v -1.101460 0.476962 -2.577042
v -1.013810 -0.281194 -2.296892
v -1.170880 0.471451 -2.608668
v -1.105330 1.676971 -2.506448
v -1.136910 1.037795 -2.757548
v 0.005485 0.583268 -3.131352
v 0.002709 1.292269 -3.081739
v -1.113090 0.455379 -2.686504
v 0.679457 -0.931365 -1.683038
v 0.679457 -0.931365 -1.683038
v 0.746309 -0.965106 -1.687540
v 0.725799 -0.968117 -1.708822
v 0.827020 -1.291135 -0.974525
v 0.442070 -1.399904 -1.119925
v -0.820357 -1.291135 -0.974525
v -0.806498 -1.176352 -0.854000
v -1.302540 -0.721151 -1.048160
v -0.365462 -1.184200 -0.876562
v -0.000317 -1.195284 -0.902991
v -0.000067 -0.936379 -1.910244
v 0.030353 -1.412808 -1.165130
v 0.000000 -1.391354 -1.138136
v -0.985312 -0.232640 -2.266057
v -0.985312 -0.232640 -2.266057
v 0.002709 -0.108740 -2.752665
v -0.739646 -0.965106 -1.687540
v -0.435407 -1.399904 -1.119925
v -0.672794 -0.931365 -1.683038
v -0.672794 -0.931365 -1.683038
v -1.345020 -0.815505 -1.198716
v -0.365462 -1.318965 -0.991857
v 0.813161 -1.176352 -0.854000
v 0.368377 -1.184152 -0.876425
v 0.368377 -1.318917 -0.991720
v 0.420962 -1.931101 -1.099742
v 0.430777 -1.940911 -0.980383
v -0.428116 -1.940958 -0.980521
v -0.981580 -1.575909 -0.768548
v -0.952057 -1.595214 -0.892561
v -0.569800 -1.800373 -0.982538
v 0.576320 -1.800392 -0.982517
v 0.958795 -1.595302 -0.892535
v 0.988386 -1.575927 -0.768525
v -0.000317 -1.444041 -1.116157
v 0.466526 -1.430034 -1.129703
v -0.806498 -1.283935 -0.828814
v -0.459738 -1.430034 -1.129703
v -0.820357 -1.383935 -0.948860
v 0.813161 -1.283935 -0.828814
v 0.827020 -1.383935 -0.948860
v 0.368377 -1.348852 -1.092248
v -0.365462 -1.348900 -1.092385
v 0.542071 -1.816035 -0.867935
v 0.494431 -1.850672 -0.984737
v -0.487349 -1.851089 -0.985374
v -0.414408 -1.931101 -1.099742
v -0.396022 -1.483481 -1.167339
v 0.402482 -1.483481 -1.167339
v -0.538660 -1.815992 -0.868063
v 1.690450 0.240596 -2.309894
v 1.707740 -0.097612 -1.922256
v -1.754340 0.243351 -2.307818
v -1.793300 -0.098261 -1.921838
v 0.925508 1.434700 -2.098349
v 0.573531 1.438987 -2.437784
v 0.000000 1.650876 -1.754223
v 1.235120 0.837190 -2.059703
v 0.717320 0.851894 -2.582327
v 0.890489 -0.514699 -1.784896
v 0.758907 -0.194147 -2.240943
v 0.601456 -0.947956 -1.510733
v 0.269062 -0.861046 -1.755791
v -0.925489 -0.574764 -1.117401
v -0.627105 0.146911 -0.715158
v -0.968104 0.945829 -0.968382
v -1.232860 0.842294 -1.312816
v -0.758907 -0.194147 -2.240943
v -0.717320 0.851894 -2.582327
v -0.573530 1.438987 -2.437784
v 0.000000 1.438987 -2.437784
v 1.040330 1.430018 -1.727100
v 1.303580 0.841304 -1.674554
v 0.908628 -0.545897 -1.467634
v 0.366889 -0.912545 -1.336807
v -0.269062 -0.861046 -1.755791
v -0.601456 -0.947955 -1.510733
v -0.890489 -0.514699 -1.784896
v -1.235120 0.837190 -2.059703
v -0.925508 1.434700 -2.098349
v 0.529828 1.422323 -1.116253
v 0.948010 1.425611 -1.377201
v 0.968104 0.945829 -0.968382
v 1.232860 0.842294 -1.312816
v 0.627105 0.146911 -0.715158
v 0.925489 -0.574764 -1.117401
v -0.948010 1.425611 -1.377201
v -0.529828 1.422323 -1.116253
v -0.366889 -0.912545 -1.336807
v -0.908970 -0.538683 -1.482242
v -1.304680 0.839881 -1.688215
v -1.040290 1.430031 -1.728082
v 0.000000 1.422323 -1.116253
v -0.378925 2.108063 -1.130720
v -0.425935 2.173831 -1.385763
v -0.284445 1.455172 -1.558124
v 0.255859 1.410517 -1.336909
v 0.381784 2.108063 -1.130720
v 0.003258 2.108063 -1.130720
v 0.287305 1.455172 -1.558124
v 0.001962 2.173831 -1.385763
v 0.428794 2.173831 -1.385763
v -0.252999 1.410517 -1.336909
v 0.002292 1.455172 -1.558124
v 0.003258 1.410517 -1.336909
v -0.520735 2.719548 -0.870292
v -0.585252 2.822731 -1.150036
v 0.523257 2.719548 -0.870292
v 0.587774 2.822731 -1.150036
v 0.000373 2.822731 -1.150036
v 0.003089 2.719548 -0.870292
v -0.535840 3.402942 -0.496694
v -0.602245 3.546139 -0.783116
v 0.538700 3.402942 -0.496694
v 0.003305 3.402942 -0.496694
v 0.002232 3.546139 -0.783116
v 0.605105 3.546139 -0.783116
v -0.264417 3.921022 -0.221997
v -0.297274 4.005536 -0.376898
v 0.300134 4.005536 -0.376898
v 0.267276 3.921022 -0.221997
vt 0.000000 0.000000
vt 0.976379 0.623534
vt 0.989793 0.690028
vt 1.000000 0.826891
vt 0.959129 0.553706
vt 0.904151 0.437059
vt 0.894043 0.387043
vt 0.857001 0.345240
vt 0.808264 0.259075
vt 0.688743 0.167791
vt 0.666151 0.151280
vt 0.739791 0.060831
vt 0.728289 0.044163
vt 0.640512 0.029392
vt 0.640875 0.019668
vt 0.625741 0.010760
vt 0.616728 0.000000
vt 0.374258 0.010760
vt 0.383272 0.000000
vt 0.359125 0.019668
vt 0.359488 0.029392
vt 0.390822 0.087969
vt 0.390822 0.135481
vt 0.609178 0.135481
vt 0.398909 0.156977
vt 0.601091 0.156977
vt 0.500000 0.261340
vt 0.662509 0.268532
vt 0.500000 0.381324
vt 0.671228 0.391855
vt 0.700948 0.536652
vt 0.775046 0.548567
vt 0.806061 0.650234
vt 0.904122 0.642855
vt 0.894694 0.637094
vt 0.965183 0.632325
vt 0.945730 0.568222
vt 0.890953 0.579364
vt 0.260208 0.060831
vt 0.311257 0.167791
vt 0.333849 0.151280
vt 0.191736 0.259075
vt 0.142999 0.345240
vt 0.220827 0.289686
vt 0.164609 0.406838
vt 0.328772 0.391855
vt 0.129855 0.536897
vt 0.224954 0.548567
vt 0.054270 0.568222
vt 0.109047 0.579364
vt 0.034817 0.632325
vt 0.095878 0.642855
vt 0.105306 0.637094
vt 0.193939 0.650234
vt 0.098801 0.656630
vt 0.294258 0.686831
vt 0.074061 0.909502
vt 0.129313 0.921433
vt 0.161917 0.923047
vt 0.197598 0.927477
vt 0.280920 0.827935
vt 0.370951 0.698325
vt 0.377542 0.838111
vt 0.500000 0.714590
vt 0.500000 0.858841
vt 0.622458 0.838111
vt 0.638309 0.988237
vt 0.739392 0.961320
vt 0.719080 0.827935
vt 0.629049 0.698325
vt 0.705742 0.686831
vt 0.901199 0.656630
vt 0.931795 0.909501
vt 0.979281 0.883942
vt 0.873241 0.515292
vt 0.835391 0.406838
vt 0.870145 0.536897
vt 0.779173 0.289686
vt 0.609178 0.087969
vt 0.126759 0.515292
vt 0.023620 0.623534
vt 0.095848 0.437059
vt 0.040871 0.553706
vt 0.105957 0.387044
vt 0.500000 0.538816
vt 0.299052 0.536652
vt 0.802402 0.927477
vt 0.838083 0.923047
vt 0.870687 0.921432
vt 0.020719 0.883943
vt 0.000000 0.826892
vt 0.010207 0.690028
vt 0.500000 0.999363
vt 0.361691 0.988237
vt 0.260608 0.961320
vt 0.271711 0.044163
vt 0.337491 0.268532
vt 0.592175 0.255016
vt 0.691007 0.250109
vt 0.499933 0.229400
vt 0.777147 0.337370
vt 0.735993 0.393151
vt 0.918867 0.455181
vt 0.750820 0.441459
vt 0.987447 0.620829
vt 0.740578 0.480843
vt 1.040710 0.739827
vt 1.050660 0.849382
vt 1.032350 0.889980
vt 0.982456 0.906521
vt 0.555276 0.473676
vt 0.906965 0.912792
vt 0.880831 0.914202
vt 0.537371 0.483067
vt 0.846783 0.918123
vt 0.760442 0.951188
vt 0.646062 0.972579
vt 0.499934 0.980522
vt 0.499933 0.495024
vt 0.460124 0.483067
vt 0.353805 0.972579
vt 0.239425 0.951188
vt 0.153740 0.918123
vt 0.444591 0.473676
vt 0.119666 0.914202
vt 0.092902 0.912792
vt 0.017864 0.905951
vt 0.268166 0.480843
vt -0.031875 0.889980
vt -0.050797 0.849382
vt -0.039571 0.736529
vt 0.012420 0.620829
vt 0.249047 0.441459
vt 0.081000 0.455181
vt 0.263874 0.393151
vt 0.222720 0.337370
vt 0.407691 0.255016
vt 0.308860 0.250109
vt 0.415468 0.244195
vt 0.237401 0.157924
vt 0.337927 0.136843
vt 0.365696 0.119917
vt 0.399496 0.187282
vt 0.634171 0.119917
vt 0.600512 0.187053
vt 0.584398 0.244195
vt 0.762465 0.157924
vt 0.661939 0.136843
vt 0.113101 0.468172
vt 0.218999 0.745962
vt 0.058266 0.637195
vt 0.449985 0.563693
vt 0.184602 0.309468
vt 0.285410 0.182418
vt 0.375040 0.182675
vt 0.449246 0.182526
vt 0.375040 0.161382
vt 0.524174 0.161380
vt 0.524174 0.163728
vt 0.536855 0.011769
vt 0.362307 0.011770
vt 0.375040 0.163729
vt 0.339841 0.030992
vt 0.249829 0.078926
vt 0.285410 0.154347
vt 0.048694 0.760943
vt 0.086414 0.908283
vt 0.227749 0.995550
vt 0.336602 1.053590
vt 0.448945 1.094570
vt 0.680977 0.745962
vt 0.786875 0.468172
vt 0.715567 0.308835
vt 0.614566 0.182418
vt 0.524174 0.182674
vt 0.614566 0.154347
vt 0.650176 0.078919
vt 0.559473 0.030969
vt 0.563436 1.053180
vt 0.672227 0.995550
vt 0.813561 0.908283
vt 0.851281 0.760944
vt 0.841710 0.637195
vt 0.191736 0.764635
vt 0.258945 0.749933
vt 0.333849 0.627746
vt 0.105957 0.840981
vt 0.135710 0.842291
vt 0.076075 0.949970
vt 0.040871 0.908059
vt 0.030866 1.000000
vt 0.010207 0.966208
vt 0.000000 0.894485
vt 0.021104 0.950248
vt 0.020719 0.733274
vt 0.037558 0.817501
vt 0.080809 0.771843
vt 0.074061 0.687895
vt 0.146060 0.807530
vt 0.129313 0.715559
vt 0.169333 0.816752
vt 0.161917 0.731181
vt 0.198962 0.813197
vt 0.197599 0.735492
vt 0.260608 0.717542
vt 0.273471 0.780231
vt 0.361691 0.594276
vt 0.372932 0.669897
vt 0.500000 0.622037
vt 0.500000 0.537569
vt 0.638309 0.594276
vt 0.627068 0.669897
vt 0.726529 0.780231
vt 0.739392 0.717542
vt 0.801608 0.813197
vt 0.802402 0.735492
vt 0.838083 0.731181
vt 0.831215 0.816752
vt 0.870687 0.715559
vt 0.853940 0.807530
vt 0.931795 0.684456
vt 0.919585 0.769266
vt 0.979281 0.733274
vt 0.962975 0.817501
vt 0.978896 0.950248
vt 1.000000 0.894485
vt 0.970238 0.987125
vt 0.989793 0.966208
vt 0.923925 0.949970
vt 0.959129 0.908059
vt 0.864290 0.842291
vt 0.894043 0.840981
vt 0.741055 0.749933
vt 0.808264 0.764635
vt 0.666151 0.627746
vt 0.270748 0.257592
vt 0.254188 0.292829
vt 0.268107 0.203475
vt 0.261721 0.544957
vt 0.258207 0.633619
vt 0.265725 0.659098
vt 0.263260 0.731844
vt 0.290355 0.640412
vt 0.295755 0.692758
vt 0.346798 0.476224
vt 0.356625 0.451363
vt 0.406964 0.218460
vt 0.264905 0.322947
vt 0.247013 0.582378
vt 0.251004 0.679940
vt 0.284312 0.671264
vt 0.342449 0.462367
vt 0.381689 0.951596
vt 0.270748 0.915876
vt 0.268107 0.898581
vt 0.264905 0.920848
vt 0.373252 0.960447
vt 0.489832 1.000000
vt 0.498912 0.989022
vt 0.735543 0.544153
vt 0.735095 0.322947
vt 0.729251 0.257592
vt 0.741793 0.633619
vt 0.734275 0.659098
vt 0.736740 0.731844
vt 0.709569 0.640412
vt 0.704166 0.692758
vt 0.643374 0.451363
vt 0.653202 0.476224
vt 0.593036 0.218460
vt 0.745812 0.292828
vt 0.731893 0.203475
vt 0.751217 0.579834
vt 0.751350 0.681489
vt 0.715612 0.671265
vt 0.657551 0.462367
vt 0.499226 0.120099
vt 0.406964 0.130050
vt 0.492722 0.131136
vt 0.401805 0.124321
vt 0.415316 0.115912
vt 0.411417 0.012439
vt 0.588560 0.012439
vt 0.408510 0.000001
vt 0.590641 0.000000
vt 0.604139 0.020060
vt 0.598222 0.124321
vt 0.621504 0.030837
vt 0.702609 0.067808
vt 0.708884 0.061335
vt 0.671727 0.130230
vt 0.674666 0.118776
vt 0.593036 0.130050
vt 0.505730 0.131136
vt 0.671727 0.155870
vt 0.674666 0.141232
vt 0.614241 0.017537
vt 0.777116 0.271339
vt 0.785903 0.264325
vt 0.851521 0.416876
vt 0.868585 0.414384
vt 0.892379 0.571261
vt 0.909278 0.576450
vt 0.921455 0.694754
vt 0.902092 0.684293
vt 0.879367 0.818873
vt 0.892673 0.814335
vt 0.745812 0.909571
vt 0.731893 0.898581
vt 0.729251 0.915876
vt 0.618377 0.951223
vt 0.735095 0.920848
vt 0.626485 0.960539
vt 0.510168 0.999999
vt 0.254188 0.909571
vt 0.120633 0.818873
vt 0.107326 0.814335
vt 0.078544 0.694754
vt 0.097889 0.684293
vt 0.107602 0.571261
vt 0.090722 0.576450
vt 0.131415 0.414384
vt 0.148479 0.416876
vt 0.214077 0.264325
vt 0.223086 0.271917
vt 0.325334 0.141232
vt 0.328273 0.155870
vt 0.325334 0.118776
vt 0.328273 0.130230
vt 0.297407 0.067831
vt 0.291146 0.061341
vt 0.378466 0.030843
vt 0.385069 0.017558
vt 0.395950 0.020023
vt 0.584641 0.115912
vt 0.898251 0.576588
vt 0.902473 0.561703
vt 0.846491 0.615637
vt 0.864123 0.461527
vt 0.861425 0.483349
vt 0.972722 0.468977
vt 0.823619 0.501403
vt 0.935238 0.482641
vt 0.964841 0.535455
vt 1.000000 0.516922
vt 0.804333 0.496739
vt 0.857760 0.590569
vt 0.101749 0.576588
vt 0.085060 0.561011
vt 0.135876 0.461527
vt 0.148501 0.615637
vt 0.127281 0.590991
vt 0.035159 0.535455
vt 0.162147 0.501167
vt 0.060365 0.482641
vt 0.027278 0.468977
vt 0.000000 0.516922
vt 0.195667 0.496739
vt 0.119020 0.483171
vt 0.499455 0.500739
vt 0.498912 0.424709
vt 0.510168 0.557178
vt 0.489832 0.557178
vt 0.490466 0.827938
vt 0.499868 0.771428
vt 0.509534 0.827938
vt 0.507484 1.000000
vt 0.500457 0.974909
vt 0.492516 1.000000
vt 0.491295 0.953441
vt 0.499868 0.910195
vt 0.508705 0.953441
vt 0.507044 0.630947
vt 0.499279 0.592666
vt 0.492956 0.630947
vt 0.492722 0.249476
vt 0.499294 0.227600
vt 0.505730 0.249476
vt 0.499226 0.226897
vt 0.871378 0.015450
vt 0.297076 0.022767
vt 0.129043 0.015450
vt 0.500211 0.022767
vt 0.703345 0.022767
vt 0.705269 0.537336
vt 0.709256 0.445746
vt 0.718162 0.537095
vt 0.548124 0.427461
vt 0.580210 0.620559
vt 0.298463 0.445746
vt 0.294731 0.537336
vt 0.281838 0.537095
vt 0.451876 0.427461
vt 0.419790 0.620558
vt 0.791173 0.973868
vt 0.730807 0.664481
vt 0.603368 0.796684
vt 0.841621 0.754975
vt 0.775229 1.000000
vt 0.973753 0.688893
vt 0.720101 0.812950
vt 0.855047 0.609989
vt 1.000000 0.457068
vt 0.848576 0.569919
vt 0.855040 0.364688
vt 0.640874 0.554061
vt 0.899068 0.388011
vt 0.972886 0.239831
vt 0.863674 0.178799
vt 0.740641 0.000000
vt 0.259781 0.000000
vt 0.145381 0.364688
vt 0.027535 0.239831
vt 0.151714 0.577455
vt 0.000000 0.465511
vt 0.158800 0.754975
vt 0.026668 0.688893
vt 0.209248 0.973868
vt 0.225193 1.000000
vt 0.500211 0.812950
vt 0.280321 0.812950
vt 0.145374 0.609989
vt 0.101369 0.388597
vt 0.136747 0.178799
vt 0.397053 0.796684
vt 0.269614 0.664481
vt 0.359547 0.554061
vt 0.514951 0.013128
vt 0.814534 0.173242
vt 0.692310 0.011919
vt 0.666460 0.187217
vt 0.517620 0.195096
vt 0.782570 0.437271
vt 0.520995 0.472337
vt 0.814281 0.662746
vt 0.518513 0.688920
vt 0.522679 0.865406
vt 0.811340 0.797828
vt 0.984239 0.612563
vt 0.994503 0.760730
vt 0.980897 0.891748
vt 0.760260 0.935908
vt 0.523966 0.979811
vt 0.918066 0.398549
vt 0.192087 0.173242
vt 0.488526 0.013128
vt 0.314312 0.011919
vt 0.343643 0.187473
vt 0.088395 0.398549
vt 0.231339 0.438340
vt 0.022382 0.612563
vt 0.194237 0.663168
vt 0.194615 0.797661
vt 0.483942 0.865406
vt 0.482654 0.979811
vt 0.245828 0.935805
vt 0.025724 0.891748
vt 0.012118 0.760729
vt 0.489001 0.195096
vt 0.485626 0.472337
vt 0.488108 0.688920
vt 0.457108 0.888199
vt 0.007900 0.913351
vt 0.458318 1.034370
vt 0.228674 0.791529
vt 0.457781 0.713301
vt 0.463399 0.460695
vt 0.242206 0.372351
vt 0.475034 0.193981
vt 0.005675 0.189610
vt 0.187927 0.497328
vt 0.004680 0.382090
vt 0.004897 0.590882
vt 0.188927 0.697363
vt 0.005721 0.750659
vt 0.040540 0.012948
vt 0.480643 0.004568
vt 0.992451 0.913351
vt 0.542145 0.888787
vt 0.541234 1.034370
vt 0.766023 0.791529
vt 0.814334 0.697362
vt 0.994558 0.750659
vt 0.995402 0.590882
vt 0.815335 0.497328
vt 0.995612 0.382090
vt 0.994619 0.189610
vt 0.756346 0.372351
vt 0.524546 0.193981
vt 0.959842 0.012948
vt 0.518781 0.004568
vt 0.542168 0.714251
vt 0.536140 0.460695
vt 0.129834 0.900613
vt 0.520833 0.887500
vt 1.000550 0.934268
vt 0.090581 0.931706
vt 0.150502 0.964517
vt 0.473781 0.994597
vt 1.000550 0.994597
vt 1.000550 0.877488
vt 1.000000 0.877221
vt 0.978495 0.878265
vt 0.000000 1.000000
vt 0.165537 0.000000
vt -0.000625 1.000000
vt 0.500623 1.000000
vt 0.501009 0.000000
vt 0.834463 0.000000
vt 1.000000 1.000000
vt 1.000630 1.000000
vt 0.834881 0.009837
vt 0.502139 1.000000
vt 0.502139 0.009837
vt 0.165119 0.009837
vt 0.000255 0.000000
vt 0.499010 0.000000
vt 0.499243 1.000000
vt 0.999608 0.000000
vt 1.000620 1.000000
vt 1.000420 0.000000
vt 0.502039 0.000000
vt 0.501559 1.000000
vt -0.000557 0.000000
vt 0.000166 -0.000000
vt 0.000426 1.000000
vt 0.499957 1.000000
vt 0.499177 -0.000000
vt 1.001570 -0.000000
vt 1.001320 1.000000
vt 1.001440 -0.000000
vt 0.500953 1.000000
vt 0.500192 -0.000000
vt 0.000328 -0.000000
vt 1.000000 0.000000
vt 0.748808 1.000000
vt 0.999080 0.000000
vt 0.748917 1.000000
vt 0.500665 0.000000
vt 0.251083 1.000000
vt 0.248793 1.000000
vt 0.000920 0.000000
vt 0.501590 0.000000
usemtl mat_0
s 1
f 65/1 78/1 77/1
f 34/1 33/1 6/1
f 16/2 12/3 11/4
f 16/2 13/5 12/3
f 17/6 13/5 16/2
f 17/6 19/7 13/5
f 18/8 19/7 17/6
f 18/8 24/9 19/7
f 25/10 24/9 18/8
f 25/10 4/11 24/9
f 2/12 4/11 25/10
f 2/12 1/13 4/11
f 3/14 1/13 2/12
f 130/14 1/15 3/13
f 128/16 130/15 3/14
f 128/16 127/17 130/15
f 129/18 127/17 128/16
f 129/18 131/19 127/17
f 125/20 131/19 129/18
f 129/18 126/21 125/20
f 136/22 126/21 129/18
f 136/22 133/23 126/21
f 134/24 133/23 136/22
f 134/24 110/25 133/23
f 54/26 110/25 134/24
f 54/26 109/27 110/25
f 117/28 109/27 54/26
f 117/28 101/29 109/27
f 52/30 101/29 117/28
f 52/30 48/31 101/29
f 49/32 48/31 52/30
f 49/32 50/33 48/31
f 120/34 50/33 49/32
f 120/34 46/35 50/33
f 118/36 46/35 120/34
f 118/36 119/37 46/35
f 121/38 119/37 118/36
f 121/38 49/32 119/37
f 120/34 49/32 121/38
f 121/38 118/36 120/34
f 110/25 126/21 133/23
f 110/25 135/39 126/21
f 73/40 135/39 110/25
f 73/40 64/41 135/39
f 74/42 64/41 73/40
f 73/40 76/43 74/42
f 94/44 76/43 73/40
f 94/44 91/45 76/43
f 106/46 91/45 94/44
f 106/46 107/47 91/45
f 99/48 107/47 106/46
f 99/48 108/49 107/47
f 96/50 108/49 99/48
f 96/50 95/51 108/49
f 97/52 95/51 96/50
f 97/52 98/53 95/51
f 100/54 98/53 97/52
f 100/54 90/55 98/53
f 82/56 90/55 100/54
f 82/56 89/57 90/55
f 81/58 89/57 82/56
f 82/56 83/59 81/58
f 84/60 83/59 82/56
f 82/56 112/61 84/60
f 105/62 112/61 82/56
f 105/62 111/63 112/61
f 104/64 111/63 105/62
f 104/64 115/65 111/63
f 55/66 115/65 104/64
f 55/66 42/67 115/65
f 26/68 42/67 55/66
f 55/66 41/69 26/68
f 51/70 41/69 55/66
f 51/70 43/71 41/69
f 48/31 43/71 51/70
f 48/31 50/33 43/71
f 38/72 43/71 50/33
f 38/72 37/73 43/71
f 15/74 37/73 38/72
f 38/72 16/2 15/74
f 40/75 16/2 38/72
f 40/75 39/76 16/2
f 47/77 39/76 40/75
f 47/77 52/30 39/76
f 49/32 52/30 47/77
f 47/77 119/37 49/32
f 46/35 119/37 47/77
f 47/77 38/72 46/35
f 40/75 38/72 47/77
f 16/2 11/4 15/74
f 50/33 46/35 38/72
f 39/76 17/6 16/2
f 39/76 18/8 17/6
f 53/78 18/8 39/76
f 53/78 25/10 18/8
f 117/28 25/10 53/78
f 117/28 54/26 25/10
f 2/12 25/10 54/26
f 54/26 3/14 2/12
f 134/24 3/14 54/26
f 134/24 137/79 3/14
f 136/22 137/79 134/24
f 136/22 128/16 137/79
f 129/18 128/16 136/22
f 137/79 128/16 3/14
f 52/30 53/78 39/76
f 52/30 117/28 53/78
f 98/53 108/49 95/51
f 98/53 107/47 108/49
f 90/55 107/47 98/53
f 90/55 92/80 107/47
f 71/81 92/80 90/55
f 71/81 72/82 92/80
f 67/83 72/82 71/81
f 67/83 63/84 72/82
f 76/43 72/82 63/84
f 76/43 91/45 72/82
f 92/80 72/82 91/45
f 91/45 107/47 92/80
f 76/43 63/84 74/42
f 104/64 51/70 55/66
f 104/64 48/31 51/70
f 102/85 48/31 104/64
f 102/85 101/29 48/31
f 103/86 101/29 102/85
f 103/86 106/46 101/29
f 99/48 106/46 103/86
f 103/86 100/54 99/48
f 82/56 100/54 103/86
f 103/86 105/62 82/56
f 104/64 105/62 103/86
f 103/86 102/85 104/64
f 97/52 99/48 100/54
f 97/52 96/50 99/48
f 41/69 27/87 26/68
f 41/69 43/71 27/87
f 29/88 27/87 43/71
f 43/71 31/89 29/88
f 37/73 31/89 43/71
f 70/90 90/55 89/57
f 70/90 71/81 90/55
f 59/91 71/81 70/90
f 59/91 58/92 71/81
f 67/83 71/81 58/92
f 116/93 115/65 42/67
f 116/93 113/94 115/65
f 111/63 115/65 113/94
f 113/94 86/95 111/63
f 112/61 111/63 86/95
f 86/95 84/60 112/61
f 126/21 124/96 125/20
f 126/21 135/39 124/96
f 64/41 124/96 135/39
f 73/40 93/97 94/44
f 73/40 110/25 93/97
f 109/27 93/97 110/25
f 109/27 101/29 93/97
f 106/46 93/97 101/29
f 106/46 94/44 93/97
usemtl mat_1
f 6/98 4/99 5/100
f 6/98 23/101 4/99
f 21/102 23/101 6/98
f 21/102 20/103 23/101
f 22/104 20/103 21/102
f 22/104 10/105 20/103
f 7/106 10/105 22/104
f 7/106 9/107 10/105
f 8/108 9/107 7/106
f 7/106 14/109 8/108
f 36/110 14/109 7/106
f 7/106 33/111 36/110
f 32/112 36/110 33/111
f 33/111 30/113 32/112
f 34/114 30/113 33/111
f 34/114 28/115 30/113
f 35/116 28/115 34/114
f 34/114 56/117 35/116
f 45/118 56/117 34/114
f 34/114 44/119 45/118
f 77/120 45/118 44/119
f 77/120 114/121 45/118
f 87/122 114/121 77/120
f 77/120 79/123 87/122
f 78/124 79/123 77/120
f 78/124 85/125 79/123
f 88/126 85/125 78/124
f 78/124 80/127 88/126
f 66/128 80/127 78/124
f 66/128 69/129 80/127
f 68/130 69/129 66/128
f 66/128 57/131 68/130
f 61/132 57/131 66/128
f 66/128 62/133 61/132
f 60/134 61/132 62/133
f 62/133 138/135 60/134
f 75/136 60/134 138/135
f 138/135 65/137 75/136
f 64/138 75/136 65/137
f 65/137 5/100 64/138
f 123/139 64/138 5/100
f 123/139 124/140 64/138
f 125/141 124/140 123/139
f 123/139 131/142 125/141
f 132/143 131/142 123/139
f 132/143 127/144 131/142
f 139/145 127/144 132/143
f 139/145 122/146 127/144
f 132/143 122/146 139/145
f 132/143 123/139 122/146
f 5/100 122/146 123/139
f 5/100 4/99 122/146
f 1/147 122/146 4/99
f 1/147 130/148 122/146
f 127/144 122/146 130/148
f 182/149 180/150 181/151
f 182/149 183/152 180/150
f 244/153 183/152 182/149
f 244/153 243/154 183/152
f 245/155 183/152 243/154
f 245/155 246/156 183/152
f 258/157 246/156 245/155
f 258/157 261/158 246/156
f 278/159 261/158 258/157
f 278/159 263/160 261/158
f 264/161 263/160 278/159
f 278/159 279/162 264/161
f 258/157 279/162 278/159
f 258/157 264/161 279/162
f 286/163 264/161 258/157
f 258/157 265/164 286/163
f 273/165 265/164 258/157
f 258/157 243/154 273/165
f 245/155 243/154 258/157
f 180/150 219/166 181/151
f 180/150 220/167 219/166
f 191/168 220/167 180/150
f 180/150 194/169 191/168
f 185/170 194/169 180/150
f 180/150 184/171 185/170
f 183/152 184/171 180/150
f 183/152 200/172 184/171
f 201/173 200/172 183/152
f 183/152 259/174 201/173
f 260/175 259/174 183/152
f 260/175 261/158 259/174
f 246/156 261/158 260/175
f 260/175 183/152 246/156
f 261/158 276/176 259/174
f 261/158 270/177 276/176
f 280/178 270/177 261/158
f 261/158 263/160 280/178
f 184/171 207/179 185/170
f 184/171 206/180 207/179
f 214/181 206/180 184/171
f 184/171 216/182 214/181
f 215/183 216/182 184/171
f 184/171 200/172 215/183
usemtl mat_2
f 74/184 75/185 64/186
f 74/184 63/187 75/185
f 60/188 75/185 63/187
f 63/187 61/189 60/188
f 67/190 61/189 63/187
f 67/190 57/191 61/189
f 58/192 57/191 67/190
f 58/192 59/193 57/191
f 68/194 57/191 59/193
f 59/193 70/195 68/194
f 69/196 68/194 70/195
f 70/195 80/197 69/196
f 89/198 80/197 70/195
f 89/198 88/199 80/197
f 81/200 88/199 89/198
f 81/200 85/201 88/199
f 83/202 85/201 81/200
f 83/202 79/203 85/201
f 84/204 79/203 83/202
f 84/204 86/205 79/203
f 87/206 79/203 86/205
f 86/205 113/207 87/206
f 114/208 87/206 113/207
f 113/207 45/209 114/208
f 116/210 45/209 113/207
f 116/210 42/211 45/209
f 56/212 45/209 42/211
f 42/211 35/213 56/212
f 26/214 35/213 42/211
f 26/214 28/215 35/213
f 27/216 28/215 26/214
f 27/216 29/217 28/215
f 30/218 28/215 29/217
f 29/217 31/219 30/218
f 32/220 30/218 31/219
f 31/219 37/221 32/220
f 36/222 32/220 37/221
f 37/221 15/223 36/222
f 14/224 36/222 15/223
f 15/223 8/225 14/224
f 11/226 8/225 15/223
f 11/226 9/227 8/225
f 12/228 9/227 11/226
f 12/228 10/229 9/227
f 13/230 10/229 12/228
f 13/230 20/231 10/229
f 19/232 20/231 13/230
f 19/232 23/233 20/231
f 24/234 23/233 19/232
f 24/234 4/235 23/233
f 192/236 193/237 191/238
f 192/236 226/239 193/237
f 232/240 226/239 192/236
f 232/240 228/241 226/239
f 235/242 228/241 232/240
f 235/242 250/243 228/241
f 176/244 250/243 235/242
f 176/244 175/245 250/243
f 256/246 250/243 175/245
f 175/245 254/247 256/246
f 192/236 231/248 232/240
f 226/239 222/249 193/237
f 226/239 227/241 222/249
f 230/250 222/249 227/241
f 227/241 229/251 230/250
f 251/243 229/251 227/241
f 251/243 253/252 229/251
f 255/246 253/252 251/243
f 255/246 254/247 253/252
f 194/253 192/254 191/255
f 194/253 231/256 192/254
f 153/257 231/256 194/253
f 194/253 154/258 153/257
f 185/259 154/258 194/253
f 210/260 143/261 209/262
f 210/260 144/263 143/261
f 197/264 144/263 210/260
f 197/264 170/265 144/263
f 196/266 170/265 197/264
f 196/266 195/267 170/265
f 237/268 195/267 196/266
f 237/268 239/269 195/267
f 241/270 239/269 237/268
f 212/271 209/262 206/272
f 212/271 186/273 209/262
f 211/260 209/262 186/273
f 186/273 197/264 211/260
f 198/274 197/264 186/273
f 198/274 196/266 197/264
f 199/275 196/266 198/274
f 199/275 236/268 196/266
f 238/276 236/268 199/275
f 238/276 241/270 236/268
f 271/277 254/278 142/279
f 271/277 274/280 254/278
f 284/281 274/280 271/277
f 284/281 283/282 274/280
f 262/283 283/282 284/281
f 262/283 264/284 283/282
f 263/285 264/284 262/283
f 262/283 281/286 263/285
f 272/287 281/286 262/283
f 272/287 268/288 281/286
f 269/289 268/288 272/287
f 269/289 270/290 268/288
f 276/291 270/290 269/289
f 269/289 277/292 276/291
f 272/287 277/292 269/289
f 272/287 241/293 277/292
f 271/277 241/293 272/287
f 271/277 248/294 241/293
f 277/292 259/295 276/291
f 277/292 240/296 259/295
f 241/293 240/296 277/292
f 280/297 268/288 270/290
f 280/297 281/286 268/288
f 263/285 281/286 280/297
f 240/296 201/298 259/295
f 240/296 202/299 201/298
f 200/300 201/298 202/299
f 202/299 203/301 200/300
f 215/302 200/300 203/301
f 203/301 218/303 215/302
f 213/304 215/302 218/303
f 213/304 216/305 215/302
f 214/306 216/305 213/304
f 213/304 187/307 214/306
f 212/308 214/306 187/307
f 212/308 206/309 214/306
f 209/310 207/311 206/309
f 209/310 143/312 207/311
f 157/313 207/311 143/312
f 157/313 156/314 207/311
f 185/259 207/311 156/314
f 193/315 220/316 191/255
f 193/315 221/317 220/316
f 189/318 220/316 221/317
f 189/318 219/319 220/316
f 181/320 219/319 189/318
f 189/318 188/321 181/320
f 223/322 181/320 188/321
f 223/322 182/323 181/320
f 257/324 182/323 223/322
f 257/324 244/325 182/323
f 242/326 244/325 257/324
f 242/326 243/327 244/325
f 275/328 243/327 242/326
f 275/328 273/329 243/327
f 266/330 273/329 275/328
f 266/330 265/331 273/329
f 267/332 265/331 266/330
f 267/332 286/333 265/331
f 282/334 286/333 267/332
f 282/334 264/284 286/333
f 283/282 264/284 282/334
f 282/334 274/280 283/282
f 267/332 274/280 282/334
f 267/332 266/330 274/280
f 275/328 274/280 266/330
f 275/328 254/278 274/280
f 242/326 254/278 275/328
f 272/287 285/335 271/277
f 272/287 262/283 285/335
f 284/281 285/335 262/283
f 284/281 271/277 285/335
f 150/336 148/337 149/338
f 150/336 158/339 148/337
f 288/340 148/337 158/339
f 288/340 146/341 148/337
f 151/342 146/341 288/340
f 151/342 204/343 146/341
f 205/344 204/343 151/342
f 205/344 147/345 204/343
f 148/337 147/345 205/344
f 148/337 146/341 147/345
f 204/343 147/345 146/341
f 158/339 151/342 288/340
f 158/339 152/346 151/342
f 149/338 151/342 152/346
f 149/338 287/347 151/342
f 148/337 287/347 149/338
f 148/337 205/344 287/347
f 151/342 287/347 205/344
f 161/348 162/349 160/350
f 161/348 224/351 162/349
f 289/352 162/349 224/351
f 289/352 163/353 162/349
f 165/354 163/353 289/352
f 165/354 166/355 163/353
f 225/356 166/355 165/354
f 225/356 164/357 166/355
f 162/349 164/357 225/356
f 162/349 163/353 164/357
f 166/355 164/357 163/353
f 224/351 165/354 289/352
f 224/351 167/358 165/354
f 160/350 165/354 167/358
f 160/350 290/359 165/354
f 162/349 290/359 160/350
f 162/349 225/356 290/359
f 165/354 290/359 225/356
f 208/360 185/361 156/362
f 208/360 154/363 185/361
f 159/364 154/363 208/360
f 208/360 234/365 159/364
f 217/366 234/365 208/360
f 217/366 172/367 234/365
f 233/368 234/365 172/367
f 233/368 168/369 234/365
f 174/370 168/369 233/368
f 233/368 252/371 174/370
f 171/372 252/371 233/368
f 171/372 179/373 252/371
f 247/374 252/371 179/373
f 247/374 141/375 252/371
f 142/376 141/375 247/374
f 247/374 249/377 142/376
f 248/378 249/377 247/374
f 248/378 271/379 249/377
f 142/376 249/377 271/379
f 208/360 156/362 217/366
f 234/365 168/369 159/364
f 179/373 248/378 247/374
f 174/370 252/371 141/375
f 172/367 171/372 233/368
usemtl mat_3
f 319/380 324/381 302/382
f 319/380 329/383 324/381
f 317/384 329/383 319/380
f 21/385 7/386 22/387
f 21/385 33/388 7/386
f 6/389 33/388 21/385
f 66/390 138/391 62/392
f 66/390 78/393 138/391
f 65/394 138/391 78/393
f 297/395 298/396 299/397
f 297/395 296/398 298/396
f 295/399 296/398 297/395
f 295/399 294/400 296/398
f 292/401 294/400 295/399
f 292/401 291/402 294/400
f 309/403 294/400 291/402
f 309/403 310/404 294/400
f 322/405 310/404 309/403
f 322/405 311/406 310/404
f 296/398 310/404 311/406
f 296/398 294/400 310/404
f 311/406 298/396 296/398
f 308/407 309/403 291/402
f 308/407 320/408 309/403
f 318/409 320/408 308/407
f 318/409 319/380 320/408
f 317/384 319/380 318/409
f 320/408 322/405 309/403
f 320/408 321/410 322/405
f 319/380 321/410 320/408
f 319/380 301/411 321/410
f 302/382 301/411 319/380
f 302/382 300/412 301/411
f 303/413 300/412 302/382
f 303/413 326/414 300/412
f 327/415 326/414 303/413
f 327/415 314/416 326/414
f 315/417 314/416 327/415
f 315/417 304/418 314/416
f 305/419 304/418 315/417
f 305/419 297/395 304/418
f 295/399 297/395 305/419
f 305/419 307/420 295/399
f 306/421 307/420 305/419
f 305/419 316/422 306/421
f 315/417 316/422 305/419
f 315/417 328/423 316/422
f 327/415 328/423 315/417
f 327/415 323/424 328/423
f 303/413 323/424 327/415
f 303/413 324/381 323/424
f 302/382 324/381 303/413
f 307/420 292/401 295/399
f 312/425 314/416 304/418
f 312/425 313/426 314/416
f 326/414 314/416 313/426
f 313/426 325/427 326/414
f 300/412 326/414 325/427
usemtl mat_4
f 248/428 239/429 241/430
f 248/428 178/431 239/429
f 179/432 178/431 248/428
f 179/432 177/433 178/431
f 171/434 177/433 179/432
f 171/434 173/435 177/433
f 172/436 173/435 171/434
f 172/436 217/437 173/435
f 145/438 173/435 217/437
f 145/438 170/439 173/435
f 144/440 170/439 145/438
f 145/438 143/441 144/440
f 157/442 143/441 145/438
f 145/438 156/443 157/442
f 217/437 156/443 145/438
f 170/439 177/433 173/435
f 170/439 195/444 177/433
f 178/431 177/433 195/444
f 195/444 239/429 178/431
f 175/445 142/446 254/447
f 175/445 140/448 142/446
f 176/449 140/448 175/445
f 176/449 190/450 140/448
f 235/451 190/450 176/449
f 235/451 169/452 190/450
f 155/453 169/452 235/451
f 155/453 159/454 169/452
f 154/455 159/454 155/453
f 155/453 153/456 154/455
f 231/457 153/456 155/453
f 155/453 232/458 231/457
f 235/451 232/458 155/453
f 140/448 141/459 142/446
f 140/448 190/450 141/459
f 174/460 141/459 190/450
f 190/450 169/452 174/460
f 168/461 174/460 169/452
f 169/452 159/454 168/461
usemtl mat_5
f 222/462 221/463 193/464
f 222/462 224/465 221/463
f 230/466 224/465 222/462
f 230/466 229/467 224/465
f 167/468 224/465 229/467
f 229/467 253/469 167/468
f 257/470 167/468 253/469
f 257/470 160/471 167/468
f 223/472 160/471 257/470
f 223/472 188/473 160/471
f 161/474 160/471 188/473
f 188/473 189/475 161/474
f 221/463 161/474 189/475
f 221/463 224/465 161/474
f 253/469 242/476 257/470
f 253/469 254/477 242/476
f 187/478 186/479 212/480
f 187/478 149/481 186/479
f 150/482 149/481 187/478
f 187/478 213/483 150/482
f 218/484 150/482 213/483
f 218/484 158/485 150/482
f 203/486 158/485 218/484
f 203/486 202/487 158/485
f 152/488 158/485 202/487
f 202/487 238/489 152/488
f 240/490 238/489 202/487
f 240/490 241/491 238/489
f 149/481 198/492 186/479
f 149/481 199/493 198/492
f 152/488 199/493 149/481
f 152/488 238/489 199/493
usemtl mat_6
f 317/494 318/495 293/496
f 293/496 323/494 324/495
f 293/496 328/497 323/494
f 316/498 328/497 293/496
f 293/496 306/499 316/498
f 307/500 306/499 293/496
f 293/496 292/499 307/500
f 291/498 292/499 293/496
f 293/496 308/497 291/498
f 318/494 308/497 293/496
f 293/496 329/501 317/502
f 293/496 324/503 329/501
usemtl mat_7
f 331/504 332/505 330/506
f 331/504 337/507 332/505
f 340/508 332/505 337/507
f 337/507 336/509 340/508
f 338/510 336/509 337/507
f 338/510 334/511 336/509
f 333/512 336/509 334/511
f 334/511 335/513 333/512
f 341/514 333/512 335/513
f 335/513 339/515 341/514
f 330/506 339/515 335/513
f 330/506 332/505 339/515
usemtl mat_8
f 343/504 331/516 342/506
f 343/504 337/517 331/516
f 346/518 337/517 343/504
f 346/518 345/510 337/517
f 338/519 337/517 345/510
f 345/510 344/520 338/519
f 334/521 338/519 344/520
f 344/520 335/522 334/521
f 347/523 335/522 344/520
f 347/523 342/506 335/522
f 330/524 335/522 342/506
f 342/506 331/516 330/524
usemtl mat_9
f 349/504 343/525 348/526
f 349/504 352/527 343/525
f 346/528 343/525 352/527
f 352/527 345/529 346/528
f 353/510 345/529 352/527
f 353/510 350/530 345/529
f 344/531 345/529 350/530
f 350/530 351/532 344/531
f 347/533 344/531 351/532
f 351/532 342/534 347/533
f 348/526 342/534 351/532
f 348/526 343/525 342/534
usemtl mat_10
f 353/535 357/536 350/537
f 353/535 356/538 357/536
f 352/539 356/538 353/535
f 352/539 355/540 356/538
f 349/1 355/540 352/539
f 349/1 354/541 355/540
f 348/542 354/541 349/1
f 348/542 351/543 354/541
f 357/536 354/541 351/543
f 357/536 356/538 354/541
f 355/540 354/541 356/538
f 351/543 350/537 357/536
