xof 0303txt 0032

template AnimTicksPerSecond {
  <9E415A43-7BA6-4a73-8743-B73D47E88476>
  DWORD AnimTicksPerSecond;
}

template XSkinMeshHeader {
  <3cf169ce-ff7c-44ab-93c0-f78f62d172e2>
  WORD nMaxSkinWeightsPerVertex;
  WORD nMaxSkinWeightsPerFace;
  WORD nBones;
}

template SkinWeights {
  <6f0d123b-bad2-4167-a0d0-80224f25fabb>
  STRING transformNodeName;
  DWORD nWeights;
  array DWORD vertexIndices[nWeights];
  array float weights[nWeights];
  Matrix4x4 matrixOffset;
}

Frame Root {
  FrameTransformMatrix {
     1.000000, 0.000000, 0.000000, 0.000000,
     0.000000, 0.000000, 1.000000, 0.000000,
     0.000000, 1.000000,-0.000000, 0.000000,
     0.000000, 0.000000, 0.000000, 1.000000;;
  }
  Frame deoxys_def_mat_0 {
    FrameTransformMatrix {
       1.000000, 0.000000, 0.000000, 0.000000,
       0.000000, 1.000000, 0.000000, 0.000000,
       0.000000, 0.000000, 1.000000, 0.000000,
       0.000000, 0.000000, 0.000000, 1.000000;;
    }
    Mesh { //Mesh Mesh
      636;
      -15.623100;12.903101;-1.780450;,
      -15.880800;12.801001;-1.738570;,
      -15.623100;12.138401;-1.855950;,
      -15.880800;12.240601;-1.811530;,
      -15.623100;12.138401;-1.855950;,
      -15.880800;12.801001;-1.738570;,
      -15.623100;12.138401; 0.773530;,
      -15.623100;12.138401;-1.855950;,
      -15.880800;12.240601;-1.811530;,
      -15.880800;12.240601;-1.811530;,
      -15.880800;12.240601; 0.729436;,
      -15.623100;12.138401; 0.773530;,
      -15.623100;12.138401; 0.773530;,
      -15.880800;12.240601; 0.729436;,
      -15.623100;12.903101; 0.697685;,
      -15.880800;12.240601; 0.729436;,
      -15.880800;12.801001; 0.656140;,
      -15.623100;12.903101; 0.697685;,
      -15.623100;12.903101; 0.697685;,
      -15.880800;12.801001; 0.656140;,
      -15.623100;12.903101;-1.780450;,
      -15.880800;12.801001; 0.656140;,
      -15.880800;12.801001;-1.738570;,
      -15.623100;12.903101;-1.780450;,
      -15.880800;12.240601; 0.729436;,
      -15.994000;12.520801; 0.673804;,
      -15.880800;12.801001; 0.656140;,
      -15.880800;12.240601;-1.811530;,
      -15.880800;12.801001;-1.738570;,
      -15.994000;12.520801;-1.734810;,
      -15.880800;12.240601; 0.729436;,
      -15.880800;12.240601;-1.811530;,
      -15.994000;12.520801; 0.673804;,
      -15.880800;12.240601;-1.811530;,
      -15.994000;12.520801;-1.734810;,
      -15.994000;12.520801; 0.673804;,
      -15.994000;12.520801; 0.673804;,
      -15.994000;12.520801;-1.734810;,
      -15.880800;12.801001; 0.656140;,
      -15.994000;12.520801;-1.734810;,
      -15.880800;12.801001;-1.738570;,
      -15.880800;12.801001; 0.656140;,
      -15.623100;12.138401; 0.773530;,
      -15.623100;12.903101; 0.697685;,
      -15.149500;12.142701; 0.784030;,
      -15.623100;12.903101; 0.697685;,
      -15.149500;12.896201; 0.707577;,
      -15.149500;12.142701; 0.784030;,
      -15.149500;12.142701; 0.784030;,
      -15.149500;12.896201; 0.707577;,
      -14.168300;12.164201; 0.744720;,
      -15.149500;12.896201; 0.707577;,
      -14.168300;12.882301; 0.670578;,
      -14.168300;12.164201; 0.744720;,
      -14.168300;12.164201; 0.744720;,
      -14.168300;12.882301; 0.670578;,
      -13.083300;12.178101; 0.678610;,
      -14.168300;12.882301; 0.670578;,
      -13.083300;12.864201; 0.608291;,
      -13.083300;12.178101; 0.678610;,
      -13.083300;12.178101; 0.678610;,
      -13.083300;12.864201; 0.608291;,
      -11.911600;12.190101; 0.590600;,
      -13.083300;12.864201; 0.608291;,
      -11.911600;12.852901; 0.525364;,
      -11.911600;12.190101; 0.590600;,
      -11.911600;12.190101; 0.590600;,
      -11.911600;12.852901; 0.525364;,
      -10.653100;12.204701; 0.453569;,
      -11.911600;12.852901; 0.525364;,
      -10.653100;12.838601; 0.431215;,
      -10.653100;12.204701; 0.453569;,
      -10.653100;12.204701; 0.453569;,
      -10.653100;12.838601; 0.431215;,
      -9.423450;12.214801; 0.330341;,
      -10.653100;12.838601; 0.431215;,
      -9.423450;12.840901; 0.350331;,
      -9.423450;12.214801; 0.330341;,
      -9.423450;12.214801; 0.330341;,
      -9.423450;12.840901; 0.350331;,
      -8.313350;12.214201; 0.245988;,
      -9.423450;12.840901; 0.350331;,
      -8.313350;12.839001; 0.286205;,
      -8.313350;12.214201; 0.245988;,
      -8.313350;12.214201; 0.245988;,
      -8.313350;12.839001; 0.286205;,
      -7.188450;12.207201; 0.201078;,
      -8.313350;12.839001; 0.286205;,
      -7.188450;12.843401; 0.245636;,
      -7.188450;12.207201; 0.201078;,
      -7.188450;12.207201; 0.201078;,
      -7.188450;12.843401; 0.245636;,
      -5.904350;12.196001; 0.164522;,
      -7.188450;12.843401; 0.245636;,
      -5.904350;12.856501; 0.228578;,
      -5.904350;12.196001; 0.164522;,
      -5.904350;12.196001; 0.164522;,
      -5.904350;12.856501; 0.228578;,
      -4.575350;12.178301; 0.153236;,
      -5.904350;12.856501; 0.228578;,
      -4.575350;12.872501; 0.226582;,
      -4.575350;12.178301; 0.153236;,
      -15.149500;12.142701;-1.866280;,
      -15.623100;12.138401;-1.855950;,
      -15.623100;12.138401; 0.773530;,
      -15.623100;12.138401; 0.773530;,
      -15.149500;12.142701; 0.784030;,
      -15.149500;12.142701;-1.866280;,
      -15.149500;12.142701;-1.866280;,
      -15.149500;12.142701; 0.784030;,
      -14.168300;12.164201;-1.825710;,
      -15.149500;12.142701; 0.784030;,
      -14.168300;12.164201; 0.744720;,
      -14.168300;12.164201;-1.825710;,
      -14.168300;12.164201;-1.825710;,
      -14.168300;12.164201; 0.744720;,
      -13.083300;12.178101;-1.759200;,
      -14.168300;12.164201; 0.744720;,
      -13.083300;12.178101; 0.678610;,
      -13.083300;12.178101;-1.759200;,
      -13.083300;12.178101;-1.759200;,
      -13.083300;12.178101; 0.678610;,
      -11.911600;12.190101;-1.670930;,
      -13.083300;12.178101; 0.678610;,
      -11.911600;12.190101; 0.590600;,
      -11.911600;12.190101;-1.670930;,
      -11.911600;12.190101;-1.670930;,
      -11.911600;12.190101; 0.590600;,
      -10.653100;12.204701;-1.534620;,
      -11.911600;12.190101; 0.590600;,
      -10.653100;12.204701; 0.453569;,
      -10.653100;12.204701;-1.534620;,
      -10.653100;12.204701;-1.534620;,
      -10.653100;12.204701; 0.453569;,
      -9.423450;12.214801;-1.411960;,
      -10.653100;12.204701; 0.453569;,
      -9.423450;12.214801; 0.330341;,
      -9.423450;12.214801;-1.411960;,
      -9.423450;12.214801;-1.411960;,
      -9.423450;12.214801; 0.330341;,
      -8.313350;12.214201;-1.328560;,
      -9.423450;12.214801; 0.330341;,
      -8.313350;12.214201; 0.245988;,
      -8.313350;12.214201;-1.328560;,
      -8.313350;12.214201;-1.328560;,
      -8.313350;12.214201; 0.245988;,
      -7.188450;12.207201;-1.285460;,
      -8.313350;12.214201; 0.245988;,
      -7.188450;12.207201; 0.201078;,
      -7.188450;12.207201;-1.285460;,
      -7.188450;12.207201;-1.285460;,
      -7.188450;12.207201; 0.201078;,
      -5.904350;12.196001;-1.246134;,
      -7.188450;12.207201; 0.201078;,
      -5.904350;12.196001; 0.164522;,
      -5.904350;12.196001;-1.246134;,
      -5.904350;12.196001;-1.246134;,
      -5.904350;12.196001; 0.164522;,
      -4.575350;12.178301;-1.236940;,
      -5.904350;12.196001; 0.164522;,
      -4.575350;12.178301; 0.153236;,
      -4.575350;12.178301;-1.236940;,
      -4.575350;12.178301;-1.236940;,
      -4.575350;12.178301; 0.153236;,
      -3.059550;12.186201;-1.125389;,
      -4.575350;12.178301; 0.153236;,
      -3.059550;12.186201; 0.094385;,
      -3.059550;12.186201;-1.125389;,
      -15.623100;12.903101;-1.780450;,
      -15.623100;12.138401;-1.855950;,
      -15.149500;12.896201;-1.790190;,
      -15.149500;12.896201;-1.790190;,
      -15.623100;12.138401;-1.855950;,
      -15.149500;12.142701;-1.866280;,
      -15.149500;12.896201;-1.790190;,
      -15.149500;12.142701;-1.866280;,
      -14.168300;12.882301;-1.751910;,
      -15.149500;12.142701;-1.866280;,
      -14.168300;12.164201;-1.825710;,
      -14.168300;12.882301;-1.751910;,
      -14.168300;12.882301;-1.751910;,
      -14.168300;12.164201;-1.825710;,
      -13.083300;12.864201;-1.689200;,
      -14.168300;12.164201;-1.825710;,
      -13.083300;12.178101;-1.759200;,
      -13.083300;12.864201;-1.689200;,
      -13.083300;12.864201;-1.689200;,
      -13.083300;12.178101;-1.759200;,
      -11.911600;12.852901;-1.606000;,
      -13.083300;12.178101;-1.759200;,
      -11.911600;12.190101;-1.670930;,
      -11.911600;12.852901;-1.606000;,
      -11.911600;12.852901;-1.606000;,
      -11.911600;12.190101;-1.670930;,
      -10.653100;12.838601;-1.511860;,
      -11.911600;12.190101;-1.670930;,
      -10.653100;12.204701;-1.534620;,
      -10.653100;12.838601;-1.511860;,
      -10.653100;12.838601;-1.511860;,
      -10.653100;12.204701;-1.534620;,
      -9.423450;12.840901;-1.430710;,
      -10.653100;12.204701;-1.534620;,
      -9.423450;12.214801;-1.411960;,
      -9.423450;12.840901;-1.430710;,
      -9.423450;12.840901;-1.430710;,
      -9.423450;12.214801;-1.411960;,
      -8.313350;12.839001;-1.367110;,
      -9.423450;12.214801;-1.411960;,
      -8.313350;12.214201;-1.328560;,
      -8.313350;12.839001;-1.367110;,
      -8.313350;12.839001;-1.367110;,
      -8.313350;12.214201;-1.328560;,
      -7.188450;12.843401;-1.328450;,
      -8.313350;12.214201;-1.328560;,
      -7.188450;12.207201;-1.285460;,
      -7.188450;12.843401;-1.328450;,
      -7.188450;12.843401;-1.328450;,
      -7.188450;12.207201;-1.285460;,
      -5.904350;12.856501;-1.312240;,
      -7.188450;12.207201;-1.285460;,
      -5.904350;12.196001;-1.246134;,
      -5.904350;12.856501;-1.312240;,
      -5.904350;12.856501;-1.312240;,
      -5.904350;12.196001;-1.246134;,
      -4.575350;12.872501;-1.312020;,
      -5.904350;12.196001;-1.246134;,
      -4.575350;12.178301;-1.236940;,
      -4.575350;12.872501;-1.312020;,
      -15.623100;12.903101; 0.697685;,
      -15.623100;12.903101;-1.780450;,
      -15.149500;12.896201; 0.707577;,
      -15.623100;12.903101;-1.780450;,
      -15.149500;12.896201;-1.790190;,
      -15.149500;12.896201; 0.707577;,
      -15.149500;12.896201; 0.707577;,
      -15.149500;12.896201;-1.790190;,
      -14.168300;12.882301; 0.670578;,
      -15.149500;12.896201;-1.790190;,
      -14.168300;12.882301;-1.751910;,
      -14.168300;12.882301; 0.670578;,
      -14.168300;12.882301; 0.670578;,
      -14.168300;12.882301;-1.751910;,
      -13.083300;12.864201; 0.608291;,
      -14.168300;12.882301;-1.751910;,
      -13.083300;12.864201;-1.689200;,
      -13.083300;12.864201; 0.608291;,
      -13.083300;12.864201; 0.608291;,
      -13.083300;12.864201;-1.689200;,
      -11.911600;12.852901; 0.525364;,
      -13.083300;12.864201;-1.689200;,
      -11.911600;12.852901;-1.606000;,
      -11.911600;12.852901; 0.525364;,
      -11.911600;12.852901; 0.525364;,
      -11.911600;12.852901;-1.606000;,
      -10.653100;12.838601; 0.431215;,
      -11.911600;12.852901;-1.606000;,
      -10.653100;12.838601;-1.511860;,
      -10.653100;12.838601; 0.431215;,
      -10.653100;12.838601; 0.431215;,
      -10.653100;12.838601;-1.511860;,
      -9.423450;12.840901; 0.350331;,
      -10.653100;12.838601;-1.511860;,
      -9.423450;12.840901;-1.430710;,
      -9.423450;12.840901; 0.350331;,
      -9.423450;12.840901; 0.350331;,
      -9.423450;12.840901;-1.430710;,
      -8.313350;12.839001; 0.286205;,
      -9.423450;12.840901;-1.430710;,
      -8.313350;12.839001;-1.367110;,
      -8.313350;12.839001; 0.286205;,
      -8.313350;12.839001; 0.286205;,
      -8.313350;12.839001;-1.367110;,
      -7.188450;12.843401; 0.245636;,
      -8.313350;12.839001;-1.367110;,
      -7.188450;12.843401;-1.328450;,
      -7.188450;12.843401; 0.245636;,
      -7.188450;12.843401; 0.245636;,
      -7.188450;12.843401;-1.328450;,
      -5.904350;12.856501; 0.228578;,
      -7.188450;12.843401;-1.328450;,
      -5.904350;12.856501;-1.312240;,
      -5.904350;12.856501; 0.228578;,
      -5.904350;12.856501; 0.228578;,
      -5.904350;12.856501;-1.312240;,
      -4.575350;12.872501; 0.226582;,
      -5.904350;12.856501;-1.312240;,
      -4.575350;12.872501;-1.312020;,
      -4.575350;12.872501; 0.226582;,
      -4.575350;12.872501; 0.226582;,
      -4.575350;12.872501;-1.312020;,
      -3.340450;12.893601; 0.406563;,
      -4.575350;12.872501;-1.312020;,
      -3.340450;12.893601;-1.417010;,
      -3.340450;12.893601; 0.406563;,
      15.623100;12.138401;-1.855950;,
      15.880800;12.240601;-1.811530;,
      15.623100;12.903101;-1.780450;,
      15.880800;12.240601;-1.811530;,
      15.880800;12.801001;-1.738570;,
      15.623100;12.903101;-1.780450;,
      15.623100;12.903101;-1.780450;,
      15.880800;12.801001;-1.738570;,
      15.623100;12.903101; 0.697687;,
      15.880800;12.801001;-1.738570;,
      15.880800;12.801001; 0.656142;,
      15.623100;12.903101; 0.697687;,
      15.623100;12.903101; 0.697687;,
      15.880800;12.801001; 0.656142;,
      15.623100;12.138401; 0.773540;,
      15.880800;12.801001; 0.656142;,
      15.880800;12.240601; 0.729438;,
      15.623100;12.138401; 0.773540;,
      15.623100;12.138401; 0.773540;,
      15.880800;12.240601; 0.729438;,
      15.623100;12.138401;-1.855950;,
      15.880800;12.240601; 0.729438;,
      15.880800;12.240601;-1.811530;,
      15.623100;12.138401;-1.855950;,
      15.880800;12.801001; 0.656142;,
      15.994000;12.520801; 0.673805;,
      15.880800;12.240601; 0.729438;,
      15.880800;12.240601;-1.811530;,
      15.994000;12.520801;-1.734800;,
      15.880800;12.801001;-1.738570;,
      15.880800;12.240601;-1.811530;,
      15.880800;12.240601; 0.729438;,
      15.994000;12.520801;-1.734800;,
      15.880800;12.240601; 0.729438;,
      15.994000;12.520801; 0.673805;,
      15.994000;12.520801;-1.734800;,
      15.994000;12.520801;-1.734800;,
      15.994000;12.520801; 0.673805;,
      15.880800;12.801001;-1.738570;,
      15.994000;12.520801; 0.673805;,
      15.880800;12.801001; 0.656142;,
      15.880800;12.801001;-1.738570;,
      15.623100;12.138401; 0.773540;,
      15.149500;12.142701; 0.784030;,
      15.623100;12.903101; 0.697687;,
      15.149500;12.142701; 0.784030;,
      15.149500;12.896201; 0.707579;,
      15.623100;12.903101; 0.697687;,
      15.623100;12.903101; 0.697687;,
      15.149500;12.896201; 0.707579;,
      15.623100;12.903101;-1.780450;,
      15.149500;12.896201; 0.707579;,
      15.149500;12.896201;-1.790180;,
      15.623100;12.903101;-1.780450;,
      15.623100;12.903101;-1.780450;,
      15.149500;12.896201;-1.790180;,
      15.623100;12.138401;-1.855950;,
      15.149500;12.896201;-1.790180;,
      15.149500;12.142701;-1.866280;,
      15.623100;12.138401;-1.855950;,
      15.623100;12.138401;-1.855950;,
      15.149500;12.142701;-1.866280;,
      15.623100;12.138401; 0.773540;,
      15.149500;12.142701;-1.866280;,
      15.149500;12.142701; 0.784030;,
      15.623100;12.138401; 0.773540;,
      15.149500;12.142701; 0.784030;,
      14.168300;12.164201; 0.744730;,
      15.149500;12.896201; 0.707579;,
      14.168300;12.164201; 0.744730;,
      14.168300;12.882301; 0.670579;,
      15.149500;12.896201; 0.707579;,
      15.149500;12.896201; 0.707579;,
      14.168300;12.882301; 0.670579;,
      15.149500;12.896201;-1.790180;,
      14.168300;12.882301; 0.670579;,
      14.168300;12.882301;-1.751900;,
      15.149500;12.896201;-1.790180;,
      15.149500;12.896201;-1.790180;,
      14.168300;12.882301;-1.751900;,
      15.149500;12.142701;-1.866280;,
      14.168300;12.882301;-1.751900;,
      14.168300;12.164201;-1.825710;,
      15.149500;12.142701;-1.866280;,
      15.149500;12.142701;-1.866280;,
      14.168300;12.164201;-1.825710;,
      15.149500;12.142701; 0.784030;,
      14.168300;12.164201;-1.825710;,
      14.168300;12.164201; 0.744730;,
      15.149500;12.142701; 0.784030;,
      14.168300;12.164201; 0.744730;,
      13.083300;12.178101; 0.678612;,
      14.168300;12.882301; 0.670579;,
      13.083300;12.178101; 0.678612;,
      13.083300;12.864201; 0.608292;,
      14.168300;12.882301; 0.670579;,
      14.168300;12.882301; 0.670579;,
      13.083300;12.864201; 0.608292;,
      14.168300;12.882301;-1.751900;,
      13.083300;12.864201; 0.608292;,
      13.083300;12.864201;-1.689200;,
      14.168300;12.882301;-1.751900;,
      14.168300;12.882301;-1.751900;,
      13.083300;12.864201;-1.689200;,
      14.168300;12.164201;-1.825710;,
      13.083300;12.864201;-1.689200;,
      13.083300;12.178101;-1.759190;,
      14.168300;12.164201;-1.825710;,
      14.168300;12.164201;-1.825710;,
      13.083300;12.178101;-1.759190;,
      14.168300;12.164201; 0.744730;,
      13.083300;12.178101;-1.759190;,
      13.083300;12.178101; 0.678612;,
      14.168300;12.164201; 0.744730;,
      13.083300;12.178101; 0.678612;,
      11.911600;12.190101; 0.590601;,
      13.083300;12.864201; 0.608292;,
      11.911600;12.190101; 0.590601;,
      11.911600;12.852901; 0.525366;,
      13.083300;12.864201; 0.608292;,
      13.083300;12.864201; 0.608292;,
      11.911600;12.852901; 0.525366;,
      13.083300;12.864201;-1.689200;,
      11.911600;12.852901; 0.525366;,
      11.911600;12.852901;-1.606000;,
      13.083300;12.864201;-1.689200;,
      13.083300;12.864201;-1.689200;,
      11.911600;12.852901;-1.606000;,
      13.083300;12.178101;-1.759190;,
      11.911600;12.852901;-1.606000;,
      11.911600;12.190101;-1.670930;,
      13.083300;12.178101;-1.759190;,
      13.083300;12.178101;-1.759190;,
      11.911600;12.190101;-1.670930;,
      13.083300;12.178101; 0.678612;,
      11.911600;12.190101;-1.670930;,
      11.911600;12.190101; 0.590601;,
      13.083300;12.178101; 0.678612;,
      11.911600;12.190101; 0.590601;,
      10.653100;12.204701; 0.453570;,
      11.911600;12.852901; 0.525366;,
      10.653100;12.204701; 0.453570;,
      10.653100;12.838601; 0.431217;,
      11.911600;12.852901; 0.525366;,
      11.911600;12.852901; 0.525366;,
      10.653100;12.838601; 0.431217;,
      11.911600;12.852901;-1.606000;,
      10.653100;12.838601; 0.431217;,
      10.653100;12.838601;-1.511860;,
      11.911600;12.852901;-1.606000;,
      11.911600;12.852901;-1.606000;,
      10.653100;12.838601;-1.511860;,
      11.911600;12.190101;-1.670930;,
      10.653100;12.838601;-1.511860;,
      10.653100;12.204701;-1.534620;,
      11.911600;12.190101;-1.670930;,
      11.911600;12.190101;-1.670930;,
      10.653100;12.204701;-1.534620;,
      11.911600;12.190101; 0.590601;,
      10.653100;12.204701;-1.534620;,
      10.653100;12.204701; 0.453570;,
      11.911600;12.190101; 0.590601;,
      10.653100;12.204701; 0.453570;,
       9.423450;12.214801; 0.330342;,
      10.653100;12.838601; 0.431217;,
       9.423450;12.214801; 0.330342;,
       9.423450;12.840901; 0.350332;,
      10.653100;12.838601; 0.431217;,
      10.653100;12.838601; 0.431217;,
       9.423450;12.840901; 0.350332;,
      10.653100;12.838601;-1.511860;,
       9.423450;12.840901; 0.350332;,
       9.423450;12.840901;-1.430710;,
      10.653100;12.838601;-1.511860;,
      10.653100;12.838601;-1.511860;,
       9.423450;12.840901;-1.430710;,
      10.653100;12.204701;-1.534620;,
       9.423450;12.840901;-1.430710;,
       9.423450;12.214801;-1.411960;,
      10.653100;12.204701;-1.534620;,
      10.653100;12.204701;-1.534620;,
       9.423450;12.214801;-1.411960;,
      10.653100;12.204701; 0.453570;,
       9.423450;12.214801;-1.411960;,
       9.423450;12.214801; 0.330342;,
      10.653100;12.204701; 0.453570;,
       9.423450;12.214801; 0.330342;,
       8.313350;12.214201; 0.245988;,
       9.423450;12.840901; 0.350332;,
       8.313350;12.214201; 0.245988;,
       8.313350;12.839001; 0.286206;,
       9.423450;12.840901; 0.350332;,
       9.423450;12.840901; 0.350332;,
       8.313350;12.839001; 0.286206;,
       9.423450;12.840901;-1.430710;,
       8.313350;12.839001; 0.286206;,
       8.313350;12.839001;-1.367110;,
       9.423450;12.840901;-1.430710;,
       9.423450;12.840901;-1.430710;,
       8.313350;12.839001;-1.367110;,
       9.423450;12.214801;-1.411960;,
       8.313350;12.839001;-1.367110;,
       8.313350;12.214201;-1.328560;,
       9.423450;12.214801;-1.411960;,
       9.423450;12.214801;-1.411960;,
       8.313350;12.214201;-1.328560;,
       9.423450;12.214801; 0.330342;,
       8.313350;12.214201;-1.328560;,
       8.313350;12.214201; 0.245988;,
       9.423450;12.214801; 0.330342;,
       8.313350;12.214201; 0.245988;,
       7.188450;12.207201; 0.201078;,
       8.313350;12.839001; 0.286206;,
       7.188450;12.207201; 0.201078;,
       7.188450;12.843401; 0.245637;,
       8.313350;12.839001; 0.286206;,
       8.313350;12.839001; 0.286206;,
       7.188450;12.843401; 0.245637;,
       8.313350;12.839001;-1.367110;,
       7.188450;12.843401; 0.245637;,
       7.188450;12.843401;-1.328450;,
       8.313350;12.839001;-1.367110;,
       8.313350;12.839001;-1.367110;,
       7.188450;12.843401;-1.328450;,
       8.313350;12.214201;-1.328560;,
       7.188450;12.843401;-1.328450;,
       7.188450;12.207201;-1.285460;,
       8.313350;12.214201;-1.328560;,
       8.313350;12.214201;-1.328560;,
       7.188450;12.207201;-1.285460;,
       8.313350;12.214201; 0.245988;,
       7.188450;12.207201;-1.285460;,
       7.188450;12.207201; 0.201078;,
       8.313350;12.214201; 0.245988;,
       7.188450;12.843401; 0.245637;,
       5.904350;12.856501; 0.228578;,
       7.188450;12.843401;-1.328450;,
       5.904350;12.856501; 0.228578;,
       5.904350;12.856501;-1.312240;,
       7.188450;12.843401;-1.328450;,
       7.188450;12.843401;-1.328450;,
       5.904350;12.856501;-1.312240;,
       7.188450;12.207201;-1.285460;,
       5.904350;12.856501;-1.312240;,
       5.904350;12.196001;-1.246134;,
       7.188450;12.207201;-1.285460;,
       7.188450;12.207201;-1.285460;,
       5.904350;12.196001;-1.246134;,
       7.188450;12.207201; 0.201078;,
       5.904350;12.196001;-1.246134;,
       5.904350;12.196001; 0.164522;,
       7.188450;12.207201; 0.201078;,
       7.188450;12.207201; 0.201078;,
       5.904350;12.196001; 0.164522;,
       7.188450;12.843401; 0.245637;,
       5.904350;12.196001; 0.164522;,
       5.904350;12.856501; 0.228578;,
       7.188450;12.843401; 0.245637;,
       5.904350;12.196001; 0.164522;,
       4.575350;12.178301; 0.153237;,
       5.904350;12.856501; 0.228578;,
       4.575350;12.178301; 0.153237;,
       4.575350;12.872501; 0.226583;,
       5.904350;12.856501; 0.228578;,
       5.904350;12.856501; 0.228578;,
       4.575350;12.872501; 0.226583;,
       5.904350;12.856501;-1.312240;,
       4.575350;12.872501; 0.226583;,
       4.575350;12.872501;-1.312020;,
       5.904350;12.856501;-1.312240;,
       5.904350;12.856501;-1.312240;,
       4.575350;12.872501;-1.312020;,
       5.904350;12.196001;-1.246134;,
       4.575350;12.872501;-1.312020;,
       4.575350;12.178301;-1.236940;,
       5.904350;12.196001;-1.246134;,
       5.904350;12.196001;-1.246134;,
       4.575350;12.178301;-1.236940;,
       5.904350;12.196001; 0.164522;,
       4.575350;12.178301;-1.236940;,
       4.575350;12.178301; 0.153237;,
       5.904350;12.196001; 0.164522;,
       4.575350;12.178301; 0.153237;,
       4.575350;12.178301;-1.236940;,
       3.059550;12.186201;-1.125389;,
       4.575350;12.178301; 0.153237;,
       3.059550;12.186201;-1.125389;,
       3.059550;12.186201; 0.094385;,
       3.340450;12.893601;-1.417010;,
       4.575350;12.872501;-1.312020;,
       4.575350;12.872501; 0.226583;,
       3.340450;12.893601;-1.417010;,
       4.575350;12.872501; 0.226583;,
       3.340450;12.893601; 0.406563;,
      -3.059550;12.186201; 0.094385;,
      -4.575350;12.178301; 0.153236;,
      -3.340450;12.893601; 0.406563;,
      -4.575350;12.178301; 0.153236;,
      -4.575350;12.872501; 0.226582;,
      -3.340450;12.893601; 0.406563;,
      -4.575350;12.872501;-1.312020;,
      -4.575350;12.178301;-1.236940;,
      -3.340450;12.893601;-1.417010;,
      -4.575350;12.178301;-1.236940;,
      -3.059550;12.186201;-1.125389;,
      -3.340450;12.893601;-1.417010;,
       3.059550;12.186201; 0.094385;,
       3.340450;12.893601; 0.406563;,
       4.575350;12.178301; 0.153237;,
       3.340450;12.893601; 0.406563;,
       4.575350;12.872501; 0.226583;,
       4.575350;12.178301; 0.153237;,
       4.575350;12.872501;-1.312020;,
       3.340450;12.893601;-1.417010;,
       4.575350;12.178301;-1.236940;,
       3.340450;12.893601;-1.417010;,
       3.059550;12.186201;-1.125389;,
       4.575350;12.178301;-1.236940;,
       3.340450;12.893601;-1.417010;,
       1.525270;12.539901;-0.338785;,
       3.059550;12.186201;-1.125389;,
       1.525270;12.539901;-0.338785;,
       3.059550;12.186201; 0.094385;,
       3.059550;12.186201;-1.125389;,
       3.059550;12.186201; 0.094385;,
       1.525270;12.539901;-0.338785;,
       3.340450;12.893601; 0.406563;,
       1.525270;12.539901;-0.338785;,
       3.340450;12.893601;-1.417010;,
       3.340450;12.893601; 0.406563;,
      -3.340450;12.893601;-1.417010;,
      -1.525270;12.539901;-0.338785;,
      -3.340450;12.893601; 0.406563;,
      -1.525270;12.539901;-0.338785;,
      -3.059550;12.186201; 0.094385;,
      -3.340450;12.893601; 0.406563;,
      -3.059550;12.186201; 0.094385;,
      -1.525270;12.539901;-0.338785;,
      -3.059550;12.186201;-1.125389;,
      -1.525270;12.539901;-0.338785;,
      -3.340450;12.893601;-1.417010;,
      -3.059550;12.186201;-1.125389;;
      212;
      3;0;1;2;,
      3;3;4;5;,
      3;6;7;8;,
      3;9;10;11;,
      3;12;13;14;,
      3;15;16;17;,
      3;18;19;20;,
      3;21;22;23;,
      3;24;25;26;,
      3;27;28;29;,
      3;30;31;32;,
      3;33;34;35;,
      3;36;37;38;,
      3;39;40;41;,
      3;42;43;44;,
      3;45;46;47;,
      3;48;49;50;,
      3;51;52;53;,
      3;54;55;56;,
      3;57;58;59;,
      3;60;61;62;,
      3;63;64;65;,
      3;66;67;68;,
      3;69;70;71;,
      3;72;73;74;,
      3;75;76;77;,
      3;78;79;80;,
      3;81;82;83;,
      3;84;85;86;,
      3;87;88;89;,
      3;90;91;92;,
      3;93;94;95;,
      3;96;97;98;,
      3;99;100;101;,
      3;102;103;104;,
      3;105;106;107;,
      3;108;109;110;,
      3;111;112;113;,
      3;114;115;116;,
      3;117;118;119;,
      3;120;121;122;,
      3;123;124;125;,
      3;126;127;128;,
      3;129;130;131;,
      3;132;133;134;,
      3;135;136;137;,
      3;138;139;140;,
      3;141;142;143;,
      3;144;145;146;,
      3;147;148;149;,
      3;150;151;152;,
      3;153;154;155;,
      3;156;157;158;,
      3;159;160;161;,
      3;162;163;164;,
      3;165;166;167;,
      3;168;169;170;,
      3;171;172;173;,
      3;174;175;176;,
      3;177;178;179;,
      3;180;181;182;,
      3;183;184;185;,
      3;186;187;188;,
      3;189;190;191;,
      3;192;193;194;,
      3;195;196;197;,
      3;198;199;200;,
      3;201;202;203;,
      3;204;205;206;,
      3;207;208;209;,
      3;210;211;212;,
      3;213;214;215;,
      3;216;217;218;,
      3;219;220;221;,
      3;222;223;224;,
      3;225;226;227;,
      3;228;229;230;,
      3;231;232;233;,
      3;234;235;236;,
      3;237;238;239;,
      3;240;241;242;,
      3;243;244;245;,
      3;246;247;248;,
      3;249;250;251;,
      3;252;253;254;,
      3;255;256;257;,
      3;258;259;260;,
      3;261;262;263;,
      3;264;265;266;,
      3;267;268;269;,
      3;270;271;272;,
      3;273;274;275;,
      3;276;277;278;,
      3;279;280;281;,
      3;282;283;284;,
      3;285;286;287;,
      3;288;289;290;,
      3;291;292;293;,
      3;294;295;296;,
      3;297;298;299;,
      3;300;301;302;,
      3;303;304;305;,
      3;306;307;308;,
      3;309;310;311;,
      3;312;313;314;,
      3;315;316;317;,
      3;318;319;320;,
      3;321;322;323;,
      3;324;325;326;,
      3;327;328;329;,
      3;330;331;332;,
      3;333;334;335;,
      3;336;337;338;,
      3;339;340;341;,
      3;342;343;344;,
      3;345;346;347;,
      3;348;349;350;,
      3;351;352;353;,
      3;354;355;356;,
      3;357;358;359;,
      3;360;361;362;,
      3;363;364;365;,
      3;366;367;368;,
      3;369;370;371;,
      3;372;373;374;,
      3;375;376;377;,
      3;378;379;380;,
      3;381;382;383;,
      3;384;385;386;,
      3;387;388;389;,
      3;390;391;392;,
      3;393;394;395;,
      3;396;397;398;,
      3;399;400;401;,
      3;402;403;404;,
      3;405;406;407;,
      3;408;409;410;,
      3;411;412;413;,
      3;414;415;416;,
      3;417;418;419;,
      3;420;421;422;,
      3;423;424;425;,
      3;426;427;428;,
      3;429;430;431;,
      3;432;433;434;,
      3;435;436;437;,
      3;438;439;440;,
      3;441;442;443;,
      3;444;445;446;,
      3;447;448;449;,
      3;450;451;452;,
      3;453;454;455;,
      3;456;457;458;,
      3;459;460;461;,
      3;462;463;464;,
      3;465;466;467;,
      3;468;469;470;,
      3;471;472;473;,
      3;474;475;476;,
      3;477;478;479;,
      3;480;481;482;,
      3;483;484;485;,
      3;486;487;488;,
      3;489;490;491;,
      3;492;493;494;,
      3;495;496;497;,
      3;498;499;500;,
      3;501;502;503;,
      3;504;505;506;,
      3;507;508;509;,
      3;510;511;512;,
      3;513;514;515;,
      3;516;517;518;,
      3;519;520;521;,
      3;522;523;524;,
      3;525;526;527;,
      3;528;529;530;,
      3;531;532;533;,
      3;534;535;536;,
      3;537;538;539;,
      3;540;541;542;,
      3;543;544;545;,
      3;546;547;548;,
      3;549;550;551;,
      3;552;553;554;,
      3;555;556;557;,
      3;558;559;560;,
      3;561;562;563;,
      3;564;565;566;,
      3;567;568;569;,
      3;570;571;572;,
      3;573;574;575;,
      3;576;577;578;,
      3;579;580;581;,
      3;582;583;584;,
      3;585;586;587;,
      3;588;589;590;,
      3;591;592;593;,
      3;594;595;596;,
      3;597;598;599;,
      3;600;601;602;,
      3;603;604;605;,
      3;606;607;608;,
      3;609;610;611;,
      3;612;613;614;,
      3;615;616;617;,
      3;618;619;620;,
      3;621;622;623;,
      3;624;625;626;,
      3;627;628;629;,
      3;630;631;632;,
      3;633;634;635;;
      MeshNormals { //Mesh Normals
        636;
         0.180303;-0.746178; 0.640797;,
         0.611377;-0.579485; 0.538865;,
         0.184973; 0.680471; 0.709006;,
         0.606098; 0.490585; 0.626026;,
         0.184973; 0.680471; 0.709006;,
         0.611377;-0.579485; 0.538865;,
         0.180639; 0.684042;-0.706687;,
         0.184973; 0.680471; 0.709006;,
         0.606098; 0.490585; 0.626026;,
         0.606098; 0.490585; 0.626026;,
         0.607379; 0.501206;-0.616291;,
         0.180639; 0.684042;-0.706687;,
         0.180639; 0.684042;-0.706687;,
         0.607379; 0.501206;-0.616291;,
         0.176275;-0.749779;-0.637715;,
         0.607379; 0.501206;-0.616291;,
         0.612598;-0.588549;-0.527512;,
         0.176275;-0.749779;-0.637715;,
         0.176275;-0.749779;-0.637715;,
         0.612598;-0.588549;-0.527512;,
         0.180303;-0.746178; 0.640797;,
         0.612598;-0.588549;-0.527512;,
         0.611377;-0.579485; 0.538865;,
         0.180303;-0.746178; 0.640797;,
         0.607379; 0.501206;-0.616291;,
         0.826350;-0.051546;-0.560747;,
         0.612598;-0.588549;-0.527512;,
         0.606098; 0.490585; 0.626026;,
         0.611377;-0.579485; 0.538865;,
         0.873135;-0.043550; 0.485519;,
         0.607379; 0.501206;-0.616291;,
         0.606098; 0.490585; 0.626026;,
         0.826350;-0.051546;-0.560747;,
         0.606098; 0.490585; 0.626026;,
         0.873135;-0.043550; 0.485519;,
         0.826350;-0.051546;-0.560747;,
         0.826350;-0.051546;-0.560747;,
         0.873135;-0.043550; 0.485519;,
         0.612598;-0.588549;-0.527512;,
         0.873135;-0.043550; 0.485519;,
         0.611377;-0.579485; 0.538865;,
         0.612598;-0.588549;-0.527512;,
         0.180639; 0.684042;-0.706687;,
         0.176275;-0.749779;-0.637715;,
        -0.017182; 0.665029;-0.746574;,
         0.176275;-0.749779;-0.637715;,
        -0.015809;-0.735710;-0.677084;,
        -0.017182; 0.665029;-0.746574;,
        -0.017182; 0.665029;-0.746574;,
        -0.015809;-0.735710;-0.677084;,
        -0.049440; 0.665914;-0.744346;,
        -0.015809;-0.735710;-0.677084;,
        -0.043336;-0.740257;-0.670888;,
        -0.049440; 0.665914;-0.744346;,
        -0.049440; 0.665914;-0.744346;,
        -0.043336;-0.740257;-0.670888;,
        -0.058016; 0.667776;-0.742058;,
        -0.043336;-0.740257;-0.670888;,
        -0.053316;-0.739525;-0.670980;,
        -0.058016; 0.667776;-0.742058;,
        -0.058016; 0.667776;-0.742058;,
        -0.053316;-0.739525;-0.670980;,
        -0.074648; 0.667318;-0.740989;,
        -0.053316;-0.739525;-0.670980;,
        -0.064150;-0.737114;-0.672689;,
        -0.074648; 0.667318;-0.740989;,
        -0.074648; 0.667318;-0.740989;,
        -0.064150;-0.737114;-0.672689;,
        -0.073702; 0.691305;-0.718772;,
        -0.064150;-0.737114;-0.672689;,
        -0.060915;-0.715354;-0.696066;,
        -0.073702; 0.691305;-0.718772;,
        -0.073702; 0.691305;-0.718772;,
        -0.060915;-0.715354;-0.696066;,
        -0.055727; 0.716361;-0.695486;,
        -0.060915;-0.715354;-0.696066;,
        -0.048585;-0.695181;-0.717154;,
        -0.055727; 0.716361;-0.695486;,
        -0.055727; 0.716361;-0.695486;,
        -0.048585;-0.695181;-0.717154;,
        -0.032838; 0.731010;-0.681539;,
        -0.048585;-0.695181;-0.717154;,
        -0.034211;-0.685537;-0.727195;,
        -0.032838; 0.731010;-0.681539;,
        -0.032838; 0.731010;-0.681539;,
        -0.034211;-0.685537;-0.727195;,
        -0.017060; 0.732109;-0.680929;,
        -0.034211;-0.685537;-0.727195;,
        -0.016755;-0.682394;-0.730766;,
        -0.017060; 0.732109;-0.680929;,
        -0.017060; 0.732109;-0.680929;,
        -0.016755;-0.682394;-0.730766;,
        -0.001068; 0.740806;-0.671682;,
        -0.016755;-0.682394;-0.730766;,
         0.000855;-0.672750;-0.739830;,
        -0.001068; 0.740806;-0.671682;,
        -0.001068; 0.740806;-0.671682;,
         0.000855;-0.672750;-0.739830;,
         0.027924; 0.758904;-0.650594;,
         0.000855;-0.672750;-0.739830;,
         0.062838;-0.685568;-0.725272;,
         0.027924; 0.758904;-0.650594;,
        -0.017579; 0.664693; 0.746879;,
         0.184973; 0.680471; 0.709006;,
         0.180639; 0.684042;-0.706687;,
         0.180639; 0.684042;-0.706687;,
        -0.017182; 0.665029;-0.746574;,
        -0.017579; 0.664693; 0.746879;,
        -0.017579; 0.664693; 0.746879;,
        -0.017182; 0.665029;-0.746574;,
        -0.049623; 0.666097; 0.744163;,
        -0.017182; 0.665029;-0.746574;,
        -0.049440; 0.665914;-0.744346;,
        -0.049623; 0.666097; 0.744163;,
        -0.049623; 0.666097; 0.744163;,
        -0.049440; 0.665914;-0.744346;,
        -0.057772; 0.668264; 0.741661;,
        -0.049440; 0.665914;-0.744346;,
        -0.058016; 0.667776;-0.742058;,
        -0.057772; 0.668264; 0.741661;,
        -0.057772; 0.668264; 0.741661;,
        -0.058016; 0.667776;-0.742058;,
        -0.066927; 0.671194; 0.738243;,
        -0.058016; 0.667776;-0.742058;,
        -0.074648; 0.667318;-0.740989;,
        -0.066927; 0.671194; 0.738243;,
        -0.066927; 0.671194; 0.738243;,
        -0.074648; 0.667318;-0.740989;,
        -0.072787; 0.698080; 0.712272;,
        -0.074648; 0.667318;-0.740989;,
        -0.073702; 0.691305;-0.718772;,
        -0.072787; 0.698080; 0.712272;,
        -0.072787; 0.698080; 0.712272;,
        -0.073702; 0.691305;-0.718772;,
        -0.059114; 0.721030; 0.690359;,
        -0.073702; 0.691305;-0.718772;,
        -0.055727; 0.716361;-0.695486;,
        -0.059114; 0.721030; 0.690359;,
        -0.059114; 0.721030; 0.690359;,
        -0.055727; 0.716361;-0.695486;,
        -0.035310; 0.732322; 0.680013;,
        -0.055727; 0.716361;-0.695486;,
        -0.032838; 0.731010;-0.681539;,
        -0.035310; 0.732322; 0.680013;,
        -0.035310; 0.732322; 0.680013;,
        -0.032838; 0.731010;-0.681539;,
        -0.013947; 0.732841; 0.680227;,
        -0.032838; 0.731010;-0.681539;,
        -0.017060; 0.732109;-0.680929;,
        -0.013947; 0.732841; 0.680227;,
        -0.013947; 0.732841; 0.680227;,
        -0.017060; 0.732109;-0.680929;,
        -0.003296; 0.743980; 0.668172;,
        -0.017060; 0.732109;-0.680929;,
        -0.001068; 0.740806;-0.671682;,
        -0.003296; 0.743980; 0.668172;,
        -0.003296; 0.743980; 0.668172;,
        -0.001068; 0.740806;-0.671682;,
         0.010834; 0.753929; 0.656819;,
        -0.001068; 0.740806;-0.671682;,
         0.027924; 0.758904;-0.650594;,
         0.010834; 0.753929; 0.656819;,
         0.010834; 0.753929; 0.656819;,
         0.027924; 0.758904;-0.650594;,
        -0.270272; 0.756706; 0.595233;,
         0.027924; 0.758904;-0.650594;,
        -0.191626; 0.797937;-0.571429;,
        -0.270272; 0.756706; 0.595233;,
         0.180303;-0.746178; 0.640797;,
         0.184973; 0.680471; 0.709006;,
        -0.016175;-0.735099; 0.677755;,
        -0.016175;-0.735099; 0.677755;,
         0.184973; 0.680471; 0.709006;,
        -0.017579; 0.664693; 0.746879;,
        -0.016175;-0.735099; 0.677755;,
        -0.017579; 0.664693; 0.746879;,
        -0.043550;-0.740104; 0.671041;,
        -0.017579; 0.664693; 0.746879;,
        -0.049623; 0.666097; 0.744163;,
        -0.043550;-0.740104; 0.671041;,
        -0.043550;-0.740104; 0.671041;,
        -0.049623; 0.666097; 0.744163;,
        -0.053102;-0.739647; 0.670858;,
        -0.049623; 0.666097; 0.744163;,
        -0.057772; 0.668264; 0.741661;,
        -0.053102;-0.739647; 0.670858;,
        -0.053102;-0.739647; 0.670858;,
        -0.057772; 0.668264; 0.741661;,
        -0.057100;-0.740379; 0.669729;,
        -0.057772; 0.668264; 0.741661;,
        -0.066927; 0.671194; 0.738243;,
        -0.057100;-0.740379; 0.669729;,
        -0.057100;-0.740379; 0.669729;,
        -0.066927; 0.671194; 0.738243;,
        -0.059938;-0.722373; 0.688894;,
        -0.066927; 0.671194; 0.738243;,
        -0.072787; 0.698080; 0.712272;,
        -0.059938;-0.722373; 0.688894;,
        -0.059938;-0.722373; 0.688894;,
        -0.072787; 0.698080; 0.712272;,
        -0.052095;-0.701437; 0.710776;,
        -0.072787; 0.698080; 0.712272;,
        -0.059114; 0.721030; 0.690359;,
        -0.052095;-0.701437; 0.710776;,
        -0.052095;-0.701437; 0.710776;,
        -0.059114; 0.721030; 0.690359;,
        -0.036836;-0.688894; 0.723899;,
        -0.059114; 0.721030; 0.690359;,
        -0.035310; 0.732322; 0.680013;,
        -0.036836;-0.688894; 0.723899;,
        -0.036836;-0.688894; 0.723899;,
        -0.035310; 0.732322; 0.680013;,
        -0.013062;-0.684988; 0.728416;,
        -0.035310; 0.732322; 0.680013;,
        -0.013947; 0.732841; 0.680227;,
        -0.013062;-0.684988; 0.728416;,
        -0.013062;-0.684988; 0.728416;,
        -0.013947; 0.732841; 0.680227;,
        -0.001373;-0.673940; 0.738731;,
        -0.013947; 0.732841; 0.680227;,
        -0.003296; 0.743980; 0.668172;,
        -0.001373;-0.673940; 0.738731;,
        -0.001373;-0.673940; 0.738731;,
        -0.003296; 0.743980; 0.668172;,
         0.040345;-0.677664; 0.734214;,
        -0.003296; 0.743980; 0.668172;,
         0.010834; 0.753929; 0.656819;,
         0.040345;-0.677664; 0.734214;,
         0.176275;-0.749779;-0.637715;,
         0.180303;-0.746178; 0.640797;,
        -0.015809;-0.735710;-0.677084;,
         0.180303;-0.746178; 0.640797;,
        -0.016175;-0.735099; 0.677755;,
        -0.015809;-0.735710;-0.677084;,
        -0.015809;-0.735710;-0.677084;,
        -0.016175;-0.735099; 0.677755;,
        -0.043336;-0.740257;-0.670888;,
        -0.016175;-0.735099; 0.677755;,
        -0.043550;-0.740104; 0.671041;,
        -0.043336;-0.740257;-0.670888;,
        -0.043336;-0.740257;-0.670888;,
        -0.043550;-0.740104; 0.671041;,
        -0.053316;-0.739525;-0.670980;,
        -0.043550;-0.740104; 0.671041;,
        -0.053102;-0.739647; 0.670858;,
        -0.053316;-0.739525;-0.670980;,
        -0.053316;-0.739525;-0.670980;,
        -0.053102;-0.739647; 0.670858;,
        -0.064150;-0.737114;-0.672689;,
        -0.053102;-0.739647; 0.670858;,
        -0.057100;-0.740379; 0.669729;,
        -0.064150;-0.737114;-0.672689;,
        -0.064150;-0.737114;-0.672689;,
        -0.057100;-0.740379; 0.669729;,
        -0.060915;-0.715354;-0.696066;,
        -0.057100;-0.740379; 0.669729;,
        -0.059938;-0.722373; 0.688894;,
        -0.060915;-0.715354;-0.696066;,
        -0.060915;-0.715354;-0.696066;,
        -0.059938;-0.722373; 0.688894;,
        -0.048585;-0.695181;-0.717154;,
        -0.059938;-0.722373; 0.688894;,
        -0.052095;-0.701437; 0.710776;,
        -0.048585;-0.695181;-0.717154;,
        -0.048585;-0.695181;-0.717154;,
        -0.052095;-0.701437; 0.710776;,
        -0.034211;-0.685537;-0.727195;,
        -0.052095;-0.701437; 0.710776;,
        -0.036836;-0.688894; 0.723899;,
        -0.034211;-0.685537;-0.727195;,
        -0.034211;-0.685537;-0.727195;,
        -0.036836;-0.688894; 0.723899;,
        -0.016755;-0.682394;-0.730766;,
        -0.036836;-0.688894; 0.723899;,
        -0.013062;-0.684988; 0.728416;,
        -0.016755;-0.682394;-0.730766;,
        -0.016755;-0.682394;-0.730766;,
        -0.013062;-0.684988; 0.728416;,
         0.000855;-0.672750;-0.739830;,
        -0.013062;-0.684988; 0.728416;,
        -0.001373;-0.673940; 0.738731;,
         0.000855;-0.672750;-0.739830;,
         0.000855;-0.672750;-0.739830;,
        -0.001373;-0.673940; 0.738731;,
         0.062838;-0.685568;-0.725272;,
        -0.001373;-0.673940; 0.738731;,
         0.040345;-0.677664; 0.734214;,
         0.062838;-0.685568;-0.725272;,
         0.062838;-0.685568;-0.725272;,
         0.040345;-0.677664; 0.734214;,
        -0.150884;-0.553972;-0.818720;,
         0.040345;-0.677664; 0.734214;,
        -0.206641;-0.562304; 0.800653;,
        -0.150884;-0.553972;-0.818720;,
        -0.180395; 0.683798; 0.706992;,
        -0.611347; 0.496384; 0.616291;,
        -0.176092;-0.749290; 0.638356;,
        -0.611347; 0.496384; 0.616291;,
        -0.616016;-0.583605; 0.529008;,
        -0.176092;-0.749290; 0.638356;,
        -0.176092;-0.749290; 0.638356;,
        -0.616016;-0.583605; 0.529008;,
        -0.180517;-0.746696;-0.640187;,
        -0.616016;-0.583605; 0.529008;,
        -0.607898;-0.584490;-0.537370;,
        -0.180517;-0.746696;-0.640187;,
        -0.180517;-0.746696;-0.640187;,
        -0.607898;-0.584490;-0.537370;,
        -0.185217; 0.680715;-0.708701;,
        -0.607898;-0.584490;-0.537370;,
        -0.602069; 0.495468;-0.626057;,
        -0.185217; 0.680715;-0.708701;,
        -0.185217; 0.680715;-0.708701;,
        -0.602069; 0.495468;-0.626057;,
        -0.180395; 0.683798; 0.706992;,
        -0.602069; 0.495468;-0.626057;,
        -0.611347; 0.496384; 0.616291;,
        -0.180395; 0.683798; 0.706992;,
        -0.607898;-0.584490;-0.537370;,
        -0.826350;-0.051546;-0.560747;,
        -0.602069; 0.495468;-0.626057;,
        -0.611347; 0.496384; 0.616291;,
        -0.873135;-0.043550; 0.485488;,
        -0.616016;-0.583605; 0.529008;,
        -0.611347; 0.496384; 0.616291;,
        -0.602069; 0.495468;-0.626057;,
        -0.873135;-0.043550; 0.485488;,
        -0.602069; 0.495468;-0.626057;,
        -0.826350;-0.051546;-0.560747;,
        -0.873135;-0.043550; 0.485488;,
        -0.873135;-0.043550; 0.485488;,
        -0.826350;-0.051546;-0.560747;,
        -0.616016;-0.583605; 0.529008;,
        -0.826350;-0.051546;-0.560747;,
        -0.607898;-0.584490;-0.537370;,
        -0.616016;-0.583605; 0.529008;,
        -0.185217; 0.680715;-0.708701;,
         0.017182; 0.665029;-0.746574;,
        -0.180517;-0.746696;-0.640187;,
         0.017182; 0.665029;-0.746574;,
         0.015809;-0.735710;-0.677084;,
        -0.180517;-0.746696;-0.640187;,
        -0.180517;-0.746696;-0.640187;,
         0.015809;-0.735710;-0.677084;,
        -0.176092;-0.749290; 0.638356;,
         0.015809;-0.735710;-0.677084;,
         0.016175;-0.735099; 0.677755;,
        -0.176092;-0.749290; 0.638356;,
        -0.176092;-0.749290; 0.638356;,
         0.016175;-0.735099; 0.677755;,
        -0.180395; 0.683798; 0.706992;,
         0.016175;-0.735099; 0.677755;,
         0.017579; 0.664693; 0.746879;,
        -0.180395; 0.683798; 0.706992;,
        -0.180395; 0.683798; 0.706992;,
         0.017579; 0.664693; 0.746879;,
        -0.185217; 0.680715;-0.708701;,
         0.017579; 0.664693; 0.746879;,
         0.017182; 0.665029;-0.746574;,
        -0.185217; 0.680715;-0.708701;,
         0.017182; 0.665029;-0.746574;,
         0.049440; 0.665914;-0.744346;,
         0.015809;-0.735710;-0.677084;,
         0.049440; 0.665914;-0.744346;,
         0.043336;-0.740257;-0.670888;,
         0.015809;-0.735710;-0.677084;,
         0.015809;-0.735710;-0.677084;,
         0.043336;-0.740257;-0.670888;,
         0.016175;-0.735099; 0.677755;,
         0.043336;-0.740257;-0.670888;,
         0.043550;-0.740135; 0.671041;,
         0.016175;-0.735099; 0.677755;,
         0.016175;-0.735099; 0.677755;,
         0.043550;-0.740135; 0.671041;,
         0.017579; 0.664693; 0.746879;,
         0.043550;-0.740135; 0.671041;,
         0.049623; 0.666097; 0.744163;,
         0.017579; 0.664693; 0.746879;,
         0.017579; 0.664693; 0.746879;,
         0.049623; 0.666097; 0.744163;,
         0.017182; 0.665029;-0.746574;,
         0.049623; 0.666097; 0.744163;,
         0.049440; 0.665914;-0.744346;,
         0.017182; 0.665029;-0.746574;,
         0.049440; 0.665914;-0.744346;,
         0.058016; 0.667776;-0.742058;,
         0.043336;-0.740257;-0.670888;,
         0.058016; 0.667776;-0.742058;,
         0.053316;-0.739525;-0.670980;,
         0.043336;-0.740257;-0.670888;,
         0.043336;-0.740257;-0.670888;,
         0.053316;-0.739525;-0.670980;,
         0.043550;-0.740135; 0.671041;,
         0.053316;-0.739525;-0.670980;,
         0.053102;-0.739647; 0.670858;,
         0.043550;-0.740135; 0.671041;,
         0.043550;-0.740135; 0.671041;,
         0.053102;-0.739647; 0.670858;,
         0.049623; 0.666097; 0.744163;,
         0.053102;-0.739647; 0.670858;,
         0.057772; 0.668264; 0.741630;,
         0.049623; 0.666097; 0.744163;,
         0.049623; 0.666097; 0.744163;,
         0.057772; 0.668264; 0.741630;,
         0.049440; 0.665914;-0.744346;,
         0.057772; 0.668264; 0.741630;,
         0.058016; 0.667776;-0.742058;,
         0.049440; 0.665914;-0.744346;,
         0.058016; 0.667776;-0.742058;,
         0.074648; 0.667318;-0.740989;,
         0.053316;-0.739525;-0.670980;,
         0.074648; 0.667318;-0.740989;,
         0.064150;-0.737114;-0.672689;,
         0.053316;-0.739525;-0.670980;,
         0.053316;-0.739525;-0.670980;,
         0.064150;-0.737114;-0.672689;,
         0.053102;-0.739647; 0.670858;,
         0.064150;-0.737114;-0.672689;,
         0.057100;-0.740379; 0.669759;,
         0.053102;-0.739647; 0.670858;,
         0.053102;-0.739647; 0.670858;,
         0.057100;-0.740379; 0.669759;,
         0.057772; 0.668264; 0.741630;,
         0.057100;-0.740379; 0.669759;,
         0.066927; 0.671163; 0.738243;,
         0.057772; 0.668264; 0.741630;,
         0.057772; 0.668264; 0.741630;,
         0.066927; 0.671163; 0.738243;,
         0.058016; 0.667776;-0.742058;,
         0.066927; 0.671163; 0.738243;,
         0.074648; 0.667318;-0.740989;,
         0.058016; 0.667776;-0.742058;,
         0.074648; 0.667318;-0.740989;,
         0.073702; 0.691305;-0.718772;,
         0.064150;-0.737114;-0.672689;,
         0.073702; 0.691305;-0.718772;,
         0.060915;-0.715354;-0.696066;,
         0.064150;-0.737114;-0.672689;,
         0.064150;-0.737114;-0.672689;,
         0.060915;-0.715354;-0.696066;,
         0.057100;-0.740379; 0.669759;,
         0.060915;-0.715354;-0.696066;,
         0.059938;-0.722373; 0.688894;,
         0.057100;-0.740379; 0.669759;,
         0.057100;-0.740379; 0.669759;,
         0.059938;-0.722373; 0.688894;,
         0.066927; 0.671163; 0.738243;,
         0.059938;-0.722373; 0.688894;,
         0.072787; 0.698080; 0.712272;,
         0.066927; 0.671163; 0.738243;,
         0.066927; 0.671163; 0.738243;,
         0.072787; 0.698080; 0.712272;,
         0.074648; 0.667318;-0.740989;,
         0.072787; 0.698080; 0.712272;,
         0.073702; 0.691305;-0.718772;,
         0.074648; 0.667318;-0.740989;,
         0.073702; 0.691305;-0.718772;,
         0.055727; 0.716361;-0.695486;,
         0.060915;-0.715354;-0.696066;,
         0.055727; 0.716361;-0.695486;,
         0.048585;-0.695181;-0.717154;,
         0.060915;-0.715354;-0.696066;,
         0.060915;-0.715354;-0.696066;,
         0.048585;-0.695181;-0.717154;,
         0.059938;-0.722373; 0.688894;,
         0.048585;-0.695181;-0.717154;,
         0.052095;-0.701437; 0.710776;,
         0.059938;-0.722373; 0.688894;,
         0.059938;-0.722373; 0.688894;,
         0.052095;-0.701437; 0.710776;,
         0.072787; 0.698080; 0.712272;,
         0.052095;-0.701437; 0.710776;,
         0.059114; 0.721030; 0.690359;,
         0.072787; 0.698080; 0.712272;,
         0.072787; 0.698080; 0.712272;,
         0.059114; 0.721030; 0.690359;,
         0.073702; 0.691305;-0.718772;,
         0.059114; 0.721030; 0.690359;,
         0.055727; 0.716361;-0.695486;,
         0.073702; 0.691305;-0.718772;,
         0.055727; 0.716361;-0.695486;,
         0.032838; 0.731010;-0.681539;,
         0.048585;-0.695181;-0.717154;,
         0.032838; 0.731010;-0.681539;,
         0.034211;-0.685537;-0.727195;,
         0.048585;-0.695181;-0.717154;,
         0.048585;-0.695181;-0.717154;,
         0.034211;-0.685537;-0.727195;,
         0.052095;-0.701437; 0.710776;,
         0.034211;-0.685537;-0.727195;,
         0.036836;-0.688894; 0.723899;,
         0.052095;-0.701437; 0.710776;,
         0.052095;-0.701437; 0.710776;,
         0.036836;-0.688894; 0.723899;,
         0.059114; 0.721030; 0.690359;,
         0.036836;-0.688894; 0.723899;,
         0.035310; 0.732322; 0.680013;,
         0.059114; 0.721030; 0.690359;,
         0.059114; 0.721030; 0.690359;,
         0.035310; 0.732322; 0.680013;,
         0.055727; 0.716361;-0.695486;,
         0.035310; 0.732322; 0.680013;,
         0.032838; 0.731010;-0.681539;,
         0.055727; 0.716361;-0.695486;,
         0.032838; 0.731010;-0.681539;,
         0.017060; 0.732109;-0.680929;,
         0.034211;-0.685537;-0.727195;,
         0.017060; 0.732109;-0.680929;,
         0.016755;-0.682394;-0.730766;,
         0.034211;-0.685537;-0.727195;,
         0.034211;-0.685537;-0.727195;,
         0.016755;-0.682394;-0.730766;,
         0.036836;-0.688894; 0.723899;,
         0.016755;-0.682394;-0.730766;,
         0.013062;-0.684988; 0.728416;,
         0.036836;-0.688894; 0.723899;,
         0.036836;-0.688894; 0.723899;,
         0.013062;-0.684988; 0.728416;,
         0.035310; 0.732322; 0.680013;,
         0.013062;-0.684988; 0.728416;,
         0.013947; 0.732841; 0.680227;,
         0.035310; 0.732322; 0.680013;,
         0.035310; 0.732322; 0.680013;,
         0.013947; 0.732841; 0.680227;,
         0.032838; 0.731010;-0.681539;,
         0.013947; 0.732841; 0.680227;,
         0.017060; 0.732109;-0.680929;,
         0.032838; 0.731010;-0.681539;,
         0.016755;-0.682394;-0.730766;,
        -0.000855;-0.672750;-0.739830;,
         0.013062;-0.684988; 0.728416;,
        -0.000855;-0.672750;-0.739830;,
         0.001373;-0.673940; 0.738731;,
         0.013062;-0.684988; 0.728416;,
         0.013062;-0.684988; 0.728416;,
         0.001373;-0.673940; 0.738731;,
         0.013947; 0.732841; 0.680227;,
         0.001373;-0.673940; 0.738731;,
         0.003296; 0.743980; 0.668172;,
         0.013947; 0.732841; 0.680227;,
         0.013947; 0.732841; 0.680227;,
         0.003296; 0.743980; 0.668172;,
         0.017060; 0.732109;-0.680929;,
         0.003296; 0.743980; 0.668172;,
         0.001068; 0.740806;-0.671682;,
         0.017060; 0.732109;-0.680929;,
         0.017060; 0.732109;-0.680929;,
         0.001068; 0.740806;-0.671682;,
         0.016755;-0.682394;-0.730766;,
         0.001068; 0.740806;-0.671682;,
        -0.000855;-0.672750;-0.739830;,
         0.016755;-0.682394;-0.730766;,
         0.001068; 0.740806;-0.671682;,
        -0.027924; 0.758904;-0.650594;,
        -0.000855;-0.672750;-0.739830;,
        -0.027924; 0.758904;-0.650594;,
        -0.062838;-0.685568;-0.725272;,
        -0.000855;-0.672750;-0.739830;,
        -0.000855;-0.672750;-0.739830;,
        -0.062838;-0.685568;-0.725272;,
         0.001373;-0.673940; 0.738731;,
        -0.062838;-0.685568;-0.725272;,
        -0.040345;-0.677664; 0.734214;,
         0.001373;-0.673940; 0.738731;,
         0.001373;-0.673940; 0.738731;,
        -0.040345;-0.677664; 0.734214;,
         0.003296; 0.743980; 0.668172;,
        -0.040345;-0.677664; 0.734214;,
        -0.010834; 0.753929; 0.656819;,
         0.003296; 0.743980; 0.668172;,
         0.003296; 0.743980; 0.668172;,
        -0.010834; 0.753929; 0.656819;,
         0.001068; 0.740806;-0.671682;,
        -0.010834; 0.753929; 0.656819;,
        -0.027924; 0.758904;-0.650594;,
         0.001068; 0.740806;-0.671682;,
        -0.027924; 0.758904;-0.650594;,
        -0.010834; 0.753929; 0.656819;,
         0.270272; 0.756706; 0.595233;,
        -0.027924; 0.758904;-0.650594;,
         0.270272; 0.756706; 0.595233;,
         0.191626; 0.797937;-0.571429;,
         0.206641;-0.562304; 0.800653;,
        -0.040345;-0.677664; 0.734214;,
        -0.062838;-0.685568;-0.725272;,
         0.206641;-0.562304; 0.800653;,
        -0.062838;-0.685568;-0.725272;,
         0.150884;-0.553972;-0.818720;,
        -0.191626; 0.797937;-0.571429;,
         0.027924; 0.758904;-0.650594;,
        -0.150884;-0.553972;-0.818720;,
         0.027924; 0.758904;-0.650594;,
         0.062838;-0.685568;-0.725272;,
        -0.150884;-0.553972;-0.818720;,
         0.040345;-0.677664; 0.734214;,
         0.010834; 0.753929; 0.656819;,
        -0.206641;-0.562304; 0.800653;,
         0.010834; 0.753929; 0.656819;,
        -0.270272; 0.756706; 0.595233;,
        -0.206641;-0.562304; 0.800653;,
         0.191626; 0.797937;-0.571429;,
         0.150884;-0.553972;-0.818720;,
        -0.027924; 0.758904;-0.650594;,
         0.150884;-0.553972;-0.818720;,
        -0.062838;-0.685568;-0.725272;,
        -0.027924; 0.758904;-0.650594;,
        -0.040345;-0.677664; 0.734214;,
         0.206641;-0.562304; 0.800653;,
        -0.010834; 0.753929; 0.656819;,
         0.206641;-0.562304; 0.800653;,
         0.270272; 0.756706; 0.595233;,
        -0.010834; 0.753929; 0.656819;,
         0.206641;-0.562304; 0.800653;,
         0.996673;-0.010193;-0.080569;,
         0.270272; 0.756706; 0.595233;,
         0.996673;-0.010193;-0.080569;,
         0.191626; 0.797937;-0.571429;,
         0.270272; 0.756706; 0.595233;,
         0.191626; 0.797937;-0.571429;,
         0.996673;-0.010193;-0.080569;,
         0.150884;-0.553972;-0.818720;,
         0.996673;-0.010193;-0.080569;,
         0.206641;-0.562304; 0.800653;,
         0.150884;-0.553972;-0.818720;,
        -0.206641;-0.562304; 0.800653;,
        -0.996673;-0.010163;-0.080569;,
        -0.150884;-0.553972;-0.818720;,
        -0.996673;-0.010163;-0.080569;,
        -0.191626; 0.797937;-0.571429;,
        -0.150884;-0.553972;-0.818720;,
        -0.191626; 0.797937;-0.571429;,
        -0.996673;-0.010163;-0.080569;,
        -0.270272; 0.756706; 0.595233;,
        -0.996673;-0.010163;-0.080569;,
        -0.206641;-0.562304; 0.800653;,
        -0.270272; 0.756706; 0.595233;;
        212;
        3;0;1;2;,
        3;3;4;5;,
        3;6;7;8;,
        3;9;10;11;,
        3;12;13;14;,
        3;15;16;17;,
        3;18;19;20;,
        3;21;22;23;,
        3;24;25;26;,
        3;27;28;29;,
        3;30;31;32;,
        3;33;34;35;,
        3;36;37;38;,
        3;39;40;41;,
        3;42;43;44;,
        3;45;46;47;,
        3;48;49;50;,
        3;51;52;53;,
        3;54;55;56;,
        3;57;58;59;,
        3;60;61;62;,
        3;63;64;65;,
        3;66;67;68;,
        3;69;70;71;,
        3;72;73;74;,
        3;75;76;77;,
        3;78;79;80;,
        3;81;82;83;,
        3;84;85;86;,
        3;87;88;89;,
        3;90;91;92;,
        3;93;94;95;,
        3;96;97;98;,
        3;99;100;101;,
        3;102;103;104;,
        3;105;106;107;,
        3;108;109;110;,
        3;111;112;113;,
        3;114;115;116;,
        3;117;118;119;,
        3;120;121;122;,
        3;123;124;125;,
        3;126;127;128;,
        3;129;130;131;,
        3;132;133;134;,
        3;135;136;137;,
        3;138;139;140;,
        3;141;142;143;,
        3;144;145;146;,
        3;147;148;149;,
        3;150;151;152;,
        3;153;154;155;,
        3;156;157;158;,
        3;159;160;161;,
        3;162;163;164;,
        3;165;166;167;,
        3;168;169;170;,
        3;171;172;173;,
        3;174;175;176;,
        3;177;178;179;,
        3;180;181;182;,
        3;183;184;185;,
        3;186;187;188;,
        3;189;190;191;,
        3;192;193;194;,
        3;195;196;197;,
        3;198;199;200;,
        3;201;202;203;,
        3;204;205;206;,
        3;207;208;209;,
        3;210;211;212;,
        3;213;214;215;,
        3;216;217;218;,
        3;219;220;221;,
        3;222;223;224;,
        3;225;226;227;,
        3;228;229;230;,
        3;231;232;233;,
        3;234;235;236;,
        3;237;238;239;,
        3;240;241;242;,
        3;243;244;245;,
        3;246;247;248;,
        3;249;250;251;,
        3;252;253;254;,
        3;255;256;257;,
        3;258;259;260;,
        3;261;262;263;,
        3;264;265;266;,
        3;267;268;269;,
        3;270;271;272;,
        3;273;274;275;,
        3;276;277;278;,
        3;279;280;281;,
        3;282;283;284;,
        3;285;286;287;,
        3;288;289;290;,
        3;291;292;293;,
        3;294;295;296;,
        3;297;298;299;,
        3;300;301;302;,
        3;303;304;305;,
        3;306;307;308;,
        3;309;310;311;,
        3;312;313;314;,
        3;315;316;317;,
        3;318;319;320;,
        3;321;322;323;,
        3;324;325;326;,
        3;327;328;329;,
        3;330;331;332;,
        3;333;334;335;,
        3;336;337;338;,
        3;339;340;341;,
        3;342;343;344;,
        3;345;346;347;,
        3;348;349;350;,
        3;351;352;353;,
        3;354;355;356;,
        3;357;358;359;,
        3;360;361;362;,
        3;363;364;365;,
        3;366;367;368;,
        3;369;370;371;,
        3;372;373;374;,
        3;375;376;377;,
        3;378;379;380;,
        3;381;382;383;,
        3;384;385;386;,
        3;387;388;389;,
        3;390;391;392;,
        3;393;394;395;,
        3;396;397;398;,
        3;399;400;401;,
        3;402;403;404;,
        3;405;406;407;,
        3;408;409;410;,
        3;411;412;413;,
        3;414;415;416;,
        3;417;418;419;,
        3;420;421;422;,
        3;423;424;425;,
        3;426;427;428;,
        3;429;430;431;,
        3;432;433;434;,
        3;435;436;437;,
        3;438;439;440;,
        3;441;442;443;,
        3;444;445;446;,
        3;447;448;449;,
        3;450;451;452;,
        3;453;454;455;,
        3;456;457;458;,
        3;459;460;461;,
        3;462;463;464;,
        3;465;466;467;,
        3;468;469;470;,
        3;471;472;473;,
        3;474;475;476;,
        3;477;478;479;,
        3;480;481;482;,
        3;483;484;485;,
        3;486;487;488;,
        3;489;490;491;,
        3;492;493;494;,
        3;495;496;497;,
        3;498;499;500;,
        3;501;502;503;,
        3;504;505;506;,
        3;507;508;509;,
        3;510;511;512;,
        3;513;514;515;,
        3;516;517;518;,
        3;519;520;521;,
        3;522;523;524;,
        3;525;526;527;,
        3;528;529;530;,
        3;531;532;533;,
        3;534;535;536;,
        3;537;538;539;,
        3;540;541;542;,
        3;543;544;545;,
        3;546;547;548;,
        3;549;550;551;,
        3;552;553;554;,
        3;555;556;557;,
        3;558;559;560;,
        3;561;562;563;,
        3;564;565;566;,
        3;567;568;569;,
        3;570;571;572;,
        3;573;574;575;,
        3;576;577;578;,
        3;579;580;581;,
        3;582;583;584;,
        3;585;586;587;,
        3;588;589;590;,
        3;591;592;593;,
        3;594;595;596;,
        3;597;598;599;,
        3;600;601;602;,
        3;603;604;605;,
        3;606;607;608;,
        3;609;610;611;,
        3;612;613;614;,
        3;615;616;617;,
        3;618;619;620;,
        3;621;622;623;,
        3;624;625;626;,
        3;627;628;629;,
        3;630;631;632;,
        3;633;634;635;;
      } //End of Mesh Normals
      MeshMaterialList { //Mesh Material List
        1;
        212;
        0,
        0,
        0,
        0,
        0,
        0,
        0,
        0,
        0,
        0,
        0,
        0,
        0,
        0,
        0,
        0,
        0,
        0,
        0,
        0,
        0,
        0,
        0,
        0,
        0,
        0,
        0,
        0,
        0,
        0,
        0,
        0,
        0,
        0,
        0,
        0,
        0,
        0,
        0,
        0,
        0,
        0,
        0,
        0,
        0,
        0,
        0,
        0,
        0,
        0,
        0,
        0,
        0,
        0,
        0,
        0,
        0,
        0,
        0,
        0,
        0,
        0,
        0,
        0,
        0,
        0,
        0,
        0,
        0,
        0,
        0,
        0,
        0,
        0,
        0,
        0,
        0,
        0,
        0,
        0,
        0,
        0,
        0,
        0,
        0,
        0,
        0,
        0,
        0,
        0,
        0,
        0,
        0,
        0,
        0,
        0,
        0,
        0,
        0,
        0,
        0,
        0,
        0,
        0,
        0,
        0,
        0,
        0,
        0,
        0,
        0,
        0,
        0,
        0,
        0,
        0,
        0,
        0,
        0,
        0,
        0,
        0,
        0,
        0,
        0,
        0,
        0,
        0,
        0,
        0,
        0,
        0,
        0,
        0,
        0,
        0,
        0,
        0,
        0,
        0,
        0,
        0,
        0,
        0,
        0,
        0,
        0,
        0,
        0,
        0,
        0,
        0,
        0,
        0,
        0,
        0,
        0,
        0,
        0,
        0,
        0,
        0,
        0,
        0,
        0,
        0,
        0,
        0,
        0,
        0,
        0,
        0,
        0,
        0,
        0,
        0,
        0,
        0,
        0,
        0,
        0,
        0,
        0,
        0,
        0,
        0,
        0,
        0,
        0,
        0,
        0,
        0,
        0,
        0,
        0,
        0,
        0,
        0,
        0,
        0,
        0,
        0,
        0,
        0,
        0,
        0,
        0,
        0,
        0,
        0,
        0,
        0;;
        Material mat_0 {
           0.640000; 0.640000; 0.640000; 1.000000;;
           92.156863;
           0.250000; 0.250000; 0.250000;;
           0.000000; 0.000000; 0.000000;;
          TextureFilename {"Textures/deoxys_def_4_0.tga";}
        }
      } //End of Mesh Material List
      MeshTextureCoords { //Mesh UV Coordinates
        636;
        -0.213413; 0.569564;,
        -0.186068; 0.575945;,
        -0.213413; 0.645940;,
        -0.213413; 0.645940;,
        -0.186068; 0.575945;,
        -0.186068; 0.633669;,
        -0.213413; 0.395394;,
        -0.213413; 0.645940;,
        -0.186068; 0.633669;,
        -0.186068; 0.633669;,
        -0.186068; 0.389136;,
        -0.213413; 0.395394;,
        -0.213413; 0.395394;,
        -0.186068; 0.389136;,
        -0.213413; 0.333440;,
        -0.186068; 0.389136;,
        -0.186068; 0.345488;,
        -0.213413; 0.333440;,
        -0.213413; 0.333440;,
        -0.186068; 0.345488;,
        -0.213413; 0.569564;,
        -0.186068; 0.345488;,
        -0.186068; 0.575945;,
        -0.213413; 0.569564;,
        -0.186068; 0.389136;,
        -0.174057; 0.369139;,
        -0.186068; 0.345488;,
        -0.186068; 0.575945;,
        -0.174057; 0.600934;,
        -0.186068; 0.633669;,
        -0.186068; 0.389136;,
        -0.186068; 0.633669;,
        -0.174057; 0.369139;,
        -0.186068; 0.633669;,
        -0.174057; 0.600934;,
        -0.174057; 0.369139;,
        -0.174057; 0.369139;,
        -0.174057; 0.600934;,
        -0.186068; 0.345488;,
        -0.174057; 0.600934;,
        -0.186068; 0.575945;,
        -0.186068; 0.345488;,
        -0.213413; 0.395394;,
        -0.213413; 0.333440;,
        -0.263679; 0.393738;,
        -0.213413; 0.333440;,
        -0.263679; 0.335078;,
        -0.263679; 0.393738;,
        -0.263679; 0.393738;,
        -0.263679; 0.335078;,
        -0.367815; 0.397891;,
        -0.263679; 0.335078;,
        -0.367815; 0.341888;,
        -0.367815; 0.397891;,
        -0.367815; 0.397891;,
        -0.367815; 0.341888;,
        -0.482956; 0.399724;,
        -0.367815; 0.341888;,
        -0.482956; 0.348881;,
        -0.482956; 0.399724;,
        -0.482956; 0.399724;,
        -0.482956; 0.348881;,
        -0.607310; 0.403149;,
        -0.482956; 0.348881;,
        -0.607310; 0.355577;,
        -0.607310; 0.403149;,
        -0.607310; 0.403149;,
        -0.607310; 0.355577;,
        -0.740874; 0.406446;,
        -0.607310; 0.355577;,
        -0.740874; 0.361937;,
        -0.740874; 0.406446;,
        -0.740874; 0.406446;,
        -0.740874; 0.361937;,
        -0.871368; 0.410086;,
        -0.740874; 0.361937;,
        -0.871368; 0.368971;,
        -0.871368; 0.410086;,
        -0.871368; 0.410086;,
        -0.871368; 0.368971;,
        -0.989180; 0.412436;,
        -0.871368; 0.368971;,
        -0.989180; 0.371959;,
        -0.989180; 0.412436;,
        -0.989180; 0.412436;,
        -0.989180; 0.371959;,
        -1.108560; 0.413023;,
        -0.989180; 0.371959;,
        -1.108560; 0.368425;,
        -1.108560; 0.413023;,
        -1.108560; 0.413023;,
        -1.108560; 0.368425;,
        -1.232790; 0.411413;,
        -1.108560; 0.368425;,
        -1.232790; 0.364041;,
        -1.232790; 0.411413;,
        -1.232790; 0.411413;,
        -1.232790; 0.364041;,
        -1.368190; 0.403989;,
        -1.232790; 0.364041;,
        -1.368190; 0.346171;,
        -1.368190; 0.403989;,
        -0.263679; 0.644284;,
        -0.213413; 0.645940;,
        -0.213413; 0.395394;,
        -0.213413; 0.395394;,
        -0.263679; 0.393738;,
        -0.263679; 0.644284;,
        -0.263679; 0.644284;,
        -0.263679; 0.393738;,
        -0.367815; 0.637034;,
        -0.263679; 0.393738;,
        -0.367815; 0.397891;,
        -0.367815; 0.637034;,
        -0.367815; 0.637034;,
        -0.367815; 0.397891;,
        -0.482956; 0.629670;,
        -0.367815; 0.397891;,
        -0.482956; 0.399724;,
        -0.482956; 0.629670;,
        -0.482956; 0.629670;,
        -0.482956; 0.399724;,
        -0.607310; 0.622563;,
        -0.482956; 0.399724;,
        -0.607310; 0.403149;,
        -0.607310; 0.622563;,
        -0.607310; 0.622563;,
        -0.607310; 0.403149;,
        -0.740874; 0.615811;,
        -0.607310; 0.403149;,
        -0.740874; 0.406446;,
        -0.740874; 0.615811;,
        -0.740874; 0.615811;,
        -0.740874; 0.406446;,
        -0.871368; 0.608345;,
        -0.740874; 0.406446;,
        -0.871368; 0.410086;,
        -0.871368; 0.608345;,
        -0.871368; 0.608345;,
        -0.871368; 0.410086;,
        -0.989180; 0.605146;,
        -0.871368; 0.410086;,
        -0.989180; 0.412436;,
        -0.989180; 0.605146;,
        -0.989180; 0.605146;,
        -0.989180; 0.412436;,
        -1.108560; 0.606922;,
        -0.989180; 0.412436;,
        -1.108560; 0.413023;,
        -1.108560; 0.606922;,
        -1.108560; 0.606922;,
        -1.108560; 0.413023;,
        -1.232790; 0.610083;,
        -1.108560; 0.413023;,
        -1.232790; 0.411413;,
        -1.232790; 0.610083;,
        -1.232790; 0.610083;,
        -1.232790; 0.411413;,
        -1.368190; 0.617521;,
        -1.232790; 0.411413;,
        -1.368190; 0.403989;,
        -1.368190; 0.617521;,
        -1.368190; 0.617521;,
        -1.368190; 0.403989;,
        -1.580310; 0.633369;,
        -1.368190; 0.403989;,
        -1.580310; 0.392614;,
        -1.580310; 0.633369;,
        -0.213413; 0.569564;,
        -0.213413; 0.645940;,
        -0.263679; 0.571202;,
        -0.263679; 0.571202;,
        -0.213413; 0.645940;,
        -0.263679; 0.644284;,
        -0.263679; 0.571202;,
        -0.263679; 0.644284;,
        -0.367815; 0.567267;,
        -0.263679; 0.644284;,
        -0.367815; 0.637034;,
        -0.367815; 0.567267;,
        -0.367815; 0.567267;,
        -0.367815; 0.637034;,
        -0.482956; 0.565591;,
        -0.367815; 0.637034;,
        -0.482956; 0.629670;,
        -0.482956; 0.565591;,
        -0.482956; 0.565591;,
        -0.482956; 0.629670;,
        -0.607310; 0.562362;,
        -0.482956; 0.629670;,
        -0.607310; 0.622563;,
        -0.607310; 0.562362;,
        -0.607310; 0.562362;,
        -0.607310; 0.622563;,
        -0.740874; 0.559251;,
        -0.607310; 0.622563;,
        -0.740874; 0.615811;,
        -0.740874; 0.559251;,
        -0.740874; 0.559251;,
        -0.740874; 0.615811;,
        -0.871368; 0.555818;,
        -0.740874; 0.615811;,
        -0.871368; 0.608345;,
        -0.871368; 0.555818;,
        -0.871368; 0.555818;,
        -0.871368; 0.608345;,
        -0.989180; 0.553577;,
        -0.871368; 0.608345;,
        -0.989180; 0.605146;,
        -0.989180; 0.553577;,
        -0.989180; 0.553577;,
        -0.989180; 0.605146;,
        -1.108560; 0.554893;,
        -0.989180; 0.605146;,
        -1.108560; 0.606922;,
        -1.108560; 0.554893;,
        -1.108560; 0.554893;,
        -1.108560; 0.606922;,
        -1.232790; 0.554284;,
        -1.108560; 0.606922;,
        -1.232790; 0.610083;,
        -1.232790; 0.554284;,
        -1.232790; 0.554284;,
        -1.232790; 0.610083;,
        -1.368190; 0.548300;,
        -1.232790; 0.610083;,
        -1.368190; 0.617521;,
        -1.368190; 0.548300;,
        -0.213413; 0.333440;,
        -0.213413; 0.569564;,
        -0.263679; 0.335078;,
        -0.213413; 0.569564;,
        -0.263679; 0.571202;,
        -0.263679; 0.335078;,
        -0.263679; 0.335078;,
        -0.263679; 0.571202;,
        -0.367815; 0.341888;,
        -0.263679; 0.571202;,
        -0.367815; 0.567267;,
        -0.367815; 0.341888;,
        -0.367815; 0.341888;,
        -0.367815; 0.567267;,
        -0.482956; 0.348881;,
        -0.367815; 0.567267;,
        -0.482956; 0.565591;,
        -0.482956; 0.348881;,
        -0.482956; 0.348881;,
        -0.482956; 0.565591;,
        -0.607310; 0.355577;,
        -0.482956; 0.565591;,
        -0.607310; 0.562362;,
        -0.607310; 0.355577;,
        -0.607310; 0.355577;,
        -0.607310; 0.562362;,
        -0.740874; 0.361937;,
        -0.607310; 0.562362;,
        -0.740874; 0.559251;,
        -0.740874; 0.361937;,
        -0.740874; 0.361937;,
        -0.740874; 0.559251;,
        -0.871368; 0.368971;,
        -0.740874; 0.559251;,
        -0.871368; 0.555818;,
        -0.871368; 0.368971;,
        -0.871368; 0.368971;,
        -0.871368; 0.555818;,
        -0.989180; 0.371959;,
        -0.871368; 0.555818;,
        -0.989180; 0.553577;,
        -0.989180; 0.371959;,
        -0.989180; 0.371959;,
        -0.989180; 0.553577;,
        -1.108560; 0.368425;,
        -0.989180; 0.553577;,
        -1.108560; 0.554893;,
        -1.108560; 0.368425;,
        -1.108560; 0.368425;,
        -1.108560; 0.554893;,
        -1.232790; 0.364041;,
        -1.108560; 0.554893;,
        -1.232790; 0.554284;,
        -1.232790; 0.364041;,
        -1.232790; 0.364041;,
        -1.232790; 0.554284;,
        -1.368190; 0.346171;,
        -1.232790; 0.554284;,
        -1.368190; 0.548300;,
        -1.368190; 0.346171;,
        -1.368190; 0.346171;,
        -1.368190; 0.548300;,
        -1.550130; 0.334752;,
        -1.368190; 0.548300;,
        -1.550130; 0.552869;,
        -1.550130; 0.334752;,
        -0.213413; 0.645940;,
        -0.186068; 0.633669;,
        -0.213413; 0.569564;,
        -0.186068; 0.633669;,
        -0.186068; 0.575945;,
        -0.213413; 0.569564;,
        -0.213413; 0.569564;,
        -0.186068; 0.575945;,
        -0.213413; 0.333440;,
        -0.186068; 0.575945;,
        -0.186068; 0.345488;,
        -0.213413; 0.333440;,
        -0.213413; 0.333440;,
        -0.186068; 0.345488;,
        -0.213413; 0.395394;,
        -0.186068; 0.345488;,
        -0.186068; 0.389136;,
        -0.213413; 0.395394;,
        -0.213413; 0.395394;,
        -0.186068; 0.389136;,
        -0.213413; 0.645940;,
        -0.186068; 0.389136;,
        -0.186068; 0.633669;,
        -0.213413; 0.645940;,
        -0.186068; 0.345488;,
        -0.174057; 0.369139;,
        -0.186068; 0.389136;,
        -0.186068; 0.633669;,
        -0.174057; 0.600934;,
        -0.186068; 0.575945;,
        -0.186068; 0.633669;,
        -0.186068; 0.389136;,
        -0.174057; 0.600934;,
        -0.186068; 0.389136;,
        -0.174057; 0.369139;,
        -0.174057; 0.600934;,
        -0.174057; 0.600934;,
        -0.174057; 0.369139;,
        -0.186068; 0.575945;,
        -0.174057; 0.369139;,
        -0.186068; 0.345488;,
        -0.186068; 0.575945;,
        -0.213413; 0.395394;,
        -0.263679; 0.393738;,
        -0.213413; 0.333440;,
        -0.263679; 0.393738;,
        -0.263679; 0.335078;,
        -0.213413; 0.333440;,
        -0.213413; 0.333440;,
        -0.263679; 0.335078;,
        -0.213413; 0.569564;,
        -0.263679; 0.335078;,
        -0.263679; 0.571202;,
        -0.213413; 0.569564;,
        -0.213413; 0.569564;,
        -0.263679; 0.571202;,
        -0.213413; 0.645940;,
        -0.263679; 0.571202;,
        -0.263679; 0.644284;,
        -0.213413; 0.645940;,
        -0.213413; 0.645940;,
        -0.263679; 0.644284;,
        -0.213413; 0.395394;,
        -0.263679; 0.644284;,
        -0.263679; 0.393738;,
        -0.213413; 0.395394;,
        -0.263679; 0.393738;,
        -0.367815; 0.397891;,
        -0.263679; 0.335078;,
        -0.367815; 0.397891;,
        -0.367815; 0.341888;,
        -0.263679; 0.335078;,
        -0.263679; 0.335078;,
        -0.367815; 0.341888;,
        -0.263679; 0.571202;,
        -0.367815; 0.341888;,
        -0.367815; 0.567267;,
        -0.263679; 0.571202;,
        -0.263679; 0.571202;,
        -0.367815; 0.567267;,
        -0.263679; 0.644284;,
        -0.367815; 0.567267;,
        -0.367815; 0.637034;,
        -0.263679; 0.644284;,
        -0.263679; 0.644284;,
        -0.367815; 0.637034;,
        -0.263679; 0.393738;,
        -0.367815; 0.637034;,
        -0.367815; 0.397891;,
        -0.263679; 0.393738;,
        -0.367815; 0.397891;,
        -0.482956; 0.399724;,
        -0.367815; 0.341888;,
        -0.482956; 0.399724;,
        -0.482956; 0.348881;,
        -0.367815; 0.341888;,
        -0.367815; 0.341888;,
        -0.482956; 0.348881;,
        -0.367815; 0.567267;,
        -0.482956; 0.348881;,
        -0.482956; 0.565591;,
        -0.367815; 0.567267;,
        -0.367815; 0.567267;,
        -0.482956; 0.565591;,
        -0.367815; 0.637034;,
        -0.482956; 0.565591;,
        -0.482956; 0.629670;,
        -0.367815; 0.637034;,
        -0.367815; 0.637034;,
        -0.482956; 0.629670;,
        -0.367815; 0.397891;,
        -0.482956; 0.629670;,
        -0.482956; 0.399724;,
        -0.367815; 0.397891;,
        -0.482956; 0.399724;,
        -0.607310; 0.403149;,
        -0.482956; 0.348881;,
        -0.607310; 0.403149;,
        -0.607310; 0.355577;,
        -0.482956; 0.348881;,
        -0.482956; 0.348881;,
        -0.607310; 0.355577;,
        -0.482956; 0.565591;,
        -0.607310; 0.355577;,
        -0.607310; 0.562362;,
        -0.482956; 0.565591;,
        -0.482956; 0.565591;,
        -0.607310; 0.562362;,
        -0.482956; 0.629670;,
        -0.607310; 0.562362;,
        -0.607310; 0.622563;,
        -0.482956; 0.629670;,
        -0.482956; 0.629670;,
        -0.607310; 0.622563;,
        -0.482956; 0.399724;,
        -0.607310; 0.622563;,
        -0.607310; 0.403149;,
        -0.482956; 0.399724;,
        -0.607310; 0.403149;,
        -0.740874; 0.406446;,
        -0.607310; 0.355577;,
        -0.740874; 0.406446;,
        -0.740874; 0.361937;,
        -0.607310; 0.355577;,
        -0.607310; 0.355577;,
        -0.740874; 0.361937;,
        -0.607310; 0.562362;,
        -0.740874; 0.361937;,
        -0.740874; 0.559251;,
        -0.607310; 0.562362;,
        -0.607310; 0.562362;,
        -0.740874; 0.559251;,
        -0.607310; 0.622563;,
        -0.740874; 0.559251;,
        -0.740874; 0.615811;,
        -0.607310; 0.622563;,
        -0.607310; 0.622563;,
        -0.740874; 0.615811;,
        -0.607310; 0.403149;,
        -0.740874; 0.615811;,
        -0.740874; 0.406446;,
        -0.607310; 0.403149;,
        -0.740874; 0.406446;,
        -0.871368; 0.410086;,
        -0.740874; 0.361937;,
        -0.871368; 0.410086;,
        -0.871368; 0.368971;,
        -0.740874; 0.361937;,
        -0.740874; 0.361937;,
        -0.871368; 0.368971;,
        -0.740874; 0.559251;,
        -0.871368; 0.368971;,
        -0.871368; 0.555818;,
        -0.740874; 0.559251;,
        -0.740874; 0.559251;,
        -0.871368; 0.555818;,
        -0.740874; 0.615811;,
        -0.871368; 0.555818;,
        -0.871368; 0.608345;,
        -0.740874; 0.615811;,
        -0.740874; 0.615811;,
        -0.871368; 0.608345;,
        -0.740874; 0.406446;,
        -0.871368; 0.608345;,
        -0.871368; 0.410086;,
        -0.740874; 0.406446;,
        -0.871368; 0.410086;,
        -0.989180; 0.412436;,
        -0.871368; 0.368971;,
        -0.989180; 0.412436;,
        -0.989180; 0.371959;,
        -0.871368; 0.368971;,
        -0.871368; 0.368971;,
        -0.989180; 0.371959;,
        -0.871368; 0.555818;,
        -0.989180; 0.371959;,
        -0.989180; 0.553577;,
        -0.871368; 0.555818;,
        -0.871368; 0.555818;,
        -0.989180; 0.553577;,
        -0.871368; 0.608345;,
        -0.989180; 0.553577;,
        -0.989180; 0.605146;,
        -0.871368; 0.608345;,
        -0.871368; 0.608345;,
        -0.989180; 0.605146;,
        -0.871368; 0.410086;,
        -0.989180; 0.605146;,
        -0.989180; 0.412436;,
        -0.871368; 0.410086;,
        -0.989180; 0.412436;,
        -1.108560; 0.413023;,
        -0.989180; 0.371959;,
        -1.108560; 0.413023;,
        -1.108560; 0.368425;,
        -0.989180; 0.371959;,
        -0.989180; 0.371959;,
        -1.108560; 0.368425;,
        -0.989180; 0.553577;,
        -1.108560; 0.368425;,
        -1.108560; 0.554893;,
        -0.989180; 0.553577;,
        -0.989180; 0.553577;,
        -1.108560; 0.554893;,
        -0.989180; 0.605146;,
        -1.108560; 0.554893;,
        -1.108560; 0.606922;,
        -0.989180; 0.605146;,
        -0.989180; 0.605146;,
        -1.108560; 0.606922;,
        -0.989180; 0.412436;,
        -1.108560; 0.606922;,
        -1.108560; 0.413023;,
        -0.989180; 0.412436;,
        -1.108560; 0.368425;,
        -1.232790; 0.364041;,
        -1.108560; 0.554893;,
        -1.232790; 0.364041;,
        -1.232790; 0.554284;,
        -1.108560; 0.554893;,
        -1.108560; 0.554893;,
        -1.232790; 0.554284;,
        -1.108560; 0.606922;,
        -1.232790; 0.554284;,
        -1.232790; 0.610083;,
        -1.108560; 0.606922;,
        -1.108560; 0.606922;,
        -1.232790; 0.610083;,
        -1.108560; 0.413023;,
        -1.232790; 0.610083;,
        -1.232790; 0.411413;,
        -1.108560; 0.413023;,
        -1.108560; 0.413023;,
        -1.232790; 0.411413;,
        -1.108560; 0.368425;,
        -1.232790; 0.411413;,
        -1.232790; 0.364041;,
        -1.108560; 0.368425;,
        -1.232790; 0.411413;,
        -1.368190; 0.403989;,
        -1.232790; 0.364041;,
        -1.368190; 0.403989;,
        -1.368190; 0.346171;,
        -1.232790; 0.364041;,
        -1.232790; 0.364041;,
        -1.368190; 0.346171;,
        -1.232790; 0.554284;,
        -1.368190; 0.346171;,
        -1.368190; 0.548300;,
        -1.232790; 0.554284;,
        -1.232790; 0.554284;,
        -1.368190; 0.548300;,
        -1.232790; 0.610083;,
        -1.368190; 0.548300;,
        -1.368190; 0.617521;,
        -1.232790; 0.610083;,
        -1.232790; 0.610083;,
        -1.368190; 0.617521;,
        -1.232790; 0.411413;,
        -1.368190; 0.617521;,
        -1.368190; 0.403989;,
        -1.232790; 0.411413;,
        -1.368190; 0.403989;,
        -1.368190; 0.617521;,
        -1.580310; 0.633369;,
        -1.368190; 0.403989;,
        -1.580310; 0.633369;,
        -1.580310; 0.392614;,
        -1.550130; 0.552869;,
        -1.368190; 0.548300;,
        -1.368190; 0.346171;,
        -1.550130; 0.552869;,
        -1.368190; 0.346171;,
        -1.550130; 0.334752;,
        -1.580310; 0.392614;,
        -1.368190; 0.403989;,
        -1.550130; 0.334752;,
        -1.368190; 0.403989;,
        -1.368190; 0.346171;,
        -1.550130; 0.334752;,
        -1.368190; 0.548300;,
        -1.368190; 0.617521;,
        -1.550130; 0.552869;,
        -1.368190; 0.617521;,
        -1.580310; 0.633369;,
        -1.550130; 0.552869;,
        -1.580310; 0.392614;,
        -1.550130; 0.334752;,
        -1.368190; 0.403989;,
        -1.550130; 0.334752;,
        -1.368190; 0.346171;,
        -1.368190; 0.403989;,
        -1.368190; 0.548300;,
        -1.550130; 0.552869;,
        -1.368190; 0.617521;,
        -1.550130; 0.552869;,
        -1.580310; 0.633369;,
        -1.368190; 0.617521;,
         0.000000; 1.000000;,
         0.000000; 1.000000;,
         0.000000; 1.000000;,
         0.000000; 1.000000;,
         0.000000; 1.000000;,
         0.000000; 1.000000;,
         0.000000; 1.000000;,
         0.000000; 1.000000;,
         0.000000; 1.000000;,
         0.000000; 1.000000;,
         0.000000; 1.000000;,
         0.000000; 1.000000;,
         0.000000; 1.000000;,
         0.000000; 1.000000;,
         0.000000; 1.000000;,
         0.000000; 1.000000;,
         0.000000; 1.000000;,
         0.000000; 1.000000;,
         0.000000; 1.000000;,
         0.000000; 1.000000;,
         0.000000; 1.000000;,
         0.000000; 1.000000;,
         0.000000; 1.000000;,
         0.000000; 1.000000;;
      } //End of Mesh UV Coordinates
    } //End of Mesh Mesh
  } //End of deoxys_def_mat_0
} //End of Root Frame
