# Blender v2.66 (sub 1) OBJ File: 'BR_Deoxys-Shiny01.blend'
# www.blender.org
mtllib BR_Deoxys-Shiny01.mtl
o deoxys
v -13.886900 -0.381781 -13.000000
v -13.886900 -0.000002 -13.374300
v -13.886900 0.381777 -13.000000
v -13.886900 -0.000002 -12.625700
v -14.097800 -0.000002 -13.000000
v -13.436200 -0.000002 -13.512100
v -13.436200 -0.522278 -13.000000
v -13.436200 -0.000002 -12.487900
v -13.436200 0.522275 -13.000000
v -12.467600 -0.000001 -12.516700
v -12.467600 0.492921 -13.000000
v -12.467600 -0.000002 -13.483300
v -12.467600 -0.492924 -13.000000
v -13.686900 -0.381781 -12.200000
v -13.686900 -0.000002 -12.574300
v -13.897800 -0.000002 -12.200000
v -13.686900 -0.000002 -11.825700
v -13.686900 0.381777 -12.200000
v -13.236200 -0.000002 -12.712100
v -13.236200 -0.522278 -12.200000
v -13.236200 -0.000002 -11.687900
v -13.236200 0.522275 -12.200000
v -11.390300 -0.000001 -12.553900
v -11.390300 0.455024 -13.000000
v -11.390300 -0.000002 -13.446200
v -11.390300 -0.455027 -13.000000
v -10.228300 -0.000001 -12.607600
v -10.228300 0.400226 -13.000000
v -10.228300 -0.000001 -13.392400
v -10.228300 -0.400229 -13.000000
v -9.001240 -0.000001 -12.638600
v -9.001240 0.368613 -13.000000
v -7.787420 -0.000001 -12.638600
v -7.787420 0.368613 -13.000000
v -7.787420 -0.368615 -13.000000
v -9.001240 -0.368615 -13.000000
v -9.001240 -0.000001 -13.361400
v -7.787420 -0.000001 -13.361400
v -6.710650 -0.000001 -12.638600
v -6.710650 0.368613 -13.000000
v -5.633890 0.000000 -12.638600
v -5.633890 0.368613 -13.000000
v -5.633890 -0.368615 -13.000000
v -6.710650 -0.368615 -13.000000
v -6.710650 -0.000001 -13.361400
v -5.633890 -0.000001 -13.361400
v -4.557120 0.000000 -12.638600
v -4.557120 0.368614 -13.000000
v -3.459030 0.000000 -12.638600
v -3.459030 0.368614 -13.000000
v -3.459030 -0.368614 -13.000000
v -4.557120 -0.368614 -13.000000
v -4.557120 -0.000001 -13.361400
v -3.459030 0.000000 -13.361400
v -2.359860 0.000000 -12.629600
v -2.359860 0.377756 -13.000000
v -2.359860 -0.377756 -13.000000
v -2.359860 0.000000 -13.370400
v -1.476820 0.456898 -13.000000
v -1.526820 -0.456898 -13.000000
v -1.526820 0.000000 -12.552000
v -1.526820 0.000000 -13.448000
v -12.267600 0.492921 -12.200000
v -12.267600 -0.000001 -11.716700
v -12.267600 -0.000002 -12.683300
v -12.267600 -0.492924 -12.200000
v -11.190300 -0.000001 -11.753900
v -11.190300 0.455024 -12.200000
v -11.190300 -0.000002 -12.646200
v -11.190300 -0.455027 -12.200000
v -10.028300 -0.000001 -11.807600
v -10.028300 0.400226 -12.200000
v -10.028300 -0.000001 -12.592400
v -10.028300 -0.400229 -12.200000
v -8.801240 -0.000001 -11.838600
v -8.801240 0.368613 -12.200000
v -7.587420 -0.000001 -11.838600
v -7.587420 0.368613 -12.200000
v -7.587420 -0.368615 -12.200000
v -8.801240 -0.368615 -12.200000
v -8.801240 -0.000001 -12.561400
v -7.587420 -0.000001 -12.561400
v -6.510650 -0.000001 -11.838600
v -6.510650 0.368613 -12.200000
v -5.433890 0.000000 -11.838600
v -5.433890 0.368613 -12.200000
v -5.433890 -0.368615 -12.200000
v -6.510650 -0.368615 -12.200000
v -6.510650 -0.000001 -12.561400
v -5.433890 -0.000001 -12.561400
v -4.357120 0.000000 -11.838600
v -4.357120 0.368614 -12.200000
v -3.259030 0.000000 -11.838600
v -3.259030 0.368614 -12.200000
v -3.259030 -0.368614 -12.200000
v -4.357120 -0.368614 -12.200000
v -4.357120 -0.000001 -12.561400
v -3.259030 0.000000 -12.561400
v -2.159860 0.000000 -11.838600
v -2.159860 0.368614 -12.200000
v -2.159860 -0.368614 -12.200000
v -2.159860 0.000000 -12.561400
v -1.302930 0.000000 -11.838600
v -1.366620 0.368614 -12.200000
v -1.489090 0.000000 -12.561400
v -1.366620 -0.368614 -12.200000
v 13.686900 0.381779 -12.200000
v 13.686900 0.000000 -11.825700
v 13.897800 0.000000 -12.200000
v 13.686900 0.000000 -12.574300
v 13.686900 -0.381779 -12.200000
v 13.236200 0.522277 -12.200000
v 13.236200 0.000000 -11.687900
v 13.236200 0.000000 -12.712100
v 13.236200 -0.522277 -12.200000
v 12.267600 0.492923 -12.200000
v 12.267600 0.000000 -11.716700
v 12.267600 0.000000 -12.683300
v 12.267600 -0.492923 -12.200000
v 11.190300 0.455026 -12.200000
v 11.190300 0.000000 -11.753900
v 11.190300 0.000000 -12.646200
v 11.190300 -0.455026 -12.200000
v 10.028300 0.400228 -12.200000
v 10.028300 0.000000 -11.807600
v 10.028300 0.000000 -12.592400
v 10.028300 -0.400227 -12.200000
v 8.801240 0.368614 -12.200000
v 8.801240 0.000000 -11.838600
v 7.587420 0.368614 -12.200000
v 7.587420 0.000000 -11.838600
v 7.587420 -0.368614 -12.200000
v 8.801240 -0.368614 -12.200000
v 8.801240 0.000000 -12.561400
v 7.587420 0.000000 -12.561400
v 6.510650 0.368614 -12.200000
v 6.510650 0.000000 -11.838600
v 5.433890 0.368614 -12.200000
v 5.433890 0.000000 -11.838600
v 5.433890 -0.368614 -12.200000
v 6.510650 -0.368614 -12.200000
v 6.510650 0.000000 -12.561400
v 5.433890 0.000000 -12.561400
v 4.357120 0.368614 -12.200000
v 4.357120 0.000000 -11.838600
v 3.259030 0.368614 -12.200000
v 3.259030 0.000000 -11.838600
v 3.259030 -0.368614 -12.200000
v 4.357120 -0.368614 -12.200000
v 4.357120 0.000000 -12.561400
v 3.259030 0.000000 -12.561400
v 2.159860 0.368614 -12.200000
v 2.159860 0.000000 -11.838600
v 2.159860 -0.368614 -12.200000
v 2.159860 0.000000 -12.561400
v 1.366620 0.368614 -12.200000
v 1.302930 0.000000 -11.838600
v 1.489090 0.000000 -12.561400
v 1.366620 -0.368614 -12.200000
v 13.886900 0.381779 -13.000000
v 13.886900 0.000000 -12.625700
v 14.097800 0.000000 -13.000000
v 13.886900 0.000000 -13.374300
v 13.886900 -0.381779 -13.000000
v 13.436200 0.522277 -13.000000
v 13.436200 0.000000 -12.487900
v 12.467600 0.492923 -13.000000
v 12.467600 0.000000 -12.516700
v 13.436200 0.000000 -13.512100
v 12.467600 0.000000 -13.483300
v 12.467600 -0.492923 -13.000000
v 13.436200 -0.522277 -13.000000
v 11.390300 0.455026 -13.000000
v 11.390300 0.000000 -12.553900
v 11.390300 0.000000 -13.446200
v 11.390300 -0.455026 -13.000000
v 10.228300 0.400228 -13.000000
v 10.228300 0.000000 -12.607600
v 10.228300 0.000000 -13.392400
v 10.228300 -0.400227 -13.000000
v 9.001240 0.368614 -13.000000
v 9.001240 0.000000 -12.638600
v 7.787420 0.368614 -13.000000
v 7.787420 0.000000 -12.638600
v 7.787420 -0.368614 -13.000000
v 9.001240 -0.368614 -13.000000
v 9.001240 0.000000 -13.361400
v 7.787420 0.000000 -13.361400
v 6.710650 0.368614 -13.000000
v 6.710650 0.000000 -12.638600
v 5.633890 0.368614 -13.000000
v 5.633890 0.000000 -12.638600
v 5.633890 -0.368614 -13.000000
v 6.710650 -0.368614 -13.000000
v 6.710650 0.000000 -13.361400
v 5.633890 0.000000 -13.361400
v 4.557120 0.368614 -13.000000
v 4.557120 0.000000 -12.638600
v 3.459030 0.368614 -13.000000
v 3.459030 0.000000 -12.638600
v 3.459030 -0.368614 -13.000000
v 4.557120 -0.368614 -13.000000
v 4.557120 0.000000 -13.361400
v 3.459030 0.000000 -13.361400
v 2.359860 0.377756 -13.000000
v 2.359860 0.000000 -12.629600
v 2.359860 -0.377756 -13.000000
v 2.359860 0.000000 -13.370400
v 1.476820 0.456898 -13.000000
v 1.526820 0.000000 -12.552000
v 1.526820 -0.456898 -13.000000
v 1.526820 0.000000 -13.448000
vt 2.392000 -0.608196
vt 1.892000 -0.523711
vt 1.892000 -0.608196
vt 2.372780 -0.523711
vt 1.392000 -0.608196
vt 1.411220 -0.523711
vt 1.892000 -0.416001
vt 2.298410 -0.416001
vt 1.485590 -0.416001
vt 1.892000 -0.315599
vt 2.250150 -0.315599
vt 1.533850 -0.315599
vt 1.892000 -0.225222
vt 2.250150 -0.225222
vt 1.533850 -0.225222
vt 1.892000 -0.135824
vt 2.250150 -0.135824
vt 1.533850 -0.135824
vt 1.892000 -0.056520
vt 2.250150 -0.056520
vt 1.533850 -0.056520
vt 1.892000 0.022784
vt 2.250150 0.022784
vt 1.533850 0.022784
vt 1.892000 0.102088
vt 2.250150 0.102088
vt 1.533850 0.102088
vt 1.892000 0.181392
vt 2.250150 0.181392
vt 1.533850 0.181392
vt 1.892000 0.260696
vt 2.250150 0.260696
vt 1.533850 0.260696
vt 1.892000 -0.643485
vt 2.306000 -0.643485
vt 1.892000 -0.660000
vt 1.478000 -0.643485
vt 1.892000 0.340000
vt 2.250150 0.340000
vt 1.533850 0.340000
vt -0.142754 0.172558
vt -0.475604 0.256707
vt -0.475604 0.172558
vt -0.194243 0.256707
vt -0.808454 0.172558
vt -0.756965 0.256707
vt -0.475604 0.335145
vt -0.227652 0.335145
vt -0.723556 0.335145
vt -0.475604 0.405752
vt -0.227652 0.405752
vt -0.723556 0.405752
vt -0.475604 0.475594
vt -0.227652 0.475594
vt -0.723556 0.475594
vt -0.475604 0.537551
vt -0.227652 0.537551
vt -0.723556 0.537551
vt -0.475604 0.599507
vt -0.227652 0.599507
vt -0.723556 0.599507
vt -0.475604 0.661463
vt -0.227652 0.661463
vt -0.723556 0.661463
vt -0.475604 0.723420
vt -0.227652 0.723420
vt -0.723556 0.723420
vt -0.475604 0.785376
vt -0.227652 0.785376
vt -0.723556 0.785376
vt -0.475604 0.847332
vt -0.227652 0.847332
vt -0.723556 0.847332
vt -0.129450 0.106554
vt -0.475604 0.106554
vt -0.475604 0.078985
vt -0.821758 0.106554
vt -0.762219 0.078985
vt -0.475604 0.066082
vt -0.188989 0.078985
usemtl mat_0
s 1
f 8/1 11/2 9/3
f 8/1 10/4 11/2
f 7/3 10/4 8/1
f 7/3 13/2 10/4
f 6/5 13/2 7/3
f 6/5 12/6 13/2
f 9/3 12/6 6/5
f 9/3 11/2 12/6
f 10/4 24/7 11/2
f 10/4 23/8 24/7
f 13/2 23/8 10/4
f 13/2 26/7 23/8
f 12/6 26/7 13/2
f 12/6 25/9 26/7
f 11/2 25/9 12/6
f 11/2 24/7 25/9
f 23/8 28/10 24/7
f 23/8 27/11 28/10
f 26/7 27/11 23/8
f 26/7 30/10 27/11
f 25/9 30/10 26/7
f 25/9 29/12 30/10
f 24/7 29/12 25/9
f 24/7 28/10 29/12
f 27/11 32/13 28/10
f 27/11 31/14 32/13
f 30/10 31/14 27/11
f 30/10 36/13 31/14
f 29/12 36/13 30/10
f 29/12 37/15 36/13
f 28/10 37/15 29/12
f 28/10 32/13 37/15
f 31/14 34/16 32/13
f 31/14 33/17 34/16
f 36/13 33/17 31/14
f 36/13 35/16 33/17
f 37/15 35/16 36/13
f 37/15 38/18 35/16
f 32/13 38/18 37/15
f 32/13 34/16 38/18
f 33/17 40/19 34/16
f 33/17 39/20 40/19
f 35/16 39/20 33/17
f 35/16 44/19 39/20
f 38/18 44/19 35/16
f 38/18 45/21 44/19
f 34/16 45/21 38/18
f 34/16 40/19 45/21
f 39/20 42/22 40/19
f 39/20 41/23 42/22
f 44/19 41/23 39/20
f 44/19 43/22 41/23
f 45/21 43/22 44/19
f 45/21 46/24 43/22
f 40/19 46/24 45/21
f 40/19 42/22 46/24
f 41/23 48/25 42/22
f 41/23 47/26 48/25
f 43/22 47/26 41/23
f 43/22 52/25 47/26
f 46/24 52/25 43/22
f 46/24 53/27 52/25
f 42/22 53/27 46/24
f 42/22 48/25 53/27
f 47/26 50/28 48/25
f 47/26 49/29 50/28
f 52/25 49/29 47/26
f 52/25 51/28 49/29
f 53/27 51/28 52/25
f 53/27 54/30 51/28
f 48/25 54/30 53/27
f 48/25 50/28 54/30
f 49/29 56/31 50/28
f 49/29 55/32 56/31
f 51/28 55/32 49/29
f 51/28 57/31 55/32
f 54/30 57/31 51/28
f 54/30 58/33 57/31
f 50/28 58/33 54/30
f 50/28 56/31 58/33
f 168/4 165/3 167/2
f 168/4 166/1 165/3
f 171/2 166/1 168/4
f 171/2 172/3 166/1
f 170/6 172/3 171/2
f 170/6 169/5 172/3
f 167/2 169/5 170/6
f 167/2 165/3 169/5
f 177/10 174/8 173/7
f 177/10 178/11 174/8
f 181/13 178/11 177/10
f 181/13 182/14 178/11
f 183/16 182/14 181/13
f 183/16 184/17 182/14
f 189/19 184/17 183/16
f 189/19 190/20 184/17
f 191/22 190/20 189/19
f 191/22 192/23 190/20
f 197/25 192/23 191/22
f 197/25 198/26 192/23
f 199/28 198/26 197/25
f 199/28 200/29 198/26
f 205/31 200/29 199/28
f 205/31 206/32 200/29
f 207/31 200/29 206/32
f 207/31 201/28 200/29
f 208/33 201/28 207/31
f 208/33 204/30 201/28
f 205/31 204/30 208/33
f 205/31 199/28 204/30
f 201/28 198/26 200/29
f 201/28 202/25 198/26
f 204/30 202/25 201/28
f 204/30 203/27 202/25
f 199/28 203/27 204/30
f 199/28 197/25 203/27
f 202/25 192/23 198/26
f 202/25 193/22 192/23
f 203/27 193/22 202/25
f 203/27 196/24 193/22
f 197/25 196/24 203/27
f 197/25 191/22 196/24
f 193/22 190/20 192/23
f 193/22 194/19 190/20
f 196/24 194/19 193/22
f 196/24 195/21 194/19
f 191/22 195/21 196/24
f 191/22 189/19 195/21
f 194/19 184/17 190/20
f 194/19 185/16 184/17
f 195/21 185/16 194/19
f 195/21 188/18 185/16
f 189/19 188/18 195/21
f 189/19 183/16 188/18
f 185/16 182/14 184/17
f 185/16 186/13 182/14
f 188/18 186/13 185/16
f 188/18 187/15 186/13
f 183/16 187/15 188/18
f 183/16 181/13 187/15
f 179/12 173/7 175/9
f 179/12 177/10 173/7
f 187/15 177/10 179/12
f 187/15 181/13 177/10
f 186/13 178/11 182/14
f 186/13 180/10 178/11
f 187/15 180/10 186/13
f 187/15 179/12 180/10
f 180/10 174/8 178/11
f 180/10 176/7 174/8
f 179/12 176/7 180/10
f 179/12 175/9 176/7
f 8/1 1/34 7/3
f 4/1 1/35 8/34
f 3/34 4/35 8/1
f 3/34 5/36 4/35
f 2/37 5/36 3/34
f 2/37 1/34 5/36
f 6/5 1/34 2/37
f 7/5 1/3 6/34
f 5/36 1/34 4/35
f 3/34 6/5 2/37
f 3/34 9/3 6/5
f 8/1 9/3 3/34
f 55/32 59/38 56/31
f 55/32 61/39 59/38
f 60/38 61/39 55/32
f 55/32 57/31 60/38
f 58/33 60/38 57/31
f 58/33 62/40 60/38
f 56/31 62/40 58/33
f 56/31 59/38 62/40
f 166/1 160/34 165/3
f 166/1 161/35 160/34
f 164/34 161/35 166/1
f 164/34 162/36 161/35
f 163/37 162/36 164/34
f 163/37 160/34 162/36
f 169/5 160/34 163/37
f 169/5 165/3 160/34
f 160/34 161/35 162/36
f 164/34 169/5 163/37
f 164/34 172/3 169/5
f 166/1 172/3 164/34
f 174/8 167/2 173/7
f 174/8 168/4 167/2
f 171/2 168/4 174/8
f 174/8 176/7 171/2
f 175/9 171/2 176/7
f 175/9 170/6 171/2
f 167/2 170/6 175/9
f 175/9 173/7 167/2
f 205/31 209/38 206/32
f 205/31 212/40 209/38
f 208/33 212/40 205/31
f 208/33 211/38 212/40
f 207/31 211/38 208/33
f 207/31 206/32 211/38
f 210/39 211/38 206/32
f 206/32 209/38 210/39
usemtl mat_1
f 64/41 68/42 63/43
f 64/41 67/44 68/42
f 66/43 67/44 64/41
f 66/43 70/42 67/44
f 65/45 70/42 66/43
f 65/45 69/46 70/42
f 63/43 69/46 65/45
f 63/43 68/42 69/46
f 67/44 72/47 68/42
f 67/44 71/48 72/47
f 70/42 71/48 67/44
f 70/42 74/47 71/48
f 69/46 74/47 70/42
f 69/46 73/49 74/47
f 68/42 73/49 69/46
f 68/42 72/47 73/49
f 71/48 76/50 72/47
f 71/48 75/51 76/50
f 74/47 75/51 71/48
f 74/47 80/50 75/51
f 73/49 80/50 74/47
f 73/49 81/52 80/50
f 72/47 81/52 73/49
f 72/47 76/50 81/52
f 75/51 78/53 76/50
f 75/51 77/54 78/53
f 80/50 77/54 75/51
f 80/50 79/53 77/54
f 81/52 79/53 80/50
f 81/52 82/55 79/53
f 76/50 82/55 81/52
f 76/50 78/53 82/55
f 77/54 84/56 78/53
f 77/54 83/57 84/56
f 79/53 83/57 77/54
f 79/53 88/56 83/57
f 82/55 88/56 79/53
f 82/55 89/58 88/56
f 78/53 89/58 82/55
f 78/53 84/56 89/58
f 83/57 86/59 84/56
f 83/57 85/60 86/59
f 88/56 85/60 83/57
f 88/56 87/59 85/60
f 89/58 87/59 88/56
f 89/58 90/61 87/59
f 84/56 90/61 89/58
f 84/56 86/59 90/61
f 85/60 92/62 86/59
f 85/60 91/63 92/62
f 87/59 91/63 85/60
f 87/59 96/62 91/63
f 90/61 96/62 87/59
f 90/61 97/64 96/62
f 86/59 97/64 90/61
f 86/59 92/62 97/64
f 91/63 94/65 92/62
f 91/63 93/66 94/65
f 96/62 93/66 91/63
f 96/62 95/65 93/66
f 97/64 95/65 96/62
f 97/64 98/67 95/65
f 92/62 98/67 97/64
f 92/62 94/65 98/67
f 93/66 100/68 94/65
f 93/66 99/69 100/68
f 95/65 99/69 93/66
f 95/65 101/68 99/69
f 98/67 101/68 95/65
f 98/67 102/70 101/68
f 94/65 102/70 98/67
f 94/65 100/68 102/70
f 120/42 117/41 116/43
f 120/42 121/44 117/41
f 124/47 121/44 120/42
f 124/47 125/48 121/44
f 128/50 125/48 124/47
f 128/50 129/51 125/48
f 130/53 129/51 128/50
f 130/53 131/54 129/51
f 136/56 131/54 130/53
f 136/56 137/57 131/54
f 138/59 137/57 136/56
f 138/59 139/60 137/57
f 144/62 139/60 138/59
f 144/62 145/63 139/60
f 146/65 145/63 144/62
f 146/65 147/66 145/63
f 152/68 147/66 146/65
f 152/68 153/69 147/66
f 154/68 147/66 153/69
f 154/68 148/65 147/66
f 155/70 148/65 154/68
f 155/70 151/67 148/65
f 152/68 151/67 155/70
f 152/68 146/65 151/67
f 148/65 145/63 147/66
f 148/65 149/62 145/63
f 151/67 149/62 148/65
f 151/67 150/64 149/62
f 146/65 150/64 151/67
f 146/65 144/62 150/64
f 149/62 139/60 145/63
f 149/62 140/59 139/60
f 150/64 140/59 149/62
f 150/64 143/61 140/59
f 144/62 143/61 150/64
f 144/62 138/59 143/61
f 140/59 137/57 139/60
f 140/59 141/56 137/57
f 143/61 141/56 140/59
f 143/61 142/58 141/56
f 138/59 142/58 143/61
f 138/59 136/56 142/58
f 141/56 131/54 137/57
f 141/56 132/53 131/54
f 142/58 132/53 141/56
f 142/58 135/55 132/53
f 136/56 135/55 142/58
f 136/56 130/53 135/55
f 132/53 129/51 131/54
f 132/53 133/50 129/51
f 135/55 133/50 132/53
f 135/55 134/52 133/50
f 130/53 134/52 135/55
f 130/53 128/50 134/52
f 122/46 116/43 118/45
f 122/46 120/42 116/43
f 126/49 120/42 122/46
f 126/49 124/47 120/42
f 134/52 124/47 126/49
f 134/52 128/50 124/47
f 133/50 125/48 129/51
f 133/50 127/47 125/48
f 134/52 127/47 133/50
f 134/52 126/49 127/47
f 127/47 121/44 125/48
f 127/47 123/42 121/44
f 126/49 123/42 127/47
f 126/49 122/46 123/42
f 123/42 117/41 121/44
f 123/42 119/43 117/41
f 122/46 119/43 123/42
f 122/46 118/45 119/43
f 104/71 100/68 103/72
f 104/71 105/73 100/68
f 102/70 100/68 105/73
f 105/73 106/71 102/70
f 101/68 102/70 106/71
f 106/71 103/72 101/68
f 99/69 101/68 103/72
f 103/72 100/68 99/69
f 157/72 152/68 156/71
f 157/72 153/69 152/68
f 154/68 153/69 157/72
f 157/72 159/71 154/68
f 155/70 154/68 159/71
f 159/71 158/73 155/70
f 152/68 155/70 158/73
f 158/73 156/71 152/68
f 113/74 116/43 117/41
f 113/74 112/75 116/43
f 107/76 112/75 113/74
f 107/76 114/77 112/75
f 110/78 114/77 107/76
f 110/78 111/76 114/77
f 109/79 111/76 110/78
f 109/79 108/80 111/76
f 107/76 108/80 109/79
f 107/76 113/74 108/80
f 111/76 108/80 113/74
f 113/74 115/75 111/76
f 117/41 115/75 113/74
f 117/41 119/43 115/75
f 114/77 115/75 119/43
f 114/77 111/76 115/75
f 110/78 107/76 109/79
f 112/75 118/45 116/43
f 112/75 114/77 118/45
f 119/43 118/45 114/77
f 63/43 21/74 64/41
f 63/43 22/75 21/74
f 65/45 22/75 63/43
f 65/45 19/77 22/75
f 66/43 19/77 65/45
f 66/43 20/75 19/77
f 64/41 20/75 66/43
f 64/41 21/74 20/75
f 14/76 20/75 21/74
f 14/76 19/77 20/75
f 15/78 19/77 14/76
f 15/78 18/76 19/77
f 16/79 18/76 15/78
f 16/79 17/80 18/76
f 14/76 17/80 16/79
f 14/76 21/74 17/80
f 18/76 17/80 21/74
f 21/74 22/75 18/76
f 19/77 18/76 22/75
f 16/79 15/78 14/76
