# Blender v2.66 (sub 1) OBJ File: 'BR_Seedot.blend'
# www.blender.org
mtllib BR_Seedot.mtl
o taneboh
v 0.514045 0.607020 -0.486221
v 0.450400 0.607020 -0.351555
v 0.783648 0.756445 -0.351555
v 0.680669 0.607020 -0.569449
v 0.886628 0.607020 -0.569449
v 1.053250 0.607020 -0.486221
v 1.116900 0.607020 -0.351555
v 1.053250 0.607020 -0.216888
v 0.886628 0.607020 -0.133660
v 0.680669 0.607020 -0.133660
v 0.514045 0.607020 -0.216888
v 0.347421 0.215820 -0.569449
v 0.244442 0.215820 -0.351555
v 0.617024 0.215820 -0.704116
v 0.950272 0.215820 -0.704116
v 1.219880 0.215820 -0.569449
v 1.322860 0.215820 -0.351555
v 1.219880 0.215820 -0.133660
v 0.950272 0.215820 0.001006
v 0.617024 0.215820 0.001006
v 0.347421 0.215820 -0.133660
v 0.347421 -0.267729 -0.569449
v 0.244442 -0.267729 -0.351555
v 0.617024 -0.267729 -0.704116
v 0.950272 -0.267729 -0.704116
v 1.219880 -0.267729 -0.569449
v 1.322860 -0.267729 -0.351555
v 1.219880 -0.267729 -0.133660
v 0.950272 -0.267729 0.001006
v 0.617024 -0.267729 0.001006
v 0.347421 -0.267729 -0.133660
v 0.514045 -0.658929 -0.486221
v 0.450400 -0.658929 -0.351555
v 0.680669 -0.658929 -0.569449
v 0.886628 -0.658929 -0.569449
v 1.053250 -0.658929 -0.486221
v 1.116900 -0.658929 -0.351555
v 1.053250 -0.658929 -0.216888
v 0.886628 -0.658929 -0.133660
v 0.680669 -0.658929 -0.133660
v 0.514045 -0.658929 -0.216888
v 0.783648 -0.808354 -0.351555
v -0.450400 0.607020 -0.351555
v -0.514045 0.607020 -0.486221
v -0.783648 0.756445 -0.351555
v -0.680669 0.607020 -0.569449
v -0.886628 0.607020 -0.569449
v -1.053250 0.607020 -0.486221
v -1.116900 0.607020 -0.351555
v -1.053250 0.607020 -0.216888
v -0.886628 0.607020 -0.133660
v -0.680669 0.607020 -0.133660
v -0.514045 0.607020 -0.216888
v -0.347421 0.215820 -0.569449
v -0.244442 0.215820 -0.351555
v -0.617024 0.215820 -0.704116
v -0.950272 0.215820 -0.704116
v -1.219880 0.215820 -0.569449
v -1.322860 0.215820 -0.351555
v -1.219880 0.215820 -0.133660
v -0.950272 0.215820 0.001006
v -0.617024 0.215820 0.001006
v -0.347421 0.215820 -0.133660
v -0.347421 -0.267729 -0.569449
v -0.244442 -0.267729 -0.351555
v -0.617024 -0.267729 -0.704116
v -0.950272 -0.267729 -0.704116
v -1.219880 -0.267729 -0.569449
v -1.322860 -0.267729 -0.351555
v -1.219880 -0.267729 -0.133660
v -0.950272 -0.267729 0.001006
v -0.617024 -0.267729 0.001006
v -0.347421 -0.267729 -0.133660
v -0.514045 -0.658929 -0.486221
v -0.450400 -0.658929 -0.351555
v -0.680669 -0.658929 -0.569449
v -0.886628 -0.658929 -0.569449
v -1.053250 -0.658929 -0.486221
v -1.116900 -0.658929 -0.351555
v -1.053250 -0.658929 -0.216888
v -0.886628 -0.658929 -0.133660
v -0.680669 -0.658929 -0.133660
v -0.514045 -0.658929 -0.216888
v -0.783648 -0.808354 -0.351555
v -0.100824 0.243411 -4.972310
v -0.100824 0.243411 -4.972310
v 0.100824 0.243411 -4.972310
v 0.100824 0.243411 -4.972310
v 0.243411 0.100824 -4.972310
v 0.243411 0.100824 -4.972310
v 0.243411 -0.100824 -4.972310
v 0.243411 -0.100824 -4.972310
v 0.100824 -0.243411 -4.972310
v 0.100824 -0.243411 -4.972310
v -0.100824 -0.243411 -4.972310
v -0.100824 -0.243411 -4.972310
v -0.243411 -0.100824 -4.972310
v -0.243411 -0.100824 -4.972310
v -0.243411 0.100824 -4.972310
v -0.243411 0.100824 -4.972310
v -0.074102 0.178899 -4.319170
v 0.074102 0.178899 -4.319170
v 0.000000 0.659180 -4.164400
v 0.000000 1.160010 -3.826440
v 0.443915 1.071710 -3.826440
v 0.000000 1.554830 -3.109870
v 0.000000 1.554830 -3.109870
v 0.595009 1.436480 -3.109870
v 0.595009 1.436480 -3.109870
v 0.000000 1.762820 -2.603770
v 0.674600 1.628630 -2.603770
v 0.000000 1.679710 -3.175040
v 0.642797 1.551850 -3.175040
v 0.000000 1.760090 -3.098300
v 0.673556 1.626110 -3.098300
v 0.000000 1.863380 -2.852170
v 0.713085 1.721540 -2.852170
v 0.178899 0.074102 -4.319170
v 0.820248 0.820248 -3.826440
v 0.466111 0.466111 -4.164400
v 1.099430 1.099430 -3.109870
v 1.099430 1.099430 -3.109870
v 1.246500 1.246500 -2.603770
v 1.187730 1.187730 -3.175040
v 1.244570 1.244570 -3.098300
v 1.317610 1.317610 -2.852170
v 1.071710 0.443915 -3.826440
v 1.436480 0.595009 -3.109870
v 1.436480 0.595009 -3.109870
v 1.628630 0.674600 -2.603770
v 1.551850 0.642797 -3.175040
v 1.626110 0.673556 -3.098300
v 1.721540 0.713085 -2.852170
v 0.178899 -0.074102 -4.319170
v 1.160010 0.000000 -3.826440
v 0.659180 0.000000 -4.164400
v 1.554830 0.000000 -3.109870
v 1.554830 0.000000 -3.109870
v 1.762820 0.000000 -2.603770
v 1.679710 0.000000 -3.175040
v 1.760090 0.000000 -3.098300
v 1.863380 0.000000 -2.852170
v 0.466111 -0.466111 -4.164400
v 0.137759 -0.332579 -4.280140
v 0.332332 -0.137932 -4.280850
v 1.071710 -0.443915 -3.826440
v 1.436480 -0.595009 -3.109870
v 1.436480 -0.595009 -3.109870
v 1.628630 -0.674600 -2.603770
v 1.551850 -0.642797 -3.175040
v 1.626110 -0.673556 -3.098300
v 1.721540 -0.713085 -2.852170
v 0.074102 -0.178899 -4.319170
v 0.820248 -0.820248 -3.826440
v 1.099430 -1.099430 -3.109870
v 1.099430 -1.099430 -3.109870
v 1.246500 -1.246500 -2.603770
v 1.187730 -1.187730 -3.175040
v 1.244570 -1.244570 -3.098300
v 1.317610 -1.317610 -2.852170
v 0.443915 -1.071710 -3.826440
v 0.595009 -1.436480 -3.109870
v 0.595009 -1.436480 -3.109870
v 0.674600 -1.628630 -2.603770
v 0.642797 -1.551850 -3.175040
v 0.673556 -1.626110 -3.098300
v 0.713085 -1.721540 -2.852170
v -0.074102 -0.178899 -4.319170
v 0.000000 -1.160010 -3.826440
v 0.000000 -0.659180 -4.164400
v 0.000000 -1.554830 -3.109870
v 0.000000 -1.554830 -3.109870
v 0.000000 -1.762820 -2.603770
v 0.000000 -1.679710 -3.175040
v 0.000000 -1.760090 -3.098300
v 0.000000 -1.863380 -2.852170
v -0.443915 -1.071710 -3.826440
v -0.595009 -1.436480 -3.109870
v -0.595009 -1.436480 -3.109870
v -0.674600 -1.628630 -2.603770
v -0.642797 -1.551850 -3.175040
v -0.673556 -1.626110 -3.098300
v -0.713085 -1.721540 -2.852170
v -0.178899 -0.074102 -4.319170
v -0.820248 -0.820248 -3.826440
v -0.466111 -0.466111 -4.164400
v -1.099430 -1.099430 -3.109870
v -1.099430 -1.099430 -3.109870
v -1.246500 -1.246500 -2.603770
v -1.187730 -1.187730 -3.175040
v -1.244570 -1.244570 -3.098300
v -1.317610 -1.317610 -2.852170
v -1.071710 -0.443915 -3.826440
v -1.436480 -0.595009 -3.109870
v -1.436480 -0.595009 -3.109870
v -1.628630 -0.674600 -2.603770
v -1.551850 -0.642797 -3.175040
v -1.626110 -0.673556 -3.098300
v -1.721540 -0.713085 -2.852170
v -0.178899 0.074102 -4.319170
v -1.160010 0.000000 -3.826440
v -0.659180 0.000000 -4.164400
v -1.554830 0.000000 -3.109870
v -1.554830 0.000000 -3.109870
v -1.762820 0.000000 -2.603770
v -1.679710 0.000000 -3.175040
v -1.760090 0.000000 -3.098300
v -1.863380 0.000000 -2.852170
v -0.332579 -0.137759 -4.280140
v -1.071710 0.443915 -3.826440
v -1.436480 0.595009 -3.109870
v -1.436480 0.595009 -3.109870
v -1.628630 0.674600 -2.603770
v -1.551850 0.642797 -3.175040
v -1.626110 0.673556 -3.098300
v -1.721540 0.713085 -2.852170
v -0.820248 0.820248 -3.826440
v -0.466111 0.466111 -4.164400
v -1.099430 1.099430 -3.109870
v -1.099430 1.099430 -3.109870
v -1.246500 1.246500 -2.603770
v -1.187730 1.187730 -3.175040
v -1.244570 1.244570 -3.098300
v -1.317610 1.317610 -2.852170
v -0.443915 1.071710 -3.826440
v -0.595009 1.436480 -3.109870
v -0.595009 1.436480 -3.109870
v -0.674600 1.628630 -2.603770
v -0.642797 1.551850 -3.175040
v -0.673556 1.626110 -3.098300
v -0.713085 1.721540 -2.852170
v -0.137759 0.332579 -4.280140
v 0.332579 0.137759 -4.280140
v 0.137932 0.332998 -4.280850
v -0.332332 0.137932 -4.280850
v -0.137932 -0.332998 -4.280850
v 0.000000 1.590590 -1.766560
v 0.608691 1.469510 -1.766560
v 0.632792 1.527700 -2.565340
v 0.632792 1.527700 -2.565340
v 0.000000 1.339040 -1.113960
v 0.512427 1.237110 -1.113960
v 0.000000 0.808603 -0.660185
v 0.309439 0.747051 -0.660185
v 0.000000 0.329362 -0.493209
v 0.126041 0.304291 -0.493209
v 0.000000 0.187555 -0.311157
v 0.071774 0.173278 -0.311157
v 0.000000 0.081788 -0.184735
v 0.031299 0.075562 -0.184735
v 0.000000 0.000000 -0.153157
v 0.000000 1.653570 -2.565340
v 0.000000 1.653570 -2.565340
v 1.124710 1.124710 -1.766560
v 1.169250 1.169250 -2.565340
v 1.169250 1.169250 -2.565340
v 0.946842 0.946842 -1.113960
v 0.571768 0.571768 -0.660185
v 0.232894 0.232894 -0.493209
v 0.132622 0.132622 -0.311157
v 0.057833 0.057833 -0.184735
v 1.469510 0.608691 -1.766560
v 1.527700 0.632792 -2.565340
v 1.527700 0.632792 -2.565340
v 1.237110 0.512427 -1.113960
v 0.747051 0.309439 -0.660185
v 0.304291 0.126041 -0.493209
v 0.173278 0.071774 -0.311157
v 0.075562 0.031299 -0.184735
v 1.590590 0.000000 -1.766560
v 1.653570 0.000000 -2.565340
v 1.653570 0.000000 -2.565340
v 1.339040 0.000000 -1.113960
v 0.808603 0.000000 -0.660185
v 0.329362 0.000000 -0.493209
v 0.187555 0.000000 -0.311157
v 0.081788 0.000000 -0.184735
v 1.469510 -0.608691 -1.766560
v 1.527700 -0.632792 -2.565340
v 1.527700 -0.632792 -2.565340
v 1.237110 -0.512427 -1.113960
v 0.747051 -0.309439 -0.660185
v 0.304291 -0.126041 -0.493209
v 0.173278 -0.071774 -0.311157
v 0.075562 -0.031299 -0.184735
v 1.124710 -1.124710 -1.766560
v 1.169250 -1.169250 -2.565340
v 1.169250 -1.169250 -2.565340
v 0.946842 -0.946842 -1.113960
v 0.571768 -0.571768 -0.660185
v 0.232894 -0.232894 -0.493209
v 0.132622 -0.132622 -0.311157
v 0.057833 -0.057833 -0.184735
v 0.608691 -1.469510 -1.766560
v 0.632792 -1.527700 -2.565340
v 0.632792 -1.527700 -2.565340
v 0.512427 -1.237110 -1.113960
v 0.309439 -0.747051 -0.660185
v 0.126041 -0.304291 -0.493209
v 0.071774 -0.173278 -0.311157
v 0.031299 -0.075562 -0.184735
v 0.000000 -1.590590 -1.766560
v 0.000000 -1.653570 -2.565340
v 0.000000 -1.653570 -2.565340
v 0.000000 -1.339040 -1.113960
v 0.000000 -0.808603 -0.660185
v 0.000000 -0.329257 -0.493209
v 0.000000 -0.187555 -0.311157
v 0.000000 -0.081788 -0.184735
v -0.608691 -1.469510 -1.766560
v -0.632792 -1.527700 -2.565340
v -0.632792 -1.527700 -2.565340
v -0.512427 -1.237110 -1.113960
v -0.309439 -0.747051 -0.660185
v -0.126041 -0.304291 -0.493209
v -0.071774 -0.173278 -0.311157
v -0.031299 -0.075562 -0.184735
v -1.124710 -1.124710 -1.766560
v -1.169250 -1.169250 -2.565340
v -1.169250 -1.169250 -2.565340
v -0.946842 -0.946842 -1.113960
v -0.571768 -0.571768 -0.660185
v -0.232894 -0.232894 -0.493209
v -0.132622 -0.132622 -0.311157
v -0.057833 -0.057833 -0.184735
v -1.469510 -0.608691 -1.766560
v -1.527700 -0.632792 -2.565340
v -1.527700 -0.632792 -2.565340
v -1.237110 -0.512427 -1.113960
v -0.747051 -0.309439 -0.660185
v -0.304291 -0.126041 -0.493209
v -0.173278 -0.071774 -0.311157
v -0.075562 -0.031299 -0.184735
v -1.590590 0.000000 -1.766560
v -1.653570 0.000000 -2.565340
v -1.653570 0.000000 -2.565340
v -1.339040 0.000000 -1.113960
v -0.808603 0.000000 -0.660185
v -0.329362 0.000000 -0.493209
v -0.187555 0.000000 -0.311157
v -0.081788 0.000000 -0.184735
v -1.469510 0.608691 -1.766560
v -1.527700 0.632792 -2.565340
v -1.527700 0.632792 -2.565340
v -1.237110 0.512427 -1.113960
v -0.747051 0.309439 -0.660185
v -0.304291 0.126041 -0.493209
v -0.173278 0.071774 -0.311157
v -0.075562 0.031299 -0.184735
v -1.124710 1.124710 -1.766560
v -0.946842 0.946842 -1.113960
v -0.571768 0.571768 -0.660185
v -0.232894 0.232894 -0.493209
v -0.132622 0.132622 -0.311157
v -0.057833 0.057833 -0.184735
v -1.169250 1.169250 -2.565340
v -1.169250 1.169250 -2.565340
v -0.608691 1.469510 -1.766560
v -0.512427 1.237110 -1.113960
v -0.309439 0.747051 -0.660185
v -0.126041 0.304291 -0.493209
v -0.071774 0.173278 -0.311157
v -0.031299 0.075562 -0.184735
v -0.632792 1.527700 -2.565340
v -0.632792 1.527700 -2.565340
vt 0.575267 0.134225
vt 0.500000 0.222768
vt 0.500000 0.134225
vt 0.624642 0.222768
vt 0.639076 0.134225
vt 0.730308 0.222768
vt 0.681711 0.134225
vt 0.800912 0.222768
vt 0.696683 0.134225
vt 0.825704 0.222768
vt 0.424733 0.134225
vt 0.375358 0.222768
vt 0.360924 0.134225
vt 0.269692 0.222768
vt 0.318289 0.134225
vt 0.199088 0.222768
vt 0.303317 0.134225
vt 0.174296 0.222768
vt 0.532130 0.105133
vt 0.500000 0.105133
vt 0.559368 0.105133
vt 0.577568 0.105133
vt 0.583959 0.105133
vt 0.467870 0.105133
vt 0.440632 0.105133
vt 0.422432 0.105133
vt 0.416041 0.105133
vt 0.518296 0.066401
vt 0.500000 0.066401
vt 0.533807 0.066401
vt 0.544171 0.066401
vt 0.547810 0.066401
vt 0.481704 0.066401
vt 0.466193 0.066401
vt 0.455829 0.066401
vt 0.452190 0.066401
vt 0.507978 0.039505
vt 0.500000 0.039505
vt 0.514742 0.039505
vt 0.519262 0.039505
vt 0.520849 0.039505
vt 0.492022 0.039505
vt 0.485258 0.039505
vt 0.480738 0.039505
vt 0.479151 0.039505
vt 0.903011 0.372319
vt 0.889430 0.555658
vt 0.872334 0.372319
vt 0.921516 0.555658
vt 0.784972 0.372319
vt 0.798057 0.555658
vt 0.654226 0.372319
vt 0.661307 0.555658
vt 0.500000 0.372319
vt 0.500000 0.555658
vt 0.345774 0.372319
vt 0.338693 0.555658
vt 0.215028 0.372319
vt 0.201943 0.555658
vt 0.127667 0.372319
vt 0.110570 0.555658
vt 0.096989 0.372319
vt 0.078484 0.555658
vt 0.500000 0.032787
vt 0.518890 0.212421
vt 0.474299 0.343750
vt 0.481110 0.212421
vt 0.525701 0.343750
vt 0.545604 0.212421
vt 0.562049 0.343750
vt 0.454396 0.212421
vt 0.437951 0.343750
vt 0.634012 0.017684
vt 0.500000 0.981510
vt 0.500000 0.017684
vt 0.635040 0.981510
vt 0.747622 0.017684
vt 0.749522 0.981510
vt 0.861394 0.017684
vt 0.864167 0.981510
vt 0.976855 0.017684
vt 0.980514 0.981510
vt 0.365988 0.017684
vt 0.364960 0.981510
vt 0.252378 0.017684
vt 0.250478 0.981510
vt 0.138606 0.017684
vt 0.135833 0.981510
vt 0.023145 0.017684
vt 0.019486 0.981510
vt 0.651225 0.220693
vt 0.500000 0.224344
vt 0.500000 0.220693
vt 0.669702 0.224344
vt 0.779428 0.220693
vt 0.813568 0.224344
vt 0.865090 0.220693
vt 0.909696 0.224344
vt 0.895171 0.220693
vt 0.943452 0.224344
vt 0.348775 0.220693
vt 0.330298 0.224344
vt 0.220572 0.220693
vt 0.186432 0.224344
vt 0.134910 0.220693
vt 0.090304 0.224344
vt 0.104829 0.220693
vt 0.056548 0.224344
vt 0.653616 0.343288
vt 0.500000 0.330184
vt 0.500000 0.343288
vt 0.642196 0.330184
vt 0.783846 0.343288
vt 0.762744 0.330184
vt 0.870863 0.343288
vt 0.843291 0.330184
vt 0.901419 0.343288
vt 0.871575 0.330184
vt 0.346384 0.343288
vt 0.357804 0.330184
vt 0.216154 0.343288
vt 0.237256 0.330184
vt 0.129137 0.343288
vt 0.156709 0.330184
vt 0.098581 0.343288
vt 0.128425 0.330184
vt 0.669439 0.329015
vt 0.500000 0.329015
vt 0.813082 0.329015
vt 0.909062 0.329015
vt 0.942766 0.329015
vt 0.330561 0.329015
vt 0.186918 0.329015
vt 0.090938 0.329015
vt 0.057234 0.329015
vt 0.679383 0.276920
vt 0.500000 0.276920
vt 0.831456 0.276920
vt 0.933068 0.276920
vt 0.968750 0.276920
vt 0.320617 0.276920
vt 0.168544 0.276920
vt 0.066932 0.276920
vt 0.031250 0.276920
vt 0.845982 0.966518
vt 0.729201 0.956617
vt 0.932080 0.956617
vt 0.629210 0.974855
vt 0.500000 0.956617
vt 0.370953 0.974674
vt 0.270613 0.956617
vt 0.154018 0.979911
vt 0.067920 0.956617
vt 0.370791 0.974855
vt 0.629047 0.974674
vt 0.845982 0.968750
vt 0.606771 0.085938
vt 0.492188 0.933180
vt 0.494792 -0.033854
vt 0.721389 0.933180
vt 0.734375 -0.036458
vt 0.856771 0.088542
vt 0.979167 0.937500
vt 0.979167 -0.023438
vt 0.367188 0.088542
vt 0.262801 0.933180
vt 0.250000 -0.028646
vt 0.130208 0.088542
vt 0.015625 0.934896
vt 0.007813 -0.028646
vt 0.518890 0.868671
vt 0.537735 0.860106
vt 0.481110 0.868671
vt 0.545604 0.868671
vt 0.591032 0.860259
vt 0.591100 0.860106
vt 0.537782 0.860259
vt 0.462265 0.860106
vt 0.454396 0.868671
vt 0.408968 0.860259
vt 0.408900 0.860106
vt 0.462218 0.860259
vt 0.183000 0.841682
vt 0.431000 0.706696
vt 0.180000 0.706696
vt 0.431000 0.841682
vt 0.183000 1.000000
vt 0.431000 1.000000
vt 0.717000 0.841682
vt 0.717000 0.706696
vt 0.998890 0.706573
vt 1.000000 0.841682
vt 0.717000 1.000000
vt 1.000000 1.000000
vt 0.965038 0.784955
vt 0.981715 0.510261
vt 0.981715 0.688289
vt 0.965038 0.510261
vt 0.037419 0.784955
vt 0.037419 0.510261
vt 0.020739 0.688289
vt 0.020739 0.510261
vt 0.965038 0.954725
vt 0.981715 0.798317
vt 0.037419 0.954725
vt 0.020739 0.798317
vt 0.965038 0.235566
vt 0.981715 0.332232
vt 0.037419 0.235566
vt 0.020739 0.332232
vt 0.965038 0.065796
vt 0.981715 0.222204
vt 0.037419 0.065796
vt 0.020739 0.222204
vt 1.001370 0.510261
vt 0.001088 0.510261
usemtl mat_0
s 1
f 244/1 241/2 243/3
f 244/1 242/4 241/2
f 258/5 242/4 244/1
f 258/5 257/6 242/4
f 266/7 257/6 258/5
f 266/7 265/8 257/6
f 274/9 265/8 266/7
f 274/9 273/10 265/8
f 282/7 273/10 274/9
f 282/7 281/8 273/10
f 290/5 281/8 282/7
f 290/5 289/6 281/8
f 298/1 289/6 290/5
f 298/1 297/4 289/6
f 306/3 297/4 298/1
f 306/3 305/2 297/4
f 314/11 305/2 306/3
f 314/11 313/12 305/2
f 322/13 313/12 314/11
f 322/13 321/14 313/12
f 330/15 321/14 322/13
f 330/15 329/16 321/14
f 338/17 329/16 330/15
f 338/17 337/18 329/16
f 346/15 337/18 338/17
f 346/15 345/16 337/18
f 352/13 345/16 346/15
f 352/13 351/14 345/16
f 360/11 351/14 352/13
f 360/11 359/12 351/14
f 243/3 359/12 360/11
f 243/3 241/2 359/12
f 246/19 243/3 245/20
f 246/19 244/1 243/3
f 259/21 244/1 246/19
f 259/21 258/5 244/1
f 267/22 258/5 259/21
f 267/22 266/7 258/5
f 275/23 266/7 267/22
f 275/23 274/9 266/7
f 283/22 274/9 275/23
f 283/22 282/7 274/9
f 291/21 282/7 283/22
f 291/21 290/5 282/7
f 299/19 290/5 291/21
f 299/19 298/1 290/5
f 307/20 298/1 299/19
f 307/20 306/3 298/1
f 315/24 306/3 307/20
f 315/24 314/11 306/3
f 323/25 314/11 315/24
f 323/25 322/13 314/11
f 331/26 322/13 323/25
f 331/26 330/15 322/13
f 339/27 330/15 331/26
f 339/27 338/17 330/15
f 347/26 338/17 339/27
f 347/26 346/15 338/17
f 353/25 346/15 347/26
f 353/25 352/13 346/15
f 361/24 352/13 353/25
f 361/24 360/11 352/13
f 245/20 360/11 361/24
f 245/20 243/3 360/11
f 248/28 245/20 247/29
f 248/28 246/19 245/20
f 260/30 246/19 248/28
f 260/30 259/21 246/19
f 268/31 259/21 260/30
f 268/31 267/22 259/21
f 276/32 267/22 268/31
f 276/32 275/23 267/22
f 284/31 275/23 276/32
f 284/31 283/22 275/23
f 292/30 283/22 284/31
f 292/30 291/21 283/22
f 300/28 291/21 292/30
f 300/28 299/19 291/21
f 308/29 299/19 300/28
f 308/29 307/20 299/19
f 316/33 307/20 308/29
f 316/33 315/24 307/20
f 324/34 315/24 316/33
f 324/34 323/25 315/24
f 332/35 323/25 324/34
f 332/35 331/26 323/25
f 340/36 331/26 332/35
f 340/36 339/27 331/26
f 348/35 339/27 340/36
f 348/35 347/26 339/27
f 354/34 347/26 348/35
f 354/34 353/25 347/26
f 362/33 353/25 354/34
f 362/33 361/24 353/25
f 247/29 361/24 362/33
f 247/29 245/20 361/24
f 250/37 247/29 249/38
f 250/37 248/28 247/29
f 261/39 248/28 250/37
f 261/39 260/30 248/28
f 269/40 260/30 261/39
f 269/40 268/31 260/30
f 277/41 268/31 269/40
f 277/41 276/32 268/31
f 285/40 276/32 277/41
f 285/40 284/31 276/32
f 293/39 284/31 285/40
f 293/39 292/30 284/31
f 301/37 292/30 293/39
f 301/37 300/28 292/30
f 309/38 300/28 301/37
f 309/38 308/29 300/28
f 317/42 308/29 309/38
f 317/42 316/33 308/29
f 325/43 316/33 317/42
f 325/43 324/34 316/33
f 333/44 324/34 325/43
f 333/44 332/35 324/34
f 341/45 332/35 333/44
f 341/45 340/36 332/35
f 349/44 340/36 341/45
f 349/44 348/35 340/36
f 355/43 348/35 349/44
f 355/43 354/34 348/35
f 363/42 354/34 355/43
f 363/42 362/33 354/34
f 249/38 362/33 363/42
f 249/38 247/29 362/33
f 270/46 263/47 262/48
f 270/46 271/49 263/47
f 278/48 271/49 270/46
f 278/48 279/47 271/49
f 286/50 279/47 278/48
f 286/50 287/51 279/47
f 294/52 287/51 286/50
f 294/52 295/53 287/51
f 302/54 295/53 294/52
f 302/54 303/55 295/53
f 310/56 303/55 302/54
f 310/56 311/57 303/55
f 318/58 311/57 310/56
f 318/58 319/59 311/57
f 326/60 319/59 318/58
f 326/60 327/61 319/59
f 334/62 327/61 326/60
f 334/62 335/63 327/61
f 342/60 335/63 334/62
f 342/60 343/61 335/63
f 273/10 262/48 265/8
f 273/10 270/46 262/48
f 281/8 270/46 273/10
f 281/8 278/48 270/46
f 289/6 278/48 281/8
f 289/6 286/50 278/48
f 297/4 286/50 289/6
f 297/4 294/52 286/50
f 305/2 294/52 297/4
f 305/2 302/54 294/52
f 313/12 302/54 305/2
f 313/12 310/56 302/54
f 321/14 310/56 313/12
f 321/14 318/58 310/56
f 329/16 318/58 321/14
f 329/16 326/60 318/58
f 337/18 326/60 329/16
f 337/18 334/62 326/60
f 345/16 334/62 337/18
f 345/16 342/60 334/62
f 251/64 250/37 249/38
f 251/64 261/39 250/37
f 269/40 261/39 251/64
f 251/64 277/41 269/40
f 285/40 277/41 251/64
f 251/64 293/39 285/40
f 301/37 293/39 251/64
f 251/64 309/38 301/37
f 317/42 309/38 251/64
f 251/64 325/43 317/42
f 333/44 325/43 251/64
f 251/64 341/45 333/44
f 349/44 341/45 251/64
f 251/64 355/43 349/44
f 363/42 355/43 251/64
f 251/64 249/38 363/42
usemtl mat_1
f 102/65 85/66 101/67
f 102/65 87/68 85/66
f 118/69 87/68 102/65
f 118/69 89/70 87/68
f 134/69 89/70 118/69
f 134/69 91/70 89/70
f 153/65 91/70 134/69
f 153/65 93/68 91/70
f 168/67 93/68 153/65
f 168/67 95/66 93/68
f 184/71 95/66 168/67
f 184/71 97/72 95/66
f 200/71 97/72 184/71
f 200/71 99/72 97/72
f 101/67 99/72 200/71
f 101/67 85/66 99/72
f 108/73 104/74 106/75
f 108/73 105/76 104/74
f 121/77 105/76 108/73
f 121/77 119/78 105/76
f 128/79 119/78 121/77
f 128/79 127/80 119/78
f 137/81 127/80 128/79
f 137/81 135/82 127/80
f 147/79 135/82 137/81
f 147/79 146/80 135/82
f 155/77 146/80 147/79
f 155/77 154/78 146/80
f 162/73 154/78 155/77
f 162/73 161/76 154/78
f 171/75 161/76 162/73
f 171/75 169/74 161/76
f 178/83 169/74 171/75
f 178/83 177/84 169/74
f 187/85 177/84 178/83
f 187/85 185/86 177/84
f 194/87 185/86 187/85
f 194/87 193/88 185/86
f 203/89 193/88 194/87
f 203/89 201/90 193/88
f 211/87 201/90 203/89
f 211/87 210/88 201/90
f 219/85 210/88 211/87
f 219/85 217/86 210/88
f 226/83 217/86 219/85
f 226/83 225/84 217/86
f 106/75 225/84 226/83
f 106/75 104/74 225/84
f 240/91 110/92 252/93
f 240/91 111/94 110/92
f 256/95 111/94 240/91
f 256/95 123/96 111/94
f 264/97 123/96 256/95
f 264/97 130/98 123/96
f 272/99 130/98 264/97
f 272/99 139/100 130/98
f 280/97 139/100 272/99
f 280/97 149/98 139/100
f 288/95 149/98 280/97
f 288/95 157/96 149/98
f 296/91 157/96 288/95
f 296/91 164/94 157/96
f 304/93 164/94 296/91
f 304/93 173/92 164/94
f 312/101 173/92 304/93
f 312/101 180/102 173/92
f 320/103 180/102 312/101
f 320/103 189/104 180/102
f 328/105 189/104 320/103
f 328/105 196/106 189/104
f 336/107 196/106 328/105
f 336/107 205/108 196/106
f 344/105 205/108 336/107
f 344/105 213/106 205/108
f 356/103 213/106 344/105
f 356/103 221/104 213/106
f 364/101 221/104 356/103
f 364/101 228/102 221/104
f 252/93 228/102 364/101
f 252/93 110/92 228/102
f 113/109 107/110 112/111
f 113/109 109/112 107/110
f 124/113 109/112 113/109
f 124/113 122/114 109/112
f 131/115 122/114 124/113
f 131/115 129/116 122/114
f 140/117 129/116 131/115
f 140/117 138/118 129/116
f 150/115 138/118 140/117
f 150/115 148/116 138/118
f 158/113 148/116 150/115
f 158/113 156/114 148/116
f 165/109 156/114 158/113
f 165/109 163/112 156/114
f 174/111 163/112 165/109
f 174/111 172/110 163/112
f 181/119 172/110 174/111
f 181/119 179/120 172/110
f 190/121 179/120 181/119
f 190/121 188/122 179/120
f 197/123 188/122 190/121
f 197/123 195/124 188/122
f 206/125 195/124 197/123
f 206/125 204/126 195/124
f 214/123 204/126 206/125
f 214/123 212/124 204/126
f 222/121 212/124 214/123
f 222/121 220/122 212/124
f 229/119 220/122 222/121
f 229/119 227/120 220/122
f 112/111 227/120 229/119
f 112/111 107/110 227/120
f 115/127 112/111 114/128
f 115/127 113/109 112/111
f 125/129 113/109 115/127
f 125/129 124/113 113/109
f 132/130 124/113 125/129
f 132/130 131/115 124/113
f 141/131 131/115 132/130
f 141/131 140/117 131/115
f 151/130 140/117 141/131
f 151/130 150/115 140/117
f 159/129 150/115 151/130
f 159/129 158/113 150/115
f 166/127 158/113 159/129
f 166/127 165/109 158/113
f 175/128 165/109 166/127
f 175/128 174/111 165/109
f 182/132 174/111 175/128
f 182/132 181/119 174/111
f 191/133 181/119 182/132
f 191/133 190/121 181/119
f 198/134 190/121 191/133
f 198/134 197/123 190/121
f 207/135 197/123 198/134
f 207/135 206/125 197/123
f 215/134 206/125 207/135
f 215/134 214/123 206/125
f 223/133 214/123 215/134
f 223/133 222/121 214/123
f 230/132 222/121 223/133
f 230/132 229/119 222/121
f 114/128 229/119 230/132
f 114/128 112/111 229/119
f 117/136 114/128 116/137
f 117/136 115/127 114/128
f 126/138 115/127 117/136
f 126/138 125/129 115/127
f 133/139 125/129 126/138
f 133/139 132/130 125/129
f 142/140 132/130 133/139
f 142/140 141/131 132/130
f 152/139 141/131 142/140
f 152/139 151/130 141/131
f 160/138 151/130 152/139
f 160/138 159/129 151/130
f 167/136 159/129 160/138
f 167/136 166/127 159/129
f 176/137 166/127 167/136
f 176/137 175/128 166/127
f 183/141 175/128 176/137
f 183/141 182/132 175/128
f 192/142 182/132 183/141
f 192/142 191/133 182/132
f 199/143 191/133 192/142
f 199/143 198/134 191/133
f 208/144 198/134 199/143
f 208/144 207/135 198/134
f 216/143 207/135 208/144
f 216/143 215/134 207/135
f 224/142 215/134 216/143
f 224/142 223/133 215/134
f 231/141 223/133 224/142
f 231/141 230/132 223/133
f 116/137 230/132 231/141
f 116/137 114/128 230/132
f 111/94 116/137 110/92
f 111/94 117/136 116/137
f 123/96 117/136 111/94
f 123/96 126/138 117/136
f 130/98 126/138 123/96
f 130/98 133/139 126/138
f 139/100 133/139 130/98
f 139/100 142/140 133/139
f 149/98 142/140 139/100
f 149/98 152/139 142/140
f 157/96 152/139 149/98
f 157/96 160/138 152/139
f 164/94 160/138 157/96
f 164/94 167/136 160/138
f 173/92 167/136 164/94
f 173/92 176/137 167/136
f 180/102 176/137 173/92
f 180/102 183/141 176/137
f 189/104 183/141 180/102
f 189/104 192/142 183/141
f 196/106 192/142 189/104
f 196/106 199/143 192/142
f 205/108 199/143 196/106
f 205/108 208/144 199/143
f 213/106 208/144 205/108
f 213/106 216/143 208/144
f 221/104 216/143 213/106
f 221/104 224/142 216/143
f 228/102 224/142 221/104
f 228/102 231/141 224/142
f 110/92 231/141 228/102
f 110/92 116/137 231/141
f 88/68 100/72 86/66
f 88/68 98/72 100/72
f 90/70 98/72 88/68
f 90/70 96/66 98/72
f 92/70 96/66 90/70
f 92/70 94/68 96/66
f 233/145 120/146 136/147
f 233/145 234/148 120/146
f 103/149 120/146 234/148
f 234/148 232/150 103/149
f 218/151 103/149 232/150
f 232/150 235/152 218/151
f 202/153 218/151 235/152
f 235/152 209/152 202/153
f 186/151 202/153 209/152
f 209/152 236/154 186/151
f 170/149 186/151 236/154
f 236/154 144/155 170/149
f 143/146 170/149 144/155
f 144/155 145/145 143/146
f 136/147 143/146 145/145
f 145/145 233/156 136/147
f 105/157 103/158 104/159
f 105/157 120/160 103/158
f 119/161 120/160 105/157
f 119/161 127/162 120/160
f 136/163 120/160 127/162
f 127/162 135/164 136/163
f 146/162 136/163 135/164
f 146/162 143/160 136/163
f 154/161 143/160 146/162
f 154/161 161/157 143/160
f 170/158 143/160 161/157
f 161/157 169/159 170/158
f 177/165 170/158 169/159
f 177/165 186/166 170/158
f 185/167 186/166 177/165
f 185/167 193/168 186/166
f 202/169 186/166 193/168
f 193/168 201/170 202/169
f 210/168 202/169 201/170
f 210/168 218/166 202/169
f 217/167 218/166 210/168
f 217/167 225/165 218/166
f 103/158 218/166 225/165
f 225/165 104/159 103/158
f 153/171 144/172 168/173
f 153/171 134/174 144/172
f 145/175 144/172 134/174
f 134/174 233/176 145/175
f 118/174 233/176 134/174
f 118/174 102/171 233/176
f 234/177 233/176 102/171
f 102/171 232/178 234/177
f 101/173 232/178 102/171
f 101/173 200/179 232/178
f 235/180 232/178 200/179
f 200/179 209/181 235/180
f 184/179 209/181 200/179
f 184/179 168/173 209/181
f 236/182 209/181 168/173
f 168/173 144/172 236/182
usemtl mat_2
f 262/183 257/184 265/185
f 262/183 254/186 257/184
f 263/187 254/186 262/183
f 263/187 255/188 254/186
f 238/189 254/186 255/188
f 238/189 242/190 254/186
f 241/191 242/190 238/189
f 238/189 237/192 241/191
f 239/193 237/192 238/189
f 239/193 253/194 237/192
f 365/193 237/192 253/194
f 365/193 358/189 237/192
f 357/188 358/189 365/193
f 357/188 350/186 358/189
f 343/187 350/186 357/188
f 343/187 342/183 350/186
f 351/184 350/186 342/183
f 351/184 359/190 350/186
f 358/189 350/186 359/190
f 359/190 241/191 358/189
f 237/192 358/189 241/191
f 242/190 257/184 254/186
f 342/183 345/185 351/184
f 255/188 239/193 238/189
usemtl mat_3
f 2/195 1/196 12/197
f 12/195 13/198 2/196
f 22/199 13/198 12/195
f 22/199 23/200 13/198
f 32/201 23/200 22/199
f 32/201 33/202 23/200
f 14/203 1/197 4/204
f 12/203 1/195 14/197
f 24/205 12/195 14/203
f 24/205 22/199 12/195
f 34/206 22/199 24/205
f 34/206 32/201 22/199
f 15/203 4/204 5/204
f 15/203 14/203 4/204
f 25/205 14/203 15/203
f 25/205 24/205 14/203
f 35/206 24/205 25/205
f 35/206 34/206 24/205
f 16/195 5/204 6/197
f 16/195 15/203 5/204
f 26/199 15/203 16/195
f 26/199 25/205 15/203
f 36/201 25/205 26/199
f 36/201 35/206 25/205
f 17/198 6/197 7/196
f 17/198 16/195 6/197
f 27/200 16/195 17/198
f 27/200 26/199 16/195
f 37/202 26/199 27/200
f 37/202 36/201 26/199
f 18/207 7/196 8/208
f 18/207 17/198 7/196
f 28/209 17/198 18/207
f 28/209 27/200 17/198
f 38/210 27/200 28/209
f 38/210 37/202 27/200
f 19/211 8/208 9/212
f 19/211 18/207 8/208
f 29/213 18/207 19/211
f 29/213 28/209 18/207
f 39/214 28/209 29/213
f 39/214 38/210 28/209
f 20/211 9/212 10/212
f 20/211 19/211 9/212
f 30/213 19/211 20/211
f 30/213 29/213 19/211
f 40/214 29/213 30/213
f 40/214 39/214 29/213
f 21/207 10/212 11/208
f 21/207 20/211 10/212
f 31/209 20/211 21/207
f 31/209 30/213 20/211
f 41/210 30/213 31/209
f 41/210 40/214 30/213
f 13/198 11/208 2/196
f 13/198 21/207 11/208
f 23/200 21/207 13/198
f 23/200 31/209 21/207
f 33/202 31/209 23/200
f 33/202 41/210 31/209
f 43/196 54/195 44/197
f 43/196 55/198 54/195
f 53/208 55/198 43/196
f 53/208 63/207 55/198
f 52/212 63/207 53/208
f 52/212 62/211 63/207
f 51/212 62/211 52/212
f 51/212 61/211 62/211
f 50/208 61/211 51/212
f 50/208 60/207 61/211
f 49/196 60/207 50/208
f 49/196 59/198 60/207
f 48/197 59/198 49/196
f 48/197 58/195 59/198
f 47/204 58/195 48/197
f 47/204 57/203 58/195
f 46/204 57/203 47/204
f 46/204 56/203 57/203
f 44/197 56/203 46/204
f 44/197 54/195 56/203
f 55/198 64/199 54/195
f 55/198 65/200 64/199
f 63/207 65/200 55/198
f 63/207 73/209 65/200
f 62/211 73/209 63/207
f 62/211 72/213 73/209
f 61/211 72/213 62/211
f 61/211 71/213 72/213
f 60/207 71/213 61/211
f 60/207 70/209 71/213
f 59/198 70/209 60/207
f 59/198 69/200 70/209
f 58/195 69/200 59/198
f 58/195 68/199 69/200
f 57/203 68/199 58/195
f 57/203 67/205 68/199
f 56/203 67/205 57/203
f 56/203 66/205 67/205
f 54/195 66/205 56/203
f 54/195 64/199 66/205
f 65/200 74/201 64/199
f 65/200 75/202 74/201
f 73/209 75/202 65/200
f 73/209 83/210 75/202
f 72/213 83/210 73/209
f 72/213 82/214 83/210
f 71/213 82/214 72/213
f 71/213 81/214 82/214
f 70/209 81/214 71/213
f 70/209 80/210 81/214
f 69/200 80/210 70/209
f 69/200 79/202 80/210
f 68/199 79/202 69/200
f 68/199 78/201 79/202
f 67/205 78/201 68/199
f 67/205 77/206 78/201
f 66/205 77/206 67/205
f 66/205 76/206 77/206
f 64/199 76/206 66/205
f 64/199 74/201 76/206
f 3/196 1/215 2/197
f 2/196 11/208 3/215
f 10/212 3/215 11/208
f 10/212 9/212 3/215
f 8/208 3/215 9/212
f 8/208 7/196 3/215
f 6/197 3/215 7/196
f 6/197 5/204 3/215
f 4/204 3/215 5/204
f 4/204 1/197 3/215
f 32/201 42/216 33/202
f 32/201 34/206 42/216
f 35/206 42/216 34/206
f 35/206 36/201 42/216
f 37/202 42/216 36/201
f 37/202 38/210 42/216
f 39/214 42/216 38/210
f 39/214 40/214 42/216
f 41/210 42/216 40/214
f 41/210 33/202 42/216
f 44/197 45/215 43/196
f 44/197 46/204 45/215
f 47/204 45/215 46/204
f 47/204 48/197 45/215
f 49/196 45/215 48/197
f 49/196 50/208 45/215
f 51/212 45/215 50/208
f 51/212 52/212 45/215
f 53/208 45/215 52/212
f 53/208 43/196 45/215
f 75/202 84/216 74/201
f 75/202 83/210 84/216
f 82/214 84/216 83/210
f 82/214 81/214 84/216
f 80/210 84/216 81/214
f 80/210 79/202 84/216
f 78/201 84/216 79/202
f 78/201 77/206 84/216
f 76/206 84/216 77/206
f 76/206 74/201 84/216
