# 
# Wavefront material file
# Created with Kaydara FBX
# 

newmtl Material__10
map_Kd pm0380_00_Mouth1.png
Ka 0.588000 0.588000 0.588000
Kd 0.588000 0.588000 0.588000
Ks 0.000000 0.000000 0.000000
illum 2
Ns 2.000000
Tr 1.000000

newmtl Material__11
map_Kd pm0380_00_Body1.png
Ka 0.588000 0.588000 0.588000
Kd 0.588000 0.588000 0.588000
Ks 0.000000 0.000000 0.000000
illum 2
Ns 2.000000
Tr 1.000000

newmtl Material__13
map_Kd pm0380_00_Eye1.png
Ka 0.588000 0.588000 0.588000
Kd 0.588000 0.588000 0.588000
Ks 0.000000 0.000000 0.000000
illum 2
Ns 2.000000
Tr 1.000000
