xof 0303txt 0032

template AnimTicksPerSecond {
  <9E415A43-7BA6-4a73-8743-B73D47E88476>
  DWORD AnimTicksPerSecond;
}

template XSkinMeshHeader {
  <3cf169ce-ff7c-44ab-93c0-f78f62d172e2>
  WORD nMaxSkinWeightsPerVertex;
  WORD nMaxSkinWeightsPerFace;
  WORD nBones;
}

template SkinWeights {
  <6f0d123b-bad2-4167-a0d0-80224f25fabb>
  STRING transformNodeName;
  DWORD nWeights;
  array DWORD vertexIndices[nWeights];
  array float weights[nWeights];
  Matrix4x4 matrixOffset;
}

Frame Root {
  FrameTransformMatrix {
     1.000000, 0.000000, 0.000000, 0.000000,
     0.000000, 0.000000, 1.000000, 0.000000,
     0.000000, 1.000000,-0.000000, 0.000000,
     0.000000, 0.000000, 0.000000, 1.000000;;
  }
  Frame kinogassa_mat_0 {
    FrameTransformMatrix {
       1.000000, 0.000000, 0.000000, 0.000000,
       0.000000, 1.000000, 0.000000, 0.000000,
       0.000000, 0.000000, 1.000000, 0.000000,
       0.000000, 0.000000, 0.000000, 1.000000;;
    }
    Mesh { //Mesh Mesh
      42;
       0.417430; 0.012652; 0.432101;,
       0.414208;-0.449281; 0.000000;,
      -0.046531;-0.416636; 0.432101;,
       0.417430; 0.012652; 0.432101;,
      -0.046531;-0.416636; 0.432101;,
       0.850080; 0.489156; 0.347377;,
       0.417430; 0.012652; 0.432101;,
       0.850080; 0.489156; 0.347377;,
       0.000000;-0.000000; 0.000000;,
       0.850080; 0.489156; 0.347377;,
       0.500000; 0.500000; 0.000000;,
       0.000000;-0.000000; 0.000000;,
       0.500000; 0.500000; 0.000000;,
       0.850080; 0.489156; 0.347377;,
       0.181985; 0.583355; 0.000000;,
       0.850080; 0.489156; 0.347377;,
       0.000000;-0.000000; 0.000000;,
       0.181985; 0.583355; 0.000000;,
       0.181985; 0.583355; 0.000000;,
       0.000000;-0.000000; 0.000000;,
       0.000000;-0.000000; 0.611083;,
       0.000000;-0.000000; 0.000000;,
      -0.046531;-0.416636; 0.432101;,
       0.000000;-0.000000; 0.611083;,
       0.000000;-0.000000; 0.611083;,
      -0.046531;-0.416636; 0.432101;,
       0.414208;-0.449281; 0.000000;,
       0.000000;-0.000000; 0.611083;,
       0.414208;-0.449281; 0.000000;,
       0.046531; 0.416636; 0.432101;,
       0.000000;-0.000000; 0.611083;,
       0.046531; 0.416636; 0.432101;,
       0.181985; 0.583355; 0.000000;,
       0.046531; 0.416636; 0.432101;,
       0.000000;-0.000000; 0.000000;,
       0.181985; 0.583355; 0.000000;,
       0.181985; 0.583355; 0.000000;,
       0.000000;-0.000000; 0.000000;,
       0.500000; 0.500000; 0.000000;,
       0.850080; 0.489156; 0.347377;,
      -0.046531;-0.416636; 0.432101;,
       0.000000;-0.000000; 0.000000;;
      14;
      3;0;1;2;,
      3;3;4;5;,
      3;6;7;8;,
      3;9;10;11;,
      3;12;13;14;,
      3;15;16;17;,
      3;18;19;20;,
      3;21;22;23;,
      3;24;25;26;,
      3;27;28;29;,
      3;30;31;32;,
      3;33;34;35;,
      3;36;37;38;,
      3;39;40;41;;
      MeshNormals { //Mesh Normals
        42;
         0.000763;-0.006897;-0.999969;,
         0.328623; 0.939360;-0.097751;,
        -0.080203;-0.989868; 0.117069;,
         0.000763;-0.006897;-0.999969;,
        -0.080203;-0.989868; 0.117069;,
        -0.844691;-0.119510;-0.521714;,
         0.000763;-0.006897;-0.999969;,
        -0.844691;-0.119510;-0.521714;,
        -0.573077; 0.598224; 0.560045;,
        -0.844691;-0.119510;-0.521714;,
        -0.510697;-0.295358; 0.807398;,
        -0.573077; 0.598224; 0.560045;,
        -0.510697;-0.295358; 0.807398;,
        -0.844691;-0.119510;-0.521714;,
         0.567125;-0.774804; 0.279305;,
        -0.844691;-0.119510;-0.521714;,
        -0.465377;-0.314982;-0.827143;,
         0.567125;-0.774804; 0.279305;,
         0.567125;-0.774804; 0.279305;,
        -0.465377;-0.314982;-0.827143;,
        -0.246803; 0.197333; 0.948729;,
        -0.465377;-0.314982;-0.827143;,
        -0.080203;-0.989868; 0.117069;,
        -0.246803; 0.197333; 0.948729;,
        -0.246803; 0.197333; 0.948729;,
        -0.080203;-0.989868; 0.117069;,
         0.328623; 0.939360;-0.097751;,
        -0.246803; 0.197333; 0.948729;,
         0.328623; 0.939360;-0.097751;,
        -0.694937;-0.716361;-0.062075;,
        -0.246803; 0.197333; 0.948729;,
        -0.694937;-0.716361;-0.062075;,
         0.567125;-0.774804; 0.279305;,
        -0.694937;-0.716361;-0.062075;,
         0.750969;-0.234260; 0.617328;,
         0.567125;-0.774804; 0.279305;,
         0.567125;-0.774804; 0.279305;,
         0.750969;-0.234260; 0.617328;,
        -0.510697;-0.295358; 0.807398;,
        -0.844691;-0.119510;-0.521714;,
        -0.080203;-0.989868; 0.117069;,
        -0.465377;-0.314982;-0.827143;;
        14;
        3;0;1;2;,
        3;3;4;5;,
        3;6;7;8;,
        3;9;10;11;,
        3;12;13;14;,
        3;15;16;17;,
        3;18;19;20;,
        3;21;22;23;,
        3;24;25;26;,
        3;27;28;29;,
        3;30;31;32;,
        3;33;34;35;,
        3;36;37;38;,
        3;39;40;41;;
      } //End of Mesh Normals
      MeshMaterialList { //Mesh Material List
        1;
        14;
        0,
        0,
        0,
        0,
        0,
        0,
        0,
        0,
        0,
        0,
        0,
        0,
        0,
        0;;
        Material mat_0 {
           0.640000; 0.640000; 0.640000; 1.000000;;
           92.156863;
           0.250000; 0.250000; 0.250000;;
           0.000000; 0.000000; 0.000000;;
          TextureFilename {"Textures/kinogassa_1_0.tga";}
        }
      } //End of Mesh Material List
      MeshTextureCoords { //Mesh UV Coordinates
        42;
         0.847377; 0.885084;,
         0.850080; 0.489156;,
         1.000000; 0.385084;,
         1.000000; 0.385084;,
         0.850080; 0.489156;,
         0.539023; 0.142897;,
         1.000000; 0.385084;,
         0.539023; 0.142897;,
         0.652623; 0.000000;,
         0.539023; 0.142897;,
         0.152623; 0.114916;,
         0.652623; 0.000000;,
         0.152623; 0.114916;,
         0.539023; 0.142897;,
         0.149920; 0.510844;,
         0.539023; 0.142897;,
         0.500000; 0.500000;,
         0.149920; 0.510844;,
         0.149920; 0.510844;,
         0.500000; 0.500000;,
         0.460977; 0.857103;,
         0.500000; 0.500000;,
         0.850080; 0.489156;,
         0.460977; 0.857103;,
         0.460977; 0.857103;,
         0.850080; 0.489156;,
         0.847377; 0.885084;,
         0.847377; 0.885084;,
         0.347377; 1.000000;,
         0.460977; 0.857103;,
         0.460977; 0.857103;,
         0.347377; 1.000000;,
         0.149920; 0.510844;,
         0.347377; 1.000000;,
         0.000000; 0.614916;,
         0.149920; 0.510844;,
         0.149920; 0.510844;,
         0.000000; 0.614916;,
         0.152623; 0.114916;,
         0.539023; 0.142897;,
         0.850080; 0.489156;,
         0.500000; 0.500000;;
      } //End of Mesh UV Coordinates
    } //End of Mesh Mesh
  } //End of kinogassa_mat_0
} //End of Root Frame
