# Blender v2.66 (sub 1) OBJ File: 'BR_Breloom-Shiny01.blend'
# www.blender.org
mtllib BR_Breloom-Shiny01.mtl
o kinogassa
v 0.414208 0.000000 0.449281
v 0.417430 0.432101 -0.012652
v -0.046531 0.432101 0.416636
v 0.046531 0.432101 -0.416636
v 0.000000 0.611083 0.000000
v 0.181985 0.000000 -0.583355
v 0.850080 0.347377 -0.489156
v 0.500000 0.000000 -0.500000
v 0.000000 0.000000 0.000000
v 0.000000 0.000000 0.000000
v 0.000000 0.000000 0.000000
vt 1.000000 0.614916
vt 0.850080 0.510844
vt 0.847377 0.114916
vt 0.539023 0.857103
vt 0.652623 1.000000
vt 0.152623 0.885084
vt 0.149920 0.489156
vt 0.500000 0.500000
vt 0.460977 0.142897
vt 0.347377 0.000000
vt 0.000000 0.385084
usemtl mat_0
s 1
f 3/1 1/2 2/3
f 2/1 7/4 3/2
f 11/5 7/4 2/1
f 11/5 8/6 7/4
f 6/7 7/4 8/6
f 6/7 9/8 7/4
f 5/9 9/8 6/7
f 5/9 3/2 9/8
f 1/3 3/2 5/9
f 4/9 1/10 5/3
f 6/7 4/10 5/9
f 6/7 10/11 4/10
f 8/6 10/11 6/7
f 7/4 9/8 3/2
