xof 0303txt 0032

template AnimTicksPerSecond {
  <9E415A43-7BA6-4a73-8743-B73D47E88476>
  DWORD AnimTicksPerSecond;
}

template XSkinMeshHeader {
  <3cf169ce-ff7c-44ab-93c0-f78f62d172e2>
  WORD nMaxSkinWeightsPerVertex;
  WORD nMaxSkinWeightsPerFace;
  WORD nBones;
}

template SkinWeights {
  <6f0d123b-bad2-4167-a0d0-80224f25fabb>
  STRING transformNodeName;
  DWORD nWeights;
  array DWORD vertexIndices[nWeights];
  array float weights[nWeights];
  Matrix4x4 matrixOffset;
}

Frame Root {
  FrameTransformMatrix {
     1.000000, 0.000000, 0.000000, 0.000000,
     0.000000, 0.000000, 1.000000, 0.000000,
     0.000000, 1.000000,-0.000000, 0.000000,
     0.000000, 0.000000, 0.000000, 1.000000;;
  }
  Frame porygon_c_mat_1 {
    FrameTransformMatrix {
       1.000000, 0.000000, 0.000000, 0.000000,
       0.000000, 1.000000, 0.000000, 0.000000,
       0.000000, 0.000000, 1.000000, 0.000000,
       0.000000, 0.000000, 0.000000, 1.000000;;
    }
    Mesh { //Mesh Mesh
      78;
      -1.725103;-1.999970; 0.810764;,
      -1.725103;-1.999970;-2.932380;,
      -2.419893;-0.349239;-2.932380;,
       2.276427;-0.349239;-2.932380;,
       1.581637;-1.999970;-2.932380;,
       1.581637;-1.999970; 0.810764;,
      -2.419893;-0.349239; 2.471470;,
      -2.419893;-0.349239;-2.932380;,
      -2.419893;-0.349239; 0.552869;,
      -1.725103;-1.999970; 0.810764;,
      -2.419893;-0.349239;-2.932380;,
      -2.419893;-0.349239; 2.471470;,
       1.581637;-1.999970; 0.810764;,
       2.276427;-0.349239; 2.471470;,
       2.276427;-0.349239; 0.552869;,
       1.581637;-1.999970; 0.810764;,
       2.276427;-0.349239; 0.552869;,
       2.276427;-0.349239;-2.932380;,
       2.276427;-0.349239; 2.471470;,
       1.847817; 0.814841; 0.743262;,
       2.276427;-0.349239; 0.552869;,
       1.847817; 0.814841; 0.743262;,
       2.276427;-0.349239;-2.932380;,
       2.276427;-0.349239; 0.552869;,
       2.276427;-0.349239;-2.932380;,
       1.847817; 0.814841; 0.743262;,
       1.560987; 0.840231;-2.927430;,
       1.847817; 0.814841; 0.743262;,
       1.133457; 2.173390; 1.060580;,
       1.560987; 0.840231;-2.927430;,
       1.560987; 0.840231;-2.927430;,
       1.133457; 2.173390; 1.060580;,
       0.704408; 2.664150;-0.371189;,
      -1.704453; 0.840231;-2.927430;,
      -2.419893;-0.349239;-2.932380;,
       1.560987; 0.840231;-2.927430;,
      -2.419893;-0.349239;-2.932380;,
       2.276427;-0.349239;-2.932380;,
       1.560987; 0.840231;-2.927430;,
       2.276427;-0.349239;-2.932380;,
      -2.419893;-0.349239;-2.932380;,
      -1.725103;-1.999970;-2.932380;,
      -1.725103;-1.999970;-2.932380;,
       1.581637;-1.999970;-2.932380;,
       2.276427;-0.349239;-2.932380;,
      -1.725103;-1.999970; 0.810764;,
       1.581637;-1.999970; 0.810764;,
      -1.725103;-1.999970;-2.932380;,
       1.581637;-1.999970; 0.810764;,
       1.581637;-1.999970;-2.932380;,
      -1.725103;-1.999970;-2.932380;,
       1.133457; 2.173390; 1.060580;,
      -1.276923; 2.173390; 1.060580;,
       0.704408; 2.664150;-0.371189;,
      -1.276923; 2.173390; 1.060580;,
      -0.847874; 2.664150;-0.371189;,
       0.704408; 2.664150;-0.371189;,
       1.560987; 0.840231;-2.927430;,
       0.704408; 2.664150;-0.371189;,
      -1.704453; 0.840231;-2.927430;,
       0.704408; 2.664150;-0.371189;,
      -0.847874; 2.664150;-0.371189;,
      -1.704453; 0.840231;-2.927430;,
      -2.419893;-0.349239; 2.471470;,
      -2.419893;-0.349239; 0.552869;,
      -1.991283; 0.814841; 0.743261;,
      -2.419893;-0.349239; 0.552869;,
      -2.419893;-0.349239;-2.932380;,
      -1.991283; 0.814841; 0.743261;,
      -1.991283; 0.814841; 0.743261;,
      -2.419893;-0.349239;-2.932380;,
      -1.704453; 0.840231;-2.927430;,
      -1.704453; 0.840231;-2.927430;,
      -1.276923; 2.173390; 1.060580;,
      -1.991283; 0.814841; 0.743261;,
      -1.276923; 2.173390; 1.060580;,
      -1.704453; 0.840231;-2.927430;,
      -0.847874; 2.664150;-0.371189;;
      26;
      3;0;1;2;,
      3;3;4;5;,
      3;6;7;8;,
      3;9;10;11;,
      3;12;13;14;,
      3;15;16;17;,
      3;18;19;20;,
      3;21;22;23;,
      3;24;25;26;,
      3;27;28;29;,
      3;30;31;32;,
      3;33;34;35;,
      3;36;37;38;,
      3;39;40;41;,
      3;42;43;44;,
      3;45;46;47;,
      3;48;49;50;,
      3;51;52;53;,
      3;54;55;56;,
      3;57;58;59;,
      3;60;61;62;,
      3;63;64;65;,
      3;66;67;68;,
      3;69;70;71;,
      3;72;73;74;,
      3;75;76;77;;
      MeshNormals { //Mesh Normals
        78;
         0.921659; 0.387921;-0.000000;,
         0.921659; 0.387921;-0.000000;,
         0.921659; 0.387921;-0.000000;,
        -0.921659; 0.387921;-0.000000;,
        -0.921659; 0.387921;-0.000000;,
        -0.921659; 0.387921;-0.000000;,
         0.921659; 0.387921;-0.000000;,
         0.921659; 0.387921;-0.000000;,
         0.965361; 0.139317;-0.220527;,
         0.921659; 0.387921;-0.000000;,
         0.921659; 0.387921;-0.000000;,
         0.921659; 0.387921;-0.000000;,
        -0.921659; 0.387921;-0.000000;,
        -0.921659; 0.387921;-0.000000;,
        -0.921659; 0.387921;-0.000000;,
        -0.921659; 0.387921;-0.000000;,
        -0.921659; 0.387921;-0.000000;,
        -0.921659; 0.387921;-0.000000;,
        -0.938383;-0.345500;-0.000000;,
        -0.909635;-0.414136; 0.031800;,
        -0.938383;-0.345500;-0.000000;,
        -0.909635;-0.414136; 0.031800;,
        -0.875179;-0.481155; 0.050325;,
        -0.938383;-0.345500;-0.000000;,
        -0.875179;-0.481155; 0.050325;,
        -0.909635;-0.414136; 0.031800;,
        -0.858760;-0.508072; 0.066103;,
        -0.909635;-0.414136; 0.031800;,
        -0.867641;-0.491989; 0.071444;,
        -0.858760;-0.508072; 0.066103;,
        -0.858760;-0.508072; 0.066103;,
        -0.867641;-0.491989; 0.071444;,
        -0.854366;-0.513413; 0.080020;,
        -0.000000;-0.004151; 0.999969;,
        -0.000000;-0.001923; 0.999969;,
        -0.000000;-0.004151; 0.999969;,
        -0.000000;-0.001923; 0.999969;,
        -0.000000;-0.001923; 0.999969;,
        -0.000000;-0.004151; 0.999969;,
        -0.000000;-0.001923; 0.999969;,
        -0.000000;-0.001923; 0.999969;,
        -0.000000;-0.000000; 1.000000;,
        -0.000000;-0.000000; 1.000000;,
        -0.000000;-0.000000; 1.000000;,
        -0.000000;-0.001923; 0.999969;,
        -0.000000; 1.000000;-0.000000;,
        -0.000000; 0.999969;-0.000000;,
        -0.000000; 0.999969;-0.000000;,
        -0.000000; 0.999969;-0.000000;,
        -0.000000; 1.000000;-0.000000;,
        -0.000000; 0.999969;-0.000000;,
        -0.000000;-0.945952;-0.324229;,
        -0.000000;-0.945952;-0.324229;,
        -0.000000;-0.945952;-0.324229;,
        -0.000000;-0.945952;-0.324229;,
        -0.000000;-0.945952;-0.324229;,
        -0.000000;-0.945952;-0.324229;,
        -0.000000;-0.814020; 0.580798;,
        -0.000000;-0.814020; 0.580798;,
        -0.000000;-0.814020; 0.580798;,
        -0.000000;-0.814020; 0.580798;,
        -0.000000;-0.814020; 0.580798;,
        -0.000000;-0.814020; 0.580798;,
         0.938383;-0.345500;-0.000000;,
         0.938383;-0.345500;-0.000000;,
         0.909635;-0.414136; 0.031800;,
         0.938383;-0.345500;-0.000000;,
         0.875179;-0.481155; 0.050325;,
         0.909635;-0.414136; 0.031800;,
         0.909635;-0.414136; 0.031800;,
         0.875179;-0.481155; 0.050325;,
         0.858760;-0.508072; 0.066103;,
         0.858760;-0.508072; 0.066103;,
         0.867641;-0.491989; 0.071444;,
         0.909635;-0.414136; 0.031800;,
         0.867641;-0.491989; 0.071444;,
         0.858760;-0.508072; 0.066103;,
         0.854366;-0.513413; 0.080020;;
        26;
        3;0;1;2;,
        3;3;4;5;,
        3;6;7;8;,
        3;9;10;11;,
        3;12;13;14;,
        3;15;16;17;,
        3;18;19;20;,
        3;21;22;23;,
        3;24;25;26;,
        3;27;28;29;,
        3;30;31;32;,
        3;33;34;35;,
        3;36;37;38;,
        3;39;40;41;,
        3;42;43;44;,
        3;45;46;47;,
        3;48;49;50;,
        3;51;52;53;,
        3;54;55;56;,
        3;57;58;59;,
        3;60;61;62;,
        3;63;64;65;,
        3;66;67;68;,
        3;69;70;71;,
        3;72;73;74;,
        3;75;76;77;;
      } //End of Mesh Normals
      MeshMaterialList { //Mesh Material List
        1;
        26;
        0,
        0,
        0,
        0,
        0,
        0,
        0,
        0,
        0,
        0,
        0,
        0,
        0,
        0,
        0,
        0,
        0,
        0,
        0,
        0,
        0,
        0,
        0,
        0,
        0,
        0;;
        Material mat_1 {
           0.640000; 0.640000; 0.640000; 1.000000;;
           92.156863;
           0.250000; 0.250000; 0.250000;;
           0.000000; 0.000000; 0.000000;;
          TextureFilename {"Textures/porygon_c_1_1.tga";}
        }
      } //End of Mesh Material List
      MeshTextureCoords { //Mesh UV Coordinates
        78;
         0.000000; 1.000000;,
         0.000000; 1.000000;,
         0.000000; 1.000000;,
         0.000000; 1.000000;,
         0.000000; 1.000000;,
         0.000000; 1.000000;,
         0.000000; 1.000000;,
         0.000000; 1.000000;,
         0.000000; 1.000000;,
         0.000000; 1.000000;,
         0.000000; 1.000000;,
         0.000000; 1.000000;,
         0.000000; 1.000000;,
         0.000000; 1.000000;,
         0.000000; 1.000000;,
         0.000000; 1.000000;,
         0.000000; 1.000000;,
         0.000000; 1.000000;,
         0.000000; 1.000000;,
         0.000000; 1.000000;,
         0.000000; 1.000000;,
         0.000000; 1.000000;,
         0.000000; 1.000000;,
         0.000000; 1.000000;,
         0.000000; 1.000000;,
         0.000000; 1.000000;,
         0.000000; 1.000000;,
         0.000000; 1.000000;,
         0.000000; 1.000000;,
         0.000000; 1.000000;,
         0.000000; 1.000000;,
         0.000000; 1.000000;,
         0.000000; 1.000000;,
         0.000000; 1.000000;,
         0.000000; 1.000000;,
         0.000000; 1.000000;,
         0.000000; 1.000000;,
         0.000000; 1.000000;,
         0.000000; 1.000000;,
         0.000000; 1.000000;,
         0.000000; 1.000000;,
         0.000000; 1.000000;,
         0.000000; 1.000000;,
         0.000000; 1.000000;,
         0.000000; 1.000000;,
         0.000000; 1.000000;,
         0.000000; 1.000000;,
         0.000000; 1.000000;,
         0.000000; 1.000000;,
         0.000000; 1.000000;,
         0.000000; 1.000000;,
         0.000000; 1.000000;,
         0.000000; 1.000000;,
         0.000000; 1.000000;,
         0.000000; 1.000000;,
         0.000000; 1.000000;,
         0.000000; 1.000000;,
         0.000000; 1.000000;,
         0.000000; 1.000000;,
         0.000000; 1.000000;,
         0.000000; 1.000000;,
         0.000000; 1.000000;,
         0.000000; 1.000000;,
         0.000000; 1.000000;,
         0.000000; 1.000000;,
         0.000000; 1.000000;,
         0.000000; 1.000000;,
         0.000000; 1.000000;,
         0.000000; 1.000000;,
         0.000000; 1.000000;,
         0.000000; 1.000000;,
         0.000000; 1.000000;,
         0.000000; 1.000000;,
         0.000000; 1.000000;,
         0.000000; 1.000000;,
         0.000000; 1.000000;,
         0.000000; 1.000000;,
         0.000000; 1.000000;;
      } //End of Mesh UV Coordinates
    } //End of Mesh Mesh
  } //End of porygon_c_mat_1
  Frame porygon_c_mat_0 {
    FrameTransformMatrix {
       1.000000, 0.000000, 0.000000, 0.000000,
       0.000000, 1.000000, 0.000000, 0.000000,
       0.000000, 0.000000, 1.000000, 0.000000,
       0.000000, 0.000000, 0.000000, 1.000000;;
    }
    Mesh { //Mesh Mesh
      18;
      -1.991283; 0.814841; 0.743261;,
      -1.276923; 2.173390; 1.060580;,
      -2.419893;-0.349239; 2.471470;,
       2.276427;-0.349239; 2.471470;,
       1.133457; 2.173390; 1.060580;,
       1.847817; 0.814841; 0.743262;,
      -1.276923; 2.173390; 1.060580;,
       1.133457; 2.173390; 1.060580;,
      -2.419893;-0.349239; 2.471470;,
       1.133457; 2.173390; 1.060580;,
       2.276427;-0.349239; 2.471470;,
      -2.419893;-0.349239; 2.471470;,
       1.581637;-1.999970; 0.810764;,
      -1.725103;-1.999970; 0.810764;,
       2.276427;-0.349239; 2.471470;,
      -1.725103;-1.999970; 0.810764;,
      -2.419893;-0.349239; 2.471470;,
       2.276427;-0.349239; 2.471470;;
      6;
      3;0;1;2;,
      3;3;4;5;,
      3;6;7;8;,
      3;9;10;11;,
      3;12;13;14;,
      3;15;16;17;;
      MeshNormals { //Mesh Normals
        18;
         0.889859;-0.448836;-0.081637;,
         0.889859;-0.448836;-0.081637;,
         0.889859;-0.448836;-0.081637;,
        -0.889859;-0.448836;-0.081637;,
        -0.889859;-0.448836;-0.081637;,
        -0.889859;-0.448836;-0.081637;,
        -0.000000;-0.488113;-0.872768;,
        -0.000000;-0.488113;-0.872768;,
        -0.000000;-0.488113;-0.872768;,
        -0.000000;-0.488113;-0.872768;,
        -0.000000;-0.488113;-0.872768;,
        -0.000000;-0.488113;-0.872768;,
        -0.000000; 0.709220;-0.704947;,
        -0.000000; 0.709220;-0.704947;,
        -0.000000; 0.709220;-0.704947;,
        -0.000000; 0.709220;-0.704947;,
        -0.000000; 0.709220;-0.704947;,
        -0.000000; 0.709220;-0.704947;;
        6;
        3;0;1;2;,
        3;3;4;5;,
        3;6;7;8;,
        3;9;10;11;,
        3;12;13;14;,
        3;15;16;17;;
      } //End of Mesh Normals
      MeshMaterialList { //Mesh Material List
        1;
        6;
        0,
        0,
        0,
        0,
        0,
        0;;
        Material mat_0 {
           0.640000; 0.640000; 0.640000; 1.000000;;
           92.156863;
           0.250000; 0.250000; 0.250000;;
           0.000000; 0.000000; 0.000000;;
          TextureFilename {"Textures/porygon_c_1_0.tga";}
        }
      } //End of Mesh Material List
      MeshTextureCoords { //Mesh UV Coordinates
        18;
         0.000000; 1.000000;,
         0.000000; 1.000000;,
         0.000000; 1.000000;,
         0.000000; 1.000000;,
         0.000000; 1.000000;,
         0.000000; 1.000000;,
         0.000000; 1.000000;,
         0.000000; 1.000000;,
         0.000000; 1.000000;,
         0.000000; 1.000000;,
         0.000000; 1.000000;,
         0.000000; 1.000000;,
         0.000000; 1.000000;,
         0.000000; 1.000000;,
         0.000000; 1.000000;,
         0.000000; 1.000000;,
         0.000000; 1.000000;,
         0.000000; 1.000000;;
      } //End of Mesh UV Coordinates
    } //End of Mesh Mesh
  } //End of porygon_c_mat_0
} //End of Root Frame
