xof 0303txt 0032

template AnimTicksPerSecond {
  <9E415A43-7BA6-4a73-8743-B73D47E88476>
  DWORD AnimTicksPerSecond;
}

template XSkinMeshHeader {
  <3cf169ce-ff7c-44ab-93c0-f78f62d172e2>
  WORD nMaxSkinWeightsPerVertex;
  WORD nMaxSkinWeightsPerFace;
  WORD nBones;
}

template SkinWeights {
  <6f0d123b-bad2-4167-a0d0-80224f25fabb>
  STRING transformNodeName;
  DWORD nWeights;
  array DWORD vertexIndices[nWeights];
  array float weights[nWeights];
  Matrix4x4 matrixOffset;
}

Frame Root {
  FrameTransformMatrix {
     1.000000, 0.000000, 0.000000, 0.000000,
     0.000000, 0.000000, 1.000000, 0.000000,
     0.000000, 1.000000,-0.000000, 0.000000,
     0.000000, 0.000000, 0.000000, 1.000000;;
  }
  Frame gureggru_mat_0 {
    FrameTransformMatrix {
       1.000000, 0.000000, 0.000000, 0.000000,
       0.000000, 1.000000, 0.000000, 0.000000,
       0.000000, 0.000000, 1.000000, 0.000000,
       0.000000, 0.000000, 0.000000, 1.000000;;
    }
    Mesh { //Mesh Mesh
      432;
       2.488500; 5.411004; 1.687990;,
       2.458361; 5.638684; 1.777562;,
       2.337753; 5.410369; 1.390568;,
       2.285551; 5.804715; 1.545711;,
       2.337753; 5.410369; 1.390568;,
       2.458361; 5.638684; 1.777562;,
       2.058487; 5.409324; 1.208367;,
       2.337753; 5.410369; 1.390568;,
       2.285551; 5.804715; 1.545711;,
       2.285551; 5.804715; 1.545711;,
       1.998212; 5.864677; 1.387512;,
       2.058487; 5.409324; 1.208367;,
       2.058487; 5.409324; 1.208367;,
       1.998212; 5.864677; 1.387512;,
       1.725539; 5.408154; 1.190210;,
       1.998212; 5.864677; 1.387512;,
       1.673338; 5.802503; 1.345354;,
       1.725539; 5.408154; 1.190210;,
       1.725539; 5.408154; 1.190210;,
       1.673338; 5.802503; 1.345354;,
       1.428117; 5.407167; 1.340961;,
       1.673338; 5.802503; 1.345354;,
       1.397980; 5.634849; 1.430534;,
       1.428117; 5.407167; 1.340961;,
       2.459955; 5.183188; 1.777731;,
       2.488500; 5.411004; 1.687990;,
       2.288308; 5.015781; 1.546004;,
       2.488500; 5.411004; 1.687990;,
       2.337753; 5.410369; 1.390568;,
       2.288308; 5.015781; 1.546004;,
       2.288308; 5.015781; 1.546004;,
       2.337753; 5.410369; 1.390568;,
       2.001396; 4.953697; 1.387850;,
       2.001396; 4.953697; 1.387850;,
       2.337753; 5.410369; 1.390568;,
       2.058487; 5.409324; 1.208367;,
       2.001396; 4.953697; 1.387850;,
       2.058487; 5.409324; 1.208367;,
       1.676095; 5.013567; 1.345647;,
       2.058487; 5.409324; 1.208367;,
       1.725539; 5.408154; 1.190210;,
       1.676095; 5.013567; 1.345647;,
       1.676095; 5.013567; 1.345647;,
       1.725539; 5.408154; 1.190210;,
       1.399572; 5.179355; 1.430702;,
       1.725539; 5.408154; 1.190210;,
       1.428117; 5.407167; 1.340961;,
       1.399572; 5.179355; 1.430702;,
       2.389447; 5.088687; 1.994218;,
       2.459955; 5.183188; 1.777731;,
       2.166185; 4.852096; 1.920968;,
       2.459955; 5.183188; 1.777731;,
       2.288308; 5.015781; 1.546004;,
       2.166185; 4.852096; 1.920968;,
       2.166185; 4.852096; 1.920968;,
       2.288308; 5.015781; 1.546004;,
       1.860381; 4.764685; 1.820822;,
       2.288308; 5.015781; 1.546004;,
       2.001396; 4.953697; 1.387850;,
       1.860381; 4.764685; 1.820822;,
       1.860381; 4.764685; 1.820822;,
       2.001396; 4.953697; 1.387850;,
       1.553974; 4.849884; 1.720612;,
       2.001396; 4.953697; 1.387850;,
       1.676095; 5.013567; 1.345647;,
       1.553974; 4.849884; 1.720612;,
       1.553974; 4.849884; 1.720612;,
       1.676095; 5.013567; 1.345647;,
       1.329064; 5.084849; 1.647188;,
       1.676095; 5.013567; 1.345647;,
       1.399572; 5.179355; 1.430702;,
       1.329064; 5.084849; 1.647188;,
       2.318280; 5.182855; 2.210632;,
       2.389447; 5.088687; 1.994218;,
       2.042922; 5.015201; 2.295812;,
       2.389447; 5.088687; 1.994218;,
       2.166185; 4.852096; 1.920968;,
       2.042922; 5.015201; 2.295812;,
       2.042922; 5.015201; 2.295812;,
       2.166185; 4.852096; 1.920968;,
       1.718048; 4.953026; 2.253654;,
       2.166185; 4.852096; 1.920968;,
       1.860381; 4.764685; 1.820822;,
       1.718048; 4.953026; 2.253654;,
       1.718048; 4.953026; 2.253654;,
       1.860381; 4.764685; 1.820822;,
       1.430709; 5.012986; 2.095455;,
       1.860381; 4.764685; 1.820822;,
       1.553974; 4.849884; 1.720612;,
       1.430709; 5.012986; 2.095455;,
       1.430709; 5.012986; 2.095455;,
       1.553974; 4.849884; 1.720612;,
       1.257898; 5.179021; 1.863604;,
       1.553974; 4.849884; 1.720612;,
       1.329064; 5.084849; 1.647188;,
       1.257898; 5.179021; 1.863604;,
       2.288158; 5.410574; 2.300222;,
       2.318280; 5.182855; 2.210632;,
       1.990721; 5.409550; 2.450957;,
       2.318280; 5.182855; 2.210632;,
       2.042922; 5.015201; 2.295812;,
       1.990721; 5.409550; 2.450957;,
       1.990721; 5.409550; 2.450957;,
       2.042922; 5.015201; 2.295812;,
       1.657789; 5.408439; 2.432826;,
       2.042922; 5.015201; 2.295812;,
       1.718048; 4.953026; 2.253654;,
       1.657789; 5.408439; 2.432826;,
       1.657789; 5.408439; 2.432826;,
       1.718048; 4.953026; 2.253654;,
       1.378519; 5.407371; 2.250616;,
       1.718048; 4.953026; 2.253654;,
       1.430709; 5.012986; 2.095455;,
       1.378519; 5.407371; 2.250616;,
       1.378519; 5.407371; 2.250616;,
       1.430709; 5.012986; 2.095455;,
       1.227762; 5.406698; 1.953177;,
       1.430709; 5.012986; 2.095455;,
       1.257898; 5.179021; 1.863604;,
       1.227762; 5.406698; 1.953177;,
       2.316688; 5.638347; 2.210464;,
       2.288158; 5.410574; 2.300222;,
       2.040165; 5.804139; 2.295519;,
       2.288158; 5.410574; 2.300222;,
       1.990721; 5.409550; 2.450957;,
       2.040165; 5.804139; 2.295519;,
       2.040165; 5.804139; 2.295519;,
       1.990721; 5.409550; 2.450957;,
       1.714864; 5.864008; 2.253317;,
       1.990721; 5.409550; 2.450957;,
       1.657789; 5.408439; 2.432826;,
       1.714864; 5.864008; 2.253317;,
       1.714864; 5.864008; 2.253317;,
       1.657789; 5.408439; 2.432826;,
       1.427952; 5.801923; 2.095163;,
       1.657789; 5.408439; 2.432826;,
       1.378519; 5.407371; 2.250616;,
       1.427952; 5.801923; 2.095163;,
       1.427952; 5.801923; 2.095163;,
       1.378519; 5.407371; 2.250616;,
       1.256307; 5.634515; 1.863436;,
       1.378519; 5.407371; 2.250616;,
       1.227762; 5.406698; 1.953177;,
       1.256307; 5.634515; 1.863436;,
       2.387196; 5.732850; 1.993979;,
       2.316688; 5.638347; 2.210464;,
       2.162290; 5.966680; 1.920555;,
       2.316688; 5.638347; 2.210464;,
       2.040165; 5.804139; 2.295519;,
       2.162290; 5.966680; 1.920555;,
       2.162290; 5.966680; 1.920555;,
       2.040165; 5.804139; 2.295519;,
       1.855889; 6.050015; 1.820346;,
       2.040165; 5.804139; 2.295519;,
       1.714864; 5.864008; 2.253317;,
       1.855889; 6.050015; 1.820346;,
       1.855889; 6.050015; 1.820346;,
       1.714864; 5.864008; 2.253317;,
       1.550079; 5.964468; 1.720199;,
       1.714864; 5.864008; 2.253317;,
       1.427952; 5.801923; 2.095163;,
       1.550079; 5.964468; 1.720199;,
       1.550079; 5.964468; 1.720199;,
       1.427952; 5.801923; 2.095163;,
       1.326814; 5.729019; 1.646950;,
       1.427952; 5.801923; 2.095163;,
       1.256307; 5.634515; 1.863436;,
       1.326814; 5.729019; 1.646950;,
       2.285551; 5.804715; 1.545711;,
       2.458361; 5.638684; 1.777562;,
       2.387196; 5.732850; 1.993979;,
       2.387196; 5.732850; 1.993979;,
       2.162290; 5.966680; 1.920555;,
       2.285551; 5.804715; 1.545711;,
       2.285551; 5.804715; 1.545711;,
       2.162290; 5.966680; 1.920555;,
       1.998212; 5.864677; 1.387512;,
       2.162290; 5.966680; 1.920555;,
       1.855889; 6.050015; 1.820346;,
       1.998212; 5.864677; 1.387512;,
       1.998212; 5.864677; 1.387512;,
       1.855889; 6.050015; 1.820346;,
       1.673338; 5.802503; 1.345354;,
       1.855889; 6.050015; 1.820346;,
       1.550079; 5.964468; 1.720199;,
       1.673338; 5.802503; 1.345354;,
       1.673338; 5.802503; 1.345354;,
       1.550079; 5.964468; 1.720199;,
       1.397980; 5.634849; 1.430534;,
       1.550079; 5.964468; 1.720199;,
       1.326814; 5.729019; 1.646950;,
       1.397980; 5.634849; 1.430534;,
      -2.458361; 5.638684; 1.777562;,
      -2.488501; 5.411004; 1.687990;,
      -2.285551; 5.804715; 1.545711;,
      -2.488501; 5.411004; 1.687990;,
      -2.337753; 5.410369; 1.390568;,
      -2.285551; 5.804715; 1.545711;,
      -2.285551; 5.804715; 1.545711;,
      -2.337753; 5.410369; 1.390568;,
      -1.998212; 5.864677; 1.387512;,
      -2.337753; 5.410369; 1.390568;,
      -2.058488; 5.409324; 1.208367;,
      -1.998212; 5.864677; 1.387512;,
      -1.998212; 5.864677; 1.387512;,
      -2.058488; 5.409324; 1.208367;,
      -1.673338; 5.802503; 1.345354;,
      -2.058488; 5.409324; 1.208367;,
      -1.725539; 5.408154; 1.190210;,
      -1.673338; 5.802503; 1.345354;,
      -1.673338; 5.802503; 1.345354;,
      -1.725539; 5.408154; 1.190210;,
      -1.397980; 5.634849; 1.430534;,
      -1.725539; 5.408154; 1.190210;,
      -1.428117; 5.407167; 1.340961;,
      -1.397980; 5.634849; 1.430534;,
      -2.488501; 5.411004; 1.687990;,
      -2.459956; 5.183188; 1.777731;,
      -2.337753; 5.410369; 1.390568;,
      -2.459956; 5.183188; 1.777731;,
      -2.288308; 5.015781; 1.546004;,
      -2.337753; 5.410369; 1.390568;,
      -2.337753; 5.410369; 1.390568;,
      -2.288308; 5.015781; 1.546004;,
      -2.058488; 5.409324; 1.208367;,
      -2.288308; 5.015781; 1.546004;,
      -2.001396; 4.953697; 1.387850;,
      -2.058488; 5.409324; 1.208367;,
      -2.058488; 5.409324; 1.208367;,
      -2.001396; 4.953697; 1.387850;,
      -1.725539; 5.408154; 1.190210;,
      -2.001396; 4.953697; 1.387850;,
      -1.676095; 5.013567; 1.345647;,
      -1.725539; 5.408154; 1.190210;,
      -1.725539; 5.408154; 1.190210;,
      -1.676095; 5.013567; 1.345647;,
      -1.428117; 5.407167; 1.340961;,
      -1.676095; 5.013567; 1.345647;,
      -1.399572; 5.179355; 1.430702;,
      -1.428117; 5.407167; 1.340961;,
      -2.459956; 5.183188; 1.777731;,
      -2.389447; 5.088687; 1.994218;,
      -2.288308; 5.015781; 1.546004;,
      -2.389447; 5.088687; 1.994218;,
      -2.166185; 4.852096; 1.920968;,
      -2.288308; 5.015781; 1.546004;,
      -2.288308; 5.015781; 1.546004;,
      -2.166185; 4.852096; 1.920968;,
      -2.001396; 4.953697; 1.387850;,
      -2.166185; 4.852096; 1.920968;,
      -1.860381; 4.764685; 1.820822;,
      -2.001396; 4.953697; 1.387850;,
      -2.001396; 4.953697; 1.387850;,
      -1.860381; 4.764685; 1.820822;,
      -1.676095; 5.013567; 1.345647;,
      -1.860381; 4.764685; 1.820822;,
      -1.553974; 4.849884; 1.720612;,
      -1.676095; 5.013567; 1.345647;,
      -1.676095; 5.013567; 1.345647;,
      -1.553974; 4.849884; 1.720612;,
      -1.399572; 5.179355; 1.430702;,
      -1.553974; 4.849884; 1.720612;,
      -1.329064; 5.084849; 1.647188;,
      -1.399572; 5.179355; 1.430702;,
      -2.389447; 5.088687; 1.994218;,
      -2.318280; 5.182855; 2.210632;,
      -2.166185; 4.852096; 1.920968;,
      -2.318280; 5.182855; 2.210632;,
      -2.042922; 5.015201; 2.295812;,
      -2.166185; 4.852096; 1.920968;,
      -2.166185; 4.852096; 1.920968;,
      -2.042922; 5.015201; 2.295812;,
      -1.860381; 4.764685; 1.820822;,
      -2.042922; 5.015201; 2.295812;,
      -1.718048; 4.953026; 2.253654;,
      -1.860381; 4.764685; 1.820822;,
      -1.860381; 4.764685; 1.820822;,
      -1.718048; 4.953026; 2.253654;,
      -1.553974; 4.849884; 1.720612;,
      -1.718048; 4.953026; 2.253654;,
      -1.430709; 5.012986; 2.095455;,
      -1.553974; 4.849884; 1.720612;,
      -1.553974; 4.849884; 1.720612;,
      -1.430709; 5.012986; 2.095455;,
      -1.329064; 5.084849; 1.647188;,
      -1.430709; 5.012986; 2.095455;,
      -1.257898; 5.179021; 1.863604;,
      -1.329064; 5.084849; 1.647188;,
      -2.318280; 5.182855; 2.210632;,
      -2.288159; 5.410574; 2.300222;,
      -2.042922; 5.015201; 2.295812;,
      -2.288159; 5.410574; 2.300222;,
      -1.990721; 5.409550; 2.450957;,
      -2.042922; 5.015201; 2.295812;,
      -2.042922; 5.015201; 2.295812;,
      -1.990721; 5.409550; 2.450957;,
      -1.718048; 4.953026; 2.253654;,
      -1.990721; 5.409550; 2.450957;,
      -1.657789; 5.408439; 2.432826;,
      -1.718048; 4.953026; 2.253654;,
      -1.718048; 4.953026; 2.253654;,
      -1.657789; 5.408439; 2.432826;,
      -1.430709; 5.012986; 2.095455;,
      -1.657789; 5.408439; 2.432826;,
      -1.378519; 5.407371; 2.250616;,
      -1.430709; 5.012986; 2.095455;,
      -1.430709; 5.012986; 2.095455;,
      -1.378519; 5.407371; 2.250616;,
      -1.257898; 5.179021; 1.863604;,
      -1.378519; 5.407371; 2.250616;,
      -1.227762; 5.406698; 1.953177;,
      -1.257898; 5.179021; 1.863604;,
      -2.288159; 5.410574; 2.300222;,
      -2.316688; 5.638347; 2.210464;,
      -1.990721; 5.409550; 2.450957;,
      -2.316688; 5.638347; 2.210464;,
      -2.040164; 5.804139; 2.295519;,
      -1.990721; 5.409550; 2.450957;,
      -1.990721; 5.409550; 2.450957;,
      -2.040164; 5.804139; 2.295519;,
      -1.657789; 5.408439; 2.432826;,
      -2.040164; 5.804139; 2.295519;,
      -1.714864; 5.864008; 2.253317;,
      -1.657789; 5.408439; 2.432826;,
      -1.657789; 5.408439; 2.432826;,
      -1.714864; 5.864008; 2.253317;,
      -1.378519; 5.407371; 2.250616;,
      -1.714864; 5.864008; 2.253317;,
      -1.427952; 5.801923; 2.095163;,
      -1.378519; 5.407371; 2.250616;,
      -1.378519; 5.407371; 2.250616;,
      -1.427952; 5.801923; 2.095163;,
      -1.227762; 5.406698; 1.953177;,
      -1.427952; 5.801923; 2.095163;,
      -1.256307; 5.634515; 1.863436;,
      -1.227762; 5.406698; 1.953177;,
      -2.316688; 5.638347; 2.210464;,
      -2.387196; 5.732850; 1.993979;,
      -2.040164; 5.804139; 2.295519;,
      -2.387196; 5.732850; 1.993979;,
      -2.162290; 5.966680; 1.920555;,
      -2.040164; 5.804139; 2.295519;,
      -2.040164; 5.804139; 2.295519;,
      -2.162290; 5.966680; 1.920555;,
      -1.714864; 5.864008; 2.253317;,
      -2.162290; 5.966680; 1.920555;,
      -1.855889; 6.050015; 1.820346;,
      -1.714864; 5.864008; 2.253317;,
      -1.714864; 5.864008; 2.253317;,
      -1.855889; 6.050015; 1.820346;,
      -1.427952; 5.801923; 2.095163;,
      -1.855889; 6.050015; 1.820346;,
      -1.550079; 5.964468; 1.720199;,
      -1.427952; 5.801923; 2.095163;,
      -1.427952; 5.801923; 2.095163;,
      -1.550079; 5.964468; 1.720199;,
      -1.256307; 5.634515; 1.863436;,
      -1.550079; 5.964468; 1.720199;,
      -1.326814; 5.729019; 1.646950;,
      -1.256307; 5.634515; 1.863436;,
      -2.387196; 5.732850; 1.993979;,
      -2.458361; 5.638684; 1.777562;,
      -2.162290; 5.966680; 1.920555;,
      -2.458361; 5.638684; 1.777562;,
      -2.285551; 5.804715; 1.545711;,
      -2.162290; 5.966680; 1.920555;,
      -2.162290; 5.966680; 1.920555;,
      -2.285551; 5.804715; 1.545711;,
      -1.855889; 6.050015; 1.820346;,
      -2.285551; 5.804715; 1.545711;,
      -1.998212; 5.864677; 1.387512;,
      -1.855889; 6.050015; 1.820346;,
      -1.855889; 6.050015; 1.820346;,
      -1.998212; 5.864677; 1.387512;,
      -1.550079; 5.964468; 1.720199;,
      -1.998212; 5.864677; 1.387512;,
      -1.673338; 5.802503; 1.345354;,
      -1.550079; 5.964468; 1.720199;,
      -1.550079; 5.964468; 1.720199;,
      -1.673338; 5.802503; 1.345354;,
      -1.326814; 5.729019; 1.646950;,
      -1.673338; 5.802503; 1.345354;,
      -1.397980; 5.634849; 1.430534;,
      -1.326814; 5.729019; 1.646950;,
       2.488500; 5.411004; 1.687990;,
       2.470344; 5.411069; 2.020941;,
       2.458361; 5.638684; 1.777562;,
       2.470344; 5.411069; 2.020941;,
       2.387196; 5.732850; 1.993979;,
       2.458361; 5.638684; 1.777562;,
       2.387196; 5.732850; 1.993979;,
       2.470344; 5.411069; 2.020941;,
       2.316688; 5.638347; 2.210464;,
       2.470344; 5.411069; 2.020941;,
       2.288158; 5.410574; 2.300222;,
       2.316688; 5.638347; 2.210464;,
       2.288158; 5.410574; 2.300222;,
       2.470344; 5.411069; 2.020941;,
       2.318280; 5.182855; 2.210632;,
       2.470344; 5.411069; 2.020941;,
       2.389447; 5.088687; 1.994218;,
       2.318280; 5.182855; 2.210632;,
       2.389447; 5.088687; 1.994218;,
       2.470344; 5.411069; 2.020941;,
       2.459955; 5.183188; 1.777731;,
       2.470344; 5.411069; 2.020941;,
       2.488500; 5.411004; 1.687990;,
       2.459955; 5.183188; 1.777731;,
      -2.488501; 5.411004; 1.687990;,
      -2.458361; 5.638684; 1.777562;,
      -2.470344; 5.411069; 2.020941;,
      -2.458361; 5.638684; 1.777562;,
      -2.387196; 5.732850; 1.993979;,
      -2.470344; 5.411069; 2.020941;,
      -2.470344; 5.411069; 2.020941;,
      -2.387196; 5.732850; 1.993979;,
      -2.316688; 5.638347; 2.210464;,
      -2.316688; 5.638347; 2.210464;,
      -2.288159; 5.410574; 2.300222;,
      -2.470344; 5.411069; 2.020941;,
      -2.470344; 5.411069; 2.020941;,
      -2.288159; 5.410574; 2.300222;,
      -2.318280; 5.182855; 2.210632;,
      -2.318280; 5.182855; 2.210632;,
      -2.389447; 5.088687; 1.994218;,
      -2.470344; 5.411069; 2.020941;,
      -2.470344; 5.411069; 2.020941;,
      -2.389447; 5.088687; 1.994218;,
      -2.459956; 5.183188; 1.777731;,
      -2.459956; 5.183188; 1.777731;,
      -2.488501; 5.411004; 1.687990;,
      -2.470344; 5.411069; 2.020941;;
      144;
      3;0;1;2;,
      3;3;4;5;,
      3;6;7;8;,
      3;9;10;11;,
      3;12;13;14;,
      3;15;16;17;,
      3;18;19;20;,
      3;21;22;23;,
      3;24;25;26;,
      3;27;28;29;,
      3;30;31;32;,
      3;33;34;35;,
      3;36;37;38;,
      3;39;40;41;,
      3;42;43;44;,
      3;45;46;47;,
      3;48;49;50;,
      3;51;52;53;,
      3;54;55;56;,
      3;57;58;59;,
      3;60;61;62;,
      3;63;64;65;,
      3;66;67;68;,
      3;69;70;71;,
      3;72;73;74;,
      3;75;76;77;,
      3;78;79;80;,
      3;81;82;83;,
      3;84;85;86;,
      3;87;88;89;,
      3;90;91;92;,
      3;93;94;95;,
      3;96;97;98;,
      3;99;100;101;,
      3;102;103;104;,
      3;105;106;107;,
      3;108;109;110;,
      3;111;112;113;,
      3;114;115;116;,
      3;117;118;119;,
      3;120;121;122;,
      3;123;124;125;,
      3;126;127;128;,
      3;129;130;131;,
      3;132;133;134;,
      3;135;136;137;,
      3;138;139;140;,
      3;141;142;143;,
      3;144;145;146;,
      3;147;148;149;,
      3;150;151;152;,
      3;153;154;155;,
      3;156;157;158;,
      3;159;160;161;,
      3;162;163;164;,
      3;165;166;167;,
      3;168;169;170;,
      3;171;172;173;,
      3;174;175;176;,
      3;177;178;179;,
      3;180;181;182;,
      3;183;184;185;,
      3;186;187;188;,
      3;189;190;191;,
      3;192;193;194;,
      3;195;196;197;,
      3;198;199;200;,
      3;201;202;203;,
      3;204;205;206;,
      3;207;208;209;,
      3;210;211;212;,
      3;213;214;215;,
      3;216;217;218;,
      3;219;220;221;,
      3;222;223;224;,
      3;225;226;227;,
      3;228;229;230;,
      3;231;232;233;,
      3;234;235;236;,
      3;237;238;239;,
      3;240;241;242;,
      3;243;244;245;,
      3;246;247;248;,
      3;249;250;251;,
      3;252;253;254;,
      3;255;256;257;,
      3;258;259;260;,
      3;261;262;263;,
      3;264;265;266;,
      3;267;268;269;,
      3;270;271;272;,
      3;273;274;275;,
      3;276;277;278;,
      3;279;280;281;,
      3;282;283;284;,
      3;285;286;287;,
      3;288;289;290;,
      3;291;292;293;,
      3;294;295;296;,
      3;297;298;299;,
      3;300;301;302;,
      3;303;304;305;,
      3;306;307;308;,
      3;309;310;311;,
      3;312;313;314;,
      3;315;316;317;,
      3;318;319;320;,
      3;321;322;323;,
      3;324;325;326;,
      3;327;328;329;,
      3;330;331;332;,
      3;333;334;335;,
      3;336;337;338;,
      3;339;340;341;,
      3;342;343;344;,
      3;345;346;347;,
      3;348;349;350;,
      3;351;352;353;,
      3;354;355;356;,
      3;357;358;359;,
      3;360;361;362;,
      3;363;364;365;,
      3;366;367;368;,
      3;369;370;371;,
      3;372;373;374;,
      3;375;376;377;,
      3;378;379;380;,
      3;381;382;383;,
      3;384;385;386;,
      3;387;388;389;,
      3;390;391;392;,
      3;393;394;395;,
      3;396;397;398;,
      3;399;400;401;,
      3;402;403;404;,
      3;405;406;407;,
      3;408;409;410;,
      3;411;412;413;,
      3;414;415;416;,
      3;417;418;419;,
      3;420;421;422;,
      3;423;424;425;,
      3;426;427;428;,
      3;429;430;431;;
      MeshNormals { //Mesh Normals
        432;
        -0.966277;-0.003265; 0.257363;,
        -0.915281;-0.388653; 0.105747;,
        -0.724662;-0.002258; 0.689077;,
        -0.641865;-0.625294; 0.443770;,
        -0.724662;-0.002258; 0.689077;,
        -0.915281;-0.388653; 0.105747;,
        -0.311014;-0.000732; 0.950377;,
        -0.724662;-0.002258; 0.689077;,
        -0.641865;-0.625294; 0.443770;,
        -0.641865;-0.625294; 0.443770;,
        -0.216559;-0.709189; 0.670888;,
        -0.311014;-0.000732; 0.950377;,
        -0.311014;-0.000732; 0.950377;,
        -0.216559;-0.709189; 0.670888;,
         0.177038; 0.000977; 0.984191;,
        -0.216559;-0.709189; 0.670888;,
         0.259285;-0.622669; 0.738273;,
         0.177038; 0.000977; 0.984191;,
         0.177038; 0.000977; 0.984191;,
         0.259285;-0.622669; 0.738273;,
         0.452071; 0.001892; 0.891964;,
         0.259285;-0.622669; 0.738273;,
         0.517991;-0.498642; 0.694968;,
         0.452071; 0.001892; 0.891964;,
        -0.917966; 0.382305; 0.105472;,
        -0.966277;-0.003265; 0.257363;,
        -0.646626; 0.620380; 0.443800;,
        -0.966277;-0.003265; 0.257363;,
        -0.724662;-0.002258; 0.689077;,
        -0.646626; 0.620380; 0.443800;,
        -0.646626; 0.620380; 0.443800;,
        -0.724662;-0.002258; 0.689077;,
        -0.222388; 0.706565; 0.671773;,
        -0.222388; 0.706565; 0.671773;,
        -0.724662;-0.002258; 0.689077;,
        -0.311014;-0.000732; 0.950377;,
        -0.222388; 0.706565; 0.671773;,
        -0.311014;-0.000732; 0.950377;,
         0.255043; 0.623646; 0.738914;,
        -0.311014;-0.000732; 0.950377;,
         0.177038; 0.000977; 0.984191;,
         0.255043; 0.623646; 0.738914;,
         0.255043; 0.623646; 0.738914;,
         0.177038; 0.000977; 0.984191;,
         0.514756; 0.502029; 0.694937;,
         0.177038; 0.000977; 0.984191;,
         0.452071; 0.001892; 0.891964;,
         0.514756; 0.502029; 0.694937;,
        -0.798639; 0.542253;-0.260933;,
        -0.917966; 0.382305; 0.105472;,
        -0.453932; 0.878658;-0.147862;,
        -0.917966; 0.382305; 0.105472;,
        -0.646626; 0.620380; 0.443800;,
        -0.453932; 0.878658;-0.147862;,
        -0.453932; 0.878658;-0.147862;,
        -0.646626; 0.620380; 0.443800;,
        -0.003479; 0.999969;-0.000366;,
        -0.646626; 0.620380; 0.443800;,
        -0.222388; 0.706565; 0.671773;,
        -0.003479; 0.999969;-0.000366;,
        -0.003479; 0.999969;-0.000366;,
        -0.222388; 0.706565; 0.671773;,
         0.447768; 0.881924; 0.147221;,
        -0.222388; 0.706565; 0.671773;,
         0.255043; 0.623646; 0.738914;,
         0.447768; 0.881924; 0.147221;,
         0.447768; 0.881924; 0.147221;,
         0.255043; 0.623646; 0.738914;,
         0.669546; 0.709525; 0.219642;,
         0.255043; 0.623646; 0.738914;,
         0.514756; 0.502029; 0.694937;,
         0.669546; 0.709525; 0.219642;,
        -0.678182; 0.382885;-0.627247;,
        -0.798639; 0.542253;-0.260933;,
        -0.259407; 0.621296;-0.739372;,
        -0.798639; 0.542253;-0.260933;,
        -0.453932; 0.878658;-0.147862;,
        -0.259407; 0.621296;-0.739372;,
        -0.259407; 0.621296;-0.739372;,
        -0.453932; 0.878658;-0.147862;,
         0.217444; 0.707602;-0.672292;,
        -0.453932; 0.878658;-0.147862;,
        -0.003479; 0.999969;-0.000366;,
         0.217444; 0.707602;-0.672292;,
         0.217444; 0.707602;-0.672292;,
        -0.003479; 0.999969;-0.000366;,
         0.642293; 0.624531;-0.444258;,
        -0.003479; 0.999969;-0.000366;,
         0.447768; 0.881924; 0.147221;,
         0.642293; 0.624531;-0.444258;,
         0.642293; 0.624531;-0.444258;,
         0.447768; 0.881924; 0.147221;,
         0.825770; 0.502792;-0.255440;,
         0.447768; 0.881924; 0.147221;,
         0.669546; 0.709525; 0.219642;,
         0.825770; 0.502792;-0.255440;,
        -0.627155;-0.002503;-0.778863;,
        -0.678182; 0.382885;-0.627247;,
        -0.177038;-0.000946;-0.984191;,
        -0.678182; 0.382885;-0.627247;,
        -0.259407; 0.621296;-0.739372;,
        -0.177038;-0.000946;-0.984191;,
        -0.177038;-0.000946;-0.984191;,
        -0.259407; 0.621296;-0.739372;,
         0.310984; 0.000641;-0.950407;,
        -0.259407; 0.621296;-0.739372;,
         0.217444; 0.707602;-0.672292;,
         0.310984; 0.000641;-0.950407;,
         0.310984; 0.000641;-0.950407;,
         0.217444; 0.707602;-0.672292;,
         0.724662; 0.002228;-0.689077;,
         0.217444; 0.707602;-0.672292;,
         0.642293; 0.624531;-0.444258;,
         0.724662; 0.002228;-0.689077;,
         0.724662; 0.002228;-0.689077;,
         0.642293; 0.624531;-0.444258;,
         0.891964; 0.002960;-0.452071;,
         0.642293; 0.624531;-0.444258;,
         0.825770; 0.502792;-0.255440;,
         0.891964; 0.002960;-0.452071;,
        -0.675405;-0.388592;-0.626728;,
        -0.627155;-0.002503;-0.778863;,
        -0.254921;-0.625019;-0.737785;,
        -0.627155;-0.002503;-0.778863;,
        -0.177038;-0.000946;-0.984191;,
        -0.254921;-0.625019;-0.737785;,
        -0.254921;-0.625019;-0.737785;,
        -0.177038;-0.000946;-0.984191;,
         0.221503;-0.708182;-0.670370;,
        -0.177038;-0.000946;-0.984191;,
         0.310984; 0.000641;-0.950407;,
         0.221503;-0.708182;-0.670370;,
         0.221503;-0.708182;-0.670370;,
         0.310984; 0.000641;-0.950407;,
         0.646229;-0.621143;-0.443281;,
         0.310984; 0.000641;-0.950407;,
         0.724662; 0.002228;-0.689077;,
         0.646229;-0.621143;-0.443281;,
         0.646229;-0.621143;-0.443281;,
         0.724662; 0.002228;-0.689077;,
         0.829279;-0.497177;-0.255043;,
         0.724662; 0.002228;-0.689077;,
         0.891964; 0.002960;-0.452071;,
         0.829279;-0.497177;-0.255043;,
        -0.794092;-0.548967;-0.260750;,
        -0.675405;-0.388592;-0.626728;,
        -0.444960;-0.883358;-0.147069;,
        -0.675405;-0.388592;-0.626728;,
        -0.254921;-0.625019;-0.737785;,
        -0.444960;-0.883358;-0.147069;,
        -0.444960;-0.883358;-0.147069;,
        -0.254921;-0.625019;-0.737785;,
         0.003479;-0.999969; 0.000366;,
        -0.254921;-0.625019;-0.737785;,
         0.221503;-0.708182;-0.670370;,
         0.003479;-0.999969; 0.000366;,
         0.003479;-0.999969; 0.000366;,
         0.221503;-0.708182;-0.670370;,
         0.451125;-0.880123; 0.147710;,
         0.221503;-0.708182;-0.670370;,
         0.646229;-0.621143;-0.443281;,
         0.451125;-0.880123; 0.147710;,
         0.451125;-0.880123; 0.147710;,
         0.646229;-0.621143;-0.443281;,
         0.672994;-0.706015; 0.220405;,
         0.646229;-0.621143;-0.443281;,
         0.829279;-0.497177;-0.255043;,
         0.672994;-0.706015; 0.220405;,
        -0.641865;-0.625294; 0.443770;,
        -0.915281;-0.388653; 0.105747;,
        -0.794092;-0.548967;-0.260750;,
        -0.794092;-0.548967;-0.260750;,
        -0.444960;-0.883358;-0.147069;,
        -0.641865;-0.625294; 0.443770;,
        -0.641865;-0.625294; 0.443770;,
        -0.444960;-0.883358;-0.147069;,
        -0.216559;-0.709189; 0.670888;,
        -0.444960;-0.883358;-0.147069;,
         0.003479;-0.999969; 0.000366;,
        -0.216559;-0.709189; 0.670888;,
        -0.216559;-0.709189; 0.670888;,
         0.003479;-0.999969; 0.000366;,
         0.259285;-0.622669; 0.738273;,
         0.003479;-0.999969; 0.000366;,
         0.451125;-0.880123; 0.147710;,
         0.259285;-0.622669; 0.738273;,
         0.259285;-0.622669; 0.738273;,
         0.451125;-0.880123; 0.147710;,
         0.517991;-0.498642; 0.694968;,
         0.451125;-0.880123; 0.147710;,
         0.672994;-0.706015; 0.220405;,
         0.517991;-0.498642; 0.694968;,
         0.915098;-0.389111; 0.105655;,
         0.966277;-0.003265; 0.257363;,
         0.641499;-0.625904; 0.443464;,
         0.966277;-0.003265; 0.257363;,
         0.724662;-0.002258; 0.689077;,
         0.641499;-0.625904; 0.443464;,
         0.641499;-0.625904; 0.443464;,
         0.724662;-0.002258; 0.689077;,
         0.217322;-0.709189; 0.670644;,
         0.724662;-0.002258; 0.689077;,
         0.311014;-0.000732; 0.950377;,
         0.217322;-0.709189; 0.670644;,
         0.217322;-0.709189; 0.670644;,
         0.311014;-0.000732; 0.950377;,
        -0.259377;-0.622028; 0.738731;,
         0.311014;-0.000732; 0.950377;,
        -0.177038; 0.000977; 0.984191;,
        -0.259377;-0.622028; 0.738731;,
        -0.259377;-0.622028; 0.738731;,
        -0.177038; 0.000977; 0.984191;,
        -0.518235;-0.497909; 0.695303;,
        -0.177038; 0.000977; 0.984191;,
        -0.452071; 0.001892; 0.891964;,
        -0.518235;-0.497909; 0.695303;,
         0.966277;-0.003265; 0.257363;,
         0.917966; 0.382305; 0.105472;,
         0.724662;-0.002258; 0.689077;,
         0.917966; 0.382305; 0.105472;,
         0.646626; 0.620380; 0.443800;,
         0.724662;-0.002258; 0.689077;,
         0.724662;-0.002258; 0.689077;,
         0.646626; 0.620380; 0.443800;,
         0.311014;-0.000732; 0.950377;,
         0.646626; 0.620380; 0.443800;,
         0.222388; 0.706565; 0.671773;,
         0.311014;-0.000732; 0.950377;,
         0.311014;-0.000732; 0.950377;,
         0.222388; 0.706565; 0.671773;,
        -0.177038; 0.000977; 0.984191;,
         0.222388; 0.706565; 0.671773;,
        -0.255043; 0.623646; 0.738914;,
        -0.177038; 0.000977; 0.984191;,
        -0.177038; 0.000977; 0.984191;,
        -0.255043; 0.623646; 0.738914;,
        -0.452071; 0.001892; 0.891964;,
        -0.255043; 0.623646; 0.738914;,
        -0.514756; 0.502060; 0.694937;,
        -0.452071; 0.001892; 0.891964;,
         0.917966; 0.382305; 0.105472;,
         0.798639; 0.542253;-0.260933;,
         0.646626; 0.620380; 0.443800;,
         0.798639; 0.542253;-0.260933;,
         0.453932; 0.878658;-0.147862;,
         0.646626; 0.620380; 0.443800;,
         0.646626; 0.620380; 0.443800;,
         0.453932; 0.878658;-0.147862;,
         0.222388; 0.706565; 0.671773;,
         0.453932; 0.878658;-0.147862;,
         0.003479; 0.999969;-0.000366;,
         0.222388; 0.706565; 0.671773;,
         0.222388; 0.706565; 0.671773;,
         0.003479; 0.999969;-0.000366;,
        -0.255043; 0.623646; 0.738914;,
         0.003479; 0.999969;-0.000366;,
        -0.447768; 0.881924; 0.147221;,
        -0.255043; 0.623646; 0.738914;,
        -0.255043; 0.623646; 0.738914;,
        -0.447768; 0.881924; 0.147221;,
        -0.514756; 0.502060; 0.694937;,
        -0.447768; 0.881924; 0.147221;,
        -0.669546; 0.709525; 0.219672;,
        -0.514756; 0.502060; 0.694937;,
         0.798639; 0.542253;-0.260933;,
         0.678182; 0.382885;-0.627216;,
         0.453932; 0.878658;-0.147862;,
         0.678182; 0.382885;-0.627216;,
         0.259407; 0.621296;-0.739372;,
         0.453932; 0.878658;-0.147862;,
         0.453932; 0.878658;-0.147862;,
         0.259407; 0.621296;-0.739372;,
         0.003479; 0.999969;-0.000366;,
         0.259407; 0.621296;-0.739372;,
        -0.217444; 0.707602;-0.672292;,
         0.003479; 0.999969;-0.000366;,
         0.003479; 0.999969;-0.000366;,
        -0.217444; 0.707602;-0.672292;,
        -0.447768; 0.881924; 0.147221;,
        -0.217444; 0.707602;-0.672292;,
        -0.642293; 0.624531;-0.444258;,
        -0.447768; 0.881924; 0.147221;,
        -0.447768; 0.881924; 0.147221;,
        -0.642293; 0.624531;-0.444258;,
        -0.669546; 0.709525; 0.219672;,
        -0.642293; 0.624531;-0.444258;,
        -0.825770; 0.502762;-0.255440;,
        -0.669546; 0.709525; 0.219672;,
         0.678182; 0.382885;-0.627216;,
         0.627155;-0.002533;-0.778863;,
         0.259407; 0.621296;-0.739372;,
         0.627155;-0.002533;-0.778863;,
         0.177068;-0.000946;-0.984191;,
         0.259407; 0.621296;-0.739372;,
         0.259407; 0.621296;-0.739372;,
         0.177068;-0.000946;-0.984191;,
        -0.217444; 0.707602;-0.672292;,
         0.177068;-0.000946;-0.984191;,
        -0.310984; 0.000671;-0.950377;,
        -0.217444; 0.707602;-0.672292;,
        -0.217444; 0.707602;-0.672292;,
        -0.310984; 0.000671;-0.950377;,
        -0.642293; 0.624531;-0.444258;,
        -0.310984; 0.000671;-0.950377;,
        -0.724662; 0.002228;-0.689077;,
        -0.642293; 0.624531;-0.444258;,
        -0.642293; 0.624531;-0.444258;,
        -0.724662; 0.002228;-0.689077;,
        -0.825770; 0.502762;-0.255440;,
        -0.724662; 0.002228;-0.689077;,
        -0.891934; 0.002960;-0.452101;,
        -0.825770; 0.502762;-0.255440;,
         0.627155;-0.002533;-0.778863;,
         0.675466;-0.388104;-0.626942;,
         0.177068;-0.000946;-0.984191;,
         0.675466;-0.388104;-0.626942;,
         0.255043;-0.624409;-0.738273;,
         0.177068;-0.000946;-0.984191;,
         0.177068;-0.000946;-0.984191;,
         0.255043;-0.624409;-0.738273;,
        -0.310984; 0.000671;-0.950377;,
         0.255043;-0.624409;-0.738273;,
        -0.222297;-0.708182;-0.670095;,
        -0.310984; 0.000671;-0.950377;,
        -0.310984; 0.000671;-0.950377;,
        -0.222297;-0.708182;-0.670095;,
        -0.724662; 0.002228;-0.689077;,
        -0.222297;-0.708182;-0.670095;,
        -0.645863;-0.621754;-0.442976;,
        -0.724662; 0.002228;-0.689077;,
        -0.724662; 0.002228;-0.689077;,
        -0.645863;-0.621754;-0.442976;,
        -0.891934; 0.002960;-0.452101;,
        -0.645863;-0.621754;-0.442976;,
        -0.828883;-0.497909;-0.254952;,
        -0.891934; 0.002960;-0.452101;,
         0.675466;-0.388104;-0.626942;,
         0.794366;-0.548967;-0.259926;,
         0.255043;-0.624409;-0.738273;,
         0.794366;-0.548967;-0.259926;,
         0.445418;-0.883358;-0.145665;,
         0.255043;-0.624409;-0.738273;,
         0.255043;-0.624409;-0.738273;,
         0.445418;-0.883358;-0.145665;,
        -0.222297;-0.708182;-0.670095;,
         0.445418;-0.883358;-0.145665;,
        -0.003479;-0.999969; 0.000366;,
        -0.222297;-0.708182;-0.670095;,
        -0.222297;-0.708182;-0.670095;,
        -0.003479;-0.999969; 0.000366;,
        -0.645863;-0.621754;-0.442976;,
        -0.003479;-0.999969; 0.000366;,
        -0.451582;-0.880123; 0.146336;,
        -0.645863;-0.621754;-0.442976;,
        -0.645863;-0.621754;-0.442976;,
        -0.451582;-0.880123; 0.146336;,
        -0.828883;-0.497909;-0.254952;,
        -0.451582;-0.880123; 0.146336;,
        -0.673421;-0.706015; 0.219092;,
        -0.828883;-0.497909;-0.254952;,
         0.794366;-0.548967;-0.259926;,
         0.915098;-0.389111; 0.105655;,
         0.445418;-0.883358;-0.145665;,
         0.915098;-0.389111; 0.105655;,
         0.641499;-0.625904; 0.443464;,
         0.445418;-0.883358;-0.145665;,
         0.445418;-0.883358;-0.145665;,
         0.641499;-0.625904; 0.443464;,
        -0.003479;-0.999969; 0.000366;,
         0.641499;-0.625904; 0.443464;,
         0.217322;-0.709189; 0.670644;,
        -0.003479;-0.999969; 0.000366;,
        -0.003479;-0.999969; 0.000366;,
         0.217322;-0.709189; 0.670644;,
        -0.451582;-0.880123; 0.146336;,
         0.217322;-0.709189; 0.670644;,
        -0.259377;-0.622028; 0.738731;,
        -0.451582;-0.880123; 0.146336;,
        -0.451582;-0.880123; 0.146336;,
        -0.259377;-0.622028; 0.738731;,
        -0.673421;-0.706015; 0.219092;,
        -0.259377;-0.622028; 0.738731;,
        -0.518235;-0.497909; 0.695303;,
        -0.673421;-0.706015; 0.219092;,
        -0.966277;-0.003265; 0.257363;,
        -0.950377;-0.003418;-0.311014;,
        -0.915281;-0.388653; 0.105747;,
        -0.950377;-0.003418;-0.311014;,
        -0.794092;-0.548967;-0.260750;,
        -0.915281;-0.388653; 0.105747;,
        -0.794092;-0.548967;-0.260750;,
        -0.950377;-0.003418;-0.311014;,
        -0.675405;-0.388592;-0.626728;,
        -0.950377;-0.003418;-0.311014;,
        -0.627155;-0.002503;-0.778863;,
        -0.675405;-0.388592;-0.626728;,
        -0.627155;-0.002503;-0.778863;,
        -0.950377;-0.003418;-0.311014;,
        -0.678182; 0.382885;-0.627247;,
        -0.950377;-0.003418;-0.311014;,
        -0.798639; 0.542253;-0.260933;,
        -0.678182; 0.382885;-0.627247;,
        -0.798639; 0.542253;-0.260933;,
        -0.950377;-0.003418;-0.311014;,
        -0.917966; 0.382305; 0.105472;,
        -0.950377;-0.003418;-0.311014;,
        -0.966277;-0.003265; 0.257363;,
        -0.917966; 0.382305; 0.105472;,
         0.966277;-0.003265; 0.257363;,
         0.915098;-0.389111; 0.105655;,
         0.950377;-0.003418;-0.311014;,
         0.915098;-0.389111; 0.105655;,
         0.794366;-0.548967;-0.259926;,
         0.950377;-0.003418;-0.311014;,
         0.950377;-0.003418;-0.311014;,
         0.794366;-0.548967;-0.259926;,
         0.675466;-0.388104;-0.626942;,
         0.675466;-0.388104;-0.626942;,
         0.627155;-0.002533;-0.778863;,
         0.950377;-0.003418;-0.311014;,
         0.950377;-0.003418;-0.311014;,
         0.627155;-0.002533;-0.778863;,
         0.678182; 0.382885;-0.627216;,
         0.678182; 0.382885;-0.627216;,
         0.798639; 0.542253;-0.260933;,
         0.950377;-0.003418;-0.311014;,
         0.950377;-0.003418;-0.311014;,
         0.798639; 0.542253;-0.260933;,
         0.917966; 0.382305; 0.105472;,
         0.917966; 0.382305; 0.105472;,
         0.966277;-0.003265; 0.257363;,
         0.950377;-0.003418;-0.311014;;
        144;
        3;0;1;2;,
        3;3;4;5;,
        3;6;7;8;,
        3;9;10;11;,
        3;12;13;14;,
        3;15;16;17;,
        3;18;19;20;,
        3;21;22;23;,
        3;24;25;26;,
        3;27;28;29;,
        3;30;31;32;,
        3;33;34;35;,
        3;36;37;38;,
        3;39;40;41;,
        3;42;43;44;,
        3;45;46;47;,
        3;48;49;50;,
        3;51;52;53;,
        3;54;55;56;,
        3;57;58;59;,
        3;60;61;62;,
        3;63;64;65;,
        3;66;67;68;,
        3;69;70;71;,
        3;72;73;74;,
        3;75;76;77;,
        3;78;79;80;,
        3;81;82;83;,
        3;84;85;86;,
        3;87;88;89;,
        3;90;91;92;,
        3;93;94;95;,
        3;96;97;98;,
        3;99;100;101;,
        3;102;103;104;,
        3;105;106;107;,
        3;108;109;110;,
        3;111;112;113;,
        3;114;115;116;,
        3;117;118;119;,
        3;120;121;122;,
        3;123;124;125;,
        3;126;127;128;,
        3;129;130;131;,
        3;132;133;134;,
        3;135;136;137;,
        3;138;139;140;,
        3;141;142;143;,
        3;144;145;146;,
        3;147;148;149;,
        3;150;151;152;,
        3;153;154;155;,
        3;156;157;158;,
        3;159;160;161;,
        3;162;163;164;,
        3;165;166;167;,
        3;168;169;170;,
        3;171;172;173;,
        3;174;175;176;,
        3;177;178;179;,
        3;180;181;182;,
        3;183;184;185;,
        3;186;187;188;,
        3;189;190;191;,
        3;192;193;194;,
        3;195;196;197;,
        3;198;199;200;,
        3;201;202;203;,
        3;204;205;206;,
        3;207;208;209;,
        3;210;211;212;,
        3;213;214;215;,
        3;216;217;218;,
        3;219;220;221;,
        3;222;223;224;,
        3;225;226;227;,
        3;228;229;230;,
        3;231;232;233;,
        3;234;235;236;,
        3;237;238;239;,
        3;240;241;242;,
        3;243;244;245;,
        3;246;247;248;,
        3;249;250;251;,
        3;252;253;254;,
        3;255;256;257;,
        3;258;259;260;,
        3;261;262;263;,
        3;264;265;266;,
        3;267;268;269;,
        3;270;271;272;,
        3;273;274;275;,
        3;276;277;278;,
        3;279;280;281;,
        3;282;283;284;,
        3;285;286;287;,
        3;288;289;290;,
        3;291;292;293;,
        3;294;295;296;,
        3;297;298;299;,
        3;300;301;302;,
        3;303;304;305;,
        3;306;307;308;,
        3;309;310;311;,
        3;312;313;314;,
        3;315;316;317;,
        3;318;319;320;,
        3;321;322;323;,
        3;324;325;326;,
        3;327;328;329;,
        3;330;331;332;,
        3;333;334;335;,
        3;336;337;338;,
        3;339;340;341;,
        3;342;343;344;,
        3;345;346;347;,
        3;348;349;350;,
        3;351;352;353;,
        3;354;355;356;,
        3;357;358;359;,
        3;360;361;362;,
        3;363;364;365;,
        3;366;367;368;,
        3;369;370;371;,
        3;372;373;374;,
        3;375;376;377;,
        3;378;379;380;,
        3;381;382;383;,
        3;384;385;386;,
        3;387;388;389;,
        3;390;391;392;,
        3;393;394;395;,
        3;396;397;398;,
        3;399;400;401;,
        3;402;403;404;,
        3;405;406;407;,
        3;408;409;410;,
        3;411;412;413;,
        3;414;415;416;,
        3;417;418;419;,
        3;420;421;422;,
        3;423;424;425;,
        3;426;427;428;,
        3;429;430;431;;
      } //End of Mesh Normals
      MeshMaterialList { //Mesh Material List
        1;
        144;
        0,
        0,
        0,
        0,
        0,
        0,
        0,
        0,
        0,
        0,
        0,
        0,
        0,
        0,
        0,
        0,
        0,
        0,
        0,
        0,
        0,
        0,
        0,
        0,
        0,
        0,
        0,
        0,
        0,
        0,
        0,
        0,
        0,
        0,
        0,
        0,
        0,
        0,
        0,
        0,
        0,
        0,
        0,
        0,
        0,
        0,
        0,
        0,
        0,
        0,
        0,
        0,
        0,
        0,
        0,
        0,
        0,
        0,
        0,
        0,
        0,
        0,
        0,
        0,
        0,
        0,
        0,
        0,
        0,
        0,
        0,
        0,
        0,
        0,
        0,
        0,
        0,
        0,
        0,
        0,
        0,
        0,
        0,
        0,
        0,
        0,
        0,
        0,
        0,
        0,
        0,
        0,
        0,
        0,
        0,
        0,
        0,
        0,
        0,
        0,
        0,
        0,
        0,
        0,
        0,
        0,
        0,
        0,
        0,
        0,
        0,
        0,
        0,
        0,
        0,
        0,
        0,
        0,
        0,
        0,
        0,
        0,
        0,
        0,
        0,
        0,
        0,
        0,
        0,
        0,
        0,
        0,
        0,
        0,
        0,
        0,
        0,
        0,
        0,
        0,
        0,
        0,
        0,
        0;;
        Material mat_0 {
           0.640000; 0.640000; 0.640000; 1.000000;;
           92.156863;
           0.250000; 0.250000; 0.250000;;
           0.000000; 0.000000; 0.000000;;
          TextureFilename {"Textures/gureggru_2_0.tga";}
        }
      } //End of Mesh Material List
      MeshTextureCoords { //Mesh UV Coordinates
        432;
         0.164756; 0.892846;,
         0.154181; 0.867314;,
         0.191188; 0.892846;,
         0.191188; 0.892846;,
         0.154181; 0.867314;,
         0.172871; 0.848624;,
         0.200863; 0.892846;,
         0.191188; 0.892846;,
         0.172871; 0.848624;,
         0.172871; 0.848624;,
         0.179712; 0.841783;,
         0.200863; 0.892846;,
         0.200863; 0.892846;,
         0.179712; 0.841783;,
         0.191188; 0.892846;,
         0.179712; 0.841783;,
         0.172871; 0.848624;,
         0.191188; 0.892846;,
         0.191188; 0.892846;,
         0.172871; 0.848624;,
         0.164756; 0.892846;,
         0.172871; 0.848624;,
         0.154181; 0.867314;,
         0.164756; 0.892846;,
         0.154181; 0.918377;,
         0.164756; 0.892846;,
         0.172871; 0.937068;,
         0.164756; 0.892846;,
         0.191188; 0.892846;,
         0.172871; 0.937068;,
         0.172871; 0.937068;,
         0.191188; 0.892846;,
         0.179712; 0.943909;,
         0.179712; 0.943909;,
         0.191188; 0.892846;,
         0.200863; 0.892846;,
         0.179712; 0.943909;,
         0.200863; 0.892846;,
         0.172871; 0.937068;,
         0.200863; 0.892846;,
         0.191188; 0.892846;,
         0.172871; 0.937068;,
         0.172871; 0.937068;,
         0.191188; 0.892846;,
         0.154181; 0.918377;,
         0.191188; 0.892846;,
         0.164756; 0.892846;,
         0.154181; 0.918377;,
         0.128649; 0.928953;,
         0.154181; 0.918377;,
         0.128649; 0.955385;,
         0.154181; 0.918377;,
         0.172871; 0.937068;,
         0.128649; 0.955385;,
         0.128649; 0.955385;,
         0.172871; 0.937068;,
         0.128649; 0.965060;,
         0.172871; 0.937068;,
         0.179712; 0.943909;,
         0.128649; 0.965060;,
         0.128649; 0.965060;,
         0.179712; 0.943909;,
         0.128649; 0.955385;,
         0.179712; 0.943909;,
         0.172871; 0.937068;,
         0.128649; 0.955385;,
         0.128649; 0.955385;,
         0.172871; 0.937068;,
         0.128649; 0.928953;,
         0.172871; 0.937068;,
         0.154181; 0.918377;,
         0.128649; 0.928953;,
         0.103118; 0.918377;,
         0.128649; 0.928953;,
         0.084427; 0.937068;,
         0.128649; 0.928953;,
         0.128649; 0.955385;,
         0.084427; 0.937068;,
         0.084427; 0.937068;,
         0.128649; 0.955385;,
         0.077586; 0.943909;,
         0.128649; 0.955385;,
         0.128649; 0.965060;,
         0.077586; 0.943909;,
         0.077586; 0.943909;,
         0.128649; 0.965060;,
         0.084427; 0.937068;,
         0.128649; 0.965060;,
         0.128649; 0.955385;,
         0.084427; 0.937068;,
         0.084427; 0.937068;,
         0.128649; 0.955385;,
         0.103118; 0.918377;,
         0.128649; 0.955385;,
         0.128649; 0.928953;,
         0.103118; 0.918377;,
         0.092542; 0.892846;,
         0.103118; 0.918377;,
         0.066110; 0.892846;,
         0.103118; 0.918377;,
         0.084427; 0.937068;,
         0.066110; 0.892846;,
         0.066110; 0.892846;,
         0.084427; 0.937068;,
         0.056435; 0.892846;,
         0.084427; 0.937068;,
         0.077586; 0.943909;,
         0.056435; 0.892846;,
         0.056435; 0.892846;,
         0.077586; 0.943909;,
         0.066110; 0.892846;,
         0.077586; 0.943909;,
         0.084427; 0.937068;,
         0.066110; 0.892846;,
         0.066110; 0.892846;,
         0.084427; 0.937068;,
         0.092542; 0.892846;,
         0.084427; 0.937068;,
         0.103118; 0.918377;,
         0.092542; 0.892846;,
         0.103118; 0.867314;,
         0.092542; 0.892846;,
         0.084427; 0.848624;,
         0.092542; 0.892846;,
         0.066110; 0.892846;,
         0.084427; 0.848624;,
         0.084427; 0.848624;,
         0.066110; 0.892846;,
         0.077586; 0.841783;,
         0.066110; 0.892846;,
         0.056435; 0.892846;,
         0.077586; 0.841783;,
         0.077586; 0.841783;,
         0.056435; 0.892846;,
         0.084427; 0.848624;,
         0.056435; 0.892846;,
         0.066110; 0.892846;,
         0.084427; 0.848624;,
         0.084427; 0.848624;,
         0.066110; 0.892846;,
         0.103118; 0.867314;,
         0.066110; 0.892846;,
         0.092542; 0.892846;,
         0.103118; 0.867314;,
         0.128649; 0.856739;,
         0.103118; 0.867314;,
         0.128649; 0.830307;,
         0.103118; 0.867314;,
         0.084427; 0.848624;,
         0.128649; 0.830307;,
         0.128649; 0.830307;,
         0.084427; 0.848624;,
         0.128649; 0.820632;,
         0.084427; 0.848624;,
         0.077586; 0.841783;,
         0.128649; 0.820632;,
         0.128649; 0.820632;,
         0.077586; 0.841783;,
         0.128649; 0.830307;,
         0.077586; 0.841783;,
         0.084427; 0.848624;,
         0.128649; 0.830307;,
         0.128649; 0.830307;,
         0.084427; 0.848624;,
         0.128649; 0.856739;,
         0.084427; 0.848624;,
         0.103118; 0.867314;,
         0.128649; 0.856739;,
         0.154181; 0.867314;,
         0.128649; 0.856739;,
         0.172871; 0.848624;,
         0.128649; 0.856739;,
         0.128649; 0.830307;,
         0.172871; 0.848624;,
         0.172871; 0.848624;,
         0.128649; 0.830307;,
         0.179712; 0.841783;,
         0.128649; 0.830307;,
         0.128649; 0.820632;,
         0.179712; 0.841783;,
         0.179712; 0.841783;,
         0.128649; 0.820632;,
         0.172871; 0.848624;,
         0.128649; 0.820632;,
         0.128649; 0.830307;,
         0.172871; 0.848624;,
         0.172871; 0.848624;,
         0.128649; 0.830307;,
         0.154181; 0.867314;,
         0.128649; 0.830307;,
         0.128649; 0.856739;,
         0.154181; 0.867314;,
         0.154181; 0.867314;,
         0.164756; 0.892846;,
         0.172871; 0.848624;,
         0.164756; 0.892846;,
         0.191188; 0.892846;,
         0.172871; 0.848624;,
         0.172871; 0.848624;,
         0.191188; 0.892846;,
         0.179712; 0.841783;,
         0.191188; 0.892846;,
         0.200863; 0.892846;,
         0.179712; 0.841783;,
         0.179712; 0.841783;,
         0.200863; 0.892846;,
         0.172871; 0.848624;,
         0.200863; 0.892846;,
         0.191188; 0.892846;,
         0.172871; 0.848624;,
         0.172871; 0.848624;,
         0.191188; 0.892846;,
         0.154181; 0.867314;,
         0.191188; 0.892846;,
         0.164756; 0.892846;,
         0.154181; 0.867314;,
         0.164756; 0.892846;,
         0.154181; 0.918377;,
         0.191188; 0.892846;,
         0.154181; 0.918377;,
         0.172871; 0.937068;,
         0.191188; 0.892846;,
         0.191188; 0.892846;,
         0.172871; 0.937068;,
         0.200863; 0.892846;,
         0.172871; 0.937068;,
         0.179712; 0.943909;,
         0.200863; 0.892846;,
         0.200863; 0.892846;,
         0.179712; 0.943909;,
         0.191188; 0.892846;,
         0.179712; 0.943909;,
         0.172871; 0.937068;,
         0.191188; 0.892846;,
         0.191188; 0.892846;,
         0.172871; 0.937068;,
         0.164756; 0.892846;,
         0.172871; 0.937068;,
         0.154181; 0.918377;,
         0.164756; 0.892846;,
         0.154181; 0.918377;,
         0.128649; 0.928953;,
         0.172871; 0.937068;,
         0.128649; 0.928953;,
         0.128649; 0.955385;,
         0.172871; 0.937068;,
         0.172871; 0.937068;,
         0.128649; 0.955385;,
         0.179712; 0.943909;,
         0.128649; 0.955385;,
         0.128649; 0.965060;,
         0.179712; 0.943909;,
         0.179712; 0.943909;,
         0.128649; 0.965060;,
         0.172871; 0.937068;,
         0.128649; 0.965060;,
         0.128649; 0.955385;,
         0.172871; 0.937068;,
         0.172871; 0.937068;,
         0.128649; 0.955385;,
         0.154181; 0.918377;,
         0.128649; 0.955385;,
         0.128649; 0.928953;,
         0.154181; 0.918377;,
         0.128649; 0.928953;,
         0.103118; 0.918377;,
         0.128649; 0.955385;,
         0.103118; 0.918377;,
         0.084427; 0.937068;,
         0.128649; 0.955385;,
         0.128649; 0.955385;,
         0.084427; 0.937068;,
         0.128649; 0.965060;,
         0.084427; 0.937068;,
         0.077586; 0.943909;,
         0.128649; 0.965060;,
         0.128649; 0.965060;,
         0.077586; 0.943909;,
         0.128649; 0.955385;,
         0.077586; 0.943909;,
         0.084427; 0.937068;,
         0.128649; 0.955385;,
         0.128649; 0.955385;,
         0.084427; 0.937068;,
         0.128649; 0.928953;,
         0.084427; 0.937068;,
         0.103118; 0.918377;,
         0.128649; 0.928953;,
         0.103118; 0.918377;,
         0.092542; 0.892846;,
         0.084427; 0.937068;,
         0.092542; 0.892846;,
         0.066110; 0.892846;,
         0.084427; 0.937068;,
         0.084427; 0.937068;,
         0.066110; 0.892846;,
         0.077586; 0.943909;,
         0.066110; 0.892846;,
         0.056435; 0.892846;,
         0.077586; 0.943909;,
         0.077586; 0.943909;,
         0.056435; 0.892846;,
         0.084427; 0.937068;,
         0.056435; 0.892846;,
         0.066110; 0.892846;,
         0.084427; 0.937068;,
         0.084427; 0.937068;,
         0.066110; 0.892846;,
         0.103118; 0.918377;,
         0.066110; 0.892846;,
         0.092542; 0.892846;,
         0.103118; 0.918377;,
         0.092542; 0.892846;,
         0.103118; 0.867314;,
         0.066110; 0.892846;,
         0.103118; 0.867314;,
         0.084427; 0.848624;,
         0.066110; 0.892846;,
         0.066110; 0.892846;,
         0.084427; 0.848624;,
         0.056435; 0.892846;,
         0.084427; 0.848624;,
         0.077586; 0.841783;,
         0.056435; 0.892846;,
         0.056435; 0.892846;,
         0.077586; 0.841783;,
         0.066110; 0.892846;,
         0.077586; 0.841783;,
         0.084427; 0.848624;,
         0.066110; 0.892846;,
         0.066110; 0.892846;,
         0.084427; 0.848624;,
         0.092542; 0.892846;,
         0.084427; 0.848624;,
         0.103118; 0.867314;,
         0.092542; 0.892846;,
         0.103118; 0.867314;,
         0.128649; 0.856739;,
         0.084427; 0.848624;,
         0.128649; 0.856739;,
         0.128649; 0.830307;,
         0.084427; 0.848624;,
         0.084427; 0.848624;,
         0.128649; 0.830307;,
         0.077586; 0.841783;,
         0.128649; 0.830307;,
         0.128649; 0.820632;,
         0.077586; 0.841783;,
         0.077586; 0.841783;,
         0.128649; 0.820632;,
         0.084427; 0.848624;,
         0.128649; 0.820632;,
         0.128649; 0.830307;,
         0.084427; 0.848624;,
         0.084427; 0.848624;,
         0.128649; 0.830307;,
         0.103118; 0.867314;,
         0.128649; 0.830307;,
         0.128649; 0.856739;,
         0.103118; 0.867314;,
         0.128649; 0.856739;,
         0.154181; 0.867314;,
         0.128649; 0.830307;,
         0.154181; 0.867314;,
         0.172871; 0.848624;,
         0.128649; 0.830307;,
         0.128649; 0.830307;,
         0.172871; 0.848624;,
         0.128649; 0.820632;,
         0.172871; 0.848624;,
         0.179712; 0.841783;,
         0.128649; 0.820632;,
         0.128649; 0.820632;,
         0.179712; 0.841783;,
         0.128649; 0.830307;,
         0.179712; 0.841783;,
         0.172871; 0.848624;,
         0.128649; 0.830307;,
         0.128649; 0.830307;,
         0.172871; 0.848624;,
         0.128649; 0.856739;,
         0.172871; 0.848624;,
         0.154181; 0.867314;,
         0.128649; 0.856739;,
         0.164756; 0.892846;,
         0.128649; 0.892846;,
         0.154181; 0.867314;,
         0.128649; 0.892846;,
         0.128649; 0.856739;,
         0.154181; 0.867314;,
         0.128649; 0.856739;,
         0.128649; 0.892846;,
         0.103118; 0.867314;,
         0.128649; 0.892846;,
         0.092542; 0.892846;,
         0.103118; 0.867314;,
         0.092542; 0.892846;,
         0.128649; 0.892846;,
         0.103118; 0.918377;,
         0.128649; 0.892846;,
         0.128649; 0.928953;,
         0.103118; 0.918377;,
         0.128649; 0.928953;,
         0.128649; 0.892846;,
         0.154181; 0.918377;,
         0.128649; 0.892846;,
         0.164756; 0.892846;,
         0.154181; 0.918377;,
         0.164756; 0.892846;,
         0.154181; 0.867314;,
         0.128649; 0.892846;,
         0.154181; 0.867314;,
         0.128649; 0.856739;,
         0.128649; 0.892846;,
         0.128649; 0.892846;,
         0.128649; 0.856739;,
         0.103118; 0.867314;,
         0.103118; 0.867314;,
         0.092542; 0.892846;,
         0.128649; 0.892846;,
         0.128649; 0.892846;,
         0.092542; 0.892846;,
         0.103118; 0.918377;,
         0.103118; 0.918377;,
         0.128649; 0.928953;,
         0.128649; 0.892846;,
         0.128649; 0.892846;,
         0.128649; 0.928953;,
         0.154181; 0.918377;,
         0.154181; 0.918377;,
         0.164756; 0.892846;,
         0.128649; 0.892846;;
      } //End of Mesh UV Coordinates
    } //End of Mesh Mesh
  } //End of gureggru_mat_0
} //End of Root Frame
