# Blender v2.66 (sub 1) OBJ File: 'BR_Croagunk.blend'
# www.blender.org
mtllib BR_Croagunk.mtl
o gureggru
v 1.498590 -0.570557 -0.220224
v 1.471006 -0.510146 -0.497141
v 2.028457 -0.510146 -0.497145
v 2.000874 -0.570123 -0.218072
v 1.537174 -0.438918 -0.051113
v 1.962290 -0.438918 -0.051113
v 1.603446 0.442370 -0.395061
v 1.897873 0.442368 -0.395060
v 2.198868 0.442368 -0.395060
v 1.316144 0.442368 -0.395058
v 1.365013 0.265857 -0.505083
v 1.324025 0.057949 -0.048018
v 2.143262 0.265857 -0.505079
v 2.188335 0.057949 -0.048018
v 1.604627 0.057949 -0.048018
v 1.896481 0.057949 -0.048018
v 1.961534 1.309917 -0.446581
v 1.959908 1.309917 -0.042130
v 2.047428 1.473134 -0.153539
v 2.048207 1.473132 -0.319579
v 2.295885 1.309917 -0.446579
v 2.208788 1.473132 -0.319579
v 2.295885 1.309917 -0.042130
v 2.208788 1.473133 -0.153535
v 1.578097 1.309956 -0.446494
v 1.578097 1.309956 -0.042374
v 1.667673 1.473094 -0.153812
v 1.667673 1.473094 -0.319690
v 1.922799 1.309956 -0.446496
v 1.833225 1.473094 -0.319690
v 1.922799 1.309956 -0.042376
v 1.833225 1.473094 -0.153812
v 1.199104 1.309445 -0.448700
v 1.199104 1.309445 -0.040168
v 1.287567 1.473604 -0.152740
v 1.287567 1.473604 -0.320768
v 1.548433 1.309445 -0.448700
v 1.451064 1.473604 -0.320768
v 1.548433 1.309445 -0.040168
v 1.451064 1.473604 -0.152740
v 1.593739 1.365337 -5.156065
v 1.593739 1.365337 -5.156065
v 1.676948 1.452832 -5.485025
v 1.647815 1.763011 -5.478622
v 1.658395 1.492612 -5.287525
v 0.386090 2.448516 -6.108175
v 0.000000 2.517186 -6.096083
v 1.644443 1.540437 -5.679714
v 0.814266 1.425452 -6.989532
v 0.000000 1.520090 -6.857277
v 0.000000 2.225143 -6.602808
v 0.387678 2.082272 -6.652735
v 1.271415 0.803394 -6.630184
v 0.740383 0.464291 -6.895544
v 0.000000 0.347018 -6.794432
v 1.146962 0.425243 -6.598602
v 0.848489 1.875864 -6.666576
v 1.249977 1.518858 -6.664709
v 1.568691 1.414317 -5.800064
v 1.568691 1.414317 -5.800064
v 1.624969 1.258110 -5.462866
v 1.624969 1.258110 -5.462866
v 0.925228 2.329248 -6.111750
v 1.378423 1.814202 -6.127617
v 0.908611 2.362811 -5.484819
v 1.570952 1.688837 -5.172598
v 1.577877 1.736277 -5.735695
v 1.521416 1.895607 -5.671925
v 1.507655 1.905548 -5.218803
v 1.469968 1.998401 -5.459433
v 1.451706 1.717090 -5.905014
v 1.451706 1.717090 -5.905014
v 1.353491 1.976424 -5.756725
v 1.353491 1.976424 -5.756725
v 1.385460 1.631264 -4.978878
v 1.385460 1.631264 -4.978878
v 1.340781 1.934347 -5.085308
v 1.340781 1.934347 -5.085308
v 0.000000 2.421939 -5.108919
v 0.000000 2.421939 -5.108919
v 0.562769 2.377738 -5.155390
v 0.562769 2.377738 -5.155390
v 0.949500 2.268342 -5.265659
v 0.704587 2.332616 -5.197226
v 0.704587 2.332616 -5.197226
v 0.875343 1.853357 -5.185785
v 0.000000 1.768598 -5.126307
v 1.289343 2.096555 -5.441925
v 1.289343 2.096555 -5.441925
v -1.593739 1.365337 -5.156065
v -1.593739 1.365337 -5.156065
v -1.676948 1.452832 -5.485025
v -1.658395 1.492612 -5.287525
v -1.647815 1.763011 -5.478622
v -0.386090 2.448516 -6.108175
v -1.644443 1.540437 -5.679714
v -0.814266 1.425452 -6.989532
v -0.387678 2.082272 -6.652735
v -0.740383 0.464291 -6.895544
v -1.271415 0.803394 -6.630184
v -1.146962 0.425243 -6.598602
v -1.249977 1.518858 -6.664709
v -0.848489 1.875864 -6.666576
v -1.624969 1.258110 -5.462866
v -1.624969 1.258110 -5.462866
v -1.568691 1.414317 -5.800064
v -1.568691 1.414317 -5.800064
v -0.925228 2.329248 -6.111750
v -1.378423 1.814202 -6.127617
v -0.908611 2.362811 -5.484819
v -1.570952 1.688837 -5.172598
v -1.521416 1.895607 -5.671925
v -1.577877 1.736277 -5.735695
v -1.507655 1.905548 -5.218803
v -1.469968 1.998401 -5.459433
v -1.451706 1.717090 -5.905014
v -1.451706 1.717090 -5.905014
v -1.353491 1.976424 -5.756725
v -1.353491 1.976424 -5.756725
v -1.340781 1.934347 -5.085308
v -1.340781 1.934347 -5.085308
v -1.385460 1.631264 -4.978878
v -1.385460 1.631264 -4.978878
v -0.562769 2.377738 -5.155390
v -0.562769 2.377738 -5.155390
v -0.949500 2.268342 -5.265659
v -0.704587 2.332616 -5.197226
v -0.704587 2.332616 -5.197226
v -0.875343 1.853357 -5.185785
v -1.289343 2.096555 -5.441925
v -1.289343 2.096555 -5.441925
v 0.000000 2.467439 -5.022219
v 0.562315 2.399223 -5.117889
v 0.743011 2.357112 -5.215424
v 0.739557 2.392807 -5.276688
v 0.543859 2.451628 -5.184868
v 0.000000 2.515718 -5.107185
v -0.562315 2.399223 -5.117889
v -0.743011 2.357112 -5.215424
v -0.739557 2.392807 -5.276688
v -0.543859 2.451628 -5.184868
v 0.000000 2.786107 -5.556072
v 0.247816 2.697152 -5.427263
v 0.247816 2.697152 -5.427263
v 0.000000 2.771044 -5.493601
v 0.249508 2.729888 -5.467829
v 0.000000 2.695474 -5.450172
v 0.000000 2.695474 -5.450172
v 0.572276 2.490297 -5.347458
v 0.526997 2.529715 -5.326931
v 0.526997 2.529715 -5.326931
v -0.247816 2.697152 -5.427263
v -0.247816 2.697152 -5.427263
v -0.249508 2.729888 -5.467829
v -0.572276 2.490297 -5.347458
v -0.526997 2.529715 -5.326931
v -0.526997 2.529715 -5.326931
v 0.977222 -0.581703 -5.222555
v -0.977222 -0.581703 -5.222555
v 1.293658 -0.491201 -4.399933
v -1.293658 -0.491201 -4.399933
v 1.904658 0.106255 -5.025162
v 2.189039 0.110515 -4.995970
v 2.096042 0.568656 -4.509407
v 2.097145 0.106977 -4.514849
v 0.000000 0.272121 -1.794950
v 0.000000 -0.543381 -1.634704
v 0.000000 -1.169991 -2.028706
v 0.000000 -1.363453 -2.575439
v 0.000000 0.921421 -2.136030
v 5.325308 0.518448 -4.710962
v 5.510256 0.536906 -4.493740
v 5.307625 0.540622 -4.301559
v 5.324900 0.834101 -4.707655
v 5.307284 0.806127 -4.298964
v 5.509927 0.802414 -4.491158
v 5.325743 0.192004 -4.714361
v 5.325321 0.507657 -4.711073
v 5.326175 -0.117565 -4.717785
v 4.730008 0.801582 -4.936007
v 4.730406 0.477721 -4.948883
v 4.730783 0.201250 -4.952284
v 4.731143 -0.093850 -4.946205
v -1.498590 -0.570557 -0.220224
v -2.000874 -0.570123 -0.218072
v -2.028457 -0.510146 -0.497145
v -1.471006 -0.510146 -0.497141
v -1.537174 -0.438918 -0.051113
v -1.962290 -0.438918 -0.051113
v -1.603446 0.442370 -0.395061
v -1.897873 0.442368 -0.395060
v -2.198868 0.442368 -0.395060
v -1.316144 0.442368 -0.395058
v -1.365013 0.265857 -0.505083
v -1.324025 0.057949 -0.048018
v -2.143262 0.265857 -0.505079
v -2.188335 0.057949 -0.048018
v -1.604627 0.057949 -0.048018
v -1.896481 0.057949 -0.048018
v -1.961534 1.309917 -0.446581
v -2.048207 1.473132 -0.319579
v -2.047428 1.473134 -0.153539
v -1.959908 1.309917 -0.042130
v -2.295885 1.309917 -0.446579
v -2.208788 1.473132 -0.319579
v -2.295885 1.309917 -0.042130
v -2.208788 1.473133 -0.153535
v -1.578097 1.309956 -0.446494
v -1.667673 1.473094 -0.319690
v -1.667673 1.473094 -0.153812
v -1.578097 1.309956 -0.042374
v -1.922799 1.309956 -0.446496
v -1.833225 1.473094 -0.319690
v -1.922799 1.309956 -0.042376
v -1.833225 1.473094 -0.153812
v -1.199104 1.309445 -0.448700
v -1.287567 1.473604 -0.320768
v -1.287567 1.473604 -0.152740
v -1.199104 1.309445 -0.040168
v -1.548433 1.309445 -0.448700
v -1.451064 1.473604 -0.320768
v -1.548433 1.309445 -0.040168
v -1.451064 1.473604 -0.152740
v -1.904658 0.106255 -5.025162
v -2.189039 0.110515 -4.995970
v -2.096042 0.568656 -4.509407
v -2.097145 0.106977 -4.514849
v -5.325308 0.518448 -4.710962
v -5.307625 0.540622 -4.301559
v -5.510256 0.536906 -4.493740
v -5.324900 0.834101 -4.707655
v -5.509927 0.802414 -4.491158
v -5.307284 0.806127 -4.298964
v -5.325743 0.192004 -4.714361
v -5.325321 0.507657 -4.711073
v -5.326175 -0.117565 -4.717785
v -4.730008 0.801582 -4.936007
v -4.730406 0.477721 -4.948883
v -4.730783 0.201250 -4.952284
v -4.731143 -0.093850 -4.946205
v 1.482449 0.526096 -0.971155
v 1.502244 -0.070663 -1.076672
v 1.500639 -0.326665 -0.673494
v 1.508445 0.194730 -0.612404
v 1.989955 -0.327066 -0.673580
v 1.991020 0.194730 -0.612404
v 1.563594 0.870131 -0.437060
v 1.563594 0.870131 -0.036399
v 1.248182 0.870131 -0.437060
v 1.248183 0.870132 -0.036399
v 1.603442 0.427527 -0.071130
v 1.290223 0.427527 -0.071128
v 1.937387 0.870132 -0.437090
v 1.935843 0.870132 -0.036425
v 2.270156 0.870131 -0.437090
v 2.270156 0.870131 -0.036425
v 1.897873 0.427527 -0.071128
v 2.227484 0.427527 -0.071128
v 2.034497 -0.070503 -1.076739
v 2.023655 0.526096 -0.971155
v 2.389498 0.170978 -1.783353
v 2.188866 -0.085902 -1.397205
v 1.454768 -0.150581 -1.212069
v 2.261482 0.572577 -2.130380
v 1.686823 0.968819 -2.318176
v 1.703597 1.271911 -1.802220
v 2.107415 1.047776 -1.713633
v 2.045866 -0.151100 -1.225989
v 1.164010 0.908475 -1.370234
v 1.316723 0.875474 -1.160649
v 2.232340 0.800797 -1.383716
v 2.150907 0.716987 -1.160388
v 1.704666 0.856200 -1.069628
v 1.689988 1.201587 -1.295801
v 1.573830 0.870131 -0.437062
v 1.573830 0.870131 -0.036399
v 1.928830 0.870131 -0.437060
v 1.928830 0.870131 -0.036399
v 0.000000 2.080713 -4.736467
v 0.000000 1.784285 -4.486536
v 0.853154 1.446964 -4.543989
v 0.658442 1.884722 -4.773386
v 1.593191 0.648841 -5.174088
v 1.460567 0.785110 -5.072247
v 1.407471 -0.102938 -5.740366
v 0.999733 -0.422197 -5.722769
v 0.808133 0.066096 -6.566965
v 1.570743 0.539732 -5.969589
v 0.000000 -0.184745 -6.476240
v 1.634844 0.458826 -5.556681
v 0.994983 1.772721 -4.814974
v 1.304191 1.009369 -4.880335
v 0.000000 -0.834250 -5.188444
v 0.000000 -0.684842 -5.652740
v -0.658442 1.884722 -4.773386
v -0.853154 1.446964 -4.543989
v -1.593191 0.648841 -5.174088
v -1.460567 0.785110 -5.072247
v -0.808133 0.066096 -6.566965
v -0.999733 -0.422197 -5.722769
v -1.407471 -0.102938 -5.740366
v -1.570743 0.539732 -5.969589
v -1.634844 0.458826 -5.556681
v -0.994983 1.772721 -4.814974
v -1.304191 1.009369 -4.880335
v 0.486765 2.640749 -5.533508
v 0.530933 2.569781 -5.363989
v 0.725834 2.356338 -5.265781
v 0.862652 2.251055 -5.331732
v -0.486765 2.640749 -5.533508
v -0.530933 2.569781 -5.363989
v -0.725834 2.356338 -5.265781
v -0.862652 2.251055 -5.331732
v 0.928529 -0.841229 -4.490887
v 0.000000 -1.100411 -4.544903
v 0.851210 -1.106079 -3.801302
v 0.000000 -1.307874 -3.839430
v 0.704318 -1.242201 -3.329824
v 0.000000 -1.420605 -3.373930
v 1.076078 -0.910038 -3.757814
v 1.185955 -0.887486 -3.266081
v 0.000000 1.318617 -3.302968
v 0.764451 1.042476 -3.374270
v 0.736280 1.175970 -4.046391
v 1.386504 0.595853 -3.459355
v 1.289685 0.729161 -4.143950
v 1.375694 -0.576176 -3.705445
v 1.545011 -0.527204 -3.178631
v 1.535151 0.478391 -2.985472
v 0.000000 1.230877 -2.827483
v 0.758995 1.011987 -2.863539
v 0.000000 1.460339 -3.985298
v -0.928529 -0.841229 -4.490887
v -0.851210 -1.106079 -3.801302
v -0.704318 -1.242201 -3.329824
v -1.185955 -0.887486 -3.266081
v -1.076078 -0.910038 -3.757814
v -0.736280 1.175970 -4.046391
v -0.764451 1.042476 -3.374270
v -1.386504 0.595853 -3.459355
v -1.289685 0.729161 -4.143950
v -1.375694 -0.576176 -3.705445
v -1.545011 -0.527204 -3.178631
v -1.535151 0.478391 -2.985472
v -0.758995 1.011987 -2.863539
v 1.400219 -0.150948 -5.234680
v 1.494405 -0.008859 -5.104370
v 2.198600 -0.449943 -1.746088
v 2.296859 -0.300094 -2.160980
v 1.221616 -0.645776 -1.681425
v 1.214481 -0.150450 -1.409805
v 1.085227 0.770225 -2.447095
v 1.640589 0.468830 -2.948952
v 0.991491 0.679308 -2.497081
v 0.815162 0.673155 -2.183369
v 0.859668 0.747580 -2.011132
v 2.182915 0.008238 -2.494731
v 2.083890 -0.619092 -2.415930
v 1.880294 -0.485387 -2.831892
v 1.815276 -0.884852 -2.594640
v 0.879968 -0.527664 -1.722219
v 0.817569 0.240212 -1.893064
v 1.042482 -0.137141 -1.608326
v 1.732971 -0.595042 -1.580020
v 1.664706 -0.922309 -2.020502
v 2.071141 -0.771750 -2.036081
v 1.491642 -1.068811 -2.590306
v 1.254659 1.160276 -1.710961
v 0.896675 0.257722 -1.767857
v 0.830240 -1.261804 -2.577616
v 0.927022 -1.069875 -1.977346
v 1.381559 -0.208695 -4.429138
v 1.638398 0.572885 -4.476013
v 1.638990 0.101969 -4.481617
v 1.416332 0.609740 -4.368570
v 1.903785 0.574881 -5.019709
v 2.188078 0.571420 -4.991224
v 3.191132 0.122603 -4.968693
v 3.330296 0.580638 -4.963474
v 3.192097 0.119326 -4.545742
v 3.533738 0.070581 -4.549461
v 3.507047 0.603005 -4.544138
v 3.330678 0.576967 -4.540525
v 3.506673 0.606867 -4.960028
v 3.532802 0.074029 -4.965349
v 4.136985 0.725672 -4.557323
v 4.137857 -0.027306 -4.565144
v 4.181131 -0.039261 -4.957285
v 4.281507 -0.039128 -4.568483
v 4.397095 -0.066382 -4.957790
v 4.280587 0.754624 -4.560192
v 4.396062 0.768933 -4.948595
v 4.180259 0.736028 -4.949457
v 5.093227 0.523908 -4.401865
v 5.123952 0.825200 -4.833519
v 4.897035 0.812791 -4.520071
v 5.092809 0.841099 -4.398563
v 4.897425 0.508160 -4.523462
v 5.124333 0.513923 -4.836905
v 5.510670 0.224211 -4.497042
v 5.308029 0.227557 -4.304840
v 5.307710 0.484182 -4.302248
v 5.510343 0.480838 -4.494442
v 5.093666 0.203908 -4.405279
v 5.124351 0.503283 -4.837021
v 4.897431 0.497746 -4.523573
v 5.093246 0.513065 -4.401983
v 4.897808 0.193116 -4.526968
v 5.124725 0.192006 -4.840408
v 5.325762 0.181213 -4.714485
v 5.093678 0.193574 -4.405390
v 5.094091 -0.104938 -4.408695
v 5.124745 0.181364 -4.840523
v 4.897824 0.182702 -4.527075
v 4.898196 -0.081002 -4.530491
v 5.125118 -0.112849 -4.843925
v 5.310039 0.188244 -4.307381
v 5.508843 0.184596 -4.495920
v 5.509174 -0.079041 -4.498489
v 5.310368 -0.075755 -4.309921
v 4.631839 0.786859 -4.544859
v 4.632216 0.474207 -4.548250
v 4.632591 0.207640 -4.551649
v 4.632972 -0.068727 -4.555052
v 0.435006 1.762902 -5.145197
v -0.435006 1.762902 -5.145197
v 0.000000 2.504965 -5.303913
v -1.482449 0.526096 -0.971155
v -1.508445 0.194730 -0.612404
v -1.500639 -0.326665 -0.673494
v -1.502244 -0.070663 -1.076672
v -1.991020 0.194730 -0.612404
v -1.989955 -0.327066 -0.673580
v -1.563594 0.870131 -0.437060
v -1.563594 0.870131 -0.036399
v -1.248182 0.870131 -0.437060
v -1.248183 0.870132 -0.036399
v -1.603442 0.427527 -0.071130
v -1.290223 0.427527 -0.071128
v -1.937387 0.870132 -0.437090
v -1.935843 0.870132 -0.036425
v -2.270156 0.870131 -0.437090
v -2.270156 0.870131 -0.036425
v -1.897873 0.427527 -0.071128
v -2.227484 0.427527 -0.071128
v -2.034497 -0.070503 -1.076739
v -2.023655 0.526096 -0.971155
v -2.389498 0.170978 -1.783353
v -2.188866 -0.085902 -1.397205
v -1.454768 -0.150581 -1.212069
v -2.261482 0.572577 -2.130380
v -2.107415 1.047776 -1.713633
v -1.703597 1.271911 -1.802220
v -1.686823 0.968819 -2.318176
v -2.045866 -0.151100 -1.225989
v -1.164010 0.908475 -1.370234
v -1.316723 0.875474 -1.160649
v -2.232340 0.800797 -1.383716
v -2.150907 0.716987 -1.160388
v -1.704666 0.856200 -1.069628
v -1.689988 1.201587 -1.295801
v -1.573830 0.870131 -0.437062
v -1.573830 0.870131 -0.036399
v -1.928830 0.870131 -0.437060
v -1.928830 0.870131 -0.036399
v -1.400219 -0.150948 -5.234680
v -1.494405 -0.008859 -5.104370
v -2.296859 -0.300094 -2.160980
v -2.198600 -0.449943 -1.746088
v -1.221616 -0.645776 -1.681425
v -1.214481 -0.150450 -1.409805
v -1.085227 0.770225 -2.447095
v -0.991491 0.679308 -2.497081
v -1.640589 0.468830 -2.948952
v -0.859668 0.747580 -2.011132
v -0.815162 0.673155 -2.183369
v -2.182915 0.008238 -2.494731
v -1.880294 -0.485387 -2.831892
v -2.083890 -0.619092 -2.415930
v -1.815276 -0.884852 -2.594640
v -0.879968 -0.527664 -1.722219
v -0.817569 0.240212 -1.893064
v -1.042482 -0.137141 -1.608326
v -1.732971 -0.595042 -1.580020
v -2.071141 -0.771750 -2.036081
v -1.664706 -0.922309 -2.020502
v -1.491642 -1.068811 -2.590306
v -1.254659 1.160276 -1.710961
v -0.896675 0.257722 -1.767857
v -0.830240 -1.261804 -2.577616
v -0.927022 -1.069875 -1.977346
v -1.381559 -0.208695 -4.429138
v -1.638398 0.572885 -4.476013
v -1.638990 0.101969 -4.481617
v -1.416332 0.609740 -4.368570
v -1.903785 0.574881 -5.019709
v -2.188078 0.571420 -4.991224
v -3.191132 0.122603 -4.968693
v -3.330296 0.580638 -4.963474
v -3.192097 0.119326 -4.545742
v -3.330678 0.576967 -4.540525
v -3.507047 0.603005 -4.544138
v -3.533738 0.070581 -4.549461
v -3.532802 0.074029 -4.965349
v -3.506673 0.606867 -4.960028
v -4.136985 0.725672 -4.557323
v -4.137857 -0.027306 -4.565144
v -4.181131 -0.039261 -4.957285
v -4.180259 0.736028 -4.949457
v -4.281507 -0.039128 -4.568483
v -4.397095 -0.066382 -4.957790
v -4.280587 0.754624 -4.560192
v -4.396062 0.768933 -4.948595
v -5.093227 0.523908 -4.401865
v -5.092809 0.841099 -4.398563
v -4.897035 0.812791 -4.520071
v -5.123952 0.825200 -4.833519
v -5.124333 0.513923 -4.836905
v -4.897425 0.508160 -4.523462
v -5.093666 0.203908 -4.405279
v -5.093246 0.513065 -4.401983
v -4.897431 0.497746 -4.523573
v -5.124351 0.503283 -4.837021
v -5.124725 0.192006 -4.840408
v -4.897808 0.193116 -4.526968
v -5.308029 0.227557 -4.304840
v -5.510670 0.224211 -4.497042
v -5.510343 0.480838 -4.494442
v -5.307710 0.484182 -4.302248
v -5.325762 0.181213 -4.714485
v -5.093678 0.193574 -4.405390
v -5.094091 -0.104938 -4.408695
v -4.897824 0.182702 -4.527075
v -5.124745 0.181364 -4.840523
v -5.125118 -0.112849 -4.843925
v -4.898196 -0.081002 -4.530491
v -5.508843 0.184596 -4.495920
v -5.310039 0.188244 -4.307381
v -5.310368 -0.075755 -4.309921
v -5.509174 -0.079041 -4.498489
v -4.631839 0.786859 -4.544859
v -4.632216 0.474207 -4.548250
v -4.632591 0.207640 -4.551649
v -4.632972 -0.068727 -4.555052
vt 0.812452 0.857343
vt 0.819854 0.941151
vt 0.759453 0.939978
vt 0.889537 0.951342
vt 0.891473 0.864091
vt 0.883246 0.829247
vt 0.868974 0.786884
vt 0.817599 0.786933
vt 0.759117 0.795099
vt 0.749492 0.862755
vt 0.620435 0.175064
vt 0.630922 0.193409
vt 0.641038 0.177478
vt 0.607342 0.189240
vt 0.641054 0.177481
vt 0.630916 0.193412
vt 0.648288 0.170510
vt 0.650658 0.159482
vt 0.650675 0.159567
vt 0.645474 0.152885
vt 0.625840 0.152762
vt 0.611237 0.153676
vt 0.098892 0.924360
vt 0.100826 0.974065
vt 0.100826 0.970998
vt 0.095517 0.866165
vt 0.087003 0.854903
vt 0.072705 0.854903
vt 0.064970 0.866165
vt 0.066374 0.924360
vt 0.071278 0.970998
vt 0.068483 0.974065
vt 0.137430 0.924360
vt 0.135512 0.974065
vt 0.137271 0.924360
vt 0.135512 0.970998
vt 0.172221 0.924360
vt 0.166474 0.970998
vt 0.169560 0.974065
vt 0.610650 0.166476
vt 0.617625 0.170823
vt 0.143065 0.866115
vt 0.150576 0.854953
vt 0.150644 0.854953
vt 0.142923 0.866115
vt 0.172303 0.866115
vt 0.164686 0.854953
vt 0.103111 0.866111
vt 0.110944 0.854957
vt 0.099948 0.924361
vt 0.133254 0.866111
vt 0.125421 0.854957
vt 0.136548 0.924361
vt 0.513697 0.064000
vt 0.552727 0.044444
vt 0.522795 0.065455
vt 0.539427 0.042179
vt 0.498449 0.075266
vt 0.501139 0.079038
vt 0.295481 0.756651
vt 0.352945 0.687561
vt 0.346299 0.758968
vt 0.292215 0.684060
vt 0.535802 0.147619
vt 0.513636 0.139555
vt 0.539533 0.152834
vt 0.508003 0.137586
vt 0.584930 0.146090
vt 0.580306 0.150076
vt 0.614130 0.102888
vt 0.581846 0.138368
vt 0.596774 0.103582
vt 0.596006 0.137121
vt 0.622952 0.100127
vt 0.605897 0.133544
vt 0.629956 0.077373
vt 0.636801 0.036544
vt 0.647398 0.038448
vt 0.614711 0.077851
vt 0.499195 0.118084
vt 0.496488 0.117607
vt 0.583265 0.113897
vt 0.558839 0.092224
vt 0.582156 0.094539
vt 0.552188 0.106237
vt 0.526899 0.118850
vt 0.539338 0.110559
vt 0.503257 0.082884
vt 0.621374 0.221334
vt 0.645909 0.219861
vt 0.639988 0.236255
vt 0.631524 0.206075
vt 0.596487 0.205542
vt 0.599799 0.196717
vt 0.621388 0.038533
vt 0.613509 0.067660
vt 0.589119 0.038649
vt 0.584410 0.027667
vt 0.582204 0.066394
vt 0.573362 0.058827
vt 0.549303 0.532080
vt 0.483009 0.532168
vt 0.470570 0.472660
vt 0.567032 0.472633
vt 0.232078 0.329666
vt 0.242521 0.236180
vt 0.330415 0.199106
vt 0.272755 0.326636
vt 0.172789 0.291784
vt 0.182091 0.308650
vt 0.137889 0.339250
vt 0.142374 0.291926
vt 0.590493 0.064322
vt 0.608970 0.064537
vt 0.591145 0.074715
vt 0.601288 0.249536
vt 0.611376 0.262586
vt 0.610998 0.264029
vt 0.597695 0.247561
vt 0.601531 0.237140
vt 0.598590 0.230334
vt 0.618638 0.225669
vt 0.617946 0.220721
vt 0.627805 0.249443
vt 0.654638 0.245103
vt 0.649354 0.262766
vt 0.605505 0.235046
vt 0.586727 0.218578
vt 0.651238 0.270272
vt 0.663912 0.253391
vt 0.665474 0.273478
vt 0.617377 0.221792
vt 0.648980 0.218918
vt 0.649601 0.215460
vt 0.634075 0.206573
vt 0.653647 0.217306
vt 0.633549 0.214417
vt 0.593536 0.196728
vt 0.592232 0.205009
vt 0.587745 0.239687
vt 0.577871 0.222079
vt 0.582282 0.218473
vt 0.651643 0.213299
vt 0.634101 0.199310
vt 0.665392 0.230704
vt 0.659443 0.231320
vt 0.671181 0.253220
vt 0.675179 0.231028
vt 0.678807 0.252718
vt 0.671223 0.228999
vt 0.682824 0.252632
vt 0.591721 0.235269
vt 0.560477 0.023108
vt 0.549010 0.021413
vt 0.679490 0.276741
vt 0.687140 0.279403
vt 0.577092 0.258177
vt 0.589619 0.260419
vt 0.609139 0.043106
vt 0.590572 0.042885
vt 0.253921 0.744579
vt 0.147482 0.746323
vt 0.268991 0.743824
vt 0.147107 0.746990
vt 0.254026 0.685539
vt 0.144779 0.685840
vt 0.269033 0.684785
vt 0.145474 0.685078
vt 0.608624 0.045356
vt 0.590710 0.045295
vt 0.591035 0.045160
vt 0.609031 0.045495
vt 0.608503 0.061238
vt 0.608913 0.061112
vt 0.590900 0.061042
vt 0.590577 0.060912
vt 0.249733 0.838231
vt 0.206325 0.799311
vt 0.200509 0.838285
vt 0.241910 0.800710
vt 0.249696 0.836078
vt 0.242182 0.800687
vt 0.200476 0.836132
vt 0.206569 0.799251
vt 0.196210 0.865209
vt 0.199417 0.853744
vt 0.193158 0.897684
vt 0.193232 0.891547
vt 0.193486 0.913789
vt 0.193556 0.901401
vt 0.194504 0.946417
vt 0.194622 0.923807
vt 0.197782 0.974204
vt 0.197962 0.958611
vt 0.212018 0.974187
vt 0.212219 0.958594
vt 0.213271 0.946395
vt 0.213403 0.923785
vt 0.212920 0.913766
vt 0.212999 0.901378
vt 0.213308 0.897661
vt 0.213372 0.891524
vt 0.235412 0.946371
vt 0.236470 0.958569
vt 0.235543 0.923761
vt 0.236269 0.974161
vt 0.256135 0.946349
vt 0.252092 0.974144
vt 0.256267 0.923739
vt 0.252292 0.958552
vt 0.437820 0.087135
vt 0.434262 0.069451
vt 0.437629 0.119919
vt 0.434553 0.046843
vt 0.407771 0.087167
vt 0.411611 0.046867
vt 0.407580 0.119951
vt 0.411320 0.069476
vt 0.257483 0.901331
vt 0.257404 0.913718
vt 0.235897 0.913741
vt 0.235976 0.901354
vt 0.406991 0.152441
vt 0.407105 0.134480
vt 0.438290 0.134447
vt 0.438176 0.152408
vt 0.257856 0.891476
vt 0.257774 0.897613
vt 0.235550 0.897638
vt 0.235615 0.891500
vt 0.406450 0.166731
vt 0.406543 0.157831
vt 0.438794 0.157797
vt 0.438700 0.166697
vt 0.254358 0.865145
vt 0.252021 0.853686
vt 0.634080 0.198759
vt 0.657872 0.040711
vt 0.639913 0.076028
vt 0.527495 0.104343
vt 0.554350 0.077471
vt 0.078591 0.407454
vt 0.131399 0.395288
vt 0.130488 0.404999
vt 0.080688 0.391888
vt 0.185226 0.376655
vt 0.185786 0.366418
vt 0.189643 0.291515
vt 0.499073 0.081679
vt 0.501850 0.085300
vt 0.496546 0.078616
vt 0.228874 0.342910
vt 0.190032 0.264107
vt 0.148808 0.261423
vt 0.054818 0.288969
vt 0.059586 0.257052
vt 0.542700 0.072495
vt 0.529094 0.067095
vt 0.529431 0.076627
vt 0.521774 0.140100
vt 0.535850 0.140027
vt 0.566936 0.139614
vt 0.594298 0.193131
vt 0.580650 0.202068
vt 0.228160 0.343128
vt 0.180894 0.417736
vt 0.077200 0.417781
vt 0.279465 0.365131
vt 0.348830 0.328880
vt 0.379858 0.203849
vt 0.090681 0.348447
vt 0.052821 0.355822
vt 0.662685 0.476797
vt 0.665210 0.534514
vt 0.663541 0.644557
vt 0.490398 0.647224
vt 0.426473 0.637978
vt 0.422273 0.522307
vt 0.420723 0.460345
vt 0.255292 0.521695
vt 0.264283 0.642745
vt 0.146491 0.638028
vt 0.131861 0.515710
vt 0.266600 0.451028
vt 0.137336 0.444994
vt 0.040573 0.435468
vt 0.039095 0.516152
vt 0.048456 0.640346
vt 0.125692 0.746323
vt 0.094609 0.747583
vt 0.123684 0.685078
vt 0.094702 0.748346
vt 0.125317 0.746990
vt 0.083746 0.686027
vt 0.122989 0.685840
vt 0.083682 0.685243
vt 0.485896 0.326671
vt 0.509218 0.405487
vt 0.428360 0.407696
vt 0.568000 0.328272
vt 0.550928 0.270207
vt 0.611047 0.311123
vt 0.549387 0.394987
vt 0.511022 0.232003
vt 0.429260 0.223742
vt 0.420485 0.323091
vt 0.279309 0.124359
vt 0.229703 0.098877
vt 0.262927 0.101170
vt 0.255406 0.145718
vt 0.299482 0.132652
vt 0.295342 0.165572
vt 0.322705 0.126334
vt 0.346128 0.154372
vt 0.332435 0.105411
vt 0.369346 0.108457
vt 0.327628 0.082038
vt 0.357679 0.056238
vt 0.308031 0.067707
vt 0.313474 0.027856
vt 0.281371 0.073159
vt 0.259530 0.043319
vt 0.303211 0.103000
usemtl mat_0
s 1
f 63/1 57/2 52/3
f 63/1 58/4 57/2
f 64/5 58/4 63/1
f 63/1 73/6 64/5
f 89/7 73/6 63/1
f 63/1 65/8 89/7
f 306/9 65/8 63/1
f 63/1 46/10 306/9
f 52/3 46/10 63/1
f 103/2 108/1 98/3
f 103/2 102/4 108/1
f 109/5 108/1 102/4
f 109/5 118/6 108/1
f 131/7 108/1 118/6
f 131/7 110/8 108/1
f 310/9 108/1 110/8
f 310/9 95/10 108/1
f 98/3 108/1 95/10
usemtl mat_1
f 244/11 242/12 243/13
f 244/11 241/14 242/12
f 246/11 241/14 244/11
f 246/11 260/14 241/14
f 245/15 260/14 246/11
f 245/15 259/16 260/14
f 243/13 259/16 245/15
f 243/13 242/12 259/16
f 4/17 1/18 2/19
f 2/17 3/17 4/18
f 243/13 3/17 2/17
f 243/13 245/15 3/17
f 6/20 1/19 4/18
f 5/20 1/20 6/19
f 16/21 5/20 6/20
f 16/21 15/21 5/20
f 257/22 15/21 16/21
f 257/22 251/22 15/21
f 247/23 251/24 7/25
f 247/23 248/23 251/24
f 37/26 248/23 247/23
f 37/26 39/26 248/23
f 38/27 39/26 37/26
f 38/27 40/27 39/26
f 36/28 40/27 38/27
f 36/28 35/28 40/27
f 33/29 35/28 36/28
f 33/29 34/29 35/28
f 249/30 34/29 33/29
f 249/30 250/30 34/29
f 10/31 250/30 249/30
f 10/31 252/32 250/30
f 253/33 257/34 254/35
f 253/33 8/36 257/34
f 255/37 8/36 253/33
f 255/37 9/38 8/36
f 256/37 9/38 255/37
f 256/37 258/39 9/38
f 254/35 258/39 256/37
f 254/35 257/34 258/39
f 12/21 10/40 11/41
f 12/21 252/22 10/40
f 15/21 252/22 12/21
f 15/21 251/22 252/22
f 258/22 13/41 9/40
f 258/22 14/21 13/41
f 257/22 14/21 258/22
f 257/22 16/21 14/21
f 13/41 7/40 8/40
f 13/41 11/41 7/40
f 246/11 11/41 13/41
f 246/11 244/11 11/41
f 13/41 8/40 9/40
f 248/23 252/32 251/24
f 248/23 250/30 252/32
f 39/26 250/30 248/23
f 39/26 34/29 250/30
f 40/27 34/29 39/26
f 40/27 35/28 34/29
f 17/42 19/43 20/44
f 17/42 18/45 19/43
f 253/33 18/45 17/42
f 253/33 254/35 18/45
f 21/46 20/44 22/47
f 21/46 17/42 20/44
f 255/37 17/42 21/46
f 255/37 253/33 17/42
f 23/46 22/47 24/47
f 23/46 21/46 22/47
f 256/37 21/46 23/46
f 256/37 255/37 21/46
f 18/45 24/47 19/43
f 18/45 23/46 24/47
f 254/35 23/46 18/45
f 254/35 256/37 23/46
f 25/48 27/49 28/49
f 25/48 26/48 27/49
f 275/50 26/48 25/48
f 275/50 276/50 26/48
f 7/25 276/50 275/50
f 7/25 251/24 276/50
f 29/51 28/49 30/52
f 29/51 25/48 28/49
f 277/53 25/48 29/51
f 277/53 275/50 25/48
f 8/36 275/50 277/53
f 8/36 7/25 275/50
f 31/51 30/52 32/52
f 31/51 29/51 30/52
f 278/53 29/51 31/51
f 278/53 277/53 29/51
f 257/34 277/53 278/53
f 257/34 8/36 277/53
f 26/48 32/52 27/49
f 26/48 31/51 32/52
f 276/50 31/51 26/48
f 276/50 278/53 31/51
f 251/24 278/53 276/50
f 251/24 257/34 278/53
f 37/26 36/28 38/27
f 37/26 33/29 36/28
f 247/23 33/29 37/26
f 247/23 249/30 33/29
f 7/25 249/30 247/23
f 7/25 10/31 249/30
f 11/41 10/40 7/40
f 24/47 22/47 20/44
f 19/43 24/47 20/44
f 32/52 30/52 28/49
f 27/49 32/52 28/49
f 279/54 281/55 282/56
f 279/54 280/57 281/55
f 295/56 280/57 279/54
f 295/56 296/55 280/57
f 132/58 282/56 133/59
f 132/58 279/54 282/56
f 138/59 279/54 132/58
f 138/59 295/56 279/54
f 47/60 306/61 46/62
f 47/60 142/63 306/61
f 95/62 142/63 47/60
f 95/62 310/61 142/63
f 50/64 52/65 49/66
f 50/64 51/67 52/65
f 97/66 51/67 50/64
f 97/66 98/65 51/67
f 55/68 49/66 54/69
f 55/68 50/64 49/66
f 99/69 50/64 55/68
f 99/69 97/66 50/64
f 286/70 56/71 285/72
f 286/70 287/73 56/71
f 294/74 287/73 286/70
f 294/74 289/75 287/73
f 300/70 289/75 294/74
f 300/70 299/73 289/75
f 301/72 299/73 300/70
f 301/72 101/71 299/73
f 158/76 160/77 314/78
f 158/76 346/79 160/77
f 286/70 346/79 158/76
f 286/70 285/72 346/79
f 51/67 46/80 52/65
f 51/67 47/81 46/80
f 98/65 47/81 51/67
f 98/65 95/80 47/81
f 288/82 61/83 290/84
f 288/82 59/85 61/83
f 64/86 59/85 288/82
f 64/86 71/87 59/85
f 134/88 133/59 282/56
f 261/89 348/90 349/91
f 261/89 262/92 348/90
f 271/93 262/92 261/89
f 271/93 272/94 262/92
f 372/95 346/79 347/96
f 372/95 160/77 346/79
f 375/97 160/77 372/95
f 375/97 326/98 160/77
f 284/99 326/98 375/97
f 284/99 292/100 326/98
f 316/101 320/102 321/103
f 318/104 316/101 321/103
f 134/105 282/106 291/107
f 83/108 134/105 291/107
f 84/109 308/110 150/111
f 81/112 84/109 150/111
f 336/103 337/102 334/101
f 335/104 336/103 334/101
f 304/107 295/106 139/105
f 126/108 304/107 139/105
f 156/111 312/110 127/109
f 124/112 156/111 127/109
f 347/96 376/113 162/114
f 347/96 284/99 376/113
f 346/79 284/99 347/96
f 346/79 283/115 284/99
f 354/116 353/117 329/118
f 354/116 352/119 353/117
f 355/120 352/119 354/116
f 355/120 356/121 352/119
f 362/122 356/121 355/120
f 362/122 369/123 356/121
f 357/124 358/125 359/126
f 357/124 349/91 358/125
f 264/127 349/91 357/124
f 264/127 261/89 349/91
f 267/128 261/89 264/127
f 267/128 271/93 261/89
f 357/124 359/126 328/129
f 353/117 357/124 328/129
f 358/125 360/130 321/131
f 359/126 358/125 321/131
f 166/132 361/133 362/122
f 166/132 167/134 361/133
f 482/122 167/134 166/132
f 482/122 481/133 167/134
f 351/135 361/133 350/136
f 351/135 363/137 361/133
f 270/138 363/137 351/135
f 270/138 269/139 363/137
f 265/140 267/128 264/127
f 265/140 266/141 267/128
f 352/119 266/141 265/140
f 352/119 368/142 266/141
f 364/143 262/92 268/144
f 364/143 348/90 262/92
f 365/145 348/90 364/143
f 365/145 366/146 348/90
f 367/147 366/146 365/145
f 367/147 360/130 366/146
f 168/148 370/149 371/150
f 168/148 169/151 370/149
f 491/150 169/151 168/148
f 491/150 490/149 169/151
f 170/152 362/122 355/120
f 170/152 166/132 362/122
f 476/120 166/132 170/152
f 476/120 482/122 166/132
f 475/121 482/122 476/120
f 475/121 489/123 482/122
f 167/134 371/150 361/133
f 167/134 168/148 371/150
f 481/133 168/148 167/134
f 481/133 491/150 168/148
f 280/57 324/153 281/55
f 280/57 332/154 324/153
f 296/55 332/154 280/57
f 296/55 338/153 332/154
f 305/100 338/153 296/55
f 305/100 341/98 338/153
f 298/99 341/98 305/100
f 298/99 495/97 341/98
f 169/151 318/155 370/149
f 169/151 319/156 318/155
f 490/149 319/156 169/151
f 490/149 335/155 319/156
f 330/157 355/120 331/158
f 330/157 170/152 355/120
f 345/158 170/152 330/157
f 345/158 476/120 170/152
f 374/159 373/160 375/97
f 372/95 374/159 375/97
f 378/161 377/162 379/163
f 378/161 163/164 377/162
f 380/165 163/164 378/161
f 380/165 165/166 163/164
f 383/167 165/166 380/165
f 383/167 164/168 165/166
f 379/163 164/168 383/167
f 379/163 377/162 164/168
f 380/169 382/170 383/171
f 380/169 381/172 382/170
f 378/173 381/172 380/169
f 378/173 385/174 381/172
f 379/175 385/174 378/173
f 379/175 384/176 385/174
f 383/171 384/176 379/175
f 383/171 382/170 384/176
f 386/177 381/178 387/179
f 386/177 382/180 381/178
f 393/181 382/180 386/177
f 393/181 384/182 382/180
f 388/183 381/178 385/184
f 388/183 387/179 381/178
f 390/185 387/179 388/183
f 390/185 389/186 387/179
f 183/187 389/186 390/185
f 183/187 424/188 389/186
f 416/189 424/188 183/187
f 416/189 415/190 424/188
f 179/191 415/190 416/189
f 179/191 412/192 415/190
f 419/193 412/192 179/191
f 419/193 420/194 412/192
f 418/195 420/194 419/193
f 418/195 417/196 420/194
f 410/197 417/196 418/195
f 410/197 411/198 417/196
f 413/199 411/198 410/197
f 413/199 414/200 411/198
f 182/201 414/200 413/199
f 182/201 423/202 414/200
f 171/203 173/204 394/205
f 171/203 172/206 173/204
f 174/207 172/206 171/203
f 174/207 176/208 172/206
f 397/209 176/208 174/207
f 397/209 175/210 176/208
f 394/205 175/210 397/209
f 394/205 173/204 175/210
f 177/211 401/212 404/213
f 177/211 400/214 401/212
f 178/215 400/214 177/211
f 178/215 403/216 400/214
f 407/217 403/216 178/215
f 407/217 402/218 403/216
f 404/213 402/218 407/217
f 404/213 401/212 402/218
f 174/207 396/219 397/209
f 174/207 395/220 396/219
f 171/203 395/220 174/207
f 171/203 399/221 395/220
f 394/205 399/221 171/203
f 394/205 398/222 399/221
f 397/209 398/222 394/205
f 397/209 396/219 398/222
f 178/215 406/223 407/217
f 178/215 405/224 406/223
f 177/211 405/224 178/215
f 177/211 409/225 405/224
f 404/213 409/225 177/211
f 404/213 408/226 409/225
f 407/217 408/226 404/213
f 407/217 406/223 408/226
f 395/220 421/227 396/219
f 395/220 180/228 421/227
f 399/221 180/228 395/220
f 399/221 181/229 180/228
f 398/222 181/229 399/221
f 398/222 422/230 181/229
f 396/219 422/230 398/222
f 396/219 421/227 422/230
f 405/224 422/231 406/223
f 405/224 181/232 422/231
f 409/225 181/232 405/224
f 409/225 182/233 181/232
f 408/226 182/233 409/225
f 408/226 423/234 182/233
f 406/223 423/234 408/226
f 406/223 422/231 423/234
f 413/199 183/187 182/201
f 413/199 416/189 183/187
f 410/197 416/189 413/199
f 410/197 179/191 416/189
f 418/195 179/191 410/197
f 418/195 419/193 179/191
f 392/235 421/227 180/228
f 392/235 391/236 421/227
f 393/181 391/236 392/235
f 393/181 386/177 391/236
f 263/237 241/14 270/138
f 351/135 263/237 270/138
f 292/100 281/55 324/153
f 326/98 292/100 324/153
f 242/12 263/237 268/144
f 259/16 242/12 268/144
f 242/12 241/14 263/237
f 328/129 329/118 353/117
f 359/126 321/131 328/129
f 391/236 422/230 421/227
f 391/236 423/202 422/230
f 391/236 389/186 423/202
f 386/177 389/186 391/236
f 386/177 387/179 389/186
f 182/201 183/187 390/185
f 411/198 420/194 417/196
f 411/198 412/192 420/194
f 414/200 412/192 411/198
f 414/200 415/190 412/192
f 423/202 415/190 414/200
f 423/202 424/188 415/190
f 173/204 172/206 176/208
f 175/210 173/204 176/208
f 401/212 400/214 403/216
f 402/218 401/212 403/216
f 423/202 389/186 424/188
f 181/229 392/235 180/228
f 392/235 388/183 393/181
f 392/235 390/185 388/183
f 181/229 390/185 392/235
f 181/229 182/201 390/185
f 315/238 158/76 314/78
f 315/238 293/239 158/76
f 333/78 293/239 315/238
f 333/78 159/76 293/239
f 161/77 159/76 333/78
f 161/77 466/79 159/76
f 492/95 466/79 161/77
f 492/95 467/96 466/79
f 71/87 64/86 73/240
f 290/84 61/83 41/241
f 283/115 290/84 41/241
f 293/239 286/70 158/76
f 293/239 294/74 286/70
f 159/76 294/74 293/239
f 159/76 300/70 294/74
f 466/79 300/70 159/76
f 466/79 301/72 300/70
f 145/242 144/243 146/244
f 145/242 147/245 144/243
f 154/244 147/245 145/242
f 154/244 153/243 147/245
f 311/246 153/243 154/244
f 311/246 157/247 153/243
f 84/109 83/248 308/110
f 136/249 134/88 135/250
f 136/249 133/59 134/88
f 137/251 133/59 136/249
f 137/251 132/58 133/59
f 141/249 132/58 137/251
f 141/249 138/59 132/58
f 140/250 138/59 141/249
f 140/250 139/88 138/59
f 83/108 135/252 134/105
f 83/248 85/109 309/253
f 82/112 309/253 85/109
f 82/112 149/254 309/253
f 80/255 149/254 82/112
f 80/255 427/256 149/254
f 125/112 427/256 80/255
f 125/112 155/254 427/256
f 128/109 155/254 125/112
f 128/109 313/253 155/254
f 144/243 151/247 307/246
f 146/244 144/243 307/246
f 428/14 430/13 431/12
f 428/14 429/11 430/13
f 447/14 429/11 428/14
f 447/14 432/11 429/11
f 446/16 432/11 447/14
f 446/16 433/15 432/11
f 431/12 433/15 446/16
f 431/12 430/13 433/15
f 186/17 184/19 185/18
f 186/17 187/17 184/19
f 433/15 187/17 186/17
f 433/15 430/13 187/17
f 188/20 185/18 184/19
f 188/20 189/20 185/18
f 198/21 189/20 188/20
f 198/21 199/21 189/20
f 438/22 199/21 198/21
f 438/22 444/22 199/21
f 435/23 190/25 438/24
f 435/23 434/23 190/25
f 222/26 434/23 435/23
f 222/26 220/26 434/23
f 223/27 220/26 222/26
f 223/27 221/27 220/26
f 218/28 221/27 223/27
f 218/28 217/28 221/27
f 219/29 217/28 218/28
f 219/29 216/29 217/28
f 437/30 216/29 219/29
f 437/30 436/30 216/29
f 439/32 436/30 437/30
f 439/32 193/31 436/30
f 191/36 441/35 444/34
f 191/36 440/33 441/35
f 192/38 440/33 191/36
f 192/38 442/37 440/33
f 445/39 442/37 192/38
f 445/39 443/37 442/37
f 444/34 443/37 445/39
f 444/34 441/35 443/37
f 439/22 194/41 193/40
f 439/22 195/21 194/41
f 438/22 195/21 439/22
f 438/22 198/21 195/21
f 197/21 192/40 196/41
f 197/21 445/22 192/40
f 199/21 445/22 197/21
f 199/21 444/22 445/22
f 194/41 191/40 190/40
f 194/41 196/41 191/40
f 429/11 196/41 194/41
f 429/11 432/11 196/41
f 196/41 192/40 191/40
f 437/30 438/24 439/32
f 437/30 435/23 438/24
f 219/29 435/23 437/30
f 219/29 222/26 435/23
f 218/28 222/26 219/29
f 218/28 223/27 222/26
f 203/45 201/44 202/43
f 203/45 200/42 201/44
f 441/35 200/42 203/45
f 441/35 440/33 200/42
f 200/42 205/47 201/44
f 200/42 204/46 205/47
f 440/33 204/46 200/42
f 440/33 442/37 204/46
f 204/46 207/47 205/47
f 204/46 206/46 207/47
f 442/37 206/46 204/46
f 442/37 443/37 206/46
f 206/46 202/43 207/47
f 206/46 203/45 202/43
f 443/37 203/45 206/46
f 443/37 441/35 203/45
f 211/48 209/49 210/49
f 211/48 208/48 209/49
f 463/50 208/48 211/48
f 463/50 462/50 208/48
f 438/24 462/50 463/50
f 438/24 190/25 462/50
f 208/48 213/52 209/49
f 208/48 212/51 213/52
f 462/50 212/51 208/48
f 462/50 464/53 212/51
f 190/25 464/53 462/50
f 190/25 191/36 464/53
f 212/51 215/52 213/52
f 212/51 214/51 215/52
f 464/53 214/51 212/51
f 464/53 465/53 214/51
f 191/36 465/53 464/53
f 191/36 444/34 465/53
f 214/51 210/49 215/52
f 214/51 211/48 210/49
f 465/53 211/48 214/51
f 465/53 463/50 211/48
f 444/34 463/50 465/53
f 444/34 438/24 463/50
f 216/29 221/27 217/28
f 216/29 220/26 221/27
f 436/30 220/26 216/29
f 436/30 434/23 220/26
f 193/31 434/23 436/30
f 193/31 190/25 434/23
f 194/41 190/40 193/40
f 201/44 205/47 207/47
f 202/43 201/44 207/47
f 209/49 213/52 215/52
f 210/49 209/49 215/52
f 106/85 303/84 104/83
f 106/85 302/82 303/84
f 116/87 302/82 106/85
f 116/87 109/86 302/82
f 139/88 295/56 138/59
f 449/92 468/91 469/90
f 449/92 448/89 468/91
f 459/94 448/89 449/92
f 459/94 458/93 448/89
f 298/99 224/114 496/113
f 298/99 467/96 224/114
f 297/115 467/96 298/99
f 297/115 466/79 467/96
f 495/97 161/77 341/98
f 495/97 492/95 161/77
f 493/160 492/95 495/97
f 493/160 494/159 492/95
f 472/119 344/118 474/117
f 472/119 473/116 344/118
f 475/121 473/116 472/119
f 475/121 476/120 473/116
f 468/91 478/126 479/125
f 468/91 477/124 478/126
f 448/89 477/124 468/91
f 448/89 451/127 477/124
f 458/93 451/127 448/89
f 458/93 452/128 451/127
f 343/129 478/126 477/124
f 474/117 343/129 477/124
f 336/131 480/130 479/125
f 478/126 336/131 479/125
f 483/137 470/136 481/133
f 483/137 471/135 470/136
f 456/139 471/135 483/137
f 456/139 457/138 471/135
f 453/141 451/127 452/128
f 453/141 454/140 451/127
f 488/142 454/140 453/141
f 488/142 472/119 454/140
f 469/90 455/144 449/92
f 469/90 484/143 455/144
f 485/146 484/143 469/90
f 485/146 486/145 484/143
f 480/130 486/145 485/146
f 480/130 487/147 486/145
f 225/164 499/163 497/162
f 225/164 498/161 499/163
f 227/166 498/161 225/164
f 227/166 500/165 498/161
f 226/168 500/165 227/166
f 226/168 501/167 500/165
f 497/162 501/167 226/168
f 497/162 499/163 501/167
f 503/172 501/171 502/170
f 503/172 500/169 501/171
f 504/174 500/169 503/172
f 504/174 498/173 500/169
f 505/176 498/173 504/174
f 505/176 499/175 498/173
f 502/170 499/175 505/176
f 502/170 501/171 499/175
f 502/180 507/179 503/178
f 502/180 506/177 507/179
f 505/182 506/177 502/180
f 505/182 509/181 506/177
f 507/179 504/184 503/178
f 507/179 508/183 504/184
f 510/186 508/183 507/179
f 510/186 511/185 508/183
f 544/188 511/185 510/186
f 544/188 240/187 511/185
f 536/190 240/187 544/188
f 536/190 535/189 240/187
f 532/192 535/189 536/190
f 532/192 236/191 535/189
f 539/194 236/191 532/192
f 539/194 540/193 236/191
f 538/196 540/193 539/194
f 538/196 537/195 540/193
f 531/198 537/195 538/196
f 531/198 530/197 537/195
f 533/200 530/197 531/198
f 533/200 534/199 530/197
f 543/202 534/199 533/200
f 543/202 239/201 534/199
f 230/206 514/205 229/204
f 230/206 228/203 514/205
f 232/208 228/203 230/206
f 232/208 231/207 228/203
f 233/210 231/207 232/208
f 233/210 515/209 231/207
f 229/204 515/209 233/210
f 229/204 514/205 515/209
f 527/214 520/213 526/212
f 527/214 234/211 520/213
f 528/216 234/211 527/214
f 528/216 235/215 234/211
f 529/218 235/215 528/216
f 529/218 521/217 235/215
f 526/212 521/217 529/218
f 526/212 520/213 521/217
f 517/220 515/209 516/219
f 517/220 231/207 515/209
f 518/221 231/207 517/220
f 518/221 228/203 231/207
f 519/222 228/203 518/221
f 519/222 514/205 228/203
f 516/219 514/205 519/222
f 516/219 515/209 514/205
f 523/224 521/217 522/223
f 523/224 235/215 521/217
f 524/225 235/215 523/224
f 524/225 234/211 235/215
f 525/226 234/211 524/225
f 525/226 520/213 234/211
f 522/223 520/213 525/226
f 522/223 521/217 520/213
f 237/228 516/219 541/227
f 237/228 517/220 516/219
f 238/229 517/220 237/228
f 238/229 518/221 517/220
f 542/230 518/221 238/229
f 542/230 519/222 518/221
f 541/227 519/222 542/230
f 541/227 516/219 519/222
f 238/232 522/223 542/231
f 238/232 523/224 522/223
f 239/233 523/224 238/232
f 239/233 524/225 523/224
f 543/234 524/225 239/233
f 543/234 525/226 524/225
f 542/231 525/226 543/234
f 542/231 522/223 525/226
f 535/189 239/201 240/187
f 535/189 534/199 239/201
f 236/191 534/199 535/189
f 236/191 530/197 534/199
f 540/193 530/197 236/191
f 540/193 537/195 530/197
f 512/236 237/228 541/227
f 512/236 513/235 237/228
f 506/177 513/235 512/236
f 506/177 509/181 513/235
f 457/138 428/14 450/237
f 471/135 457/138 450/237
f 455/144 450/237 431/12
f 446/16 455/144 431/12
f 431/12 450/237 428/14
f 343/129 474/117 344/118
f 478/126 343/129 336/131
f 512/236 541/227 542/230
f 510/186 542/230 543/202
f 510/186 512/236 542/230
f 507/179 512/236 510/186
f 507/179 506/177 512/236
f 239/201 511/185 240/187
f 532/192 538/196 539/194
f 532/192 531/198 538/196
f 536/190 531/198 532/192
f 536/190 533/200 531/198
f 544/188 533/200 536/190
f 544/188 543/202 533/200
f 232/208 230/206 229/204
f 233/210 232/208 229/204
f 528/216 527/214 526/212
f 529/218 528/216 526/212
f 543/202 544/188 510/186
f 238/229 237/228 513/235
f 511/185 509/181 508/183
f 511/185 513/235 509/181
f 239/201 513/235 511/185
f 239/201 238/229 513/235
f 116/87 118/240 109/86
f 90/241 104/83 303/84
f 297/115 90/241 303/84
f 127/109 312/110 126/248
f 126/108 139/105 140/252
f 126/248 313/253 128/109
f 13/41 245/15 246/11
f 13/41 3/17 245/15
f 14/21 3/17 13/41
f 14/21 4/18 3/17
f 6/20 4/18 14/21
f 14/21 16/21 6/20
f 243/13 11/41 244/11
f 243/13 2/17 11/41
f 12/21 11/41 2/17
f 2/17 1/19 12/21
f 12/20 1/21 5/19
f 5/20 15/21 12/21
f 41/241 284/99 283/115
f 41/241 75/257 284/99
f 292/100 284/99 75/257
f 75/257 281/55 292/100
f 291/258 281/55 75/257
f 291/258 282/56 281/55
f 291/258 75/257 77/259
f 57/260 49/66 52/65
f 57/260 58/261 49/66
f 53/262 49/66 58/261
f 53/262 54/69 49/66
f 56/71 54/69 53/262
f 56/71 287/73 54/69
f 289/75 54/69 287/73
f 289/75 55/68 54/69
f 99/69 55/68 289/75
f 289/75 299/73 99/69
f 101/71 99/69 299/73
f 101/71 100/262 99/69
f 302/82 100/262 101/71
f 302/82 102/261 100/262
f 109/86 102/261 302/82
f 100/262 97/66 99/69
f 100/262 102/261 97/66
f 103/260 97/66 102/261
f 103/260 98/65 97/66
f 301/72 302/82 101/71
f 301/72 303/84 302/82
f 466/79 303/84 301/72
f 466/79 297/115 303/84
f 284/99 373/160 376/113
f 284/99 375/97 373/160
f 347/96 374/159 372/95
f 347/96 162/114 374/159
f 350/136 263/237 351/135
f 350/136 364/143 263/237
f 365/145 364/143 350/136
f 350/136 371/150 365/145
f 361/133 371/150 350/136
f 268/144 263/237 364/143
f 370/149 365/145 371/150
f 370/149 367/147 365/145
f 318/155 367/147 370/149
f 318/155 321/131 367/147
f 360/130 367/147 321/131
f 384/182 388/183 385/184
f 384/182 393/181 388/183
f 354/116 331/158 355/120
f 354/116 329/118 331/158
f 268/144 260/14 259/16
f 268/144 262/92 260/14
f 272/94 260/14 262/92
f 272/94 273/263 260/14
f 274/264 273/263 272/94
f 274/264 270/138 273/263
f 269/139 270/138 274/264
f 274/264 368/142 269/139
f 266/141 368/142 274/264
f 274/264 267/128 266/141
f 271/93 267/128 274/264
f 274/264 272/94 271/93
f 241/14 273/263 270/138
f 241/14 260/14 273/263
f 265/140 353/117 352/119
f 265/140 264/127 353/117
f 357/124 353/117 264/127
f 366/146 349/91 348/90
f 366/146 358/125 349/91
f 360/130 358/125 366/146
f 361/133 369/123 362/122
f 361/133 363/137 369/123
f 269/139 369/123 363/137
f 269/139 356/121 369/123
f 368/142 356/121 269/139
f 368/142 352/119 356/121
f 308/265 307/246 151/247
f 308/265 83/108 307/246
f 306/266 307/246 83/108
f 306/266 146/244 307/246
f 142/267 146/244 306/266
f 142/267 145/242 146/244
f 154/244 145/242 142/267
f 142/267 310/266 154/244
f 311/246 154/244 310/266
f 310/266 126/108 311/246
f 110/268 126/108 310/266
f 110/268 131/269 126/108
f 120/270 126/108 131/269
f 120/270 304/107 126/108
f 83/108 65/268 306/266
f 83/108 89/269 65/268
f 77/270 89/269 83/108
f 83/108 291/107 77/270
f 312/265 311/246 126/108
f 312/265 157/247 311/246
f 143/271 81/112 150/111
f 143/271 79/255 81/112
f 148/272 79/255 143/271
f 148/272 152/271 79/255
f 124/112 79/255 152/271
f 152/271 156/111 124/112
f 288/82 58/261 64/86
f 288/82 53/262 58/261
f 56/71 53/262 288/82
f 288/82 285/72 56/71
f 290/84 285/72 288/82
f 290/84 346/79 285/72
f 283/115 346/79 290/84
f 433/15 196/41 432/11
f 433/15 186/17 196/41
f 197/21 196/41 186/17
f 186/17 185/18 197/21
f 189/20 197/21 185/18
f 189/20 199/21 197/21
f 194/41 430/13 429/11
f 194/41 187/17 430/13
f 195/21 187/17 194/41
f 195/21 184/19 187/17
f 188/20 184/19 195/21
f 195/21 198/21 188/20
f 298/99 90/241 297/115
f 298/99 122/257 90/241
f 305/100 122/257 298/99
f 305/100 296/55 122/257
f 304/258 122/257 296/55
f 304/258 120/259 122/257
f 296/55 295/56 304/258
f 493/160 298/99 496/113
f 493/160 495/97 298/99
f 494/159 467/96 492/95
f 494/159 224/114 467/96
f 450/237 470/136 471/135
f 450/237 484/143 470/136
f 455/144 484/143 450/237
f 486/145 470/136 484/143
f 486/145 491/150 470/136
f 490/149 491/150 486/145
f 486/145 487/147 490/149
f 335/155 490/149 487/147
f 487/147 336/131 335/155
f 480/130 336/131 487/147
f 481/133 470/136 491/150
f 505/182 508/183 509/181
f 505/182 504/184 508/183
f 345/158 473/116 476/120
f 345/158 344/118 473/116
f 447/14 455/144 446/16
f 447/14 449/92 455/144
f 459/94 449/92 447/14
f 447/14 460/263 459/94
f 428/14 460/263 447/14
f 428/14 457/138 460/263
f 461/264 460/263 457/138
f 461/264 459/94 460/263
f 458/93 459/94 461/264
f 461/264 452/128 458/93
f 453/141 452/128 461/264
f 461/264 488/142 453/141
f 456/139 488/142 461/264
f 456/139 475/121 488/142
f 489/123 475/121 456/139
f 456/139 483/137 489/123
f 481/133 489/123 483/137
f 481/133 482/122 489/123
f 456/139 461/264 457/138
f 488/142 475/121 472/119
f 474/117 454/140 472/119
f 474/117 451/127 454/140
f 477/124 451/127 474/117
f 468/91 485/146 469/90
f 468/91 479/125 485/146
f 480/130 485/146 479/125
f 319/273 317/274 318/104
f 319/273 335/104 317/274
f 334/101 317/274 335/104
f 334/101 315/275 317/274
f 333/276 315/275 334/101
f 334/101 337/102 333/276
f 161/277 333/276 337/102
f 337/102 342/278 161/277
f 336/103 342/278 337/102
f 336/103 343/279 342/278
f 340/280 342/278 343/279
f 340/280 341/281 342/278
f 338/282 341/281 340/280
f 340/280 339/283 338/282
f 344/284 339/283 340/280
f 344/284 345/285 339/283
f 330/286 339/283 345/285
f 330/286 322/287 339/283
f 323/283 322/287 330/286
f 323/283 324/282 322/287
f 325/280 324/282 323/283
f 325/280 326/281 324/282
f 327/278 326/281 325/280
f 327/278 160/277 326/281
f 320/102 160/277 327/278
f 320/102 314/276 160/277
f 316/101 314/276 320/102
f 316/101 315/275 314/276
f 317/274 315/275 316/101
f 316/101 318/104 317/274
f 341/281 161/277 342/278
f 340/280 343/279 344/284
f 322/287 338/282 339/283
f 322/287 332/288 338/282
f 324/282 332/288 322/287
f 327/278 321/103 320/102
f 327/278 328/279 321/103
f 325/280 328/279 327/278
f 325/280 329/284 328/279
f 323/283 329/284 325/280
f 323/283 331/285 329/284
f 330/286 331/285 323/283
f 377/289 376/290 164/291
f 377/289 162/292 376/290
f 163/293 162/292 377/289
f 163/293 374/294 162/292
f 165/295 374/294 163/293
f 165/295 373/296 374/294
f 164/291 373/296 165/295
f 164/291 376/290 373/296
f 425/297 149/298 427/299
f 425/297 86/300 149/298
f 135/301 86/300 425/297
f 135/301 83/302 86/300
f 309/303 86/300 83/302
f 309/303 149/298 86/300
f 425/297 136/304 135/301
f 425/297 137/305 136/304
f 87/306 137/305 425/297
f 87/306 426/297 137/305
f 427/299 426/297 87/306
f 427/299 155/298 426/297
f 129/300 426/297 155/298
f 129/300 140/301 426/297
f 126/302 140/301 129/300
f 129/300 313/303 126/302
f 155/298 313/303 129/300
f 425/297 427/299 87/306
f 141/304 426/297 140/301
f 141/304 137/305 426/297
f 496/290 497/289 226/291
f 496/290 224/292 497/289
f 225/293 497/289 224/292
f 224/292 494/294 225/293
f 227/295 225/293 494/294
f 494/294 493/296 227/295
f 226/291 227/295 493/296
f 493/296 496/290 226/291
usemtl mat_2
f 68/307 88/308 70/309
f 68/307 74/310 88/308
f 67/311 74/310 68/307
f 67/311 72/312 74/310
f 48/313 72/312 67/311
f 48/313 60/314 72/312
f 43/315 60/314 48/313
f 43/315 62/316 60/314
f 45/317 62/316 43/315
f 45/317 42/318 62/316
f 66/319 42/318 45/317
f 66/319 76/320 42/318
f 69/321 76/320 66/319
f 69/321 78/322 76/320
f 70/309 78/322 69/321
f 70/309 88/308 78/322
f 119/310 115/309 130/308
f 119/310 112/307 115/309
f 117/312 112/307 119/310
f 117/312 113/311 112/307
f 107/314 113/311 117/312
f 107/314 96/313 113/311
f 105/316 96/313 107/314
f 105/316 92/315 96/313
f 91/318 92/315 105/316
f 91/318 93/317 92/315
f 123/320 93/317 91/318
f 123/320 111/319 93/317
f 121/322 111/319 123/320
f 121/322 114/321 111/319
f 130/308 114/321 121/322
f 130/308 115/309 114/321
f 44/323 45/317 43/315
f 44/323 66/319 45/317
f 69/321 66/319 44/323
f 44/323 70/309 69/321
f 68/307 70/309 44/323
f 44/323 67/311 68/307
f 48/313 67/311 44/323
f 44/323 43/315 48/313
f 93/317 94/323 92/315
f 93/317 111/319 94/323
f 114/321 94/323 111/319
f 114/321 115/309 94/323
f 112/307 94/323 115/309
f 112/307 113/311 94/323
f 96/313 94/323 113/311
f 96/313 92/315 94/323
