xof 0303txt 0032

template AnimTicksPerSecond {
  <9E415A43-7BA6-4a73-8743-B73D47E88476>
  DWORD AnimTicksPerSecond;
}

template XSkinMeshHeader {
  <3cf169ce-ff7c-44ab-93c0-f78f62d172e2>
  WORD nMaxSkinWeightsPerVertex;
  WORD nMaxSkinWeightsPerFace;
  WORD nBones;
}

template SkinWeights {
  <6f0d123b-bad2-4167-a0d0-80224f25fabb>
  STRING transformNodeName;
  DWORD nWeights;
  array DWORD vertexIndices[nWeights];
  array float weights[nWeights];
  Matrix4x4 matrixOffset;
}

Frame Root {
  FrameTransformMatrix {
     1.000000, 0.000000, 0.000000, 0.000000,
     0.000000, 0.000000, 1.000000, 0.000000,
     0.000000, 1.000000,-0.000000, 0.000000,
     0.000000, 0.000000, 0.000000, 1.000000;;
  }
  Frame fuwaride_c_mat_0 {
    FrameTransformMatrix {
       1.000000, 0.000000, 0.000000, 0.000000,
       0.000000, 1.000000, 0.000000, 0.000000,
       0.000000, 0.000000, 1.000000, 0.000000,
       0.000000, 0.000000, 0.000000, 1.000000;;
    }
    Mesh { //Mesh Mesh
      504;
      -0.274929; 0.387854;-1.418643;,
      -0.549857; 0.721726;-0.956324;,
       0.000000; 0.387854;-1.492367;,
      -0.549857; 0.721726;-0.956324;,
       0.000000; 0.721726;-1.103772;,
       0.000000; 0.387854;-1.492367;,
       0.274929; 0.387854;-1.418643;,
       0.000000; 0.387854;-1.492367;,
       0.000000; 0.721726;-1.103772;,
       0.000000; 0.721726;-1.103772;,
       0.549857; 0.721726;-0.956324;,
       0.274929; 0.387854;-1.418643;,
      -1.088896; 0.387854; 0.948737;,
      -0.549857; 0.721726; 0.956324;,
      -1.291842; 0.387854; 0.745688;,
      -0.549857; 0.721726; 0.956324;,
      -0.955751; 0.721726; 0.550225;,
      -1.291842; 0.387854; 0.745688;,
      -1.291842; 0.387854; 0.745688;,
      -0.955751; 0.721726; 0.550225;,
      -1.366050; 0.387854; 0.470575;,
      -0.955751; 0.721726; 0.550225;,
      -1.104167; 0.721726; 0.000000;,
      -1.366050; 0.387854; 0.470575;,
      -1.366050; 0.387854;-0.470575;,
      -1.104167; 0.721726; 0.000000;,
      -1.291842; 0.387854;-0.745688;,
      -1.104167; 0.721726; 0.000000;,
      -0.955751; 0.721726;-0.550225;,
      -1.291842; 0.387854;-0.745688;,
      -1.291842; 0.387854;-0.745688;,
      -0.955751; 0.721726;-0.550225;,
      -1.088896; 0.387854;-0.948737;,
      -0.955751; 0.721726;-0.550225;,
      -0.549857; 0.721726;-0.956324;,
      -1.088896; 0.387854;-0.948737;,
      -0.189294; 1.460790;-0.706455;,
      -0.211330; 1.244780;-0.792080;,
      -0.365688; 1.460790;-0.633391;,
      -0.211330; 1.244780;-0.792080;,
      -0.411282; 1.244780;-0.708984;,
      -0.365688; 1.460790;-0.633391;,
      -0.365688; 1.460790;-0.633391;,
      -0.411282; 1.244780;-0.708984;,
      -0.517161; 1.460790;-0.517161;,
      -0.411282; 1.244780;-0.708984;,
      -0.578992; 1.244780;-0.578560;,
      -0.517161; 1.460790;-0.517161;,
      -0.517161; 1.460790;-0.517161;,
      -0.578992; 1.244780;-0.578560;,
      -0.633391; 1.460790;-0.365688;,
      -0.578992; 1.244780;-0.578560;,
      -0.709991; 1.244780;-0.412088;,
      -0.633391; 1.460790;-0.365688;,
      -0.633391; 1.460790;-0.365688;,
      -0.709991; 1.244780;-0.412088;,
      -0.706455; 1.460790;-0.189294;,
      -0.709991; 1.244780;-0.412088;,
      -0.790219; 1.244780;-0.211337;,
      -0.706455; 1.460790;-0.189294;,
      -0.706455; 1.460790;-0.189294;,
      -0.790219; 1.244780;-0.211337;,
      -0.731377; 1.460790; 0.000000;,
      -0.790219; 1.244780;-0.211337;,
      -0.821653; 1.244780; 0.000000;,
      -0.731377; 1.460790; 0.000000;,
      -0.731377; 1.460790; 0.000000;,
      -0.821653; 1.244780; 0.000000;,
      -0.706455; 1.460790; 0.189294;,
      -0.821653; 1.244780; 0.000000;,
      -0.790219; 1.244780; 0.211337;,
      -0.706455; 1.460790; 0.189294;,
      -0.706455; 1.460790; 0.189294;,
      -0.790219; 1.244780; 0.211337;,
      -0.633391; 1.460790; 0.365688;,
      -0.790219; 1.244780; 0.211337;,
      -0.709991; 1.244780; 0.412088;,
      -0.633391; 1.460790; 0.365688;,
      -0.633391; 1.460790; 0.365688;,
      -0.709991; 1.244780; 0.412088;,
      -0.517161; 1.460790; 0.517161;,
      -0.709991; 1.244780; 0.412088;,
      -0.578992; 1.244780; 0.578560;,
      -0.517161; 1.460790; 0.517161;,
      -0.517161; 1.460790; 0.517161;,
      -0.578992; 1.244780; 0.578560;,
      -0.365688; 1.460790; 0.633391;,
      -0.578992; 1.244780; 0.578560;,
      -0.411282; 1.244780; 0.708984;,
      -0.365688; 1.460790; 0.633391;,
      -0.365688; 1.460790; 0.633391;,
      -0.411282; 1.244780; 0.708984;,
      -0.189294; 1.460790; 0.706455;,
      -0.411282; 1.244780; 0.708984;,
      -0.211330; 1.244780; 0.792080;,
      -0.189294; 1.460790; 0.706455;,
      -0.189294; 1.460790; 0.706455;,
      -0.211330; 1.244780; 0.792080;,
       0.000000; 1.460790; 0.731377;,
      -0.211330; 1.244780; 0.792080;,
       0.000000; 1.244780; 0.824130;,
       0.000000; 1.460790; 0.731377;,
       0.000000; 1.460790; 0.731377;,
       0.000000; 1.244780; 0.824130;,
       0.189294; 1.460790; 0.706455;,
       0.000000; 1.244780; 0.824130;,
       0.211330; 1.244780; 0.792080;,
       0.189294; 1.460790; 0.706455;,
       0.189294; 1.460790; 0.706455;,
       0.211330; 1.244780; 0.792080;,
       0.365688; 1.460790; 0.633391;,
       0.211330; 1.244780; 0.792080;,
       0.411282; 1.244780; 0.708984;,
       0.365688; 1.460790; 0.633391;,
       0.365688; 1.460790; 0.633391;,
       0.411282; 1.244780; 0.708984;,
       0.517161; 1.460790; 0.517161;,
       0.411282; 1.244780; 0.708984;,
       0.578992; 1.244780; 0.578560;,
       0.517161; 1.460790; 0.517161;,
       0.517161; 1.460790; 0.517161;,
       0.578992; 1.244780; 0.578560;,
       0.633391; 1.460790; 0.365688;,
       0.578992; 1.244780; 0.578560;,
       0.709991; 1.244780; 0.412088;,
       0.633391; 1.460790; 0.365688;,
       0.633391; 1.460790; 0.365688;,
       0.709991; 1.244780; 0.412088;,
       0.706455; 1.460790; 0.189294;,
       0.709991; 1.244780; 0.412088;,
       0.790219; 1.244780; 0.211337;,
       0.706455; 1.460790; 0.189294;,
       0.706455; 1.460790; 0.189294;,
       0.790219; 1.244780; 0.211337;,
       0.731377; 1.460790; 0.000000;,
       0.790219; 1.244780; 0.211337;,
       0.821653; 1.244780; 0.000000;,
       0.731377; 1.460790; 0.000000;,
       0.731377; 1.460790; 0.000000;,
       0.821653; 1.244780; 0.000000;,
       0.706455; 1.460790;-0.189294;,
       0.821653; 1.244780; 0.000000;,
       0.790219; 1.244780;-0.211337;,
       0.706455; 1.460790;-0.189294;,
       0.706455; 1.460790;-0.189294;,
       0.790219; 1.244780;-0.211337;,
       0.633391; 1.460790;-0.365688;,
       0.790219; 1.244780;-0.211337;,
       0.709991; 1.244780;-0.412088;,
       0.633391; 1.460790;-0.365688;,
       0.633391; 1.460790;-0.365688;,
       0.709991; 1.244780;-0.412088;,
       0.517161; 1.460790;-0.517161;,
       0.709991; 1.244780;-0.412088;,
       0.578992; 1.244780;-0.578560;,
       0.517161; 1.460790;-0.517161;,
       0.517161; 1.460790;-0.517161;,
       0.578992; 1.244780;-0.578560;,
       0.365688; 1.460790;-0.633391;,
       0.578992; 1.244780;-0.578560;,
       0.411282; 1.244780;-0.708984;,
       0.365688; 1.460790;-0.633391;,
       0.365688; 1.460790;-0.633391;,
       0.411282; 1.244780;-0.708984;,
       0.189294; 1.460790;-0.706455;,
       0.411282; 1.244780;-0.708984;,
       0.211330; 1.244780;-0.792080;,
       0.189294; 1.460790;-0.706455;,
       0.189294; 1.460790;-0.706455;,
       0.211330; 1.244780;-0.792080;,
       0.000000; 1.460790;-0.731377;,
       0.211330; 1.244780;-0.792080;,
       0.000000; 1.244780;-0.824130;,
       0.000000; 1.460790;-0.731377;,
       0.000000; 1.460790;-0.731377;,
       0.000000; 1.244780;-0.824130;,
      -0.189294; 1.460790;-0.706455;,
       0.000000; 1.244780;-0.824130;,
      -0.211330; 1.244780;-0.792080;,
      -0.189294; 1.460790;-0.706455;,
      -0.549857; 0.721726; 0.956324;,
      -0.274929; 0.387854; 1.418643;,
       0.000000; 0.721726; 1.103772;,
      -0.274929; 0.387854; 1.418643;,
       0.000000; 0.387854; 1.492367;,
       0.000000; 0.721726; 1.103772;,
       0.000000; 0.721726; 1.103772;,
       0.000000; 0.387854; 1.492367;,
       0.549857; 0.721726; 0.956324;,
       0.000000; 0.387854; 1.492367;,
       0.274929; 0.387854; 1.418643;,
       0.549857; 0.721726; 0.956324;,
      -0.211330; 1.244780; 0.792080;,
      -0.244527; 0.966371; 0.920198;,
       0.000000; 1.244780; 0.824130;,
      -0.244527; 0.966371; 0.920198;,
       0.000000; 0.966371; 0.956700;,
       0.000000; 1.244780; 0.824130;,
       0.000000; 1.244780; 0.824130;,
       0.000000; 0.966371; 0.956700;,
       0.211330; 1.244780; 0.792080;,
       0.000000; 0.966371; 0.956700;,
       0.244527; 0.966371; 0.920198;,
       0.211330; 1.244780; 0.792080;,
       0.211330; 1.244780; 0.792080;,
       0.244527; 0.966371; 0.920198;,
       0.411282; 1.244780; 0.708984;,
       0.244527; 0.966371; 0.920198;,
       0.476631; 0.966371; 0.824275;,
       0.411282; 1.244780; 0.708984;,
       0.411282; 1.244780; 0.708984;,
       0.476631; 0.966371; 0.824275;,
       0.578992; 1.244780; 0.578560;,
       0.476631; 0.966371; 0.824275;,
       0.672682; 0.966371; 0.671900;,
       0.578992; 1.244780; 0.578560;,
       0.578992; 1.244780; 0.578560;,
       0.672682; 0.966371; 0.671900;,
       0.709991; 1.244780; 0.412088;,
       0.672682; 0.966371; 0.671900;,
       0.824946; 0.966371; 0.477567;,
       0.709991; 1.244780; 0.412088;,
       0.709991; 1.244780; 0.412088;,
       0.824946; 0.966371; 0.477567;,
       0.790219; 1.244780; 0.211337;,
       0.824946; 0.966371; 0.477567;,
       0.918144; 0.966371; 0.245773;,
       0.790219; 1.244780; 0.211337;,
       0.790219; 1.244780; 0.211337;,
       0.918144; 0.966371; 0.245773;,
       0.821653; 1.244780; 0.000000;,
       0.918144; 0.966371; 0.245773;,
       0.954557; 0.966371; 0.000000;,
       0.821653; 1.244780; 0.000000;,
       0.821653; 1.244780; 0.000000;,
       0.954557; 0.966371; 0.000000;,
       0.790219; 1.244780;-0.211337;,
       0.954557; 0.966371; 0.000000;,
       0.918144; 0.966371;-0.245773;,
       0.790219; 1.244780;-0.211337;,
       0.790219; 1.244780;-0.211337;,
       0.918144; 0.966371;-0.245773;,
       0.709991; 1.244780;-0.412088;,
       0.918144; 0.966371;-0.245773;,
       0.824946; 0.966371;-0.477567;,
       0.709991; 1.244780;-0.412088;,
       0.709991; 1.244780;-0.412088;,
       0.824946; 0.966371;-0.477567;,
       0.578992; 1.244780;-0.578560;,
       0.824946; 0.966371;-0.477567;,
       0.672682; 0.966371;-0.671900;,
       0.578992; 1.244780;-0.578560;,
       0.578992; 1.244780;-0.578560;,
       0.672682; 0.966371;-0.671900;,
       0.411282; 1.244780;-0.708984;,
       0.672682; 0.966371;-0.671900;,
       0.476631; 0.966371;-0.824275;,
       0.411282; 1.244780;-0.708984;,
       0.411282; 1.244780;-0.708984;,
       0.476631; 0.966371;-0.824275;,
       0.211330; 1.244780;-0.792080;,
       0.476631; 0.966371;-0.824275;,
       0.244527; 0.966371;-0.920198;,
       0.211330; 1.244780;-0.792080;,
       0.211330; 1.244780;-0.792080;,
       0.244527; 0.966371;-0.920198;,
       0.000000; 1.244780;-0.824130;,
       0.244527; 0.966371;-0.920198;,
       0.000000; 0.966371;-0.956700;,
       0.000000; 1.244780;-0.824130;,
       0.000000; 1.244780;-0.824130;,
       0.000000; 0.966371;-0.956700;,
      -0.211330; 1.244780;-0.792080;,
       0.000000; 0.966371;-0.956700;,
      -0.244527; 0.966371;-0.920198;,
      -0.211330; 1.244780;-0.792080;,
      -0.211330; 1.244780;-0.792080;,
      -0.244527; 0.966371;-0.920198;,
      -0.411282; 1.244780;-0.708984;,
      -0.244527; 0.966371;-0.920198;,
      -0.476631; 0.966371;-0.824275;,
      -0.411282; 1.244780;-0.708984;,
      -0.411282; 1.244780;-0.708984;,
      -0.476631; 0.966371;-0.824275;,
      -0.578992; 1.244780;-0.578560;,
      -0.476631; 0.966371;-0.824275;,
      -0.672682; 0.966371;-0.671900;,
      -0.578992; 1.244780;-0.578560;,
      -0.578992; 1.244780;-0.578560;,
      -0.672682; 0.966371;-0.671900;,
      -0.709991; 1.244780;-0.412088;,
      -0.672682; 0.966371;-0.671900;,
      -0.824946; 0.966371;-0.477567;,
      -0.709991; 1.244780;-0.412088;,
      -0.709991; 1.244780;-0.412088;,
      -0.824946; 0.966371;-0.477567;,
      -0.790219; 1.244780;-0.211337;,
      -0.824946; 0.966371;-0.477567;,
      -0.918144; 0.966371;-0.245773;,
      -0.790219; 1.244780;-0.211337;,
      -0.790219; 1.244780;-0.211337;,
      -0.918144; 0.966371;-0.245773;,
      -0.821653; 1.244780; 0.000000;,
      -0.918144; 0.966371;-0.245773;,
      -0.954557; 0.966371; 0.000000;,
      -0.821653; 1.244780; 0.000000;,
      -0.821653; 1.244780; 0.000000;,
      -0.954557; 0.966371; 0.000000;,
      -0.790219; 1.244780; 0.211337;,
      -0.954557; 0.966371; 0.000000;,
      -0.918144; 0.966371; 0.245773;,
      -0.790219; 1.244780; 0.211337;,
      -0.790219; 1.244780; 0.211337;,
      -0.918144; 0.966371; 0.245773;,
      -0.709991; 1.244780; 0.412088;,
      -0.918144; 0.966371; 0.245773;,
      -0.824946; 0.966371; 0.477567;,
      -0.709991; 1.244780; 0.412088;,
      -0.709991; 1.244780; 0.412088;,
      -0.824946; 0.966371; 0.477567;,
      -0.578992; 1.244780; 0.578560;,
      -0.824946; 0.966371; 0.477567;,
      -0.672682; 0.966371; 0.671900;,
      -0.578992; 1.244780; 0.578560;,
      -0.578992; 1.244780; 0.578560;,
      -0.672682; 0.966371; 0.671900;,
      -0.411282; 1.244780; 0.708984;,
      -0.672682; 0.966371; 0.671900;,
      -0.476631; 0.966371; 0.824275;,
      -0.411282; 1.244780; 0.708984;,
      -0.411282; 1.244780; 0.708984;,
      -0.476631; 0.966371; 0.824275;,
      -0.211330; 1.244780; 0.792080;,
      -0.476631; 0.966371; 0.824275;,
      -0.244527; 0.966371; 0.920198;,
      -0.211330; 1.244780; 0.792080;,
       0.549857; 0.721726; 0.956324;,
       1.088896; 0.387854; 0.948737;,
       0.955751; 0.721726; 0.550225;,
       1.088896; 0.387854; 0.948737;,
       1.291842; 0.387854; 0.745688;,
       0.955751; 0.721726; 0.550225;,
       0.955751; 0.721726; 0.550225;,
       1.291842; 0.387854; 0.745688;,
       1.104166; 0.721726; 0.000000;,
       1.291842; 0.387854; 0.745688;,
       1.366050; 0.387854; 0.470575;,
       1.104166; 0.721726; 0.000000;,
       1.104166; 0.721726; 0.000000;,
       1.366050; 0.387854;-0.470575;,
       0.955751; 0.721726;-0.550225;,
       1.366050; 0.387854;-0.470575;,
       1.291842; 0.387854;-0.745688;,
       0.955751; 0.721726;-0.550225;,
       0.955751; 0.721726;-0.550225;,
       1.291842; 0.387854;-0.745688;,
       0.549857; 0.721726;-0.956324;,
       1.291842; 0.387854;-0.745688;,
       1.088896; 0.387854;-0.948737;,
       0.549857; 0.721726;-0.956324;,
      -0.274929; 0.387854;-1.418643;,
       0.000000; 0.387854;-1.492367;,
       0.000000; 0.053982;-1.880962;,
       0.000000; 0.053982;-1.880962;,
       0.000000; 0.387854;-1.492367;,
       0.274929; 0.387854;-1.418643;,
      -1.088896; 0.387854; 0.948737;,
      -1.291842; 0.387854; 0.745688;,
      -1.627934; 0.053982; 0.941150;,
      -1.291842; 0.387854; 0.745688;,
      -1.366050; 0.387854; 0.470575;,
      -1.627934; 0.053982; 0.941150;,
      -1.366050; 0.387854;-0.470575;,
      -1.291842; 0.387854;-0.745688;,
      -1.627934; 0.053982;-0.941150;,
      -1.291842; 0.387854;-0.745688;,
      -1.088896; 0.387854;-0.948737;,
      -1.627934; 0.053982;-0.941150;,
      -0.274929; 0.387854; 1.418643;,
       0.000000; 0.053982; 1.880962;,
       0.000000; 0.387854; 1.492367;,
       0.000000; 0.053982; 1.880962;,
       0.274929; 0.387854; 1.418643;,
       0.000000; 0.387854; 1.492367;,
       1.088896; 0.387854; 0.948737;,
       1.627934; 0.053982; 0.941150;,
       1.291842; 0.387854; 0.745688;,
       1.627934; 0.053982; 0.941150;,
       1.366050; 0.387854; 0.470575;,
       1.291842; 0.387854; 0.745688;,
       1.366050; 0.387854;-0.470575;,
       1.627934; 0.053982;-0.941150;,
       1.291842; 0.387854;-0.745688;,
       1.627934; 0.053982;-0.941150;,
       1.088896; 0.387854;-0.948737;,
       1.291842; 0.387854;-0.745688;,
      -0.549857; 0.721726;-0.956324;,
      -0.244527; 0.966371;-0.920198;,
       0.000000; 0.721726;-1.103772;,
      -0.244527; 0.966371;-0.920198;,
       0.000000; 0.966371;-0.956700;,
       0.000000; 0.721726;-1.103772;,
       0.000000; 0.721726;-1.103772;,
       0.000000; 0.966371;-0.956700;,
       0.244527; 0.966371;-0.920198;,
       0.244527; 0.966371;-0.920198;,
       0.549857; 0.721726;-0.956324;,
       0.000000; 0.721726;-1.103772;,
       0.549857; 0.721726;-0.956324;,
       0.244527; 0.966371;-0.920198;,
       0.476631; 0.966371;-0.824275;,
       0.476631; 0.966371;-0.824275;,
       0.672682; 0.966371;-0.671900;,
       0.549857; 0.721726;-0.956324;,
       0.549857; 0.721726;-0.956324;,
       0.672682; 0.966371;-0.671900;,
       0.955751; 0.721726;-0.550225;,
       0.672682; 0.966371;-0.671900;,
       0.824946; 0.966371;-0.477567;,
       0.955751; 0.721726;-0.550225;,
       0.955751; 0.721726;-0.550225;,
       0.824946; 0.966371;-0.477567;,
       0.918144; 0.966371;-0.245773;,
       0.918144; 0.966371;-0.245773;,
       1.104166; 0.721726; 0.000000;,
       0.955751; 0.721726;-0.550225;,
       1.104166; 0.721726; 0.000000;,
       0.918144; 0.966371;-0.245773;,
       0.954557; 0.966371; 0.000000;,
       0.954557; 0.966371; 0.000000;,
       0.918144; 0.966371; 0.245773;,
       1.104166; 0.721726; 0.000000;,
       1.104166; 0.721726; 0.000000;,
       0.918144; 0.966371; 0.245773;,
       0.955751; 0.721726; 0.550225;,
       0.918144; 0.966371; 0.245773;,
       0.824946; 0.966371; 0.477567;,
       0.955751; 0.721726; 0.550225;,
       0.955751; 0.721726; 0.550225;,
       0.824946; 0.966371; 0.477567;,
       0.672682; 0.966371; 0.671900;,
       0.672682; 0.966371; 0.671900;,
       0.549857; 0.721726; 0.956324;,
       0.955751; 0.721726; 0.550225;,
       0.549857; 0.721726; 0.956324;,
       0.672682; 0.966371; 0.671900;,
       0.476631; 0.966371; 0.824275;,
       0.476631; 0.966371; 0.824275;,
       0.244527; 0.966371; 0.920198;,
       0.549857; 0.721726; 0.956324;,
       0.549857; 0.721726; 0.956324;,
       0.244527; 0.966371; 0.920198;,
       0.000000; 0.721726; 1.103772;,
       0.244527; 0.966371; 0.920198;,
       0.000000; 0.966371; 0.956700;,
       0.000000; 0.721726; 1.103772;,
       0.000000; 0.721726; 1.103772;,
       0.000000; 0.966371; 0.956700;,
      -0.244527; 0.966371; 0.920198;,
      -0.244527; 0.966371; 0.920198;,
      -0.549857; 0.721726; 0.956324;,
       0.000000; 0.721726; 1.103772;,
      -0.549857; 0.721726; 0.956324;,
      -0.244527; 0.966371; 0.920198;,
      -0.476631; 0.966371; 0.824275;,
      -0.476631; 0.966371; 0.824275;,
      -0.672682; 0.966371; 0.671900;,
      -0.549857; 0.721726; 0.956324;,
      -0.549857; 0.721726; 0.956324;,
      -0.672682; 0.966371; 0.671900;,
      -0.955751; 0.721726; 0.550225;,
      -0.672682; 0.966371; 0.671900;,
      -0.824946; 0.966371; 0.477567;,
      -0.955751; 0.721726; 0.550225;,
      -0.955751; 0.721726; 0.550225;,
      -0.824946; 0.966371; 0.477567;,
      -0.918144; 0.966371; 0.245773;,
      -0.918144; 0.966371; 0.245773;,
      -1.104167; 0.721726; 0.000000;,
      -0.955751; 0.721726; 0.550225;,
      -1.104167; 0.721726; 0.000000;,
      -0.918144; 0.966371; 0.245773;,
      -0.954557; 0.966371; 0.000000;,
      -0.954557; 0.966371; 0.000000;,
      -0.918144; 0.966371;-0.245773;,
      -1.104167; 0.721726; 0.000000;,
      -1.104167; 0.721726; 0.000000;,
      -0.918144; 0.966371;-0.245773;,
      -0.955751; 0.721726;-0.550225;,
      -0.918144; 0.966371;-0.245773;,
      -0.824946; 0.966371;-0.477567;,
      -0.955751; 0.721726;-0.550225;,
      -0.955751; 0.721726;-0.550225;,
      -0.824946; 0.966371;-0.477567;,
      -0.672682; 0.966371;-0.671900;,
      -0.672682; 0.966371;-0.671900;,
      -0.549857; 0.721726;-0.956324;,
      -0.955751; 0.721726;-0.550225;,
      -0.549857; 0.721726;-0.956324;,
      -0.672682; 0.966371;-0.671900;,
      -0.476631; 0.966371;-0.824275;,
      -0.476631; 0.966371;-0.824275;,
      -0.244527; 0.966371;-0.920198;,
      -0.549857; 0.721726;-0.956324;;
      168;
      3;0;1;2;,
      3;3;4;5;,
      3;6;7;8;,
      3;9;10;11;,
      3;12;13;14;,
      3;15;16;17;,
      3;18;19;20;,
      3;21;22;23;,
      3;24;25;26;,
      3;27;28;29;,
      3;30;31;32;,
      3;33;34;35;,
      3;36;37;38;,
      3;39;40;41;,
      3;42;43;44;,
      3;45;46;47;,
      3;48;49;50;,
      3;51;52;53;,
      3;54;55;56;,
      3;57;58;59;,
      3;60;61;62;,
      3;63;64;65;,
      3;66;67;68;,
      3;69;70;71;,
      3;72;73;74;,
      3;75;76;77;,
      3;78;79;80;,
      3;81;82;83;,
      3;84;85;86;,
      3;87;88;89;,
      3;90;91;92;,
      3;93;94;95;,
      3;96;97;98;,
      3;99;100;101;,
      3;102;103;104;,
      3;105;106;107;,
      3;108;109;110;,
      3;111;112;113;,
      3;114;115;116;,
      3;117;118;119;,
      3;120;121;122;,
      3;123;124;125;,
      3;126;127;128;,
      3;129;130;131;,
      3;132;133;134;,
      3;135;136;137;,
      3;138;139;140;,
      3;141;142;143;,
      3;144;145;146;,
      3;147;148;149;,
      3;150;151;152;,
      3;153;154;155;,
      3;156;157;158;,
      3;159;160;161;,
      3;162;163;164;,
      3;165;166;167;,
      3;168;169;170;,
      3;171;172;173;,
      3;174;175;176;,
      3;177;178;179;,
      3;180;181;182;,
      3;183;184;185;,
      3;186;187;188;,
      3;189;190;191;,
      3;192;193;194;,
      3;195;196;197;,
      3;198;199;200;,
      3;201;202;203;,
      3;204;205;206;,
      3;207;208;209;,
      3;210;211;212;,
      3;213;214;215;,
      3;216;217;218;,
      3;219;220;221;,
      3;222;223;224;,
      3;225;226;227;,
      3;228;229;230;,
      3;231;232;233;,
      3;234;235;236;,
      3;237;238;239;,
      3;240;241;242;,
      3;243;244;245;,
      3;246;247;248;,
      3;249;250;251;,
      3;252;253;254;,
      3;255;256;257;,
      3;258;259;260;,
      3;261;262;263;,
      3;264;265;266;,
      3;267;268;269;,
      3;270;271;272;,
      3;273;274;275;,
      3;276;277;278;,
      3;279;280;281;,
      3;282;283;284;,
      3;285;286;287;,
      3;288;289;290;,
      3;291;292;293;,
      3;294;295;296;,
      3;297;298;299;,
      3;300;301;302;,
      3;303;304;305;,
      3;306;307;308;,
      3;309;310;311;,
      3;312;313;314;,
      3;315;316;317;,
      3;318;319;320;,
      3;321;322;323;,
      3;324;325;326;,
      3;327;328;329;,
      3;330;331;332;,
      3;333;334;335;,
      3;336;337;338;,
      3;339;340;341;,
      3;342;343;344;,
      3;345;346;347;,
      3;348;349;350;,
      3;351;352;353;,
      3;354;355;356;,
      3;357;358;359;,
      3;360;361;362;,
      3;363;364;365;,
      3;366;367;368;,
      3;369;370;371;,
      3;372;373;374;,
      3;375;376;377;,
      3;378;379;380;,
      3;381;382;383;,
      3;384;385;386;,
      3;387;388;389;,
      3;390;391;392;,
      3;393;394;395;,
      3;396;397;398;,
      3;399;400;401;,
      3;402;403;404;,
      3;405;406;407;,
      3;408;409;410;,
      3;411;412;413;,
      3;414;415;416;,
      3;417;418;419;,
      3;420;421;422;,
      3;423;424;425;,
      3;426;427;428;,
      3;429;430;431;,
      3;432;433;434;,
      3;435;436;437;,
      3;438;439;440;,
      3;441;442;443;,
      3;444;445;446;,
      3;447;448;449;,
      3;450;451;452;,
      3;453;454;455;,
      3;456;457;458;,
      3;459;460;461;,
      3;462;463;464;,
      3;465;466;467;,
      3;468;469;470;,
      3;471;472;473;,
      3;474;475;476;,
      3;477;478;479;,
      3;480;481;482;,
      3;483;484;485;,
      3;486;487;488;,
      3;489;490;491;,
      3;492;493;494;,
      3;495;496;497;,
      3;498;499;500;,
      3;501;502;503;;
      MeshNormals { //Mesh Normals
        504;
        -0.172124; 0.747154;-0.641926;,
        -0.401166; 0.597217;-0.694510;,
        -0.000000; 0.758476;-0.651662;,
        -0.401166; 0.597217;-0.694510;,
        -0.000000; 0.641530;-0.767052;,
        -0.000000; 0.758476;-0.651662;,
         0.172124; 0.747154;-0.641926;,
        -0.000000; 0.758476;-0.651662;,
        -0.000000; 0.641530;-0.767052;,
        -0.000000; 0.641530;-0.767052;,
         0.401166; 0.597217;-0.694510;,
         0.172124; 0.747154;-0.641926;,
        -0.469680; 0.747642; 0.469436;,
        -0.401166; 0.597217; 0.694510;,
        -0.563982; 0.758660; 0.326060;,
        -0.401166; 0.597217; 0.694510;,
        -0.662954; 0.643452; 0.382641;,
        -0.563982; 0.758660; 0.326060;,
        -0.563982; 0.758660; 0.326060;,
        -0.662954; 0.643452; 0.382641;,
        -0.641621; 0.747215; 0.173070;,
        -0.662954; 0.643452; 0.382641;,
        -0.801813; 0.597522;-0.000000;,
        -0.641621; 0.747215; 0.173070;,
        -0.641621; 0.747215;-0.173070;,
        -0.801813; 0.597522;-0.000000;,
        -0.563982; 0.758660;-0.326060;,
        -0.801813; 0.597522;-0.000000;,
        -0.662954; 0.643452;-0.382641;,
        -0.563982; 0.758660;-0.326060;,
        -0.563982; 0.758660;-0.326060;,
        -0.662954; 0.643452;-0.382641;,
        -0.469680; 0.747642;-0.469436;,
        -0.662954; 0.643452;-0.382641;,
        -0.401166; 0.597217;-0.694510;,
        -0.469680; 0.747642;-0.469436;,
        -0.243690; 0.382824;-0.891079;,
        -0.245552; 0.404614;-0.880886;,
        -0.462508; 0.378491;-0.801752;,
        -0.245552; 0.404614;-0.880886;,
        -0.460005; 0.404248;-0.790551;,
        -0.462508; 0.378491;-0.801752;,
        -0.462508; 0.378491;-0.801752;,
        -0.460005; 0.404248;-0.790551;,
        -0.656331; 0.375439;-0.654378;,
        -0.460005; 0.404248;-0.790551;,
        -0.645833; 0.403760;-0.647969;,
        -0.656331; 0.375439;-0.654378;,
        -0.656331; 0.375439;-0.654378;,
        -0.645833; 0.403760;-0.647969;,
        -0.799829; 0.380383;-0.464248;,
        -0.645833; 0.403760;-0.647969;,
        -0.790796; 0.406049;-0.457961;,
        -0.799829; 0.380383;-0.464248;,
        -0.799829; 0.380383;-0.464248;,
        -0.790796; 0.406049;-0.457961;,
        -0.896207; 0.374798;-0.237251;,
        -0.790796; 0.406049;-0.457961;,
        -0.883694; 0.403363;-0.237312;,
        -0.896207; 0.374798;-0.237251;,
        -0.896207; 0.374798;-0.237251;,
        -0.883694; 0.403363;-0.237312;,
        -0.924100; 0.382092;-0.003845;,
        -0.883694; 0.403363;-0.237312;,
        -0.913114; 0.407666;-0.001465;,
        -0.924100; 0.382092;-0.003845;,
        -0.924100; 0.382092;-0.003845;,
        -0.913114; 0.407666;-0.001465;,
        -0.894131; 0.375652; 0.243690;,
        -0.913114; 0.407666;-0.001465;,
        -0.883175; 0.403088; 0.239723;,
        -0.894131; 0.375652; 0.243690;,
        -0.894131; 0.375652; 0.243690;,
        -0.883175; 0.403088; 0.239723;,
        -0.802728; 0.380230; 0.459334;,
        -0.883175; 0.403088; 0.239723;,
        -0.791711; 0.406049; 0.456374;,
        -0.802728; 0.380230; 0.459334;,
        -0.802728; 0.380230; 0.459334;,
        -0.791711; 0.406049; 0.456374;,
        -0.652974; 0.376629; 0.657063;,
        -0.791711; 0.406049; 0.456374;,
        -0.644978; 0.403027; 0.649251;,
        -0.652974; 0.376629; 0.657063;,
        -0.652974; 0.376629; 0.657063;,
        -0.644978; 0.403027; 0.649251;,
        -0.463881; 0.376904; 0.801691;,
        -0.644978; 0.403027; 0.649251;,
        -0.460372; 0.405194; 0.789819;,
        -0.463881; 0.376904; 0.801691;,
        -0.463881; 0.376904; 0.801691;,
        -0.460372; 0.405194; 0.789819;,
        -0.240089; 0.378521; 0.893887;,
        -0.460372; 0.405194; 0.789819;,
        -0.243629; 0.407025; 0.880306;,
        -0.240089; 0.378521; 0.893887;,
        -0.240089; 0.378521; 0.893887;,
        -0.243629; 0.407025; 0.880306;,
        -0.004456; 0.390484; 0.920560;,
        -0.243629; 0.407025; 0.880306;,
        -0.001526; 0.411389; 0.911435;,
        -0.004456; 0.390484; 0.920560;,
        -0.004456; 0.390484; 0.920560;,
        -0.001526; 0.411389; 0.911435;,
         0.243690; 0.382824; 0.891079;,
        -0.001526; 0.411389; 0.911435;,
         0.245552; 0.404614; 0.880886;,
         0.243690; 0.382824; 0.891079;,
         0.243690; 0.382824; 0.891079;,
         0.245552; 0.404614; 0.880886;,
         0.462508; 0.378491; 0.801752;,
         0.245552; 0.404614; 0.880886;,
         0.460005; 0.404248; 0.790551;,
         0.462508; 0.378491; 0.801752;,
         0.462508; 0.378491; 0.801752;,
         0.460005; 0.404248; 0.790551;,
         0.656331; 0.375439; 0.654378;,
         0.460005; 0.404248; 0.790551;,
         0.645833; 0.403760; 0.647969;,
         0.656331; 0.375439; 0.654378;,
         0.656331; 0.375439; 0.654378;,
         0.645833; 0.403760; 0.647969;,
         0.799829; 0.380383; 0.464248;,
         0.645833; 0.403760; 0.647969;,
         0.790796; 0.406049; 0.457961;,
         0.799829; 0.380383; 0.464248;,
         0.799829; 0.380383; 0.464248;,
         0.790796; 0.406049; 0.457961;,
         0.896207; 0.374798; 0.237251;,
         0.790796; 0.406049; 0.457961;,
         0.883694; 0.403363; 0.237312;,
         0.896207; 0.374798; 0.237251;,
         0.896207; 0.374798; 0.237251;,
         0.883694; 0.403363; 0.237312;,
         0.924100; 0.382092; 0.003845;,
         0.883694; 0.403363; 0.237312;,
         0.913114; 0.407666; 0.001465;,
         0.924100; 0.382092; 0.003845;,
         0.924100; 0.382092; 0.003845;,
         0.913114; 0.407666; 0.001465;,
         0.894131; 0.375652;-0.243690;,
         0.913114; 0.407666; 0.001465;,
         0.883175; 0.403088;-0.239723;,
         0.894131; 0.375652;-0.243690;,
         0.894131; 0.375652;-0.243690;,
         0.883175; 0.403088;-0.239723;,
         0.802728; 0.380230;-0.459334;,
         0.883175; 0.403088;-0.239723;,
         0.791711; 0.406049;-0.456374;,
         0.802728; 0.380230;-0.459334;,
         0.802728; 0.380230;-0.459334;,
         0.791711; 0.406049;-0.456374;,
         0.652974; 0.376629;-0.657063;,
         0.791711; 0.406049;-0.456374;,
         0.644978; 0.403027;-0.649251;,
         0.652974; 0.376629;-0.657063;,
         0.652974; 0.376629;-0.657063;,
         0.644978; 0.403027;-0.649251;,
         0.463881; 0.376904;-0.801691;,
         0.644978; 0.403027;-0.649251;,
         0.460372; 0.405194;-0.789819;,
         0.463881; 0.376904;-0.801691;,
         0.463881; 0.376904;-0.801691;,
         0.460372; 0.405194;-0.789819;,
         0.240089; 0.378521;-0.893887;,
         0.460372; 0.405194;-0.789819;,
         0.243629; 0.407025;-0.880306;,
         0.240089; 0.378521;-0.893887;,
         0.240089; 0.378521;-0.893887;,
         0.243629; 0.407025;-0.880306;,
         0.004456; 0.390484;-0.920560;,
         0.243629; 0.407025;-0.880306;,
         0.001526; 0.411389;-0.911435;,
         0.004456; 0.390484;-0.920560;,
         0.004456; 0.390484;-0.920560;,
         0.001526; 0.411389;-0.911435;,
        -0.243690; 0.382824;-0.891079;,
         0.001526; 0.411389;-0.911435;,
        -0.245552; 0.404614;-0.880886;,
        -0.243690; 0.382824;-0.891079;,
        -0.401166; 0.597217; 0.694510;,
        -0.172124; 0.747154; 0.641926;,
        -0.000000; 0.641530; 0.767052;,
        -0.172124; 0.747154; 0.641926;,
        -0.000000; 0.758476; 0.651662;,
        -0.000000; 0.641530; 0.767052;,
        -0.000000; 0.641530; 0.767052;,
        -0.000000; 0.758476; 0.651662;,
         0.401166; 0.597217; 0.694510;,
        -0.000000; 0.758476; 0.651662;,
         0.172124; 0.747154; 0.641926;,
         0.401166; 0.597217; 0.694510;,
        -0.243629; 0.407025; 0.880306;,
        -0.236152; 0.451186; 0.860591;,
        -0.001526; 0.411389; 0.911435;,
        -0.236152; 0.451186; 0.860591;,
         0.000153; 0.475204; 0.879849;,
        -0.001526; 0.411389; 0.911435;,
        -0.001526; 0.411389; 0.911435;,
         0.000153; 0.475204; 0.879849;,
         0.245552; 0.404614; 0.880886;,
         0.000153; 0.475204; 0.879849;,
         0.236091; 0.451552; 0.860408;,
         0.245552; 0.404614; 0.880886;,
         0.245552; 0.404614; 0.880886;,
         0.236091; 0.451552; 0.860408;,
         0.460005; 0.404248; 0.790551;,
         0.236091; 0.451552; 0.860408;,
         0.440870; 0.480117; 0.758324;,
         0.460005; 0.404248; 0.790551;,
         0.460005; 0.404248; 0.790551;,
         0.440870; 0.480117; 0.758324;,
         0.645833; 0.403760; 0.647969;,
         0.440870; 0.480117; 0.758324;,
         0.629933; 0.451704; 0.631764;,
         0.645833; 0.403760; 0.647969;,
         0.645833; 0.403760; 0.647969;,
         0.629933; 0.451704; 0.631764;,
         0.790796; 0.406049; 0.457961;,
         0.629933; 0.451704; 0.631764;,
         0.760552; 0.478256; 0.439070;,
         0.790796; 0.406049; 0.457961;,
         0.790796; 0.406049; 0.457961;,
         0.760552; 0.478256; 0.439070;,
         0.883694; 0.403363; 0.237312;,
         0.760552; 0.478256; 0.439070;,
         0.860469; 0.453047; 0.233009;,
         0.883694; 0.403363; 0.237312;,
         0.883694; 0.403363; 0.237312;,
         0.860469; 0.453047; 0.233009;,
         0.913114; 0.407666; 0.001465;,
         0.860469; 0.453047; 0.233009;,
         0.877804; 0.478957;-0.000031;,
         0.913114; 0.407666; 0.001465;,
         0.913114; 0.407666; 0.001465;,
         0.877804; 0.478957;-0.000031;,
         0.883175; 0.403088;-0.239723;,
         0.877804; 0.478957;-0.000031;,
         0.860591; 0.452925;-0.232795;,
         0.883175; 0.403088;-0.239723;,
         0.883175; 0.403088;-0.239723;,
         0.860591; 0.452925;-0.232795;,
         0.791711; 0.406049;-0.456374;,
         0.860591; 0.452925;-0.232795;,
         0.760399; 0.478256;-0.439375;,
         0.791711; 0.406049;-0.456374;,
         0.791711; 0.406049;-0.456374;,
         0.760399; 0.478256;-0.439375;,
         0.644978; 0.403027;-0.649251;,
         0.760399; 0.478256;-0.439375;,
         0.629994; 0.451857;-0.631550;,
         0.644978; 0.403027;-0.649251;,
         0.644978; 0.403027;-0.649251;,
         0.629994; 0.451857;-0.631550;,
         0.460372; 0.405194;-0.789819;,
         0.629994; 0.451857;-0.631550;,
         0.441054; 0.479934;-0.758354;,
         0.460372; 0.405194;-0.789819;,
         0.460372; 0.405194;-0.789819;,
         0.441054; 0.479934;-0.758354;,
         0.243629; 0.407025;-0.880306;,
         0.441054; 0.479934;-0.758354;,
         0.236152; 0.451186;-0.860591;,
         0.243629; 0.407025;-0.880306;,
         0.243629; 0.407025;-0.880306;,
         0.236152; 0.451186;-0.860591;,
         0.001526; 0.411389;-0.911435;,
         0.236152; 0.451186;-0.860591;,
        -0.000153; 0.475204;-0.879849;,
         0.001526; 0.411389;-0.911435;,
         0.001526; 0.411389;-0.911435;,
        -0.000153; 0.475204;-0.879849;,
        -0.245552; 0.404614;-0.880886;,
        -0.000153; 0.475204;-0.879849;,
        -0.236091; 0.451552;-0.860408;,
        -0.245552; 0.404614;-0.880886;,
        -0.245552; 0.404614;-0.880886;,
        -0.236091; 0.451552;-0.860408;,
        -0.460005; 0.404248;-0.790551;,
        -0.236091; 0.451552;-0.860408;,
        -0.440870; 0.480117;-0.758324;,
        -0.460005; 0.404248;-0.790551;,
        -0.460005; 0.404248;-0.790551;,
        -0.440870; 0.480117;-0.758324;,
        -0.645833; 0.403760;-0.647969;,
        -0.440870; 0.480117;-0.758324;,
        -0.629933; 0.451704;-0.631764;,
        -0.645833; 0.403760;-0.647969;,
        -0.645833; 0.403760;-0.647969;,
        -0.629933; 0.451704;-0.631764;,
        -0.790796; 0.406049;-0.457961;,
        -0.629933; 0.451704;-0.631764;,
        -0.760552; 0.478256;-0.439070;,
        -0.790796; 0.406049;-0.457961;,
        -0.790796; 0.406049;-0.457961;,
        -0.760552; 0.478256;-0.439070;,
        -0.883694; 0.403363;-0.237312;,
        -0.760552; 0.478256;-0.439070;,
        -0.860469; 0.453047;-0.233009;,
        -0.883694; 0.403363;-0.237312;,
        -0.883694; 0.403363;-0.237312;,
        -0.860469; 0.453047;-0.233009;,
        -0.913114; 0.407666;-0.001465;,
        -0.860469; 0.453047;-0.233009;,
        -0.877804; 0.478957; 0.000031;,
        -0.913114; 0.407666;-0.001465;,
        -0.913114; 0.407666;-0.001465;,
        -0.877804; 0.478957; 0.000031;,
        -0.883175; 0.403088; 0.239723;,
        -0.877804; 0.478957; 0.000031;,
        -0.860591; 0.452925; 0.232795;,
        -0.883175; 0.403088; 0.239723;,
        -0.883175; 0.403088; 0.239723;,
        -0.860591; 0.452925; 0.232795;,
        -0.791711; 0.406049; 0.456374;,
        -0.860591; 0.452925; 0.232795;,
        -0.760399; 0.478256; 0.439375;,
        -0.791711; 0.406049; 0.456374;,
        -0.791711; 0.406049; 0.456374;,
        -0.760399; 0.478256; 0.439375;,
        -0.644978; 0.403027; 0.649251;,
        -0.760399; 0.478256; 0.439375;,
        -0.629994; 0.451857; 0.631550;,
        -0.644978; 0.403027; 0.649251;,
        -0.644978; 0.403027; 0.649251;,
        -0.629994; 0.451857; 0.631550;,
        -0.460372; 0.405194; 0.789819;,
        -0.629994; 0.451857; 0.631550;,
        -0.441054; 0.479934; 0.758354;,
        -0.460372; 0.405194; 0.789819;,
        -0.460372; 0.405194; 0.789819;,
        -0.441054; 0.479934; 0.758354;,
        -0.243629; 0.407025; 0.880306;,
        -0.441054; 0.479934; 0.758354;,
        -0.236152; 0.451186; 0.860591;,
        -0.243629; 0.407025; 0.880306;,
         0.401166; 0.597217; 0.694510;,
         0.469680; 0.747642; 0.469436;,
         0.662954; 0.643452; 0.382641;,
         0.469680; 0.747642; 0.469436;,
         0.563982; 0.758660; 0.326060;,
         0.662954; 0.643452; 0.382641;,
         0.662954; 0.643452; 0.382641;,
         0.563982; 0.758660; 0.326060;,
         0.801813; 0.597522;-0.000000;,
         0.563982; 0.758660; 0.326060;,
         0.641621; 0.747215; 0.173070;,
         0.801813; 0.597522;-0.000000;,
         0.801813; 0.597522;-0.000000;,
         0.641621; 0.747215;-0.173070;,
         0.662954; 0.643452;-0.382641;,
         0.641621; 0.747215;-0.173070;,
         0.563982; 0.758660;-0.326060;,
         0.662954; 0.643452;-0.382641;,
         0.662954; 0.643452;-0.382641;,
         0.563982; 0.758660;-0.326060;,
         0.401166; 0.597217;-0.694510;,
         0.563982; 0.758660;-0.326060;,
         0.469680; 0.747642;-0.469436;,
         0.401166; 0.597217;-0.694510;,
        -0.172124; 0.747154;-0.641926;,
        -0.000000; 0.758476;-0.651662;,
        -0.000000; 0.758476;-0.651662;,
        -0.000000; 0.758476;-0.651662;,
        -0.000000; 0.758476;-0.651662;,
         0.172124; 0.747154;-0.641926;,
        -0.469680; 0.747642; 0.469436;,
        -0.563982; 0.758660; 0.326060;,
        -0.563646; 0.758660; 0.326670;,
        -0.563982; 0.758660; 0.326060;,
        -0.641621; 0.747215; 0.173070;,
        -0.563646; 0.758660; 0.326670;,
        -0.641621; 0.747215;-0.173070;,
        -0.563982; 0.758660;-0.326060;,
        -0.563646; 0.758660;-0.326670;,
        -0.563982; 0.758660;-0.326060;,
        -0.469680; 0.747642;-0.469436;,
        -0.563646; 0.758660;-0.326670;,
        -0.172124; 0.747154; 0.641926;,
        -0.000000; 0.758476; 0.651662;,
        -0.000000; 0.758476; 0.651662;,
        -0.000000; 0.758476; 0.651662;,
         0.172124; 0.747154; 0.641926;,
        -0.000000; 0.758476; 0.651662;,
         0.469680; 0.747642; 0.469436;,
         0.563646; 0.758660; 0.326670;,
         0.563982; 0.758660; 0.326060;,
         0.563646; 0.758660; 0.326670;,
         0.641621; 0.747215; 0.173070;,
         0.563982; 0.758660; 0.326060;,
         0.641621; 0.747215;-0.173070;,
         0.563646; 0.758660;-0.326670;,
         0.563982; 0.758660;-0.326060;,
         0.563646; 0.758660;-0.326670;,
         0.469680; 0.747642;-0.469436;,
         0.563982; 0.758660;-0.326060;,
        -0.401166; 0.597217;-0.694510;,
        -0.236091; 0.451552;-0.860408;,
        -0.000000; 0.641530;-0.767052;,
        -0.236091; 0.451552;-0.860408;,
        -0.000153; 0.475204;-0.879849;,
        -0.000000; 0.641530;-0.767052;,
        -0.000000; 0.641530;-0.767052;,
        -0.000153; 0.475204;-0.879849;,
         0.236152; 0.451186;-0.860591;,
         0.236152; 0.451186;-0.860591;,
         0.401166; 0.597217;-0.694510;,
        -0.000000; 0.641530;-0.767052;,
         0.401166; 0.597217;-0.694510;,
         0.236152; 0.451186;-0.860591;,
         0.441054; 0.479934;-0.758354;,
         0.441054; 0.479934;-0.758354;,
         0.629994; 0.451857;-0.631550;,
         0.401166; 0.597217;-0.694510;,
         0.401166; 0.597217;-0.694510;,
         0.629994; 0.451857;-0.631550;,
         0.662954; 0.643452;-0.382641;,
         0.629994; 0.451857;-0.631550;,
         0.760399; 0.478256;-0.439375;,
         0.662954; 0.643452;-0.382641;,
         0.662954; 0.643452;-0.382641;,
         0.760399; 0.478256;-0.439375;,
         0.860591; 0.452925;-0.232795;,
         0.860591; 0.452925;-0.232795;,
         0.801813; 0.597522;-0.000000;,
         0.662954; 0.643452;-0.382641;,
         0.801813; 0.597522;-0.000000;,
         0.860591; 0.452925;-0.232795;,
         0.877804; 0.478957;-0.000031;,
         0.877804; 0.478957;-0.000031;,
         0.860469; 0.453047; 0.233009;,
         0.801813; 0.597522;-0.000000;,
         0.801813; 0.597522;-0.000000;,
         0.860469; 0.453047; 0.233009;,
         0.662954; 0.643452; 0.382641;,
         0.860469; 0.453047; 0.233009;,
         0.760552; 0.478256; 0.439070;,
         0.662954; 0.643452; 0.382641;,
         0.662954; 0.643452; 0.382641;,
         0.760552; 0.478256; 0.439070;,
         0.629933; 0.451704; 0.631764;,
         0.629933; 0.451704; 0.631764;,
         0.401166; 0.597217; 0.694510;,
         0.662954; 0.643452; 0.382641;,
         0.401166; 0.597217; 0.694510;,
         0.629933; 0.451704; 0.631764;,
         0.440870; 0.480117; 0.758324;,
         0.440870; 0.480117; 0.758324;,
         0.236091; 0.451552; 0.860408;,
         0.401166; 0.597217; 0.694510;,
         0.401166; 0.597217; 0.694510;,
         0.236091; 0.451552; 0.860408;,
        -0.000000; 0.641530; 0.767052;,
         0.236091; 0.451552; 0.860408;,
         0.000153; 0.475204; 0.879849;,
        -0.000000; 0.641530; 0.767052;,
        -0.000000; 0.641530; 0.767052;,
         0.000153; 0.475204; 0.879849;,
        -0.236152; 0.451186; 0.860591;,
        -0.236152; 0.451186; 0.860591;,
        -0.401166; 0.597217; 0.694510;,
        -0.000000; 0.641530; 0.767052;,
        -0.401166; 0.597217; 0.694510;,
        -0.236152; 0.451186; 0.860591;,
        -0.441054; 0.479934; 0.758354;,
        -0.441054; 0.479934; 0.758354;,
        -0.629994; 0.451857; 0.631550;,
        -0.401166; 0.597217; 0.694510;,
        -0.401166; 0.597217; 0.694510;,
        -0.629994; 0.451857; 0.631550;,
        -0.662954; 0.643452; 0.382641;,
        -0.629994; 0.451857; 0.631550;,
        -0.760399; 0.478256; 0.439375;,
        -0.662954; 0.643452; 0.382641;,
        -0.662954; 0.643452; 0.382641;,
        -0.760399; 0.478256; 0.439375;,
        -0.860591; 0.452925; 0.232795;,
        -0.860591; 0.452925; 0.232795;,
        -0.801813; 0.597522;-0.000000;,
        -0.662954; 0.643452; 0.382641;,
        -0.801813; 0.597522;-0.000000;,
        -0.860591; 0.452925; 0.232795;,
        -0.877804; 0.478957; 0.000031;,
        -0.877804; 0.478957; 0.000031;,
        -0.860469; 0.453047;-0.233009;,
        -0.801813; 0.597522;-0.000000;,
        -0.801813; 0.597522;-0.000000;,
        -0.860469; 0.453047;-0.233009;,
        -0.662954; 0.643452;-0.382641;,
        -0.860469; 0.453047;-0.233009;,
        -0.760552; 0.478256;-0.439070;,
        -0.662954; 0.643452;-0.382641;,
        -0.662954; 0.643452;-0.382641;,
        -0.760552; 0.478256;-0.439070;,
        -0.629933; 0.451704;-0.631764;,
        -0.629933; 0.451704;-0.631764;,
        -0.401166; 0.597217;-0.694510;,
        -0.662954; 0.643452;-0.382641;,
        -0.401166; 0.597217;-0.694510;,
        -0.629933; 0.451704;-0.631764;,
        -0.440870; 0.480117;-0.758324;,
        -0.440870; 0.480117;-0.758324;,
        -0.236091; 0.451552;-0.860408;,
        -0.401166; 0.597217;-0.694510;;
        168;
        3;0;1;2;,
        3;3;4;5;,
        3;6;7;8;,
        3;9;10;11;,
        3;12;13;14;,
        3;15;16;17;,
        3;18;19;20;,
        3;21;22;23;,
        3;24;25;26;,
        3;27;28;29;,
        3;30;31;32;,
        3;33;34;35;,
        3;36;37;38;,
        3;39;40;41;,
        3;42;43;44;,
        3;45;46;47;,
        3;48;49;50;,
        3;51;52;53;,
        3;54;55;56;,
        3;57;58;59;,
        3;60;61;62;,
        3;63;64;65;,
        3;66;67;68;,
        3;69;70;71;,
        3;72;73;74;,
        3;75;76;77;,
        3;78;79;80;,
        3;81;82;83;,
        3;84;85;86;,
        3;87;88;89;,
        3;90;91;92;,
        3;93;94;95;,
        3;96;97;98;,
        3;99;100;101;,
        3;102;103;104;,
        3;105;106;107;,
        3;108;109;110;,
        3;111;112;113;,
        3;114;115;116;,
        3;117;118;119;,
        3;120;121;122;,
        3;123;124;125;,
        3;126;127;128;,
        3;129;130;131;,
        3;132;133;134;,
        3;135;136;137;,
        3;138;139;140;,
        3;141;142;143;,
        3;144;145;146;,
        3;147;148;149;,
        3;150;151;152;,
        3;153;154;155;,
        3;156;157;158;,
        3;159;160;161;,
        3;162;163;164;,
        3;165;166;167;,
        3;168;169;170;,
        3;171;172;173;,
        3;174;175;176;,
        3;177;178;179;,
        3;180;181;182;,
        3;183;184;185;,
        3;186;187;188;,
        3;189;190;191;,
        3;192;193;194;,
        3;195;196;197;,
        3;198;199;200;,
        3;201;202;203;,
        3;204;205;206;,
        3;207;208;209;,
        3;210;211;212;,
        3;213;214;215;,
        3;216;217;218;,
        3;219;220;221;,
        3;222;223;224;,
        3;225;226;227;,
        3;228;229;230;,
        3;231;232;233;,
        3;234;235;236;,
        3;237;238;239;,
        3;240;241;242;,
        3;243;244;245;,
        3;246;247;248;,
        3;249;250;251;,
        3;252;253;254;,
        3;255;256;257;,
        3;258;259;260;,
        3;261;262;263;,
        3;264;265;266;,
        3;267;268;269;,
        3;270;271;272;,
        3;273;274;275;,
        3;276;277;278;,
        3;279;280;281;,
        3;282;283;284;,
        3;285;286;287;,
        3;288;289;290;,
        3;291;292;293;,
        3;294;295;296;,
        3;297;298;299;,
        3;300;301;302;,
        3;303;304;305;,
        3;306;307;308;,
        3;309;310;311;,
        3;312;313;314;,
        3;315;316;317;,
        3;318;319;320;,
        3;321;322;323;,
        3;324;325;326;,
        3;327;328;329;,
        3;330;331;332;,
        3;333;334;335;,
        3;336;337;338;,
        3;339;340;341;,
        3;342;343;344;,
        3;345;346;347;,
        3;348;349;350;,
        3;351;352;353;,
        3;354;355;356;,
        3;357;358;359;,
        3;360;361;362;,
        3;363;364;365;,
        3;366;367;368;,
        3;369;370;371;,
        3;372;373;374;,
        3;375;376;377;,
        3;378;379;380;,
        3;381;382;383;,
        3;384;385;386;,
        3;387;388;389;,
        3;390;391;392;,
        3;393;394;395;,
        3;396;397;398;,
        3;399;400;401;,
        3;402;403;404;,
        3;405;406;407;,
        3;408;409;410;,
        3;411;412;413;,
        3;414;415;416;,
        3;417;418;419;,
        3;420;421;422;,
        3;423;424;425;,
        3;426;427;428;,
        3;429;430;431;,
        3;432;433;434;,
        3;435;436;437;,
        3;438;439;440;,
        3;441;442;443;,
        3;444;445;446;,
        3;447;448;449;,
        3;450;451;452;,
        3;453;454;455;,
        3;456;457;458;,
        3;459;460;461;,
        3;462;463;464;,
        3;465;466;467;,
        3;468;469;470;,
        3;471;472;473;,
        3;474;475;476;,
        3;477;478;479;,
        3;480;481;482;,
        3;483;484;485;,
        3;486;487;488;,
        3;489;490;491;,
        3;492;493;494;,
        3;495;496;497;,
        3;498;499;500;,
        3;501;502;503;;
      } //End of Mesh Normals
      MeshMaterialList { //Mesh Material List
        1;
        168;
        0,
        0,
        0,
        0,
        0,
        0,
        0,
        0,
        0,
        0,
        0,
        0,
        0,
        0,
        0,
        0,
        0,
        0,
        0,
        0,
        0,
        0,
        0,
        0,
        0,
        0,
        0,
        0,
        0,
        0,
        0,
        0,
        0,
        0,
        0,
        0,
        0,
        0,
        0,
        0,
        0,
        0,
        0,
        0,
        0,
        0,
        0,
        0,
        0,
        0,
        0,
        0,
        0,
        0,
        0,
        0,
        0,
        0,
        0,
        0,
        0,
        0,
        0,
        0,
        0,
        0,
        0,
        0,
        0,
        0,
        0,
        0,
        0,
        0,
        0,
        0,
        0,
        0,
        0,
        0,
        0,
        0,
        0,
        0,
        0,
        0,
        0,
        0,
        0,
        0,
        0,
        0,
        0,
        0,
        0,
        0,
        0,
        0,
        0,
        0,
        0,
        0,
        0,
        0,
        0,
        0,
        0,
        0,
        0,
        0,
        0,
        0,
        0,
        0,
        0,
        0,
        0,
        0,
        0,
        0,
        0,
        0,
        0,
        0,
        0,
        0,
        0,
        0,
        0,
        0,
        0,
        0,
        0,
        0,
        0,
        0,
        0,
        0,
        0,
        0,
        0,
        0,
        0,
        0,
        0,
        0,
        0,
        0,
        0,
        0,
        0,
        0,
        0,
        0,
        0,
        0,
        0,
        0,
        0,
        0,
        0,
        0,
        0,
        0,
        0,
        0,
        0,
        0;;
        Material mat_0 {
           0.640000; 0.640000; 0.640000; 1.000000;;
           92.156863;
           0.250000; 0.250000; 0.250000;;
           0.000000; 0.000000; 0.000000;;
          TextureFilename {"Textures/fuwaride_c_1_0.tga";}
        }
      } //End of Mesh Material List
      MeshTextureCoords { //Mesh UV Coordinates
        504;
         0.886541; 0.979382;,
         0.897623; 0.968300;,
         0.875454; 0.979382;,
         0.897623; 0.968300;,
         0.875454; 0.968300;,
         0.875454; 0.979382;,
         0.886541; 0.979382;,
         0.875454; 0.979382;,
         0.875454; 0.968300;,
         0.875454; 0.968300;,
         0.897623; 0.968300;,
         0.886541; 0.979382;,
         0.911073; 0.979382;,
         0.897623; 0.968300;,
         0.918949; 0.979382;,
         0.897623; 0.968300;,
         0.913374; 0.968300;,
         0.918949; 0.979382;,
         0.918949; 0.979382;,
         0.913374; 0.968300;,
         0.922159; 0.979382;,
         0.913374; 0.968300;,
         0.919792; 0.968300;,
         0.922159; 0.979382;,
         0.922159; 0.979382;,
         0.919792; 0.968300;,
         0.918949; 0.979382;,
         0.919792; 0.968300;,
         0.913374; 0.968300;,
         0.918949; 0.979382;,
         0.918949; 0.979382;,
         0.913374; 0.968300;,
         0.911073; 0.979382;,
         0.913374; 0.968300;,
         0.897623; 0.968300;,
         0.911073; 0.979382;,
         0.882850; 0.939395;,
         0.884312; 0.949641;,
         0.890245; 0.939395;,
         0.884312; 0.949641;,
         0.893170; 0.949641;,
         0.890245; 0.939395;,
         0.890245; 0.939395;,
         0.893170; 0.949641;,
         0.895659; 0.939395;,
         0.893170; 0.949641;,
         0.898904; 0.949641;,
         0.895659; 0.939395;,
         0.895659; 0.939395;,
         0.898904; 0.949641;,
         0.901072; 0.939395;,
         0.898904; 0.949641;,
         0.904637; 0.949641;,
         0.901072; 0.939395;,
         0.901072; 0.939395;,
         0.904637; 0.949641;,
         0.903054; 0.939395;,
         0.904637; 0.949641;,
         0.907762; 0.949641;,
         0.903054; 0.939395;,
         0.903054; 0.939395;,
         0.907762; 0.949641;,
         0.905036; 0.939395;,
         0.907762; 0.949641;,
         0.910886; 0.949641;,
         0.905036; 0.939395;,
         0.905036; 0.939395;,
         0.910886; 0.949641;,
         0.903054; 0.939395;,
         0.910886; 0.949641;,
         0.907505; 0.949641;,
         0.903054; 0.939395;,
         0.903054; 0.939395;,
         0.907505; 0.949641;,
         0.901072; 0.939395;,
         0.907505; 0.949641;,
         0.904124; 0.949641;,
         0.901072; 0.939395;,
         0.901072; 0.939395;,
         0.904124; 0.949641;,
         0.895659; 0.939395;,
         0.904124; 0.949641;,
         0.898647; 0.949641;,
         0.895659; 0.939395;,
         0.895659; 0.939395;,
         0.898647; 0.949641;,
         0.890245; 0.939395;,
         0.898647; 0.949641;,
         0.893170; 0.949641;,
         0.890245; 0.939395;,
         0.890245; 0.939395;,
         0.893170; 0.949641;,
         0.882850; 0.939395;,
         0.893170; 0.949641;,
         0.884312; 0.949641;,
         0.882850; 0.939395;,
         0.882850; 0.939395;,
         0.884312; 0.949641;,
         0.875454; 0.939395;,
         0.884312; 0.949641;,
         0.875454; 0.949641;,
         0.875454; 0.939395;,
         0.875454; 0.939395;,
         0.875454; 0.949641;,
         0.882850; 0.939395;,
         0.875454; 0.949641;,
         0.884312; 0.949641;,
         0.882850; 0.939395;,
         0.882850; 0.939395;,
         0.884312; 0.949641;,
         0.890245; 0.939395;,
         0.884312; 0.949641;,
         0.893170; 0.949641;,
         0.890245; 0.939395;,
         0.890245; 0.939395;,
         0.893170; 0.949641;,
         0.895659; 0.939395;,
         0.893170; 0.949641;,
         0.898647; 0.949641;,
         0.895659; 0.939395;,
         0.895659; 0.939395;,
         0.898647; 0.949641;,
         0.901072; 0.939395;,
         0.898647; 0.949641;,
         0.904124; 0.949641;,
         0.901072; 0.939395;,
         0.901072; 0.939395;,
         0.904124; 0.949641;,
         0.903054; 0.939395;,
         0.904124; 0.949641;,
         0.907505; 0.949641;,
         0.903054; 0.939395;,
         0.903054; 0.939395;,
         0.907505; 0.949641;,
         0.905036; 0.939395;,
         0.907505; 0.949641;,
         0.910886; 0.949641;,
         0.905036; 0.939395;,
         0.905036; 0.939395;,
         0.910886; 0.949641;,
         0.903054; 0.939395;,
         0.910886; 0.949641;,
         0.907762; 0.949641;,
         0.903054; 0.939395;,
         0.903054; 0.939395;,
         0.907762; 0.949641;,
         0.901072; 0.939395;,
         0.907762; 0.949641;,
         0.904637; 0.949641;,
         0.901072; 0.939395;,
         0.901072; 0.939395;,
         0.904637; 0.949641;,
         0.895659; 0.939395;,
         0.904637; 0.949641;,
         0.898904; 0.949641;,
         0.895659; 0.939395;,
         0.895659; 0.939395;,
         0.898904; 0.949641;,
         0.890245; 0.939395;,
         0.898904; 0.949641;,
         0.893170; 0.949641;,
         0.890245; 0.939395;,
         0.890245; 0.939395;,
         0.893170; 0.949641;,
         0.882850; 0.939395;,
         0.893170; 0.949641;,
         0.884312; 0.949641;,
         0.882850; 0.939395;,
         0.882850; 0.939395;,
         0.884312; 0.949641;,
         0.875454; 0.939395;,
         0.884312; 0.949641;,
         0.875454; 0.949641;,
         0.875454; 0.939395;,
         0.875454; 0.939395;,
         0.875454; 0.949641;,
         0.882850; 0.939395;,
         0.875454; 0.949641;,
         0.884312; 0.949641;,
         0.882850; 0.939395;,
         0.897623; 0.968300;,
         0.886541; 0.979382;,
         0.875454; 0.968300;,
         0.886541; 0.979382;,
         0.875454; 0.979382;,
         0.875454; 0.968300;,
         0.875454; 0.968300;,
         0.875454; 0.979382;,
         0.897623; 0.968300;,
         0.875454; 0.979382;,
         0.886541; 0.979382;,
         0.897623; 0.968300;,
         0.884312; 0.949641;,
         0.885513; 0.959705;,
         0.875454; 0.949641;,
         0.885513; 0.959705;,
         0.875454; 0.959705;,
         0.875454; 0.949641;,
         0.875454; 0.949641;,
         0.875454; 0.959705;,
         0.884312; 0.949641;,
         0.875454; 0.959705;,
         0.885513; 0.959705;,
         0.884312; 0.949641;,
         0.884312; 0.949641;,
         0.885513; 0.959705;,
         0.893170; 0.949641;,
         0.885513; 0.959705;,
         0.895572; 0.959705;,
         0.893170; 0.949641;,
         0.893170; 0.949641;,
         0.895572; 0.959705;,
         0.898647; 0.949641;,
         0.895572; 0.959705;,
         0.902342; 0.959705;,
         0.898647; 0.949641;,
         0.898647; 0.949641;,
         0.902342; 0.959705;,
         0.904124; 0.949641;,
         0.902342; 0.959705;,
         0.909113; 0.959705;,
         0.904124; 0.949641;,
         0.904124; 0.949641;,
         0.909113; 0.959705;,
         0.907505; 0.949641;,
         0.909113; 0.959705;,
         0.912401; 0.959705;,
         0.907505; 0.949641;,
         0.907505; 0.949641;,
         0.912401; 0.959705;,
         0.910886; 0.949641;,
         0.912401; 0.959705;,
         0.915690; 0.959705;,
         0.910886; 0.949641;,
         0.910886; 0.949641;,
         0.915690; 0.959705;,
         0.907762; 0.949641;,
         0.915690; 0.959705;,
         0.912520; 0.959705;,
         0.907762; 0.949641;,
         0.907762; 0.949641;,
         0.912520; 0.959705;,
         0.904637; 0.949641;,
         0.912520; 0.959705;,
         0.909349; 0.959705;,
         0.904637; 0.949641;,
         0.904637; 0.949641;,
         0.909349; 0.959705;,
         0.898904; 0.949641;,
         0.909349; 0.959705;,
         0.902461; 0.959705;,
         0.898904; 0.949641;,
         0.898904; 0.949641;,
         0.902461; 0.959705;,
         0.893170; 0.949641;,
         0.902461; 0.959705;,
         0.895572; 0.959705;,
         0.893170; 0.949641;,
         0.893170; 0.949641;,
         0.895572; 0.959705;,
         0.884312; 0.949641;,
         0.895572; 0.959705;,
         0.885513; 0.959705;,
         0.884312; 0.949641;,
         0.884312; 0.949641;,
         0.885513; 0.959705;,
         0.875454; 0.949641;,
         0.885513; 0.959705;,
         0.875454; 0.959705;,
         0.875454; 0.949641;,
         0.875454; 0.949641;,
         0.875454; 0.959705;,
         0.884312; 0.949641;,
         0.875454; 0.959705;,
         0.885513; 0.959705;,
         0.884312; 0.949641;,
         0.884312; 0.949641;,
         0.885513; 0.959705;,
         0.893170; 0.949641;,
         0.885513; 0.959705;,
         0.895572; 0.959705;,
         0.893170; 0.949641;,
         0.893170; 0.949641;,
         0.895572; 0.959705;,
         0.898904; 0.949641;,
         0.895572; 0.959705;,
         0.902461; 0.959705;,
         0.898904; 0.949641;,
         0.898904; 0.949641;,
         0.902461; 0.959705;,
         0.904637; 0.949641;,
         0.902461; 0.959705;,
         0.909349; 0.959705;,
         0.904637; 0.949641;,
         0.904637; 0.949641;,
         0.909349; 0.959705;,
         0.907762; 0.949641;,
         0.909349; 0.959705;,
         0.912520; 0.959705;,
         0.907762; 0.949641;,
         0.907762; 0.949641;,
         0.912520; 0.959705;,
         0.910886; 0.949641;,
         0.912520; 0.959705;,
         0.915690; 0.959705;,
         0.910886; 0.949641;,
         0.910886; 0.949641;,
         0.915690; 0.959705;,
         0.907505; 0.949641;,
         0.915690; 0.959705;,
         0.912401; 0.959705;,
         0.907505; 0.949641;,
         0.907505; 0.949641;,
         0.912401; 0.959705;,
         0.904124; 0.949641;,
         0.912401; 0.959705;,
         0.909113; 0.959705;,
         0.904124; 0.949641;,
         0.904124; 0.949641;,
         0.909113; 0.959705;,
         0.898647; 0.949641;,
         0.909113; 0.959705;,
         0.902342; 0.959705;,
         0.898647; 0.949641;,
         0.898647; 0.949641;,
         0.902342; 0.959705;,
         0.893170; 0.949641;,
         0.902342; 0.959705;,
         0.895572; 0.959705;,
         0.893170; 0.949641;,
         0.893170; 0.949641;,
         0.895572; 0.959705;,
         0.884312; 0.949641;,
         0.895572; 0.959705;,
         0.885513; 0.959705;,
         0.884312; 0.949641;,
         0.897623; 0.968300;,
         0.911073; 0.979382;,
         0.913374; 0.968300;,
         0.911073; 0.979382;,
         0.918949; 0.979382;,
         0.913374; 0.968300;,
         0.913374; 0.968300;,
         0.918949; 0.979382;,
         0.919792; 0.968300;,
         0.918949; 0.979382;,
         0.922159; 0.979382;,
         0.919792; 0.968300;,
         0.919792; 0.968300;,
         0.922159; 0.979382;,
         0.913374; 0.968300;,
         0.922159; 0.979382;,
         0.918949; 0.979382;,
         0.913374; 0.968300;,
         0.913374; 0.968300;,
         0.918949; 0.979382;,
         0.897623; 0.968300;,
         0.918949; 0.979382;,
         0.911073; 0.979382;,
         0.897623; 0.968300;,
         0.886541; 0.979382;,
         0.875454; 0.979382;,
         0.875454; 0.990468;,
         0.875454; 0.990468;,
         0.875454; 0.979382;,
         0.886541; 0.979382;,
         0.911073; 0.979382;,
         0.918949; 0.979382;,
         0.924527; 0.990468;,
         0.918949; 0.979382;,
         0.922159; 0.979382;,
         0.924527; 0.990468;,
         0.922159; 0.979382;,
         0.918949; 0.979382;,
         0.924527; 0.990468;,
         0.918949; 0.979382;,
         0.911073; 0.979382;,
         0.924527; 0.990468;,
         0.886541; 0.979382;,
         0.875454; 0.990468;,
         0.875454; 0.979382;,
         0.875454; 0.990468;,
         0.886541; 0.979382;,
         0.875454; 0.979382;,
         0.911073; 0.979382;,
         0.924527; 0.990468;,
         0.918949; 0.979382;,
         0.924527; 0.990468;,
         0.922159; 0.979382;,
         0.918949; 0.979382;,
         0.922159; 0.979382;,
         0.924527; 0.990468;,
         0.918949; 0.979382;,
         0.924527; 0.990468;,
         0.911073; 0.979382;,
         0.918949; 0.979382;,
         0.897623; 0.968300;,
         0.885513; 0.959705;,
         0.875454; 0.968300;,
         0.885513; 0.959705;,
         0.875454; 0.959705;,
         0.875454; 0.968300;,
         0.875454; 0.968300;,
         0.875454; 0.959705;,
         0.885513; 0.959705;,
         0.885513; 0.959705;,
         0.897623; 0.968300;,
         0.875454; 0.968300;,
         0.897623; 0.968300;,
         0.885513; 0.959705;,
         0.895572; 0.959705;,
         0.895572; 0.959705;,
         0.902461; 0.959705;,
         0.897623; 0.968300;,
         0.897623; 0.968300;,
         0.902461; 0.959705;,
         0.913374; 0.968300;,
         0.902461; 0.959705;,
         0.909349; 0.959705;,
         0.913374; 0.968300;,
         0.913374; 0.968300;,
         0.909349; 0.959705;,
         0.912520; 0.959705;,
         0.912520; 0.959705;,
         0.919792; 0.968300;,
         0.913374; 0.968300;,
         0.919792; 0.968300;,
         0.912520; 0.959705;,
         0.915690; 0.959705;,
         0.915690; 0.959705;,
         0.912401; 0.959705;,
         0.919792; 0.968300;,
         0.919792; 0.968300;,
         0.912401; 0.959705;,
         0.913374; 0.968300;,
         0.912401; 0.959705;,
         0.909113; 0.959705;,
         0.913374; 0.968300;,
         0.913374; 0.968300;,
         0.909113; 0.959705;,
         0.902342; 0.959705;,
         0.902342; 0.959705;,
         0.897623; 0.968300;,
         0.913374; 0.968300;,
         0.897623; 0.968300;,
         0.902342; 0.959705;,
         0.895572; 0.959705;,
         0.895572; 0.959705;,
         0.885513; 0.959705;,
         0.897623; 0.968300;,
         0.897623; 0.968300;,
         0.885513; 0.959705;,
         0.875454; 0.968300;,
         0.885513; 0.959705;,
         0.875454; 0.959705;,
         0.875454; 0.968300;,
         0.875454; 0.968300;,
         0.875454; 0.959705;,
         0.885513; 0.959705;,
         0.885513; 0.959705;,
         0.897623; 0.968300;,
         0.875454; 0.968300;,
         0.897623; 0.968300;,
         0.885513; 0.959705;,
         0.895572; 0.959705;,
         0.895572; 0.959705;,
         0.902342; 0.959705;,
         0.897623; 0.968300;,
         0.897623; 0.968300;,
         0.902342; 0.959705;,
         0.913374; 0.968300;,
         0.902342; 0.959705;,
         0.909113; 0.959705;,
         0.913374; 0.968300;,
         0.913374; 0.968300;,
         0.909113; 0.959705;,
         0.912401; 0.959705;,
         0.912401; 0.959705;,
         0.919792; 0.968300;,
         0.913374; 0.968300;,
         0.919792; 0.968300;,
         0.912401; 0.959705;,
         0.915690; 0.959705;,
         0.915690; 0.959705;,
         0.912520; 0.959705;,
         0.919792; 0.968300;,
         0.919792; 0.968300;,
         0.912520; 0.959705;,
         0.913374; 0.968300;,
         0.912520; 0.959705;,
         0.909349; 0.959705;,
         0.913374; 0.968300;,
         0.913374; 0.968300;,
         0.909349; 0.959705;,
         0.902461; 0.959705;,
         0.902461; 0.959705;,
         0.897623; 0.968300;,
         0.913374; 0.968300;,
         0.897623; 0.968300;,
         0.902461; 0.959705;,
         0.895572; 0.959705;,
         0.895572; 0.959705;,
         0.885513; 0.959705;,
         0.897623; 0.968300;;
      } //End of Mesh UV Coordinates
    } //End of Mesh Mesh
  } //End of fuwaride_c_mat_0
} //End of Root Frame
