# Blender v2.66 (sub 1) OBJ File: 'BR_Staraptor-Shiny01.blend'
# www.blender.org
mtllib BR_Staraptor-Shiny01.mtl
o mukuhawk
v -11.656953 2.558759 -7.706336
v -10.435735 2.413478 -7.591745
v -9.570642 2.289486 -7.447253
v -9.677439 1.811753 -7.754265
v -12.241086 2.200016 -8.186681
v -10.649647 2.021916 -7.954954
v -10.722507 5.534939 -9.224384
v -10.884929 5.323168 -8.928342
v -10.610783 5.550269 -9.506706
v -10.777056 5.069635 -9.571590
v -10.982210 4.550186 -9.458994
v -11.629753 3.338798 -8.907135
v -11.247087 4.032046 -8.277760
v -13.918255 2.015666 -7.457985
v -15.455017 1.890480 -7.285453
v -16.012455 2.138172 -7.339614
v -16.012455 2.138172 -7.339614
v -16.079893 1.933903 -7.115526
v -16.079893 1.933903 -7.115526
v -15.599993 2.357431 -7.592201
v -15.599993 2.357431 -7.592201
v -14.031694 1.562665 -7.117178
v -15.307101 1.423418 -6.996581
v -15.307101 1.423418 -6.996581
v -15.761240 1.690335 -7.049245
v -15.761240 1.690335 -7.049245
v -15.470341 1.813184 -7.408585
v -13.762118 1.373499 -7.089500
v -13.739553 1.695554 -7.437242
v -2.271334 0.693621 -4.856859
v -2.271334 0.693621 -4.856859
v -2.061514 1.232121 -6.031919
v -2.101261 2.120579 -5.117912
v -1.969228 1.966894 -6.115712
v -1.940100 2.622524 -6.032216
v -2.006178 2.491262 -5.607383
v 2.271334 0.693621 -4.856859
v 2.271334 0.693621 -4.856859
v 2.061514 1.232121 -6.031919
v 2.101261 2.120579 -5.117912
v 1.969228 1.966894 -6.115712
v 1.940100 2.622524 -6.032216
v 2.006178 2.491262 -5.607383
v -17.213509 5.252196 -9.079242
v -17.224621 5.578654 -9.393481
v -17.224621 5.578654 -9.393481
v -17.871578 5.535566 -9.037213
v -17.871578 5.535566 -9.037213
v -17.066427 4.107697 -8.517493
v -17.050587 4.435383 -8.819836
v -17.050587 4.435383 -8.819836
v -17.483912 4.320049 -8.579429
v -17.483912 4.320049 -8.579429
v -16.034597 5.378082 -9.447617
v -16.099138 5.473407 -9.666463
v -15.900380 3.998214 -8.653430
v -15.781179 4.443544 -9.009939
v -15.781179 4.443544 -9.009939
v -17.270514 5.094740 -9.250797
v -17.103168 3.991010 -8.664172
v -15.926120 3.870664 -8.762546
v -15.967969 4.916934 -9.479033
v -17.252495 4.686508 -8.846085
v -17.252495 4.686508 -8.846085
v -17.685003 4.973134 -8.914552
v -17.685003 4.973134 -8.914552
v -17.118607 3.634105 -8.322647
v -17.118607 3.634105 -8.322647
v -17.515184 3.924531 -8.291374
v -17.515184 3.924531 -8.291374
v -17.568855 4.175178 -8.457687
v -17.568855 4.175178 -8.457687
v -17.953978 5.362844 -8.950567
v -17.953978 5.362844 -8.950567
v -9.105467 0.217089 -5.314012
v -9.105467 0.217089 -5.314012
v -9.101814 0.012947 -5.105357
v -9.101814 0.012947 -5.105357
v -8.349333 0.265817 -5.473844
v -7.733981 -0.217196 -5.090506
v -7.733981 -0.217196 -5.090506
v -8.355406 0.137069 -5.610895
v -8.639091 -0.172017 -5.022307
v -8.639091 -0.172017 -5.022307
v -6.263653 -0.308632 -4.496864
v -6.263653 -0.308632 -4.496864
v -6.254841 -0.075620 -4.732905
v -6.254841 -0.075620 -4.732905
v -5.988037 -0.372018 -4.487178
v -5.988037 -0.372018 -4.487178
v -5.528804 3.244500 -6.839644
v -5.921817 2.611508 -6.526391
v -7.056787 1.900885 -6.547713
v -5.340928 3.456829 -7.135077
v -5.247308 3.445135 -7.372473
v -5.256436 3.060247 -7.512668
v -5.347888 2.612716 -7.517900
v -5.576599 2.010264 -7.169005
v -7.123128 1.425690 -6.962786
v -2.649832 0.510972 -5.247176
v 11.656953 2.558759 -7.706336
v 10.435735 2.413478 -7.591745
v 9.570642 2.289486 -7.447253
v 9.677439 1.811753 -7.754265
v 12.241086 2.200016 -8.186681
v 10.649647 2.021916 -7.954954
v 10.722507 5.534939 -9.224384
v 10.884929 5.323168 -8.928342
v 10.610783 5.550269 -9.506706
v 10.777056 5.069635 -9.571590
v 10.982210 4.550186 -9.458994
v 11.629753 3.338798 -8.907135
v 11.247087 4.032046 -8.277760
v 13.918255 2.015666 -7.457985
v 15.455017 1.890480 -7.285453
v 16.079893 1.933903 -7.115526
v 16.079893 1.933903 -7.115526
v 16.012455 2.138172 -7.339614
v 16.012455 2.138172 -7.339614
v 15.599993 2.357431 -7.592201
v 15.599993 2.357431 -7.592201
v 15.307101 1.423418 -6.996581
v 15.307101 1.423418 -6.996581
v 14.031694 1.562665 -7.117178
v 15.761240 1.690335 -7.049245
v 15.761240 1.690335 -7.049245
v 15.470341 1.813184 -7.408585
v 13.739553 1.695554 -7.437242
v 13.762118 1.373499 -7.089500
v 17.213509 5.252196 -9.079242
v 17.871578 5.535566 -9.037213
v 17.871578 5.535566 -9.037213
v 17.224621 5.578654 -9.393481
v 17.224621 5.578654 -9.393481
v 17.066427 4.107697 -8.517493
v 17.483912 4.320049 -8.579429
v 17.483912 4.320049 -8.579429
v 17.050587 4.435383 -8.819836
v 17.050587 4.435383 -8.819836
v 16.099138 5.473407 -9.666463
v 16.034597 5.378082 -9.447617
v 15.781179 4.443544 -9.009939
v 15.781179 4.443544 -9.009939
v 15.900380 3.998214 -8.653430
v 17.270514 5.094740 -9.250797
v 17.103168 3.991010 -8.664172
v 15.926120 3.870664 -8.762546
v 15.967969 4.916934 -9.479033
v 17.252495 4.686508 -8.846085
v 17.252495 4.686508 -8.846085
v 17.685003 4.973134 -8.914552
v 17.685003 4.973134 -8.914552
v 17.118607 3.634105 -8.322647
v 17.118607 3.634105 -8.322647
v 17.515184 3.924531 -8.291374
v 17.515184 3.924531 -8.291374
v 17.568855 4.175178 -8.457687
v 17.568855 4.175178 -8.457687
v 17.953978 5.362844 -8.950567
v 17.953978 5.362844 -8.950567
v 9.105467 0.217089 -5.314012
v 9.105467 0.217089 -5.314012
v 8.349333 0.265817 -5.473844
v 9.101814 0.012947 -5.105357
v 9.101814 0.012947 -5.105357
v 7.733981 -0.217196 -5.090506
v 7.733981 -0.217196 -5.090506
v 8.355406 0.137069 -5.610895
v 8.639091 -0.172017 -5.022307
v 8.639091 -0.172017 -5.022307
v 6.263653 -0.308632 -4.496864
v 6.263653 -0.308632 -4.496864
v 6.254841 -0.075620 -4.732905
v 6.254841 -0.075620 -4.732905
v 5.988037 -0.372018 -4.487178
v 5.988037 -0.372018 -4.487178
v 5.921817 2.611508 -6.526391
v 5.528804 3.244500 -6.839644
v 7.056787 1.900885 -6.547713
v 5.340928 3.456829 -7.135077
v 5.247308 3.445135 -7.372473
v 5.256436 3.060247 -7.512668
v 5.347888 2.612716 -7.517900
v 5.576599 2.010264 -7.169005
v 7.123128 1.425690 -6.962786
v 2.649832 0.510972 -5.247176
v -6.002218 3.920098 -7.901959
v -6.533982 4.443746 -8.272223
v -6.623100 4.410793 -7.958288
v -6.067752 3.906482 -7.621176
v -7.270450 4.958671 -8.688854
v -8.039638 5.127599 -8.904549
v -8.154054 5.053483 -8.580896
v -7.385687 4.866601 -8.352580
v -7.142006 3.239695 -7.236242
v -6.613505 2.967608 -6.928784
v -6.239771 3.644533 -7.299465
v -6.801425 4.094386 -7.583747
v -7.574118 4.552682 -7.986680
v -8.348705 4.732058 -8.231340
v -8.962082 3.658717 -7.857049
v -8.138587 3.468886 -7.673179
v -8.216907 1.126686 -6.294127
v -8.787019 2.177172 -7.235582
v -7.551490 2.036191 -6.821002
v -8.755592 0.468086 -5.851736
v -8.755592 0.468086 -5.851736
v -5.987316 3.576063 -8.070587
v -6.545763 4.130926 -8.462577
v -7.320644 4.577763 -8.879991
v -8.116989 4.723359 -9.066147
v -7.446708 4.132076 -8.921360
v -8.107591 2.800881 -8.321230
v -8.964091 2.976529 -8.489864
v -8.273864 4.229011 -9.099406
v -8.796785 1.621381 -7.572476
v -7.169510 2.676937 -7.952662
v -6.640040 3.752926 -8.527436
v -8.401369 0.905816 -6.330585
v -6.080370 3.167947 -8.109621
v -6.479571 2.388181 -7.613237
v -7.862302 1.571966 -7.271508
v -9.203822 4.998543 -8.505534
v -9.028194 5.262181 -8.837048
v -8.914686 5.316477 -9.146765
v -9.022018 4.886480 -9.275755
v -9.187014 4.404485 -9.278458
v -9.909636 3.170438 -8.676031
v -9.871190 3.868283 -8.060036
v -12.515356 5.657652 -9.656625
v -13.615259 5.661819 -9.689447
v -13.502117 5.597205 -9.386410
v -12.484535 5.611080 -9.361171
v -12.435923 5.367722 -9.064725
v -13.405469 5.335605 -9.089729
v -13.325053 4.163431 -8.467863
v -12.432339 4.124753 -8.401044
v -12.582626 2.663973 -7.743880
v -13.942930 2.809215 -7.936713
v -13.368210 2.747851 -7.855243
v -13.978148 4.191727 -8.516747
v -14.114773 5.312109 -9.108023
v -14.246562 5.587054 -9.404874
v -14.412327 5.598039 -9.653000
v -12.606912 5.055850 -9.610511
v -13.547102 4.994111 -9.579716
v -12.767735 4.351452 -9.310763
v -13.240259 3.346223 -8.841743
v -13.593439 3.344745 -8.821576
v -13.492050 4.270834 -9.250632
v -13.663092 2.558566 -8.249449
v -14.021945 4.211855 -9.206641
v -13.851819 3.343664 -8.806823
v -14.234929 4.948943 -9.557187
v -12.753347 1.701802 -7.255651
v -12.135474 1.595361 -7.135161
v -12.605577 1.399146 -7.453295
v -9.668755 1.281296 -6.820122
v -10.860358 1.426614 -6.969725
v -12.966205 0.838611 -6.227975
v -12.966205 0.838611 -6.227975
v -12.963923 0.515016 -6.015955
v -12.963923 0.515016 -6.015955
v -12.002925 0.543275 -6.362831
v -9.492746 0.945786 -6.822696
v -10.361188 1.003145 -7.091374
v -11.326463 1.164679 -7.288114
v -11.992448 0.371686 -6.503497
v -11.000134 0.107878 -5.708673
v -11.000134 0.107878 -5.708673
v -12.709770 0.338000 -5.904442
v -12.709770 0.338000 -5.904442
v -2.846479 2.681640 -5.932635
v -2.749862 2.764689 -6.274017
v -3.549831 0.941247 -5.067011
v -2.909515 0.864346 -4.867389
v -2.790127 2.184398 -6.387286
v -2.314714 0.802644 -5.679368
v -2.883618 1.561842 -6.328568
v -3.240095 1.090214 -6.034954
v -3.470120 0.741890 -5.570285
v -2.997097 2.384214 -5.569428
v -3.276718 1.751345 -5.274798
v -2.476096 1.572469 -4.936955
v -3.708786 2.933043 -6.601816
v -3.780784 2.893316 -6.294273
v -4.449749 3.175861 -6.945439
v -4.560856 3.175072 -6.714675
v -3.911308 2.608427 -6.000801
v -4.709224 2.916566 -6.430843
v -4.982079 2.242727 -6.051288
v -4.212626 1.960447 -5.669728
v -4.557465 1.062263 -5.381147
v -4.932575 0.290869 -4.985195
v -3.771265 2.444359 -6.711872
v -4.476683 2.736889 -7.092229
v -4.165476 1.377783 -6.390540
v -4.829049 1.675579 -6.757069
v -4.591763 2.231544 -7.091209
v -3.917346 1.891562 -6.710628
v -4.428881 0.984515 -5.939212
v -4.872667 0.169791 -5.272892
v -4.225372 0.238639 -4.875559
v -4.225372 0.238639 -4.875559
v -3.776900 0.282245 -4.823052
v -3.251146 0.333364 -4.761498
v -3.251146 0.333364 -4.761498
v -4.064841 -0.112404 -4.494157
v -4.064841 -0.112404 -4.494157
v -4.189898 -0.034119 -4.619218
v -4.189898 -0.034119 -4.619218
v -3.800470 0.279953 -5.013466
v -3.844798 -0.038260 -4.494328
v -3.844798 -0.038260 -4.494328
v -2.867747 0.163802 -4.577016
v -2.867747 0.163802 -4.577016
v -3.061216 0.141592 -4.725923
v -2.985748 0.075401 -4.508177
v -2.985748 0.075401 -4.508177
v -3.308887 0.154139 -4.611042
v -3.308887 0.154139 -4.611042
v -3.224335 0.012717 -4.512508
v -3.224335 0.012717 -4.512508
v -16.705050 3.022668 -8.007012
v -17.089245 3.293576 -8.010311
v -17.089245 3.293576 -8.010311
v -17.183468 3.191579 -7.895093
v -17.183468 3.191579 -7.895093
v -16.047651 3.385513 -8.361065
v -16.047651 3.385513 -8.361065
v -15.565407 2.857522 -8.010692
v -15.083161 2.329530 -7.660319
v -15.083161 2.329530 -7.660319
v -16.668770 3.428021 -8.276521
v -16.668770 3.428021 -8.276521
v -17.094049 3.040922 -7.852822
v -17.094049 3.040922 -7.852822
v -16.710953 3.016588 -8.099190
v -15.666529 2.864357 -8.179248
v -16.731834 2.661054 -7.800535
v -16.731834 2.661054 -7.800535
v -13.963295 1.189375 -6.847010
v -13.963295 1.189375 -6.847010
v -12.693401 0.968245 -6.707474
v -12.693401 0.968245 -6.707474
v -5.623196 0.001055 -4.962255
v -6.046270 0.261432 -5.221725
v -6.046270 0.261432 -5.221725
v -5.628395 -0.070352 -5.036245
v -5.200121 -0.259323 -4.702785
v -5.200121 -0.259323 -4.702785
v -7.032263 0.874621 -5.669190
v -5.418972 1.340796 -5.748410
v -6.409333 1.723799 -6.211352
v -6.934740 0.508328 -5.766227
v -5.206241 1.099535 -6.213189
v -6.140172 1.234247 -6.568014
v -7.703801 1.017509 -6.023448
v -7.766127 0.733652 -6.086144
v -9.645860 0.149064 -5.751880
v -9.645860 0.149064 -5.751880
v 6.002218 3.920098 -7.901959
v 6.067752 3.906482 -7.621176
v 6.623100 4.410793 -7.958288
v 6.533982 4.443746 -8.272223
v 7.270450 4.958671 -8.688854
v 7.385687 4.866601 -8.352580
v 8.154054 5.053483 -8.580896
v 8.039638 5.127599 -8.904549
v 7.142006 3.239695 -7.236242
v 6.801425 4.094386 -7.583747
v 6.239771 3.644533 -7.299465
v 6.613505 2.967608 -6.928784
v 7.574118 4.552682 -7.986680
v 8.138587 3.468886 -7.673179
v 8.962082 3.658717 -7.857049
v 8.348705 4.732058 -8.231340
v 8.216907 1.126686 -6.294127
v 8.787019 2.177172 -7.235582
v 7.551490 2.036191 -6.821002
v 8.755592 0.468086 -5.851736
v 8.755592 0.468086 -5.851736
v 6.545763 4.130926 -8.462577
v 5.987316 3.576063 -8.070587
v 8.116989 4.723359 -9.066147
v 7.320644 4.577763 -8.879991
v 7.446708 4.132076 -8.921360
v 8.273864 4.229011 -9.099406
v 8.964091 2.976529 -8.489864
v 8.107591 2.800881 -8.321230
v 8.796785 1.621381 -7.572476
v 7.169510 2.676937 -7.952662
v 6.640040 3.752926 -8.527436
v 8.401369 0.905816 -6.330585
v 6.479571 2.388181 -7.613237
v 6.080370 3.167947 -8.109621
v 7.862302 1.571966 -7.271508
v 9.028194 5.262181 -8.837048
v 9.203822 4.998543 -8.505534
v 8.914686 5.316477 -9.146765
v 9.022018 4.886480 -9.275755
v 9.187014 4.404485 -9.278458
v 9.909636 3.170438 -8.676031
v 9.871190 3.868283 -8.060036
v 12.515356 5.657652 -9.656625
v 12.484535 5.611080 -9.361171
v 13.502117 5.597205 -9.386410
v 13.615259 5.661819 -9.689447
v 12.435923 5.367722 -9.064725
v 12.432339 4.124753 -8.401044
v 13.325053 4.163431 -8.467863
v 13.405469 5.335605 -9.089729
v 12.582626 2.663973 -7.743880
v 13.942930 2.809215 -7.936713
v 13.368210 2.747851 -7.855243
v 14.114773 5.312109 -9.108023
v 13.978148 4.191727 -8.516747
v 14.412327 5.598039 -9.653000
v 14.246562 5.587054 -9.404874
v 13.547102 4.994111 -9.579716
v 12.606912 5.055850 -9.610511
v 12.767735 4.351452 -9.310763
v 13.492050 4.270834 -9.250632
v 13.593439 3.344745 -8.821576
v 13.240259 3.346223 -8.841743
v 13.663092 2.558566 -8.249449
v 13.851819 3.343664 -8.806823
v 14.021945 4.211855 -9.206641
v 14.234929 4.948943 -9.557187
v 12.753347 1.701802 -7.255651
v 12.135474 1.595361 -7.135161
v 12.605577 1.399146 -7.453295
v 9.668755 1.281296 -6.820122
v 10.860358 1.426614 -6.969725
v 12.966205 0.838611 -6.227975
v 12.966205 0.838611 -6.227975
v 12.002925 0.543275 -6.362831
v 12.963923 0.515016 -6.015955
v 12.963923 0.515016 -6.015955
v 9.492746 0.945786 -6.822696
v 10.361188 1.003145 -7.091374
v 11.326463 1.164679 -7.288114
v 11.992448 0.371686 -6.503497
v 12.709770 0.338000 -5.904442
v 12.709770 0.338000 -5.904442
v 11.000134 0.107878 -5.708673
v 11.000134 0.107878 -5.708673
v 2.846479 2.681640 -5.932635
v 2.749862 2.764689 -6.274017
v 3.549831 0.941247 -5.067011
v 2.909515 0.864346 -4.867389
v 2.790127 2.184398 -6.387286
v 2.314714 0.802644 -5.679368
v 3.240095 1.090214 -6.034954
v 2.883618 1.561842 -6.328568
v 3.470120 0.741890 -5.570285
v 2.997097 2.384214 -5.569428
v 3.276718 1.751345 -5.274798
v 2.476096 1.572469 -4.936955
v 3.780784 2.893316 -6.294273
v 3.708786 2.933043 -6.601816
v 4.560856 3.175072 -6.714675
v 4.449749 3.175861 -6.945439
v 3.911308 2.608427 -6.000801
v 4.212626 1.960447 -5.669728
v 4.982079 2.242727 -6.051288
v 4.709224 2.916566 -6.430843
v 4.557465 1.062263 -5.381147
v 4.932575 0.290869 -4.985195
v 3.771265 2.444359 -6.711872
v 4.476683 2.736889 -7.092229
v 4.165476 1.377783 -6.390540
v 3.917346 1.891562 -6.710628
v 4.591763 2.231544 -7.091209
v 4.829049 1.675579 -6.757069
v 4.428881 0.984515 -5.939212
v 4.872667 0.169791 -5.272892
v 4.225372 0.238639 -4.875559
v 4.225372 0.238639 -4.875559
v 3.776900 0.282245 -4.823052
v 3.251146 0.333364 -4.761498
v 3.251146 0.333364 -4.761498
v 4.064841 -0.112404 -4.494157
v 4.064841 -0.112404 -4.494157
v 4.189898 -0.034119 -4.619218
v 4.189898 -0.034119 -4.619218
v 3.800470 0.279953 -5.013466
v 3.844798 -0.038260 -4.494328
v 3.844798 -0.038260 -4.494328
v 2.867747 0.163802 -4.577016
v 2.867747 0.163802 -4.577016
v 3.061216 0.141592 -4.725923
v 2.985748 0.075401 -4.508177
v 2.985748 0.075401 -4.508177
v 3.308887 0.154139 -4.611042
v 3.308887 0.154139 -4.611042
v 3.224335 0.012717 -4.512508
v 3.224335 0.012717 -4.512508
v 16.705050 3.022668 -8.007012
v 17.183468 3.191579 -7.895093
v 17.183468 3.191579 -7.895093
v 17.089245 3.293576 -8.010311
v 17.089245 3.293576 -8.010311
v 16.047651 3.385513 -8.361065
v 16.047651 3.385513 -8.361065
v 15.565407 2.857522 -8.010692
v 15.083161 2.329530 -7.660319
v 15.083161 2.329530 -7.660319
v 16.668770 3.428021 -8.276521
v 16.668770 3.428021 -8.276521
v 17.094049 3.040922 -7.852822
v 17.094049 3.040922 -7.852822
v 16.710953 3.016588 -8.099190
v 15.666529 2.864357 -8.179248
v 16.731834 2.661054 -7.800535
v 16.731834 2.661054 -7.800535
v 13.963295 1.189375 -6.847010
v 13.963295 1.189375 -6.847010
v 12.693401 0.968245 -6.707474
v 12.693401 0.968245 -6.707474
v 5.623196 0.001055 -4.962255
v 6.046270 0.261432 -5.221725
v 6.046270 0.261432 -5.221725
v 5.628395 -0.070352 -5.036245
v 5.200121 -0.259323 -4.702785
v 5.200121 -0.259323 -4.702785
v 7.032263 0.874621 -5.669190
v 5.418972 1.340796 -5.748410
v 6.409333 1.723799 -6.211352
v 6.934740 0.508328 -5.766227
v 5.206241 1.099535 -6.213189
v 6.140172 1.234247 -6.568014
v 7.703801 1.017509 -6.023448
v 7.766127 0.733652 -6.086144
v 9.645860 0.149064 -5.751880
v 9.645860 0.149064 -5.751880
vt 0.453406 0.344065
vt 0.433556 0.359944
vt 0.434018 0.344065
vt 0.451110 0.359944
vt 0.474428 0.344065
vt 0.469755 0.359944
vt 0.489801 0.344065
vt 0.487204 0.359944
vt 0.506773 0.344065
vt 0.506468 0.359944
vt 0.540138 0.344065
vt 0.544338 0.359944
vt 0.591352 0.351198
vt 0.592464 0.364623
vt 0.620929 0.355318
vt 0.620257 0.367325
vt 0.642567 0.358331
vt 0.640590 0.369301
vt 0.686337 0.367286
vt 0.686279 0.373511
vt 0.716210 0.364483
vt 0.716255 0.376559
vt 0.447912 0.382067
vt 0.433456 0.416443
vt 0.432911 0.382067
vt 0.447047 0.415849
vt 0.463246 0.382067
vt 0.469947 0.422092
vt 0.483587 0.382067
vt 0.495795 0.419035
vt 0.506042 0.382067
vt 0.524330 0.415660
vt 0.550189 0.382067
vt 0.567516 0.410552
vt 0.594012 0.383326
vt 0.601590 0.408341
vt 0.619320 0.384053
vt 0.623951 0.407618
vt 0.637835 0.384585
vt 0.640310 0.407089
vt 0.686042 0.398717
vt 0.684721 0.414552
vt 0.719911 0.400100
vt 0.723501 0.406452
vt 0.587883 0.447570
vt 0.629307 0.480606
vt 0.598711 0.480319
vt 0.616907 0.441545
vt 0.362607 0.344065
vt 0.338701 0.359944
vt 0.337305 0.344065
vt 0.364273 0.359944
vt 0.384436 0.344065
vt 0.387427 0.359944
vt 0.408644 0.344065
vt 0.410580 0.359944
vt 0.366595 0.382067
vt 0.389574 0.426869
vt 0.364933 0.433443
vt 0.389937 0.382067
vt 0.336255 0.475810
vt 0.343730 0.506481
vt 0.333252 0.502440
vt 0.362928 0.495421
vt 0.339182 0.425609
vt 0.340983 0.382067
vt 0.697572 0.468710
vt 0.684262 0.452430
vt 0.697765 0.453318
vt 0.656784 0.466518
vt 0.697379 0.484103
vt 0.663343 0.482355
vt 0.667552 0.489668
vt 0.721279 0.432433
vt 0.683127 0.433655
vt 0.717298 0.418972
vt 0.683695 0.443043
vt 0.724828 0.444435
vt 0.413279 0.382067
vt 0.415670 0.417222
vt 0.389135 0.480917
vt 0.362338 0.514828
vt 0.388488 0.516233
vt 0.418555 0.459631
vt 0.420522 0.491238
vt 0.434114 0.457914
vt 0.438082 0.490988
vt 0.446002 0.456601
vt 0.451498 0.490797
vt 0.505373 0.103334
vt 0.490262 0.109251
vt 0.490305 0.100949
vt 0.504659 0.110092
vt 0.517000 0.107915
vt 0.516589 0.113880
vt 0.529853 0.112979
vt 0.529819 0.118080
vt 0.542874 0.123386
vt 0.542653 0.127676
vt 0.552823 0.131338
vt 0.552458 0.135009
vt 0.565278 0.137294
vt 0.564447 0.142179
vt 0.577034 0.137159
vt 0.576057 0.142702
vt 0.590012 0.137010
vt 0.588875 0.143279
vt 0.615526 0.136716
vt 0.614074 0.144414
vt 0.640210 0.127866
vt 0.640461 0.137786
vt 0.652893 0.123318
vt 0.655699 0.133958
vt 0.662172 0.119991
vt 0.666847 0.131157
vt 0.685107 0.111424
vt 0.689168 0.120581
vt 0.702143 0.106161
vt 0.703662 0.114550
vt 0.481064 0.068052
vt 0.477246 0.088253
vt 0.477338 0.067837
vt 0.479150 0.078180
vt 0.492646 0.070302
vt 0.493280 0.081405
vt 0.508657 0.073411
vt 0.507409 0.084630
vt 0.519358 0.077316
vt 0.518353 0.089294
vt 0.531414 0.081716
vt 0.530651 0.094534
vt 0.546970 0.084218
vt 0.545041 0.101453
vt 0.558857 0.086130
vt 0.556036 0.106740
vt 0.575211 0.078483
vt 0.570696 0.105234
vt 0.588015 0.078085
vt 0.583056 0.104599
vt 0.602151 0.077646
vt 0.596701 0.103898
vt 0.629941 0.076782
vt 0.623527 0.102521
vt 0.645573 0.076650
vt 0.643131 0.095180
vt 0.578124 0.130971
vt 0.566207 0.131841
vt 0.650013 0.111115
vt 0.647836 0.093418
vt 0.640528 0.116023
vt 0.606275 0.054417
vt 0.597207 0.053296
vt 0.563318 0.062001
vt 0.553161 0.060199
vt 0.539869 0.057840
vt 0.517353 0.101208
vt 0.506169 0.095788
vt 0.491707 0.092021
vt 0.680574 0.101200
vt 0.651277 0.092129
vt 0.680241 0.090085
vt 0.656952 0.107525
vt 0.640134 0.042933
vt 0.640396 0.048583
vt 0.625831 0.053380
vt 0.623852 0.043884
vt 0.632967 0.496120
vt 0.586971 0.526980
vt 0.521435 0.492928
vt 0.557853 0.487575
vt 0.614159 0.508739
vt 0.313666 0.501603
vt 0.320968 0.497703
vt 0.318871 0.503846
vt 0.314734 0.504484
vt 0.553230 0.127240
vt 0.543121 0.118596
vt 0.697151 0.093874
vt 0.695981 0.085724
vt 0.679906 0.078911
vt 0.694805 0.077530
vt 0.687008 0.068339
vt 0.662310 0.061600
vt 0.685871 0.060521
vt 0.672635 0.071757
vt 0.688145 0.076157
vt 0.500636 0.053740
vt 0.494749 0.055737
vt 0.487138 0.058319
vt 0.716318 0.393384
vt 0.700447 0.096795
vt 0.529891 0.107284
vt 0.317154 0.418906
vt 0.305599 0.479838
vt 0.315371 0.382067
vt 0.319305 0.463348
vt 0.478032 0.470376
vt 0.510523 0.463631
vt 0.546391 0.456184
vt 0.632146 0.437325
vt 0.643295 0.434237
vt 0.727832 0.414114
vt 0.665237 0.050475
vt 0.661308 0.041695
vt 0.641588 0.056931
vt 0.669165 0.059254
vt 0.617146 0.128122
vt 0.591281 0.130010
vt 0.477699 0.098955
vt 0.478104 0.108540
vt 0.315938 0.344065
vt 0.315701 0.359944
vt 0.316774 0.509989
vt 0.616286 0.055655
vt 0.732731 0.365013
vt 0.735494 0.372505
vt 0.739344 0.382943
vt 0.732311 0.408594
vt 0.732816 0.407126
vt 0.733425 0.405356
vt 0.361917 0.528671
vt 0.375202 0.522452
vt 0.378029 0.539109
vt 0.382932 0.534946
vt 0.387835 0.530783
vt 0.423672 0.541820
vt 0.443598 0.531758
vt 0.456994 0.524993
vt 0.459635 0.540908
vt 0.455188 0.546446
vt 0.450221 0.552632
vt 0.509846 0.525801
vt 0.711075 0.107913
vt 0.709196 0.103984
vt 0.707098 0.099598
vt 0.701353 0.087402
vt 0.700494 0.084656
vt 0.699629 0.081895
vt 0.611831 0.037494
vt 0.625593 0.036520
vt 0.622491 0.031509
vt 0.620014 0.027508
vt 0.595915 0.029034
vt 0.578313 0.039188
vt 0.566250 0.046146
vt 0.559180 0.041342
vt 0.548323 0.033965
vt 0.563947 0.028797
vt 0.566264 0.032485
vt 0.568581 0.036172
vt 0.526714 0.049268
vt 0.519538 0.045095
vt 0.527148 0.039155
vt 0.524831 0.036714
vt 0.522082 0.033819
vt 0.512361 0.040921
vt 0.510873 0.053974
vt 0.483275 0.055115
vt 0.484079 0.056100
vt 0.484061 0.053431
vt 0.485563 0.050214
vt 0.486351 0.054266
vt 0.642710 0.507086
vt 0.634941 0.521116
vt 0.631365 0.527574
vt 0.673451 0.051949
vt 0.670806 0.047962
vt 0.668160 0.043974
vt 0.710757 0.463065
vt 0.709233 0.470412
vt 0.707708 0.477760
vt 0.692644 0.069894
vt 0.692124 0.067163
vt 0.691675 0.064807
vt 0.730170 0.427031
vt 0.731203 0.431221
vt 0.732237 0.435410
vt 0.498863 0.050588
vt 0.496419 0.046245
vt 0.493318 0.050278
vt 0.339974 0.512369
vt 0.334798 0.520481
vt 0.330178 0.512871
usemtl mat_0
s 1
f 188/1 190/2 187/3
f 188/1 189/4 190/2
f 191/5 189/4 188/1
f 191/5 194/6 189/4
f 192/7 194/6 191/5
f 192/7 193/8 194/6
f 225/9 193/8 192/7
f 225/9 224/10 193/8
f 9/11 224/10 225/9
f 9/11 7/12 224/10
f 230/13 7/12 9/11
f 230/13 233/14 7/12
f 231/15 233/14 230/13
f 231/15 232/16 233/14
f 244/17 232/16 231/15
f 244/17 243/18 232/16
f 55/19 243/18 244/17
f 55/19 54/20 243/18
f 45/21 54/20 55/19
f 45/21 44/22 54/20
f 198/23 196/24 197/25
f 198/23 195/26 196/24
f 199/27 195/26 198/23
f 199/27 202/28 195/26
f 200/29 202/28 199/27
f 200/29 201/30 202/28
f 223/31 201/30 200/29
f 223/31 229/32 201/30
f 8/33 229/32 223/31
f 8/33 13/34 229/32
f 234/35 13/34 8/33
f 234/35 237/36 13/34
f 235/37 237/36 234/35
f 235/37 236/38 237/36
f 242/39 236/38 235/37
f 242/39 241/40 236/38
f 57/41 241/40 242/39
f 57/41 56/42 241/40
f 50/43 56/42 57/41
f 50/43 49/44 56/42
f 1/45 255/46 256/47
f 1/45 238/48 255/46
f 238/34 1/48 13/45
f 13/34 237/36 238/48
f 285/49 273/50 274/51
f 285/49 286/52 273/50
f 287/53 286/52 285/49
f 287/53 288/54 286/52
f 95/55 288/54 287/53
f 95/55 94/56 288/54
f 187/3 94/56 95/55
f 187/3 190/2 94/56
f 289/57 291/58 292/59
f 289/57 290/60 291/58
f 286/52 290/60 289/57
f 286/52 288/54 290/60
f 275/61 303/62 305/63
f 275/61 293/64 303/62
f 283/65 293/64 275/61
f 283/65 292/59 293/64
f 282/66 292/59 283/65
f 282/66 289/57 292/59
f 273/50 289/57 282/66
f 273/50 286/52 289/57
f 15/67 332/68 20/69
f 15/67 14/70 332/68
f 23/71 14/70 15/67
f 23/71 22/72 14/70
f 342/73 22/72 23/71
f 324/74 329/75 334/76
f 324/74 331/77 329/75
f 341/78 331/77 324/74
f 341/78 332/68 331/77
f 91/79 291/58 290/60
f 91/79 92/80 291/58
f 197/25 92/80 91/79
f 197/25 196/24 92/80
f 353/81 294/82 293/64
f 353/81 347/83 294/82
f 354/84 347/83 353/81
f 354/84 352/85 347/83
f 93/86 352/85 354/84
f 93/86 358/87 352/85
f 205/88 358/87 93/86
f 205/88 203/89 358/87
f 295/90 274/91 277/92
f 295/90 285/93 274/91
f 296/94 285/93 295/90
f 296/94 287/95 285/93
f 96/96 287/95 296/94
f 96/96 95/97 287/95
f 208/98 95/97 96/96
f 208/98 187/99 95/97
f 209/100 187/99 208/98
f 209/100 188/101 187/99
f 210/102 188/101 209/100
f 210/102 191/103 188/101
f 211/104 191/103 210/102
f 211/104 192/105 191/103
f 226/106 192/105 211/104
f 226/106 225/107 192/105
f 10/108 225/107 226/106
f 10/108 9/109 225/107
f 245/110 9/109 10/108
f 245/110 230/111 9/109
f 246/112 230/111 245/110
f 246/112 231/113 230/111
f 254/114 231/113 246/112
f 254/114 244/115 231/113
f 62/116 244/115 254/114
f 62/116 55/117 244/115
f 59/118 55/117 62/116
f 59/118 46/119 55/117
f 100/120 32/121 31/122
f 100/120 278/123 32/121
f 281/124 278/123 100/120
f 281/124 280/125 278/123
f 301/126 280/125 281/124
f 301/126 297/127 280/125
f 356/128 297/127 301/126
f 356/128 298/129 297/127
f 357/130 298/129 356/128
f 357/130 98/131 298/129
f 99/132 98/131 357/130
f 99/132 221/133 98/131
f 222/134 221/133 99/132
f 222/134 217/135 221/133
f 216/136 217/135 222/134
f 216/136 213/137 217/135
f 4/138 213/137 216/136
f 4/138 214/139 213/137
f 6/140 214/139 4/138
f 6/140 228/141 214/139
f 5/142 228/141 6/140
f 5/142 12/143 228/141
f 251/144 12/143 5/142
f 251/144 248/145 12/143
f 215/146 213/137 214/139
f 215/146 212/147 213/137
f 211/104 212/147 215/146
f 211/104 210/102 212/147
f 250/148 248/145 249/149
f 250/148 247/150 248/145
f 246/112 247/150 250/148
f 246/112 245/110 247/150
f 216/136 266/151 4/138
f 216/136 265/152 266/151
f 222/134 265/152 216/136
f 222/134 219/153 265/152
f 99/132 219/153 222/134
f 99/132 359/154 219/153
f 357/130 359/154 99/132
f 357/130 355/155 359/154
f 299/156 297/127 298/129
f 299/156 300/157 297/127
f 296/94 300/157 299/156
f 296/94 295/90 300/157
f 300/157 280/125 297/127
f 300/157 279/158 280/125
f 295/90 279/158 300/157
f 295/90 277/92 279/158
f 58/159 253/160 61/161
f 58/159 252/162 253/160
f 62/116 252/162 58/159
f 62/116 254/114 252/162
f 343/163 28/164 257/165
f 344/166 343/163 257/165
f 255/46 22/72 342/73
f 345/167 255/46 342/73
f 270/168 258/169 259/170
f 264/171 270/168 259/170
f 315/172 306/173 320/174
f 318/175 315/172 320/174
f 432/165 129/164 518/163
f 519/166 432/165 518/163
f 517/73 124/72 430/46
f 520/167 517/73 430/46
f 434/170 433/169 447/168
f 437/171 434/170 447/168
f 495/174 481/173 490/172
f 493/175 495/174 490/172
f 212/147 217/135 213/137
f 212/147 218/176 217/135
f 210/102 218/176 212/147
f 210/102 209/100 218/176
f 218/176 221/133 217/135
f 218/176 220/177 221/133
f 209/100 220/177 218/176
f 209/100 208/98 220/177
f 61/161 51/178 58/159
f 61/161 60/179 51/178
f 330/180 60/179 61/161
f 330/180 67/181 60/179
f 338/182 333/183 340/184
f 338/182 339/185 333/183
f 335/186 339/185 338/182
f 335/186 330/180 339/185
f 281/124 304/187 301/126
f 281/124 312/188 304/187
f 100/120 312/188 281/124
f 100/120 307/189 312/188
f 189/4 197/25 190/2
f 189/4 198/23 197/25
f 194/6 198/23 189/4
f 194/6 199/27 198/23
f 193/8 199/27 194/6
f 193/8 200/29 199/27
f 224/10 200/29 193/8
f 224/10 223/31 200/29
f 7/12 223/31 224/10
f 7/12 8/33 223/31
f 233/14 8/33 7/12
f 233/14 234/35 8/33
f 232/16 234/35 233/14
f 232/16 235/37 234/35
f 243/18 235/37 232/16
f 243/18 242/39 235/37
f 54/20 242/39 243/18
f 54/20 57/41 242/39
f 44/22 57/41 54/20
f 44/22 63/190 57/41
f 59/118 62/116 58/159
f 64/191 59/118 58/159
f 94/56 290/60 288/54
f 94/56 91/79 290/60
f 190/2 91/79 94/56
f 190/2 197/25 91/79
f 97/192 296/94 299/156
f 97/192 96/96 296/94
f 220/177 96/96 97/192
f 220/177 208/98 96/96
f 98/131 299/156 298/129
f 98/131 97/192 299/156
f 221/133 97/192 98/131
f 221/133 220/177 97/192
f 284/193 30/194 33/195
f 284/193 276/196 30/194
f 283/65 276/196 284/193
f 283/65 275/61 276/196
f 251/144 330/180 61/161
f 253/160 251/144 61/161
f 291/58 293/64 292/59
f 291/58 353/81 293/64
f 92/80 353/81 291/58
f 92/80 354/84 353/81
f 196/24 354/84 92/80
f 196/24 93/86 354/84
f 195/26 93/86 196/24
f 195/26 205/88 93/86
f 202/28 205/88 195/26
f 202/28 204/197 205/88
f 201/30 204/197 202/28
f 201/30 3/198 204/197
f 229/32 3/198 201/30
f 229/32 2/199 3/198
f 13/34 2/199 229/32
f 13/34 1/45 2/199
f 236/38 238/48 237/36
f 236/38 240/200 238/48
f 241/40 240/200 236/38
f 241/40 239/201 240/200
f 56/42 239/201 241/40
f 56/42 329/75 239/201
f 49/44 329/75 56/42
f 49/44 68/202 329/75
f 27/203 28/164 24/204
f 27/203 29/205 28/164
f 21/206 29/205 27/203
f 21/206 333/183 29/205
f 343/163 24/204 28/164
f 11/207 226/106 227/208
f 11/207 10/108 226/106
f 247/150 10/108 11/207
f 247/150 245/110 10/108
f 12/143 227/208 228/141
f 12/143 11/207 227/208
f 248/145 11/207 12/143
f 248/145 247/150 11/207
f 279/158 278/123 280/125
f 279/158 32/121 278/123
f 277/92 32/121 279/158
f 277/92 34/209 32/121
f 274/91 34/209 277/92
f 274/91 35/210 34/209
f 273/50 35/211 274/51
f 273/50 36/212 35/211
f 282/66 36/212 273/50
f 282/66 33/195 36/212
f 283/65 33/195 282/66
f 283/65 284/193 33/195
f 306/173 276/196 275/61
f 305/63 306/173 275/61
f 323/213 318/175 320/174
f 215/146 226/106 211/104
f 215/146 227/208 226/106
f 214/139 227/208 215/146
f 214/139 228/141 227/208
f 267/214 6/140 4/138
f 266/151 267/214 4/138
f 250/148 254/114 246/112
f 250/148 252/162 254/114
f 249/149 252/162 250/148
f 249/149 253/160 252/162
f 364/4 362/3 363/2
f 364/4 365/1 362/3
f 367/6 365/1 364/4
f 367/6 366/5 365/1
f 368/8 366/5 367/6
f 368/8 369/7 366/5
f 398/10 369/7 368/8
f 398/10 400/9 369/7
f 107/12 400/9 398/10
f 107/12 109/11 400/9
f 406/14 109/11 107/12
f 406/14 405/13 109/11
f 407/16 405/13 406/14
f 407/16 408/15 405/13
f 419/18 408/15 407/16
f 419/18 418/17 408/15
f 141/20 418/17 419/18
f 141/20 140/19 418/17
f 130/22 140/19 141/20
f 130/22 133/21 140/19
f 370/26 372/25 373/24
f 370/26 371/23 372/25
f 375/28 371/23 370/26
f 375/28 374/27 371/23
f 376/30 374/27 375/28
f 376/30 377/29 374/27
f 404/32 377/29 376/30
f 404/32 399/31 377/29
f 113/34 399/31 404/32
f 113/34 108/33 399/31
f 410/36 108/33 113/34
f 410/36 409/35 108/33
f 411/38 409/35 410/36
f 411/38 412/37 409/35
f 417/40 412/37 411/38
f 417/40 416/39 412/37
f 144/42 416/39 417/40
f 144/42 142/41 416/39
f 135/44 142/41 144/42
f 135/44 138/43 142/41
f 413/48 431/47 430/46
f 413/48 101/45 431/47
f 410/36 101/45 413/48
f 410/36 113/34 101/45
f 460/52 449/51 448/50
f 460/52 461/49 449/51
f 462/54 461/49 460/52
f 462/54 463/53 461/49
f 180/56 463/53 462/54
f 180/56 181/55 463/53
f 363/2 181/55 180/56
f 363/2 362/3 181/55
f 467/60 465/59 466/58
f 467/60 464/57 465/59
f 462/54 464/57 467/60
f 462/54 460/52 464/57
f 468/64 480/63 478/62
f 468/64 450/61 480/63
f 465/59 450/61 468/64
f 465/59 458/65 450/61
f 464/57 458/65 465/59
f 464/57 457/66 458/65
f 460/52 457/66 464/57
f 460/52 448/50 457/66
f 114/70 120/69 507/68
f 114/70 115/67 120/69
f 124/72 115/67 114/70
f 124/72 122/71 115/67
f 517/73 122/71 124/72
f 506/77 509/76 504/75
f 506/77 499/74 509/76
f 507/68 499/74 506/77
f 507/68 516/78 499/74
f 177/80 467/60 466/58
f 177/80 178/79 467/60
f 373/24 178/79 177/80
f 373/24 372/25 178/79
f 522/83 468/64 469/82
f 522/83 528/81 468/64
f 527/85 528/81 522/83
f 527/85 529/84 528/81
f 533/87 529/84 527/85
f 533/87 179/86 529/84
f 378/89 179/86 533/87
f 378/89 380/88 179/86
f 461/93 452/92 449/91
f 461/93 470/90 452/92
f 463/95 470/90 461/93
f 463/95 471/94 470/90
f 181/97 471/94 463/95
f 181/97 182/96 471/94
f 362/99 182/96 181/97
f 362/99 384/98 182/96
f 365/101 384/98 362/99
f 365/101 383/100 384/98
f 366/103 383/100 365/101
f 366/103 386/102 383/100
f 369/105 386/102 366/103
f 369/105 385/104 386/102
f 400/107 385/104 369/105
f 400/107 401/106 385/104
f 109/109 401/106 400/107
f 109/109 110/108 401/106
f 405/111 110/108 109/109
f 405/111 421/110 110/108
f 408/113 421/110 405/111
f 408/113 420/112 421/110
f 418/115 420/112 408/113
f 418/115 429/114 420/112
f 140/117 429/114 418/115
f 140/117 148/116 429/114
f 134/119 148/116 140/117
f 134/119 145/118 148/116
f 453/123 38/122 39/121
f 453/123 186/120 38/122
f 454/125 186/120 453/123
f 454/125 456/124 186/120
f 472/127 456/124 454/125
f 472/127 476/126 456/124
f 475/129 476/126 472/127
f 475/129 531/128 476/126
f 184/131 531/128 475/129
f 184/131 532/130 531/128
f 395/133 532/130 184/131
f 395/133 185/132 532/130
f 392/135 185/132 395/133
f 392/135 397/134 185/132
f 390/137 397/134 392/135
f 390/137 391/136 397/134
f 389/139 391/136 390/137
f 389/139 104/138 391/136
f 403/141 104/138 389/139
f 403/141 106/140 104/138
f 112/143 106/140 403/141
f 112/143 105/142 106/140
f 425/145 105/142 112/143
f 425/145 426/144 105/142
f 387/147 389/139 390/137
f 387/147 388/146 389/139
f 386/102 388/146 387/147
f 386/102 385/104 388/146
f 422/150 424/149 425/145
f 422/150 423/148 424/149
f 421/110 423/148 422/150
f 421/110 420/112 423/148
f 440/152 104/138 441/151
f 440/152 391/136 104/138
f 394/153 391/136 440/152
f 394/153 397/134 391/136
f 534/154 397/134 394/153
f 534/154 185/132 397/134
f 530/155 185/132 534/154
f 530/155 532/130 185/132
f 473/157 475/129 472/127
f 473/157 474/156 475/129
f 470/90 474/156 473/157
f 470/90 471/94 474/156
f 455/158 472/127 454/125
f 455/158 473/157 472/127
f 452/92 473/157 455/158
f 452/92 470/90 473/157
f 428/162 147/161 427/160
f 428/162 143/159 147/161
f 429/114 143/159 428/162
f 429/114 148/116 143/159
f 393/176 390/137 392/135
f 393/176 387/147 390/137
f 383/100 387/147 393/176
f 383/100 386/102 387/147
f 396/177 392/135 395/133
f 396/177 393/176 392/135
f 384/98 393/176 396/177
f 384/98 383/100 393/176
f 146/179 143/159 139/178
f 146/179 147/161 143/159
f 153/181 147/161 146/179
f 153/181 505/180 147/161
f 514/185 515/184 508/183
f 514/185 513/182 515/184
f 505/180 513/182 514/185
f 505/180 510/186 513/182
f 487/188 476/126 479/187
f 487/188 456/124 476/126
f 482/189 456/124 487/188
f 482/189 186/120 456/124
f 371/23 363/2 372/25
f 371/23 364/4 363/2
f 374/27 364/4 371/23
f 374/27 367/6 364/4
f 377/29 367/6 374/27
f 377/29 368/8 367/6
f 399/31 368/8 377/29
f 399/31 398/10 368/8
f 108/33 398/10 399/31
f 108/33 107/12 398/10
f 409/35 107/12 108/33
f 409/35 406/14 107/12
f 412/37 406/14 409/35
f 412/37 407/16 406/14
f 416/39 407/16 412/37
f 416/39 419/18 407/16
f 142/41 419/18 416/39
f 142/41 141/20 419/18
f 149/190 141/20 142/41
f 149/190 130/22 141/20
f 143/159 148/116 145/118
f 150/191 143/159 145/118
f 178/79 462/54 467/60
f 178/79 180/56 462/54
f 372/25 180/56 178/79
f 372/25 363/2 180/56
f 182/96 474/156 471/94
f 182/96 183/192 474/156
f 384/98 183/192 182/96
f 384/98 396/177 183/192
f 183/192 475/129 474/156
f 183/192 184/131 475/129
f 396/177 184/131 183/192
f 396/177 395/133 184/131
f 451/196 40/195 37/194
f 451/196 459/193 40/195
f 450/61 459/193 451/196
f 450/61 458/65 459/193
f 147/161 505/180 426/144
f 427/160 147/161 426/144
f 528/81 465/59 468/64
f 528/81 466/58 465/59
f 529/84 466/58 528/81
f 529/84 177/80 466/58
f 179/86 177/80 529/84
f 179/86 373/24 177/80
f 380/88 373/24 179/86
f 380/88 370/26 373/24
f 379/197 370/26 380/88
f 379/197 375/28 370/26
f 103/198 375/28 379/197
f 103/198 376/30 375/28
f 102/199 376/30 103/198
f 102/199 404/32 376/30
f 101/45 404/32 102/199
f 101/45 113/34 404/32
f 415/200 410/36 413/48
f 415/200 411/38 410/36
f 414/201 411/38 415/200
f 414/201 417/40 411/38
f 504/75 417/40 414/201
f 504/75 144/42 417/40
f 154/202 144/42 504/75
f 154/202 135/44 144/42
f 128/205 123/204 129/164
f 128/205 127/203 123/204
f 508/183 127/203 128/205
f 508/183 121/206 127/203
f 518/163 129/164 123/204
f 110/108 402/208 401/106
f 110/108 111/207 402/208
f 421/110 111/207 110/108
f 421/110 422/150 111/207
f 111/207 403/141 402/208
f 111/207 112/143 403/141
f 422/150 112/143 111/207
f 422/150 425/145 112/143
f 39/121 454/125 453/123
f 39/121 455/158 454/125
f 41/209 455/158 39/121
f 41/209 452/92 455/158
f 42/210 452/92 41/209
f 42/210 449/91 452/92
f 43/212 449/51 42/211
f 43/212 448/50 449/51
f 40/195 448/50 43/212
f 40/195 457/66 448/50
f 459/193 457/66 40/195
f 459/193 458/65 457/66
f 450/61 451/196 481/173
f 480/63 450/61 481/173
f 498/213 495/174 493/175
f 402/208 385/104 401/106
f 402/208 388/146 385/104
f 403/141 388/146 402/208
f 403/141 389/139 388/146
f 104/138 106/140 442/214
f 441/151 104/138 442/214
f 428/162 420/112 429/114
f 428/162 423/148 420/112
f 427/160 423/148 428/162
f 427/160 424/149 423/148
f 30/194 306/173 315/172
f 30/194 276/196 306/173
f 47/215 44/22 45/21
f 47/215 74/216 44/22
f 65/217 44/22 74/216
f 65/217 63/190 44/22
f 52/218 49/44 50/43
f 52/218 72/219 49/44
f 70/220 49/44 72/219
f 70/220 68/202 49/44
f 331/77 239/201 329/75
f 331/77 332/68 239/201
f 14/70 239/201 332/68
f 14/70 240/200 239/201
f 255/46 240/200 14/70
f 255/46 238/48 240/200
f 255/46 14/70 22/72
f 204/197 203/89 205/88
f 204/197 258/169 203/89
f 259/170 258/169 204/197
f 204/197 3/198 259/170
f 2/199 259/170 3/198
f 2/199 256/47 259/170
f 1/45 256/47 2/199
f 294/82 303/62 293/64
f 294/82 351/221 303/62
f 346/222 351/221 294/82
f 346/222 90/223 351/221
f 85/224 90/223 346/222
f 346/222 87/225 85/224
f 347/83 87/225 346/222
f 346/222 294/82 347/83
f 352/85 80/226 347/83
f 352/85 79/227 80/226
f 358/87 79/227 352/85
f 358/87 203/89 79/227
f 206/228 79/227 203/89
f 206/228 75/229 79/227
f 77/230 79/227 75/229
f 77/230 84/231 79/227
f 80/226 79/227 84/231
f 258/169 206/228 203/89
f 258/169 361/232 206/228
f 270/168 361/232 258/169
f 59/118 48/233 46/119
f 59/118 73/234 48/233
f 66/235 73/234 59/118
f 59/118 64/191 66/235
f 60/179 53/236 51/178
f 60/179 71/237 53/236
f 69/238 71/237 60/179
f 60/179 67/181 69/238
f 29/205 257/165 28/164
f 29/205 251/144 257/165
f 333/183 251/144 29/205
f 333/183 339/185 251/144
f 330/180 251/144 339/185
f 5/142 257/165 251/144
f 5/142 6/140 257/165
f 267/214 257/165 6/140
f 267/214 344/166 257/165
f 268/239 344/166 267/214
f 268/239 261/240 344/166
f 263/241 261/240 268/239
f 268/239 271/242 263/241
f 269/243 271/242 268/239
f 268/239 265/152 269/243
f 266/151 265/152 268/239
f 268/239 267/214 266/151
f 265/152 360/244 269/243
f 265/152 207/245 360/244
f 219/153 207/245 265/152
f 219/153 82/246 207/245
f 359/154 82/246 219/153
f 359/154 355/155 82/246
f 81/247 82/246 355/155
f 81/247 83/248 82/246
f 78/249 82/246 83/248
f 78/249 76/250 82/246
f 207/245 82/246 76/250
f 355/155 348/251 81/247
f 355/155 357/130 348/251
f 356/128 348/251 357/130
f 356/128 301/126 348/251
f 349/252 348/251 301/126
f 349/252 88/253 348/251
f 86/254 88/253 349/252
f 349/252 89/255 86/254
f 350/256 89/255 349/252
f 349/252 302/257 350/256
f 301/126 302/257 349/252
f 301/126 304/187 302/257
f 350/256 302/257 304/187
f 316/258 100/120 31/122
f 316/258 317/259 100/120
f 319/260 317/259 316/258
f 319/260 322/261 317/259
f 321/262 317/259 322/261
f 321/262 307/189 317/259
f 100/120 317/259 307/189
f 251/144 249/149 248/145
f 251/144 253/160 249/149
f 345/167 256/47 255/46
f 345/167 259/170 256/47
f 264/171 259/170 345/167
f 345/167 260/263 264/171
f 262/264 264/171 260/263
f 262/264 272/265 264/171
f 270/168 264/171 272/265
f 27/203 17/266 21/206
f 27/203 19/267 17/266
f 25/268 19/267 27/203
f 27/203 24/204 25/268
f 16/269 15/67 20/69
f 16/269 18/270 15/67
f 26/271 15/67 18/270
f 26/271 23/71 15/67
f 338/182 326/272 335/186
f 338/182 328/273 326/272
f 336/274 328/273 338/182
f 338/182 340/184 336/274
f 325/275 324/74 334/76
f 325/275 327/276 324/74
f 337/277 324/74 327/276
f 337/277 341/78 324/74
f 312/188 311/278 304/187
f 312/188 309/279 311/278
f 313/280 309/279 312/188
f 312/188 307/189 313/280
f 310/281 305/63 303/62
f 310/281 308/282 305/63
f 314/283 305/63 308/282
f 314/283 306/173 305/63
f 481/173 37/194 490/172
f 481/173 451/196 37/194
f 130/22 131/215 133/21
f 130/22 160/216 131/215
f 151/217 160/216 130/22
f 130/22 149/190 151/217
f 135/44 136/218 138/43
f 135/44 158/219 136/218
f 156/220 158/219 135/44
f 135/44 154/202 156/220
f 414/201 506/77 504/75
f 414/201 507/68 506/77
f 114/70 507/68 414/201
f 414/201 415/200 114/70
f 430/46 114/70 415/200
f 430/46 124/72 114/70
f 413/48 430/46 415/200
f 378/89 379/197 380/88
f 378/89 433/169 379/197
f 381/228 433/169 378/89
f 381/228 536/232 433/169
f 447/168 433/169 536/232
f 434/170 379/197 433/169
f 434/170 103/198 379/197
f 102/199 103/198 434/170
f 434/170 431/47 102/199
f 520/167 431/47 434/170
f 520/167 430/46 431/47
f 431/47 101/45 102/199
f 437/171 520/167 434/170
f 437/171 435/263 520/167
f 438/264 435/263 437/171
f 437/171 445/265 438/264
f 447/168 445/265 437/171
f 478/62 469/82 468/64
f 478/62 526/221 469/82
f 521/222 469/82 526/221
f 521/222 522/83 469/82
f 173/225 522/83 521/222
f 521/222 171/224 173/225
f 176/223 171/224 521/222
f 521/222 526/221 176/223
f 166/226 527/85 522/83
f 166/226 163/227 527/85
f 170/231 163/227 166/226
f 170/231 164/230 163/227
f 161/229 163/227 164/230
f 161/229 381/228 163/227
f 378/89 163/227 381/228
f 378/89 533/87 163/227
f 527/85 163/227 533/87
f 132/233 145/118 134/119
f 132/233 159/234 145/118
f 152/235 145/118 159/234
f 152/235 150/191 145/118
f 137/236 146/179 139/178
f 137/236 157/237 146/179
f 155/238 146/179 157/237
f 155/238 153/181 146/179
f 432/165 128/205 129/164
f 432/165 426/144 128/205
f 105/142 426/144 432/165
f 432/165 106/140 105/142
f 442/214 106/140 432/165
f 432/165 519/166 442/214
f 443/239 442/214 519/166
f 443/239 441/151 442/214
f 440/152 441/151 443/239
f 443/239 446/243 440/152
f 444/242 446/243 443/239
f 443/239 439/241 444/242
f 436/240 439/241 443/239
f 443/239 519/166 436/240
f 426/144 508/183 128/205
f 426/144 514/185 508/183
f 505/180 514/185 426/144
f 535/244 440/152 446/243
f 535/244 382/245 440/152
f 394/153 440/152 382/245
f 382/245 168/246 394/153
f 162/250 168/246 382/245
f 162/250 165/249 168/246
f 169/248 168/246 165/249
f 169/248 167/247 168/246
f 530/155 168/246 167/247
f 530/155 534/154 168/246
f 394/153 168/246 534/154
f 523/251 530/155 167/247
f 523/251 532/130 530/155
f 531/128 532/130 523/251
f 523/251 476/126 531/128
f 524/252 476/126 523/251
f 524/252 477/257 476/126
f 525/256 477/257 524/252
f 525/256 479/187 477/257
f 476/126 477/257 479/187
f 174/253 524/252 523/251
f 174/253 172/254 524/252
f 175/255 524/252 172/254
f 175/255 525/256 524/252
f 186/120 491/258 38/122
f 186/120 492/259 491/258
f 482/189 492/259 186/120
f 482/189 496/262 492/259
f 497/261 492/259 496/262
f 497/261 494/260 492/259
f 491/258 492/259 494/260
f 424/149 426/144 425/145
f 424/149 427/160 426/144
f 119/266 127/203 121/206
f 119/266 117/267 127/203
f 125/268 127/203 117/267
f 125/268 123/204 127/203
f 115/67 118/269 120/69
f 115/67 116/270 118/269
f 126/271 116/270 115/67
f 115/67 122/71 126/271
f 503/272 513/182 510/186
f 503/272 501/273 513/182
f 511/274 513/182 501/273
f 511/274 515/184 513/182
f 499/74 502/275 509/76
f 499/74 500/276 502/275
f 512/277 500/276 499/74
f 499/74 516/78 512/277
f 486/278 487/188 479/187
f 486/278 484/279 487/188
f 488/280 487/188 484/279
f 488/280 482/189 487/188
f 480/63 485/281 478/62
f 480/63 483/282 485/281
f 489/283 483/282 480/63
f 480/63 481/173 489/283
