# Blender v2.66 (sub 1) OBJ File: 'BR_Kirlia-Shiny01.blend'
# www.blender.org
mtllib BR_Kirlia-Shiny01.mtl
o kirlia_c
v -0.523270 -0.045422 -1.583590
v -0.358800 0.136923 -1.624570
v -0.194330 -0.045422 -1.583590
v -0.494700 -0.033114 -2.367880
v -0.222901 -0.033114 -2.367880
v -0.358800 0.120637 -2.316150
v -0.358800 -0.202816 -1.547600
v -0.358800 0.134660 -1.384040
v -0.358800 -0.267892 -3.010050
v -0.203390 -0.057018 -2.992120
v -0.511670 -0.053736 -2.992130
v -0.358800 0.149951 -2.981700
v -0.221166 -0.034044 -2.462500
v -0.496435 -0.034044 -2.462500
v -0.358800 0.122033 -2.490100
v -0.358800 -0.302924 0.000000
v 0.358800 0.136923 -1.624570
v 0.523270 -0.045422 -1.583590
v 0.194330 -0.045422 -1.583590
v 0.358800 0.120637 -2.316150
v 0.494700 -0.033114 -2.367880
v 0.358800 -0.202816 -1.547600
v 0.222901 -0.033114 -2.367880
v 0.358800 0.134660 -1.384040
v 0.203390 -0.057018 -2.992120
v 0.358800 -0.267892 -3.010050
v 0.511670 -0.053736 -2.992130
v 0.358800 0.149951 -2.981700
v 0.221166 -0.034044 -2.462500
v 0.358800 0.122033 -2.490100
v 0.496435 -0.034044 -2.462500
v 0.358800 -0.302924 0.000000
v 1.692800 0.199996 -4.736260
v 1.692800 -0.187723 -4.736260
v 2.371330 0.277361 -4.736260
v 1.914510 0.219669 -4.736260
v 1.914510 -0.230383 -4.736260
v 2.371330 -0.277967 -4.736260
v 0.000000 -0.165292 -4.736210
v 0.000001 0.173174 -4.736300
v 0.134884 0.145699 -4.736300
v 0.165277 -0.109864 -4.736260
v -0.165277 -0.109864 -4.736260
v -0.134883 0.145699 -4.736300
v 1.563430 1.632270 -2.808170
v 2.094930 0.892310 -3.318400
v 1.718070 -1.413970 -3.440600
v 0.998038 -2.010240 -3.549910
v 2.347740 0.296919 -3.101280
v 2.347740 -0.617881 -3.285790
v 2.553680 -0.268192 -4.736260
v 2.817720 -0.000070 -4.894850
v 2.932730 -0.187390 -4.736260
v 2.817720 -0.000070 -4.650520
v 2.553680 0.267591 -4.736260
v 2.932730 0.186850 -4.736260
v 3.268980 -0.011435 -4.736260
v 3.268980 0.011274 -4.736260
v 0.000001 -0.590609 -3.159410
v 0.000000 0.328406 -3.174840
v 0.108934 0.000000 -5.061600
v 0.108934 0.000000 -5.061600
v 0.000000 0.085452 -5.049840
v 0.000000 0.085452 -5.049840
v -0.108934 0.000000 -5.061600
v -0.108934 0.000000 -5.061600
v 0.000000 -0.085452 -5.063150
v 0.000000 -0.085452 -5.063150
v -0.643079 1.670510 -5.820630
v -0.760149 1.196020 -5.735420
v -0.760149 1.196020 -5.735420
v -0.451240 1.156070 -5.468320
v -0.451240 1.156070 -5.468320
v -0.451240 1.156070 -5.468320
v 0.000000 0.889983 -7.727750
v 0.860846 0.709582 -7.554520
v 0.000000 0.000000 -7.966500
v 0.781404 1.307390 -7.139740
v 0.000000 1.551870 -7.163930
v 0.000000 1.875220 -6.711510
v 0.674056 1.738040 -6.644320
v 0.000000 2.016410 -5.886020
v 0.455135 1.883570 -5.862920
v 0.000000 1.548900 -5.226940
v 0.239187 1.442640 -5.281650
v 0.000000 0.929378 -5.120010
v 0.000000 0.929378 -5.120010
v -0.239187 1.442640 -5.281650
v 0.643078 1.670510 -5.820630
v 0.760149 1.196020 -5.735420
v 0.760149 1.196020 -5.735420
v 1.177070 1.022650 -6.129950
v 1.177070 1.022650 -6.129950
v 0.947752 -0.066219 -7.693900
v 0.998104 1.092720 -7.147480
v 1.368360 0.457390 -7.163440
v 0.940732 1.514860 -6.541280
v -1.373170 -0.082800 -5.981660
v -1.276660 0.699930 -5.981660
v -1.349230 0.733231 -6.334880
v -0.860846 0.709582 -7.554520
v -0.674056 1.738040 -6.644320
v -0.781404 1.307390 -7.139740
v -0.455135 1.883570 -5.862920
v 1.349230 0.733231 -6.334880
v -1.177070 1.022650 -6.129950
v -1.177070 1.022650 -6.129950
v -0.947751 -0.066219 -7.693900
v -1.330840 -0.136318 -7.237850
v -0.940732 1.514860 -6.541280
v -0.998104 1.092720 -7.147480
v 0.412473 -0.417317 -5.224030
v 0.620034 0.000000 -5.203010
v 0.841732 -0.740632 -5.554620
v 1.088660 -0.017254 -5.554620
v 1.104060 -0.962446 -5.981660
v -1.104060 -0.962446 -5.981660
v -0.841731 -0.740632 -5.554620
v -1.088660 -0.017254 -5.554620
v 1.330850 -0.136318 -7.237850
v 0.774358 -0.581710 -7.746330
v 0.000000 -0.712065 -5.224030
v 0.000000 -1.250920 -5.554620
v 0.000000 -1.572920 -5.981660
v 0.000000 -1.673060 -6.572960
v 0.000000 -1.489820 -7.248250
v 0.664698 -1.255040 -7.237860
v 1.141770 -0.942679 -7.237860
v 0.000000 -0.872154 -7.788270
v -0.412473 -0.417317 -5.224030
v -0.764281 -1.343450 -6.303280
v -0.664697 -1.255040 -7.237860
v -0.774357 -0.581711 -7.746330
v -0.620034 0.000000 -5.203010
v -0.559789 0.345161 -5.174730
v -1.029260 0.574262 -5.551100
v -0.871079 0.828823 -5.540190
v -0.659041 1.034100 -5.507470
v 0.451253 1.156070 -5.468310
v 0.451253 1.156070 -5.468310
v 0.451253 1.156070 -5.468310
v 0.659041 1.034100 -5.507470
v 0.871079 0.828823 -5.540190
v 1.276660 0.699930 -5.981660
v 1.373170 -0.082800 -5.981660
v 1.029260 0.574262 -5.551100
v 0.366589 0.544394 -5.142280
v 0.559789 0.345161 -5.174730
v -0.366589 0.544394 -5.142280
v 0.000000 0.674674 -5.109390
v 0.000000 1.132960 -5.366540
v 0.000000 1.132960 -5.366540
v 1.235840 -1.020350 -6.562570
v 1.426260 -0.167776 -6.562570
v -1.368360 0.457392 -7.163430
v -1.141770 -0.942679 -7.237860
v -1.378830 0.739950 -6.701650
v 1.378830 0.739950 -6.701650
v 0.718235 -1.343450 -6.303280
v -1.235840 -1.020350 -6.562570
v -1.426260 -0.167776 -6.562570
v -1.692800 0.199996 -4.736260
v -1.692800 -0.187723 -4.736260
v -2.371330 0.277360 -4.736260
v -1.914510 0.219669 -4.736260
v -1.914510 -0.230383 -4.736260
v -2.371330 -0.277967 -4.736260
v -2.094930 0.892310 -3.318400
v -1.563430 1.632270 -2.808170
v -1.718070 -1.413970 -3.440600
v -0.998037 -2.010240 -3.549910
v -2.347740 0.296919 -3.101280
v -2.347740 -0.617882 -3.285790
v -2.932730 -0.187387 -4.736260
v -2.817720 -0.000068 -4.894840
v -2.553680 -0.268193 -4.736260
v -2.817720 -0.000068 -4.650510
v -2.932730 0.186847 -4.736260
v -2.553680 0.267591 -4.736260
v -3.268980 -0.011435 -4.736260
v -3.268980 0.011273 -4.736260
v 1.677020 -0.123279 -6.630770
v 1.846400 0.878471 -4.192770
v 1.758910 0.848387 -4.516320
v 1.948710 -0.276223 -4.540400
v 1.794490 -1.396000 -4.228260
v 2.181680 -0.254703 -4.212310
v 1.721800 -1.360030 -4.519810
v 2.156470 -0.239356 -4.575290
v -1.677020 -0.123279 -6.630770
v -1.948710 -0.276223 -4.540400
v -1.758910 0.848387 -4.516320
v -1.846400 0.878471 -4.192770
v -2.181680 -0.254703 -4.212310
v -1.794490 -1.396000 -4.228260
v -2.156470 -0.239356 -4.575290
v -1.721800 -1.360030 -4.519810
v -0.545017 -0.072517 -1.427020
v -0.172583 -0.072517 -1.427020
v -0.637842 -0.222025 -0.641960
v -0.358800 -0.319174 -0.629600
v -0.085484 -0.222062 -0.641955
v -0.358800 0.025618 -0.651385
v -0.358800 -0.226238 -1.455250
v -0.358800 -0.279857 -3.094360
v -0.200851 -0.060300 -3.067790
v -0.516749 -0.060300 -3.141300
v -0.358800 0.159256 -3.145570
v -0.358800 -0.184139 -2.419880
v -0.495567 -0.033579 -2.419880
v -0.222033 -0.033579 -2.419880
v -0.358800 0.121335 -2.419880
v 0.545017 -0.072517 -1.427020
v 0.172583 -0.072517 -1.427020
v 0.358800 -0.319174 -0.629600
v 0.637842 -0.222025 -0.641960
v 0.085484 -0.222062 -0.641955
v 0.358800 0.025618 -0.651385
v 0.358800 -0.226238 -1.455250
v 0.200851 -0.060300 -3.067790
v 0.358800 -0.279857 -3.094360
v 0.516749 -0.060300 -3.141300
v 0.358800 0.159256 -3.145570
v 0.358800 0.121335 -2.419880
v 0.495567 -0.033579 -2.419880
v 0.358800 -0.184139 -2.419880
v 0.222033 -0.033579 -2.419880
v 1.806170 0.206612 -4.736260
v 1.806180 -0.000068 -4.917470
v 1.806150 -0.000068 -4.635390
v 1.806170 -0.215902 -4.736260
v 2.458550 -0.000067 -4.635520
v 2.458530 0.279903 -4.736260
v 2.458550 -0.000067 -4.941490
v 2.458530 -0.280515 -4.736260
v 0.000001 -0.305137 -4.421910
v -0.240350 -0.207486 -4.421910
v 0.000000 0.326189 -4.421910
v 0.218505 0.255749 -4.421910
v 0.240350 -0.207486 -4.421910
v 0.334693 0.002105 -4.421910
v -0.218505 0.255749 -4.421910
v -0.334693 0.002105 -4.421910
v 0.000001 -0.623015 -3.855000
v 0.489339 -0.448263 -3.855000
v 0.477993 -0.613217 -3.476020
v 0.434851 0.423607 -3.855000
v 0.666735 -0.006900 -3.855000
v 0.477260 0.330412 -3.426330
v 0.720775 -0.055489 -3.426330
v 0.607051 0.208354 -3.855000
v 0.403039 0.404882 -3.970280
v 0.000001 0.511323 -3.970280
v 0.000001 0.523939 -3.855000
v 0.632295 0.000000 -3.970290
v 0.453537 -0.393278 -3.970280
v 0.573845 0.202441 -3.970290
v 0.000001 -0.547631 -3.970280
v 0.000001 -0.823096 -3.500860
v 0.000001 0.468522 -3.426330
v -0.477992 -0.613217 -3.476020
v -0.489339 -0.448263 -3.855000
v -0.434851 0.423607 -3.855000
v -0.666735 -0.006900 -3.855000
v -0.607051 0.208354 -3.855000
v -0.720775 -0.055489 -3.426330
v -0.477260 0.330412 -3.426330
v -0.403039 0.404882 -3.970280
v -0.632295 0.000000 -3.970290
v -0.453537 -0.393279 -3.970280
v -0.573845 0.202441 -3.970290
v 1.144210 0.481104 -3.626010
v 0.597462 1.047850 -3.283910
v 0.643250 1.092790 -3.343240
v 1.189990 0.526037 -3.685350
v 1.187730 -0.495777 -3.573370
v 1.187730 0.228511 -3.436420
v 1.249840 0.229482 -3.500540
v 1.249020 -0.461733 -3.634810
v 1.782150 0.247745 -3.219600
v 1.814630 0.251605 -3.273680
v 1.782150 -0.551812 -3.385080
v 1.813410 -0.548098 -3.437130
v 1.646480 0.737028 -3.418880
v 1.141020 1.411100 -3.004180
v 1.671720 0.763300 -3.463550
v 1.166260 1.437370 -3.048850
v 0.467067 -1.285970 -3.711780
v 0.451799 -1.289670 -3.646560
v 0.949703 -0.759303 -3.605730
v 0.946150 -0.779605 -3.671810
v 0.715660 -1.661840 -3.631980
v 0.719101 -1.679190 -3.595110
v 1.340940 -1.071360 -3.492450
v 1.324960 -1.070020 -3.529900
v 0.259877 0.101344 -4.736260
v 0.259877 0.000000 -4.654800
v 0.259877 -0.073779 -4.736260
v 0.259877 0.000000 -4.815630
v 0.224270 -0.073899 -4.736260
v 0.190110 0.000000 -4.814050
v 0.224256 0.101497 -4.736250
v 0.000000 0.111476 -4.933360
v 0.150752 0.000000 -4.912910
v -0.150752 0.000000 -4.912910
v 0.000000 -0.113938 -4.938180
v -1.806180 -0.000068 -4.917470
v -1.806170 0.206612 -4.736260
v -1.806150 -0.000068 -4.635390
v -1.806170 -0.215902 -4.736260
v -2.458530 0.279903 -4.736260
v -2.458550 -0.000067 -4.635520
v -2.458550 -0.000068 -4.941490
v -2.458530 -0.280515 -4.736260
v -0.597462 1.047850 -3.283910
v -1.144210 0.481104 -3.626010
v -1.189990 0.526037 -3.685350
v -0.643250 1.092790 -3.343240
v -1.187730 0.228511 -3.436420
v -1.187730 -0.495777 -3.573370
v -1.249010 -0.461733 -3.634810
v -1.249840 0.229482 -3.500540
v -1.814630 0.251605 -3.273680
v -1.782150 0.247745 -3.219600
v -1.782150 -0.551812 -3.385080
v -1.813410 -0.548098 -3.437130
v -1.141020 1.411100 -3.004180
v -1.646480 0.737028 -3.418880
v -1.671720 0.763300 -3.463550
v -1.166260 1.437370 -3.048850
v -0.451799 -1.289670 -3.646560
v -0.467067 -1.285970 -3.711780
v -0.949703 -0.759304 -3.605730
v -0.946150 -0.779605 -3.671810
v -0.719101 -1.679190 -3.595110
v -0.715659 -1.661840 -3.631980
v -1.340940 -1.071360 -3.492450
v -1.324960 -1.070020 -3.529900
v -0.259877 0.000000 -4.654800
v -0.259877 0.101344 -4.736260
v -0.259877 0.000000 -4.815630
v -0.259877 -0.073779 -4.736260
v -0.190110 0.000000 -4.814050
v -0.224270 -0.073899 -4.736260
v -0.224256 0.101497 -4.736250
v -1.891900 -0.160353 -5.790590
v -1.471170 0.754149 -5.683180
v -1.433830 -1.170890 -5.689540
v -1.641440 -0.219283 -5.749520
v 1.641440 -0.219283 -5.749520
v 1.433830 -1.170890 -5.689540
v 1.471170 0.754149 -5.683180
v 1.891900 -0.160352 -5.790590
v 1.789540 -0.245854 -5.099730
v 1.624680 0.799102 -5.040790
v 2.025500 -0.197709 -5.145540
v 1.581140 -1.263420 -5.066740
v -1.624690 0.799102 -5.040790
v -1.789540 -0.245854 -5.099730
v -2.025500 -0.197710 -5.145540
v -1.581140 -1.263420 -5.066740
vt 0.451800 0.259376
vt 0.429705 0.296773
vt 0.426784 0.270594
vt 0.451800 0.304452
vt 0.476816 0.270594
vt 0.473894 0.296773
vt 0.451800 0.286230
vt 0.414314 0.120306
vt 0.451800 0.117990
vt 0.488516 0.120305
vt 0.451800 0.122073
vt 0.473018 0.574917
vt 0.451800 0.564097
vt 0.451800 0.579897
vt 0.472677 0.560738
vt 0.451800 0.589494
vt 0.451800 0.558785
vt 0.430581 0.588694
vt 0.431264 0.560739
vt 0.431264 0.556892
vt 0.470173 0.452618
vt 0.451800 0.434057
vt 0.470056 0.443752
vt 0.451800 0.450357
vt 0.470289 0.461484
vt 0.451800 0.466656
vt 0.451800 0.290027
vt 0.451800 0.453497
vt 0.433543 0.443752
vt 0.570295 0.296773
vt 0.548200 0.259376
vt 0.573216 0.270594
vt 0.548200 0.304452
vt 0.566457 0.443752
vt 0.548200 0.434057
vt 0.566573 0.452618
vt 0.548200 0.450357
vt 0.566690 0.461484
vt 0.548200 0.466656
vt 0.568736 0.560739
vt 0.548200 0.558785
vt 0.569419 0.588694
vt 0.548200 0.589494
vt 0.523184 0.270594
vt 0.526106 0.296773
vt 0.529944 0.443752
vt 0.529827 0.452618
vt 0.529711 0.461484
vt 0.527323 0.560738
vt 0.526982 0.574917
vt 0.548200 0.117990
vt 0.548200 0.286230
vt 0.585686 0.120306
vt 0.548200 0.122073
vt 0.511484 0.120305
vt 0.548200 0.579897
vt 0.548200 0.564097
vt 0.568736 0.556892
vt 0.548200 0.290027
vt 0.548200 0.453497
vt 0.581987 0.642111
vt 0.581550 0.722445
vt 0.574702 0.722444
vt 0.589567 0.722445
vt 0.600861 0.642111
vt 0.574700 0.722444
vt 0.418013 0.642111
vt 0.399139 0.642111
vt 0.410433 0.722445
vt 0.425299 0.722444
vt 0.500000 0.722444
vt 0.500000 0.642111
vt 0.425298 0.722444
vt 0.418450 0.722445
vt 0.433310 0.461484
vt 0.433427 0.452618
vt 0.500000 0.594980
vt 0.451800 0.000000
vt 0.548200 0.000000
vt 0.500000 0.812951
vt 0.569237 0.744050
vt 0.543451 0.812951
vt 0.500000 0.744050
vt 0.456549 0.812951
vt 0.430763 0.744050
vt 0.667900 0.656017
vt 0.739410 0.603368
vt 0.743773 0.613503
vt 0.659556 0.644001
vt 0.577089 0.744050
vt 0.659860 0.690652
vt 0.653710 0.679532
vt 0.724574 0.649086
vt 0.721183 0.640714
vt 0.739409 0.634380
vt 0.659556 0.669666
vt 0.815389 0.615772
vt 0.815389 0.581195
vt 0.743609 0.644135
vt 0.667789 0.681181
vt 0.569235 0.744050
vt 0.627580 0.675731
vt 0.627103 0.688115
vt 0.680139 0.654502
vt 0.677991 0.661520
vt 0.653282 0.562998
vt 0.580261 0.615420
vt 0.656672 0.571369
vt 0.586412 0.626539
vt 0.596602 0.673741
vt 0.562744 0.695605
vt 0.596140 0.680651
vt 0.560694 0.683383
vt 0.413588 0.626539
vt 0.419739 0.615420
vt 0.343328 0.571369
vt 0.346718 0.562998
vt 0.634074 0.665270
vt 0.730800 0.644785
vt 0.545679 0.871087
vt 0.753352 0.887545
vt 0.545679 0.887596
vt 0.770317 0.860546
vt 0.753352 0.887536
vt 0.545679 0.899005
vt 0.770321 0.913616
vt 0.781427 0.621884
vt 0.710027 0.526264
vt 0.862701 0.887536
vt 0.876042 0.925495
vt 0.786534 0.887536
vt 0.876042 0.850832
vt 0.537557 0.908655
vt 0.541286 0.887596
vt 0.541284 0.887596
vt 0.500000 1.000000
vt 0.530551 0.920702
vt 0.508269 0.999558
vt 0.500000 0.943798
vt 0.491731 0.999558
vt 0.469449 0.920702
vt 0.543450 0.812951
vt 0.430765 0.744050
vt 0.456550 0.812951
vt 0.415059 0.744050
vt 0.446756 0.812951
vt 0.553244 0.812951
vt 0.584941 0.744050
vt 0.340444 0.644001
vt 0.256227 0.613503
vt 0.260590 0.603368
vt 0.332100 0.656017
vt 0.422911 0.744050
vt 0.346290 0.679532
vt 0.340140 0.690652
vt 0.278817 0.640714
vt 0.275426 0.649086
vt 0.340444 0.669666
vt 0.260591 0.634380
vt 0.184611 0.581195
vt 0.184611 0.615772
vt 0.332211 0.681181
vt 0.256391 0.644135
vt 0.372897 0.688115
vt 0.372420 0.675731
vt 0.322009 0.661520
vt 0.319861 0.654502
vt 0.289973 0.526264
vt 0.218573 0.621884
vt 0.437256 0.695605
vt 0.403398 0.673741
vt 0.403860 0.680651
vt 0.439307 0.683383
vt 0.269200 0.644785
vt 0.365926 0.665270
vt 0.229683 0.860546
vt 0.454321 0.887596
vt 0.246648 0.887545
vt 0.454321 0.871087
vt 0.246648 0.887536
vt 0.229679 0.913616
vt 0.454321 0.899005
vt 0.213466 0.887536
vt 0.123958 0.925495
vt 0.137299 0.887536
vt 0.123958 0.850832
vt 0.458714 0.887596
vt 0.462443 0.908655
vt 0.458716 0.887596
vt 0.537634 0.887596
vt 0.500000 0.887596
vt 0.462366 0.887596
vt 0.770319 0.887536
vt 0.876038 0.887536
vt 0.890592 0.887536
vt 0.229681 0.887536
vt 0.123962 0.887536
vt 0.109408 0.887536
vt 0.500000 0.990611
vt 0.812589 0.834199
vt 0.500000 0.881904
vt 0.843487 0.947335
vt 0.711055 0.957581
vt 1.031890 0.844782
vt 0.849092 0.860791
vt 0.500000 0.904848
vt 0.686619 0.845634
vt 1.035390 0.750022
vt 0.187411 0.834199
vt 0.156512 0.947335
vt -0.035386 0.750022
vt -0.031892 0.844781
vt 0.288945 0.957581
vt 0.150908 0.860791
vt 0.313381 0.845634
vt 0.500000 0.283719
vt 0.892246 0.266397
vt 0.745221 0.371659
vt 0.500000 0.134614
vt 0.254779 0.371659
vt 0.107754 0.266397
vt 0.060508 0.441957
vt 0.140915 0.304612
vt -0.029461 0.208438
vt -0.136227 0.423280
vt 0.939492 0.441957
vt 1.136230 0.423280
vt 1.029460 0.208438
vt 0.859086 0.304612
vt 0.209821 0.015625
vt 0.049107 0.151786
vt 0.178571 0.089286
vt 0.500000 0.437513
vt 0.500000 0.771318
vt 0.500000 0.784586
vt 0.656961 0.777523
vt 0.343039 0.777523
vt 0.198299 0.784187
vt 0.801701 0.784187
vt 0.966907 0.749617
vt 1.167520 0.645343
vt 1.134990 0.665579
vt 1.134530 0.566935
vt 0.871272 0.623416
vt 0.500000 0.699933
vt 0.128728 0.623416
vt 0.500000 0.459600
vt 0.500000 0.227228
vt 0.841800 0.105842
vt 1.073080 0.187744
vt 0.855881 0.079517
vt 0.500000 0.000000
vt 0.500000 0.034985
vt 0.122767 0.079517
vt -0.044654 0.203171
vt -0.073085 0.187744
vt 0.158200 0.105842
vt 0.033093 0.749617
vt -0.167519 0.645343
vt -0.134991 0.665579
vt -0.134536 0.566936
vt 1.044650 0.203171
vt 0.055804 0.156250
vt 0.263393 0.109375
vt 0.238839 0.006696
vt 0.370536 0.381696
vt 0.024554 0.388393
vt 0.691964 0.383929
vt 0.551339 0.156250
vt 0.390625 0.986607
vt 0.377232 0.631696
vt 0.015625 0.640625
vt 0.015625 0.984375
vt 0.832589 0.640625
vt 0.960938 0.986979
vt 0.049534 0.503523
vt 0.483663 0.803559
vt 0.084370 0.796099
vt 0.473032 0.523200
vt 0.013342 0.244950
vt 0.472979 0.263461
vt -0.005313 0.085221
vt 0.466737 0.100051
vt 0.913801 0.523553
vt 0.951246 0.266145
vt 0.973944 0.102499
vt 0.483513 0.110546
vt 0.495560 0.277667
vt 0.500054 0.535692
vt 0.893884 0.704399
vt 0.913800 0.523553
vt 0.472978 0.263461
vt 0.013341 0.244950
vt 0.503544 0.823834
vt 0.922356 0.852345
vt 0.743696 0.958312
vt 0.488906 1.000730
vt 0.111255 0.993680
vt 0.743695 0.958312
vt 0.981867 0.017560
vt 0.491120 0.010981
vt -0.012391 0.000000
vt 0.981866 0.017560
vt 0.570000 0.906000
vt 0.608000 0.938500
vt 0.354000 0.942000
vt 0.336000 0.911000
vt -0.156000 0.913000
vt 0.989000 0.962500
vt 0.791200 0.979450
vt 0.989000 0.980500
vt 0.808000 0.933000
vt 0.351000 0.961500
vt 0.122000 0.943000
vt -0.025000 0.906000
vt -0.152000 0.925000
vt 0.791000 0.979500
vt 0.807000 1.370000
vt 2.173000 0.501000
vt 0.807000 0.501000
vt 1.957000 1.782000
vt 0.807000 -0.370000
vt 1.957000 -0.782000
vt 1.956590 -0.782054
vt 0.807001 0.501115
vt 2.173100 0.501116
vt 2.173100 0.501119
vt 0.807002 0.501115
vt 1.956590 1.782050
vt 0.806997 1.369550
vt 0.328000 0.555000
vt 0.328000 0.447000
vt 0.328497 0.446715
vt 0.328497 0.555391
usemtl mat_0
s 1
f 8/1 1/2 198/3
f 2/1 1/4 8/2
f 199/5 2/4 8/1
f 199/5 3/6 2/4
f 204/7 200/8 198/3
f 204/7 201/9 200/8
f 199/5 201/9 204/7
f 199/5 202/10 201/9
f 8/1 202/10 199/5
f 8/1 203/11 202/10
f 198/3 203/11 8/1
f 198/3 200/8 203/11
f 206/12 9/13 205/14
f 206/12 10/15 9/13
f 208/16 10/15 206/12
f 208/16 12/17 10/15
f 207/18 12/17 208/16
f 207/18 11/19 12/17
f 207/18 205/14 9/13
f 11/20 207/18 9/13
f 211/21 6/22 5/23
f 211/21 212/24 6/22
f 13/25 212/24 211/21
f 13/25 15/26 212/24
f 10/15 15/26 13/25
f 10/15 12/17 15/26
f 7/27 5/23 3/6
f 7/27 209/28 5/23
f 1/2 209/28 7/27
f 1/2 4/29 209/28
f 4/4 1/29 2/2
f 2/4 6/22 4/29
f 3/6 6/22 2/4
f 3/6 5/23 6/22
f 18/30 24/31 213/32
f 18/30 17/33 24/31
f 21/34 17/33 18/30
f 21/34 20/35 17/33
f 225/36 20/35 21/34
f 225/36 224/37 20/35
f 31/38 224/37 225/36
f 31/38 30/39 224/37
f 27/40 30/39 31/38
f 27/40 28/41 30/39
f 222/42 28/41 27/40
f 222/42 223/43 28/41
f 17/33 214/44 24/31
f 17/33 19/45 214/44
f 20/35 19/45 17/33
f 20/35 23/46 19/45
f 224/37 23/46 20/35
f 224/37 227/47 23/46
f 30/39 227/47 224/37
f 30/39 29/48 227/47
f 28/41 29/48 30/39
f 28/41 25/49 29/48
f 223/43 25/49 28/41
f 223/43 220/50 25/49
f 213/32 215/51 219/52
f 213/32 216/53 215/51
f 24/31 216/53 213/32
f 24/31 218/54 216/53
f 214/44 218/54 24/31
f 214/44 217/55 218/54
f 219/52 217/55 214/44
f 219/52 215/51 217/55
f 221/56 25/49 220/50
f 221/56 26/57 25/49
f 222/42 26/57 221/56
f 222/42 27/58 26/57
f 22/59 21/34 18/30
f 22/59 226/60 21/34
f 19/45 226/60 22/59
f 19/45 23/46 226/60
f 249/61 251/62 247/63
f 249/61 248/64 251/62
f 250/65 248/64 249/61
f 250/65 246/61 245/66
f 248/64 250/65 245/66
f 261/67 266/68 264/69
f 262/70 261/67 264/69
f 254/71 249/61 247/63
f 254/71 260/72 249/61
f 263/73 260/72 254/71
f 263/73 267/67 260/72
f 264/69 263/73 265/74
f 264/69 267/67 263/73
f 266/68 267/67 264/69
f 206/12 205/14 221/56
f 220/50 206/12 221/56
f 26/57 29/48 25/49
f 26/57 226/60 29/48
f 27/40 226/60 26/57
f 27/40 31/38 226/60
f 209/28 10/15 13/25
f 209/28 9/13 10/15
f 14/75 9/13 209/28
f 14/75 11/19 9/13
f 15/26 11/19 14/75
f 15/26 12/17 11/19
f 210/76 15/26 14/75
f 210/76 212/24 15/26
f 4/29 212/24 210/76
f 4/29 6/22 212/24
f 210/76 209/28 4/29
f 210/76 14/75 209/28
f 209/28 211/21 5/23
f 209/28 13/25 211/21
f 199/5 7/27 3/6
f 199/5 204/7 7/27
f 198/3 7/27 204/7
f 198/3 1/2 7/27
f 227/47 226/60 23/46
f 227/47 29/48 226/60
f 22/59 214/44 19/45
f 22/59 219/52 214/44
f 213/32 219/52 22/59
f 22/59 18/30 213/32
f 246/61 244/71 245/66
f 246/61 259/72 244/71
f 59/77 259/72 246/61
f 59/77 261/67 259/72
f 205/14 261/67 59/77
f 205/14 266/68 261/67
f 207/18 266/68 205/14
f 207/18 208/16 266/68
f 267/67 266/68 208/16
f 208/16 60/77 267/67
f 206/12 60/77 208/16
f 206/12 220/50 60/77
f 223/43 60/77 220/50
f 223/43 249/61 60/77
f 250/65 249/61 223/43
f 223/43 222/42 250/65
f 221/56 250/65 222/42
f 221/56 246/61 250/65
f 59/77 246/61 221/56
f 221/56 205/14 59/77
f 261/67 244/71 259/72
f 261/67 262/70 244/71
f 260/72 60/77 249/61
f 260/72 267/67 60/77
f 226/60 225/36 21/34
f 226/60 31/38 225/36
f 16/78 201/9 202/10
f 16/78 200/8 201/9
f 203/11 200/8 16/78
f 16/78 202/10 203/11
f 32/79 217/55 215/51
f 32/79 218/54 217/55
f 216/53 218/54 32/79
f 32/79 215/51 216/53
usemtl mat_1
f 238/80 252/81 239/82
f 238/80 253/83 252/81
f 242/84 253/83 238/80
f 242/84 268/85 253/83
f 278/86 280/87 281/88
f 278/86 277/89 280/87
f 257/90 277/89 278/86
f 257/90 251/62 277/89
f 275/91 251/62 257/90
f 275/91 272/92 251/62
f 286/93 272/92 275/91
f 286/93 284/94 272/92
f 282/95 277/89 276/96
f 282/95 280/87 277/89
f 50/97 280/87 282/95
f 50/97 49/98 280/87
f 276/96 283/99 282/95
f 276/96 279/100 283/99
f 245/66 279/100 276/96
f 245/66 256/101 279/100
f 290/102 256/101 245/66
f 290/102 291/103 256/101
f 294/104 291/103 290/102
f 294/104 295/105 291/103
f 285/106 272/92 284/94
f 285/106 273/107 272/92
f 287/108 273/107 285/106
f 287/108 274/109 273/107
f 293/110 288/111 292/112
f 293/110 289/113 288/111
f 294/104 289/113 293/110
f 294/104 290/102 289/113
f 289/113 258/83 288/111
f 289/113 244/71 258/83
f 290/102 244/71 289/113
f 290/102 245/66 244/71
f 253/83 273/107 274/109
f 253/83 254/71 273/107
f 318/114 254/71 253/83
f 318/114 315/115 254/71
f 330/116 315/115 318/114
f 330/116 327/117 315/115
f 48/118 47/119 294/104
f 293/110 48/118 294/104
f 297/120 33/121 296/122
f 297/120 230/123 33/121
f 298/122 230/123 297/120
f 298/122 34/124 230/123
f 299/125 34/124 298/122
f 299/125 229/126 34/124
f 296/122 229/126 299/125
f 296/122 33/121 229/126
f 285/106 284/94 46/127
f 45/128 285/106 46/127
f 38/129 229/126 234/130
f 38/129 37/131 229/126
f 232/132 37/131 38/129
f 232/132 230/123 37/131
f 35/129 230/123 232/132
f 35/129 36/131 230/123
f 234/130 36/131 35/129
f 234/130 229/126 36/131
f 301/133 298/122 300/134
f 301/133 299/125 298/122
f 302/135 299/125 301/133
f 302/135 296/122 299/125
f 63/136 304/137 61/138
f 63/136 303/139 304/137
f 65/140 303/139 63/136
f 65/140 305/141 303/139
f 67/136 305/141 65/140
f 67/136 306/139 305/141
f 61/138 306/139 67/136
f 61/138 304/137 306/139
f 258/83 240/142 256/101
f 258/83 236/80 240/142
f 270/143 236/80 258/83
f 270/143 237/144 236/80
f 269/145 237/144 270/143
f 269/145 243/146 237/144
f 252/81 241/147 239/82
f 252/81 255/148 241/147
f 257/90 255/148 252/81
f 255/148 256/101 240/142
f 241/147 255/148 240/142
f 319/149 323/150 324/151
f 319/149 322/152 323/150
f 265/74 322/152 319/149
f 265/74 271/153 322/152
f 316/154 271/153 265/74
f 316/154 317/155 271/153
f 328/156 317/155 316/154
f 328/156 329/157 317/155
f 324/151 320/158 319/149
f 324/151 325/159 320/158
f 172/160 325/159 324/151
f 172/160 173/161 325/159
f 321/162 325/159 326/163
f 321/162 320/158 325/159
f 270/143 320/158 321/162
f 270/143 262/70 320/158
f 334/164 262/70 270/143
f 334/164 333/165 262/70
f 338/166 333/165 334/164
f 338/166 337/167 333/165
f 327/117 316/154 315/115
f 327/117 328/156 316/154
f 169/168 328/156 327/117
f 169/168 168/169 328/156
f 332/170 335/171 336/172
f 332/170 331/173 335/171
f 258/83 331/173 332/170
f 258/83 244/71 331/173
f 331/173 337/167 335/171
f 331/173 333/165 337/167
f 244/71 333/165 331/173
f 244/71 262/70 333/165
f 170/174 171/175 335/171
f 337/167 170/174 335/171
f 309/176 340/177 162/178
f 309/176 339/179 340/177
f 163/180 339/179 309/176
f 163/180 342/177 339/179
f 307/181 342/177 163/180
f 307/181 341/182 342/177
f 162/178 341/182 307/181
f 162/178 340/177 341/182
f 166/183 313/184 307/181
f 166/183 167/185 313/184
f 309/176 167/185 166/183
f 309/176 312/186 167/185
f 165/183 312/186 309/176
f 165/183 164/185 312/186
f 307/181 164/185 165/183
f 307/181 313/184 164/185
f 341/182 344/187 342/177
f 341/182 343/188 344/187
f 340/177 343/188 341/182
f 340/177 345/189 343/188
f 269/145 242/84 243/146
f 269/145 268/85 242/84
f 271/153 268/85 269/145
f 276/96 248/64 245/66
f 276/96 277/89 248/64
f 251/62 248/64 277/89
f 274/109 252/81 253/83
f 274/109 275/91 252/81
f 287/108 275/91 274/109
f 287/108 286/93 275/91
f 45/128 286/93 287/108
f 45/128 46/127 286/93
f 284/94 286/93 46/127
f 285/106 45/128 287/108
f 275/91 257/90 252/81
f 247/63 273/107 254/71
f 247/63 272/92 273/107
f 251/62 272/92 247/63
f 255/148 279/100 256/101
f 255/148 278/86 279/100
f 257/90 278/86 255/148
f 281/88 279/100 278/86
f 281/88 283/99 279/100
f 49/98 283/99 281/88
f 49/98 50/97 283/99
f 282/95 283/99 50/97
f 280/87 49/98 281/88
f 291/103 258/83 256/101
f 291/103 288/111 258/83
f 295/105 288/111 291/103
f 295/105 292/112 288/111
f 47/119 292/112 295/105
f 47/119 48/118 292/112
f 293/110 292/112 48/118
f 294/104 47/119 295/105
f 302/135 297/120 296/122
f 302/135 241/147 297/120
f 239/82 241/147 302/135
f 302/135 41/190 239/82
f 301/133 41/190 302/135
f 301/133 304/137 41/190
f 42/190 304/137 301/133
f 42/190 306/139 304/137
f 39/191 306/139 42/190
f 39/191 43/192 306/139
f 237/144 43/192 39/191
f 237/144 344/187 43/192
f 243/146 344/187 237/144
f 243/146 339/179 344/187
f 345/189 339/179 243/146
f 345/189 340/177 339/179
f 342/177 344/187 339/179
f 39/191 236/80 237/144
f 39/191 240/142 236/80
f 42/190 240/142 39/191
f 42/190 300/134 240/142
f 301/133 300/134 42/190
f 242/84 345/189 243/146
f 242/84 44/192 345/189
f 40/191 44/192 242/84
f 40/191 303/139 44/192
f 41/190 303/139 40/191
f 41/190 304/137 303/139
f 40/191 239/82 41/190
f 40/191 238/80 239/82
f 242/84 238/80 40/191
f 343/188 43/192 344/187
f 343/188 305/141 43/192
f 44/192 305/141 343/188
f 44/192 303/139 305/141
f 343/188 345/189 44/192
f 305/141 306/139 43/192
f 300/134 241/147 240/142
f 300/134 297/120 241/147
f 298/122 297/120 300/134
f 264/69 320/158 262/70
f 264/69 319/149 320/158
f 265/74 319/149 264/69
f 268/85 318/114 253/83
f 268/85 317/155 318/114
f 271/153 317/155 268/85
f 329/157 318/114 317/155
f 329/157 330/116 318/114
f 168/169 330/116 329/157
f 168/169 169/168 330/116
f 327/117 330/116 169/168
f 328/156 168/169 329/157
f 315/115 263/73 254/71
f 315/115 316/154 263/73
f 265/74 263/73 316/154
f 321/162 269/145 270/143
f 321/162 322/152 269/145
f 326/163 322/152 321/162
f 326/163 323/150 322/152
f 173/161 323/150 326/163
f 173/161 172/160 323/150
f 324/151 323/150 172/160
f 322/152 271/153 269/145
f 325/159 173/161 326/163
f 338/166 170/174 337/167
f 338/166 171/175 170/174
f 336/172 171/175 338/166
f 336/172 335/171 171/175
f 334/164 336/172 338/166
f 334/164 332/170 336/172
f 270/143 332/170 334/164
f 270/143 258/83 332/170
f 228/193 229/126 33/121
f 228/193 36/131 229/126
f 230/123 36/131 228/193
f 228/193 33/121 230/123
f 233/194 35/129 232/132
f 233/194 234/130 35/129
f 55/195 234/130 233/194
f 233/194 232/132 55/195
f 231/193 229/126 37/131
f 231/193 34/124 229/126
f 230/123 34/124 231/193
f 231/193 37/131 230/123
f 235/194 232/132 38/129
f 235/194 51/195 232/132
f 234/130 51/195 235/194
f 235/194 38/129 234/130
f 308/196 162/178 307/181
f 308/196 309/176 162/178
f 165/183 309/176 308/196
f 308/196 307/181 165/183
f 311/197 312/186 164/185
f 311/197 179/198 312/186
f 313/184 179/198 311/197
f 311/197 164/185 313/184
f 310/196 166/183 307/181
f 310/196 309/176 166/183
f 163/180 309/176 310/196
f 310/196 307/181 163/180
f 314/197 167/185 312/186
f 314/197 313/184 167/185
f 176/198 313/184 314/197
f 314/197 312/186 176/198
usemtl mat_2
f 80/199 78/200 79/201
f 80/199 81/202 78/200
f 82/136 81/202 80/199
f 82/136 83/203 81/202
f 83/203 97/204 81/202
f 83/203 89/205 97/204
f 84/206 89/205 83/203
f 84/206 85/207 89/205
f 78/200 81/202 97/204
f 95/208 78/200 97/204
f 103/209 80/199 79/201
f 103/209 102/210 80/199
f 111/211 102/210 103/209
f 111/211 110/212 102/210
f 102/210 82/136 80/199
f 102/210 104/213 82/136
f 110/212 104/213 102/210
f 110/212 69/214 104/213
f 104/213 69/214 88/215
f 84/206 104/213 88/215
f 122/216 114/217 112/218
f 122/216 123/219 114/217
f 130/220 123/219 122/216
f 130/220 118/221 123/219
f 108/222 133/223 156/224
f 109/225 108/222 156/224
f 94/226 120/227 128/228
f 121/229 94/226 128/228
f 68/230 112/231 62/232
f 66/232 130/231 68/230
f 82/136 84/206 83/203
f 82/136 104/213 84/206
f 122/216 68/233 130/220
f 122/216 112/218 68/233
f 87/234 152/235 141/236
f 87/234 74/237 152/235
f 72/237 69/214 70/238
f 72/237 88/215 69/214
f 86/234 88/215 72/237
f 86/234 84/206 88/215
f 85/207 84/206 86/234
f 86/234 140/236 85/207
f 89/205 85/207 140/236
f 140/236 90/239 89/205
f 92/240 89/205 90/239
f 92/240 97/204 89/205
f 105/241 97/204 92/240
f 105/241 158/242 97/204
f 95/208 97/204 158/242
f 158/242 96/243 95/208
f 76/244 95/208 96/243
f 76/244 78/200 95/208
f 75/245 78/200 76/244
f 75/245 79/201 78/200
f 103/209 79/201 75/245
f 75/245 101/246 103/209
f 77/247 101/246 75/245
f 77/247 108/222 101/246
f 133/223 108/222 77/247
f 77/247 129/248 133/223
f 121/229 129/248 77/247
f 121/229 127/249 129/248
f 128/228 127/249 121/229
f 128/228 153/250 127/249
f 159/251 127/249 153/250
f 159/251 125/252 127/249
f 124/253 125/252 159/251
f 124/253 131/254 125/252
f 117/255 131/254 124/253
f 117/255 160/256 131/254
f 132/257 131/254 160/256
f 132/257 125/252 131/254
f 126/253 125/252 132/257
f 126/253 127/249 125/252
f 129/248 127/249 126/253
f 126/253 132/257 129/248
f 133/223 129/248 132/257
f 132/257 156/224 133/223
f 160/256 156/224 132/257
f 76/244 77/247 75/245
f 76/244 94/226 77/247
f 120/227 94/226 76/244
f 76/244 96/243 120/227
f 121/229 77/247 94/226
f 69/214 106/258 70/238
f 69/214 110/212 106/258
f 100/259 106/258 110/212
f 110/212 157/260 100/259
f 111/211 157/260 110/212
f 111/211 155/261 157/260
f 101/246 155/261 111/211
f 101/246 109/225 155/261
f 108/222 109/225 101/246
f 101/246 111/211 103/209
f 116/262 159/251 153/250
f 116/262 124/253 159/251
f 114/217 124/253 116/262
f 114/217 123/219 124/253
f 118/221 124/253 123/219
f 118/221 117/255 124/253
usemtl mat_3
f 112/263 113/264 62/265
f 115/266 112/263 114/267
f 115/266 113/264 112/263
f 146/268 113/264 115/266
f 146/268 148/269 113/264
f 134/264 118/267 130/263
f 134/264 119/266 118/267
f 135/269 119/266 134/264
f 135/269 136/268 119/266
f 62/269 113/264 148/265
f 154/270 145/271 116/272
f 153/273 154/270 116/272
f 161/270 160/273 117/272
f 98/271 161/270 117/272
f 116/272 115/266 114/267
f 116/272 145/271 115/266
f 146/268 115/266 145/271
f 145/271 144/274 146/268
f 105/275 144/274 145/271
f 145/271 154/270 105/275
f 119/266 117/272 118/267
f 119/266 98/271 117/272
f 136/268 98/271 119/266
f 136/268 99/274 98/271
f 100/275 98/271 99/274
f 100/275 161/270 98/271
f 134/264 66/265 135/269
f 134/264 130/263 66/265
usemtl mat_4
f 351/276 154/277 153/278
f 351/276 350/279 154/277
f 357/280 350/279 351/276
f 357/280 354/281 350/279
f 188/282 354/281 357/280
f 188/282 185/283 354/281
f 354/281 352/284 350/279
f 354/281 355/285 352/284
f 185/283 355/285 354/281
f 185/283 184/286 355/285
f 189/287 355/285 184/286
f 189/287 356/288 355/285
f 188/282 356/288 189/287
f 188/282 357/280 356/288
f 353/289 357/280 351/276
f 353/289 356/288 357/280
f 352/284 356/288 353/289
f 352/284 355/285 356/288
f 154/277 350/279 352/284
f 105/290 154/277 352/284
f 161/277 348/276 160/278
f 161/277 349/279 348/276
f 100/290 349/279 161/277
f 100/290 347/291 349/279
f 347/291 359/292 349/279
f 347/291 358/285 359/292
f 346/289 358/285 347/291
f 346/289 360/288 358/285
f 348/276 360/288 346/289
f 348/276 361/293 360/288
f 349/279 361/293 348/276
f 349/279 359/292 361/293
f 360/288 192/286 358/285
f 360/288 196/287 192/286
f 361/293 196/287 360/288
f 361/293 197/282 196/287
f 359/292 197/282 361/293
f 359/292 191/283 197/282
f 358/285 191/283 359/292
f 358/285 192/286 191/283
f 100/290 346/289 347/291
f 100/290 190/294 346/289
f 157/295 190/294 100/290
f 157/295 155/296 190/294
f 109/297 190/294 155/296
f 109/297 156/298 190/294
f 160/278 190/294 156/298
f 160/278 346/289 190/294
f 348/276 346/289 160/278
f 353/289 105/290 352/284
f 353/289 182/294 105/290
f 153/278 182/294 353/289
f 153/278 128/298 182/294
f 120/297 182/294 128/298
f 120/297 96/299 182/294
f 158/295 182/294 96/299
f 158/295 105/290 182/294
f 353/289 351/276 153/278
f 185/283 183/300 184/286
f 185/283 187/301 183/300
f 186/302 187/301 185/283
f 186/302 189/287 187/301
f 188/282 189/287 186/302
f 186/302 185/283 188/282
f 189/287 183/300 187/301
f 189/287 184/286 183/300
f 192/286 193/303 191/283
f 192/286 196/287 193/303
f 194/301 193/303 196/287
f 194/301 191/283 193/303
f 195/302 191/283 194/301
f 195/302 197/282 191/283
f 196/287 197/282 195/302
f 195/302 194/301 196/287
usemtl mat_5
f 148/304 143/305 142/306
f 147/307 148/304 142/306
f 149/308 135/308 66/308
f 64/308 149/308 66/308
f 135/304 149/307 138/306
f 137/305 135/304 138/306
f 148/308 147/308 64/308
f 62/308 148/308 64/308
f 99/309 107/310 100/311
f 99/309 137/305 107/310
f 136/312 137/305 99/309
f 136/312 135/304 137/305
f 137/305 71/313 107/310
f 137/305 138/306 71/313
f 73/314 71/313 138/306
f 138/306 149/307 73/314
f 150/315 73/314 149/307
f 150/315 151/316 73/314
f 139/314 151/316 150/315
f 150/315 147/307 139/314
f 142/306 139/314 147/307
f 142/306 91/313 139/314
f 143/305 91/313 142/306
f 143/305 93/317 91/313
f 144/309 93/317 143/305
f 144/309 105/311 93/317
f 143/305 146/312 144/309
f 143/305 148/304 146/312
f 150/308 64/308 147/308
f 150/308 149/308 64/308
usemtl mat_6
f 53/318 234/319 52/320
f 53/318 51/321 234/319
f 54/320 51/321 53/318
f 54/320 232/319 51/321
f 56/322 232/319 54/320
f 56/322 55/323 232/319
f 52/320 55/323 56/322
f 52/320 234/319 55/323
f 176/324 175/325 313/326
f 176/324 174/322 175/325
f 312/327 174/322 176/324
f 312/327 177/328 174/322
f 179/329 177/328 312/327
f 179/329 178/330 177/328
f 313/326 178/330 179/329
f 313/326 175/325 178/330
f 53/318 57/331 54/320
f 53/318 52/320 57/331
f 54/320 57/331 52/320
f 52/320 58/332 54/320
f 56/322 58/332 52/320
f 56/322 54/320 58/332
f 177/328 180/333 174/322
f 177/328 175/325 180/333
f 181/334 175/325 177/328
f 181/334 178/330 175/325
f 177/328 178/330 181/334
f 175/325 174/322 180/333
