xof 0303txt 0032

template AnimTicksPerSecond {
  <9E415A43-7BA6-4a73-8743-B73D47E88476>
  DWORD AnimTicksPerSecond;
}

template XSkinMeshHeader {
  <3cf169ce-ff7c-44ab-93c0-f78f62d172e2>
  WORD nMaxSkinWeightsPerVertex;
  WORD nMaxSkinWeightsPerFace;
  WORD nBones;
}

template SkinWeights {
  <6f0d123b-bad2-4167-a0d0-80224f25fabb>
  STRING transformNodeName;
  DWORD nWeights;
  array DWORD vertexIndices[nWeights];
  array float weights[nWeights];
  Matrix4x4 matrixOffset;
}

Frame Root {
  FrameTransformMatrix {
     1.000000, 0.000000, 0.000000, 0.000000,
     0.000000, 0.000000, 1.000000, 0.000000,
     0.000000, 1.000000,-0.000000, 0.000000,
     0.000000, 0.000000, 0.000000, 1.000000;;
  }
  Frame meganium_mat_3 {
    FrameTransformMatrix {
       1.000000, 0.000000, 0.000000, 0.000000,
       0.000000, 1.000000, 0.000000, 0.000000,
       0.000000, 0.000000, 1.000000, 0.000000,
       0.000000, 0.000000, 0.000000, 1.000000;;
    }
    Mesh { //Mesh Mesh
      180;
      -2.243640; 8.749344; 4.527268;,
      -4.281130; 8.976068; 4.995287;,
      -1.211750; 7.085864; 5.397759;,
      -4.281130; 8.976068; 4.995287;,
      -2.836770; 7.021757; 6.660030;,
      -1.211750; 7.085864; 5.397759;,
      -0.176138; 6.218194; 7.060440;,
      -1.211750; 7.085864; 5.397759;,
      -2.836770; 7.021757; 6.660030;,
      -2.836770; 7.021757; 6.660030;,
      -1.342810; 5.378809; 8.595418;,
      -0.176138; 6.218194; 7.060440;,
       3.761790; 5.262026; 9.048204;,
       4.813873; 6.575519; 7.827817;,
       1.342810; 5.378809; 8.595418;,
       4.813873; 6.575519; 7.827817;,
       2.836771; 7.021756; 6.660031;,
       1.342810; 5.378809; 8.595418;,
       1.342810; 5.378809; 8.595418;,
       2.836771; 7.021756; 6.660031;,
       0.176139; 6.218194; 7.060440;,
       2.836771; 7.021756; 6.660031;,
       1.211340; 7.099327; 5.410866;,
       0.176139; 6.218194; 7.060440;,
       4.813873; 6.575519; 7.827817;,
       5.839489; 7.805667; 6.502540;,
       2.836771; 7.021756; 6.660031;,
       5.839489; 7.805667; 6.502540;,
       4.281120; 8.976067; 4.995297;,
       2.836771; 7.021756; 6.660031;,
       2.836771; 7.021756; 6.660031;,
       4.281120; 8.976067; 4.995297;,
       1.211340; 7.099327; 5.410866;,
       4.281120; 8.976067; 4.995297;,
       2.243640; 8.749344; 4.527268;,
       1.211340; 7.099327; 5.410866;,
       2.077700;12.411018; 1.893448;,
       0.000001;12.468952; 1.929712;,
       2.938320;10.619965; 3.350033;,
       0.000001;12.468952; 1.929712;,
       0.000000;10.494658; 3.184327;,
       2.938320;10.619965; 3.350033;,
       2.938320;10.619965; 3.350033;,
       0.000000;10.494658; 3.184327;,
       2.067500; 8.965508; 4.311048;,
       0.000000;10.494658; 3.184327;,
       0.000000; 8.570397; 3.912014;,
       2.067500; 8.965508; 4.311048;,
       0.000001;12.468952; 1.929712;,
      -2.077700;12.411031; 1.893461;,
       0.000000;10.494658; 3.184327;,
      -2.077700;12.411031; 1.893461;,
      -2.938320;10.619966; 3.350033;,
       0.000000;10.494658; 3.184327;,
       0.000000;10.494658; 3.184327;,
      -2.938320;10.619966; 3.350033;,
       0.000000; 8.570397; 3.912014;,
      -2.938320;10.619966; 3.350033;,
      -2.067500; 8.965508; 4.311048;,
       0.000000; 8.570397; 3.912014;,
      -3.761800; 5.262021; 9.048180;,
      -1.342810; 5.378809; 8.595418;,
      -4.813873; 6.575511; 7.827798;,
      -1.342810; 5.378809; 8.595418;,
      -2.836770; 7.021757; 6.660030;,
      -4.813873; 6.575511; 7.827798;,
      -4.813873; 6.575511; 7.827798;,
      -2.836770; 7.021757; 6.660030;,
      -5.839499; 7.805674; 6.502526;,
      -2.836770; 7.021757; 6.660030;,
      -4.281130; 8.976068; 4.995287;,
      -5.839499; 7.805674; 6.502526;,
      -3.785666;11.312148; 2.150446;,
      -4.822226;10.085928; 3.470726;,
      -1.356400;11.052504; 2.468911;,
      -4.822226;10.085928; 3.470726;,
      -2.834110; 9.110588; 4.118793;,
      -1.356400;11.052504; 2.468911;,
      -1.356400;11.052504; 2.468911;,
      -2.834110; 9.110588; 4.118793;,
      -0.166509; 9.564562; 3.457443;,
      -2.834110; 9.110588; 4.118793;,
      -1.211280; 8.131573; 4.465041;,
      -0.166509; 9.564562; 3.457443;,
      -4.822226;10.085928; 3.470726;,
      -5.863367; 8.768507; 4.696119;,
      -2.834110; 9.110588; 4.118793;,
      -5.863367; 8.768507; 4.696119;,
      -4.294720; 7.455276; 6.069034;,
      -2.834110; 9.110588; 4.118793;,
      -2.834110; 9.110588; 4.118793;,
      -4.294720; 7.455276; 6.069034;,
      -1.211280; 8.131573; 4.465041;,
      -4.294720; 7.455276; 6.069034;,
      -2.234011; 7.033402; 5.990613;,
      -1.211280; 8.131573; 4.465041;,
      -2.077700; 4.133896; 9.334457;,
       0.000000; 4.182289; 9.379090;,
      -2.938320; 5.794688; 7.730939;,
       0.000000; 4.182289; 9.379090;,
       0.000001; 5.640915; 7.591238;,
      -2.938320; 5.794688; 7.730939;,
      -2.938320; 5.794688; 7.730939;,
       0.000001; 5.640915; 7.591238;,
      -2.057831; 6.817328; 6.206953;,
       0.000001; 5.640915; 7.591238;,
       0.000001; 6.634057; 5.937142;,
      -2.057831; 6.817328; 6.206953;,
       0.000000; 4.182289; 9.379090;,
       2.077700; 4.133887; 9.334447;,
       0.000001; 5.640915; 7.591238;,
       2.077700; 4.133887; 9.334447;,
       2.938320; 5.794688; 7.730939;,
       0.000001; 5.640915; 7.591238;,
       0.000001; 5.640915; 7.591238;,
       2.938320; 5.794688; 7.730939;,
       0.000001; 6.634057; 5.937142;,
       2.938320; 5.794688; 7.730939;,
       2.077169; 6.817328; 6.206953;,
       0.000001; 6.634057; 5.937142;,
       5.863378; 8.768517; 4.696139;,
       4.822237;10.085934; 3.470741;,
       4.294720; 7.455276; 6.069034;,
       4.822237;10.085934; 3.470741;,
       2.834111; 9.110588; 4.118804;,
       4.294720; 7.455276; 6.069034;,
       4.294720; 7.455276; 6.069034;,
       2.834111; 9.110588; 4.118804;,
       2.253349; 7.033402; 5.990613;,
       2.834111; 9.110588; 4.118804;,
       1.211670; 8.118440; 4.451601;,
       2.253349; 7.033402; 5.990613;,
       4.822237;10.085934; 3.470741;,
       3.785667;11.312168; 2.150465;,
       2.834111; 9.110588; 4.118804;,
       3.785667;11.312168; 2.150465;,
       1.356400;11.052504; 2.468911;,
       2.834111; 9.110588; 4.118804;,
       2.834111; 9.110588; 4.118804;,
       1.356400;11.052504; 2.468911;,
       1.211670; 8.118440; 4.451601;,
       1.356400;11.052504; 2.468911;,
       0.185845; 9.564562; 3.457443;,
       1.211670; 8.118440; 4.451601;,
       5.839489; 7.805667; 6.502540;,
       4.813873; 6.575519; 7.827817;,
       6.182879; 5.976111; 8.346210;,
       4.813873; 6.575519; 7.827817;,
       3.761790; 5.262026; 9.048204;,
       6.182879; 5.976111; 8.346210;,
      -2.077700;12.411031; 1.893461;,
       0.000001;12.468952; 1.929712;,
       0.000001;13.545568; 0.770772;,
       0.000001;12.468952; 1.929712;,
       2.077700;12.411018; 1.893448;,
       0.000001;13.545568; 0.770772;,
      -5.839499; 7.805674; 6.502526;,
      -6.182889; 5.976127; 8.346207;,
      -4.813873; 6.575511; 7.827798;,
      -6.182889; 5.976127; 8.346207;,
      -3.761800; 5.262021; 9.048180;,
      -4.813873; 6.575511; 7.827798;,
      -5.863367; 8.768507; 4.696119;,
      -4.822226;10.085928; 3.470726;,
      -6.196465;10.462541; 2.725430;,
      -4.822226;10.085928; 3.470726;,
      -3.785666;11.312148; 2.150446;,
      -6.196465;10.462541; 2.725430;,
       2.077700; 4.133887; 9.334447;,
       0.000000; 4.182289; 9.379090;,
       0.000001; 2.876498;10.317561;,
       0.000000; 4.182289; 9.379090;,
      -2.077700; 4.133896; 9.334457;,
       0.000001; 2.876498;10.317561;,
       3.785667;11.312168; 2.150465;,
       4.822237;10.085934; 3.470741;,
       6.196472;10.462528; 2.725431;,
       4.822237;10.085934; 3.470741;,
       5.863378; 8.768517; 4.696139;,
       6.196472;10.462528; 2.725431;;
      60;
      3;0;1;2;,
      3;3;4;5;,
      3;6;7;8;,
      3;9;10;11;,
      3;12;13;14;,
      3;15;16;17;,
      3;18;19;20;,
      3;21;22;23;,
      3;24;25;26;,
      3;27;28;29;,
      3;30;31;32;,
      3;33;34;35;,
      3;36;37;38;,
      3;39;40;41;,
      3;42;43;44;,
      3;45;46;47;,
      3;48;49;50;,
      3;51;52;53;,
      3;54;55;56;,
      3;57;58;59;,
      3;60;61;62;,
      3;63;64;65;,
      3;66;67;68;,
      3;69;70;71;,
      3;72;73;74;,
      3;75;76;77;,
      3;78;79;80;,
      3;81;82;83;,
      3;84;85;86;,
      3;87;88;89;,
      3;90;91;92;,
      3;93;94;95;,
      3;96;97;98;,
      3;99;100;101;,
      3;102;103;104;,
      3;105;106;107;,
      3;108;109;110;,
      3;111;112;113;,
      3;114;115;116;,
      3;117;118;119;,
      3;120;121;122;,
      3;123;124;125;,
      3;126;127;128;,
      3;129;130;131;,
      3;132;133;134;,
      3;135;136;137;,
      3;138;139;140;,
      3;141;142;143;,
      3;144;145;146;,
      3;147;148;149;,
      3;150;151;152;,
      3;153;154;155;,
      3;156;157;158;,
      3;159;160;161;,
      3;162;163;164;,
      3;165;166;167;,
      3;168;169;170;,
      3;171;172;173;,
      3;174;175;176;,
      3;177;178;179;;
      MeshNormals { //Mesh Normals
        180;
         0.243965; 0.564104; 0.788812;,
         0.233833; 0.689108; 0.685842;,
         0.289010; 0.817866; 0.497513;,
         0.233833; 0.689108; 0.685842;,
         0.227180; 0.799982; 0.555315;,
         0.289010; 0.817866; 0.497513;,
         0.187078; 0.857875; 0.478530;,
         0.289010; 0.817866; 0.497513;,
         0.227180; 0.799982; 0.555315;,
         0.227180; 0.799982; 0.555315;,
         0.143101; 0.790094; 0.596026;,
         0.187078; 0.857875; 0.478530;,
        -0.067110; 0.707450; 0.703543;,
        -0.059725; 0.741234; 0.668538;,
        -0.143132; 0.790094; 0.595996;,
        -0.059725; 0.741234; 0.668538;,
        -0.225013; 0.798914; 0.557726;,
        -0.143132; 0.790094; 0.595996;,
        -0.143132; 0.790094; 0.595996;,
        -0.225013; 0.798914; 0.557726;,
        -0.185919; 0.855953; 0.482406;,
        -0.225013; 0.798914; 0.557726;,
        -0.284982; 0.816279; 0.502396;,
        -0.185919; 0.855953; 0.482406;,
        -0.059725; 0.741234; 0.668538;,
        -0.107669; 0.736595; 0.667684;,
        -0.225013; 0.798914; 0.557726;,
        -0.107669; 0.736595; 0.667684;,
        -0.231758; 0.690237; 0.685415;,
        -0.225013; 0.798914; 0.557726;,
        -0.225013; 0.798914; 0.557726;,
        -0.231758; 0.690237; 0.685415;,
        -0.284982; 0.816279; 0.502396;,
        -0.231758; 0.690237; 0.685415;,
        -0.243568; 0.571856; 0.783319;,
        -0.284982; 0.816279; 0.502396;,
         0.031526; 0.663839; 0.747185;,
        -0.014283; 0.650563; 0.759270;,
        -0.046907; 0.557390; 0.828913;,
        -0.014283; 0.650563; 0.759270;,
        -0.035920; 0.477767; 0.877743;,
        -0.046907; 0.557390; 0.828913;,
        -0.046907; 0.557390; 0.828913;,
        -0.035920; 0.477767; 0.877743;,
        -0.138462; 0.459273; 0.877407;,
        -0.035920; 0.477767; 0.877743;,
        -0.051393; 0.400952; 0.914640;,
        -0.138462; 0.459273; 0.877407;,
        -0.014283; 0.650563; 0.759270;,
         0.011963; 0.619434; 0.784936;,
        -0.035920; 0.477767; 0.877743;,
         0.011963; 0.619434; 0.784936;,
         0.115299; 0.543901; 0.831172;,
        -0.035920; 0.477767; 0.877743;,
        -0.035920; 0.477767; 0.877743;,
         0.115299; 0.543901; 0.831172;,
        -0.051393; 0.400952; 0.914640;,
         0.115299; 0.543901; 0.831172;,
         0.259987; 0.583667; 0.769219;,
        -0.051393; 0.400952; 0.914640;,
         0.067110; 0.707450; 0.703543;,
         0.143101; 0.790094; 0.596026;,
         0.059725; 0.741234; 0.668538;,
         0.143101; 0.790094; 0.596026;,
         0.227180; 0.799982; 0.555315;,
         0.059725; 0.741234; 0.668538;,
         0.059725; 0.741234; 0.668538;,
         0.227180; 0.799982; 0.555315;,
         0.107669; 0.736595; 0.667684;,
         0.227180; 0.799982; 0.555315;,
         0.233833; 0.689108; 0.685842;,
         0.107669; 0.736595; 0.667684;,
        -0.039308; 0.747337; 0.663228;,
        -0.046052; 0.713248; 0.699362;,
         0.057680; 0.642048; 0.764458;,
        -0.046052; 0.713248; 0.699362;,
         0.114200; 0.634846; 0.764122;,
         0.057680; 0.642048; 0.764458;,
         0.057680; 0.642048; 0.764458;,
         0.114200; 0.634846; 0.764122;,
         0.105869; 0.567461; 0.816553;,
         0.114200; 0.634846; 0.764122;,
         0.170660; 0.600024; 0.781549;,
         0.105869; 0.567461; 0.816553;,
        -0.046052; 0.713248; 0.699362;,
         0.001251; 0.716330; 0.697745;,
         0.114200; 0.634846; 0.764122;,
         0.001251; 0.716330; 0.697745;,
         0.122959; 0.723655; 0.679098;,
         0.114200; 0.634846; 0.764122;,
         0.114200; 0.634846; 0.764122;,
         0.122959; 0.723655; 0.679098;,
         0.170660; 0.600024; 0.781549;,
         0.122959; 0.723655; 0.679098;,
         0.176061; 0.739158; 0.650105;,
         0.170660; 0.600024; 0.781549;,
        -0.031495; 0.660665; 0.749992;,
         0.014863; 0.675069; 0.737571;,
         0.046388; 0.772576; 0.633168;,
         0.014863; 0.675069; 0.737571;,
         0.022034; 0.805353; 0.592364;,
         0.046388; 0.772576; 0.633168;,
         0.046388; 0.772576; 0.633168;,
         0.022034; 0.805353; 0.592364;,
         0.097262; 0.825068; 0.556536;,
         0.022034; 0.805353; 0.592364;,
         0.022828; 0.846095; 0.532517;,
         0.097262; 0.825068; 0.556536;,
         0.014863; 0.675069; 0.737571;,
        -0.011658; 0.703604; 0.710471;,
         0.022034; 0.805353; 0.592364;,
        -0.011658; 0.703604; 0.710471;,
        -0.088809; 0.767266; 0.635121;,
         0.022034; 0.805353; 0.592364;,
         0.022034; 0.805353; 0.592364;,
        -0.088809; 0.767266; 0.635121;,
         0.022828; 0.846095; 0.532517;,
        -0.088809; 0.767266; 0.635121;,
        -0.147740; 0.780602; 0.607288;,
         0.022828; 0.846095; 0.532517;,
         0.070803; 0.708792; 0.701834;,
         0.031190; 0.731468; 0.681143;,
        -0.107547; 0.697623; 0.708304;,
         0.031190; 0.731468; 0.681143;,
        -0.140812; 0.660268; 0.737663;,
        -0.107547; 0.697623; 0.708304;,
        -0.107547; 0.697623; 0.708304;,
        -0.140812; 0.660268; 0.737663;,
        -0.210974; 0.686239; 0.696066;,
        -0.140812; 0.660268; 0.737663;,
        -0.199591; 0.627430; 0.752617;,
        -0.210974; 0.686239; 0.696066;,
         0.031190; 0.731468; 0.681143;,
         0.010376; 0.702017; 0.712027;,
        -0.140812; 0.660268; 0.737663;,
         0.010376; 0.702017; 0.712027;,
        -0.031709; 0.614460; 0.788293;,
        -0.140812; 0.660268; 0.737663;,
        -0.140812; 0.660268; 0.737663;,
        -0.031709; 0.614460; 0.788293;,
        -0.199591; 0.627430; 0.752617;,
        -0.031709; 0.614460; 0.788293;,
        -0.012787; 0.560259; 0.828181;,
        -0.199591; 0.627430; 0.752617;,
        -0.107669; 0.736595; 0.667684;,
        -0.059725; 0.741234; 0.668538;,
         0.031526; 0.694021; 0.719230;,
        -0.059725; 0.741234; 0.668538;,
        -0.067110; 0.707450; 0.703543;,
         0.031526; 0.694021; 0.719230;,
         0.011963; 0.619434; 0.784936;,
        -0.014283; 0.650563; 0.759270;,
        -0.000000; 0.732627; 0.680593;,
        -0.014283; 0.650563; 0.759270;,
         0.031526; 0.663839; 0.747185;,
        -0.000000; 0.732627; 0.680593;,
         0.107669; 0.736595; 0.667684;,
        -0.031495; 0.694052; 0.719230;,
         0.059725; 0.741234; 0.668538;,
        -0.031495; 0.694052; 0.719230;,
         0.067110; 0.707450; 0.703543;,
         0.059725; 0.741234; 0.668538;,
         0.001251; 0.716330; 0.697745;,
        -0.046052; 0.713248; 0.699362;,
        -0.140202; 0.755272; 0.640217;,
        -0.046052; 0.713248; 0.699362;,
        -0.039308; 0.747337; 0.663228;,
        -0.140202; 0.755272; 0.640217;,
        -0.011658; 0.703604; 0.710471;,
         0.014863; 0.675069; 0.737571;,
        -0.000000; 0.583605; 0.812006;,
         0.014863; 0.675069; 0.737571;,
        -0.031495; 0.660665; 0.749992;,
        -0.000000; 0.583605; 0.812006;,
         0.010376; 0.702017; 0.712027;,
         0.031190; 0.731468; 0.681143;,
         0.140233; 0.755272; 0.640217;,
         0.031190; 0.731468; 0.681143;,
         0.070803; 0.708792; 0.701834;,
         0.140233; 0.755272; 0.640217;;
        60;
        3;0;1;2;,
        3;3;4;5;,
        3;6;7;8;,
        3;9;10;11;,
        3;12;13;14;,
        3;15;16;17;,
        3;18;19;20;,
        3;21;22;23;,
        3;24;25;26;,
        3;27;28;29;,
        3;30;31;32;,
        3;33;34;35;,
        3;36;37;38;,
        3;39;40;41;,
        3;42;43;44;,
        3;45;46;47;,
        3;48;49;50;,
        3;51;52;53;,
        3;54;55;56;,
        3;57;58;59;,
        3;60;61;62;,
        3;63;64;65;,
        3;66;67;68;,
        3;69;70;71;,
        3;72;73;74;,
        3;75;76;77;,
        3;78;79;80;,
        3;81;82;83;,
        3;84;85;86;,
        3;87;88;89;,
        3;90;91;92;,
        3;93;94;95;,
        3;96;97;98;,
        3;99;100;101;,
        3;102;103;104;,
        3;105;106;107;,
        3;108;109;110;,
        3;111;112;113;,
        3;114;115;116;,
        3;117;118;119;,
        3;120;121;122;,
        3;123;124;125;,
        3;126;127;128;,
        3;129;130;131;,
        3;132;133;134;,
        3;135;136;137;,
        3;138;139;140;,
        3;141;142;143;,
        3;144;145;146;,
        3;147;148;149;,
        3;150;151;152;,
        3;153;154;155;,
        3;156;157;158;,
        3;159;160;161;,
        3;162;163;164;,
        3;165;166;167;,
        3;168;169;170;,
        3;171;172;173;,
        3;174;175;176;,
        3;177;178;179;;
      } //End of Mesh Normals
      MeshMaterialList { //Mesh Material List
        1;
        60;
        0,
        0,
        0,
        0,
        0,
        0,
        0,
        0,
        0,
        0,
        0,
        0,
        0,
        0,
        0,
        0,
        0,
        0,
        0,
        0,
        0,
        0,
        0,
        0,
        0,
        0,
        0,
        0,
        0,
        0,
        0,
        0,
        0,
        0,
        0,
        0,
        0,
        0,
        0,
        0,
        0,
        0,
        0,
        0,
        0,
        0,
        0,
        0,
        0,
        0,
        0,
        0,
        0,
        0,
        0,
        0,
        0,
        0,
        0,
        0;;
        Material mat_3 {
           0.640000; 0.640000; 0.640000; 1.000000;;
           92.156863;
           0.250000; 0.250000; 0.250000;;
           0.000000; 0.000000; 0.000000;;
          TextureFilename {"Textures/meganium_0_3.tga";}
        }
      } //End of Mesh Material List
      MeshTextureCoords { //Mesh UV Coordinates
        180;
         0.851817; 1.000000;,
         1.000000; 0.676516;,
         0.500000; 0.999997;,
         1.000000; 0.676516;,
         0.500000; 0.676516;,
         0.500000; 0.999997;,
         0.148183; 1.000000;,
         0.500000; 0.999997;,
         0.500000; 0.676516;,
         0.500000; 0.676516;,
         0.000000; 0.676516;,
         0.148183; 1.000000;,
         0.853554; 0.276541;,
         0.500000; 0.276541;,
         1.000000; 0.676516;,
         0.500000; 0.276541;,
         0.500000; 0.676516;,
         1.000000; 0.676516;,
         1.000000; 0.676516;,
         0.500000; 0.676516;,
         0.851817; 1.000000;,
         0.500000; 0.676516;,
         0.500000; 0.999997;,
         0.851817; 1.000000;,
         0.500000; 0.276541;,
         0.146447; 0.276541;,
         0.500000; 0.676516;,
         0.146447; 0.276541;,
         0.000000; 0.676516;,
         0.500000; 0.676516;,
         0.500000; 0.676516;,
         0.000000; 0.676516;,
         0.500000; 0.999997;,
         0.000000; 0.676516;,
         0.148183; 1.000000;,
         0.500000; 0.999997;,
         0.853554; 0.276541;,
         0.500000; 0.276541;,
         1.000000; 0.676516;,
         0.500000; 0.276541;,
         0.500000; 0.676516;,
         1.000000; 0.676516;,
         1.000000; 0.676516;,
         0.500000; 0.676516;,
         0.851817; 1.000000;,
         0.500000; 0.676516;,
         0.500000; 0.999997;,
         0.851817; 1.000000;,
         0.500000; 0.276541;,
         0.146447; 0.276541;,
         0.500000; 0.676516;,
         0.146447; 0.276541;,
         0.000000; 0.676516;,
         0.500000; 0.676516;,
         0.500000; 0.676516;,
         0.000000; 0.676516;,
         0.500000; 0.999997;,
         0.000000; 0.676516;,
         0.148183; 1.000000;,
         0.500000; 0.999997;,
         0.146447; 0.276541;,
         0.000000; 0.676516;,
         0.500000; 0.276541;,
         0.000000; 0.676516;,
         0.500000; 0.676516;,
         0.500000; 0.276541;,
         0.500000; 0.276541;,
         0.500000; 0.676516;,
         0.853554; 0.276541;,
         0.500000; 0.676516;,
         1.000000; 0.676516;,
         0.853554; 0.276541;,
         0.853554; 0.276541;,
         0.500000; 0.276541;,
         1.000000; 0.676516;,
         0.500000; 0.276541;,
         0.500000; 0.676516;,
         1.000000; 0.676516;,
         1.000000; 0.676516;,
         0.500000; 0.676516;,
         0.851817; 1.000000;,
         0.500000; 0.676516;,
         0.500000; 0.999997;,
         0.851817; 1.000000;,
         0.500000; 0.276541;,
         0.146447; 0.276541;,
         0.500000; 0.676516;,
         0.146447; 0.276541;,
         0.000000; 0.676516;,
         0.500000; 0.676516;,
         0.500000; 0.676516;,
         0.000000; 0.676516;,
         0.500000; 0.999997;,
         0.000000; 0.676516;,
         0.148183; 1.000000;,
         0.500000; 0.999997;,
         0.853554; 0.276541;,
         0.500000; 0.276541;,
         1.000000; 0.676516;,
         0.500000; 0.276541;,
         0.500000; 0.676516;,
         1.000000; 0.676516;,
         1.000000; 0.676516;,
         0.500000; 0.676516;,
         0.851817; 1.000000;,
         0.500000; 0.676516;,
         0.500000; 0.999997;,
         0.851817; 1.000000;,
         0.500000; 0.276541;,
         0.146447; 0.276541;,
         0.500000; 0.676516;,
         0.146447; 0.276541;,
         0.000000; 0.676516;,
         0.500000; 0.676516;,
         0.500000; 0.676516;,
         0.000000; 0.676516;,
         0.500000; 0.999997;,
         0.000000; 0.676516;,
         0.148183; 1.000000;,
         0.500000; 0.999997;,
         0.853554; 0.276541;,
         0.500000; 0.276541;,
         1.000000; 0.676516;,
         0.500000; 0.276541;,
         0.500000; 0.676516;,
         1.000000; 0.676516;,
         1.000000; 0.676516;,
         0.500000; 0.676516;,
         0.851817; 1.000000;,
         0.500000; 0.676516;,
         0.500000; 0.999997;,
         0.851817; 1.000000;,
         0.500000; 0.276541;,
         0.146447; 0.276541;,
         0.500000; 0.676516;,
         0.146447; 0.276541;,
         0.000000; 0.676516;,
         0.500000; 0.676516;,
         0.500000; 0.676516;,
         0.000000; 0.676516;,
         0.500000; 0.999997;,
         0.000000; 0.676516;,
         0.148183; 1.000000;,
         0.500000; 0.999997;,
         0.146447; 0.276541;,
         0.500000; 0.276541;,
         0.500000; 0.000000;,
         0.500000; 0.276541;,
         0.853554; 0.276541;,
         0.500000; 0.000000;,
         0.146447; 0.276541;,
         0.500000; 0.276541;,
         0.500000; 0.000000;,
         0.500000; 0.276541;,
         0.853554; 0.276541;,
         0.500000; 0.000000;,
         0.853554; 0.276541;,
         0.500000; 0.000000;,
         0.500000; 0.276541;,
         0.500000; 0.000000;,
         0.146447; 0.276541;,
         0.500000; 0.276541;,
         0.146447; 0.276541;,
         0.500000; 0.276541;,
         0.500000; 0.000000;,
         0.500000; 0.276541;,
         0.853554; 0.276541;,
         0.500000; 0.000000;,
         0.146447; 0.276541;,
         0.500000; 0.276541;,
         0.500000; 0.000000;,
         0.500000; 0.276541;,
         0.853554; 0.276541;,
         0.500000; 0.000000;,
         0.146447; 0.276541;,
         0.500000; 0.276541;,
         0.500000; 0.000000;,
         0.500000; 0.276541;,
         0.853554; 0.276541;,
         0.500000; 0.000000;;
      } //End of Mesh UV Coordinates
    } //End of Mesh Mesh
  } //End of meganium_mat_3
  Frame meganium_mat_0 {
    FrameTransformMatrix {
       1.000000, 0.000000, 0.000000, 0.000000,
       0.000000, 1.000000, 0.000000, 0.000000,
       0.000000, 0.000000, 1.000000, 0.000000,
       0.000000, 0.000000, 0.000000, 1.000000;;
    }
    Mesh { //Mesh Mesh
      90;
      -2.243640; 8.749344; 4.527268;,
      -1.209889; 7.146317; 5.456645;,
      -4.281130; 8.976068; 4.995287;,
      -2.811970; 7.177439; 6.795353;,
      -4.281130; 8.976068; 4.995287;,
      -1.209889; 7.146317; 5.456645;,
      -5.839499; 7.805674; 6.502526;,
      -4.281130; 8.976068; 4.995287;,
      -2.811970; 7.177439; 6.795353;,
      -2.811970; 7.177439; 6.795353;,
      -4.800650; 6.685332; 7.926729;,
      -5.839499; 7.805674; 6.502526;,
       5.839489; 7.805667; 6.502540;,
       4.800640; 6.685332; 7.926748;,
       4.281120; 8.976067; 4.995297;,
       4.800640; 6.685332; 7.926748;,
       2.811965; 7.177438; 6.795358;,
       4.281120; 8.976067; 4.995297;,
       4.281120; 8.976067; 4.995297;,
       2.811965; 7.177438; 6.795358;,
       2.243640; 8.749344; 4.527268;,
       2.811965; 7.177438; 6.795358;,
       1.209889; 7.146317; 5.456645;,
       2.243640; 8.749344; 4.527268;,
       0.000000;12.562509; 2.044831;,
       2.077700;12.411018; 1.893448;,
       0.000000;10.619965; 3.350033;,
       2.077700;12.411018; 1.893448;,
       2.938320;10.619965; 3.350033;,
       0.000000;10.619965; 3.350033;,
       0.000000;10.619965; 3.350033;,
       2.938320;10.619965; 3.350033;,
       0.000000; 8.628057; 3.973839;,
       2.938320;10.619965; 3.350033;,
       2.067500; 8.965508; 4.311048;,
       0.000000; 8.628057; 3.973839;,
      -2.077700;12.411031; 1.893461;,
       0.000000;12.562509; 2.044831;,
      -2.938320;10.619966; 3.350033;,
       0.000000;12.562509; 2.044831;,
       0.000000;10.619965; 3.350033;,
      -2.938320;10.619966; 3.350033;,
      -2.938320;10.619966; 3.350033;,
       0.000000;10.619965; 3.350033;,
      -2.067500; 8.965508; 4.311048;,
       0.000000;10.619965; 3.350033;,
       0.000000; 8.628057; 3.973839;,
      -2.067500; 8.965508; 4.311048;,
      -3.761800; 5.262021; 9.048180;,
      -4.800650; 6.685332; 7.926729;,
      -1.342810; 5.378809; 8.595418;,
      -4.800650; 6.685332; 7.926729;,
      -2.811970; 7.177439; 6.795353;,
      -1.342810; 5.378809; 8.595418;,
      -1.342810; 5.378809; 8.595418;,
      -2.811970; 7.177439; 6.795353;,
      -0.176138; 6.218194; 7.060440;,
      -2.811970; 7.177439; 6.795353;,
      -1.209889; 7.146317; 5.456645;,
      -0.176138; 6.218194; 7.060440;,
       0.176139; 6.218194; 7.060440;,
       1.209889; 7.146317; 5.456645;,
       1.342810; 5.378809; 8.595418;,
       1.209889; 7.146317; 5.456645;,
       2.811965; 7.177438; 6.795358;,
       1.342810; 5.378809; 8.595418;,
       1.342810; 5.378809; 8.595418;,
       2.811965; 7.177438; 6.795358;,
       3.761790; 5.262026; 9.048204;,
       2.811965; 7.177438; 6.795358;,
       4.800640; 6.685332; 7.926748;,
       3.761790; 5.262026; 9.048204;,
       5.839489; 7.805667; 6.502540;,
       6.182879; 5.976111; 8.346210;,
       4.800640; 6.685332; 7.926748;,
       6.182879; 5.976111; 8.346210;,
       3.761790; 5.262026; 9.048204;,
       4.800640; 6.685332; 7.926748;,
       2.077700;12.411018; 1.893448;,
       0.000000;12.562509; 2.044831;,
       0.000001;13.545568; 0.770772;,
       0.000000;12.562509; 2.044831;,
      -2.077700;12.411031; 1.893461;,
       0.000001;13.545568; 0.770772;,
      -5.839499; 7.805674; 6.502526;,
      -4.800650; 6.685332; 7.926729;,
      -6.182889; 5.976127; 8.346207;,
      -4.800650; 6.685332; 7.926729;,
      -3.761800; 5.262021; 9.048180;,
      -6.182889; 5.976127; 8.346207;;
      30;
      3;0;1;2;,
      3;3;4;5;,
      3;6;7;8;,
      3;9;10;11;,
      3;12;13;14;,
      3;15;16;17;,
      3;18;19;20;,
      3;21;22;23;,
      3;24;25;26;,
      3;27;28;29;,
      3;30;31;32;,
      3;33;34;35;,
      3;36;37;38;,
      3;39;40;41;,
      3;42;43;44;,
      3;45;46;47;,
      3;48;49;50;,
      3;51;52;53;,
      3;54;55;56;,
      3;57;58;59;,
      3;60;61;62;,
      3;63;64;65;,
      3;66;67;68;,
      3;69;70;71;,
      3;72;73;74;,
      3;75;76;77;,
      3;78;79;80;,
      3;81;82;83;,
      3;84;85;86;,
      3;87;88;89;;
      MeshNormals { //Mesh Normals
        90;
        -0.241981;-0.598712;-0.763512;,
        -0.325388;-0.825037;-0.461928;,
        -0.209052;-0.733055;-0.647237;,
        -0.235755;-0.803522;-0.546525;,
        -0.209052;-0.733055;-0.647237;,
        -0.325388;-0.825037;-0.461928;,
        -0.034730;-0.766747;-0.640950;,
        -0.209052;-0.733055;-0.647237;,
        -0.235755;-0.803522;-0.546525;,
        -0.235755;-0.803522;-0.546525;,
        -0.009461;-0.722831;-0.690909;,
        -0.034730;-0.766747;-0.640950;,
        -0.037660;-0.771844;-0.634663;,
         0.023927;-0.705130;-0.708640;,
         0.156835;-0.777001;-0.609607;,
         0.023927;-0.705130;-0.708640;,
         0.274941;-0.755608;-0.594501;,
         0.156835;-0.777001;-0.609607;,
         0.156835;-0.777001;-0.609607;,
         0.274941;-0.755608;-0.594501;,
         0.333934;-0.733451;-0.591998;,
         0.274941;-0.755608;-0.594501;,
         0.384747;-0.752373;-0.534654;,
         0.333934;-0.733451;-0.591998;,
        -0.014466;-0.693503;-0.720267;,
        -0.059297;-0.651601;-0.756218;,
        -0.039155;-0.466872;-0.883419;,
        -0.059297;-0.651601;-0.756218;,
         0.052309;-0.541124;-0.839290;,
        -0.039155;-0.466872;-0.883419;,
        -0.039155;-0.466872;-0.883419;,
         0.052309;-0.541124;-0.839290;,
        -0.059358;-0.353893;-0.933378;,
         0.052309;-0.541124;-0.839290;,
         0.222236;-0.574541;-0.787713;,
        -0.059358;-0.353893;-0.933378;,
         0.102512;-0.692465;-0.714103;,
        -0.014466;-0.693503;-0.720267;,
         0.023713;-0.555925;-0.830866;,
        -0.014466;-0.693503;-0.720267;,
        -0.039155;-0.466872;-0.883419;,
         0.023713;-0.555925;-0.830866;,
         0.023713;-0.555925;-0.830866;,
        -0.039155;-0.466872;-0.883419;,
        -0.080630;-0.423353;-0.902341;,
        -0.039155;-0.466872;-0.883419;,
        -0.059358;-0.353893;-0.933378;,
        -0.080630;-0.423353;-0.902341;,
        -0.064821;-0.646352;-0.760247;,
        -0.009461;-0.722831;-0.690909;,
        -0.180548;-0.747917;-0.638722;,
        -0.009461;-0.722831;-0.690909;,
        -0.235755;-0.803522;-0.546525;,
        -0.180548;-0.747917;-0.638722;,
        -0.180548;-0.747917;-0.638722;,
        -0.235755;-0.803522;-0.546525;,
        -0.253273;-0.832240;-0.493149;,
        -0.235755;-0.803522;-0.546525;,
        -0.325388;-0.825037;-0.461928;,
        -0.253273;-0.832240;-0.493149;,
         0.019745;-0.870815;-0.491195;,
         0.384747;-0.752373;-0.534654;,
         0.156743;-0.797082;-0.583117;,
         0.384747;-0.752373;-0.534654;,
         0.274941;-0.755608;-0.594501;,
         0.156743;-0.797082;-0.583117;,
         0.156743;-0.797082;-0.583117;,
         0.274941;-0.755608;-0.594501;,
         0.094058;-0.694143;-0.713645;,
         0.274941;-0.755608;-0.594501;,
         0.023927;-0.705130;-0.708640;,
         0.094058;-0.694143;-0.713645;,
        -0.037660;-0.771844;-0.634663;,
        -0.110416;-0.656545;-0.746147;,
         0.023927;-0.705130;-0.708640;,
        -0.110416;-0.656545;-0.746147;,
         0.094058;-0.694143;-0.713645;,
         0.023927;-0.705130;-0.708640;,
        -0.059297;-0.651601;-0.756218;,
        -0.014466;-0.693503;-0.720267;,
        -0.000000;-0.791711;-0.610859;,
        -0.014466;-0.693503;-0.720267;,
         0.102512;-0.692465;-0.714103;,
        -0.000000;-0.791711;-0.610859;,
        -0.034730;-0.766747;-0.640950;,
        -0.009461;-0.722831;-0.690909;,
         0.110416;-0.656545;-0.746147;,
        -0.009461;-0.722831;-0.690909;,
        -0.064821;-0.646352;-0.760247;,
         0.110416;-0.656545;-0.746147;;
        30;
        3;0;1;2;,
        3;3;4;5;,
        3;6;7;8;,
        3;9;10;11;,
        3;12;13;14;,
        3;15;16;17;,
        3;18;19;20;,
        3;21;22;23;,
        3;24;25;26;,
        3;27;28;29;,
        3;30;31;32;,
        3;33;34;35;,
        3;36;37;38;,
        3;39;40;41;,
        3;42;43;44;,
        3;45;46;47;,
        3;48;49;50;,
        3;51;52;53;,
        3;54;55;56;,
        3;57;58;59;,
        3;60;61;62;,
        3;63;64;65;,
        3;66;67;68;,
        3;69;70;71;,
        3;72;73;74;,
        3;75;76;77;,
        3;78;79;80;,
        3;81;82;83;,
        3;84;85;86;,
        3;87;88;89;;
      } //End of Mesh Normals
      MeshMaterialList { //Mesh Material List
        1;
        30;
        0,
        0,
        0,
        0,
        0,
        0,
        0,
        0,
        0,
        0,
        0,
        0,
        0,
        0,
        0,
        0,
        0,
        0,
        0,
        0,
        0,
        0,
        0,
        0,
        0,
        0,
        0,
        0,
        0,
        0;;
        Material mat_0 {
           0.640000; 0.640000; 0.640000; 1.000000;;
           92.156863;
           0.250000; 0.250000; 0.250000;;
           0.000000; 0.000000; 0.000000;;
          TextureFilename {"Textures/meganium_0_0.tga";}
        }
      } //End of Mesh Material List
      MeshTextureCoords { //Mesh UV Coordinates
        90;
         0.851817; 1.000000;,
         0.500000; 1.000000;,
         1.000000; 0.676516;,
         1.000000; 0.676516;,
         0.500000; 1.000000;,
         0.500000; 0.676516;,
         0.853554; 0.276541;,
         1.000000; 0.676516;,
         0.500000; 0.676516;,
         0.500000; 0.676516;,
         0.500000; 0.276541;,
         0.853554; 0.276541;,
         0.146447; 0.276541;,
         0.500000; 0.276541;,
         0.000000; 0.676516;,
         0.500000; 0.276541;,
         0.500000; 0.676516;,
         0.000000; 0.676516;,
         0.000000; 0.676516;,
         0.500000; 0.676516;,
         0.148183; 1.000000;,
         0.500000; 0.676516;,
         0.500000; 1.000000;,
         0.148183; 1.000000;,
         0.500000; 0.276541;,
         0.853554; 0.276541;,
         0.500000; 0.676516;,
         0.853554; 0.276541;,
         1.000000; 0.676516;,
         0.500000; 0.676516;,
         0.500000; 0.676516;,
         1.000000; 0.676516;,
         0.500000; 1.000000;,
         1.000000; 0.676516;,
         0.851817; 1.000000;,
         0.500000; 1.000000;,
         0.146447; 0.276541;,
         0.500000; 0.276541;,
         0.000000; 0.676516;,
         0.500000; 0.276541;,
         0.500000; 0.676516;,
         0.000000; 0.676516;,
         0.000000; 0.676516;,
         0.500000; 0.676516;,
         0.148183; 1.000000;,
         0.500000; 0.676516;,
         0.500000; 1.000000;,
         0.148183; 1.000000;,
         0.146447; 0.276541;,
         0.500000; 0.276541;,
         0.000000; 0.676516;,
         0.500000; 0.276541;,
         0.500000; 0.676516;,
         0.000000; 0.676516;,
         0.000000; 0.676516;,
         0.500000; 0.676516;,
         0.148183; 1.000000;,
         0.500000; 0.676516;,
         0.500000; 1.000000;,
         0.148183; 1.000000;,
         0.851817; 1.000000;,
         0.500000; 1.000000;,
         1.000000; 0.676516;,
         0.500000; 1.000000;,
         0.500000; 0.676516;,
         1.000000; 0.676516;,
         1.000000; 0.676516;,
         0.500000; 0.676516;,
         0.853554; 0.276541;,
         0.500000; 0.676516;,
         0.500000; 0.276541;,
         0.853554; 0.276541;,
         0.146447; 0.276541;,
         0.500000; 0.000000;,
         0.500000; 0.276541;,
         0.500000; 0.000000;,
         0.853554; 0.276541;,
         0.500000; 0.276541;,
         0.853554; 0.276541;,
         0.500000; 0.276541;,
         0.500000; 0.000000;,
         0.500000; 0.276541;,
         0.146447; 0.276541;,
         0.500000; 0.000000;,
         0.853554; 0.276541;,
         0.500000; 0.276541;,
         0.500000; 0.000000;,
         0.500000; 0.276541;,
         0.146447; 0.276541;,
         0.500000; 0.000000;;
      } //End of Mesh UV Coordinates
    } //End of Mesh Mesh
  } //End of meganium_mat_0
  Frame meganium_mat_2 {
    FrameTransformMatrix {
       1.000000, 0.000000, 0.000000, 0.000000,
       0.000000, 1.000000, 0.000000, 0.000000,
       0.000000, 0.000000, 1.000000, 0.000000,
       0.000000, 0.000000, 0.000000, 1.000000;;
    }
    Mesh { //Mesh Mesh
      90;
      -4.824516;10.191812; 3.574659;,
      -3.785666;11.312148; 2.150446;,
      -2.825560; 9.253889; 4.268972;,
      -3.785666;11.312148; 2.150446;,
      -1.356400;11.052504; 2.468911;,
      -2.825560; 9.253889; 4.268972;,
      -1.209929; 8.177434; 4.511967;,
      -2.825560; 9.253889; 4.268972;,
      -1.356400;11.052504; 2.468911;,
      -1.356400;11.052504; 2.468911;,
      -0.166509; 9.564562; 3.457443;,
      -1.209929; 8.177434; 4.511967;,
       2.077700; 4.133887; 9.334447;,
       0.000000; 4.285377; 9.485827;,
       2.938320; 5.794688; 7.730939;,
       0.000000; 4.285377; 9.485827;,
       0.000000; 5.794688; 7.730939;,
       2.938320; 5.794688; 7.730939;,
       2.938320; 5.794688; 7.730939;,
       0.000000; 5.794688; 7.730939;,
       2.077169; 6.817328; 6.206953;,
       0.000000; 5.794688; 7.730939;,
       0.000000; 6.695781; 5.994892;,
       2.077169; 6.817328; 6.206953;,
       3.785667;11.312168; 2.150465;,
       4.824522;10.191827; 3.574678;,
       1.356400;11.052504; 2.468911;,
       4.824522;10.191827; 3.574678;,
       2.825560; 9.253889; 4.268972;,
       1.356400;11.052504; 2.468911;,
       1.356400;11.052504; 2.468911;,
       2.825560; 9.253889; 4.268972;,
       0.185845; 9.564562; 3.457443;,
       2.825560; 9.253889; 4.268972;,
       1.209928; 8.177434; 4.511967;,
       0.185845; 9.564562; 3.457443;,
      -5.863367; 8.768507; 4.696119;,
      -4.824516;10.191812; 3.574659;,
      -4.294720; 7.455276; 6.069034;,
      -4.824516;10.191812; 3.574659;,
      -2.825560; 9.253889; 4.268972;,
      -4.294720; 7.455276; 6.069034;,
      -4.294720; 7.455276; 6.069034;,
      -2.825560; 9.253889; 4.268972;,
      -2.234011; 7.033402; 5.990613;,
      -2.234011; 7.033402; 5.990613;,
      -2.825560; 9.253889; 4.268972;,
      -1.209929; 8.177434; 4.511967;,
      -2.057831; 6.817328; 6.206953;,
       0.000000; 6.695781; 5.994892;,
      -2.938320; 5.794688; 7.730939;,
       0.000000; 6.695781; 5.994892;,
       0.000000; 5.794688; 7.730939;,
      -2.938320; 5.794688; 7.730939;,
      -2.938320; 5.794688; 7.730939;,
       0.000000; 5.794688; 7.730939;,
      -2.077700; 4.133896; 9.334457;,
       0.000000; 5.794688; 7.730939;,
       0.000000; 4.285377; 9.485827;,
      -2.077700; 4.133896; 9.334457;,
       2.253349; 7.033402; 5.990613;,
       1.209928; 8.177434; 4.511967;,
       4.294720; 7.455276; 6.069034;,
       1.209928; 8.177434; 4.511967;,
       2.825560; 9.253889; 4.268972;,
       4.294720; 7.455276; 6.069034;,
       4.294720; 7.455276; 6.069034;,
       2.825560; 9.253889; 4.268972;,
       5.863378; 8.768517; 4.696139;,
       2.825560; 9.253889; 4.268972;,
       4.824522;10.191827; 3.574678;,
       5.863378; 8.768517; 4.696139;,
      -3.785666;11.312148; 2.150446;,
      -4.824516;10.191812; 3.574659;,
      -6.196465;10.462541; 2.725430;,
      -4.824516;10.191812; 3.574659;,
      -5.863367; 8.768507; 4.696119;,
      -6.196465;10.462541; 2.725430;,
       2.077700; 4.133887; 9.334447;,
       0.000001; 2.876498;10.317561;,
       0.000000; 4.285377; 9.485827;,
       0.000001; 2.876498;10.317561;,
      -2.077700; 4.133896; 9.334457;,
       0.000000; 4.285377; 9.485827;,
       3.785667;11.312168; 2.150465;,
       6.196472;10.462528; 2.725431;,
       4.824522;10.191827; 3.574678;,
       6.196472;10.462528; 2.725431;,
       5.863378; 8.768517; 4.696139;,
       4.824522;10.191827; 3.574678;;
      30;
      3;0;1;2;,
      3;3;4;5;,
      3;6;7;8;,
      3;9;10;11;,
      3;12;13;14;,
      3;15;16;17;,
      3;18;19;20;,
      3;21;22;23;,
      3;24;25;26;,
      3;27;28;29;,
      3;30;31;32;,
      3;33;34;35;,
      3;36;37;38;,
      3;39;40;41;,
      3;42;43;44;,
      3;45;46;47;,
      3;48;49;50;,
      3;51;52;53;,
      3;54;55;56;,
      3;57;58;59;,
      3;60;61;62;,
      3;63;64;65;,
      3;66;67;68;,
      3;69;70;71;,
      3;72;73;74;,
      3;75;76;77;,
      3;78;79;80;,
      3;81;82;83;,
      3;84;85;86;,
      3;87;88;89;;
      MeshNormals { //Mesh Normals
        90;
         0.080477;-0.748711;-0.657979;,
         0.012207;-0.758660;-0.651326;,
        -0.154515;-0.656636;-0.738182;,
         0.012207;-0.758660;-0.651326;,
        -0.069643;-0.652760;-0.754326;,
        -0.154515;-0.656636;-0.738182;,
        -0.250191;-0.606189;-0.754906;,
        -0.154515;-0.656636;-0.738182;,
        -0.069643;-0.652760;-0.754326;,
        -0.069643;-0.652760;-0.754326;,
        -0.050203;-0.580218;-0.812891;,
        -0.250191;-0.606189;-0.754906;,
        -0.101932;-0.624470;-0.774346;,
         0.014954;-0.631825;-0.774926;,
        -0.024140;-0.775231;-0.631153;,
         0.014954;-0.631825;-0.774926;,
         0.025544;-0.813715;-0.580676;,
        -0.024140;-0.775231;-0.631153;,
        -0.024140;-0.775231;-0.631153;,
         0.025544;-0.813715;-0.580676;,
         0.037294;-0.852565;-0.521226;,
         0.025544;-0.813715;-0.580676;,
         0.030183;-0.873501;-0.485824;,
         0.037294;-0.852565;-0.521226;,
        -0.041108;-0.799646;-0.599017;,
        -0.095462;-0.730369;-0.676290;,
         0.095950;-0.684500;-0.722648;,
        -0.095462;-0.730369;-0.676290;,
         0.127262;-0.623676;-0.771233;,
         0.095950;-0.684500;-0.722648;,
         0.095950;-0.684500;-0.722648;,
         0.127262;-0.623676;-0.771233;,
         0.176244;-0.579913;-0.795343;,
         0.127262;-0.623676;-0.771233;,
         0.216712;-0.561663;-0.798456;,
         0.176244;-0.579913;-0.795343;,
         0.143071;-0.674825;-0.723930;,
         0.080477;-0.748711;-0.657979;,
        -0.072878;-0.654653;-0.752403;,
         0.080477;-0.748711;-0.657979;,
        -0.154515;-0.656636;-0.738182;,
        -0.072878;-0.654653;-0.752403;,
        -0.072878;-0.654653;-0.752403;,
        -0.154515;-0.656636;-0.738182;,
        -0.218207;-0.633595;-0.742210;,
        -0.218207;-0.633595;-0.742210;,
        -0.154515;-0.656636;-0.738182;,
        -0.250191;-0.606189;-0.754906;,
        -0.108432;-0.795343;-0.596332;,
         0.030183;-0.873501;-0.485824;,
        -0.025330;-0.774102;-0.632496;,
         0.030183;-0.873501;-0.485824;,
         0.025544;-0.813715;-0.580676;,
        -0.025330;-0.774102;-0.632496;,
        -0.025330;-0.774102;-0.632496;,
         0.025544;-0.813715;-0.580676;,
         0.059236;-0.671133;-0.738914;,
         0.025544;-0.813715;-0.580676;,
         0.014954;-0.631825;-0.774926;,
         0.059236;-0.671133;-0.738914;,
         0.173864;-0.715659;-0.676412;,
         0.216712;-0.561663;-0.798456;,
         0.100162;-0.685232;-0.721366;,
         0.216712;-0.561663;-0.798456;,
         0.127262;-0.623676;-0.771233;,
         0.100162;-0.685232;-0.721366;,
         0.100162;-0.685232;-0.721366;,
         0.127262;-0.623676;-0.771233;,
        -0.071474;-0.686117;-0.723960;,
         0.127262;-0.623676;-0.771233;,
        -0.095462;-0.730369;-0.676290;,
        -0.071474;-0.686117;-0.723960;,
         0.012207;-0.758660;-0.651326;,
         0.080477;-0.748711;-0.657979;,
         0.216346;-0.773247;-0.596026;,
         0.080477;-0.748711;-0.657979;,
         0.143071;-0.674825;-0.723930;,
         0.216346;-0.773247;-0.596026;,
        -0.101932;-0.624470;-0.774346;,
        -0.000000;-0.508347;-0.861110;,
         0.014954;-0.631825;-0.774926;,
        -0.000000;-0.508347;-0.861110;,
         0.059236;-0.671133;-0.738914;,
         0.014954;-0.631825;-0.774926;,
        -0.041108;-0.799646;-0.599017;,
        -0.216376;-0.773247;-0.596026;,
        -0.095462;-0.730369;-0.676290;,
        -0.216376;-0.773247;-0.596026;,
        -0.071474;-0.686117;-0.723960;,
        -0.095462;-0.730369;-0.676290;;
        30;
        3;0;1;2;,
        3;3;4;5;,
        3;6;7;8;,
        3;9;10;11;,
        3;12;13;14;,
        3;15;16;17;,
        3;18;19;20;,
        3;21;22;23;,
        3;24;25;26;,
        3;27;28;29;,
        3;30;31;32;,
        3;33;34;35;,
        3;36;37;38;,
        3;39;40;41;,
        3;42;43;44;,
        3;45;46;47;,
        3;48;49;50;,
        3;51;52;53;,
        3;54;55;56;,
        3;57;58;59;,
        3;60;61;62;,
        3;63;64;65;,
        3;66;67;68;,
        3;69;70;71;,
        3;72;73;74;,
        3;75;76;77;,
        3;78;79;80;,
        3;81;82;83;,
        3;84;85;86;,
        3;87;88;89;;
      } //End of Mesh Normals
      MeshMaterialList { //Mesh Material List
        1;
        30;
        0,
        0,
        0,
        0,
        0,
        0,
        0,
        0,
        0,
        0,
        0,
        0,
        0,
        0,
        0,
        0,
        0,
        0,
        0,
        0,
        0,
        0,
        0,
        0,
        0,
        0,
        0,
        0,
        0,
        0;;
        Material mat_2 {
           0.640000; 0.640000; 0.640000; 1.000000;;
           92.156863;
           0.250000; 0.250000; 0.250000;;
           0.000000; 0.000000; 0.000000;;
          TextureFilename {"Textures/meganium_0_2.tga";}
        }
      } //End of Mesh Material List
      MeshTextureCoords { //Mesh UV Coordinates
        90;
         0.500000; 0.276541;,
         0.853554; 0.276541;,
         0.500000; 0.676516;,
         0.853554; 0.276541;,
         1.000000; 0.676516;,
         0.500000; 0.676516;,
         0.500000; 1.000000;,
         0.500000; 0.676516;,
         1.000000; 0.676516;,
         1.000000; 0.676516;,
         0.851817; 1.000000;,
         0.500000; 1.000000;,
         0.146447; 0.276541;,
         0.500000; 0.276541;,
         0.000000; 0.676516;,
         0.500000; 0.276541;,
         0.500000; 0.676516;,
         0.000000; 0.676516;,
         0.000000; 0.676516;,
         0.500000; 0.676516;,
         0.148183; 1.000000;,
         0.500000; 0.676516;,
         0.500000; 1.000000;,
         0.148183; 1.000000;,
         0.146447; 0.276541;,
         0.500000; 0.276541;,
         0.000000; 0.676516;,
         0.500000; 0.276541;,
         0.500000; 0.676516;,
         0.000000; 0.676516;,
         0.000000; 0.676516;,
         0.500000; 0.676516;,
         0.148183; 1.000000;,
         0.500000; 0.676516;,
         0.500000; 1.000000;,
         0.148183; 1.000000;,
         0.146447; 0.276541;,
         0.500000; 0.276541;,
         0.000000; 0.676516;,
         0.500000; 0.276541;,
         0.500000; 0.676516;,
         0.000000; 0.676516;,
         0.000000; 0.676516;,
         0.500000; 0.676516;,
         0.148183; 1.000000;,
         0.148183; 1.000000;,
         0.500000; 0.676516;,
         0.500000; 1.000000;,
         0.851817; 1.000000;,
         0.500000; 1.000000;,
         1.000000; 0.676516;,
         0.500000; 1.000000;,
         0.500000; 0.676516;,
         1.000000; 0.676516;,
         1.000000; 0.676516;,
         0.500000; 0.676516;,
         0.853554; 0.276541;,
         0.500000; 0.676516;,
         0.500000; 0.276541;,
         0.853554; 0.276541;,
         0.851817; 1.000000;,
         0.500000; 1.000000;,
         1.000000; 0.676516;,
         0.500000; 1.000000;,
         0.500000; 0.676516;,
         1.000000; 0.676516;,
         1.000000; 0.676516;,
         0.500000; 0.676516;,
         0.853554; 0.276541;,
         0.500000; 0.676516;,
         0.500000; 0.276541;,
         0.853554; 0.276541;,
         0.853554; 0.276541;,
         0.500000; 0.276541;,
         0.500000; 0.000000;,
         0.500000; 0.276541;,
         0.146447; 0.276541;,
         0.500000; 0.000000;,
         0.146447; 0.276541;,
         0.500000; 0.000000;,
         0.500000; 0.276541;,
         0.500000; 0.000000;,
         0.853554; 0.276541;,
         0.500000; 0.276541;,
         0.146447; 0.276541;,
         0.500000; 0.000000;,
         0.500000; 0.276541;,
         0.500000; 0.000000;,
         0.853554; 0.276541;,
         0.500000; 0.276541;;
      } //End of Mesh UV Coordinates
    } //End of Mesh Mesh
  } //End of meganium_mat_2
  Frame meganium_mat_1 {
    FrameTransformMatrix {
       1.000000, 0.000000, 0.000000, 0.000000,
       0.000000, 1.000000, 0.000000, 0.000000,
       0.000000, 0.000000, 1.000000, 0.000000,
       0.000000, 0.000000, 0.000000, 1.000000;;
    }
    Mesh { //Mesh Mesh
      84;
       2.243640; 8.749344; 4.527268;,
       2.067500; 8.965508; 4.311048;,
       0.000000; 8.570397; 3.912014;,
       2.243640; 8.749344; 4.527268;,
       0.000000; 8.570397; 3.912014;,
       1.211340; 7.099327; 5.410866;,
      -1.211750; 7.085864; 5.397759;,
       0.000000; 8.570397; 3.912014;,
      -2.067500; 8.965508; 4.311048;,
      -1.211750; 7.085864; 5.397759;,
      -2.067500; 8.965508; 4.311048;,
      -2.243640; 8.749344; 4.527268;,
      -0.176138; 6.218194; 7.060440;,
       0.176139; 6.218194; 7.060440;,
       1.211340; 7.099327; 5.410866;,
      -0.176138; 6.218194; 7.060440;,
       1.211340; 7.099327; 5.410866;,
      -1.211750; 7.085864; 5.397759;,
       2.067500; 8.965508; 4.311048;,
       2.243640; 8.749344; 4.527268;,
       1.209889; 7.146317; 5.456645;,
       2.067500; 8.965508; 4.311048;,
       1.209889; 7.146317; 5.456645;,
       0.000000; 8.628057; 3.973839;,
      -2.243640; 8.749344; 4.527268;,
      -2.067500; 8.965508; 4.311048;,
       0.000000; 8.628057; 3.973839;,
      -2.243640; 8.749344; 4.527268;,
       0.000000; 8.628057; 3.973839;,
      -1.209889; 7.146317; 5.456645;,
      -0.176138; 6.218194; 7.060440;,
      -1.209889; 7.146317; 5.456645;,
       1.209889; 7.146317; 5.456645;,
      -0.176138; 6.218194; 7.060440;,
       1.209889; 7.146317; 5.456645;,
       0.176139; 6.218194; 7.060440;,
      -2.234011; 7.033402; 5.990613;,
      -2.057831; 6.817328; 6.206953;,
       0.000001; 6.634057; 5.937142;,
      -2.234011; 7.033402; 5.990613;,
       0.000001; 6.634057; 5.937142;,
      -1.211280; 8.131573; 4.465041;,
       1.211670; 8.118440; 4.451601;,
       0.000001; 6.634057; 5.937142;,
       2.077169; 6.817328; 6.206953;,
       1.211670; 8.118440; 4.451601;,
       2.077169; 6.817328; 6.206953;,
       2.253349; 7.033402; 5.990613;,
       0.185845; 9.564562; 3.457443;,
      -0.166509; 9.564562; 3.457443;,
      -1.211280; 8.131573; 4.465041;,
       0.185845; 9.564562; 3.457443;,
      -1.211280; 8.131573; 4.465041;,
       1.211670; 8.118440; 4.451601;,
      -2.057831; 6.817328; 6.206953;,
      -2.234011; 7.033402; 5.990613;,
      -1.209929; 8.177434; 4.511967;,
      -2.057831; 6.817328; 6.206953;,
      -1.209929; 8.177434; 4.511967;,
       0.000000; 6.695781; 5.994892;,
       2.253349; 7.033402; 5.990613;,
       2.077169; 6.817328; 6.206953;,
       0.000000; 6.695781; 5.994892;,
       2.253349; 7.033402; 5.990613;,
       0.000000; 6.695781; 5.994892;,
       1.209928; 8.177434; 4.511967;,
       0.185845; 9.564562; 3.457443;,
       1.209928; 8.177434; 4.511967;,
      -1.209929; 8.177434; 4.511967;,
       0.185845; 9.564562; 3.457443;,
      -1.209929; 8.177434; 4.511967;,
      -0.166509; 9.564562; 3.457443;,
       1.211340; 7.099327; 5.410866;,
       0.000000; 8.570397; 3.912014;,
      -1.211750; 7.085864; 5.397759;,
       0.000000; 8.628057; 3.973839;,
       1.209889; 7.146317; 5.456645;,
      -1.209889; 7.146317; 5.456645;,
       0.000000; 6.695781; 5.994892;,
      -1.209929; 8.177434; 4.511967;,
       1.209928; 8.177434; 4.511967;,
       0.000001; 6.634057; 5.937142;,
       1.211670; 8.118440; 4.451601;,
      -1.211280; 8.131573; 4.465041;;
      28;
      3;0;1;2;,
      3;3;4;5;,
      3;6;7;8;,
      3;9;10;11;,
      3;12;13;14;,
      3;15;16;17;,
      3;18;19;20;,
      3;21;22;23;,
      3;24;25;26;,
      3;27;28;29;,
      3;30;31;32;,
      3;33;34;35;,
      3;36;37;38;,
      3;39;40;41;,
      3;42;43;44;,
      3;45;46;47;,
      3;48;49;50;,
      3;51;52;53;,
      3;54;55;56;,
      3;57;58;59;,
      3;60;61;62;,
      3;63;64;65;,
      3;66;67;68;,
      3;69;70;71;,
      3;72;73;74;,
      3;75;76;77;,
      3;78;79;80;,
      3;81;82;83;;
      MeshNormals { //Mesh Normals
        84;
        -0.258889; 0.573290; 0.777337;,
        -0.259346; 0.569109; 0.780267;,
        -0.002167; 0.634144; 0.773186;,
        -0.258889; 0.573290; 0.777337;,
        -0.002167; 0.634144; 0.773186;,
        -0.093661; 0.741752; 0.664083;,
         0.084109; 0.740349; 0.666921;,
        -0.002167; 0.634144; 0.773186;,
         0.259316; 0.569140; 0.780236;,
         0.084109; 0.740349; 0.666921;,
         0.259316; 0.569140; 0.780236;,
         0.259285; 0.569140; 0.780236;,
        -0.004089; 0.883450; 0.468459;,
        -0.000000; 0.882046; 0.471145;,
        -0.093661; 0.741752; 0.664083;,
        -0.004089; 0.883450; 0.468459;,
        -0.093661; 0.741752; 0.664083;,
         0.084109; 0.740349; 0.666921;,
         0.222968;-0.592547;-0.774041;,
         0.222968;-0.592547;-0.774041;,
         0.076083;-0.735679;-0.672994;,
         0.222968;-0.592547;-0.774041;,
         0.076083;-0.735679;-0.672994;,
        -0.000000;-0.642506;-0.766259;,
        -0.222938;-0.592547;-0.774041;,
        -0.222938;-0.592547;-0.774041;,
        -0.000000;-0.642506;-0.766259;,
        -0.222938;-0.592547;-0.774041;,
        -0.000000;-0.642506;-0.766259;,
        -0.076083;-0.735679;-0.672994;,
        -0.000000;-0.865505;-0.500870;,
        -0.076083;-0.735679;-0.672994;,
         0.076083;-0.735679;-0.672994;,
        -0.000000;-0.865505;-0.500870;,
         0.076083;-0.735679;-0.672994;,
        -0.000000;-0.865505;-0.500870;,
         0.150182; 0.754784; 0.638508;,
         0.150700; 0.758110; 0.634449;,
         0.002686; 0.744926; 0.667135;,
         0.150182; 0.754784; 0.638508;,
         0.002686; 0.744926; 0.667135;,
         0.054964; 0.681204; 0.729972;,
        -0.044954; 0.683432; 0.728599;,
         0.002686; 0.744926; 0.667135;,
        -0.149297; 0.757714; 0.635243;,
        -0.044954; 0.683432; 0.728599;,
        -0.149297; 0.757714; 0.635243;,
        -0.149236; 0.757714; 0.635243;,
         0.004364; 0.572314; 0.820002;,
        -0.000000; 0.575182; 0.818018;,
         0.054964; 0.681204; 0.729972;,
         0.004364; 0.572314; 0.820002;,
         0.054964; 0.681204; 0.729972;,
        -0.044954; 0.683432; 0.728599;,
        -0.111606;-0.747063;-0.655293;,
        -0.111576;-0.747063;-0.655293;,
        -0.037202;-0.689993;-0.722831;,
        -0.111606;-0.747063;-0.655293;,
        -0.037202;-0.689993;-0.722831;,
        -0.000336;-0.737419;-0.675405;,
         0.110630;-0.746757;-0.655782;,
         0.110630;-0.746788;-0.655751;,
        -0.000336;-0.737419;-0.675405;,
         0.110630;-0.746757;-0.655782;,
        -0.000336;-0.737419;-0.675405;,
         0.036958;-0.689810;-0.723014;,
        -0.000000;-0.605182;-0.796075;,
         0.036958;-0.689810;-0.723014;,
        -0.037202;-0.689993;-0.722831;,
        -0.000000;-0.605182;-0.796075;,
        -0.037202;-0.689993;-0.722831;,
        -0.000000;-0.605182;-0.796075;,
        -0.093661; 0.741752; 0.664083;,
        -0.002167; 0.634144; 0.773186;,
         0.084109; 0.740349; 0.666921;,
        -0.000000;-0.642506;-0.766259;,
         0.076083;-0.735679;-0.672994;,
        -0.076083;-0.735679;-0.672994;,
        -0.000336;-0.737419;-0.675405;,
        -0.037202;-0.689993;-0.722831;,
         0.036958;-0.689810;-0.723014;,
         0.002686; 0.744926; 0.667135;,
        -0.044954; 0.683432; 0.728599;,
         0.054964; 0.681204; 0.729972;;
        28;
        3;0;1;2;,
        3;3;4;5;,
        3;6;7;8;,
        3;9;10;11;,
        3;12;13;14;,
        3;15;16;17;,
        3;18;19;20;,
        3;21;22;23;,
        3;24;25;26;,
        3;27;28;29;,
        3;30;31;32;,
        3;33;34;35;,
        3;36;37;38;,
        3;39;40;41;,
        3;42;43;44;,
        3;45;46;47;,
        3;48;49;50;,
        3;51;52;53;,
        3;54;55;56;,
        3;57;58;59;,
        3;60;61;62;,
        3;63;64;65;,
        3;66;67;68;,
        3;69;70;71;,
        3;72;73;74;,
        3;75;76;77;,
        3;78;79;80;,
        3;81;82;83;;
      } //End of Mesh Normals
      MeshMaterialList { //Mesh Material List
        1;
        28;
        0,
        0,
        0,
        0,
        0,
        0,
        0,
        0,
        0,
        0,
        0,
        0,
        0,
        0,
        0,
        0,
        0,
        0,
        0,
        0,
        0,
        0,
        0,
        0,
        0,
        0,
        0,
        0;;
        Material mat_1 {
           0.640000; 0.640000; 0.640000; 1.000000;;
           92.156863;
           0.250000; 0.250000; 0.250000;;
           0.000000; 0.000000; 0.000000;;
          TextureFilename {"Textures/meganium_0_1.tga";}
        }
      } //End of Mesh Material List
      MeshTextureCoords { //Mesh UV Coordinates
        84;
         1.000000; 0.078741;,
         0.960629; 0.000000;,
         0.500000; 0.000000;,
         1.000000; 0.078741;,
         0.500000; 0.000000;,
         0.769685; 0.539371;,
         0.230315; 0.539371;,
         0.500000; 0.000000;,
         0.039371; 0.000000;,
         0.230315; 0.539371;,
         0.039371; 0.000000;,
         0.000000; 0.078741;,
         0.460629; 1.000000;,
         0.539371; 1.000000;,
         0.769685; 0.539371;,
         0.460629; 1.000000;,
         0.769685; 0.539371;,
         0.230315; 0.539371;,
         0.960629; 0.000000;,
         1.000000; 0.078741;,
         0.769686; 0.539371;,
         0.960629; 0.000000;,
         0.769686; 0.539371;,
         0.500000; 0.000000;,
         0.000000; 0.078741;,
         0.039371; 0.000000;,
         0.500000; 0.000000;,
         0.000000; 0.078741;,
         0.500000; 0.000000;,
         0.230314; 0.539371;,
         0.460629; 1.000000;,
         0.230314; 0.539371;,
         0.769686; 0.539371;,
         0.460629; 1.000000;,
         0.769686; 0.539371;,
         0.539371; 1.000000;,
         1.000000; 0.078741;,
         0.960629; 0.000000;,
         0.500000; 0.000000;,
         1.000000; 0.078741;,
         0.500000; 0.000000;,
         0.769685; 0.539371;,
         0.230315; 0.539371;,
         0.500000; 0.000000;,
         0.039371; 0.000000;,
         0.230315; 0.539371;,
         0.039371; 0.000000;,
         0.000000; 0.078741;,
         0.460629; 1.000000;,
         0.539371; 1.000000;,
         0.769685; 0.539371;,
         0.460629; 1.000000;,
         0.769685; 0.539371;,
         0.230315; 0.539371;,
         0.960629; 0.000000;,
         1.000000; 0.078741;,
         0.769686; 0.539371;,
         0.960629; 0.000000;,
         0.769686; 0.539371;,
         0.500000; 0.000000;,
         0.000000; 0.078741;,
         0.039371; 0.000000;,
         0.500000; 0.000000;,
         0.000000; 0.078741;,
         0.500000; 0.000000;,
         0.230314; 0.539371;,
         0.460629; 1.000000;,
         0.230314; 0.539371;,
         0.769686; 0.539371;,
         0.460629; 1.000000;,
         0.769686; 0.539371;,
         0.539371; 1.000000;,
         0.769685; 0.539371;,
         0.500000; 0.000000;,
         0.230315; 0.539371;,
         0.500000; 0.000000;,
         0.769686; 0.539371;,
         0.230314; 0.539371;,
         0.500000; 0.000000;,
         0.769686; 0.539371;,
         0.230314; 0.539371;,
         0.500000; 0.000000;,
         0.230315; 0.539371;,
         0.769685; 0.539371;;
      } //End of Mesh UV Coordinates
    } //End of Mesh Mesh
  } //End of meganium_mat_1
} //End of Root Frame
