xof 0303txt 0032

template AnimTicksPerSecond {
  <9E415A43-7BA6-4a73-8743-B73D47E88476>
  DWORD AnimTicksPerSecond;
}

template XSkinMeshHeader {
  <3cf169ce-ff7c-44ab-93c0-f78f62d172e2>
  WORD nMaxSkinWeightsPerVertex;
  WORD nMaxSkinWeightsPerFace;
  WORD nBones;
}

template SkinWeights {
  <6f0d123b-bad2-4167-a0d0-80224f25fabb>
  STRING transformNodeName;
  DWORD nWeights;
  array DWORD vertexIndices[nWeights];
  array float weights[nWeights];
  Matrix4x4 matrixOffset;
}

Frame Root {
  FrameTransformMatrix {
     1.000000, 0.000000, 0.000000, 0.000000,
     0.000000, 0.000000, 1.000000, 0.000000,
     0.000000, 1.000000,-0.000000, 0.000000,
     0.000000, 0.000000, 0.000000, 1.000000;;
  }
  Frame dokucale_f_c_mat_0 {
    FrameTransformMatrix {
       1.000000, 0.000000, 0.000000, 0.000000,
       0.000000, 1.000000, 0.000000, 0.000000,
       0.000000, 0.000000, 1.000000, 0.000000,
       0.000000, 0.000000, 0.000000, 1.000000;;
    }
    Mesh { //Mesh Mesh
      360;
      -3.674921;16.952761; 3.164309;,
      -3.655827;17.313717; 3.920513;,
      -3.949750;16.601555; 3.401407;,
      -3.875891;17.063126; 4.090220;,
      -3.949750;16.601555; 3.401407;,
      -3.655827;17.313717; 3.920513;,
      -3.805734;16.283550; 3.702257;,
      -3.949750;16.601555; 3.401407;,
      -3.875891;17.063126; 4.090220;,
      -3.875891;17.063126; 4.090220;,
      -3.782617;16.799105; 4.279364;,
      -3.805734;16.283550; 3.702257;,
      -3.805734;16.283550; 3.702257;,
      -3.782617;16.799105; 4.279364;,
      -3.234118;16.328861; 3.789264;,
      -3.782617;16.799105; 4.279364;,
      -3.327526;16.779600; 4.307593;,
      -3.234118;16.328861; 3.789264;,
      -3.234118;16.328861; 3.789264;,
      -3.327526;16.779600; 4.307593;,
      -2.959290;16.680069; 3.552166;,
      -3.327526;16.779600; 4.307593;,
      -3.107460;17.030193; 4.137887;,
      -2.959290;16.680069; 3.552166;,
      -2.959290;16.680069; 3.552166;,
      -3.107460;17.030193; 4.137887;,
      -3.103306;16.998074; 3.251315;,
      -3.107460;17.030193; 4.137887;,
      -3.200736;17.294214; 3.948743;,
      -3.103306;16.998074; 3.251315;,
      -3.103306;16.998074; 3.251315;,
      -3.200736;17.294214; 3.948743;,
      -3.674921;16.952761; 3.164309;,
      -3.200736;17.294214; 3.948743;,
      -3.655827;17.313717; 3.920513;,
      -3.674921;16.952761; 3.164309;,
      -3.200736;17.294214; 3.948743;,
      -3.312212;17.465143; 4.471919;,
      -3.655827;17.313717; 3.920513;,
      -3.312212;17.465143; 4.471919;,
      -3.535893;17.474730; 4.458044;,
      -3.655827;17.313717; 3.920513;,
      -3.875891;17.063126; 4.090220;,
      -3.655827;17.313717; 3.920513;,
      -3.535893;17.474730; 4.458044;,
      -3.535893;17.474730; 4.458044;,
      -3.652158;17.318676; 4.564388;,
      -3.875891;17.063126; 4.090220;,
      -3.875891;17.063126; 4.090220;,
      -3.652158;17.318676; 4.564388;,
      -3.782617;16.799105; 4.279364;,
      -3.652158;17.318676; 4.564388;,
      -3.614416;17.156021; 4.680286;,
      -3.782617;16.799105; 4.279364;,
      -3.782617;16.799105; 4.279364;,
      -3.614416;17.156021; 4.680286;,
      -3.327526;16.779600; 4.307593;,
      -3.614416;17.156021; 4.680286;,
      -3.390736;17.146435; 4.694161;,
      -3.327526;16.779600; 4.307593;,
      -3.327526;16.779600; 4.307593;,
      -3.390736;17.146435; 4.694161;,
      -3.107460;17.030193; 4.137887;,
      -3.390736;17.146435; 4.694161;,
      -3.274471;17.302488; 4.587817;,
      -3.107460;17.030193; 4.137887;,
      -3.107460;17.030193; 4.137887;,
      -3.274471;17.302488; 4.587817;,
      -3.200736;17.294214; 3.948743;,
      -3.274471;17.302488; 4.587817;,
      -3.312212;17.465143; 4.471919;,
      -3.200736;17.294214; 3.948743;,
      -3.475993;15.904896; 3.086627;,
      -3.805734;16.283550; 3.702257;,
      -3.024100;15.996296; 3.196451;,
      -3.805734;16.283550; 3.702257;,
      -3.234118;16.328861; 3.789264;,
      -3.024100;15.996296; 3.196451;,
      -3.024100;15.996296; 3.196451;,
      -3.234118;16.328861; 3.789264;,
      -2.835827;16.262079; 3.018489;,
      -3.234118;16.328861; 3.789264;,
      -2.959290;16.680069; 3.552166;,
      -2.835827;16.262079; 3.018489;,
      -2.835827;16.262079; 3.018489;,
      -2.959290;16.680069; 3.552166;,
      -2.958692;16.464933; 2.764911;,
      -2.959290;16.680069; 3.552166;,
      -3.103306;16.998074; 3.251315;,
      -2.958692;16.464933; 2.764911;,
      -2.958692;16.464933; 2.764911;,
      -3.103306;16.998074; 3.251315;,
      -3.410584;16.373533; 2.655087;,
      -3.103306;16.998074; 3.251315;,
      -3.674921;16.952761; 3.164309;,
      -3.410584;16.373533; 2.655087;,
      -3.410584;16.373533; 2.655087;,
      -3.674921;16.952761; 3.164309;,
      -3.598858;16.107748; 2.833049;,
      -3.674921;16.952761; 3.164309;,
      -3.949750;16.601555; 3.401407;,
      -3.598858;16.107748; 2.833049;,
      -3.598858;16.107748; 2.833049;,
      -3.949750;16.601555; 3.401407;,
      -3.475993;15.904896; 3.086627;,
      -3.475993;15.904896; 3.086627;,
      -3.949750;16.601555; 3.401407;,
      -3.805734;16.283550; 3.702257;,
      -3.390736;17.146435; 4.694161;,
      -3.614416;17.156021; 4.680286;,
      -3.477787;17.401133; 4.731328;,
      -3.614416;17.156021; 4.680286;,
      -3.652158;17.318676; 4.564388;,
      -3.477787;17.401133; 4.731328;,
      -3.477787;17.401133; 4.731328;,
      -3.652158;17.318676; 4.564388;,
      -3.535893;17.474730; 4.458044;,
      -3.535893;17.474730; 4.458044;,
      -3.312212;17.465143; 4.471919;,
      -3.477787;17.401133; 4.731328;,
      -3.477787;17.401133; 4.731328;,
      -3.312212;17.465143; 4.471919;,
      -3.274471;17.302488; 4.587817;,
      -3.274471;17.302488; 4.587817;,
      -3.390736;17.146435; 4.694161;,
      -3.477787;17.401133; 4.731328;,
      -2.835827;16.262079; 3.018489;,
      -2.919604;15.924243; 2.569049;,
      -3.024100;15.996296; 3.196451;,
      -2.919604;15.924243; 2.569049;,
      -3.016321;15.763659; 2.684096;,
      -3.024100;15.996296; 3.196451;,
      -3.024100;15.996296; 3.196451;,
      -3.016321;15.763659; 2.684096;,
      -3.475993;15.904896; 3.086627;,
      -3.016321;15.763659; 2.684096;,
      -3.238428;15.718737; 2.630118;,
      -3.475993;15.904896; 3.086627;,
      -3.475993;15.904896; 3.086627;,
      -3.238428;15.718737; 2.630118;,
      -3.598858;16.107748; 2.833049;,
      -3.238428;15.718737; 2.630118;,
      -3.294636;15.848389; 2.477905;,
      -3.598858;16.107748; 2.833049;,
      -3.598858;16.107748; 2.833049;,
      -3.294636;15.848389; 2.477905;,
      -3.410584;16.373533; 2.655087;,
      -3.294636;15.848389; 2.477905;,
      -3.197919;16.008972; 2.362858;,
      -3.410584;16.373533; 2.655087;,
      -3.410584;16.373533; 2.655087;,
      -3.197919;16.008972; 2.362858;,
      -2.958692;16.464933; 2.764911;,
      -3.197919;16.008972; 2.362858;,
      -2.975812;16.053894; 2.416837;,
      -2.958692;16.464933; 2.764911;,
      -2.958692;16.464933; 2.764911;,
      -2.975812;16.053894; 2.416837;,
      -2.835827;16.262079; 3.018489;,
      -2.975812;16.053894; 2.416837;,
      -2.919604;15.924243; 2.569049;,
      -2.835827;16.262079; 3.018489;,
      -2.919604;15.924243; 2.569049;,
      -2.975812;16.053894; 2.416837;,
      -3.055567;15.746655; 2.335318;,
      -2.975812;16.053894; 2.416837;,
      -3.197919;16.008972; 2.362858;,
      -3.055567;15.746655; 2.335318;,
      -3.055567;15.746655; 2.335318;,
      -3.197919;16.008972; 2.362858;,
      -3.294636;15.848389; 2.477905;,
      -3.294636;15.848389; 2.477905;,
      -3.238428;15.718737; 2.630118;,
      -3.055567;15.746655; 2.335318;,
      -3.055567;15.746655; 2.335318;,
      -3.238428;15.718737; 2.630118;,
      -3.016321;15.763659; 2.684096;,
      -3.016321;15.763659; 2.684096;,
      -2.919604;15.924243; 2.569049;,
      -3.055567;15.746655; 2.335318;,
       0.190260;15.882702; 2.430983;,
       0.702221;16.364767; 2.739223;,
       0.094388;16.329391; 2.321544;,
       0.702221;16.364767; 2.739223;,
       0.533897;16.611683; 3.119483;,
       0.094388;16.329391; 2.321544;,
       0.094388;16.329391; 2.321544;,
       0.533897;16.611683; 3.119483;,
      -0.190232;16.646086; 2.751909;,
       0.533897;16.611683; 3.119483;,
       0.455799;16.444183; 3.428036;,
      -0.190232;16.646086; 2.751909;,
      -0.190232;16.646086; 2.751909;,
       0.455799;16.444183; 3.428036;,
      -0.302912;16.431452; 3.176694;,
       0.455799;16.444183; 3.428036;,
       0.493595;16.106676; 3.474772;,
      -0.302912;16.431452; 3.176694;,
      -0.302912;16.431452; 3.176694;,
       0.493595;16.106676; 3.474772;,
      -0.207041;15.984762; 3.286133;,
       0.493595;16.106676; 3.474772;,
       0.661920;15.859761; 3.094512;,
      -0.207041;15.984762; 3.286133;,
      -0.207041;15.984762; 3.286133;,
       0.661920;15.859761; 3.094512;,
       0.077579;15.668067; 2.855768;,
       0.661920;15.859761; 3.094512;,
       0.740017;16.027262; 2.785959;,
       0.077579;15.668067; 2.855768;,
       0.077579;15.668067; 2.855768;,
       0.740017;16.027262; 2.785959;,
       0.190260;15.882702; 2.430983;,
       0.740017;16.027262; 2.785959;,
       0.702221;16.364767; 2.739223;,
       0.190260;15.882702; 2.430983;,
       0.702221;16.364767; 2.739223;,
       1.053419;16.452646; 3.276573;,
       0.533897;16.611683; 3.119483;,
       1.053419;16.452646; 3.276573;,
       1.012458;16.338047; 3.450933;,
       0.533897;16.611683; 3.119483;,
       0.533897;16.611683; 3.119483;,
       1.012458;16.338047; 3.450933;,
       0.455799;16.444183; 3.428036;,
       1.012458;16.338047; 3.450933;,
       1.028460;16.139887; 3.496610;,
       0.455799;16.444183; 3.428036;,
       0.455799;16.444183; 3.428036;,
       1.028460;16.139887; 3.496610;,
       0.493595;16.106676; 3.474772;,
       1.028460;16.139887; 3.496610;,
       1.111192;16.018528; 3.309710;,
       0.493595;16.106676; 3.474772;,
       0.493595;16.106676; 3.474772;,
       1.111192;16.018528; 3.309710;,
       0.661920;15.859761; 3.094512;,
       1.111192;16.018528; 3.309710;,
       1.152153;16.133127; 3.135350;,
       0.661920;15.859761; 3.094512;,
       0.661920;15.859761; 3.094512;,
       1.152153;16.133127; 3.135350;,
       0.740017;16.027262; 2.785959;,
       1.152153;16.133127; 3.135350;,
       1.136152;16.331287; 3.089673;,
       0.740017;16.027262; 2.785959;,
       0.740017;16.027262; 2.785959;,
       1.136152;16.331287; 3.089673;,
       0.702221;16.364767; 2.739223;,
       1.136152;16.331287; 3.089673;,
       1.053419;16.452646; 3.276573;,
       0.702221;16.364767; 2.739223;,
      -0.741014;15.774476; 2.772858;,
       0.077579;15.668067; 2.855768;,
      -0.457731;15.518890; 2.470256;,
       0.077579;15.668067; 2.855768;,
       0.190260;15.882702; 2.430983;,
      -0.457731;15.518890; 2.470256;,
      -0.457731;15.518890; 2.470256;,
       0.190260;15.882702; 2.430983;,
      -0.368009;15.664230; 2.151268;,
       0.190260;15.882702; 2.430983;,
       0.094388;16.329391; 2.321544;,
      -0.368009;15.664230; 2.151268;,
      -0.368009;15.664230; 2.151268;,
       0.094388;16.329391; 2.321544;,
      -0.473335;15.985546; 2.040628;,
       0.094388;16.329391; 2.321544;,
      -0.190232;16.646086; 2.751909;,
      -0.473335;15.985546; 2.040628;,
      -0.473335;15.985546; 2.040628;,
      -0.190232;16.646086; 2.751909;,
      -0.756618;16.241131; 2.343230;,
      -0.190232;16.646086; 2.751909;,
      -0.302912;16.431452; 3.176694;,
      -0.756618;16.241131; 2.343230;,
      -0.756618;16.241131; 2.343230;,
      -0.302912;16.431452; 3.176694;,
      -0.846339;16.095791; 2.662217;,
      -0.302912;16.431452; 3.176694;,
      -0.207041;15.984762; 3.286133;,
      -0.846339;16.095791; 2.662217;,
      -0.846339;16.095791; 2.662217;,
      -0.207041;15.984762; 3.286133;,
      -0.741014;15.774476; 2.772858;,
      -0.207041;15.984762; 3.286133;,
       0.077579;15.668067; 2.855768;,
      -0.741014;15.774476; 2.772858;,
       1.111192;16.018528; 3.309710;,
       1.028460;16.139887; 3.496610;,
       1.255516;16.222469; 3.336148;,
       1.028460;16.139887; 3.496610;,
       1.012458;16.338047; 3.450933;,
       1.255516;16.222469; 3.336148;,
       1.255516;16.222469; 3.336148;,
       1.012458;16.338047; 3.450933;,
       1.053419;16.452646; 3.276573;,
       1.053419;16.452646; 3.276573;,
       1.136152;16.331287; 3.089673;,
       1.255516;16.222469; 3.336148;,
       1.255516;16.222469; 3.336148;,
       1.136152;16.331287; 3.089673;,
       1.152153;16.133127; 3.135350;,
       1.152153;16.133127; 3.135350;,
       1.111192;16.018528; 3.309710;,
       1.255516;16.222469; 3.336148;,
      -0.741014;15.774476; 2.772858;,
      -1.137492;15.848727; 2.281081;,
      -0.846339;16.095791; 2.662217;,
      -1.137492;15.848727; 2.281081;,
      -1.094391;15.949984; 2.096841;,
      -0.846339;16.095791; 2.662217;,
      -0.846339;16.095791; 2.662217;,
      -1.094391;15.949984; 2.096841;,
      -0.756618;16.241131; 2.343230;,
      -1.094391;15.949984; 2.096841;,
      -0.955156;15.824363; 1.948111;,
      -0.756618;16.241131; 2.343230;,
      -0.756618;16.241131; 2.343230;,
      -0.955156;15.824363; 1.948111;,
      -0.473335;15.985546; 2.040628;,
      -0.955156;15.824363; 1.948111;,
      -0.902391;15.636613; 2.029947;,
      -0.473335;15.985546; 2.040628;,
      -0.473335;15.985546; 2.040628;,
      -0.902391;15.636613; 2.029947;,
      -0.368009;15.664230; 2.151268;,
      -0.902391;15.636613; 2.029947;,
      -0.945492;15.535356; 2.214187;,
      -0.368009;15.664230; 2.151268;,
      -0.368009;15.664230; 2.151268;,
      -0.945492;15.535356; 2.214187;,
      -0.457731;15.518890; 2.470256;,
      -0.945492;15.535356; 2.214187;,
      -1.084727;15.660976; 2.362917;,
      -0.457731;15.518890; 2.470256;,
      -0.457731;15.518890; 2.470256;,
      -1.084727;15.660976; 2.362917;,
      -0.741014;15.774476; 2.772858;,
      -1.084727;15.660976; 2.362917;,
      -1.137492;15.848727; 2.281081;,
      -0.741014;15.774476; 2.772858;,
      -1.137492;15.848727; 2.281081;,
      -1.084727;15.660976; 2.362917;,
      -1.213000;15.678433; 2.038010;,
      -1.084727;15.660976; 2.362917;,
      -0.945492;15.535356; 2.214187;,
      -1.213000;15.678433; 2.038010;,
      -1.213000;15.678433; 2.038010;,
      -0.945492;15.535356; 2.214187;,
      -0.902391;15.636613; 2.029947;,
      -0.902391;15.636613; 2.029947;,
      -0.955156;15.824363; 1.948111;,
      -1.213000;15.678433; 2.038010;,
      -1.213000;15.678433; 2.038010;,
      -0.955156;15.824363; 1.948111;,
      -1.094391;15.949984; 2.096841;,
      -1.094391;15.949984; 2.096841;,
      -1.137492;15.848727; 2.281081;,
      -1.213000;15.678433; 2.038010;;
      120;
      3;0;1;2;,
      3;3;4;5;,
      3;6;7;8;,
      3;9;10;11;,
      3;12;13;14;,
      3;15;16;17;,
      3;18;19;20;,
      3;21;22;23;,
      3;24;25;26;,
      3;27;28;29;,
      3;30;31;32;,
      3;33;34;35;,
      3;36;37;38;,
      3;39;40;41;,
      3;42;43;44;,
      3;45;46;47;,
      3;48;49;50;,
      3;51;52;53;,
      3;54;55;56;,
      3;57;58;59;,
      3;60;61;62;,
      3;63;64;65;,
      3;66;67;68;,
      3;69;70;71;,
      3;72;73;74;,
      3;75;76;77;,
      3;78;79;80;,
      3;81;82;83;,
      3;84;85;86;,
      3;87;88;89;,
      3;90;91;92;,
      3;93;94;95;,
      3;96;97;98;,
      3;99;100;101;,
      3;102;103;104;,
      3;105;106;107;,
      3;108;109;110;,
      3;111;112;113;,
      3;114;115;116;,
      3;117;118;119;,
      3;120;121;122;,
      3;123;124;125;,
      3;126;127;128;,
      3;129;130;131;,
      3;132;133;134;,
      3;135;136;137;,
      3;138;139;140;,
      3;141;142;143;,
      3;144;145;146;,
      3;147;148;149;,
      3;150;151;152;,
      3;153;154;155;,
      3;156;157;158;,
      3;159;160;161;,
      3;162;163;164;,
      3;165;166;167;,
      3;168;169;170;,
      3;171;172;173;,
      3;174;175;176;,
      3;177;178;179;,
      3;180;181;182;,
      3;183;184;185;,
      3;186;187;188;,
      3;189;190;191;,
      3;192;193;194;,
      3;195;196;197;,
      3;198;199;200;,
      3;201;202;203;,
      3;204;205;206;,
      3;207;208;209;,
      3;210;211;212;,
      3;213;214;215;,
      3;216;217;218;,
      3;219;220;221;,
      3;222;223;224;,
      3;225;226;227;,
      3;228;229;230;,
      3;231;232;233;,
      3;234;235;236;,
      3;237;238;239;,
      3;240;241;242;,
      3;243;244;245;,
      3;246;247;248;,
      3;249;250;251;,
      3;252;253;254;,
      3;255;256;257;,
      3;258;259;260;,
      3;261;262;263;,
      3;264;265;266;,
      3;267;268;269;,
      3;270;271;272;,
      3;273;274;275;,
      3;276;277;278;,
      3;279;280;281;,
      3;282;283;284;,
      3;285;286;287;,
      3;288;289;290;,
      3;291;292;293;,
      3;294;295;296;,
      3;297;298;299;,
      3;300;301;302;,
      3;303;304;305;,
      3;306;307;308;,
      3;309;310;311;,
      3;312;313;314;,
      3;315;316;317;,
      3;318;319;320;,
      3;321;322;323;,
      3;324;325;326;,
      3;327;328;329;,
      3;330;331;332;,
      3;333;334;335;,
      3;336;337;338;,
      3;339;340;341;,
      3;342;343;344;,
      3;345;346;347;,
      3;348;349;350;,
      3;351;352;353;,
      3;354;355;356;,
      3;357;358;359;;
      MeshNormals { //Mesh Normals
        360;
         0.472793;-0.657155; 0.586993;,
         0.431166;-0.853633; 0.292215;,
         0.976653; 0.004913; 0.214759;,
         0.959471;-0.266488;-0.091281;,
         0.976653; 0.004913; 0.214759;,
         0.431166;-0.853633; 0.292215;,
         0.612171; 0.697073;-0.373241;,
         0.976653; 0.004913; 0.214759;,
         0.959471;-0.266488;-0.091281;,
         0.959471;-0.266488;-0.091281;,
         0.644734; 0.492294;-0.584735;,
         0.612171; 0.697073;-0.373241;,
         0.612171; 0.697073;-0.373241;,
         0.644734; 0.492294;-0.584735;,
        -0.427931; 0.680258;-0.595050;,
         0.644734; 0.492294;-0.584735;,
        -0.412793; 0.643025;-0.645009;,
        -0.427931; 0.680258;-0.595050;,
        -0.427931; 0.680258;-0.595050;,
        -0.412793; 0.643025;-0.645009;,
        -0.976409;-0.033296;-0.213233;,
        -0.412793; 0.643025;-0.645009;,
        -0.959716; 0.001526;-0.280862;,
        -0.976409;-0.033296;-0.213233;,
        -0.976409;-0.033296;-0.213233;,
        -0.959716; 0.001526;-0.280862;,
        -0.539354;-0.736961; 0.407361;,
        -0.959716; 0.001526;-0.280862;,
        -0.598590;-0.776666; 0.195990;,
        -0.539354;-0.736961; 0.407361;,
        -0.539354;-0.736961; 0.407361;,
        -0.598590;-0.776666; 0.195990;,
         0.472793;-0.657155; 0.586993;,
        -0.598590;-0.776666; 0.195990;,
         0.431166;-0.853633; 0.292215;,
         0.472793;-0.657155; 0.586993;,
        -0.598590;-0.776666; 0.195990;,
        -0.550584;-0.827448;-0.110050;,
         0.431166;-0.853633; 0.292215;,
        -0.550584;-0.827448;-0.110050;,
         0.359447;-0.932737;-0.027894;,
         0.431166;-0.853633; 0.292215;,
         0.959471;-0.266488;-0.091281;,
         0.431166;-0.853633; 0.292215;,
         0.359447;-0.932737;-0.027894;,
         0.359447;-0.932737;-0.027894;,
         0.839320;-0.414808;-0.351299;,
         0.959471;-0.266488;-0.091281;,
         0.959471;-0.266488;-0.091281;,
         0.839320;-0.414808;-0.351299;,
         0.644734; 0.492294;-0.584735;,
         0.839320;-0.414808;-0.351299;,
         0.547624; 0.266427;-0.793146;,
         0.644734; 0.492294;-0.584735;,
         0.644734; 0.492294;-0.584735;,
         0.547624; 0.266427;-0.793146;,
        -0.412793; 0.643025;-0.645009;,
         0.547624; 0.266427;-0.793146;,
        -0.380169; 0.386151;-0.840419;,
        -0.412793; 0.643025;-0.645009;,
        -0.412793; 0.643025;-0.645009;,
        -0.380169; 0.386151;-0.840419;,
        -0.959716; 0.001526;-0.280862;,
        -0.380169; 0.386151;-0.840419;,
        -0.846980;-0.164006;-0.505661;,
        -0.959716; 0.001526;-0.280862;,
        -0.959716; 0.001526;-0.280862;,
        -0.846980;-0.164006;-0.505661;,
        -0.598590;-0.776666; 0.195990;,
        -0.846980;-0.164006;-0.505661;,
        -0.550584;-0.827448;-0.110050;,
        -0.598590;-0.776666; 0.195990;,
         0.437696; 0.868282;-0.233375;,
         0.612171; 0.697073;-0.373241;,
        -0.545518; 0.697623;-0.464461;,
         0.612171; 0.697073;-0.373241;,
        -0.427931; 0.680258;-0.595050;,
        -0.545518; 0.697623;-0.464461;,
        -0.545518; 0.697623;-0.464461;,
        -0.427931; 0.680258;-0.595050;,
        -0.995666; 0.042421;-0.082430;,
        -0.427931; 0.680258;-0.595050;,
        -0.976409;-0.033296;-0.213233;,
        -0.995666; 0.042421;-0.082430;,
        -0.995666; 0.042421;-0.082430;,
        -0.976409;-0.033296;-0.213233;,
        -0.610431;-0.566973; 0.553056;,
        -0.976409;-0.033296;-0.213233;,
        -0.539354;-0.736961; 0.407361;,
        -0.610431;-0.566973; 0.553056;,
        -0.610431;-0.566973; 0.553056;,
        -0.539354;-0.736961; 0.407361;,
         0.423109;-0.439802; 0.792138;,
        -0.539354;-0.736961; 0.407361;,
         0.472793;-0.657155; 0.586993;,
         0.423109;-0.439802; 0.792138;,
         0.423109;-0.439802; 0.792138;,
         0.472793;-0.657155; 0.586993;,
         0.874050; 0.270089; 0.403821;,
         0.472793;-0.657155; 0.586993;,
         0.976653; 0.004913; 0.214759;,
         0.874050; 0.270089; 0.403821;,
         0.874050; 0.270089; 0.403821;,
         0.976653; 0.004913; 0.214759;,
         0.437696; 0.868282;-0.233375;,
         0.437696; 0.868282;-0.233375;,
         0.976653; 0.004913; 0.214759;,
         0.612171; 0.697073;-0.373241;,
        -0.380169; 0.386151;-0.840419;,
         0.547624; 0.266427;-0.793146;,
         0.049440;-0.546953;-0.835688;,
         0.547624; 0.266427;-0.793146;,
         0.839320;-0.414808;-0.351299;,
         0.049440;-0.546953;-0.835688;,
         0.049440;-0.546953;-0.835688;,
         0.839320;-0.414808;-0.351299;,
         0.359447;-0.932737;-0.027894;,
         0.359447;-0.932737;-0.027894;,
        -0.550584;-0.827448;-0.110050;,
         0.049440;-0.546953;-0.835688;,
         0.049440;-0.546953;-0.835688;,
        -0.550584;-0.827448;-0.110050;,
        -0.846980;-0.164006;-0.505661;,
        -0.846980;-0.164006;-0.505661;,
        -0.380169; 0.386151;-0.840419;,
         0.049440;-0.546953;-0.835688;,
        -0.995666; 0.042421;-0.082430;,
        -0.959258; 0.246529; 0.137883;,
        -0.545518; 0.697623;-0.464461;,
        -0.959258; 0.246529; 0.137883;,
        -0.555803; 0.805750;-0.204505;,
        -0.545518; 0.697623;-0.464461;,
        -0.545518; 0.697623;-0.464461;,
        -0.555803; 0.805750;-0.204505;,
         0.437696; 0.868282;-0.233375;,
        -0.555803; 0.805750;-0.204505;,
         0.326060; 0.945311; 0.006836;,
         0.437696; 0.868282;-0.233375;,
         0.437696; 0.868282;-0.233375;,
         0.326060; 0.945311; 0.006836;,
         0.874050; 0.270089; 0.403821;,
         0.326060; 0.945311; 0.006836;,
         0.735191; 0.392712; 0.552446;,
         0.874050; 0.270089; 0.403821;,
         0.874050; 0.270089; 0.403821;,
         0.735191; 0.392712; 0.552446;,
         0.423109;-0.439802; 0.792138;,
         0.735191; 0.392712; 0.552446;,
         0.326212;-0.235267; 0.915525;,
         0.423109;-0.439802; 0.792138;,
         0.423109;-0.439802; 0.792138;,
         0.326212;-0.235267; 0.915525;,
        -0.610431;-0.566973; 0.553056;,
         0.326212;-0.235267; 0.915525;,
        -0.609943;-0.321390; 0.724296;,
        -0.610431;-0.566973; 0.553056;,
        -0.610431;-0.566973; 0.553056;,
        -0.609943;-0.321390; 0.724296;,
        -0.995666; 0.042421;-0.082430;,
        -0.609943;-0.321390; 0.724296;,
        -0.959258; 0.246529; 0.137883;,
        -0.995666; 0.042421;-0.082430;,
        -0.959258; 0.246529; 0.137883;,
        -0.609943;-0.321390; 0.724296;,
        -0.244911; 0.621693; 0.743950;,
        -0.609943;-0.321390; 0.724296;,
         0.326212;-0.235267; 0.915525;,
        -0.244911; 0.621693; 0.743950;,
        -0.244911; 0.621693; 0.743950;,
         0.326212;-0.235267; 0.915525;,
         0.735191; 0.392712; 0.552446;,
         0.735191; 0.392712; 0.552446;,
         0.326060; 0.945311; 0.006836;,
        -0.244911; 0.621693; 0.743950;,
        -0.244911; 0.621693; 0.743950;,
         0.326060; 0.945311; 0.006836;,
        -0.555803; 0.805750;-0.204505;,
        -0.555803; 0.805750;-0.204505;,
        -0.959258; 0.246529; 0.137883;,
        -0.244911; 0.621693; 0.743950;,
        -0.547349; 0.510453; 0.663198;,
        -0.519608;-0.475600; 0.709769;,
        -0.319254;-0.473983; 0.820612;,
        -0.519608;-0.475600; 0.709769;,
        -0.144261;-0.987884;-0.056703;,
        -0.319254;-0.473983; 0.820612;,
        -0.319254;-0.473983; 0.820612;,
        -0.144261;-0.987884;-0.056703;,
         0.217170;-0.967864; 0.126682;,
        -0.144261;-0.987884;-0.056703;,
         0.120151;-0.568682;-0.813715;,
         0.217170;-0.967864; 0.126682;,
         0.217170;-0.967864; 0.126682;,
         0.120151;-0.568682;-0.813715;,
         0.517289;-0.548723;-0.656728;,
         0.120151;-0.568682;-0.813715;,
         0.102542; 0.391888;-0.914243;,
         0.517289;-0.548723;-0.656728;,
         0.517289;-0.548723;-0.656728;,
         0.102542; 0.391888;-0.914243;,
         0.356304; 0.388501;-0.849757;,
         0.102542; 0.391888;-0.914243;,
        -0.273324; 0.954772;-0.117038;,
         0.356304; 0.388501;-0.849757;,
         0.356304; 0.388501;-0.849757;,
        -0.273324; 0.954772;-0.117038;,
        -0.191290; 0.965850;-0.174718;,
        -0.273324; 0.954772;-0.117038;,
        -0.587634; 0.488907; 0.644704;,
        -0.191290; 0.965850;-0.174718;,
        -0.191290; 0.965850;-0.174718;,
        -0.587634; 0.488907; 0.644704;,
        -0.547349; 0.510453; 0.663198;,
        -0.587634; 0.488907; 0.644704;,
        -0.519608;-0.475600; 0.709769;,
        -0.547349; 0.510453; 0.663198;,
        -0.519608;-0.475600; 0.709769;,
        -0.454146;-0.875912;-0.162755;,
        -0.144261;-0.987884;-0.056703;,
        -0.454146;-0.875912;-0.162755;,
        -0.275735;-0.526872;-0.803949;,
        -0.144261;-0.987884;-0.056703;,
        -0.144261;-0.987884;-0.056703;,
        -0.275735;-0.526872;-0.803949;,
         0.120151;-0.568682;-0.813715;,
        -0.275735;-0.526872;-0.803949;,
        -0.271798; 0.320139;-0.907529;,
         0.120151;-0.568682;-0.813715;,
         0.120151;-0.568682;-0.813715;,
        -0.271798; 0.320139;-0.907529;,
         0.102542; 0.391888;-0.914243;,
        -0.271798; 0.320139;-0.907529;,
        -0.518754; 0.832759;-0.193335;,
         0.102542; 0.391888;-0.914243;,
         0.102542; 0.391888;-0.914243;,
        -0.518754; 0.832759;-0.193335;,
        -0.273324; 0.954772;-0.117038;,
        -0.518754; 0.832759;-0.193335;,
        -0.756981; 0.429090; 0.492752;,
        -0.273324; 0.954772;-0.117038;,
        -0.273324; 0.954772;-0.117038;,
        -0.756981; 0.429090; 0.492752;,
        -0.587634; 0.488907; 0.644704;,
        -0.756981; 0.429090; 0.492752;,
        -0.738334;-0.423719; 0.524644;,
        -0.587634; 0.488907; 0.644704;,
        -0.587634; 0.488907; 0.644704;,
        -0.738334;-0.423719; 0.524644;,
        -0.519608;-0.475600; 0.709769;,
        -0.738334;-0.423719; 0.524644;,
        -0.454146;-0.875912;-0.162755;,
        -0.519608;-0.475600; 0.709769;,
         0.546220; 0.485244;-0.682730;,
        -0.191290; 0.965850;-0.174718;,
        -0.082858; 0.992615;-0.088412;,
        -0.191290; 0.965850;-0.174718;,
        -0.547349; 0.510453; 0.663198;,
        -0.082858; 0.992615;-0.088412;,
        -0.082858; 0.992615;-0.088412;,
        -0.547349; 0.510453; 0.663198;,
        -0.393048; 0.610797; 0.687307;,
        -0.547349; 0.510453; 0.663198;,
        -0.319254;-0.473983; 0.820612;,
        -0.393048; 0.610797; 0.687307;,
        -0.393048; 0.610797; 0.687307;,
        -0.319254;-0.473983; 0.820612;,
        -0.185247;-0.277352; 0.942717;,
        -0.319254;-0.473983; 0.820612;,
         0.217170;-0.967864; 0.126682;,
        -0.185247;-0.277352; 0.942717;,
        -0.185247;-0.277352; 0.942717;,
         0.217170;-0.967864; 0.126682;,
         0.432630;-0.846889; 0.309091;,
         0.217170;-0.967864; 0.126682;,
         0.517289;-0.548723;-0.656728;,
         0.432630;-0.846889; 0.309091;,
         0.432630;-0.846889; 0.309091;,
         0.517289;-0.548723;-0.656728;,
         0.788354;-0.402173;-0.465529;,
         0.517289;-0.548723;-0.656728;,
         0.356304; 0.388501;-0.849757;,
         0.788354;-0.402173;-0.465529;,
         0.788354;-0.402173;-0.465529;,
         0.356304; 0.388501;-0.849757;,
         0.546220; 0.485244;-0.682730;,
         0.356304; 0.388501;-0.849757;,
        -0.191290; 0.965850;-0.174718;,
         0.546220; 0.485244;-0.682730;,
        -0.518754; 0.832759;-0.193335;,
        -0.271798; 0.320139;-0.907529;,
        -0.958861;-0.046052;-0.280068;,
        -0.271798; 0.320139;-0.907529;,
        -0.275735;-0.526872;-0.803949;,
        -0.958861;-0.046052;-0.280068;,
        -0.958861;-0.046052;-0.280068;,
        -0.275735;-0.526872;-0.803949;,
        -0.454146;-0.875912;-0.162755;,
        -0.454146;-0.875912;-0.162755;,
        -0.738334;-0.423719; 0.524644;,
        -0.958861;-0.046052;-0.280068;,
        -0.958861;-0.046052;-0.280068;,
        -0.738334;-0.423719; 0.524644;,
        -0.756981; 0.429090; 0.492752;,
        -0.756981; 0.429090; 0.492752;,
        -0.518754; 0.832759;-0.193335;,
        -0.958861;-0.046052;-0.280068;,
         0.546220; 0.485244;-0.682730;,
         0.904477;-0.273598;-0.327158;,
         0.788354;-0.402173;-0.465529;,
         0.904477;-0.273598;-0.327158;,
         0.626972;-0.668874; 0.399304;,
         0.788354;-0.402173;-0.465529;,
         0.788354;-0.402173;-0.465529;,
         0.626972;-0.668874; 0.399304;,
         0.432630;-0.846889; 0.309091;,
         0.626972;-0.668874; 0.399304;,
         0.087069;-0.154424; 0.984130;,
         0.432630;-0.846889; 0.309091;,
         0.432630;-0.846889; 0.309091;,
         0.087069;-0.154424; 0.984130;,
        -0.185247;-0.277352; 0.942717;,
         0.087069;-0.154424; 0.984130;,
        -0.079196; 0.653066; 0.753136;,
        -0.185247;-0.277352; 0.942717;,
        -0.185247;-0.277352; 0.942717;,
        -0.079196; 0.653066; 0.753136;,
        -0.393048; 0.610797; 0.687307;,
        -0.079196; 0.653066; 0.753136;,
         0.197546; 0.979034; 0.049562;,
        -0.393048; 0.610797; 0.687307;,
        -0.393048; 0.610797; 0.687307;,
         0.197546; 0.979034; 0.049562;,
        -0.082858; 0.992615;-0.088412;,
         0.197546; 0.979034; 0.049562;,
         0.702963; 0.496414;-0.509262;,
        -0.082858; 0.992615;-0.088412;,
        -0.082858; 0.992615;-0.088412;,
         0.702963; 0.496414;-0.509262;,
         0.546220; 0.485244;-0.682730;,
         0.702963; 0.496414;-0.509262;,
         0.904477;-0.273598;-0.327158;,
         0.546220; 0.485244;-0.682730;,
         0.904477;-0.273598;-0.327158;,
         0.702963; 0.496414;-0.509262;,
         0.821345; 0.333842; 0.462478;,
         0.702963; 0.496414;-0.509262;,
         0.197546; 0.979034; 0.049562;,
         0.821345; 0.333842; 0.462478;,
         0.821345; 0.333842; 0.462478;,
         0.197546; 0.979034; 0.049562;,
        -0.079196; 0.653066; 0.753136;,
        -0.079196; 0.653066; 0.753136;,
         0.087069;-0.154424; 0.984130;,
         0.821345; 0.333842; 0.462478;,
         0.821345; 0.333842; 0.462478;,
         0.087069;-0.154424; 0.984130;,
         0.626972;-0.668874; 0.399304;,
         0.626972;-0.668874; 0.399304;,
         0.904477;-0.273598;-0.327158;,
         0.821345; 0.333842; 0.462478;;
        120;
        3;0;1;2;,
        3;3;4;5;,
        3;6;7;8;,
        3;9;10;11;,
        3;12;13;14;,
        3;15;16;17;,
        3;18;19;20;,
        3;21;22;23;,
        3;24;25;26;,
        3;27;28;29;,
        3;30;31;32;,
        3;33;34;35;,
        3;36;37;38;,
        3;39;40;41;,
        3;42;43;44;,
        3;45;46;47;,
        3;48;49;50;,
        3;51;52;53;,
        3;54;55;56;,
        3;57;58;59;,
        3;60;61;62;,
        3;63;64;65;,
        3;66;67;68;,
        3;69;70;71;,
        3;72;73;74;,
        3;75;76;77;,
        3;78;79;80;,
        3;81;82;83;,
        3;84;85;86;,
        3;87;88;89;,
        3;90;91;92;,
        3;93;94;95;,
        3;96;97;98;,
        3;99;100;101;,
        3;102;103;104;,
        3;105;106;107;,
        3;108;109;110;,
        3;111;112;113;,
        3;114;115;116;,
        3;117;118;119;,
        3;120;121;122;,
        3;123;124;125;,
        3;126;127;128;,
        3;129;130;131;,
        3;132;133;134;,
        3;135;136;137;,
        3;138;139;140;,
        3;141;142;143;,
        3;144;145;146;,
        3;147;148;149;,
        3;150;151;152;,
        3;153;154;155;,
        3;156;157;158;,
        3;159;160;161;,
        3;162;163;164;,
        3;165;166;167;,
        3;168;169;170;,
        3;171;172;173;,
        3;174;175;176;,
        3;177;178;179;,
        3;180;181;182;,
        3;183;184;185;,
        3;186;187;188;,
        3;189;190;191;,
        3;192;193;194;,
        3;195;196;197;,
        3;198;199;200;,
        3;201;202;203;,
        3;204;205;206;,
        3;207;208;209;,
        3;210;211;212;,
        3;213;214;215;,
        3;216;217;218;,
        3;219;220;221;,
        3;222;223;224;,
        3;225;226;227;,
        3;228;229;230;,
        3;231;232;233;,
        3;234;235;236;,
        3;237;238;239;,
        3;240;241;242;,
        3;243;244;245;,
        3;246;247;248;,
        3;249;250;251;,
        3;252;253;254;,
        3;255;256;257;,
        3;258;259;260;,
        3;261;262;263;,
        3;264;265;266;,
        3;267;268;269;,
        3;270;271;272;,
        3;273;274;275;,
        3;276;277;278;,
        3;279;280;281;,
        3;282;283;284;,
        3;285;286;287;,
        3;288;289;290;,
        3;291;292;293;,
        3;294;295;296;,
        3;297;298;299;,
        3;300;301;302;,
        3;303;304;305;,
        3;306;307;308;,
        3;309;310;311;,
        3;312;313;314;,
        3;315;316;317;,
        3;318;319;320;,
        3;321;322;323;,
        3;324;325;326;,
        3;327;328;329;,
        3;330;331;332;,
        3;333;334;335;,
        3;336;337;338;,
        3;339;340;341;,
        3;342;343;344;,
        3;345;346;347;,
        3;348;349;350;,
        3;351;352;353;,
        3;354;355;356;,
        3;357;358;359;;
      } //End of Mesh Normals
      MeshMaterialList { //Mesh Material List
        1;
        120;
        0,
        0,
        0,
        0,
        0,
        0,
        0,
        0,
        0,
        0,
        0,
        0,
        0,
        0,
        0,
        0,
        0,
        0,
        0,
        0,
        0,
        0,
        0,
        0,
        0,
        0,
        0,
        0,
        0,
        0,
        0,
        0,
        0,
        0,
        0,
        0,
        0,
        0,
        0,
        0,
        0,
        0,
        0,
        0,
        0,
        0,
        0,
        0,
        0,
        0,
        0,
        0,
        0,
        0,
        0,
        0,
        0,
        0,
        0,
        0,
        0,
        0,
        0,
        0,
        0,
        0,
        0,
        0,
        0,
        0,
        0,
        0,
        0,
        0,
        0,
        0,
        0,
        0,
        0,
        0,
        0,
        0,
        0,
        0,
        0,
        0,
        0,
        0,
        0,
        0,
        0,
        0,
        0,
        0,
        0,
        0,
        0,
        0,
        0,
        0,
        0,
        0,
        0,
        0,
        0,
        0,
        0,
        0,
        0,
        0,
        0,
        0,
        0,
        0,
        0,
        0,
        0,
        0,
        0,
        0;;
        Material mat_0 {
           0.640000; 0.640000; 0.640000; 1.000000;;
           92.156863;
           0.250000; 0.250000; 0.250000;;
           0.000000; 0.000000; 0.000000;;
          TextureFilename {"Textures/dokucale_f_c_3_0.tga";}
        }
      } //End of Mesh Material List
      MeshTextureCoords { //Mesh UV Coordinates
        360;
        -0.002000; 0.941833;,
         0.133000; 0.027000;,
         0.500000; 0.946833;,
         0.500000; 0.946833;,
         0.133000; 0.027000;,
         0.500000; 0.027000;,
         1.000000; 0.946833;,
         0.500000; 0.946833;,
         0.500000; 0.027000;,
         0.500000; 0.027000;,
         0.867317; 0.026880;,
         1.000000; 0.946833;,
         1.000000; 0.946833;,
         0.867317; 0.026880;,
         1.000000; 0.946833;,
         0.867317; 0.026880;,
         0.867317; 0.026880;,
         1.000000; 0.946833;,
         1.000000; 0.946833;,
         0.867317; 0.026880;,
         0.500000; 0.946833;,
         0.867317; 0.026880;,
         0.500000; 0.027000;,
         0.500000; 0.946833;,
         0.500000; 0.946833;,
         0.500000; 0.027000;,
        -0.002000; 0.941833;,
         0.500000; 0.027000;,
         0.133000; 0.027000;,
        -0.002000; 0.941833;,
        -0.002000; 0.941833;,
         0.133000; 0.027000;,
        -0.002000; 0.941833;,
         0.133000; 0.027000;,
         0.133000; 0.027000;,
        -0.002000; 0.941833;,
         0.864698; 0.001104;,
         0.712879; 0.700410;,
         0.864698; 0.001104;,
         0.712879; 0.700410;,
         0.712879; 0.700410;,
         0.864698; 0.001104;,
         0.864698; 0.001104;,
         0.712879; 0.700410;,
         0.497459; 0.008650;,
         0.712879; 0.700410;,
         0.485442; 0.705084;,
         0.497459; 0.008650;,
         0.497459; 0.008650;,
         0.485442; 0.705084;,
         0.130219; 0.016196;,
         0.485442; 0.705084;,
         0.258005; 0.709757;,
         0.130219; 0.016196;,
         0.130219; 0.016196;,
         0.258005; 0.709757;,
         0.130219; 0.016196;,
         0.258005; 0.709757;,
         0.258005; 0.709757;,
         0.130219; 0.016196;,
         0.130219; 0.016196;,
         0.258005; 0.709757;,
         0.497459; 0.008650;,
         0.258005; 0.709757;,
         0.485442; 0.705084;,
         0.497459; 0.008650;,
         0.497459; 0.008650;,
         0.485442; 0.705084;,
         0.864698; 0.001104;,
         0.485442; 0.705084;,
         0.712879; 0.700410;,
         0.864698; 0.001104;,
         0.867317; 0.950547;,
         1.000000; 0.030380;,
         0.867317; 0.950547;,
         1.000000; 0.030380;,
         1.000000; 0.030380;,
         0.867317; 0.950547;,
         0.867317; 0.950547;,
         1.000000; 0.030380;,
         0.500000; 0.950547;,
         1.000000; 0.030380;,
         0.500000; 0.030380;,
         0.500000; 0.950547;,
         0.500000; 0.950547;,
         0.500000; 0.030380;,
         0.132683; 0.950547;,
         0.500000; 0.030380;,
         0.000000; 0.030380;,
         0.132683; 0.950547;,
         0.132683; 0.950547;,
         0.000000; 0.030380;,
         0.132683; 0.950547;,
         0.000000; 0.030380;,
         0.000000; 0.030380;,
         0.132683; 0.950547;,
         0.132683; 0.950547;,
         0.000000; 0.030380;,
         0.500000; 0.950547;,
         0.000000; 0.030380;,
         0.500000; 0.030380;,
         0.500000; 0.950547;,
         0.500000; 0.950547;,
         0.500000; 0.030380;,
         0.867317; 0.950547;,
         0.867317; 0.950547;,
         0.500000; 0.030380;,
         1.000000; 0.030380;,
         0.258005; 0.272257;,
         0.258005; 0.272257;,
         0.486666; 0.431313;,
         0.258005; 0.272257;,
         0.485442; 0.267584;,
         0.486666; 0.431313;,
         0.486666; 0.431313;,
         0.485442; 0.267584;,
         0.712879; 0.262910;,
         0.712879; 0.262910;,
         0.712879; 0.262910;,
         0.486666; 0.431313;,
         0.486666; 0.431313;,
         0.712879; 0.262910;,
         0.485442; 0.267584;,
         0.485442; 0.267584;,
         0.258005; 0.272257;,
         0.486666; 0.431313;,
         0.484375; 0.033880;,
         0.500000; 0.667851;,
         0.851692; 0.033880;,
         0.500000; 0.667851;,
         0.727485; 0.667851;,
         0.851692; 0.033880;,
         0.851692; 0.033880;,
         0.727485; 0.667851;,
         0.851692; 0.033880;,
         0.727485; 0.667851;,
         0.727485; 0.667851;,
         0.851692; 0.033880;,
         0.851692; 0.033880;,
         0.727485; 0.667851;,
         0.484375; 0.033880;,
         0.727485; 0.667851;,
         0.500000; 0.667851;,
         0.484375; 0.033880;,
         0.484375; 0.033880;,
         0.500000; 0.667851;,
         0.117058; 0.033880;,
         0.500000; 0.667851;,
         0.272515; 0.667851;,
         0.117058; 0.033880;,
         0.117058; 0.033880;,
         0.272515; 0.667851;,
         0.117058; 0.033880;,
         0.272515; 0.667851;,
         0.272515; 0.667851;,
         0.117058; 0.033880;,
         0.117058; 0.033880;,
         0.272515; 0.667851;,
         0.484375; 0.033880;,
         0.272515; 0.667851;,
         0.500000; 0.667851;,
         0.484375; 0.033880;,
         0.500000; 0.667851;,
         0.272515; 0.667851;,
         0.500000; 0.750000;,
         0.272515; 0.667851;,
         0.272515; 0.667851;,
         0.500000; 0.750000;,
         0.500000; 0.750000;,
         0.272515; 0.667851;,
         0.500000; 0.667851;,
         0.500000; 0.667851;,
         0.727485; 0.667851;,
         0.500000; 0.750000;,
         0.500000; 0.750000;,
         0.727485; 0.667851;,
         0.727485; 0.667851;,
         0.727485; 0.667851;,
         0.500000; 0.667851;,
         0.500000; 0.750000;,
         0.500000; 0.946833;,
         0.133000; 0.027000;,
        -0.002000; 0.941833;,
         0.133000; 0.027000;,
         0.133000; 0.027000;,
        -0.002000; 0.941833;,
        -0.002000; 0.941833;,
         0.133000; 0.027000;,
        -0.002000; 0.941833;,
         0.133000; 0.027000;,
         0.500000; 0.027000;,
        -0.002000; 0.941833;,
        -0.002000; 0.941833;,
         0.500000; 0.027000;,
         0.500000; 0.946833;,
         0.500000; 0.027000;,
         0.867317; 0.026880;,
         0.500000; 0.946833;,
         0.500000; 0.946833;,
         0.867317; 0.026880;,
         1.000000; 0.946833;,
         0.867317; 0.026880;,
         0.867317; 0.026880;,
         1.000000; 0.946833;,
         1.000000; 0.946833;,
         0.867317; 0.026880;,
         1.000000; 0.946833;,
         0.867317; 0.026880;,
         0.500000; 0.027000;,
         1.000000; 0.946833;,
         1.000000; 0.946833;,
         0.500000; 0.027000;,
         0.500000; 0.946833;,
         0.500000; 0.027000;,
         0.133000; 0.027000;,
         0.500000; 0.946833;,
         0.864698; 0.001104;,
         0.712879; 0.700410;,
         0.864698; 0.001104;,
         0.712879; 0.700410;,
         0.485442; 0.705084;,
         0.864698; 0.001104;,
         0.864698; 0.001104;,
         0.485442; 0.705084;,
         0.497459; 0.008650;,
         0.485442; 0.705084;,
         0.258005; 0.709757;,
         0.497459; 0.008650;,
         0.497459; 0.008650;,
         0.258005; 0.709757;,
         0.130219; 0.016196;,
         0.258005; 0.709757;,
         0.258005; 0.709757;,
         0.130219; 0.016196;,
         0.130219; 0.016196;,
         0.258005; 0.709757;,
         0.130219; 0.016196;,
         0.258005; 0.709757;,
         0.485442; 0.705084;,
         0.130219; 0.016196;,
         0.130219; 0.016196;,
         0.485442; 0.705084;,
         0.497459; 0.008650;,
         0.485442; 0.705084;,
         0.712879; 0.700410;,
         0.497459; 0.008650;,
         0.497459; 0.008650;,
         0.712879; 0.700410;,
         0.864698; 0.001104;,
         0.712879; 0.700410;,
         0.712879; 0.700410;,
         0.864698; 0.001104;,
         0.867317; 0.950547;,
         1.000000; 0.030380;,
         0.867317; 0.950547;,
         1.000000; 0.030380;,
         0.500000; 0.030380;,
         0.867317; 0.950547;,
         0.867317; 0.950547;,
         0.500000; 0.030380;,
         0.500000; 0.950547;,
         0.500000; 0.030380;,
         0.000000; 0.030380;,
         0.500000; 0.950547;,
         0.500000; 0.950547;,
         0.000000; 0.030380;,
         0.132683; 0.950547;,
         0.000000; 0.030380;,
         0.000000; 0.030380;,
         0.132683; 0.950547;,
         0.132683; 0.950547;,
         0.000000; 0.030380;,
         0.132683; 0.950547;,
         0.000000; 0.030380;,
         0.500000; 0.030380;,
         0.132683; 0.950547;,
         0.132683; 0.950547;,
         0.500000; 0.030380;,
         0.500000; 0.950547;,
         0.500000; 0.030380;,
         1.000000; 0.030380;,
         0.500000; 0.950547;,
         0.500000; 0.950547;,
         1.000000; 0.030380;,
         0.867317; 0.950547;,
         1.000000; 0.030380;,
         1.000000; 0.030380;,
         0.867317; 0.950547;,
         0.258005; 0.272257;,
         0.258005; 0.272257;,
         0.486666; 0.431313;,
         0.258005; 0.272257;,
         0.485442; 0.267584;,
         0.486666; 0.431313;,
         0.486666; 0.431313;,
         0.485442; 0.267584;,
         0.712879; 0.262910;,
         0.712879; 0.262910;,
         0.712879; 0.262910;,
         0.486666; 0.431313;,
         0.486666; 0.431313;,
         0.712879; 0.262910;,
         0.485442; 0.267584;,
         0.485442; 0.267584;,
         0.258005; 0.272257;,
         0.486666; 0.431313;,
         0.851692; 0.033880;,
         0.500000; 0.667851;,
         0.484375; 0.033880;,
         0.500000; 0.667851;,
         0.272515; 0.667851;,
         0.484375; 0.033880;,
         0.484375; 0.033880;,
         0.272515; 0.667851;,
         0.117058; 0.033880;,
         0.272515; 0.667851;,
         0.272515; 0.667851;,
         0.117058; 0.033880;,
         0.117058; 0.033880;,
         0.272515; 0.667851;,
         0.117058; 0.033880;,
         0.272515; 0.667851;,
         0.500000; 0.667851;,
         0.117058; 0.033880;,
         0.117058; 0.033880;,
         0.500000; 0.667851;,
         0.484375; 0.033880;,
         0.500000; 0.667851;,
         0.727485; 0.667851;,
         0.484375; 0.033880;,
         0.484375; 0.033880;,
         0.727485; 0.667851;,
         0.851692; 0.033880;,
         0.727485; 0.667851;,
         0.727485; 0.667851;,
         0.851692; 0.033880;,
         0.851692; 0.033880;,
         0.727485; 0.667851;,
         0.851692; 0.033880;,
         0.727485; 0.667851;,
         0.500000; 0.667851;,
         0.851692; 0.033880;,
         0.500000; 0.667851;,
         0.727485; 0.667851;,
         0.500000; 0.750000;,
         0.727485; 0.667851;,
         0.727485; 0.667851;,
         0.500000; 0.750000;,
         0.500000; 0.750000;,
         0.727485; 0.667851;,
         0.500000; 0.667851;,
         0.500000; 0.667851;,
         0.272515; 0.667851;,
         0.500000; 0.750000;,
         0.500000; 0.750000;,
         0.272515; 0.667851;,
         0.272515; 0.667851;,
         0.272515; 0.667851;,
         0.500000; 0.667851;,
         0.500000; 0.750000;;
      } //End of Mesh UV Coordinates
    } //End of Mesh Mesh
  } //End of dokucale_f_c_mat_0
} //End of Root Frame
