xof 0303txt 0032

template AnimTicksPerSecond {
  <9E415A43-7BA6-4a73-8743-B73D47E88476>
  DWORD AnimTicksPerSecond;
}

template XSkinMeshHeader {
  <3cf169ce-ff7c-44ab-93c0-f78f62d172e2>
  WORD nMaxSkinWeightsPerVertex;
  WORD nMaxSkinWeightsPerFace;
  WORD nBones;
}

template SkinWeights {
  <6f0d123b-bad2-4167-a0d0-80224f25fabb>
  STRING transformNodeName;
  DWORD nWeights;
  array DWORD vertexIndices[nWeights];
  array float weights[nWeights];
  Matrix4x4 matrixOffset;
}

Frame Root {
  FrameTransformMatrix {
     1.000000, 0.000000, 0.000000, 0.000000,
     0.000000, 0.000000, 1.000000, 0.000000,
     0.000000, 1.000000,-0.000000, 0.000000,
     0.000000, 0.000000, 0.000000, 1.000000;;
  }
  Frame dokucale_c_mat_0 {
    FrameTransformMatrix {
       1.000000, 0.000000, 0.000000, 0.000000,
       0.000000, 1.000000, 0.000000, 0.000000,
       0.000000, 0.000000, 1.000000, 0.000000,
       0.000000, 0.000000, 0.000000, 1.000000;;
    }
    Mesh { //Mesh Mesh
      360;
       0.331225;16.032505; 2.440421;,
       0.929212;16.630173; 2.756199;,
       0.265108;16.538250; 2.327296;,
       0.929212;16.630173; 2.756199;,
       0.766688;16.899237; 3.147111;,
       0.265108;16.538250; 2.327296;,
      -0.018083;16.877575; 2.769760;,
       0.265108;16.538250; 2.327296;,
       0.766688;16.899237; 3.147111;,
       0.766688;16.899237; 3.147111;,
       0.667080;16.699465; 3.464796;,
      -0.018083;16.877575; 2.769760;,
      -0.018083;16.877575; 2.769760;,
       0.667080;16.699465; 3.464796;,
      -0.159471;16.620466; 3.207096;,
       0.667080;16.699465; 3.464796;,
       0.679372;16.314434; 3.513327;,
      -0.159471;16.620466; 3.207096;,
      -0.159471;16.620466; 3.207096;,
       0.679372;16.314434; 3.513327;,
      -0.093355;16.114721; 3.320221;,
       0.679372;16.314434; 3.513327;,
       0.841896;16.045370; 3.122414;,
      -0.093355;16.114721; 3.320221;,
      -0.093355;16.114721; 3.320221;,
       0.841896;16.045370; 3.122414;,
       0.189836;15.775397; 2.877757;,
       0.841896;16.045370; 3.122414;,
       0.941504;16.245142; 2.804731;,
       0.189836;15.775397; 2.877757;,
       0.189836;15.775397; 2.877757;,
       0.941504;16.245142; 2.804731;,
       0.331225;16.032505; 2.440421;,
       0.941504;16.245142; 2.804731;,
       0.929212;16.630173; 2.756199;,
       0.331225;16.032505; 2.440421;,
       0.929212;16.630173; 2.756199;,
       1.318367;16.760408; 3.308376;,
       0.766688;16.899237; 3.147111;,
       1.318367;16.760408; 3.308376;,
       1.263829;16.624847; 3.487922;,
       0.766688;16.899237; 3.147111;,
       0.766688;16.899237; 3.147111;,
       1.263829;16.624847; 3.487922;,
       0.667080;16.699465; 3.464796;,
       1.263829;16.624847; 3.487922;,
       1.264291;16.398230; 3.535179;,
       0.667080;16.699465; 3.464796;,
       0.667080;16.699465; 3.464796;,
       1.264291;16.398230; 3.535179;,
       0.679372;16.314434; 3.513327;,
       1.264291;16.398230; 3.535179;,
       1.344172;16.265984; 3.343044;,
       0.679372;16.314434; 3.513327;,
       0.679372;16.314434; 3.513327;,
       1.344172;16.265984; 3.343044;,
       0.841896;16.045370; 3.122414;,
       1.344172;16.265984; 3.343044;,
       1.398710;16.401546; 3.163498;,
       0.841896;16.045370; 3.122414;,
       0.841896;16.045370; 3.122414;,
       1.398710;16.401546; 3.163498;,
       0.941504;16.245142; 2.804731;,
       1.398710;16.401546; 3.163498;,
       1.398249;16.628164; 3.116240;,
       0.941504;16.245142; 2.804731;,
       0.941504;16.245142; 2.804731;,
       1.398249;16.628164; 3.116240;,
       0.929212;16.630173; 2.756199;,
       1.398249;16.628164; 3.116240;,
       1.318367;16.760408; 3.308376;,
       0.929212;16.630173; 2.756199;,
      -0.691898;15.828070; 2.793179;,
       0.189836;15.775397; 2.877757;,
      -0.405081;15.558725; 2.482032;,
       0.189836;15.775397; 2.877757;,
       0.331225;16.032505; 2.440421;,
      -0.405081;15.558725; 2.482032;,
      -0.405081;15.558725; 2.482032;,
       0.331225;16.032505; 2.440421;,
      -0.294702;15.734018; 2.153637;,
       0.331225;16.032505; 2.440421;,
       0.265108;16.538250; 2.327296;,
      -0.294702;15.734018; 2.153637;,
      -0.294702;15.734018; 2.153637;,
       0.265108;16.538250; 2.327296;,
      -0.381804;16.094759; 2.039474;,
      -0.381804;16.094759; 2.039474;,
       0.265108;16.538250; 2.327296;,
      -0.018083;16.877575; 2.769760;,
      -0.381804;16.094759; 2.039474;,
      -0.018083;16.877575; 2.769760;,
      -0.668620;16.364103; 2.350620;,
      -0.018083;16.877575; 2.769760;,
      -0.159471;16.620466; 3.207096;,
      -0.668620;16.364103; 2.350620;,
      -0.668620;16.364103; 2.350620;,
      -0.159471;16.620466; 3.207096;,
      -0.778998;16.188810; 2.679015;,
      -0.159471;16.620466; 3.207096;,
      -0.093355;16.114721; 3.320221;,
      -0.778998;16.188810; 2.679015;,
      -0.778998;16.188810; 2.679015;,
      -0.093355;16.114721; 3.320221;,
      -0.691898;15.828070; 2.793179;,
      -0.093355;16.114721; 3.320221;,
       0.189836;15.775397; 2.877757;,
      -0.691898;15.828070; 2.793179;,
       1.344172;16.265984; 3.343044;,
       1.264291;16.398230; 3.535179;,
       1.518616;16.512821; 3.369781;,
       1.264291;16.398230; 3.535179;,
       1.263829;16.624847; 3.487922;,
       1.518616;16.512821; 3.369781;,
       1.518616;16.512821; 3.369781;,
       1.263829;16.624847; 3.487922;,
       1.318367;16.760408; 3.308376;,
       1.318367;16.760408; 3.308376;,
       1.398249;16.628164; 3.116240;,
       1.518616;16.512821; 3.369781;,
       1.518616;16.512821; 3.369781;,
       1.398249;16.628164; 3.116240;,
       1.398710;16.401546; 3.163498;,
       1.398710;16.401546; 3.163498;,
       1.344172;16.265984; 3.343044;,
       1.518616;16.512821; 3.369781;,
      -0.691898;15.828070; 2.793179;,
      -1.116548;15.880377; 2.287681;,
      -0.778998;16.188810; 2.679015;,
      -1.116548;15.880377; 2.287681;,
      -1.060809;16.000790; 2.097991;,
      -0.778998;16.188810; 2.679015;,
      -0.778998;16.188810; 2.679015;,
      -1.060809;16.000790; 2.097991;,
      -0.668620;16.364103; 2.350620;,
      -1.060809;16.000790; 2.097991;,
      -0.919837;15.868406; 1.945061;,
      -0.668620;16.364103; 2.350620;,
      -0.668620;16.364103; 2.350620;,
      -0.919837;15.868406; 1.945061;,
      -0.381804;16.094759; 2.039474;,
      -0.381804;16.094759; 2.039474;,
      -0.919837;15.868406; 1.945061;,
      -0.878515;15.656845; 2.029455;,
      -0.381804;16.094759; 2.039474;,
      -0.878515;15.656845; 2.029455;,
      -0.294702;15.734018; 2.153637;,
      -0.878515;15.656845; 2.029455;,
      -0.934254;15.536431; 2.219145;,
      -0.294702;15.734018; 2.153637;,
      -0.294702;15.734018; 2.153637;,
      -0.934254;15.536431; 2.219145;,
      -0.405081;15.558725; 2.482032;,
      -0.934254;15.536431; 2.219145;,
      -1.075225;15.668815; 2.372075;,
      -0.405081;15.558725; 2.482032;,
      -0.405081;15.558725; 2.482032;,
      -1.075225;15.668815; 2.372075;,
      -0.691898;15.828070; 2.793179;,
      -1.075225;15.668815; 2.372075;,
      -1.116548;15.880377; 2.287681;,
      -0.691898;15.828070; 2.793179;,
      -1.116548;15.880377; 2.287681;,
      -1.075225;15.668815; 2.372075;,
      -1.213000;15.678433; 2.038010;,
      -1.075225;15.668815; 2.372075;,
      -0.934254;15.536431; 2.219145;,
      -1.213000;15.678433; 2.038010;,
      -1.213000;15.678433; 2.038010;,
      -0.934254;15.536431; 2.219145;,
      -0.878515;15.656845; 2.029455;,
      -0.878515;15.656845; 2.029455;,
      -0.919837;15.868406; 1.945061;,
      -1.213000;15.678433; 2.038010;,
      -1.213000;15.678433; 2.038010;,
      -0.919837;15.868406; 1.945061;,
      -1.060809;16.000790; 2.097991;,
      -1.060809;16.000790; 2.097991;,
      -1.116548;15.880377; 2.287681;,
      -1.213000;15.678433; 2.038010;,
      -3.831659;17.185465; 3.185508;,
      -3.840884;17.597866; 3.962760;,
      -4.100554;16.804619; 3.429603;,
      -3.840884;17.597866; 3.962760;,
      -4.058830;17.328169; 4.137451;,
      -4.100554;16.804619; 3.429603;,
      -4.100554;16.804619; 3.429603;,
      -4.058830;17.328169; 4.137451;,
      -3.916372;16.426132; 3.739657;,
      -4.058830;17.328169; 4.137451;,
      -3.934595;17.016268; 4.332479;,
      -3.916372;16.426132; 3.739657;,
      -3.916372;16.426132; 3.739657;,
      -3.934595;17.016268; 4.332479;,
      -3.298041;16.429348; 3.829675;,
      -3.934595;17.016268; 4.332479;,
      -3.437612;16.954966; 4.362017;,
      -3.298041;16.429348; 3.829675;,
      -3.298041;16.429348; 3.829675;,
      -3.437612;16.954966; 4.362017;,
      -3.029147;16.810198; 3.585580;,
      -3.437612;16.954966; 4.362017;,
      -3.219665;17.224665; 4.187327;,
      -3.029147;16.810198; 3.585580;,
      -3.029147;16.810198; 3.585580;,
      -3.219665;17.224665; 4.187327;,
      -3.213329;17.188686; 3.275525;,
      -3.219665;17.224665; 4.187327;,
      -3.343901;17.536568; 3.992299;,
      -3.213329;17.188686; 3.275525;,
      -3.213329;17.188686; 3.275525;,
      -3.343901;17.536568; 3.992299;,
      -3.831659;17.185465; 3.185508;,
      -3.343901;17.536568; 3.992299;,
      -3.840884;17.597866; 3.962760;,
      -3.831659;17.185465; 3.185508;,
      -3.343901;17.536568; 3.992299;,
      -3.479261;17.741892; 4.530025;,
      -3.840884;17.597866; 3.962760;,
      -3.479261;17.741892; 4.530025;,
      -3.723531;17.772022; 4.515506;,
      -3.840884;17.597866; 3.962760;,
      -3.840884;17.597866; 3.962760;,
      -3.723531;17.772022; 4.515506;,
      -4.058830;17.328169; 4.137451;,
      -3.723531;17.772022; 4.515506;,
      -3.836641;17.602297; 4.624994;,
      -4.058830;17.328169; 4.137451;,
      -4.058830;17.328169; 4.137451;,
      -3.836641;17.602297; 4.624994;,
      -3.934595;17.016268; 4.332479;,
      -3.836641;17.602297; 4.624994;,
      -3.781568;17.411827; 4.744479;,
      -3.934595;17.016268; 4.332479;,
      -3.934595;17.016268; 4.332479;,
      -3.781568;17.411827; 4.744479;,
      -3.437612;16.954966; 4.362017;,
      -3.781568;17.411827; 4.744479;,
      -3.537298;17.381699; 4.758997;,
      -3.437612;16.954966; 4.362017;,
      -3.437612;16.954966; 4.362017;,
      -3.537298;17.381699; 4.758997;,
      -3.219665;17.224665; 4.187327;,
      -3.537298;17.381699; 4.758997;,
      -3.424188;17.551422; 4.649509;,
      -3.219665;17.224665; 4.187327;,
      -3.219665;17.224665; 4.187327;,
      -3.424188;17.551422; 4.649509;,
      -3.343901;17.536568; 3.992299;,
      -3.424188;17.551422; 4.649509;,
      -3.479261;17.741892; 4.530025;,
      -3.343901;17.536568; 3.992299;,
      -3.525844;15.963404; 3.107378;,
      -3.916372;16.426132; 3.739657;,
      -3.041719;16.029816; 3.220670;,
      -3.916372;16.426132; 3.739657;,
      -3.298041;16.429348; 3.829675;,
      -3.041719;16.029816; 3.220670;,
      -3.041719;16.029816; 3.220670;,
      -3.298041;16.429348; 3.829675;,
      -2.859677;16.319708; 3.037434;,
      -3.298041;16.429348; 3.829675;,
      -3.029147;16.810198; 3.585580;,
      -2.859677;16.319708; 3.037434;,
      -2.859677;16.319708; 3.037434;,
      -3.029147;16.810198; 3.585580;,
      -3.010965;16.563881; 2.776194;,
      -3.029147;16.810198; 3.585580;,
      -3.213329;17.188686; 3.275525;,
      -3.010965;16.563881; 2.776194;,
      -3.010965;16.563881; 2.776194;,
      -3.213329;17.188686; 3.275525;,
      -3.495090;16.497471; 2.662903;,
      -3.213329;17.188686; 3.275525;,
      -3.831659;17.185465; 3.185508;,
      -3.495090;16.497471; 2.662903;,
      -3.495090;16.497471; 2.662903;,
      -3.831659;17.185465; 3.185508;,
      -3.677132;16.207575; 2.846138;,
      -3.831659;17.185465; 3.185508;,
      -4.100554;16.804619; 3.429603;,
      -3.677132;16.207575; 2.846138;,
      -3.677132;16.207575; 2.846138;,
      -4.100554;16.804619; 3.429603;,
      -3.525844;15.963404; 3.107378;,
      -4.100554;16.804619; 3.429603;,
      -3.916372;16.426132; 3.739657;,
      -3.525844;15.963404; 3.107378;,
      -3.537298;17.381699; 4.758997;,
      -3.781568;17.411827; 4.744479;,
      -3.653728;17.682011; 4.796753;,
      -3.781568;17.411827; 4.744479;,
      -3.836641;17.602297; 4.624994;,
      -3.653728;17.682011; 4.796753;,
      -3.653728;17.682011; 4.796753;,
      -3.836641;17.602297; 4.624994;,
      -3.723531;17.772022; 4.515506;,
      -3.723531;17.772022; 4.515506;,
      -3.479261;17.741892; 4.530025;,
      -3.653728;17.682011; 4.796753;,
      -3.653728;17.682011; 4.796753;,
      -3.479261;17.741892; 4.530025;,
      -3.424188;17.551422; 4.649509;,
      -3.424188;17.551422; 4.649509;,
      -3.537298;17.381699; 4.758997;,
      -3.653728;17.682011; 4.796753;,
      -2.859677;16.319708; 3.037434;,
      -2.922501;15.938960; 2.575593;,
      -3.041719;16.029816; 3.220670;,
      -2.922501;15.938960; 2.575593;,
      -3.013941;15.762346; 2.694059;,
      -3.041719;16.029816; 3.220670;,
      -3.041719;16.029816; 3.220670;,
      -3.013941;15.762346; 2.694059;,
      -3.525844;15.963404; 3.107378;,
      -3.013941;15.762346; 2.694059;,
      -3.251890;15.729706; 2.638375;,
      -3.525844;15.963404; 3.107378;,
      -3.525844;15.963404; 3.107378;,
      -3.251890;15.729706; 2.638375;,
      -3.677132;16.207575; 2.846138;,
      -3.251890;15.729706; 2.638375;,
      -3.324283;15.883848; 2.481570;,
      -3.677132;16.207575; 2.846138;,
      -3.677132;16.207575; 2.846138;,
      -3.324283;15.883848; 2.481570;,
      -3.495090;16.497471; 2.662903;,
      -3.324283;15.883848; 2.481570;,
      -3.232843;16.060461; 2.363104;,
      -3.495090;16.497471; 2.662903;,
      -3.495090;16.497471; 2.662903;,
      -3.232843;16.060461; 2.363104;,
      -3.010965;16.563881; 2.776194;,
      -3.232843;16.060461; 2.363104;,
      -2.994894;16.093100; 2.418787;,
      -3.010965;16.563881; 2.776194;,
      -3.010965;16.563881; 2.776194;,
      -2.994894;16.093100; 2.418787;,
      -2.859677;16.319708; 3.037434;,
      -2.994894;16.093100; 2.418787;,
      -2.922501;15.938960; 2.575593;,
      -2.859677;16.319708; 3.037434;,
      -2.922501;15.938960; 2.575593;,
      -2.994894;16.093100; 2.418787;,
      -3.055567;15.746655; 2.335318;,
      -2.994894;16.093100; 2.418787;,
      -3.232843;16.060461; 2.363104;,
      -3.055567;15.746655; 2.335318;,
      -3.055567;15.746655; 2.335318;,
      -3.232843;16.060461; 2.363104;,
      -3.324283;15.883848; 2.481570;,
      -3.324283;15.883848; 2.481570;,
      -3.251890;15.729706; 2.638375;,
      -3.055567;15.746655; 2.335318;,
      -3.055567;15.746655; 2.335318;,
      -3.251890;15.729706; 2.638375;,
      -3.013941;15.762346; 2.694059;,
      -3.013941;15.762346; 2.694059;,
      -2.922501;15.938960; 2.575593;,
      -3.055567;15.746655; 2.335318;;
      120;
      3;0;1;2;,
      3;3;4;5;,
      3;6;7;8;,
      3;9;10;11;,
      3;12;13;14;,
      3;15;16;17;,
      3;18;19;20;,
      3;21;22;23;,
      3;24;25;26;,
      3;27;28;29;,
      3;30;31;32;,
      3;33;34;35;,
      3;36;37;38;,
      3;39;40;41;,
      3;42;43;44;,
      3;45;46;47;,
      3;48;49;50;,
      3;51;52;53;,
      3;54;55;56;,
      3;57;58;59;,
      3;60;61;62;,
      3;63;64;65;,
      3;66;67;68;,
      3;69;70;71;,
      3;72;73;74;,
      3;75;76;77;,
      3;78;79;80;,
      3;81;82;83;,
      3;84;85;86;,
      3;87;88;89;,
      3;90;91;92;,
      3;93;94;95;,
      3;96;97;98;,
      3;99;100;101;,
      3;102;103;104;,
      3;105;106;107;,
      3;108;109;110;,
      3;111;112;113;,
      3;114;115;116;,
      3;117;118;119;,
      3;120;121;122;,
      3;123;124;125;,
      3;126;127;128;,
      3;129;130;131;,
      3;132;133;134;,
      3;135;136;137;,
      3;138;139;140;,
      3;141;142;143;,
      3;144;145;146;,
      3;147;148;149;,
      3;150;151;152;,
      3;153;154;155;,
      3;156;157;158;,
      3;159;160;161;,
      3;162;163;164;,
      3;165;166;167;,
      3;168;169;170;,
      3;171;172;173;,
      3;174;175;176;,
      3;177;178;179;,
      3;180;181;182;,
      3;183;184;185;,
      3;186;187;188;,
      3;189;190;191;,
      3;192;193;194;,
      3;195;196;197;,
      3;198;199;200;,
      3;201;202;203;,
      3;204;205;206;,
      3;207;208;209;,
      3;210;211;212;,
      3;213;214;215;,
      3;216;217;218;,
      3;219;220;221;,
      3;222;223;224;,
      3;225;226;227;,
      3;228;229;230;,
      3;231;232;233;,
      3;234;235;236;,
      3;237;238;239;,
      3;240;241;242;,
      3;243;244;245;,
      3;246;247;248;,
      3;249;250;251;,
      3;252;253;254;,
      3;255;256;257;,
      3;258;259;260;,
      3;261;262;263;,
      3;264;265;266;,
      3;267;268;269;,
      3;270;271;272;,
      3;273;274;275;,
      3;276;277;278;,
      3;279;280;281;,
      3;282;283;284;,
      3;285;286;287;,
      3;288;289;290;,
      3;291;292;293;,
      3;294;295;296;,
      3;297;298;299;,
      3;300;301;302;,
      3;303;304;305;,
      3;306;307;308;,
      3;309;310;311;,
      3;312;313;314;,
      3;315;316;317;,
      3;318;319;320;,
      3;321;322;323;,
      3;324;325;326;,
      3;327;328;329;,
      3;330;331;332;,
      3;333;334;335;,
      3;336;337;338;,
      3;339;340;341;,
      3;342;343;344;,
      3;345;346;347;,
      3;348;349;350;,
      3;351;352;353;,
      3;354;355;356;,
      3;357;358;359;;
      MeshNormals { //Mesh Normals
        360;
        -0.553514; 0.503647; 0.663259;,
        -0.485397;-0.450942; 0.748985;,
        -0.277230;-0.442427; 0.852870;,
        -0.485397;-0.450942; 0.748985;,
        -0.091159;-0.994537;-0.050722;,
        -0.277230;-0.442427; 0.852870;,
         0.262307;-0.954344; 0.142674;,
        -0.277230;-0.442427; 0.852870;,
        -0.091159;-0.994537;-0.050722;,
        -0.091159;-0.994537;-0.050722;,
         0.150487;-0.551592;-0.820399;,
         0.262307;-0.954344; 0.142674;,
         0.262307;-0.954344; 0.142674;,
         0.150487;-0.551592;-0.820399;,
         0.528703;-0.538743;-0.655873;,
         0.150487;-0.551592;-0.820399;,
         0.072359; 0.372082;-0.925352;,
         0.528703;-0.538743;-0.655873;,
         0.528703;-0.538743;-0.655873;,
         0.072359; 0.372082;-0.925352;,
         0.324778; 0.365429;-0.872311;,
         0.072359; 0.372082;-0.925352;,
        -0.339305; 0.930876;-0.135166;,
         0.324778; 0.365429;-0.872311;,
         0.324778; 0.365429;-0.872311;,
        -0.339305; 0.930876;-0.135166;,
        -0.260262; 0.945097;-0.197485;,
        -0.339305; 0.930876;-0.135166;,
        -0.591876; 0.483779; 0.644642;,
        -0.260262; 0.945097;-0.197485;,
        -0.260262; 0.945097;-0.197485;,
        -0.591876; 0.483779; 0.644642;,
        -0.553514; 0.503647; 0.663259;,
        -0.591876; 0.483779; 0.644642;,
        -0.485397;-0.450942; 0.748985;,
        -0.553514; 0.503647; 0.663259;,
        -0.485397;-0.450942; 0.748985;,
        -0.442701;-0.879665;-0.173681;,
        -0.091159;-0.994537;-0.050722;,
        -0.442701;-0.879665;-0.173681;,
        -0.248604;-0.495682;-0.832118;,
        -0.091159;-0.994537;-0.050722;,
        -0.091159;-0.994537;-0.050722;,
        -0.248604;-0.495682;-0.832118;,
         0.150487;-0.551592;-0.820399;,
        -0.248604;-0.495682;-0.832118;,
        -0.277078; 0.311075;-0.909055;,
         0.150487;-0.551592;-0.820399;,
         0.150487;-0.551592;-0.820399;,
        -0.277078; 0.311075;-0.909055;,
         0.072359; 0.372082;-0.925352;,
        -0.277078; 0.311075;-0.909055;,
        -0.547197; 0.813929;-0.195074;,
         0.072359; 0.372082;-0.925352;,
         0.072359; 0.372082;-0.925352;,
        -0.547197; 0.813929;-0.195074;,
        -0.339305; 0.930876;-0.135166;,
        -0.547197; 0.813929;-0.195074;,
        -0.752831; 0.433821; 0.494980;,
        -0.339305; 0.930876;-0.135166;,
        -0.339305; 0.930876;-0.135166;,
        -0.752831; 0.433821; 0.494980;,
        -0.591876; 0.483779; 0.644642;,
        -0.752831; 0.433821; 0.494980;,
        -0.731498;-0.402417; 0.550371;,
        -0.591876; 0.483779; 0.644642;,
        -0.591876; 0.483779; 0.644642;,
        -0.731498;-0.402417; 0.550371;,
        -0.485397;-0.450942; 0.748985;,
        -0.731498;-0.402417; 0.550371;,
        -0.442701;-0.879665;-0.173681;,
        -0.485397;-0.450942; 0.748985;,
         0.512803; 0.450240;-0.730949;,
        -0.260262; 0.945097;-0.197485;,
        -0.142766; 0.983581;-0.110324;,
        -0.260262; 0.945097;-0.197485;,
        -0.553514; 0.503647; 0.663259;,
        -0.142766; 0.983581;-0.110324;,
        -0.142766; 0.983581;-0.110324;,
        -0.553514; 0.503647; 0.663259;,
        -0.417615; 0.594806; 0.686850;,
        -0.553514; 0.503647; 0.663259;,
        -0.277230;-0.442427; 0.852870;,
        -0.417615; 0.594806; 0.686850;,
        -0.417615; 0.594806; 0.686850;,
        -0.277230;-0.442427; 0.852870;,
        -0.157842;-0.256691; 0.953490;,
        -0.157842;-0.256691; 0.953490;,
        -0.277230;-0.442427; 0.852870;,
         0.262307;-0.954344; 0.142674;,
        -0.157842;-0.256691; 0.953490;,
         0.262307;-0.954344; 0.142674;,
         0.476547;-0.816218; 0.326609;,
         0.262307;-0.954344; 0.142674;,
         0.528703;-0.538743;-0.655873;,
         0.476547;-0.816218; 0.326609;,
         0.476547;-0.816218; 0.326609;,
         0.528703;-0.538743;-0.655873;,
         0.778985;-0.414319;-0.470595;,
         0.528703;-0.538743;-0.655873;,
         0.324778; 0.365429;-0.872311;,
         0.778985;-0.414319;-0.470595;,
         0.778985;-0.414319;-0.470595;,
         0.324778; 0.365429;-0.872311;,
         0.512803; 0.450240;-0.730949;,
         0.324778; 0.365429;-0.872311;,
        -0.260262; 0.945097;-0.197485;,
         0.512803; 0.450240;-0.730949;,
        -0.547197; 0.813929;-0.195074;,
        -0.277078; 0.311075;-0.909055;,
        -0.957488;-0.036225;-0.286142;,
        -0.277078; 0.311075;-0.909055;,
        -0.248604;-0.495682;-0.832118;,
        -0.957488;-0.036225;-0.286142;,
        -0.957488;-0.036225;-0.286142;,
        -0.248604;-0.495682;-0.832118;,
        -0.442701;-0.879665;-0.173681;,
        -0.442701;-0.879665;-0.173681;,
        -0.731498;-0.402417; 0.550371;,
        -0.957488;-0.036225;-0.286142;,
        -0.957488;-0.036225;-0.286142;,
        -0.731498;-0.402417; 0.550371;,
        -0.752831; 0.433821; 0.494980;,
        -0.752831; 0.433821; 0.494980;,
        -0.547197; 0.813929;-0.195074;,
        -0.957488;-0.036225;-0.286142;,
         0.512803; 0.450240;-0.730949;,
         0.891232;-0.304117;-0.336436;,
         0.778985;-0.414319;-0.470595;,
         0.891232;-0.304117;-0.336436;,
         0.640828;-0.654653; 0.400922;,
         0.778985;-0.414319;-0.470595;,
         0.778985;-0.414319;-0.470595;,
         0.640828;-0.654653; 0.400922;,
         0.476547;-0.816218; 0.326609;,
         0.640828;-0.654653; 0.400922;,
         0.090823;-0.146123; 0.985076;,
         0.476547;-0.816218; 0.326609;,
         0.476547;-0.816218; 0.326609;,
         0.090823;-0.146123; 0.985076;,
        -0.157842;-0.256691; 0.953490;,
        -0.157842;-0.256691; 0.953490;,
         0.090823;-0.146123; 0.985076;,
        -0.117527; 0.627918; 0.769311;,
        -0.157842;-0.256691; 0.953490;,
        -0.117527; 0.627918; 0.769311;,
        -0.417615; 0.594806; 0.686850;,
        -0.117527; 0.627918; 0.769311;,
         0.153630; 0.987152; 0.043580;,
        -0.417615; 0.594806; 0.686850;,
        -0.417615; 0.594806; 0.686850;,
         0.153630; 0.987152; 0.043580;,
        -0.142766; 0.983581;-0.110324;,
         0.153630; 0.987152; 0.043580;,
         0.689749; 0.472793;-0.548326;,
        -0.142766; 0.983581;-0.110324;,
        -0.142766; 0.983581;-0.110324;,
         0.689749; 0.472793;-0.548326;,
         0.512803; 0.450240;-0.730949;,
         0.689749; 0.472793;-0.548326;,
         0.891232;-0.304117;-0.336436;,
         0.512803; 0.450240;-0.730949;,
         0.891232;-0.304117;-0.336436;,
         0.689749; 0.472793;-0.548326;,
         0.819697; 0.343059; 0.458632;,
         0.689749; 0.472793;-0.548326;,
         0.153630; 0.987152; 0.043580;,
         0.819697; 0.343059; 0.458632;,
         0.819697; 0.343059; 0.458632;,
         0.153630; 0.987152; 0.043580;,
        -0.117527; 0.627918; 0.769311;,
        -0.117527; 0.627918; 0.769311;,
         0.090823;-0.146123; 0.985076;,
         0.819697; 0.343059; 0.458632;,
         0.819697; 0.343059; 0.458632;,
         0.090823;-0.146123; 0.985076;,
         0.640828;-0.654653; 0.400922;,
         0.640828;-0.654653; 0.400922;,
         0.891232;-0.304117;-0.336436;,
         0.819697; 0.343059; 0.458632;,
         0.456252;-0.627583; 0.630818;,
         0.421186;-0.845729; 0.327555;,
         0.972259; 0.048097; 0.228767;,
         0.421186;-0.845729; 0.327555;,
         0.972106;-0.217780;-0.086917;,
         0.972259; 0.048097; 0.228767;,
         0.972259; 0.048097; 0.228767;,
         0.972106;-0.217780;-0.086917;,
         0.621174; 0.686697;-0.377544;,
         0.972106;-0.217780;-0.086917;,
         0.648640; 0.490921;-0.581561;,
         0.621174; 0.686697;-0.377544;,
         0.621174; 0.686697;-0.377544;,
         0.648640; 0.490921;-0.581561;,
        -0.405988; 0.640431;-0.651906;,
         0.648640; 0.490921;-0.581561;,
        -0.391308; 0.596088;-0.701071;,
        -0.405988; 0.640431;-0.651906;,
        -0.405988; 0.640431;-0.651906;,
        -0.391308; 0.596088;-0.701071;,
        -0.968963;-0.086459;-0.231513;,
        -0.391308; 0.596088;-0.701071;,
        -0.951964;-0.051546;-0.301767;,
        -0.968963;-0.086459;-0.231513;,
        -0.968963;-0.086459;-0.231513;,
        -0.951964;-0.051546;-0.301767;,
        -0.553789;-0.715629; 0.425611;,
        -0.951964;-0.051546;-0.301767;,
        -0.613269;-0.762322; 0.206671;,
        -0.553789;-0.715629; 0.425611;,
        -0.553789;-0.715629; 0.425611;,
        -0.613269;-0.762322; 0.206671;,
         0.456252;-0.627583; 0.630818;,
        -0.613269;-0.762322; 0.206671;,
         0.421186;-0.845729; 0.327555;,
         0.456252;-0.627583; 0.630818;,
        -0.613269;-0.762322; 0.206671;,
        -0.562761;-0.819514;-0.107913;,
         0.421186;-0.845729; 0.327555;,
        -0.562761;-0.819514;-0.107913;,
         0.340556;-0.939482;-0.037049;,
         0.421186;-0.845729; 0.327555;,
         0.421186;-0.845729; 0.327555;,
         0.340556;-0.939482;-0.037049;,
         0.972106;-0.217780;-0.086917;,
         0.340556;-0.939482;-0.037049;,
         0.847713;-0.367931;-0.382031;,
         0.972106;-0.217780;-0.086917;,
         0.972106;-0.217780;-0.086917;,
         0.847713;-0.367931;-0.382031;,
         0.648640; 0.490921;-0.581561;,
         0.847713;-0.367931;-0.382031;,
         0.546190; 0.266213;-0.794214;,
         0.648640; 0.490921;-0.581561;,
         0.648640; 0.490921;-0.581561;,
         0.546190; 0.266213;-0.794214;,
        -0.391308; 0.596088;-0.701071;,
         0.546190; 0.266213;-0.794214;,
        -0.361126; 0.353191;-0.863002;,
        -0.391308; 0.596088;-0.701071;,
        -0.391308; 0.596088;-0.701071;,
        -0.361126; 0.353191;-0.863002;,
        -0.951964;-0.051546;-0.301767;,
        -0.361126; 0.353191;-0.863002;,
        -0.836116;-0.201392;-0.510208;,
        -0.951964;-0.051546;-0.301767;,
        -0.951964;-0.051546;-0.301767;,
        -0.836116;-0.201392;-0.510208;,
        -0.613269;-0.762322; 0.206671;,
        -0.836116;-0.201392;-0.510208;,
        -0.562761;-0.819514;-0.107913;,
        -0.613269;-0.762322; 0.206671;,
         0.469131; 0.845393;-0.255348;,
         0.621174; 0.686697;-0.377544;,
        -0.533708; 0.669027;-0.517228;,
         0.621174; 0.686697;-0.377544;,
        -0.405988; 0.640431;-0.651906;,
        -0.533708; 0.669027;-0.517228;,
        -0.533708; 0.669027;-0.517228;,
        -0.405988; 0.640431;-0.651906;,
        -0.995056;-0.008759;-0.098849;,
        -0.405988; 0.640431;-0.651906;,
        -0.968963;-0.086459;-0.231513;,
        -0.995056;-0.008759;-0.098849;,
        -0.995056;-0.008759;-0.098849;,
        -0.968963;-0.086459;-0.231513;,
        -0.615802;-0.559740; 0.554460;,
        -0.968963;-0.086459;-0.231513;,
        -0.553789;-0.715629; 0.425611;,
        -0.615802;-0.559740; 0.554460;,
        -0.615802;-0.559740; 0.554460;,
        -0.553789;-0.715629; 0.425611;,
         0.391797;-0.387738; 0.834315;,
        -0.553789;-0.715629; 0.425611;,
         0.456252;-0.627583; 0.630818;,
         0.391797;-0.387738; 0.834315;,
         0.391797;-0.387738; 0.834315;,
         0.456252;-0.627583; 0.630818;,
         0.859920; 0.299692; 0.413099;,
         0.456252;-0.627583; 0.630818;,
         0.972259; 0.048097; 0.228767;,
         0.859920; 0.299692; 0.413099;,
         0.859920; 0.299692; 0.413099;,
         0.972259; 0.048097; 0.228767;,
         0.469131; 0.845393;-0.255348;,
         0.972259; 0.048097; 0.228767;,
         0.621174; 0.686697;-0.377544;,
         0.469131; 0.845393;-0.255348;,
        -0.361126; 0.353191;-0.863002;,
         0.546190; 0.266213;-0.794214;,
         0.051485;-0.541642;-0.839015;,
         0.546190; 0.266213;-0.794214;,
         0.847713;-0.367931;-0.382031;,
         0.051485;-0.541642;-0.839015;,
         0.051485;-0.541642;-0.839015;,
         0.847713;-0.367931;-0.382031;,
         0.340556;-0.939482;-0.037049;,
         0.340556;-0.939482;-0.037049;,
        -0.562761;-0.819514;-0.107913;,
         0.051485;-0.541642;-0.839015;,
         0.051485;-0.541642;-0.839015;,
        -0.562761;-0.819514;-0.107913;,
        -0.836116;-0.201392;-0.510208;,
        -0.836116;-0.201392;-0.510208;,
        -0.361126; 0.353191;-0.863002;,
         0.051485;-0.541642;-0.839015;,
        -0.995056;-0.008759;-0.098849;,
        -0.972167; 0.186346; 0.141789;,
        -0.533708; 0.669027;-0.517228;,
        -0.972167; 0.186346; 0.141789;,
        -0.554155; 0.800256;-0.229072;,
        -0.533708; 0.669027;-0.517228;,
        -0.533708; 0.669027;-0.517228;,
        -0.554155; 0.800256;-0.229072;,
         0.469131; 0.845393;-0.255348;,
        -0.554155; 0.800256;-0.229072;,
         0.360454; 0.932707;-0.009461;,
         0.469131; 0.845393;-0.255348;,
         0.469131; 0.845393;-0.255348;,
         0.360454; 0.932707;-0.009461;,
         0.859920; 0.299692; 0.413099;,
         0.360454; 0.932707;-0.009461;,
         0.728629; 0.405194; 0.552141;,
         0.859920; 0.299692; 0.413099;,
         0.859920; 0.299692; 0.413099;,
         0.728629; 0.405194; 0.552141;,
         0.391797;-0.387738; 0.834315;,
         0.728629; 0.405194; 0.552141;,
         0.308451;-0.203406; 0.929228;,
         0.391797;-0.387738; 0.834315;,
         0.391797;-0.387738; 0.834315;,
         0.308451;-0.203406; 0.929228;,
        -0.615802;-0.559740; 0.554460;,
         0.308451;-0.203406; 0.929228;,
        -0.610553;-0.325236; 0.722098;,
        -0.615802;-0.559740; 0.554460;,
        -0.615802;-0.559740; 0.554460;,
        -0.610553;-0.325236; 0.722098;,
        -0.995056;-0.008759;-0.098849;,
        -0.610553;-0.325236; 0.722098;,
        -0.972167; 0.186346; 0.141789;,
        -0.995056;-0.008759;-0.098849;,
        -0.972167; 0.186346; 0.141789;,
        -0.610553;-0.325236; 0.722098;,
        -0.258003; 0.626759; 0.735221;,
        -0.610553;-0.325236; 0.722098;,
         0.308451;-0.203406; 0.929228;,
        -0.258003; 0.626759; 0.735221;,
        -0.258003; 0.626759; 0.735221;,
         0.308451;-0.203406; 0.929228;,
         0.728629; 0.405194; 0.552141;,
         0.728629; 0.405194; 0.552141;,
         0.360454; 0.932707;-0.009461;,
        -0.258003; 0.626759; 0.735221;,
        -0.258003; 0.626759; 0.735221;,
         0.360454; 0.932707;-0.009461;,
        -0.554155; 0.800256;-0.229072;,
        -0.554155; 0.800256;-0.229072;,
        -0.972167; 0.186346; 0.141789;,
        -0.258003; 0.626759; 0.735221;;
        120;
        3;0;1;2;,
        3;3;4;5;,
        3;6;7;8;,
        3;9;10;11;,
        3;12;13;14;,
        3;15;16;17;,
        3;18;19;20;,
        3;21;22;23;,
        3;24;25;26;,
        3;27;28;29;,
        3;30;31;32;,
        3;33;34;35;,
        3;36;37;38;,
        3;39;40;41;,
        3;42;43;44;,
        3;45;46;47;,
        3;48;49;50;,
        3;51;52;53;,
        3;54;55;56;,
        3;57;58;59;,
        3;60;61;62;,
        3;63;64;65;,
        3;66;67;68;,
        3;69;70;71;,
        3;72;73;74;,
        3;75;76;77;,
        3;78;79;80;,
        3;81;82;83;,
        3;84;85;86;,
        3;87;88;89;,
        3;90;91;92;,
        3;93;94;95;,
        3;96;97;98;,
        3;99;100;101;,
        3;102;103;104;,
        3;105;106;107;,
        3;108;109;110;,
        3;111;112;113;,
        3;114;115;116;,
        3;117;118;119;,
        3;120;121;122;,
        3;123;124;125;,
        3;126;127;128;,
        3;129;130;131;,
        3;132;133;134;,
        3;135;136;137;,
        3;138;139;140;,
        3;141;142;143;,
        3;144;145;146;,
        3;147;148;149;,
        3;150;151;152;,
        3;153;154;155;,
        3;156;157;158;,
        3;159;160;161;,
        3;162;163;164;,
        3;165;166;167;,
        3;168;169;170;,
        3;171;172;173;,
        3;174;175;176;,
        3;177;178;179;,
        3;180;181;182;,
        3;183;184;185;,
        3;186;187;188;,
        3;189;190;191;,
        3;192;193;194;,
        3;195;196;197;,
        3;198;199;200;,
        3;201;202;203;,
        3;204;205;206;,
        3;207;208;209;,
        3;210;211;212;,
        3;213;214;215;,
        3;216;217;218;,
        3;219;220;221;,
        3;222;223;224;,
        3;225;226;227;,
        3;228;229;230;,
        3;231;232;233;,
        3;234;235;236;,
        3;237;238;239;,
        3;240;241;242;,
        3;243;244;245;,
        3;246;247;248;,
        3;249;250;251;,
        3;252;253;254;,
        3;255;256;257;,
        3;258;259;260;,
        3;261;262;263;,
        3;264;265;266;,
        3;267;268;269;,
        3;270;271;272;,
        3;273;274;275;,
        3;276;277;278;,
        3;279;280;281;,
        3;282;283;284;,
        3;285;286;287;,
        3;288;289;290;,
        3;291;292;293;,
        3;294;295;296;,
        3;297;298;299;,
        3;300;301;302;,
        3;303;304;305;,
        3;306;307;308;,
        3;309;310;311;,
        3;312;313;314;,
        3;315;316;317;,
        3;318;319;320;,
        3;321;322;323;,
        3;324;325;326;,
        3;327;328;329;,
        3;330;331;332;,
        3;333;334;335;,
        3;336;337;338;,
        3;339;340;341;,
        3;342;343;344;,
        3;345;346;347;,
        3;348;349;350;,
        3;351;352;353;,
        3;354;355;356;,
        3;357;358;359;;
      } //End of Mesh Normals
      MeshMaterialList { //Mesh Material List
        1;
        120;
        0,
        0,
        0,
        0,
        0,
        0,
        0,
        0,
        0,
        0,
        0,
        0,
        0,
        0,
        0,
        0,
        0,
        0,
        0,
        0,
        0,
        0,
        0,
        0,
        0,
        0,
        0,
        0,
        0,
        0,
        0,
        0,
        0,
        0,
        0,
        0,
        0,
        0,
        0,
        0,
        0,
        0,
        0,
        0,
        0,
        0,
        0,
        0,
        0,
        0,
        0,
        0,
        0,
        0,
        0,
        0,
        0,
        0,
        0,
        0,
        0,
        0,
        0,
        0,
        0,
        0,
        0,
        0,
        0,
        0,
        0,
        0,
        0,
        0,
        0,
        0,
        0,
        0,
        0,
        0,
        0,
        0,
        0,
        0,
        0,
        0,
        0,
        0,
        0,
        0,
        0,
        0,
        0,
        0,
        0,
        0,
        0,
        0,
        0,
        0,
        0,
        0,
        0,
        0,
        0,
        0,
        0,
        0,
        0,
        0,
        0,
        0,
        0,
        0,
        0,
        0,
        0,
        0,
        0,
        0;;
        Material mat_0 {
           0.640000; 0.640000; 0.640000; 1.000000;;
           92.156863;
           0.250000; 0.250000; 0.250000;;
           0.000000; 0.000000; 0.000000;;
          TextureFilename {"Textures/dokucale_c_1_0.tga";}
        }
      } //End of Mesh Material List
      MeshTextureCoords { //Mesh UV Coordinates
        360;
         0.500000; 0.946833;,
         0.133000; 0.027000;,
        -0.002000; 0.941833;,
         0.133000; 0.027000;,
         0.133000; 0.027000;,
        -0.002000; 0.941833;,
        -0.002000; 0.941833;,
        -0.002000; 0.941833;,
         0.133000; 0.027000;,
         0.133000; 0.027000;,
         0.500000; 0.027000;,
        -0.002000; 0.941833;,
        -0.002000; 0.941833;,
         0.500000; 0.027000;,
         0.500000; 0.946833;,
         0.500000; 0.027000;,
         0.867317; 0.026880;,
         0.500000; 0.946833;,
         0.500000; 0.946833;,
         0.867317; 0.026880;,
         1.000000; 0.946833;,
         0.867317; 0.026880;,
         0.867317; 0.026880;,
         1.000000; 0.946833;,
         1.000000; 0.946833;,
         0.867317; 0.026880;,
         1.000000; 0.946833;,
         0.867317; 0.026880;,
         0.500000; 0.027000;,
         1.000000; 0.946833;,
         1.000000; 0.946833;,
         0.500000; 0.027000;,
         0.500000; 0.946833;,
         0.500000; 0.027000;,
         0.133000; 0.027000;,
         0.500000; 0.946833;,
         0.864698; 0.001104;,
         0.712879; 0.700410;,
         0.864698; 0.001104;,
         0.712879; 0.700410;,
         0.485442; 0.705084;,
         0.864698; 0.001104;,
         0.864698; 0.001104;,
         0.485442; 0.705084;,
         0.497459; 0.008650;,
         0.485442; 0.705084;,
         0.258005; 0.709757;,
         0.497459; 0.008650;,
         0.497459; 0.008650;,
         0.258005; 0.709757;,
         0.130219; 0.016196;,
         0.258005; 0.709757;,
         0.258005; 0.709757;,
         0.130219; 0.016196;,
         0.130219; 0.016196;,
         0.258005; 0.709757;,
         0.130219; 0.016196;,
         0.258005; 0.709757;,
         0.485442; 0.705084;,
         0.130219; 0.016196;,
         0.130219; 0.016196;,
         0.485442; 0.705084;,
         0.497459; 0.008650;,
         0.485442; 0.705084;,
         0.712879; 0.700410;,
         0.497459; 0.008650;,
         0.497459; 0.008650;,
         0.712879; 0.700410;,
         0.864698; 0.001104;,
         0.712879; 0.700410;,
         0.712879; 0.700410;,
         0.864698; 0.001104;,
         0.867317; 0.950547;,
         1.000000; 0.030380;,
         0.867317; 0.950547;,
         1.000000; 0.030380;,
         0.500000; 0.030380;,
         0.867317; 0.950547;,
         0.867317; 0.950547;,
         0.500000; 0.030380;,
         0.500000; 0.950547;,
         0.500000; 0.030380;,
         0.000000; 0.030380;,
         0.500000; 0.950547;,
         0.500000; 0.950547;,
         0.000000; 0.030380;,
         0.132683; 0.950547;,
         0.132683; 0.950547;,
         0.000000; 0.030380;,
         0.000000; 0.030380;,
         0.132683; 0.950547;,
         0.000000; 0.030380;,
         0.132683; 0.950547;,
         0.000000; 0.030380;,
         0.500000; 0.030380;,
         0.132683; 0.950547;,
         0.132683; 0.950547;,
         0.500000; 0.030380;,
         0.500000; 0.950547;,
         0.500000; 0.030380;,
         1.000000; 0.030380;,
         0.500000; 0.950547;,
         0.500000; 0.950547;,
         1.000000; 0.030380;,
         0.867317; 0.950547;,
         1.000000; 0.030380;,
         1.000000; 0.030380;,
         0.867317; 0.950547;,
         0.258005; 0.272257;,
         0.258005; 0.272257;,
         0.486666; 0.431313;,
         0.258005; 0.272257;,
         0.485442; 0.267584;,
         0.486666; 0.431313;,
         0.486666; 0.431313;,
         0.485442; 0.267584;,
         0.712879; 0.262910;,
         0.712879; 0.262910;,
         0.712879; 0.262910;,
         0.486666; 0.431313;,
         0.486666; 0.431313;,
         0.712879; 0.262910;,
         0.485442; 0.267584;,
         0.485442; 0.267584;,
         0.258005; 0.272257;,
         0.486666; 0.431313;,
         0.851692; 0.033880;,
         0.500000; 0.667851;,
         0.484375; 0.033880;,
         0.500000; 0.667851;,
         0.272515; 0.667851;,
         0.484375; 0.033880;,
         0.484375; 0.033880;,
         0.272515; 0.667851;,
         0.117058; 0.033880;,
         0.272515; 0.667851;,
         0.272515; 0.667851;,
         0.117058; 0.033880;,
         0.117058; 0.033880;,
         0.272515; 0.667851;,
         0.117058; 0.033880;,
         0.272515; 0.667851;,
         0.500000; 0.667851;,
         0.117058; 0.033880;,
         0.117058; 0.033880;,
         0.500000; 0.667851;,
         0.484375; 0.033880;,
         0.500000; 0.667851;,
         0.727485; 0.667851;,
         0.484375; 0.033880;,
         0.484375; 0.033880;,
         0.727485; 0.667851;,
         0.851692; 0.033880;,
         0.727485; 0.667851;,
         0.727485; 0.667851;,
         0.851692; 0.033880;,
         0.851692; 0.033880;,
         0.727485; 0.667851;,
         0.851692; 0.033880;,
         0.727485; 0.667851;,
         0.500000; 0.667851;,
         0.851692; 0.033880;,
         0.500000; 0.667851;,
         0.727485; 0.667851;,
         0.500000; 0.750000;,
         0.727485; 0.667851;,
         0.727485; 0.667851;,
         0.500000; 0.750000;,
         0.500000; 0.750000;,
         0.727485; 0.667851;,
         0.500000; 0.667851;,
         0.500000; 0.667851;,
         0.272515; 0.667851;,
         0.500000; 0.750000;,
         0.500000; 0.750000;,
         0.272515; 0.667851;,
         0.272515; 0.667851;,
         0.272515; 0.667851;,
         0.500000; 0.667851;,
         0.500000; 0.750000;,
        -0.002000; 0.941833;,
         0.133000; 0.027000;,
         0.500000; 0.946833;,
         0.133000; 0.027000;,
         0.500000; 0.027000;,
         0.500000; 0.946833;,
         0.500000; 0.946833;,
         0.500000; 0.027000;,
         1.000000; 0.946833;,
         0.500000; 0.027000;,
         0.867317; 0.026880;,
         1.000000; 0.946833;,
         1.000000; 0.946833;,
         0.867317; 0.026880;,
         1.000000; 0.946833;,
         0.867317; 0.026880;,
         0.867317; 0.026880;,
         1.000000; 0.946833;,
         1.000000; 0.946833;,
         0.867317; 0.026880;,
         0.500000; 0.946833;,
         0.867317; 0.026880;,
         0.500000; 0.027000;,
         0.500000; 0.946833;,
         0.500000; 0.946833;,
         0.500000; 0.027000;,
        -0.002000; 0.941833;,
         0.500000; 0.027000;,
         0.133000; 0.027000;,
        -0.002000; 0.941833;,
        -0.002000; 0.941833;,
         0.133000; 0.027000;,
        -0.002000; 0.941833;,
         0.133000; 0.027000;,
         0.133000; 0.027000;,
        -0.002000; 0.941833;,
         0.864698; 0.001104;,
         0.712879; 0.700410;,
         0.864698; 0.001104;,
         0.712879; 0.700410;,
         0.712879; 0.700410;,
         0.864698; 0.001104;,
         0.864698; 0.001104;,
         0.712879; 0.700410;,
         0.497459; 0.008650;,
         0.712879; 0.700410;,
         0.485442; 0.705084;,
         0.497459; 0.008650;,
         0.497459; 0.008650;,
         0.485442; 0.705084;,
         0.130219; 0.016196;,
         0.485442; 0.705084;,
         0.258005; 0.709757;,
         0.130219; 0.016196;,
         0.130219; 0.016196;,
         0.258005; 0.709757;,
         0.130219; 0.016196;,
         0.258005; 0.709757;,
         0.258005; 0.709757;,
         0.130219; 0.016196;,
         0.130219; 0.016196;,
         0.258005; 0.709757;,
         0.497459; 0.008650;,
         0.258005; 0.709757;,
         0.485442; 0.705084;,
         0.497459; 0.008650;,
         0.497459; 0.008650;,
         0.485442; 0.705084;,
         0.864698; 0.001104;,
         0.485442; 0.705084;,
         0.712879; 0.700410;,
         0.864698; 0.001104;,
         0.867317; 0.950547;,
         1.000000; 0.030380;,
         0.867317; 0.950547;,
         1.000000; 0.030380;,
         1.000000; 0.030380;,
         0.867317; 0.950547;,
         0.867317; 0.950547;,
         1.000000; 0.030380;,
         0.500000; 0.950547;,
         1.000000; 0.030380;,
         0.500000; 0.030380;,
         0.500000; 0.950547;,
         0.500000; 0.950547;,
         0.500000; 0.030380;,
         0.132683; 0.950547;,
         0.500000; 0.030380;,
         0.000000; 0.030380;,
         0.132683; 0.950547;,
         0.132683; 0.950547;,
         0.000000; 0.030380;,
         0.132683; 0.950547;,
         0.000000; 0.030380;,
         0.000000; 0.030380;,
         0.132683; 0.950547;,
         0.132683; 0.950547;,
         0.000000; 0.030380;,
         0.500000; 0.950547;,
         0.000000; 0.030380;,
         0.500000; 0.030380;,
         0.500000; 0.950547;,
         0.500000; 0.950547;,
         0.500000; 0.030380;,
         0.867317; 0.950547;,
         0.500000; 0.030380;,
         1.000000; 0.030380;,
         0.867317; 0.950547;,
         0.258005; 0.272257;,
         0.258005; 0.272257;,
         0.486666; 0.431313;,
         0.258005; 0.272257;,
         0.485442; 0.267584;,
         0.486666; 0.431313;,
         0.486666; 0.431313;,
         0.485442; 0.267584;,
         0.712879; 0.262910;,
         0.712879; 0.262910;,
         0.712879; 0.262910;,
         0.486666; 0.431313;,
         0.486666; 0.431313;,
         0.712879; 0.262910;,
         0.485442; 0.267584;,
         0.485442; 0.267584;,
         0.258005; 0.272257;,
         0.486666; 0.431313;,
         0.484375; 0.033880;,
         0.500000; 0.667851;,
         0.851692; 0.033880;,
         0.500000; 0.667851;,
         0.727485; 0.667851;,
         0.851692; 0.033880;,
         0.851692; 0.033880;,
         0.727485; 0.667851;,
         0.851692; 0.033880;,
         0.727485; 0.667851;,
         0.727485; 0.667851;,
         0.851692; 0.033880;,
         0.851692; 0.033880;,
         0.727485; 0.667851;,
         0.484375; 0.033880;,
         0.727485; 0.667851;,
         0.500000; 0.667851;,
         0.484375; 0.033880;,
         0.484375; 0.033880;,
         0.500000; 0.667851;,
         0.117058; 0.033880;,
         0.500000; 0.667851;,
         0.272515; 0.667851;,
         0.117058; 0.033880;,
         0.117058; 0.033880;,
         0.272515; 0.667851;,
         0.117058; 0.033880;,
         0.272515; 0.667851;,
         0.272515; 0.667851;,
         0.117058; 0.033880;,
         0.117058; 0.033880;,
         0.272515; 0.667851;,
         0.484375; 0.033880;,
         0.272515; 0.667851;,
         0.500000; 0.667851;,
         0.484375; 0.033880;,
         0.500000; 0.667851;,
         0.272515; 0.667851;,
         0.500000; 0.750000;,
         0.272515; 0.667851;,
         0.272515; 0.667851;,
         0.500000; 0.750000;,
         0.500000; 0.750000;,
         0.272515; 0.667851;,
         0.500000; 0.667851;,
         0.500000; 0.667851;,
         0.727485; 0.667851;,
         0.500000; 0.750000;,
         0.500000; 0.750000;,
         0.727485; 0.667851;,
         0.727485; 0.667851;,
         0.727485; 0.667851;,
         0.500000; 0.667851;,
         0.500000; 0.750000;;
      } //End of Mesh UV Coordinates
    } //End of Mesh Mesh
  } //End of dokucale_c_mat_0
} //End of Root Frame
