newmtl mat1
	Ns 10
	Ni 1.0
	d 1.0
	Tf 1 1 1
	illum 2
	Ka 0.5 0.5 0.5
	Kd 0.9 0.9 0.9
	Ks 0.0 0.0 0.0
	map_Kd Textures\At00Deco00BerryA.tga

newmtl mat2
	Ns 10
	Ni 1.0
	d 1.0
	Tf 1 1 1
	illum 2
	Ka 0.5 0.5 0.5
	Kd 0.9 0.9 0.9
	Ks 0.0 0.0 0.0
	map_Kd Textures\At00Deco00CreamA.tga

newmtl mat3
	Ns 10
	Ni 1.0
	d 1.0
	Tf 1 1 1
	illum 2
	Ka 0.5 0.5 0.5
	Kd 0.9 0.9 0.9
	Ks 0.0 0.0 0.0
	map_Kd Textures\At00Deco00SponjiA.tga

newmtl mat4
	Ns 10
	Ni 1.0
	d 1.0
	Tf 1 1 1
	illum 2
	Ka 0.5 0.5 0.5
	Kd 0.9 0.9 0.9
	Ks 0.0 0.0 0.0
	map_Kd Textures\BaoppuBodyNl.tga

newmtl mat5
	Ns 10
	Ni 1.0
	d 1.0
	Tf 1 1 1
	illum 2
	Ka 0.5 0.5 0.5
	Kd 0.9 0.9 0.9
	Ks 0.0 0.0 0.0
	map_Kd Textures\BaoppuEyeNl.tga

newmtl mat6
	Ns 10
	Ni 1.0
	d 1.0
	Tf 1 1 1
	illum 2
	Ka 0.5 0.5 0.5
	Kd 0.9 0.9 0.9
	Ks 0.0 0.0 0.0
	map_Kd Textures\BaoppuMouthNl.tga

