# Blender v2.66 (sub 1) OBJ File: 'BR_Smeargle.blend'
# www.blender.org
mtllib BR_Smeargle.mtl
o doble
v 0.311770 -1.337724 -2.785439
v 1.106793 -1.105007 -2.849452
v 0.669857 -1.217740 -2.299229
v -0.865508 -0.458017 -1.631291
v -0.365688 -1.013444 -1.867553
v 0.000000 -0.554658 -1.506025
v -1.287930 0.144042 -1.971947
v 0.000000 -1.358042 -2.461566
v 0.365686 -1.013448 -1.867547
v -0.813455 0.679522 -1.723047
v 1.379949 -0.506186 -2.203347
v 0.813453 0.679522 -1.723045
v -1.379952 -0.506185 -2.203346
v 1.287933 0.144042 -1.971950
v 0.000000 0.342484 -1.287474
v -1.106795 -1.105006 -2.849456
v 0.000000 -1.223079 -3.318158
v -0.311769 -1.337731 -2.785442
v 0.865501 -0.458018 -1.631292
v -0.669859 -1.217737 -2.299232
v -1.156355 1.132000 -2.469000
v -1.528027 0.176000 -2.795035
v 0.000000 1.492229 -2.193346
v 1.527888 0.175918 -2.795233
v 1.156000 1.132332 -2.468949
v -1.223000 -0.815825 -3.332020
v 1.222713 -0.816136 -3.332115
v -1.489884 0.413162 -3.456469
v -1.111560 1.293033 -3.151937
v 1.106343 -0.465910 -3.760533
v 1.111566 1.293028 -3.151941
v 0.000000 1.657727 -3.025672
v 1.489887 0.413158 -3.456469
v -1.106342 -0.465907 -3.760532
v -0.586646 -0.064999 -1.417283
v -1.044584 -0.345571 -1.315708
v -1.024765 0.758331 -1.494795
v 0.586480 -0.065418 -1.417465
v 1.024778 0.758325 -1.494783
v 0.000000 -0.845598 -3.983819
v 0.868722 -0.233694 -4.590393
v 0.000000 -0.677773 -4.729307
v 0.000000 1.610559 -4.077221
v 0.890224 1.312598 -4.149952
v -0.868717 -0.233691 -4.590391
v -1.087832 0.131758 -4.901677
v 1.087837 0.131752 -4.901675
v 1.090958 0.958894 -4.875752
v -1.090952 0.958901 -4.875751
v -0.890216 1.312593 -4.149949
v 1.146717 0.565765 -4.370381
v 1.146717 0.565765 -4.370381
v -1.146715 0.565764 -4.370384
v -1.146715 0.565764 -4.370384
v 0.738000 -0.179000 -5.490000
v 0.000000 1.585669 -5.181589
v -0.738309 -0.178821 -5.489684
v 1.064000 0.737000 -5.351000
v 0.741630 1.284000 -5.253000
v -0.741769 1.284456 -5.252825
v -1.067000 0.365000 -5.402438
v -1.063722 0.736528 -5.351314
v 1.067038 0.365432 -5.402275
v 0.000000 -0.483715 -5.516560
v -1.096014 1.708472 -5.513045
v -1.096013 -0.452133 -5.882874
v 1.096018 -0.452133 -5.882869
v 1.550005 0.628167 -5.697953
v 1.096019 1.708476 -5.513043
v 0.000000 -0.899610 -5.959467
v 0.000000 -0.772160 -6.523872
v 1.074523 -0.333461 -6.448779
v -0.671747 0.115403 -6.683827
v -1.074517 -0.333457 -6.448776
v -1.519598 0.725662 -6.267490
v -0.949995 0.777522 -6.570493
v -1.550000 0.628172 -5.697963
v 0.000000 2.155954 -5.436450
v 0.000000 2.223477 -6.011111
v 0.000000 1.713897 -6.410219
v -0.671745 1.439641 -6.457164
v -1.074513 1.784773 -6.086202
v 1.074523 1.784769 -6.086205
v 1.519602 0.725651 -6.267490
v 0.950004 0.777516 -6.570496
v 0.671756 1.439645 -6.457166
v 0.000000 -0.158859 -6.730771
v 0.671754 0.115398 -6.683825
v 0.950591 3.305515 -7.636830
v 0.934243 3.466746 -7.107063
v 1.459626 2.267373 -7.583146
v -0.616117 2.188028 -9.247633
v -0.616117 2.188028 -9.247633
v -1.330461 1.328085 -9.099781
v -1.330461 1.328085 -9.099781
v -1.143237 2.516393 -8.417213
v -0.950568 3.305519 -7.636834
v -1.459609 2.267376 -7.583145
v -0.854994 0.606965 -6.631646
v -1.337852 0.022381 -7.394100
v -0.605221 -0.965979 -7.620129
v 1.143259 2.516384 -8.417215
v 1.330482 1.328074 -9.099792
v 1.330482 1.328074 -9.099792
v 0.616141 2.188026 -9.247628
v 0.616141 2.188026 -9.247628
v 0.900842 2.998850 -8.158411
v 0.881810 3.109787 -6.533586
v 1.268295 1.955644 -6.766757
v 0.728700 2.670240 -6.285944
v -0.934212 3.466761 -7.107059
v -0.313141 3.982142 -6.982064
v -0.342391 3.788331 -7.562501
v 0.358626 3.433285 -8.100330
v 0.342421 3.788327 -7.562504
v 0.313172 3.982139 -6.982072
v 0.289685 3.650554 -6.402794
v 1.388558 0.855101 -7.095056
v 1.337857 0.022378 -7.394093
v 1.627418 0.111555 -8.351542
v 0.605225 -0.965983 -7.620132
v 0.712028 -1.051217 -8.617442
v 0.712028 -1.051217 -8.617442
v 0.469218 2.979010 -8.610473
v -0.340783 -0.045081 -6.793175
v 0.340791 -0.045084 -6.793176
v -0.900814 2.998859 -8.158411
v -0.469190 2.979013 -8.610474
v -0.712025 -1.051212 -8.617444
v -0.712025 -1.051212 -8.617444
v -1.627402 0.111567 -8.351538
v -1.460000 0.000000 -9.000000
v -1.460000 0.000000 -9.000000
v -0.358598 3.433290 -8.100335
v 0.855006 0.606954 -6.631648
v -0.289656 3.650551 -6.402790
v -0.266170 3.062038 -6.174453
v 0.266197 3.062037 -6.174452
v -1.268276 1.955647 -6.766757
v -1.603329 1.189475 -7.967340
v -0.728678 2.670245 -6.285945
v -0.881787 3.109786 -6.533589
v -1.388543 0.855112 -7.095057
v 1.603345 1.189465 -7.967346
v 0.384519 1.528606 -6.332675
v -0.428000 0.616603 -10.620001
v 0.000000 1.083019 -10.649119
v 0.000000 0.792988 -11.327856
v 0.427965 0.617000 -10.620000
v 0.155000 0.583266 -11.310000
v 1.824526 1.435943 -10.025682
v 1.824521 -0.241607 -9.946499
v 0.833538 -1.503293 -8.527009
v -0.833541 -1.503287 -8.527000
v -0.967183 -1.931873 -9.123400
v 0.967179 -1.931879 -9.123405
v 0.451947 2.912983 -10.144761
v 0.000000 0.150766 -10.603076
v -0.755740 -1.437555 -9.801388
v -1.824520 -0.241603 -9.946491
v 0.000000 0.371606 -11.292391
v -0.155000 0.582939 -11.310000
v 0.352992 3.187971 -8.683495
v -0.352963 3.187981 -8.683495
v -1.824507 1.435957 -10.025686
v 0.755742 -1.437560 -9.801387
v 0.000000 0.572442 -11.526006
v -2.012329 -0.204091 -8.684176
v 0.535545 3.462896 -9.478552
v -0.535515 3.462903 -9.478544
v -0.451920 2.912982 -10.144768
v 2.162024 1.669800 -9.386091
v 1.843314 1.912978 -8.783989
v 2.153808 0.854435 -8.734079
v 2.012338 -0.204101 -8.684176
v 2.334977 -0.418142 -9.218809
v 1.131160 2.816244 -9.476317
v 1.209189 2.662735 -9.040965
v 1.652413 2.247040 -9.034181
v -1.209165 2.662743 -9.040973
v -2.153802 0.854451 -8.734076
v -1.843293 1.912995 -8.783984
v -2.162011 1.669812 -9.386097
v -2.334972 -0.418132 -9.218816
v -1.131128 2.816259 -9.476318
v -1.652384 2.247058 -9.034173
v -0.384502 1.528604 -6.332671
v 0.000000 2.479951 -6.481044
v -0.253076 2.386880 -6.435772
v 0.253095 2.386391 -6.436014
v 1.460000 0.000000 -9.000000
v 1.460000 0.000000 -9.000000
v 1.827000 -0.033334 -7.544000
v 1.678559 1.253474 -9.055442
v 1.440000 0.128511 -8.940000
v 2.262000 1.000277 -7.974000
v 1.475000 -0.516195 -8.433000
v 2.239776 -0.184061 -7.917871
v 2.534723 0.552410 -7.290021
v 1.645071 -0.875403 -7.844411
v 2.275000 -0.660407 -6.822000
v 1.976578 -0.887309 -7.266005
v 2.509843 -0.012281 -6.850000
v -1.440000 0.128611 -8.940001
v -1.679000 1.253000 -9.055000
v -1.827430 -0.033233 -7.543813
v -2.261775 1.000375 -7.974100
v -2.240000 -0.183963 -7.918000
v -1.475145 -0.516096 -8.432599
v -2.525000 0.552000 -7.290000
v -1.645000 -0.875300 -7.844000
v -1.964655 -0.887204 -7.267117
v -2.275178 -0.660299 -6.821561
v -2.510000 -0.012173 -6.850000
v 0.000000 2.903329 -5.734878
v 0.374079 2.784685 -5.703016
v -0.374059 2.784784 -5.702835
v 0.188000 2.893000 -5.645000
v -0.187674 2.893296 -5.645154
v -1.300000 0.692142 -5.161296
v -1.421377 0.150045 -4.701029
v -1.445062 0.832353 -4.675234
v -1.632530 0.659981 -4.971741
v -2.056029 0.747798 -4.287178
v -1.621107 0.330875 -4.984183
v -1.300000 0.337157 -5.178342
v -2.209667 0.817604 -4.129895
v -2.100000 0.433884 -3.749947
v -2.477992 0.459742 -4.296598
v -2.275087 0.071191 -4.073696
v -2.520315 0.190526 -3.846234
v -3.281791 0.748067 -3.091394
v -3.335943 0.923313 -3.467526
v -2.847190 0.910059 -3.079588
v -3.005000 1.208949 -3.415352
v -3.819852 1.613458 -2.994208
v -3.900688 2.139404 -2.619958
v -3.761341 2.005747 -2.828195
v -3.170264 1.191180 -2.276722
v -3.908172 1.298164 -2.763438
v -2.802871 2.216300 -2.498859
v -3.591544 2.339807 -3.016967
v -3.588156 2.575239 -2.953378
v -3.446076 0.999045 -3.428562
v -3.590019 1.653101 -3.695606
v -3.429509 1.761603 -3.357066
v -3.840661 1.712261 -3.282879
v -2.915936 1.497768 -2.463740
v -2.799786 1.087880 -2.801723
v -2.817685 2.449285 -2.456621
v -3.094517 2.036510 -2.099286
v -2.977597 1.911906 -2.312323
v -3.599774 2.117325 -3.713861
v -3.721256 2.188070 -3.501562
v -3.399057 2.140487 -3.499131
v 1.300000 0.692000 -5.161000
v 1.421000 0.150000 -4.701000
v 1.445000 0.832000 -4.675000
v 2.056000 0.748000 -4.287000
v 1.633000 0.660000 -4.972000
v 1.621000 0.331000 -4.984000
v 1.300000 0.337000 -5.177999
v 2.209188 0.817243 -4.130281
v 2.100000 0.434000 -3.749906
v 2.478000 0.460000 -4.297000
v 2.275000 0.071000 -4.074000
v 2.925647 0.601717 -3.076670
v 2.520672 0.190388 -3.845825
v 2.600534 0.911512 -2.917598
v 3.019710 0.945539 -3.371538
v 2.666946 1.219252 -3.276432
v 3.206712 1.357242 -1.994594
v 3.389451 1.507858 -1.837854
v 2.993549 1.464578 -2.352242
v 3.165227 1.679954 -2.643109
v 3.795813 1.133372 -2.953688
v 3.182049 1.027742 -1.483907
v 3.096326 1.071308 -1.708034
v 3.767345 0.488789 -2.048756
v 2.598178 1.152454 -3.024661
v 2.371509 1.065350 -2.345791
v 2.719140 1.388945 -2.240407
v 2.746996 0.972735 -2.294973
v 3.362736 0.679926 -3.128026
v 3.703861 0.775053 -2.715335
v 4.069040 0.904623 -2.163234
v 3.827967 0.457601 -1.821519
v 3.877383 0.771719 -2.305312
v 2.654145 0.818521 -1.931292
v 2.582257 1.109088 -1.802898
v 2.397727 0.959235 -1.894138
v 1.555268 0.239085 -1.328514
v 1.044780 -0.345950 -1.316113
v 0.740140 0.135020 -1.006534
v 0.877658 -0.014535 -0.643919
v 1.158272 0.756960 -1.269811
v 1.119635 -0.359788 -1.081690
v 1.301210 0.691438 -0.840114
v 1.748129 0.207597 -0.731653
v 1.205314 -0.519262 -0.737010
v 1.261167 -0.533075 -0.078136
v 1.755350 -0.013632 -0.688469
v 1.418221 0.697991 -0.809167
v 0.957151 2.576427 -0.701115
v 2.275280 2.312741 -0.685456
v 2.332900 2.661530 -0.056206
v 2.063641 1.382184 -0.042636
v 0.947389 1.456670 -0.054024
v 0.987867 2.930593 -0.072182
v 1.727044 3.052981 -0.194378
v 1.680708 2.698939 -0.695880
v 1.784807 -0.000503 -0.027857
v 0.922741 0.039828 -0.036435
v -0.186818 -2.395109 -2.737725
v -0.370645 -2.114297 -2.212214
v 0.206455 -2.346266 -2.256314
v -0.961185 -3.229509 -2.000640
v -0.986233 -2.818699 -1.532227
v -0.587493 -3.297372 -1.506117
v -2.096241 -2.840334 -1.340347
v -1.781932 -2.503664 -0.920036
v -1.952311 -3.088473 -0.786706
v -2.979778 -1.926610 -1.194268
v -2.636418 -1.662215 -0.745938
v -3.101173 -2.049594 -0.595148
v -3.153568 -0.632782 -0.388186
v -3.123772 -0.546868 -0.979751
v -2.677951 -0.610477 -0.548481
v -2.309123 0.591749 -0.653454
v -2.888700 0.782954 -0.525693
v -2.896900 0.707276 -1.166092
v -1.887212 1.577380 -1.449767
v -2.384646 1.946684 -1.379159
v -2.584684 1.603683 -1.933988
v -1.801742 2.552482 -2.594903
v -2.329071 2.864090 -2.478162
v -2.580431 2.400078 -2.904538
v -2.637818 3.025635 -4.019617
v -1.937646 3.319278 -3.891861
v -2.452535 3.664005 -3.735898
v -2.851440 2.834661 -5.409868
v -3.253170 4.196330 -4.994378
v -1.856071 4.620795 -4.767148
v -1.454341 3.259126 -5.182637
v -2.951173 4.744083 -6.388224
v -1.947776 5.045416 -6.200578
v -2.649993 3.824276 -6.830996
v -1.646596 4.125610 -6.643350
v -2.271140 4.787920 -7.230646
v -1.555000 0.239000 -1.329000
v -0.740040 0.135000 -1.007000
v -0.877654 -0.014521 -0.643922
v -1.120000 -0.360097 -1.081960
v -1.204939 -0.519000 -0.737000
v -1.359199 0.697213 -0.552253
v -1.158000 0.757000 -1.270000
v -1.704570 0.217133 -0.861847
v -1.755351 -0.013612 -0.688472
v -1.261170 -0.533057 -0.078136
v -1.418219 0.698004 -0.809174
v -0.957133 2.576437 -0.701132
v -2.063630 1.382206 -0.042648
v -2.332877 2.661550 -0.056225
v -2.275258 2.312761 -0.685473
v -0.987842 2.930611 -0.072200
v -0.947375 1.456683 -0.054034
v -1.727015 3.053001 -0.194399
v -1.680689 2.698958 -0.695899
v -0.922741 0.039844 -0.036438
v -1.784801 -0.000482 -0.027860
v 0.000000 -0.922312 -3.724977
vt 0.699641 0.341299
vt 0.754997 0.221012
vt 0.761000 0.392354
vt 0.699641 0.143450
vt 0.638282 0.392354
vt 0.644285 0.221012
vt 0.201514 0.841269
vt 0.223556 0.690678
vt 0.276444 0.690678
vt 0.250000 0.831256
vt 0.221526 0.558576
vt 0.278474 0.558576
vt 0.490737 0.716334
vt 0.490917 0.656392
vt 0.509083 0.656392
vt 0.509263 0.716334
vt 0.510769 0.615664
vt 0.489231 0.615664
vt 0.486886 0.572828
vt 0.513114 0.572828
vt 0.132813 0.109375
vt 0.250000 0.250000
vt 0.117188 0.195313
vt 0.298486 0.841269
vt 0.413338 0.906151
vt 0.640625 0.062500
vt 0.074645 0.772715
vt 0.250000 0.959269
vt 0.697917 0.552383
vt 0.719393 0.473504
vt 0.830117 0.587313
vt 0.491073 0.565353
vt 0.510835 0.463531
vt 0.509885 0.549251
vt 0.491813 0.442896
vt 0.455117 0.587313
vt 0.458156 0.394121
vt 0.532469 0.442896
vt 0.514397 0.549251
vt 0.513447 0.463531
vt 0.533209 0.565353
vt 0.566126 0.394121
vt 0.569165 0.587313
vt 0.125000 0.437500
vt 0.500000 0.298611
vt 0.500000 0.437500
vt 0.125000 0.298611
vt 0.875000 0.437500
vt 0.875000 0.298611
vt 0.724759 0.510087
vt 0.674523 0.510087
vt 0.699641 0.686054
vt 0.654696 0.613397
vt 0.667009 0.741729
vt 0.621132 0.655114
vt 0.699641 0.857234
vt 0.585091 0.658097
vt 0.512141 0.812500
vt 0.439191 0.658097
vt 0.732273 0.741729
vt 0.584920 0.500176
vt 0.614917 0.498705
vt 0.598393 0.398376
vt 0.571503 0.347147
vt 0.576633 0.290035
vt 0.512141 0.246764
vt 0.324641 0.143450
vt 0.447649 0.290035
vt 0.379997 0.221012
vt 0.452779 0.347147
vt 0.425889 0.398376
vt 0.439362 0.500176
vt 0.409365 0.498705
vt 0.403150 0.655114
vt 0.369587 0.613397
vt 0.357273 0.741729
vt 0.324641 0.686054
vt 0.349759 0.510087
vt 0.386000 0.392354
vt 0.778150 0.655114
vt 0.814191 0.658097
vt 0.627362 0.343566
vt 0.592142 0.336051
vt 0.699641 0.207245
vt 0.622540 0.503427
vt 0.592671 0.498969
vt 0.628256 0.660716
vt 0.583818 0.665223
vt 0.512141 0.798580
vt 0.699641 0.798700
vt 0.396026 0.660716
vt 0.440464 0.665223
vt 0.431611 0.498969
vt 0.401742 0.503427
vt 0.432141 0.336051
vt 0.396920 0.343566
vt 0.324641 0.207245
vt 0.512141 0.166138
vt 0.031190 0.665244
vt 0.010769 0.615664
vt 0.034167 0.623621
vt 0.009083 0.656392
vt 0.009263 0.716334
vt 0.033302 0.732079
vt 0.468810 0.665244
vt 0.465833 0.623622
vt 0.466698 0.732080
vt 0.169895 -0.012131
vt 0.314366 0.000000
vt 0.350702 0.867997
vt 0.370343 0.772438
vt 0.425355 0.772715
vt 0.329939 0.729808
vt 0.337020 0.589720
vt 0.331722 0.495702
vt 0.382607 0.645952
vt 0.129657 0.772438
vt 0.149298 0.867997
vt 0.170061 0.729808
vt 0.162980 0.589720
vt 0.168278 0.495702
vt 0.117393 0.645952
vt 0.524680 0.359138
vt 0.522832 0.260335
vt 0.587608 0.448632
vt 0.678603 0.473165
vt 0.703045 0.347842
vt 0.833156 0.394121
vt 0.344393 0.473504
vt 0.328045 0.347842
vt 0.525272 0.648265
vt 0.525805 0.750542
vt 0.499603 0.359138
vt 0.501450 0.260335
vt 0.436675 0.448632
vt 0.345679 0.473165
vt 0.498477 0.750542
vt 0.326365 0.552383
vt 0.499010 0.648265
vt 0.679889 0.473504
vt 0.701365 0.552383
vt 0.696237 0.347842
vt 0.876450 0.260335
vt 0.720679 0.473165
vt 0.527476 0.811221
vt 0.668779 0.783329
vt 0.429784 0.532204
vt 0.569733 0.487425
vt 0.640581 0.483568
vt 0.652391 0.174616
vt 0.507248 0.244276
vt 0.804784 0.532204
vt 0.745768 0.548222
vt 0.355503 0.783329
vt 0.496806 0.811221
vt 0.594498 0.532204
vt 0.454549 0.487425
vt 0.383701 0.483568
vt 0.371891 0.174616
vt 0.517034 0.244276
vt 0.653514 0.548222
vt 0.746891 0.174616
vt 0.730503 0.783329
vt 0.324500 0.925250
vt -0.023434 0.562500
vt 0.500000 0.562500
vt -0.023434 1.044530
vt -0.154293 0.080475
vt 0.500000 0.080475
vt 1.154290 0.080475
vt 1.023430 0.562500
vt 1.023430 1.044530
vt 0.500000 1.044530
vt -1.000000 0.092979
vt -1.137190 0.251037
vt -0.750000 0.026538
vt -1.096350 0.267209
vt -1.000000 0.213966
vt -1.062260 0.320569
vt -1.391080 0.508250
vt -1.437740 0.320569
vt -1.403650 0.267209
vt -1.420870 0.518770
vt -1.390930 0.752057
vt -1.430250 0.722795
vt -1.250000 0.803638
vt -1.349780 0.739821
vt -1.316200 0.689708
vt -1.250000 0.919036
vt -1.183800 0.689708
vt -1.150220 0.739821
vt -0.890930 0.752057
vt -1.000000 0.845354
vt -0.930246 0.722795
vt -1.000000 0.963418
vt -0.849779 0.739821
vt -1.109070 0.752057
vt -1.138440 0.497990
vt -1.108920 0.508250
vt -1.069750 0.722795
vt -1.079130 0.518770
vt -1.362810 0.251037
vt -1.500000 0.092979
vt -1.250000 0.026538
vt -1.361560 0.497990
vt -1.250000 0.144183
vt -1.176500 0.274485
vt -1.323500 0.274485
vt -1.500000 0.213966
vt -0.937740 0.320569
vt -0.920867 0.518770
vt 0.581035 0.439535
vt 0.577075 0.292665
vt 0.849149 0.229421
vt 1.000000 0.505342
vt 0.996039 0.358472
vt 0.603802 0.347742
vt 0.607762 0.494612
vt 0.289184 0.337207
vt 0.347364 1.000000
vt 0.853109 0.376291
vt 0.294622 0.519704
vt 0.004542 0.611721
vt 0.000000 0.380931
vt 0.293728 0.575102
vt 0.085123 0.332773
vt 0.113616 0.576012
vt 0.109557 0.406970
vt 0.290618 0.359999
vt 0.089949 0.612670
vt -1.332350 0.532425
vt -1.333960 0.437706
vt -1.166040 0.437706
vt -1.167650 0.532425
vt 0.329438 0.000000
vt -0.071618 0.972736
vt 0.414873 1.005550
vt 0.278408 1.015740
vt -0.157302 0.982459
vt -0.040368 0.953205
vt -0.296775 0.925696
vt -0.382459 0.935418
vt 0.000000 0.962928
vt -0.503119 0.896095
vt 0.070672 0.923215
vt 0.419895 0.873484
vt -0.133431 0.891032
vt -0.301854 0.861437
vt 0.405000 0.928000
vt 0.970000 0.957250
vt 0.446000 0.986000
vt 0.071000 0.923250
vt 0.000000 0.891032
vt -0.133000 0.891000
vt 0.000000 0.896095
vt 0.405104 0.927952
vt 0.446123 0.986016
vt 0.969813 0.957253
vt 0.420000 0.873500
vt -0.301855 0.861437
vt 0.000000 0.925696
vt -0.017605 0.799265
vt -0.154198 0.892291
vt -0.739355 0.787219
vt -0.112855 0.897371
vt 0.992953 0.890653
vt 1.608450 0.943810
vt 0.564366 0.804687
vt 1.128310 0.838257
vt 0.564365 0.804687
vt 0.721000 0.985333
vt 0.254125 1.057910
vt 0.741000 1.057800
vt 0.273000 0.985333
vt 0.790000 0.750000
vt 0.210000 0.750000
vt 1.238220 0.987491
vt 1.109240 0.934190
vt 1.562000 0.838000
vt 1.128890 0.751074
vt -0.243897 0.987821
vt -0.116000 0.934500
vt -0.117912 0.749983
vt -0.569554 0.838552
vt 0.005062 -0.025049
vt 0.994938 -0.025049
vt 0.994938 1.025050
vt 0.005062 1.025050
vt 1.000000 0.340171
vt 0.161713 1.000000
vt 0.838287 1.000000
vt 0.000000 0.340171
vt 0.750000 0.170085
vt 0.250000 0.170085
vt 0.500000 1.000000
vt 0.500000 0.314729
vt 0.980297 1.129100
vt 0.411085 1.430300
vt 0.450968 1.078080
vt 0.510659 0.875675
vt 0.385659 0.866276
vt 0.510659 0.866276
vt 0.385659 0.875675
vt 0.510659 0.885075
vt 0.385659 0.885075
vt 0.510659 0.894474
vt 0.385659 0.894474
vt 0.510659 0.903874
vt 0.385659 0.903874
vt 0.510659 0.913273
vt 0.385659 0.913273
vt 0.510659 0.922672
vt 0.385659 0.922672
vt 0.510659 0.932072
vt 0.385659 0.932072
vt 0.510659 0.941471
vt 0.385659 0.941471
vt 0.635659 0.866276
vt 0.635659 0.875675
vt 0.635659 0.885075
vt 0.635659 0.894474
vt 0.635659 0.903874
vt 0.635659 0.913273
vt 0.635659 0.922672
vt 0.635659 0.932072
vt 0.635659 0.941471
vt -0.066447 1.086750
vt 0.454463 1.011450
vt 0.405574 1.362530
vt 0.060229 -0.002906
vt 0.496000 0.840000
vt 0.591000 0.006648
vt 1.154850 -0.012881
vt 0.982313 1.076010
vt 0.496278 0.965399
vt 0.589098 -0.014631
vt 0.506909 0.920999
vt 0.509159 0.937241
vt 0.638659 0.919947
vt 0.380573 0.920487
vt 0.496504 0.574756
vt 1.012000 0.745562
vt 1.007760 0.571938
vt 0.485000 0.758000
vt -0.020344 0.751949
vt 0.493649 0.949898
vt 0.020153 0.564887
vt 0.488000 0.568000
vt 0.494000 0.950000
vt 0.522321 3.267860
vt 0.276786 3.241070
vt 0.275442 3.218200
vt -0.017703 0.452209
vt 1.013550 0.378778
vt 0.888547 1.691280
vt 0.065253 1.585450
vt 0.410714 3.214290
vt 0.078942 0.979370
vt 0.554601 1.043910
vt 0.117503 0.627777
vt 0.111023 -0.044997
vt 0.115335 0.575704
vt 0.120082 0.017373
vt 0.545478 0.603613
vt 0.538216 0.058719
vt 0.547225 -0.030298
vt 0.519346 1.020540
vt 0.530378 1.813160
vt 0.293184 2.179330
vt 0.452260 2.225440
vt 0.296361 2.168430
vt 0.116848 1.004530
vt 0.137073 2.166270
vt 0.136105 2.287510
vt -0.034095 1.676800
vt 0.095014 1.319950
vt 0.076095 1.163700
vt -0.010840 1.139850
vt -0.046808 0.954615
vt -0.051336 1.288320
vt 0.543678 0.626851
vt 0.801442 2.878760
vt 0.778336 2.847880
vt 1.001520 0.693134
vt 0.474136 0.196229
vt -0.009100 0.765097
vt 0.149013 2.678260
vt 0.127753 2.647950
vt 0.180725 2.683280
vt 0.466040 2.276860
vt 0.468962 2.212330
vt 0.473567 0.509610
vt 0.645256 0.001672
vt 0.998438 0.181250
vt 0.998438 0.003125
vt 0.758115 0.171299
vt 0.508856 0.171239
vt 0.758396 0.797259
vt 0.509297 0.797239
vt 0.509490 0.985399
vt 0.260198 0.797427
vt 0.000000 0.795455
vt 0.259598 0.171467
vt -0.001420 0.176136
vt -0.001420 0.000000
vt 0.371737 0.001764
vt 0.998438 0.793750
vt 0.700000 0.068750
vt 0.662500 0.018750
vt 0.600000 0.056250
vt 0.039632 0.144097
vt 0.917989 0.140543
vt 0.997915 1.536050
vt 0.001730 1.546710
vt 0.035276 0.142934
vt 0.921230 0.137883
vt 0.983221 1.541530
vt -0.006855 1.545110
vt 0.156250 0.075000
vt 0.287500 0.025000
vt 0.406250 0.056250
usemtl mat_0
s 1
f 6/1 35/2 4/3
f 6/1 15/4 35/2
f 19/5 15/4 6/1
f 19/5 38/6 15/4
f 101/7 121/8 126/9
f 125/10 101/7 126/9
f 101/8 129/11 122/12
f 121/9 101/8 122/12
f 117/13 116/14 112/15
f 136/16 117/13 112/15
f 113/17 115/18 114/19
f 134/20 113/17 114/19
f 154/21 155/22 156/22
f 153/23 154/21 156/22
f 164/21 93/22 106/22
f 163/23 164/21 106/22
f 168/21 154/22 130/22
f 133/23 168/21 130/22
f 170/21 164/22 163/22
f 169/23 170/21 163/22
f 171/21 170/22 169/22
f 157/23 171/21 169/22
f 155/21 159/22 166/22
f 156/23 155/21 166/22
f 126/24 145/25 187/25
f 125/7 126/24 187/25
f 146/23 147/21 148/22
f 149/23 150/21 148/22
f 151/23 152/21 149/22
f 147/23 157/21 151/22
f 158/23 159/21 160/22
f 161/23 150/21 149/22
f 146/23 162/21 161/22
f 147/23 146/21 165/22
f 152/23 166/21 158/22
f 156/23 166/21 152/22
f 162/23 167/21 161/22
f 171/23 157/21 147/22
f 172/23 173/21 174/22
f 161/23 167/21 150/22
f 123/22 175/23 192/21
f 123/22 153/22 175/23
f 130/23 153/22 123/22
f 130/23 154/21 153/22
f 174/23 173/21 104/22
f 150/23 167/21 148/22
f 148/23 162/21 146/22
f 148/23 167/21 162/22
f 153/23 156/21 176/22
f 169/23 163/21 177/22
f 177/23 172/21 151/22
f 177/23 163/21 178/22
f 179/23 173/21 172/22
f 180/23 93/21 164/22
f 148/23 147/21 149/22
f 181/23 182/21 183/22
f 165/23 160/21 184/22
f 160/23 165/21 146/22
f 165/23 183/21 185/22
f 155/23 184/21 160/22
f 164/23 170/21 185/22
f 93/23 180/21 186/22
f 183/23 182/21 186/22
f 181/23 168/21 133/22
f 184/23 155/21 154/22
f 104/23 173/21 179/22
f 106/23 178/21 163/22
f 151/23 172/21 176/22
f 185/23 180/21 164/22
f 185/23 183/21 186/22
f 186/23 180/21 185/22
f 177/23 178/21 179/22
f 179/23 172/21 177/22
f 179/23 178/21 106/22
f 179/23 106/21 104/22
f 186/23 182/21 95/22
f 95/23 93/21 186/22
f 174/23 175/21 176/22
f 176/23 172/21 174/22
f 192/23 175/21 174/22
f 174/23 104/21 192/22
f 184/23 168/21 181/22
f 183/23 184/21 181/22
f 95/23 182/21 181/22
f 133/23 95/21 181/22
f 166/23 159/21 158/22
f 185/23 170/21 171/22
f 185/23 171/21 165/22
f 157/23 169/21 177/22
f 151/23 157/21 177/22
f 165/23 171/21 147/22
f 151/23 149/21 147/22
f 158/23 149/21 152/22
f 160/23 146/21 158/22
f 160/23 159/21 155/22
f 149/23 158/21 161/22
f 161/23 158/21 146/22
f 152/23 176/21 156/22
f 176/23 152/21 151/22
f 184/23 183/21 165/22
f 154/23 168/21 184/22
f 176/23 175/21 153/22
f 99/26 125/27 187/28
f 230/29 229/30 225/31
f 226/32 62/33 61/34
f 226/32 220/35 62/33
f 225/36 220/35 226/32
f 225/36 223/37 220/35
f 256/38 63/39 58/40
f 256/38 262/41 63/39
f 260/42 262/41 256/38
f 260/42 261/43 262/41
f 315/44 17/45 314/46
f 315/44 18/47 17/45
f 316/48 18/47 315/44
f 316/48 1/49 18/47
f 314/46 1/49 316/48
f 17/46 1/45 314/49
f 5/50 6/1 4/3
f 5/50 9/51 6/1
f 8/52 9/51 5/50
f 8/52 3/53 9/51
f 1/54 3/53 8/52
f 1/54 2/55 3/53
f 2/56 1/55 17/54
f 17/56 27/57 2/55
f 371/58 27/57 17/56
f 17/56 26/59 371/58
f 18/60 1/54 8/52
f 24/61 2/55 27/57
f 24/61 11/62 2/55
f 14/63 11/62 24/61
f 14/63 19/5 11/62
f 3/53 11/62 19/5
f 3/53 2/55 11/62
f 19/5 9/51 3/53
f 19/5 6/1 9/51
f 25/64 14/63 24/61
f 25/64 12/65 14/63
f 23/66 12/65 25/64
f 23/66 15/4 12/65
f 38/6 12/65 15/4
f 15/67 10/68 35/69
f 15/67 23/66 10/68
f 21/70 10/68 23/66
f 21/70 7/71 10/68
f 22/72 7/71 21/70
f 22/72 13/73 7/71
f 16/74 13/73 22/72
f 16/74 20/75 13/73
f 18/76 20/75 16/74
f 18/76 8/77 20/75
f 5/78 20/75 8/77
f 5/78 13/73 20/75
f 4/79 13/73 5/78
f 4/79 7/71 13/73
f 22/72 26/59 16/74
f 16/80 17/56 18/60
f 16/80 26/81 17/56
f 30/82 27/83 40/84
f 30/82 33/85 27/83
f 24/86 27/83 33/85
f 33/85 31/87 24/86
f 25/88 24/86 31/87
f 31/87 23/89 25/88
f 32/90 23/89 31/87
f 32/90 29/91 23/89
f 21/92 23/89 29/91
f 29/91 22/93 21/92
f 28/94 22/93 29/91
f 28/94 26/95 22/93
f 34/96 26/95 28/94
f 34/96 40/97 26/95
f 371/98 26/95 40/97
f 40/97 27/83 371/98
f 111/99 113/100 97/101
f 111/99 112/102 113/100
f 136/103 112/102 111/99
f 111/99 142/104 136/103
f 115/18 90/105 89/106
f 115/18 116/14 90/105
f 117/13 90/105 116/14
f 117/13 108/107 90/105
f 91/108 90/105 108/107
f 108/107 109/109 91/108
f 135/110 118/111 109/112
f 135/110 119/113 118/111
f 121/9 119/113 135/110
f 121/9 120/114 119/113
f 122/12 120/114 121/9
f 122/12 191/115 120/114
f 144/116 120/114 191/115
f 144/116 118/111 120/114
f 119/113 120/114 118/111
f 135/110 126/24 121/9
f 135/110 145/25 126/24
f 143/117 99/118 139/27
f 143/117 100/119 99/118
f 131/120 100/119 143/117
f 131/120 101/8 100/119
f 129/11 101/8 131/120
f 131/120 132/121 129/11
f 140/122 132/121 131/120
f 131/120 143/117 140/122
f 101/8 99/118 100/119
f 101/8 125/7 99/118
f 220/35 49/123 62/33
f 220/35 222/124 49/123
f 223/37 222/124 220/35
f 222/124 54/125 49/123
f 222/124 228/126 54/125
f 224/127 228/126 222/124
f 222/124 223/128 224/127
f 223/37 229/129 224/130
f 223/37 225/36 229/129
f 46/131 226/32 61/34
f 46/131 221/132 226/32
f 54/125 221/132 46/131
f 54/125 228/126 221/132
f 230/29 221/132 228/126
f 230/29 225/36 221/132
f 226/32 221/132 225/36
f 48/133 256/38 58/40
f 48/133 258/134 256/38
f 52/135 258/134 48/133
f 52/135 264/136 258/134
f 257/137 264/136 52/135
f 257/137 266/138 264/136
f 261/43 266/138 257/137
f 257/137 262/41 261/43
f 47/139 262/41 257/137
f 47/139 63/39 262/41
f 52/135 47/139 257/137
f 258/134 260/42 256/38
f 261/43 265/140 266/141
f 261/43 260/42 265/140
f 259/142 265/140 260/42
f 260/42 258/143 259/142
f 264/144 259/142 258/143
f 19/145 293/146 38/147
f 19/145 14/148 293/146
f 292/149 293/146 14/148
f 14/148 39/150 292/149
f 12/151 39/150 14/148
f 12/151 38/147 39/150
f 38/152 294/153 39/150
f 38/152 293/146 294/153
f 36/154 4/155 35/156
f 36/154 7/157 4/155
f 350/158 7/157 36/154
f 350/158 37/159 7/157
f 10/160 7/157 37/159
f 37/159 35/156 10/160
f 351/161 35/156 37/162
f 351/161 36/163 35/156
usemtl mat_1
f 59/164 48/164 58/164
f 59/164 44/164 48/164
f 56/164 44/164 59/164
f 56/164 43/164 44/164
f 50/164 43/164 56/164
f 50/164 29/164 43/164
f 28/164 29/164 50/164
f 50/164 53/164 28/164
f 49/164 53/164 50/164
f 50/164 60/164 49/164
f 56/164 60/164 50/164
f 60/164 62/164 49/164
f 44/164 51/164 48/164
f 44/164 33/164 51/164
f 31/164 33/164 44/164
f 44/164 43/164 31/164
f 32/164 31/164 43/164
f 43/164 29/164 32/164
f 57/164 46/164 61/164
f 57/164 45/164 46/164
f 53/164 46/164 45/164
f 45/164 28/164 53/164
f 34/164 28/164 45/164
f 47/164 55/164 63/164
f 47/164 41/164 55/164
f 51/164 41/164 47/164
f 51/164 33/164 41/164
f 30/164 41/164 33/164
f 41/165 42/166 55/167
f 41/165 30/168 42/166
f 40/169 42/166 30/168
f 40/169 34/170 42/166
f 45/171 42/166 34/170
f 45/171 57/172 42/166
f 64/173 42/166 57/172
f 64/173 55/167 42/166
usemtl mat_2
f 71/174 67/175 70/176
f 71/174 72/177 67/175
f 87/178 72/177 71/174
f 87/178 88/179 72/177
f 75/180 73/181 74/182
f 75/180 76/183 73/181
f 82/184 76/183 75/180
f 82/184 81/185 76/183
f 56/186 65/187 60/188
f 56/186 78/189 65/187
f 59/190 78/189 56/186
f 59/190 69/191 78/189
f 82/192 80/193 81/194
f 82/192 79/195 80/193
f 65/196 79/195 82/192
f 65/196 78/189 79/195
f 69/191 79/195 78/189
f 69/191 83/197 79/195
f 68/198 83/197 69/191
f 68/198 84/199 83/197
f 67/175 84/199 68/198
f 67/175 72/177 84/199
f 86/200 84/199 85/201
f 86/200 83/197 84/199
f 80/193 83/197 86/200
f 80/193 79/195 83/197
f 66/202 71/203 70/204
f 66/202 74/182 71/203
f 77/205 74/182 66/202
f 77/205 75/180 74/182
f 65/187 75/180 77/205
f 65/187 82/184 75/180
f 85/201 84/199 72/177
f 88/179 85/201 72/177
f 64/206 67/175 55/207
f 64/206 70/204 67/175
f 57/208 70/204 64/206
f 57/208 66/202 70/204
f 71/203 74/182 73/181
f 87/209 71/203 73/181
f 81/194 73/210 76/211
f 81/194 87/178 73/210
f 80/193 87/178 81/194
f 80/193 88/179 87/178
f 86/200 88/179 80/193
f 86/200 85/201 88/179
f 197/212 195/213 198/214
f 194/215 196/216 198/217
f 196/218 199/217 198/219
f 198/215 195/220 194/221
f 198/212 200/220 197/222
f 198/220 201/223 202/224
f 199/225 203/219 198/226
f 202/227 200/228 198/229
f 203/230 201/226 198/224
f 208/214 204/213 209/212
f 208/217 207/216 205/215
f 208/219 210/217 207/218
f 205/221 204/220 208/215
f 209/222 211/220 208/212
f 212/224 213/223 208/220
f 208/226 214/219 210/225
f 208/229 211/228 212/227
f 208/224 213/226 214/230
f 65/187 62/231 60/188
f 65/187 77/205 62/231
f 61/232 62/231 77/205
f 77/205 66/202 61/232
f 57/208 61/232 66/202
f 67/175 63/233 55/207
f 67/175 68/198 63/233
f 58/234 63/233 68/198
f 68/198 69/191 58/234
f 59/190 58/234 69/191
f 195/214 193/235 194/216
f 195/214 197/213 193/235
f 200/229 193/235 197/213
f 200/229 202/228 193/235
f 201/224 193/235 202/228
f 201/224 203/226 193/235
f 199/219 193/235 203/226
f 199/219 196/217 193/235
f 194/216 193/235 196/217
f 205/216 206/235 204/214
f 205/216 207/217 206/235
f 210/219 206/235 207/217
f 210/219 214/226 206/235
f 213/224 206/235 214/226
f 213/224 212/228 206/235
f 211/229 206/235 212/228
f 211/229 209/213 206/235
f 204/214 206/235 209/213
usemtl mat_3
f 105/236 92/237 128/238
f 124/239 105/236 128/238
f 134/240 114/241 124/242
f 128/243 134/240 124/242
f 113/244 134/241 127/245
f 91/246 89/247 90/248
f 91/246 102/249 89/247
f 103/250 102/249 91/246
f 103/250 105/251 102/249
f 107/252 102/249 105/251
f 107/252 89/247 102/249
f 124/240 107/252 105/251
f 124/240 114/241 107/252
f 115/244 107/252 114/241
f 115/244 89/253 107/252
f 127/245 97/254 113/255
f 127/245 96/256 97/254
f 92/257 96/256 127/245
f 92/257 94/258 96/256
f 98/259 96/256 94/258
f 98/259 97/254 96/256
f 111/260 97/254 98/259
f 127/245 128/240 92/257
f 127/245 134/261 128/240
f 98/262 142/263 111/264
f 98/262 139/265 142/263
f 103/250 144/266 191/267
f 103/250 91/246 144/266
f 109/268 144/266 91/246
f 109/268 118/269 144/266
f 140/266 94/258 132/267
f 140/266 98/259 94/258
f 139/270 98/259 140/266
f 140/266 143/269 139/270
usemtl mat_4
f 137/271 117/272 136/273
f 137/271 138/274 117/272
f 187/275 138/274 137/271
f 187/275 145/276 138/274
f 142/277 137/271 136/273
f 142/277 141/278 137/271
f 139/279 141/278 142/277
f 139/279 99/280 141/278
f 187/275 141/278 99/280
f 187/275 137/271 141/278
f 138/274 108/281 117/272
f 138/274 110/282 108/281
f 145/276 110/282 138/274
f 145/276 135/283 110/282
f 109/284 110/282 135/283
f 109/284 108/281 110/282
usemtl mat_5
f 112/285 116/286 115/287
f 113/288 112/285 115/287
usemtl mat_6
f 216/289 189/290 190/291
f 216/289 217/292 189/290
f 218/293 217/292 216/289
f 218/293 219/294 217/292
f 217/292 188/295 189/290
f 217/292 215/296 188/295
f 219/294 215/296 217/292
f 219/294 218/293 215/296
f 216/289 215/296 218/293
f 216/289 188/295 215/296
f 190/291 188/295 216/289
usemtl mat_7
f 228/297 224/298 227/299
f 263/299 259/298 264/297
f 317/300 315/301 314/302
f 317/300 318/303 315/301
f 320/304 318/303 317/300
f 320/304 321/305 318/303
f 323/306 321/305 320/304
f 323/306 324/307 321/305
f 327/308 324/307 323/306
f 327/308 328/309 324/307
f 331/310 328/309 327/308
f 331/310 329/311 328/309
f 334/312 329/311 331/310
f 334/312 332/313 329/311
f 337/314 332/313 334/312
f 337/314 335/315 332/313
f 338/316 335/315 337/314
f 338/316 339/317 335/315
f 318/303 316/318 315/301
f 318/303 319/319 316/318
f 321/305 319/319 318/303
f 321/305 322/320 319/319
f 324/307 322/320 321/305
f 324/307 325/321 322/320
f 328/309 325/321 324/307
f 328/309 326/322 325/321
f 329/311 326/322 328/309
f 329/311 330/323 326/322
f 332/313 330/323 329/311
f 332/313 333/324 330/323
f 335/315 333/324 332/313
f 335/315 336/325 333/324
f 339/317 336/325 335/315
f 339/317 340/326 336/325
f 319/319 314/302 316/318
f 319/319 317/300 314/302
f 322/320 317/300 319/319
f 322/320 320/304 317/300
f 325/321 320/304 322/320
f 325/321 323/306 320/304
f 326/322 323/306 325/321
f 326/322 327/308 323/306
f 330/323 327/308 326/322
f 330/323 331/310 327/308
f 333/324 331/310 330/323
f 333/324 334/312 331/310
f 336/325 334/312 333/324
f 336/325 337/314 334/312
f 340/326 337/314 336/325
f 340/326 338/316 337/314
f 229/327 227/328 224/329
f 229/327 233/330 227/328
f 231/331 233/330 229/327
f 231/331 232/332 233/330
f 234/333 232/332 231/331
f 231/331 228/334 234/333
f 230/335 228/334 231/331
f 231/331 229/327 230/335
f 235/336 227/328 233/330
f 235/336 234/333 227/328
f 228/334 227/328 234/333
f 263/328 265/327 259/329
f 263/328 270/330 265/327
f 271/336 270/330 263/328
f 263/328 269/333 271/336
f 264/334 269/333 263/328
f 264/334 268/331 269/333
f 266/335 268/331 264/334
f 266/335 265/327 268/331
f 270/330 268/331 265/327
f 270/330 267/332 268/331
f 269/333 268/331 267/332
f 353/337 36/338 351/339
f 353/337 350/340 36/338
f 298/341 294/342 295/343
f 298/341 296/344 294/342
f 292/345 296/344 298/341
f 292/345 39/346 296/344
f 294/342 296/344 39/346
f 299/347 292/345 298/341
f 299/347 297/344 292/345
f 300/348 297/344 299/347
f 300/348 295/343 297/344
f 294/342 297/344 295/343
f 294/342 293/349 297/344
f 292/345 297/344 293/349
f 352/343 351/342 355/341
f 352/343 353/344 351/342
f 354/348 353/344 352/343
f 354/348 357/347 353/344
f 350/345 353/344 357/347
f 357/347 355/341 350/345
f 356/344 350/345 355/341
f 356/344 37/346 350/345
f 351/342 37/346 356/344
f 356/344 355/341 351/342
usemtl mat_8
f 301/350 300/351 302/352
f 306/353 309/354 308/355
f 307/356 306/353 308/355
f 365/354 363/353 362/356
f 366/355 365/354 362/356
f 302/351 312/357 301/350
f 236/358 248/359 246/358
f 236/358 238/360 248/359
f 237/361 238/360 236/358
f 237/361 242/362 238/360
f 243/363 242/362 237/361
f 243/363 241/364 242/362
f 250/365 241/364 243/363
f 250/365 251/366 241/364
f 243/363 251/366 250/365
f 243/363 237/361 251/366
f 239/367 251/366 237/361
f 239/367 248/359 251/366
f 249/368 248/359 239/367
f 249/368 235/369 248/359
f 234/370 235/369 249/368
f 249/368 232/371 234/370
f 239/367 232/371 249/368
f 239/367 240/372 232/371
f 237/361 240/372 239/367
f 237/361 236/358 240/372
f 244/373 240/372 236/358
f 244/373 232/371 240/372
f 233/374 232/371 244/373
f 244/373 235/369 233/374
f 245/375 235/369 244/373
f 245/375 246/376 235/369
f 255/377 246/376 245/375
f 255/377 247/378 246/376
f 254/379 247/378 255/377
f 254/379 245/375 247/378
f 253/380 245/375 254/379
f 253/380 255/377 245/375
f 254/379 255/377 253/380
f 248/359 235/369 246/376
f 244/373 247/378 245/375
f 244/373 236/358 247/378
f 246/376 247/378 236/358
f 241/364 238/360 242/362
f 241/364 252/381 238/360
f 251/366 252/381 241/364
f 251/366 248/359 252/381
f 238/360 252/381 248/359
f 285/359 274/358 283/358
f 285/359 272/360 274/358
f 288/381 272/360 285/359
f 288/381 279/364 272/360
f 286/366 279/364 288/381
f 286/366 287/365 279/364
f 277/363 287/365 286/366
f 277/363 279/364 287/365
f 278/362 279/364 277/363
f 278/362 272/360 279/364
f 273/361 272/360 278/362
f 273/361 274/358 272/360
f 275/372 274/358 273/361
f 275/372 280/373 274/358
f 270/371 280/373 275/372
f 270/371 271/374 280/373
f 269/369 280/373 271/374
f 269/369 281/375 280/373
f 283/376 281/375 269/369
f 283/376 289/377 281/375
f 282/378 289/377 283/376
f 282/378 290/379 289/377
f 281/375 290/379 282/378
f 281/375 291/380 290/379
f 289/377 291/380 281/375
f 289/377 290/379 291/380
f 285/359 286/366 288/381
f 285/359 276/367 286/366
f 284/368 276/367 285/359
f 284/368 270/371 276/367
f 267/370 270/371 284/368
f 284/368 269/369 267/370
f 285/359 269/369 284/368
f 285/359 283/376 269/369
f 275/372 276/367 270/371
f 275/372 273/361 276/367
f 286/366 276/367 273/361
f 273/361 277/363 286/366
f 278/362 277/363 273/361
f 282/378 280/373 281/375
f 282/378 274/358 280/373
f 283/376 274/358 282/378
f 301/351 295/382 300/357
f 301/351 313/383 295/382
f 308/383 295/382 313/383
f 308/383 304/384 295/382
f 309/354 304/384 308/383
f 309/354 310/385 304/384
f 306/353 310/385 309/354
f 306/353 305/386 310/385
f 307/353 305/386 306/353
f 307/353 302/387 305/386
f 312/388 302/387 307/353
f 299/389 302/387 300/357
f 299/389 298/390 302/387
f 303/391 302/387 298/390
f 303/391 305/386 302/387
f 311/392 305/386 303/391
f 311/392 310/385 305/386
f 304/384 310/385 311/392
f 311/392 303/391 304/384
f 295/382 304/384 303/391
f 303/391 298/390 295/382
f 359/350 358/351 354/352
f 359/350 370/357 358/351
f 352/382 359/351 354/357
f 352/382 369/383 359/351
f 366/383 369/383 352/382
f 352/382 361/384 366/383
f 360/391 361/384 352/382
f 360/391 368/392 361/384
f 364/386 368/392 360/391
f 364/386 367/385 368/392
f 363/353 367/385 364/386
f 363/353 365/354 367/385
f 361/384 367/385 365/354
f 361/384 368/392 367/385
f 361/384 365/354 366/383
f 364/386 362/353 363/353
f 364/386 358/387 362/353
f 360/391 358/387 364/386
f 360/391 355/390 358/387
f 352/382 355/390 360/391
f 358/387 370/388 362/353
f 357/389 358/387 355/390
f 357/389 354/357 358/387
usemtl mat_9
f 340/393 341/394 338/395
f 340/393 342/396 341/394
f 343/397 342/396 340/393
f 343/397 345/398 342/396
f 346/399 345/398 343/397
f 346/399 349/400 345/398
f 348/401 349/400 346/399
f 348/401 347/402 349/400
f 344/403 347/402 348/401
f 344/403 341/404 347/402
f 338/405 341/404 344/403
f 344/403 339/406 338/405
f 343/397 339/406 344/403
f 343/397 340/393 339/406
f 345/398 341/394 342/396
f 345/398 347/407 341/394
f 349/400 347/407 345/398
f 344/403 346/399 343/397
f 344/403 348/401 346/399
usemtl mat_10
f 312/408 313/409 301/410
f 313/411 312/412 307/413
f 308/414 313/411 307/413
f 370/415 369/416 366/417
f 362/418 370/415 366/417
f 359/419 369/420 370/421
