# Blender v2.66 (sub 1) OBJ File: 'BR_Teddiursa-Shiny01.blend'
# www.blender.org
mtllib BR_Teddiursa-Shiny01.mtl
o himeguma_c
v -0.745899 -0.600396 -1.849060
v -0.738899 -0.685254 -1.547350
v -1.125120 -0.325624 -1.620520
v 0.000300 -0.822673 -1.813970
v 0.000276 -0.900114 -1.492050
v -0.768829 -0.726591 -1.017980
v 0.000221 -0.884807 -0.957958
v 0.000128 -0.599650 -0.533705
v -0.586034 -0.645059 -0.651148
v -0.334527 0.125056 -0.343198
v -0.558575 -0.225279 -0.368872
v 0.000034 -0.278437 -0.392447
v -0.792100 -0.335057 -0.517591
v -1.174370 -0.296625 -0.865036
v 0.155457 0.672801 -0.433637
v 0.262177 0.986535 -0.751595
v -0.262177 0.986535 -0.751595
v 1.174370 -0.296624 -0.865036
v 0.792100 -0.335057 -0.517591
v 0.586431 -0.644868 -0.651080
v -1.248710 0.013835 -1.252380
v -1.113350 0.378795 -1.509990
v -1.208880 0.044706 -1.561450
v -0.000267 1.249880 -1.430910
v -0.421303 1.066760 -1.488180
v -0.520405 1.037810 -1.172370
v -1.093660 -0.283969 -1.820730
v -1.190490 -0.316622 -1.331030
v -0.000169 1.194410 -1.074370
v -0.833311 0.872452 -1.364430
v 0.334527 0.125056 -0.343198
v -0.155457 0.672801 -0.433637
v 0.558575 -0.225278 -0.368872
v -1.074570 0.431584 -1.661270
v -1.180800 0.091299 -1.735420
v -0.807676 0.848065 -1.539220
v 0.520405 1.037810 -1.172370
v 1.125580 -0.325144 -1.620350
v 0.739402 -0.684943 -1.547240
v 0.746488 -0.600105 -1.848960
v 0.769229 -0.726280 -1.017870
v 1.202810 0.045217 -1.561270
v 1.113350 0.378795 -1.509990
v 1.248710 0.013836 -1.252380
v 1.087650 -0.283531 -1.820570
v 1.188370 -0.316133 -1.330860
v 0.420799 1.066950 -1.488120
v 0.833311 0.872452 -1.364430
v 1.074460 0.432035 -1.661110
v 1.174590 0.091787 -1.735250
v 0.763727 0.848103 -1.541110
v -0.882597 -0.109699 -2.490200
v 0.000000 -0.647554 -2.299890
v -0.682880 0.799378 -2.229900
v 0.600336 -0.476561 -2.348650
v 0.611197 0.799090 -2.230880
v 0.000000 1.080690 -2.173600
v -1.032370 0.137637 -2.114610
v 0.773025 0.428797 -2.565860
v 0.731312 0.160770 -2.639790
v 1.028370 0.177512 -2.094740
v 0.878597 -0.116426 -2.435100
v -0.648336 -0.476561 -2.348650
v -0.735312 0.191693 -2.657230
v -0.777025 0.447874 -2.549180
v 0.867922 0.486050 -2.349480
v -0.871922 0.476593 -2.327200
v 0.315210 -0.473386 -2.556620
v 0.672646 0.141346 -2.557740
v 0.000000 0.141612 -2.425250
v 0.576390 -0.939742 -2.843450
v 1.252700 0.140771 -2.845510
v 0.696505 -1.256180 -3.291870
v 1.579520 0.139873 -3.294520
v 0.739892 -1.383510 -3.740930
v 1.705780 0.139663 -3.743870
v 0.684812 -1.290730 -4.281970
v 1.560450 0.138315 -4.261210
v 0.841735 1.024840 -4.764350
v 1.141340 1.264580 -4.287470
v 0.536867 -0.988451 -4.759630
v 0.968745 -0.219421 -4.746200
v 0.968745 -0.219421 -4.746200
v 0.000000 0.136100 -5.180660
v 0.660153 0.136286 -5.087470
v 0.660153 0.136286 -5.087470
v -0.001914 -0.475156 -5.103040
v -0.636779 -0.927278 -2.843480
v -0.865010 -1.219160 -3.291940
v -0.965498 -1.346180 -3.741000
v -0.850071 -1.253060 -4.282040
v -0.625735 -0.992336 -4.759620
v -0.936246 -0.120311 -4.794060
v -0.936246 -0.120311 -4.794060
v -0.617821 0.136304 -5.078970
v -0.617821 0.136304 -5.078970
v -0.672646 0.141346 -2.557740
v -0.366420 -0.466740 -2.556630
v -1.252700 0.140771 -2.845510
v -1.579520 0.139873 -3.294520
v -1.705780 0.139663 -3.743870
v -1.525820 0.138291 -4.273210
v -1.398170 0.137465 -4.498480
v -1.398170 0.137465 -4.498480
v -1.141340 1.264580 -4.287470
v -0.494421 0.607879 -2.558680
v -0.920779 1.032060 -2.847290
v -1.161010 1.281950 -3.296800
v -1.253810 1.358770 -3.746310
v -0.988194 0.358848 -4.795020
v -0.988194 0.358848 -4.795020
v -0.841735 1.024820 -4.772350
v -0.423656 0.602786 -5.105090
v 0.000000 0.801124 -2.559060
v 0.000000 1.401240 -2.848030
v 0.000000 1.755020 -3.297750
v 0.000000 1.863740 -3.747320
v -0.650728 1.612050 -3.500140
v 0.000000 1.731110 -4.288400
v -0.665398 1.599260 -4.023460
v 0.000000 1.392620 -4.765090
v 0.000000 0.796030 -5.105480
v 0.494421 0.607879 -2.558680
v 0.920780 1.032060 -2.847290
v 1.161010 1.281950 -3.296800
v 1.253810 1.358770 -3.746310
v 0.650728 1.612050 -3.500140
v 0.665398 1.599260 -4.023460
v 0.423656 0.602786 -5.105090
v 0.993671 0.332094 -4.780860
v 0.993671 0.332094 -4.780860
v 1.421230 0.137562 -4.449440
v 1.421230 0.137562 -4.449440
v -0.127983 1.826090 -3.719820
v -0.002893 1.938210 -3.765350
v -0.090193 1.937380 -3.893920
v 0.090193 1.937380 -3.893920
v 0.127983 1.826090 -3.719820
v 0.240943 1.761020 -3.828740
v 0.132382 1.788620 -3.950200
v -0.132382 1.788620 -3.950200
v -0.240943 1.761020 -3.828740
v -0.705776 -0.123536 -5.686110
v -0.536608 0.334627 -5.363990
v -1.694160 -0.015816 -4.488250
v -0.669663 0.335396 -5.725800
v -1.345800 -0.355209 -5.151400
v -2.029290 -0.106757 -5.457670
v -1.367530 -0.293340 -5.568680
v -1.392730 0.316427 -5.891060
v -1.222230 0.497653 -5.685990
v -1.407740 -0.095076 -5.858270
v -1.738500 0.082256 -5.761880
v -2.172540 -0.073706 -5.035180
v -2.136230 0.288548 -5.049330
v -1.938890 0.321831 -5.473490
v -1.519980 -0.249777 -4.768690
v -1.700180 0.255586 -4.470820
v -2.050810 0.160675 -4.627540
v -1.568550 0.503508 -5.434280
v -0.974899 0.118614 -5.911420
v -1.051730 0.572410 -5.393040
v 0.536608 0.334627 -5.363990
v 0.705776 -0.123536 -5.686110
v 1.694160 -0.015816 -4.488250
v 0.669663 0.335396 -5.725800
v 1.367530 -0.293340 -5.568680
v 2.029290 -0.106757 -5.457670
v 1.345800 -0.355209 -5.151400
v 1.222230 0.497653 -5.685990
v 1.392730 0.316427 -5.891060
v 1.738500 0.082256 -5.761880
v 1.407740 -0.095076 -5.858270
v 2.172540 -0.073706 -5.035180
v 1.938890 0.321831 -5.473490
v 2.136230 0.288548 -5.049330
v 1.519980 -0.249777 -4.768690
v 2.050810 0.160675 -4.627540
v 1.700180 0.255586 -4.470820
v 1.568550 0.503508 -5.434280
v 0.974899 0.118614 -5.911420
v 1.051730 0.572410 -5.393040
v -0.991534 0.217034 -2.698580
v -1.072500 -0.157671 -2.491250
v -1.338220 -0.096947 -2.632860
v -1.180960 0.131700 -2.099640
v -1.329540 0.125764 -2.084680
v -1.337250 -0.221626 -2.407700
v -1.343910 0.246195 -2.709850
v -1.338880 0.535751 -2.494470
v -1.336340 0.563712 -2.238630
v -1.935070 0.365442 -2.085410
v -1.934110 0.123263 -2.047330
v -1.607650 0.125604 -2.062460
v -1.620810 0.250646 -2.721430
v -1.945820 0.258430 -2.710280
v -1.943950 0.466516 -2.581310
v -1.613380 -0.262330 -2.404400
v -1.955710 -0.278118 -2.402030
v -1.953410 -0.151003 -2.573120
v -1.613420 -0.135629 -2.624440
v -1.934110 -0.084487 -2.184120
v -1.942990 0.016586 -2.680030
v -1.619550 0.568121 -2.481000
v -1.954960 0.576997 -2.413390
v -1.955510 0.625535 -2.207000
v -1.617910 0.599813 -2.229130
v -2.237750 0.242542 -2.624680
v -2.343060 0.208668 -2.455160
v -2.235760 0.467225 -2.399970
v -2.378290 0.174545 -2.296840
v -2.236140 0.494997 -2.230400
v -2.228870 0.137124 -2.105180
v -2.237120 -0.055895 -2.511790
v -2.238890 -0.154212 -2.367550
v -2.256310 0.122486 -2.261670
v -2.256310 0.122486 -2.261670
v -2.413800 -0.098625 -2.207060
v -2.413800 -0.098625 -2.207060
v -2.095910 -0.172080 -2.293030
v -2.095910 -0.172080 -2.293030
v -2.176450 -0.046557 -2.430750
v -2.229720 0.358767 -2.246460
v -2.229720 0.358767 -2.246460
v -2.515940 0.243970 -2.181980
v -2.515940 0.243970 -2.181980
v -2.252700 0.056077 -2.270690
v -2.252700 0.056077 -2.270690
v -2.282630 0.212710 -2.419230
v -2.063290 0.555213 -2.206480
v -2.063290 0.555213 -2.206480
v -2.347190 0.563722 -2.191640
v -2.347190 0.563722 -2.191640
v -2.260490 0.331638 -2.235610
v -2.260490 0.331638 -2.235610
v -2.166430 0.471861 -2.418920
v 1.334220 -0.122275 -2.578220
v 1.040500 -0.157870 -2.470930
v 0.995536 0.180906 -2.692080
v 1.176960 0.173567 -2.079140
v 1.339910 0.210047 -2.699180
v 1.334880 0.523026 -2.523020
v 1.325540 0.169621 -2.063530
v 1.332350 0.583917 -2.272960
v 1.333250 -0.216713 -2.338790
v 1.598370 0.170284 -2.046620
v 1.930110 0.171611 -2.022180
v 1.931070 0.406810 -2.091330
v 1.939950 0.443113 -2.600140
v 1.941830 0.219696 -2.697060
v 1.611530 0.212956 -2.711220
v 1.609380 -0.154522 -2.562960
v 1.949410 -0.167398 -2.527940
v 1.951710 -0.272365 -2.321850
v 1.609340 -0.251630 -2.323070
v 1.930110 -0.052120 -2.130890
v 1.938990 -0.015817 -2.639690
v 1.608620 0.621118 -2.254920
v 1.951510 0.648946 -2.245620
v 1.950960 0.575166 -2.463940
v 1.610270 0.557042 -2.505840
v 2.233750 0.215039 -2.610120
v 2.231760 0.466958 -2.416430
v 2.339060 0.203427 -2.437640
v 2.374290 0.190115 -2.276230
v 2.224870 0.177856 -2.081340
v 2.232140 0.516477 -2.251890
v 2.233120 -0.066245 -2.459490
v 2.234890 -0.145034 -2.303730
v 2.095910 -0.172080 -2.293030
v 2.095910 -0.172080 -2.293030
v 2.413800 -0.098625 -2.207060
v 2.413800 -0.098625 -2.207060
v 2.256310 0.122486 -2.261670
v 2.256310 0.122486 -2.261670
v 2.176450 -0.046558 -2.430750
v 2.252700 0.056077 -2.270690
v 2.252700 0.056077 -2.270690
v 2.515940 0.243970 -2.181980
v 2.515940 0.243970 -2.181980
v 2.229720 0.358767 -2.246460
v 2.229720 0.358767 -2.246460
v 2.282630 0.212710 -2.419240
v 2.260490 0.331638 -2.235610
v 2.260490 0.331638 -2.235610
v 2.347190 0.563723 -2.191640
v 2.347190 0.563723 -2.191640
v 2.063290 0.555213 -2.206480
v 2.063290 0.555213 -2.206480
v 2.166430 0.471861 -2.418920
v -0.006335 -1.877570 -1.105320
v 0.003250 -1.501770 -0.458276
v -0.652729 -1.531190 -0.910380
v 0.005930 -0.950541 -0.497924
v -0.650087 -0.979960 -0.950015
v -0.001466 -0.661754 -1.191680
v 0.656256 -1.535570 -0.898215
v 0.658898 -0.984338 -0.937851
v 0.417974 -1.593250 -1.723800
v 0.420654 -1.042030 -1.763450
v 0.677600 -1.295850 -1.421570
v -0.442290 -1.589120 -1.714060
v -0.439610 -1.037890 -1.753710
v -0.010818 -1.324780 -1.866420
v -0.676594 -1.284060 -1.332010
v 1.126190 0.587148 -1.233870
v 1.214180 0.224041 -0.582262
v 1.053110 -0.119364 -0.517392
v 1.243750 -0.021645 -0.845838
v 0.491461 0.719740 -0.427810
v 0.503084 0.044928 -0.297565
v 0.752837 -0.185355 -0.377884
v 1.132930 0.736501 -0.755951
v 1.127310 0.716943 -1.003860
v 0.861391 0.901307 -0.938303
v 1.250000 0.310648 -0.898368
v 0.849130 0.790497 -0.413680
v 0.879017 0.848586 -0.538603
v 0.456268 0.401172 -0.270853
v 1.122730 0.665517 -0.505874
v 0.652333 0.921526 -0.715946
v 0.661164 0.083001 -0.249550
v 1.001670 0.583418 -0.339894
v 0.930051 0.017526 -0.341239
v 1.083430 0.236494 -0.387817
v 0.726917 0.524107 -0.241936
v 0.857571 0.262886 -0.224533
v 0.364659 0.003363 -0.285766
v 0.311930 0.607620 -0.224635
v 0.767947 0.606657 -0.471259
v 1.142620 -0.015239 -0.266455
v 0.762225 0.016126 -0.468044
v 0.750324 -0.382116 -0.344968
v 1.232910 -0.029006 -0.122864
v 0.739929 -0.496410 -0.101062
v 1.025850 0.546178 0.054639
v 0.268011 -0.007849 -0.150244
v 0.200597 0.597675 -0.065442
v 0.200597 0.597675 -0.065442
v 0.473172 0.559959 0.041699
v 1.206180 0.585321 -0.203698
v 1.309720 0.572387 -0.035237
v 0.427385 0.960973 -0.234626
v 0.767303 1.090470 -0.227199
v 0.772222 0.948760 -0.395690
v 0.763788 1.142480 -0.063579
v 0.754146 0.959304 0.042909
v 0.342845 0.970193 -0.074714
v 1.108860 0.948199 -0.208104
v 1.188100 0.955786 -0.039861
v 1.170050 0.802102 -0.050781
v 1.170050 0.802102 -0.050781
v 1.117190 1.281380 -0.027435
v 1.117190 1.281380 -0.027435
v 0.734291 0.944147 -0.050781
v 0.734291 0.944147 -0.050781
v 0.954619 0.865778 -0.253906
v 0.812630 0.944147 -0.066406
v 0.812630 0.944147 -0.066406
v 0.394532 1.328740 -0.018821
v 0.394532 1.328740 -0.018821
v 0.371973 0.782510 -0.070313
v 0.371973 0.782510 -0.070313
v 0.592301 0.860880 -0.246094
v -1.130090 0.587148 -1.233870
v -1.243750 -0.021645 -0.845838
v -1.053110 -0.119364 -0.517392
v -1.214180 0.224041 -0.582262
v -0.491461 0.719740 -0.427810
v -0.503084 0.044928 -0.297565
v -0.752838 -0.185355 -0.377885
v -0.861391 0.901307 -0.938303
v -1.127310 0.716943 -1.003860
v -1.132930 0.736501 -0.755951
v -1.250000 0.310648 -0.893158
v -0.879017 0.848586 -0.538604
v -0.849130 0.790497 -0.413680
v -0.456268 0.401172 -0.270853
v -1.122730 0.665517 -0.505874
v -0.652333 0.921526 -0.715947
v -0.661163 0.090910 -0.248355
v -0.930050 0.023458 -0.340342
v -1.001670 0.591328 -0.338699
v -1.083420 0.244404 -0.386622
v -0.726916 0.527907 -0.228422
v -0.830808 0.303937 -0.228839
v -0.773562 0.612413 -0.475872
v -0.324214 0.616446 -0.217326
v -0.364655 0.012663 -0.291188
v -0.757500 0.022115 -0.483620
v -1.142400 -0.019652 -0.292765
v -0.735728 -0.496943 -0.125887
v -0.741781 -0.378164 -0.367790
v -1.043970 0.537392 0.041807
v -1.236150 -0.037731 -0.151890
v -0.271388 0.000501 -0.153397
v -0.216908 0.605346 -0.055466
v -0.491474 0.560901 0.043717
v -1.218130 0.576963 -0.215170
v -1.325820 0.560455 -0.055019
v -0.786908 0.954056 -0.393809
v -0.788922 1.092540 -0.222595
v -0.446410 0.969846 -0.224056
v -0.790433 1.141420 -0.057983
v -0.365994 0.977602 -0.061954
v -0.779741 0.956432 0.045225
v -1.127940 0.943304 -0.214658
v -1.211390 0.946080 -0.048314
v -0.356659 0.804680 -0.054687
v -0.356659 0.804680 -0.054687
v -0.375001 1.266110 -0.026543
v -0.375001 1.266110 -0.026543
v -0.793091 0.946434 -0.046875
v -0.793091 0.946434 -0.046875
v -0.503795 0.855469 -0.260719
v -0.784054 0.949045 -0.042969
v -0.784054 0.949045 -0.042969
v -1.167180 1.246950 -0.019531
v -1.167180 1.246950 -0.019531
v -1.201180 0.742309 -0.035156
v -1.201180 0.742309 -0.035156
v -0.993465 0.851563 -0.280158
v -0.623260 -0.092164 -2.728380
v -0.413824 -0.396514 -2.710880
v 0.000000 -0.503925 -2.673790
v 0.365825 -0.396514 -2.710880
v 0.000000 0.665116 -2.581530
v -0.415988 0.484583 -2.634380
v 0.367988 0.484583 -2.634380
v 0.574457 0.243124 -2.684750
v 0.575260 -0.092164 -2.728380
v -0.622457 0.243124 -2.684750
vt 0.111338 0.411774
vt 0.111794 0.440451
vt 0.179361 0.449054
vt 0.179369 0.412172
vt 0.111486 0.413678
vt 0.111377 0.379084
vt 0.178469 0.382793
vt 0.178143 0.425010
vt 0.887412 0.432879
vt 0.887868 0.398335
vt 0.819828 0.398539
vt 0.819836 0.438749
vt 0.887829 0.385557
vt 0.887720 0.422151
vt 0.820012 0.429175
vt 0.819686 0.387116
vt 0.566481 0.066683
vt 0.599979 0.059035
vt 0.590675 0.054557
vt 0.530894 0.081842
vt 0.162119 0.758534
vt 0.222138 0.763170
vt 0.303614 0.812875
vt 0.163315 0.761456
vt 0.092437 0.784803
vt 0.068245 0.853129
vt 0.075462 0.855501
vt 0.096713 0.923945
vt 0.114680 0.926596
vt 0.154504 0.974934
vt 0.223219 0.996588
vt 0.220236 0.991091
vt 0.306256 1.000000
vt 0.359739 0.962235
vt 0.366916 0.968887
vt 0.393358 0.908243
vt 0.290987 0.913112
vt 0.377219 0.860469
vt 0.313937 0.812714
vt 0.232545 0.872609
vt 0.197930 0.808462
vt 0.228226 0.942552
vt 0.257103 0.962214
vt 0.188278 0.920024
vt 0.782444 0.754950
vt 0.837881 0.758534
vt 0.697475 0.810501
vt 0.836685 0.761456
vt 0.692521 0.804692
vt 0.802070 0.808462
vt 0.767455 0.872609
vt 0.931755 0.853129
vt 0.903287 0.923945
vt 0.924538 0.855500
vt 0.885320 0.926596
vt 0.845496 0.974934
vt 0.779764 0.991091
vt 0.776781 0.996588
vt 0.693744 1.000000
vt 0.633084 0.968887
vt 0.640261 0.962235
vt 0.606642 0.908243
vt 0.631194 0.861894
vt 0.709013 0.913112
vt 0.742897 0.962214
vt 0.811722 0.920024
vt 0.771774 0.942552
vt 0.907563 0.784803
vt 0.594035 0.002169
vt 0.539865 0.020127
vt 0.553263 0.034341
vt 0.568134 0.021681
vt 0.649873 0.001966
vt 0.651790 0.019815
vt 0.736114 0.015840
vt 0.652488 0.047240
vt 0.720366 0.044039
vt 0.653466 0.075482
vt 0.652616 0.088148
vt 0.584935 0.048485
vt 0.561991 0.046810
vt 0.572470 0.057057
vt 0.651479 0.087609
vt 0.727075 0.053820
vt 0.649114 0.066980
vt 0.745020 0.029752
vt 0.647048 0.026098
vt 0.703870 0.000000
vt 0.760285 0.015064
vt 0.739708 0.043301
vt 0.469106 0.081842
vt 0.433519 0.066683
vt 0.400021 0.059035
vt 0.388993 0.070987
vt 0.350387 0.072497
vt 0.342584 0.095914
vt 0.290712 0.095881
vt 0.266614 0.154151
vt 0.252827 0.150933
vt 0.251840 0.219076
vt 0.251584 0.158865
vt 0.275967 0.177420
vt 0.274851 0.135867
vt 0.328813 0.166432
vt 0.325311 0.099436
vt 0.370360 0.129162
vt 0.402331 0.080866
vt 0.447897 0.135137
vt 0.552103 0.135137
vt 0.499966 0.189238
vt 0.603421 0.205664
vt 0.499947 0.249000
vt 0.583626 0.258589
vt 0.500000 0.373486
vt 0.621465 0.383088
vt 0.500000 0.441861
vt 0.573131 0.450720
vt 0.672484 0.402966
vt 0.713530 0.287585
vt 0.704371 0.360268
vt 0.733429 0.300011
vt 0.716152 0.314313
vt 0.739038 0.270851
vt 0.723689 0.280752
vt 0.736168 0.232230
vt 0.646943 0.268498
vt 0.652871 0.179768
vt 0.500055 0.259248
vt 0.500044 0.169726
vt 0.347209 0.179787
vt 0.383536 0.118300
vt 0.500025 0.098615
vt 0.500007 0.074938
vt 0.611007 0.070987
vt 0.649613 0.072497
vt 0.657416 0.095914
vt 0.709288 0.095881
vt 0.733386 0.154151
vt 0.747173 0.150933
vt 0.748160 0.219076
vt 0.748416 0.159738
vt 0.724033 0.177420
vt 0.725149 0.135867
vt 0.671187 0.166432
vt 0.674689 0.099436
vt 0.629640 0.129161
vt 0.597669 0.080865
vt 0.644462 0.049710
vt 0.631395 0.050987
vt 0.670427 0.046793
vt 0.684832 0.066355
vt 0.715312 0.074162
vt 0.741297 0.106754
vt 0.723124 0.093950
vt 0.668750 0.078497
vt 0.699065 0.066130
vt 0.616543 0.118289
vt 0.721258 0.262255
vt 0.665606 0.237858
vt 0.723810 0.215973
vt 0.651778 0.267471
vt 0.417330 0.450720
vt 0.364289 0.382923
vt 0.345580 0.436439
vt 0.326721 0.399232
vt 0.234425 0.384387
vt 0.265305 0.361090
vt 0.235777 0.358581
vt 0.234245 0.412724
vt 0.234051 0.450464
vt 0.177892 0.465310
vt 0.113865 0.458371
vt 0.113302 0.463441
vt 0.055286 0.449094
vt 0.113674 0.441824
vt 0.055682 0.411428
vt 0.055606 0.383006
vt 0.027356 0.394143
vt 0.057051 0.362018
vt 0.055060 0.405995
vt 0.115630 0.375250
vt 0.180507 0.354857
vt 0.115628 0.352321
vt 0.115439 0.358704
vt 0.233922 0.427268
vt 0.302950 0.461480
vt 0.353870 0.454549
vt 0.324599 0.426552
vt 0.376138 0.466476
vt 0.417760 0.463542
vt 0.371155 0.402828
vt 0.282655 0.314339
vt 0.351766 0.319088
vt 0.276402 0.280781
vt 0.353157 0.268516
vt 0.263410 0.232259
vt 0.259757 0.270881
vt 0.278742 0.262255
vt 0.265337 0.300040
vt 0.286447 0.287612
vt 0.294834 0.363599
vt 0.286859 0.426728
vt 0.500060 0.313207
vt 0.500000 0.394653
vt 0.500000 0.457326
vt 0.648352 0.319071
vt 0.619306 0.402828
vt 0.572701 0.463542
vt 0.674606 0.417317
vt 0.706782 0.423323
vt 0.645336 0.451626
vt 0.697845 0.460391
vt 0.653625 0.439235
vt 0.765284 0.432053
vt 0.764781 0.390141
vt 0.733900 0.357653
vt 0.763429 0.355037
vt 0.764960 0.401175
vt 0.765154 0.441306
vt 0.820263 0.463600
vt 0.885341 0.451610
vt 0.885904 0.461225
vt 0.943919 0.446654
vt 0.885531 0.444980
vt 0.943523 0.414188
vt 0.943599 0.386609
vt 0.971849 0.390689
vt 0.942155 0.358021
vt 0.944145 0.395298
vt 0.883576 0.366327
vt 0.817648 0.352202
vt 0.883577 0.348106
vt 0.883766 0.359697
vt 0.766283 0.461580
vt 0.614163 0.459162
vt 0.614323 0.466476
vt 0.339489 0.267154
vt 0.334394 0.237858
vt 0.416273 0.258600
vt 0.396579 0.205664
vt 0.275414 0.215973
vt 0.232922 0.463369
vt 0.376298 0.459162
vt 0.055412 0.430171
vt 0.034357 0.420680
vt 0.943794 0.421406
vt 0.964848 0.417743
vt 0.258703 0.106754
vt 0.284688 0.073962
vt 0.315169 0.066205
vt 0.334891 0.047515
vt 0.368605 0.050786
vt 0.355538 0.047445
vt 0.409325 0.054557
vt 0.276876 0.093950
vt 0.331250 0.078497
vt 0.300935 0.065929
vt 0.633677 0.437874
vt 0.614547 0.485763
vt 0.748951 0.486108
vt 0.562643 0.437685
vt 0.500000 0.415665
vt 0.427180 0.437688
vt 0.366323 0.437874
vt 0.251049 0.486108
vt 0.373451 0.485768
vt 0.328094 0.560937
vt 0.186097 0.561368
vt 0.161007 0.636687
vt 0.308124 0.636206
vt 0.638418 0.560924
vt 0.647041 0.636193
vt 0.813903 0.561368
vt 0.838993 0.636687
vt 0.636094 0.726880
vt 0.331063 0.726893
vt 0.375646 0.806941
vt 0.499620 0.864504
vt 0.500000 0.877514
vt 0.606693 0.806943
vt 0.196770 0.725412
vt 0.810113 0.723401
vt 0.401743 0.438030
vt 0.500000 0.438095
vt 0.598257 0.438030
vt 0.353787 0.030259
vt 0.427531 0.057966
vt 0.446066 0.034870
vt 0.352584 0.070805
vt 0.272967 0.058230
vt 0.349460 0.090220
vt 0.346268 0.088921
vt 0.435568 0.045585
vt 0.456893 0.018455
vt 0.402328 0.001831
vt 0.427265 0.019543
vt 0.345040 0.001578
vt 0.342915 0.018877
vt 0.259257 0.017256
vt 0.275842 0.045138
vt 0.236515 0.018380
vt 0.257917 0.045224
vt 0.254337 0.034617
vt 0.343616 0.075167
vt 0.411284 0.046713
vt 0.343216 0.046468
vt 0.292529 0.002151
vt 0.500646 0.085972
vt 0.370281 0.161751
vt 0.498741 0.194427
vt 0.370806 0.168395
vt 0.501179 0.092618
vt 0.499709 0.208902
vt 0.630944 0.166356
vt 0.583598 0.304739
vt 0.634661 0.247434
vt 0.583065 0.298093
vt 0.630419 0.159712
vt 0.412103 0.296460
vt 0.497850 0.321998
vt 0.412635 0.303105
vt 0.365539 0.232424
vt -0.008929 0.884821
vt -0.009388 0.820333
vt 0.638516 0.853433
vt 0.641263 0.853433
vt 1.201330 0.819887
vt 1.091810 0.886641
vt 1.446930 0.886194
vt 1.590440 0.820333
vt 0.642398 0.853369
vt 0.785783 0.949845
vt 1.366880 0.897340
vt 0.986001 0.950507
vt 0.715572 0.998900
vt 0.435356 1.001010
vt -0.004923 0.946274
vt -0.013393 1.000000
vt -0.009388 1.029830
vt -0.156223 0.817916
vt 1.004100 0.817916
vt 0.390851 0.851319
vt -0.052134 0.884633
vt -0.158226 0.817956
vt -0.636843 0.817916
vt -0.489640 0.884633
vt -0.409830 0.897474
vt 0.162627 0.948497
vt 0.995536 0.948661
vt 0.995536 0.997768
vt 0.455782 1.006860
vt -0.079369 0.948497
vt 0.109572 1.003640
vt 1.035350 1.023360
vt 1.004100 0.884633
vt 0.392310 0.851690
vt 0.297743 0.928898
vt 0.113839 0.977183
vt 0.137153 0.887346
vt 0.300009 0.929387
vt 0.500000 0.976841
vt 0.500000 0.885109
vt 0.196939 0.800998
vt -0.078371 0.807943
vt 0.281729 0.744597
vt 0.345659 0.744597
vt 0.500000 0.800998
vt 0.500000 0.744597
vt 0.833333 0.799383
vt 0.654341 0.744597
vt 1.062750 0.800998
vt 0.718271 0.744597
vt 0.881944 0.881173
vt 1.168800 0.885109
vt 1.209770 0.976841
vt 0.907022 0.976841
vt 0.697079 0.930440
vt 0.699653 0.930556
vt -0.184426 0.892054
vt 0.092978 0.976841
vt -0.225394 0.983786
vt 0.689000 0.657000
vt 0.786000 0.998000
vt 0.213942 0.997596
vt 0.311275 0.656596
vt 1.000000 0.484375
vt 0.791000 0.000000
vt 0.500000 0.173000
vt 0.209135 0.000000
vt 0.000000 0.484000
vt 0.397834 1.415150
vt 0.992148 0.971635
vt 0.832341 1.529390
vt 0.775921 -0.440990
vt 0.168627 0.266882
vt 1.226030 0.206066
vt 0.994257 0.969288
vt 0.486498 -0.446508
vt 1.350420 0.173974
vt 0.025156 0.984863
vt -0.341665 0.196524
vt 0.495116 -0.460989
vt 0.027166 0.956661
vt -0.342754 0.166249
vt 0.988379 0.964060
vt 1.335570 0.174552
usemtl mat_0
s 1
f 199/1 200/2 201/3
f 198/4 199/1 201/3
f 205/5 206/6 207/7
f 204/8 205/5 207/7
f 253/9 254/10 255/11
f 252/12 253/9 255/11
f 259/13 260/14 261/15
f 258/16 259/13 261/15
f 31/17 311/18 319/19
f 15/20 31/17 319/19
f 158/21 104/22 111/23
f 158/21 145/24 104/22
f 159/25 145/24 158/21
f 159/25 154/26 145/24
f 155/27 154/26 159/25
f 155/27 148/28 154/26
f 156/29 148/28 155/27
f 156/29 153/30 148/28
f 150/31 153/30 156/29
f 150/31 152/32 153/30
f 161/33 152/32 150/31
f 161/33 143/34 152/32
f 146/35 143/34 161/33
f 146/35 144/36 143/34
f 162/37 144/36 146/35
f 162/37 111/23 144/36
f 96/38 144/36 111/23
f 96/38 143/34 144/36
f 94/39 143/34 96/38
f 94/39 147/40 143/34
f 157/41 147/40 94/39
f 157/41 154/26 147/40
f 145/24 154/26 157/41
f 157/41 94/39 145/24
f 104/22 145/24 94/39
f 159/25 158/21 155/27
f 148/28 147/40 154/26
f 148/28 149/42 147/40
f 152/32 149/42 148/28
f 152/32 143/34 149/42
f 147/40 149/42 143/34
f 153/30 152/32 148/28
f 150/31 146/35 161/33
f 150/31 151/43 146/35
f 160/44 151/43 150/31
f 160/44 162/37 151/43
f 146/35 151/43 162/37
f 150/31 156/29 160/44
f 133/45 179/46 131/47
f 133/45 165/48 179/46
f 83/49 165/48 133/45
f 83/49 177/50 165/48
f 169/51 177/50 83/49
f 169/51 174/52 177/50
f 168/53 174/52 169/51
f 168/53 176/54 174/52
f 175/55 176/54 168/53
f 168/53 172/56 175/55
f 173/57 172/56 168/53
f 173/57 171/58 172/56
f 181/59 171/58 173/57
f 181/59 166/60 171/58
f 164/61 166/60 181/59
f 164/61 163/62 166/60
f 86/63 163/62 164/61
f 86/63 131/47 163/62
f 182/64 163/62 131/47
f 182/64 166/60 163/62
f 170/65 166/60 182/64
f 170/65 171/58 166/60
f 180/66 171/58 170/65
f 180/66 175/55 171/58
f 172/56 171/58 175/55
f 170/65 182/64 180/66
f 173/57 164/61 181/59
f 173/57 167/67 164/61
f 168/53 167/67 173/57
f 168/53 169/51 167/67
f 164/61 167/67 169/51
f 169/51 83/49 164/61
f 86/63 164/61 83/49
f 174/52 165/48 177/50
f 174/52 178/68 165/48
f 176/54 178/68 174/52
f 176/54 179/46 178/68
f 165/48 178/68 179/46
f 340/69 339/70 337/71
f 340/69 348/72 339/70
f 347/73 348/72 340/69
f 347/73 346/74 348/72
f 350/75 346/74 347/73
f 350/75 344/76 346/74
f 349/77 344/76 350/75
f 349/77 345/78 344/76
f 330/79 345/78 349/77
f 330/79 343/80 345/78
f 329/81 343/80 330/79
f 329/81 348/72 343/80
f 338/70 348/72 329/81
f 329/81 328/82 338/70
f 330/79 328/82 329/81
f 330/79 332/83 328/82
f 331/84 332/83 330/79
f 331/84 333/85 332/83
f 334/86 333/85 331/84
f 334/86 335/87 333/85
f 337/71 333/85 335/87
f 337/71 328/82 333/85
f 338/70 328/82 337/71
f 328/82 332/83 333/85
f 343/80 344/76 345/78
f 343/80 346/74 344/76
f 348/72 346/74 343/80
f 336/88 347/73 340/69
f 336/88 350/75 347/73
f 342/89 350/75 336/88
f 342/89 349/77 350/75
f 341/90 349/77 342/89
f 341/90 330/79 349/77
f 331/84 330/79 341/90
f 341/90 342/89 331/84
f 334/86 331/84 342/89
f 342/89 336/88 334/86
f 32/91 31/17 15/20
f 32/91 10/92 31/17
f 370/93 10/92 32/91
f 370/93 11/94 10/92
f 371/95 11/94 370/93
f 371/95 13/96 11/94
f 367/97 13/96 371/95
f 367/97 14/98 13/96
f 366/99 14/98 367/97
f 366/99 21/100 14/98
f 375/101 21/100 366/99
f 375/101 373/102 21/100
f 374/103 373/102 375/101
f 374/103 372/104 373/102
f 376/105 372/104 374/103
f 376/105 380/106 372/104
f 369/107 380/106 376/105
f 369/107 17/108 380/106
f 32/91 17/108 369/107
f 32/91 15/20 17/108
f 16/109 17/108 15/20
f 16/109 29/110 17/108
f 37/111 29/110 16/109
f 37/111 24/112 29/110
f 47/113 24/112 37/111
f 47/113 57/114 24/112
f 56/115 57/114 47/113
f 56/115 427/116 57/114
f 429/117 427/116 56/115
f 56/115 66/118 429/117
f 49/119 66/118 56/115
f 49/119 61/120 66/118
f 50/121 61/120 49/119
f 50/121 45/122 61/120
f 42/123 45/122 50/121
f 42/123 38/124 45/122
f 46/125 38/124 42/123
f 46/125 39/126 38/124
f 41/127 39/126 46/125
f 41/127 5/128 39/126
f 7/129 5/128 41/127
f 7/129 6/130 5/128
f 9/131 6/130 7/129
f 9/131 14/98 6/130
f 13/96 14/98 9/131
f 9/131 11/94 13/96
f 8/132 11/94 9/131
f 8/132 12/133 11/94
f 33/134 12/133 8/132
f 33/134 31/17 12/133
f 311/18 31/17 33/134
f 33/134 312/135 311/18
f 19/136 312/135 33/134
f 19/136 308/137 312/135
f 18/138 308/137 19/136
f 18/138 309/139 308/137
f 44/140 309/139 18/138
f 44/140 316/141 309/139
f 314/142 316/141 44/140
f 314/142 313/143 316/141
f 315/144 313/143 314/142
f 315/144 318/145 313/143
f 321/146 318/145 315/144
f 321/146 310/147 318/145
f 16/109 310/147 321/146
f 16/109 15/20 310/147
f 319/19 310/147 15/20
f 319/19 326/148 310/147
f 322/149 326/148 319/19
f 322/149 327/150 326/148
f 324/151 327/150 322/149
f 324/151 325/152 327/150
f 308/137 325/152 324/151
f 308/137 307/153 325/152
f 309/139 307/153 308/137
f 309/139 316/141 307/153
f 313/143 307/153 316/141
f 313/143 320/154 307/153
f 318/145 320/154 313/143
f 318/145 317/155 320/154
f 310/147 317/155 318/145
f 310/147 326/148 317/155
f 323/156 317/155 326/148
f 323/156 320/154 317/155
f 307/153 320/154 323/156
f 323/156 325/152 307/153
f 327/150 325/152 323/156
f 323/156 326/148 327/150
f 7/129 8/132 9/131
f 7/129 20/157 8/132
f 41/127 20/157 7/129
f 41/127 18/138 20/157
f 46/125 18/138 41/127
f 46/125 44/140 18/138
f 42/123 44/140 46/125
f 42/123 43/158 44/140
f 50/121 43/158 42/123
f 50/121 49/119 43/158
f 48/159 43/158 49/119
f 48/159 306/160 43/158
f 314/142 306/160 48/159
f 314/142 44/140 306/160
f 43/158 306/160 44/140
f 12/133 10/92 11/94
f 12/133 31/17 10/92
f 19/136 20/157 18/138
f 19/136 33/134 20/157
f 8/132 20/157 33/134
f 48/159 315/144 314/142
f 48/159 37/111 315/144
f 47/113 37/111 48/159
f 48/159 51/161 47/113
f 49/119 51/161 48/159
f 49/119 56/115 51/161
f 47/113 51/161 56/115
f 37/111 321/146 315/144
f 37/111 16/109 321/146
f 324/151 312/135 308/137
f 324/151 322/149 312/135
f 311/18 312/135 322/149
f 322/149 319/19 311/18
f 428/162 57/114 427/116
f 428/162 54/163 57/114
f 65/164 54/163 428/162
f 65/164 67/165 54/163
f 191/166 67/165 65/164
f 191/166 186/167 67/165
f 187/168 186/167 191/166
f 187/168 188/169 186/167
f 198/4 188/169 187/168
f 198/4 185/170 188/169
f 201/3 185/170 198/4
f 201/3 195/171 185/170
f 203/172 195/171 201/3
f 203/172 196/173 195/171
f 208/174 196/173 203/172
f 208/174 197/175 196/173
f 210/176 197/175 208/174
f 210/176 205/5 197/175
f 206/6 205/5 210/176
f 210/176 212/177 206/6
f 211/178 212/177 210/176
f 211/178 213/179 212/177
f 215/180 213/179 211/178
f 215/180 202/181 213/179
f 199/1 202/181 215/180
f 199/1 198/4 202/181
f 194/182 202/181 198/4
f 194/182 193/183 202/181
f 192/184 193/183 194/182
f 192/184 213/179 193/183
f 212/177 213/179 192/184
f 192/184 206/6 212/177
f 207/7 206/6 192/184
f 192/184 194/182 207/7
f 187/168 207/7 194/182
f 187/168 191/166 207/7
f 204/8 207/7 191/166
f 191/166 190/185 204/8
f 65/164 190/185 191/166
f 65/164 183/186 190/185
f 64/187 183/186 65/164
f 64/187 52/188 183/186
f 423/189 52/188 64/187
f 423/189 424/190 52/188
f 63/191 52/188 424/190
f 63/191 27/192 52/188
f 1/193 27/192 63/191
f 1/193 3/194 27/192
f 3/195 1/194 2/193
f 2/195 28/196 3/194
f 6/130 28/196 2/195
f 6/130 14/98 28/196
f 21/100 28/196 14/98
f 21/100 23/197 28/196
f 22/198 23/197 21/100
f 22/198 35/199 23/197
f 34/200 35/199 22/198
f 34/200 58/201 35/199
f 67/165 58/201 34/200
f 67/165 186/167 58/201
f 184/202 58/201 186/167
f 184/202 52/188 58/201
f 183/186 52/188 184/202
f 184/202 185/170 183/186
f 188/169 185/170 184/202
f 184/202 186/167 188/169
f 187/168 194/182 198/4
f 213/179 202/181 193/183
f 2/195 5/128 6/130
f 2/195 4/203 5/128
f 1/193 4/203 2/195
f 1/193 53/204 4/203
f 53/191 1/204 63/193
f 63/191 425/205 53/204
f 424/190 425/205 63/191
f 23/197 3/194 28/196
f 23/197 27/192 3/194
f 35/199 27/192 23/197
f 35/199 58/201 27/192
f 52/188 27/192 58/201
f 4/203 39/126 5/128
f 4/203 40/206 39/126
f 53/204 40/206 4/203
f 53/204 55/207 40/206
f 425/205 55/207 53/204
f 425/205 426/208 55/207
f 62/209 55/207 426/208
f 62/209 45/122 55/207
f 61/120 45/122 62/209
f 62/209 238/210 61/120
f 60/211 238/210 62/209
f 60/211 239/212 238/210
f 59/213 239/212 60/211
f 59/213 242/214 239/212
f 66/118 242/214 59/213
f 66/118 244/215 242/214
f 240/216 244/215 66/118
f 240/216 243/217 244/215
f 245/218 243/217 240/216
f 245/218 255/11 243/217
f 237/219 255/11 245/218
f 237/219 252/12 255/11
f 251/220 252/12 237/219
f 251/220 257/221 252/12
f 250/222 257/221 251/220
f 250/222 262/223 257/221
f 249/224 262/223 250/222
f 249/224 263/225 262/223
f 260/14 263/225 249/224
f 260/14 259/13 263/225
f 267/226 263/225 259/13
f 267/226 265/227 263/225
f 266/228 265/227 267/226
f 266/228 269/229 265/227
f 256/230 269/229 266/228
f 256/230 254/10 269/229
f 255/11 254/10 256/230
f 256/230 246/231 255/11
f 247/232 246/231 256/230
f 247/232 248/233 246/231
f 266/228 248/233 247/232
f 266/228 267/226 248/233
f 259/13 248/233 267/226
f 259/13 258/16 248/233
f 246/231 248/233 258/16
f 258/16 244/215 246/231
f 242/214 244/215 258/16
f 258/16 261/15 242/214
f 251/220 242/214 261/15
f 251/220 241/234 242/214
f 237/219 241/234 251/220
f 237/219 239/212 241/234
f 238/210 239/212 237/219
f 237/219 245/218 238/210
f 240/216 238/210 245/218
f 240/216 61/120 238/210
f 66/118 61/120 240/216
f 242/214 241/234 239/212
f 247/232 256/230 266/228
f 40/206 38/124 39/126
f 40/206 45/122 38/124
f 55/207 45/122 40/206
f 59/213 429/117 66/118
f 59/213 430/235 429/117
f 60/211 430/235 59/213
f 60/211 431/236 430/235
f 62/209 431/236 60/211
f 62/209 426/208 431/236
f 34/200 54/163 67/165
f 34/200 36/237 54/163
f 30/238 36/237 34/200
f 30/238 25/239 36/237
f 26/240 25/239 30/238
f 26/240 24/112 25/239
f 29/110 24/112 26/240
f 26/240 17/108 29/110
f 380/106 17/108 26/240
f 26/240 372/104 380/106
f 30/238 372/104 26/240
f 30/238 373/102 372/104
f 365/241 373/102 30/238
f 365/241 21/100 373/102
f 22/198 21/100 365/241
f 365/241 30/238 22/198
f 34/200 22/198 30/238
f 25/239 54/163 36/237
f 25/239 57/114 54/163
f 24/112 57/114 25/239
f 197/175 195/171 196/173
f 197/175 204/8 195/171
f 205/5 204/8 197/175
f 190/185 195/171 204/8
f 190/185 189/242 195/171
f 183/186 189/242 190/185
f 183/186 185/170 189/242
f 195/171 189/242 185/170
f 251/220 249/224 250/222
f 251/220 261/15 249/224
f 260/14 249/224 261/15
f 243/217 246/231 244/215
f 243/217 255/11 246/231
f 64/187 432/243 423/189
f 64/187 65/164 432/243
f 428/162 432/243 65/164
f 200/2 203/172 201/3
f 200/2 214/244 203/172
f 199/1 214/244 200/2
f 199/1 215/180 214/244
f 211/178 214/244 215/180
f 211/178 209/245 214/244
f 210/176 209/245 211/178
f 210/176 208/174 209/245
f 214/244 209/245 208/174
f 208/174 203/172 214/244
f 257/221 253/9 252/12
f 257/221 268/246 253/9
f 262/223 268/246 257/221
f 262/223 264/247 268/246
f 263/225 264/247 262/223
f 263/225 265/227 264/247
f 269/229 264/247 265/227
f 269/229 268/246 264/247
f 253/9 268/246 269/229
f 269/229 254/10 253/9
f 367/97 368/248 366/99
f 367/97 384/249 368/248
f 382/250 384/249 367/97
f 382/250 386/251 384/249
f 381/252 386/251 382/250
f 381/252 385/253 386/251
f 378/254 385/253 381/252
f 378/254 369/107 385/253
f 32/91 369/107 378/254
f 378/254 370/93 32/91
f 381/252 370/93 378/254
f 381/252 371/95 370/93
f 382/250 371/95 381/252
f 382/250 367/97 371/95
f 368/248 375/101 366/99
f 368/248 374/103 375/101
f 379/255 374/103 368/248
f 379/255 376/105 374/103
f 377/256 376/105 379/255
f 377/256 369/107 376/105
f 385/253 369/107 377/256
f 377/256 383/257 385/253
f 379/255 383/257 377/256
f 379/255 368/248 383/257
f 384/249 383/257 368/248
f 384/249 386/251 383/257
f 385/253 383/257 386/251
f 69/258 71/259 72/260
f 69/258 68/261 71/259
f 70/262 68/261 69/258
f 70/262 98/263 68/261
f 97/264 98/263 70/262
f 97/264 99/265 98/263
f 88/266 98/263 99/265
f 88/266 68/261 98/263
f 71/259 68/261 88/266
f 88/266 89/267 71/259
f 100/268 89/267 88/266
f 100/268 101/269 89/267
f 90/270 89/267 101/269
f 90/270 73/271 89/267
f 75/272 73/271 90/270
f 75/272 74/273 73/271
f 76/274 74/273 75/272
f 75/272 77/275 76/274
f 91/276 77/275 75/272
f 91/276 92/277 77/275
f 103/22 92/277 91/276
f 103/22 93/39 92/277
f 95/38 92/277 93/39
f 95/38 87/278 92/277
f 84/279 87/278 95/38
f 84/279 85/63 87/278
f 81/280 87/278 85/63
f 81/280 92/277 87/278
f 77/275 92/277 81/280
f 81/280 82/49 77/275
f 85/63 82/49 81/280
f 88/266 99/265 100/268
f 73/271 71/259 89/267
f 73/271 72/260 71/259
f 74/273 72/260 73/271
f 90/270 91/276 75/272
f 90/270 102/281 91/276
f 101/269 102/281 90/270
f 91/276 102/281 103/22
f 77/275 78/282 76/274
f 77/275 132/45 78/282
f 82/49 132/45 77/275
f 70/262 106/283 97/264
f 70/262 114/284 106/283
f 123/285 114/284 70/262
f 70/262 69/258 123/285
f 392/286 389/287 396/288
f 392/286 393/289 389/287
f 391/290 393/289 392/286
f 391/290 390/291 393/289
f 387/292 390/291 391/290
f 387/292 389/287 390/291
f 388/293 389/287 387/292
f 388/293 396/288 389/287
f 397/294 396/288 388/293
f 397/294 398/295 396/288
f 405/296 398/295 397/294
f 405/296 406/297 398/295
f 404/298 406/297 405/296
f 404/298 408/299 406/297
f 407/300 408/299 404/298
f 407/300 400/301 408/299
f 399/302 400/301 407/300
f 399/302 395/303 400/301
f 391/290 395/303 399/302
f 391/290 392/286 395/303
f 393/289 390/291 389/287
f 399/302 387/292 391/290
f 399/302 407/300 387/292
f 401/304 387/292 407/300
f 401/304 403/305 387/292
f 402/306 403/305 401/304
f 402/306 405/296 403/305
f 404/298 405/296 402/306
f 402/306 407/300 404/298
f 401/304 407/300 402/306
f 403/305 388/293 387/292
f 403/305 397/294 388/293
f 405/296 397/294 403/305
f 394/307 400/301 395/303
f 394/307 408/299 400/301
f 406/297 408/299 394/307
f 394/307 398/295 406/297
f 292/308 293/309 291/310
f 292/308 295/311 293/309
f 294/312 295/311 292/308
f 294/312 296/313 295/311
f 298/314 296/313 294/312
f 298/314 300/315 296/313
f 301/316 300/315 298/314
f 301/316 299/317 300/315
f 297/318 299/317 301/316
f 297/318 291/310 299/317
f 292/308 291/310 297/318
f 297/318 298/314 292/308
f 301/316 298/314 297/318
f 298/314 294/312 292/308
f 302/319 299/317 291/310
f 302/319 304/320 299/317
f 303/321 304/320 302/319
f 303/321 300/315 304/320
f 296/313 300/315 303/321
f 303/321 295/311 296/313
f 305/322 295/311 303/321
f 305/322 293/309 295/311
f 302/319 293/309 305/322
f 302/319 291/310 293/309
f 300/315 299/317 304/320
f 305/322 303/321 302/319
usemtl mat_1
f 119/323 117/324 128/325
f 128/326 117/324 126/327
f 126/327 80/328 128/325
f 126/327 78/329 80/328
f 76/330 78/329 126/327
f 80/328 119/323 128/331
f 80/328 79/332 119/323
f 78/329 79/332 80/328
f 78/329 132/333 79/332
f 130/334 79/332 132/333
f 130/334 85/335 79/332
f 129/336 79/332 85/335
f 129/336 121/337 79/332
f 122/338 121/337 129/336
f 129/336 84/339 122/338
f 85/335 84/339 129/336
f 79/332 121/337 119/323
usemtl mat_2
f 109/340 117/341 120/342
f 120/342 105/343 109/344
f 105/343 101/345 109/340
f 105/343 102/346 101/345
f 103/347 102/346 105/343
f 105/343 112/348 103/347
f 121/349 112/348 105/343
f 121/349 122/350 112/348
f 113/351 112/348 122/350
f 113/351 110/352 112/348
f 95/353 110/352 113/351
f 113/351 84/354 95/353
f 122/350 84/354 113/351
f 112/348 110/352 103/347
f 105/343 119/355 121/349
f 105/343 120/356 119/355
f 117/341 119/355 120/356
usemtl mat_3
f 118/357 109/358 108/359
f 118/360 117/361 109/358
f 118/360 116/362 117/361
f 108/359 116/362 118/360
f 108/359 107/363 116/362
f 99/364 107/363 108/359
f 99/364 97/365 107/363
f 106/366 107/363 97/365
f 106/366 115/367 107/363
f 114/368 115/367 106/366
f 114/368 124/369 115/367
f 123/370 124/369 114/368
f 123/370 72/371 124/369
f 69/372 72/371 123/370
f 115/367 116/362 107/363
f 115/367 125/373 116/362
f 124/369 125/373 115/367
f 124/369 74/374 125/373
f 72/371 74/374 124/369
f 76/375 125/373 74/374
f 76/375 126/376 125/373
f 127/377 125/373 126/376
f 126/376 117/361 127/377
f 116/362 127/378 117/361
f 116/362 125/373 127/378
f 108/359 100/379 99/364
f 108/359 109/380 100/379
f 101/381 100/379 109/380
usemtl mat_4
f 137/382 140/383 141/384
f 136/385 137/382 141/384
f 137/382 139/386 140/383
f 137/382 138/387 139/386
f 135/388 138/387 137/382
f 135/388 134/389 138/387
f 136/385 134/389 135/388
f 136/385 142/390 134/389
f 141/384 142/390 136/385
f 137/382 136/385 135/388
usemtl mat_5
f 155/391 160/392 156/393
f 155/391 111/394 160/392
f 158/395 111/394 155/391
f 111/394 162/396 160/392
f 180/392 176/391 175/393
f 180/392 131/394 176/391
f 182/396 131/394 180/392
f 131/394 179/395 176/391
usemtl mat_7
f 336/397 335/398 334/399
f 336/397 340/400 335/398
f 337/401 335/398 340/400
f 392/402 394/403 395/404
f 392/402 398/405 394/403
f 396/406 398/405 392/402
